<?xml version="1.0"?>
<VTKFile type="UnstructuredGrid" byte_order="LittleEndian">
	<UnstructuredGrid>
		<Piece NumberOfPoints="256" NumberOfCells="64">
			<Points>
				<DataArray type="Float64" NumberOfComponents="3" format="ascii">
					-1.000000000000000e+00 1.000000000000000e+00 0.000000000000000e+00
					-9.135224194504830e-01 9.135224194504830e-01 0.000000000000000e+00
					-7.500000000000000e-01 1.218750000000000e+00 0.000000000000000e+00
					-6.851418145878622e-01 1.081002888200483e+00 0.000000000000000e+00
					-9.135224194504830e-01 9.135224194504830e-01 0.000000000000000e+00
					-8.338955762008279e-01 8.338955762008279e-01 0.000000000000000e+00
					-6.851418145878622e-01 1.081002888200483e+00 0.000000000000000e+00
					-6.254216821506209e-01 9.569424512008280e-01 0.000000000000000e+00
					-8.338955762008279e-01 8.338955762008279e-01 0.000000000000000e+00
					-7.611194702510349e-01 7.611194702510349e-01 0.000000000000000e+00
					-6.254216821506209e-01 9.569424512008280e-01 0.000000000000000e+00
					-5.708396026882762e-01 8.465686890010349e-01 0.000000000000000e+00
					-7.611194702510349e-01 7.611194702510349e-01 0.000000000000000e+00
					-6.951941016011038e-01 6.951941016011038e-01 0.000000000000000e+00
					-5.708396026882762e-01 8.465686890010349e-01 0.000000000000000e+00
					-5.213955762008279e-01 7.498816016011038e-01 0.000000000000000e+00
					-6.951941016011038e-01 6.951941016011038e-01 0.000000000000000e+00
					-6.361194702510349e-01 6.361194702510349e-01 0.000000000000000e+00
					-5.213955762008279e-01 7.498816016011038e-01 0.000000000000000e+00
					-4.770896026882761e-01 6.668811890010349e-01 0.000000000000000e+00
					-6.361194702510349e-01 6.361194702510349e-01 0.000000000000000e+00
					-5.838955762008278e-01 5.838955762008278e-01 0.000000000000000e+00
					-4.770896026882761e-01 6.668811890010349e-01 0.000000000000000e+00
					-4.379216821506209e-01 5.975674512008279e-01 0.000000000000000e+00
					-5.838955762008278e-01 5.838955762008278e-01 0.000000000000000e+00
					-5.385224194504830e-01 5.385224194504830e-01 0.000000000000000e+00
					-4.379216821506209e-01 5.975674512008279e-01 0.000000000000000e+00
					-4.038918145878622e-01 5.419403882004830e-01 0.000000000000000e+00
					-5.385224194504830e-01 5.385224194504830e-01 0.000000000000000e+00
					-5.000000000000000e-01 5.000000000000000e-01 0.000000000000000e+00
					-4.038918145878622e-01 5.419403882004830e-01 0.000000000000000e+00
					-3.750000000000000e-01 5.000000000000000e-01 0.000000000000000e+00
					-7.500000000000000e-01 1.218750000000000e+00 0.000000000000000e+00
					-6.851418145878622e-01 1.081002888200483e+00 0.000000000000000e+00
					-5.000000000000000e-01 1.375000000000000e+00 0.000000000000000e+00
					-4.567612097252415e-01 1.200631794450483e+00 0.000000000000000e+00
					-6.851418145878622e-01 1.081002888200483e+00 0.000000000000000e+00
					-6.254216821506209e-01 9.569424512008280e-01 0.000000000000000e+00
					-4.567612097252415e-01 1.200631794450483e+00 0.000000000000000e+00
					-4.169477881004140e-01 1.044833076200828e+00 0.000000000000000e+00
					-6.254216821506209e-01 9.569424512008280e-01 0.000000000000000e+00
					-5.708396026882762e-01 8.465686890010349e-01 0.000000000000000e+00
					-4.169477881004140e-01 1.044833076200828e+00 0.000000000000000e+00
					-3.805597351255174e-01 9.076038452510349e-01 0.000000000000000e+00
					-5.708396026882762e-01 8.465686890010349e-01 0.000000000000000e+00
					-5.213955762008279e-01 7.498816016011038e-01 0.000000000000000e+00
					-3.805597351255174e-01 9.076038452510349e-01 0.000000000000000e+00
					-3.475970508005519e-01 7.889441016011038e-01 0.000000000000000e+00
					-5.213955762008279e-01 7.498816016011038e-01 0.000000000000000e+00
					-4.770896026882761e-01 6.668811890010349e-01 0.000000000000000e+00
					-3.475970508005519e-01 7.889441016011038e-01 0.000000000000000e+00
					-3.180597351255174e-01 6.888538452510349e-01 0.000000000000000e+00
					-4.770896026882761e-01 6.668811890010349e-01 0.000000000000000e+00
					-4.379216821506209e-01 5.975674512008279e-01 0.000000000000000e+00
					-3.180597351255174e-01 6.888538452510349e-01 0.000000000000000e+00
					-2.919477881004139e-01 6.073330762008279e-01 0.000000000000000e+00
					-4.379216821506209e-01 5.975674512008279e-01 0.000000000000000e+00
					-4.038918145878622e-01 5.419403882004830e-01 0.000000000000000e+00
					-2.919477881004139e-01 6.073330762008279e-01 0.000000000000000e+00
					-2.692612097252414e-01 5.443817944504830e-01 0.000000000000000e+00
					-4.038918145878622e-01 5.419403882004830e-01 0.000000000000000e+00
					-3.750000000000000e-01 5.000000000000000e-01 0.000000000000000e+00
					-2.692612097252414e-01 5.443817944504830e-01 0.000000000000000e+00
					-2.500000000000000e-01 5.000000000000000e-01 0.000000000000000e+00
					-5.000000000000000e-01 1.375000000000000e+00 0.000000000000000e+00
					-4.567612097252415e-01 1.200631794450483e+00 0.000000000000000e+00
					-2.500000000000000e-01 1.468750000000000e+00 0.000000000000000e+00
					-2.283806048626207e-01 1.272409138200483e+00 0.000000000000000e+00
					-4.567612097252415e-01 1.200631794450483e+00 0.000000000000000e+00
					-4.169477881004140e-01 1.044833076200828e+00 0.000000000000000e+00
					-2.283806048626207e-01 1.272409138200483e+00 0.000000000000000e+00
					-2.084738940502069e-01 1.097567451200828e+00 0.000000000000000e+00
					-4.169477881004140e-01 1.044833076200828e+00 0.000000000000000e+00
					-3.805597351255174e-01 9.076038452510349e-01 0.000000000000000e+00
					-2.084738940502069e-01 1.097567451200828e+00 0.000000000000000e+00
					-1.902798675627587e-01 9.442249390010349e-01 0.000000000000000e+00
					-3.805597351255174e-01 9.076038452510349e-01 0.000000000000000e+00
					-3.475970508005519e-01 7.889441016011038e-01 0.000000000000000e+00
					-1.902798675627587e-01 9.442249390010349e-01 0.000000000000000e+00
					-1.737985254002759e-01 8.123816016011038e-01 0.000000000000000e+00
					-3.475970508005519e-01 7.889441016011038e-01 0.000000000000000e+00
					-3.180597351255174e-01 6.888538452510349e-01 0.000000000000000e+00
					-1.737985254002759e-01 8.123816016011038e-01 0.000000000000000e+00
					-1.590298675627587e-01 7.020374390010349e-01 0.000000000000000e+00
					-3.180597351255174e-01 6.888538452510349e-01 0.000000000000000e+00
					-2.919477881004139e-01 6.073330762008279e-01 0.000000000000000e+00
					-1.590298675627587e-01 7.020374390010349e-01 0.000000000000000e+00
					-1.459738940502069e-01 6.131924512008279e-01 0.000000000000000e+00
					-2.919477881004139e-01 6.073330762008279e-01 0.000000000000000e+00
					-2.692612097252414e-01 5.443817944504830e-01 0.000000000000000e+00
					-1.459738940502069e-01 6.131924512008279e-01 0.000000000000000e+00
					-1.346306048626207e-01 5.458466382004830e-01 0.000000000000000e+00
					-2.692612097252414e-01 5.443817944504830e-01 0.000000000000000e+00
					-2.500000000000000e-01 5.000000000000000e-01 0.000000000000000e+00
					-1.346306048626207e-01 5.458466382004830e-01 0.000000000000000e+00
					-1.250000000000000e-01 5.000000000000000e-01 0.000000000000000e+00
					-2.500000000000000e-01 1.468750000000000e+00 0.000000000000000e+00
					-2.283806048626207e-01 1.272409138200483e+00 0.000000000000000e+00
					0.000000000000000e+00 1.500000000000000e+00 0.000000000000000e+00
					4.857225732735060e-17 1.296334919450483e+00 0.000000000000000e+00
					-2.283806048626207e-01 1.272409138200483e+00 0.000000000000000e+00
					-2.084738940502069e-01 1.097567451200828e+00 0.000000000000000e+00
					4.857225732735060e-17 1.296334919450483e+00 0.000000000000000e+00
					3.469446951953614e-17 1.115145576200828e+00 0.000000000000000e+00
					-2.084738940502069e-01 1.097567451200828e+00 0.000000000000000e+00
					-1.902798675627587e-01 9.442249390010349e-01 0.000000000000000e+00
					3.469446951953614e-17 1.115145576200828e+00 0.000000000000000e+00
					4.163336342344337e-17 9.564319702510349e-01 0.000000000000000e+00
					-1.902798675627587e-01 9.442249390010349e-01 0.000000000000000e+00
					-1.737985254002759e-01 8.123816016011038e-01 0.000000000000000e+00
					4.163336342344337e-17 9.564319702510349e-01 0.000000000000000e+00
					4.163336342344337e-17 8.201941016011038e-01 0.000000000000000e+00
					-1.737985254002759e-01 8.123816016011038e-01 0.000000000000000e+00
					-1.590298675627587e-01 7.020374390010349e-01 0.000000000000000e+00
					4.163336342344337e-17 8.201941016011038e-01 0.000000000000000e+00
					3.816391647148976e-17 7.064319702510349e-01 0.000000000000000e+00
					-1.590298675627587e-01 7.020374390010349e-01 0.000000000000000e+00
					-1.459738940502069e-01 6.131924512008279e-01 0.000000000000000e+00
					3.816391647148976e-17 7.064319702510349e-01 0.000000000000000e+00
					2.428612866367530e-17 6.151455762008279e-01 0.000000000000000e+00
					-1.459738940502069e-01 6.131924512008279e-01 0.000000000000000e+00
					-1.346306048626207e-01 5.458466382004830e-01 0.000000000000000e+00
					2.428612866367530e-17 6.151455762008279e-01 0.000000000000000e+00
					2.428612866367530e-17 5.463349194504830e-01 0.000000000000000e+00
					-1.346306048626207e-01 5.458466382004830e-01 0.000000000000000e+00
					-1.250000000000000e-01 5.000000000000000e-01 0.000000000000000e+00
					2.428612866367530e-17 5.463349194504830e-01 0.000000000000000e+00
					0.000000000000000e+00 5.000000000000000e-01 0.000000000000000e+00
					0.000000000000000e+00 1.500000000000000e+00 0.000000000000000e+00
					4.857225732735060e-17 1.296334919450483e+00 0.000000000000000e+00
					2.500000000000000e-01 1.468750000000000e+00 0.000000000000000e+00
					2.283806048626208e-01 1.272409138200483e+00 0.000000000000000e+00
					4.857225732735060e-17 1.296334919450483e+00 0.000000000000000e+00
					3.469446951953614e-17 1.115145576200828e+00 0.000000000000000e+00
					2.283806048626208e-01 1.272409138200483e+00 0.000000000000000e+00
					2.084738940502070e-01 1.097567451200828e+00 0.000000000000000e+00
					3.469446951953614e-17 1.115145576200828e+00 0.000000000000000e+00
					4.163336342344337e-17 9.564319702510349e-01 0.000000000000000e+00
					2.084738940502070e-01 1.097567451200828e+00 0.000000000000000e+00
					1.902798675627588e-01 9.442249390010349e-01 0.000000000000000e+00
					4.163336342344337e-17 9.564319702510349e-01 0.000000000000000e+00
					4.163336342344337e-17 8.201941016011038e-01 0.000000000000000e+00
					1.902798675627588e-01 9.442249390010349e-01 0.000000000000000e+00
					1.737985254002760e-01 8.123816016011038e-01 0.000000000000000e+00
					4.163336342344337e-17 8.201941016011038e-01 0.000000000000000e+00
					3.816391647148976e-17 7.064319702510349e-01 0.000000000000000e+00
					1.737985254002760e-01 8.123816016011038e-01 0.000000000000000e+00
					1.590298675627588e-01 7.020374390010349e-01 0.000000000000000e+00
					3.816391647148976e-17 7.064319702510349e-01 0.000000000000000e+00
					2.428612866367530e-17 6.151455762008279e-01 0.000000000000000e+00
					1.590298675627588e-01 7.020374390010349e-01 0.000000000000000e+00
					1.459738940502070e-01 6.131924512008278e-01 0.000000000000000e+00
					2.428612866367530e-17 6.151455762008279e-01 0.000000000000000e+00
					2.428612866367530e-17 5.463349194504830e-01 0.000000000000000e+00
					1.459738940502070e-01 6.131924512008278e-01 0.000000000000000e+00
					1.346306048626208e-01 5.458466382004830e-01 0.000000000000000e+00
					2.428612866367530e-17 5.463349194504830e-01 0.000000000000000e+00
					0.000000000000000e+00 5.000000000000000e-01 0.000000000000000e+00
					1.346306048626208e-01 5.458466382004830e-01 0.000000000000000e+00
					1.250000000000000e-01 5.000000000000000e-01 0.000000000000000e+00
					2.500000000000000e-01 1.468750000000000e+00 0.000000000000000e+00
					2.283806048626208e-01 1.272409138200483e+00 0.000000000000000e+00
					5.000000000000000e-01 1.375000000000000e+00 0.000000000000000e+00
					4.567612097252415e-01 1.200631794450483e+00 0.000000000000000e+00
					2.283806048626208e-01 1.272409138200483e+00 0.000000000000000e+00
					2.084738940502070e-01 1.097567451200828e+00 0.000000000000000e+00
					4.567612097252415e-01 1.200631794450483e+00 0.000000000000000e+00
					4.169477881004139e-01 1.044833076200828e+00 0.000000000000000e+00
					2.084738940502070e-01 1.097567451200828e+00 0.000000000000000e+00
					1.902798675627588e-01 9.442249390010349e-01 0.000000000000000e+00
					4.169477881004139e-01 1.044833076200828e+00 0.000000000000000e+00
					3.805597351255174e-01 9.076038452510349e-01 0.000000000000000e+00
					1.902798675627588e-01 9.442249390010349e-01 0.000000000000000e+00
					1.737985254002760e-01 8.123816016011038e-01 0.000000000000000e+00
					3.805597351255174e-01 9.076038452510349e-01 0.000000000000000e+00
					3.475970508005520e-01 7.889441016011038e-01 0.000000000000000e+00
					1.737985254002760e-01 8.123816016011038e-01 0.000000000000000e+00
					1.590298675627588e-01 7.020374390010349e-01 0.000000000000000e+00
					3.475970508005520e-01 7.889441016011038e-01 0.000000000000000e+00
					3.180597351255175e-01 6.888538452510349e-01 0.000000000000000e+00
					1.590298675627588e-01 7.020374390010349e-01 0.000000000000000e+00
					1.459738940502070e-01 6.131924512008278e-01 0.000000000000000e+00
					3.180597351255175e-01 6.888538452510349e-01 0.000000000000000e+00
					2.919477881004140e-01 6.073330762008278e-01 0.000000000000000e+00
					1.459738940502070e-01 6.131924512008278e-01 0.000000000000000e+00
					1.346306048626208e-01 5.458466382004830e-01 0.000000000000000e+00
					2.919477881004140e-01 6.073330762008278e-01 0.000000000000000e+00
					2.692612097252415e-01 5.443817944504830e-01 0.000000000000000e+00
					1.346306048626208e-01 5.458466382004830e-01 0.000000000000000e+00
					1.250000000000000e-01 5.000000000000000e-01 0.000000000000000e+00
					2.692612097252415e-01 5.443817944504830e-01 0.000000000000000e+00
					2.500000000000000e-01 5.000000000000000e-01 0.000000000000000e+00
					5.000000000000000e-01 1.375000000000000e+00 0.000000000000000e+00
					4.567612097252415e-01 1.200631794450483e+00 0.000000000000000e+00
					7.500000000000000e-01 1.218750000000000e+00 0.000000000000000e+00
					6.851418145878622e-01 1.081002888200483e+00 0.000000000000000e+00
					4.567612097252415e-01 1.200631794450483e+00 0.000000000000000e+00
					4.169477881004139e-01 1.044833076200828e+00 0.000000000000000e+00
					6.851418145878622e-01 1.081002888200483e+00 0.000000000000000e+00
					6.254216821506209e-01 9.569424512008279e-01 0.000000000000000e+00
					4.169477881004139e-01 1.044833076200828e+00 0.000000000000000e+00
					3.805597351255174e-01 9.076038452510349e-01 0.000000000000000e+00
					6.254216821506209e-01 9.569424512008279e-01 0.000000000000000e+00
					5.708396026882763e-01 8.465686890010349e-01 0.000000000000000e+00
					3.805597351255174e-01 9.076038452510349e-01 0.000000000000000e+00
					3.475970508005520e-01 7.889441016011038e-01 0.000000000000000e+00
					5.708396026882763e-01 8.465686890010349e-01 0.000000000000000e+00
					5.213955762008280e-01 7.498816016011038e-01 0.000000000000000e+00
					3.475970508005520e-01 7.889441016011038e-01 0.000000000000000e+00
					3.180597351255175e-01 6.888538452510349e-01 0.000000000000000e+00
					5.213955762008280e-01 7.498816016011038e-01 0.000000000000000e+00
					4.770896026882762e-01 6.668811890010349e-01 0.000000000000000e+00
					3.180597351255175e-01 6.888538452510349e-01 0.000000000000000e+00
					2.919477881004140e-01 6.073330762008278e-01 0.000000000000000e+00
					4.770896026882762e-01 6.668811890010349e-01 0.000000000000000e+00
					4.379216821506209e-01 5.975674512008278e-01 0.000000000000000e+00
					2.919477881004140e-01 6.073330762008278e-01 0.000000000000000e+00
					2.692612097252415e-01 5.443817944504830e-01 0.000000000000000e+00
					4.379216821506209e-01 5.975674512008278e-01 0.000000000000000e+00
					4.038918145878622e-01 5.419403882004830e-01 0.000000000000000e+00
					2.692612097252415e-01 5.443817944504830e-01 0.000000000000000e+00
					2.500000000000000e-01 5.000000000000000e-01 0.000000000000000e+00
					4.038918145878622e-01 5.419403882004830e-01 0.000000000000000e+00
					3.750000000000000e-01 5.000000000000000e-01 0.000000000000000e+00
					7.500000000000000e-01 1.218750000000000e+00 0.000000000000000e+00
					6.851418145878622e-01 1.081002888200483e+00 0.000000000000000e+00
					1.000000000000000e+00 1.000000000000000e+00 0.000000000000000e+00
					9.135224194504830e-01 9.135224194504830e-01 0.000000000000000e+00
					6.851418145878622e-01 1.081002888200483e+00 0.000000000000000e+00
					6.254216821506209e-01 9.569424512008279e-01 0.000000000000000e+00
					9.135224194504830e-01 9.135224194504830e-01 0.000000000000000e+00
					8.338955762008279e-01 8.338955762008279e-01 0.000000000000000e+00
					6.254216821506209e-01 9.569424512008279e-01 0.000000000000000e+00
					5.708396026882763e-01 8.465686890010349e-01 0.000000000000000e+00
					8.338955762008279e-01 8.338955762008279e-01 0.000000000000000e+00
					7.611194702510349e-01 7.611194702510349e-01 0.000000000000000e+00
					5.708396026882763e-01 8.465686890010349e-01 0.000000000000000e+00
					5.213955762008280e-01 7.498816016011038e-01 0.000000000000000e+00
					7.611194702510349e-01 7.611194702510349e-01 0.000000000000000e+00
					6.951941016011038e-01 6.951941016011038e-01 0.000000000000000e+00
					5.213955762008280e-01 7.498816016011038e-01 0.000000000000000e+00
					4.770896026882762e-01 6.668811890010349e-01 0.000000000000000e+00
					6.951941016011038e-01 6.951941016011038e-01 0.000000000000000e+00
					6.361194702510349e-01 6.361194702510349e-01 0.000000000000000e+00
					4.770896026882762e-01 6.668811890010349e-01 0.000000000000000e+00
					4.379216821506209e-01 5.975674512008278e-01 0.000000000000000e+00
					6.361194702510349e-01 6.361194702510349e-01 0.000000000000000e+00
					5.838955762008278e-01 5.838955762008278e-01 0.000000000000000e+00
					4.379216821506209e-01 5.975674512008278e-01 0.000000000000000e+00
					4.038918145878622e-01 5.419403882004830e-01 0.000000000000000e+00
					5.838955762008278e-01 5.838955762008278e-01 0.000000000000000e+00
					5.385224194504830e-01 5.385224194504830e-01 0.000000000000000e+00
					4.038918145878622e-01 5.419403882004830e-01 0.000000000000000e+00
					3.750000000000000e-01 5.000000000000000e-01 0.000000000000000e+00
					5.385224194504830e-01 5.385224194504830e-01 0.000000000000000e+00
					5.000000000000000e-01 5.000000000000000e-01 0.000000000000000e+00
				</DataArray>
			</Points>
			<Cells>
				<DataArray Name="connectivity" type="UInt32" format="ascii">
					0 1 3 2 4 5 7 6 8 9 11 10 12 13 15 14 16 17 19 18 20 21 23 22 24 25 27 26 28 29 31 30 32 33 35 34 36 37 39 38 40 41 43 42 44 45 47 46 48 49 51 50 52 53 55 54 56 57 59 58 60 61 63 62 64 65 67 66 68 69 71 70 72 73 75 74 76 77 79 78 80 81 83 82 84 85 87 86 88 89 91 90 92 93 95 94 96 97 99 98 100 101 103 102 104 105 107 106 108 109 111 110 112 113 115 114 116 117 119 118 120 121 123 122 124 125 127 126 128 129 131 130 132 133 135 134 136 137 139 138 140 141 143 142 144 145 147 146 148 149 151 150 152 153 155 154 156 157 159 158 160 161 163 162 164 165 167 166 168 169 171 170 172 173 175 174 176 177 179 178 180 181 183 182 184 185 187 186 188 189 191 190 192 193 195 194 196 197 199 198 200 201 203 202 204 205 207 206 208 209 211 210 212 213 215 214 216 217 219 218 220 221 223 222 224 225 227 226 228 229 231 230 232 233 235 234 236 237 239 238 240 241 243 242 244 245 247 246 248 249 251 250 252 253 255 254 
				</DataArray>
				<DataArray Name="offsets" type="UInt32" format="ascii">
					4 8 12 16 20 24 28 32 36 40 44 48 52 56 60 64 68 72 76 80 84 88 92 96 100 104 108 112 116 120 124 128 132 136 140 144 148 152 156 160 164 168 172 176 180 184 188 192 196 200 204 208 212 216 220 224 228 232 236 240 244 248 252 256 
				</DataArray>
				<DataArray Name="types" type="UInt8" format="ascii">
					9 9 9 9 9 9 9 9 9 9 9 9 9 9 9 9 9 9 9 9 9 9 9 9 9 9 9 9 9 9 9 9 9 9 9 9 9 9 9 9 9 9 9 9 9 9 9 9 9 9 9 9 9 9 9 9 9 9 9 9 9 9 9 9 
				</DataArray>
			</Cells>
			<PointData Vectors="solution ">
				<DataArray Name="solution" type="Float64" NumberOfComponents="1" format="ascii">
					0.000000000000000e+00 3.243265429028851e-02 0.000000000000000e+00 1.114563118441066e-01 3.243265429028851e-02 3.683151356666404e-01 1.114563118441067e-01 1.081464224701282e+00 3.683151356666405e-01 1.316972727925848e+00 1.081464224701282e+00 3.367564719940951e+00 1.316972727925849e+00 2.935878392748276e+00 3.367564719940952e+00 6.605903434831985e+00 2.935878392748277e+00 5.060265046831923e+00 6.605903434831989e+00 1.013631861558950e+01 5.060265046831925e+00 7.429208852138351e+00 1.013631861558951e+01 1.342966455608807e+01 7.429208852138351e+00 9.788732624687457e+00 1.342966455608807e+01 1.621162707435113e+01 9.788732624687460e+00 1.194495540277639e+01 1.621162707435114e+01 1.841441991535388e+01 0.000000000000000e+00 1.114563118441067e-01 0.000000000000000e+00 2.844372357260847e-01 1.114563118441067e-01 1.081464224701282e+00 2.844372357260847e-01 2.367597909640137e+00 1.081464224701282e+00 3.367564719940951e+00 2.367597909640137e+00 6.684694359663335e+00 3.367564719940952e+00 6.605903434831986e+00 6.684694359663338e+00 1.201753169700295e+01 6.605903434831989e+00 1.013631861558950e+01 1.201753169700296e+01 1.701849437958461e+01 1.013631861558951e+01 1.342966455608807e+01 1.701849437958462e+01 2.098632607779917e+01 1.342966455608807e+01 1.621162707435113e+01 2.098632607779917e+01 2.382240887728771e+01 1.621162707435114e+01 1.841441991535388e+01 2.382240887728771e+01 2.573576872371695e+01 0.000000000000000e+00 2.844372357260848e-01 0.000000000000000e+00 5.589348399703192e-01 2.844372357260848e-01 2.367597909640137e+00 5.589348399703192e-01 4.075136751659453e+00 2.367597909640138e+00 6.684694359663336e+00 4.075136751659453e+00 1.074800531961115e+01 6.684694359663339e+00 1.201753169700296e+01 1.074800531961115e+01 1.825440663719425e+01 1.201753169700296e+01 1.701849437958461e+01 1.825440663719426e+01 2.454466186080445e+01 1.701849437958462e+01 2.098632607779917e+01 2.454466186080445e+01 2.889195546853727e+01 2.098632607779917e+01 2.382240887728771e+01 2.889195546853727e+01 3.151155965082555e+01 2.382240887728771e+01 2.573576872371695e+01 3.151155965082556e+01 3.295020442370344e+01 0.000000000000000e+00 5.589348399703193e-01 0.000000000000000e+00 8.199837898787639e-01 5.589348399703193e-01 4.075136751659454e+00 8.199837898787639e-01 5.605971764337204e+00 4.075136751659455e+00 1.074800531961115e+01 5.605971764337205e+00 1.426835894069033e+01 1.074800531961115e+01 1.825440663719426e+01 1.426835894069033e+01 2.352371730638790e+01 1.825440663719426e+01 2.454466186080445e+01 2.352371730638791e+01 3.079290684988595e+01 2.454466186080446e+01 2.889195546853727e+01 3.079290684988596e+01 3.538959669410508e+01 2.889195546853728e+01 3.151155965082556e+01 3.538959669410508e+01 3.780918279575292e+01 3.151155965082557e+01 3.295020442370345e+01 3.780918279575292e+01 3.886559191004775e+01 0.000000000000000e+00 8.199837898787643e-01 0.000000000000000e+00 8.827403160744058e-01 8.199837898787643e-01 5.605971764337205e+00 8.827403160744058e-01 6.183555317424636e+00 5.605971764337207e+00 1.426835894069033e+01 6.183555317424639e+00 1.572555882132183e+01 1.426835894069034e+01 2.352371730638791e+01 1.572555882132184e+01 2.584211858949182e+01 2.352371730638792e+01 3.079290684988596e+01 2.584211858949183e+01 3.373566195323546e+01 3.079290684988596e+01 3.538959669410509e+01 3.373566195323547e+01 3.868730964241152e+01 3.538959669410509e+01 3.780918279575292e+01 3.868730964241153e+01 4.124855248976815e+01 3.780918279575293e+01 3.886559191004776e+01 4.124855248976816e+01 4.230890774716688e+01 0.000000000000000e+00 8.827403160744062e-01 0.000000000000000e+00 7.092473570144666e-01 8.827403160744062e-01 6.183555317424639e+00 7.092473570144666e-01 5.451107328179707e+00 6.183555317424641e+00 1.572555882132184e+01 5.451107328179709e+00 1.430987230293117e+01 1.572555882132184e+01 2.584211858949183e+01 1.430987230293118e+01 2.408439912350412e+01 2.584211858949184e+01 3.373566195323547e+01 2.408439912350413e+01 3.215032425062920e+01 3.373566195323548e+01 3.868730964241153e+01 3.215032425062922e+01 3.762873758371794e+01 3.868730964241153e+01 4.124855248976816e+01 3.762873758371794e+01 4.081909120100624e+01 4.124855248976817e+01 4.230890774716691e+01 4.081909120100625e+01 4.243112714452909e+01 0.000000000000000e+00 7.092473570144666e-01 0.000000000000000e+00 4.388177393966043e-01 7.092473570144666e-01 5.451107328179708e+00 4.388177393966043e-01 3.777977405686798e+00 5.451107328179710e+00 1.430987230293117e+01 3.777977405686799e+00 1.054732560641520e+01 1.430987230293118e+01 2.408439912350412e+01 1.054732560641521e+01 1.874181578437853e+01 2.408439912350413e+01 3.215032425062920e+01 1.874181578437853e+01 2.631939958793686e+01 3.215032425062922e+01 3.762873758371794e+01 2.631939958793686e+01 3.224331706860168e+01 3.762873758371794e+01 4.081909120100624e+01 3.224331706860168e+01 3.636159450829371e+01 4.081909120100626e+01 4.243112714452909e+01 3.636159450829371e+01 3.898334118744614e+01 0.000000000000000e+00 4.388177393966044e-01 0.000000000000000e+00 2.015700571848532e-01 4.388177393966044e-01 3.777977405686798e+00 2.015700571848532e-01 1.952322187562996e+00 3.777977405686800e+00 1.054732560641520e+01 1.952322187562996e+00 6.035021448598353e+00 1.054732560641521e+01 1.874181578437853e+01 6.035021448598355e+00 1.179172658211789e+01 1.874181578437854e+01 2.631939958793686e+01 1.179172658211789e+01 1.805921933275922e+01 2.631939958793687e+01 3.224331706860168e+01 1.805921933275922e+01 2.388403492197469e+01 3.224331706860168e+01 3.636159450829371e+01 2.388403492197470e+01 2.873962315848523e+01 3.636159450829373e+01 3.898334118744614e+01 2.873962315848524e+01 3.246976087862438e+01 
				</DataArray>
			</PointData>
			<CellData>
			</CellData>
		</Piece>
	</UnstructuredGrid>
</VTKFile>