<?xml version="1.0"?>
<VTKFile type="UnstructuredGrid" byte_order="LittleEndian">
	<UnstructuredGrid>
		<Piece NumberOfPoints="256" NumberOfCells="64">
			<Points>
				<DataArray type="Float64" NumberOfComponents="3" format="ascii">
					-1.000000000000000e+00 1.000000000000000e+00 0.000000000000000e+00
					-9.135224194504830e-01 9.135224194504830e-01 0.000000000000000e+00
					-7.500000000000000e-01 1.218750000000000e+00 0.000000000000000e+00
					-6.851418145878622e-01 1.081002888200483e+00 0.000000000000000e+00
					-9.135224194504830e-01 9.135224194504830e-01 0.000000000000000e+00
					-8.338955762008279e-01 8.338955762008279e-01 0.000000000000000e+00
					-6.851418145878622e-01 1.081002888200483e+00 0.000000000000000e+00
					-6.254216821506209e-01 9.569424512008280e-01 0.000000000000000e+00
					-8.338955762008279e-01 8.338955762008279e-01 0.000000000000000e+00
					-7.611194702510349e-01 7.611194702510349e-01 0.000000000000000e+00
					-6.254216821506209e-01 9.569424512008280e-01 0.000000000000000e+00
					-5.708396026882762e-01 8.465686890010349e-01 0.000000000000000e+00
					-7.611194702510349e-01 7.611194702510349e-01 0.000000000000000e+00
					-6.951941016011038e-01 6.951941016011038e-01 0.000000000000000e+00
					-5.708396026882762e-01 8.465686890010349e-01 0.000000000000000e+00
					-5.213955762008279e-01 7.498816016011038e-01 0.000000000000000e+00
					-6.951941016011038e-01 6.951941016011038e-01 0.000000000000000e+00
					-6.361194702510349e-01 6.361194702510349e-01 0.000000000000000e+00
					-5.213955762008279e-01 7.498816016011038e-01 0.000000000000000e+00
					-4.770896026882761e-01 6.668811890010349e-01 0.000000000000000e+00
					-6.361194702510349e-01 6.361194702510349e-01 0.000000000000000e+00
					-5.838955762008278e-01 5.838955762008278e-01 0.000000000000000e+00
					-4.770896026882761e-01 6.668811890010349e-01 0.000000000000000e+00
					-4.379216821506209e-01 5.975674512008279e-01 0.000000000000000e+00
					-5.838955762008278e-01 5.838955762008278e-01 0.000000000000000e+00
					-5.385224194504830e-01 5.385224194504830e-01 0.000000000000000e+00
					-4.379216821506209e-01 5.975674512008279e-01 0.000000000000000e+00
					-4.038918145878622e-01 5.419403882004830e-01 0.000000000000000e+00
					-5.385224194504830e-01 5.385224194504830e-01 0.000000000000000e+00
					-5.000000000000000e-01 5.000000000000000e-01 0.000000000000000e+00
					-4.038918145878622e-01 5.419403882004830e-01 0.000000000000000e+00
					-3.750000000000000e-01 5.000000000000000e-01 0.000000000000000e+00
					-7.500000000000000e-01 1.218750000000000e+00 0.000000000000000e+00
					-6.851418145878622e-01 1.081002888200483e+00 0.000000000000000e+00
					-5.000000000000000e-01 1.375000000000000e+00 0.000000000000000e+00
					-4.567612097252415e-01 1.200631794450483e+00 0.000000000000000e+00
					-6.851418145878622e-01 1.081002888200483e+00 0.000000000000000e+00
					-6.254216821506209e-01 9.569424512008280e-01 0.000000000000000e+00
					-4.567612097252415e-01 1.200631794450483e+00 0.000000000000000e+00
					-4.169477881004140e-01 1.044833076200828e+00 0.000000000000000e+00
					-6.254216821506209e-01 9.569424512008280e-01 0.000000000000000e+00
					-5.708396026882762e-01 8.465686890010349e-01 0.000000000000000e+00
					-4.169477881004140e-01 1.044833076200828e+00 0.000000000000000e+00
					-3.805597351255174e-01 9.076038452510349e-01 0.000000000000000e+00
					-5.708396026882762e-01 8.465686890010349e-01 0.000000000000000e+00
					-5.213955762008279e-01 7.498816016011038e-01 0.000000000000000e+00
					-3.805597351255174e-01 9.076038452510349e-01 0.000000000000000e+00
					-3.475970508005519e-01 7.889441016011038e-01 0.000000000000000e+00
					-5.213955762008279e-01 7.498816016011038e-01 0.000000000000000e+00
					-4.770896026882761e-01 6.668811890010349e-01 0.000000000000000e+00
					-3.475970508005519e-01 7.889441016011038e-01 0.000000000000000e+00
					-3.180597351255174e-01 6.888538452510349e-01 0.000000000000000e+00
					-4.770896026882761e-01 6.668811890010349e-01 0.000000000000000e+00
					-4.379216821506209e-01 5.975674512008279e-01 0.000000000000000e+00
					-3.180597351255174e-01 6.888538452510349e-01 0.000000000000000e+00
					-2.919477881004139e-01 6.073330762008279e-01 0.000000000000000e+00
					-4.379216821506209e-01 5.975674512008279e-01 0.000000000000000e+00
					-4.038918145878622e-01 5.419403882004830e-01 0.000000000000000e+00
					-2.919477881004139e-01 6.073330762008279e-01 0.000000000000000e+00
					-2.692612097252414e-01 5.443817944504830e-01 0.000000000000000e+00
					-4.038918145878622e-01 5.419403882004830e-01 0.000000000000000e+00
					-3.750000000000000e-01 5.000000000000000e-01 0.000000000000000e+00
					-2.692612097252414e-01 5.443817944504830e-01 0.000000000000000e+00
					-2.500000000000000e-01 5.000000000000000e-01 0.000000000000000e+00
					-5.000000000000000e-01 1.375000000000000e+00 0.000000000000000e+00
					-4.567612097252415e-01 1.200631794450483e+00 0.000000000000000e+00
					-2.500000000000000e-01 1.468750000000000e+00 0.000000000000000e+00
					-2.283806048626207e-01 1.272409138200483e+00 0.000000000000000e+00
					-4.567612097252415e-01 1.200631794450483e+00 0.000000000000000e+00
					-4.169477881004140e-01 1.044833076200828e+00 0.000000000000000e+00
					-2.283806048626207e-01 1.272409138200483e+00 0.000000000000000e+00
					-2.084738940502069e-01 1.097567451200828e+00 0.000000000000000e+00
					-4.169477881004140e-01 1.044833076200828e+00 0.000000000000000e+00
					-3.805597351255174e-01 9.076038452510349e-01 0.000000000000000e+00
					-2.084738940502069e-01 1.097567451200828e+00 0.000000000000000e+00
					-1.902798675627587e-01 9.442249390010349e-01 0.000000000000000e+00
					-3.805597351255174e-01 9.076038452510349e-01 0.000000000000000e+00
					-3.475970508005519e-01 7.889441016011038e-01 0.000000000000000e+00
					-1.902798675627587e-01 9.442249390010349e-01 0.000000000000000e+00
					-1.737985254002759e-01 8.123816016011038e-01 0.000000000000000e+00
					-3.475970508005519e-01 7.889441016011038e-01 0.000000000000000e+00
					-3.180597351255174e-01 6.888538452510349e-01 0.000000000000000e+00
					-1.737985254002759e-01 8.123816016011038e-01 0.000000000000000e+00
					-1.590298675627587e-01 7.020374390010349e-01 0.000000000000000e+00
					-3.180597351255174e-01 6.888538452510349e-01 0.000000000000000e+00
					-2.919477881004139e-01 6.073330762008279e-01 0.000000000000000e+00
					-1.590298675627587e-01 7.020374390010349e-01 0.000000000000000e+00
					-1.459738940502069e-01 6.131924512008279e-01 0.000000000000000e+00
					-2.919477881004139e-01 6.073330762008279e-01 0.000000000000000e+00
					-2.692612097252414e-01 5.443817944504830e-01 0.000000000000000e+00
					-1.459738940502069e-01 6.131924512008279e-01 0.000000000000000e+00
					-1.346306048626207e-01 5.458466382004830e-01 0.000000000000000e+00
					-2.692612097252414e-01 5.443817944504830e-01 0.000000000000000e+00
					-2.500000000000000e-01 5.000000000000000e-01 0.000000000000000e+00
					-1.346306048626207e-01 5.458466382004830e-01 0.000000000000000e+00
					-1.250000000000000e-01 5.000000000000000e-01 0.000000000000000e+00
					-2.500000000000000e-01 1.468750000000000e+00 0.000000000000000e+00
					-2.283806048626207e-01 1.272409138200483e+00 0.000000000000000e+00
					0.000000000000000e+00 1.500000000000000e+00 0.000000000000000e+00
					4.857225732735060e-17 1.296334919450483e+00 0.000000000000000e+00
					-2.283806048626207e-01 1.272409138200483e+00 0.000000000000000e+00
					-2.084738940502069e-01 1.097567451200828e+00 0.000000000000000e+00
					4.857225732735060e-17 1.296334919450483e+00 0.000000000000000e+00
					3.469446951953614e-17 1.115145576200828e+00 0.000000000000000e+00
					-2.084738940502069e-01 1.097567451200828e+00 0.000000000000000e+00
					-1.902798675627587e-01 9.442249390010349e-01 0.000000000000000e+00
					3.469446951953614e-17 1.115145576200828e+00 0.000000000000000e+00
					4.163336342344337e-17 9.564319702510349e-01 0.000000000000000e+00
					-1.902798675627587e-01 9.442249390010349e-01 0.000000000000000e+00
					-1.737985254002759e-01 8.123816016011038e-01 0.000000000000000e+00
					4.163336342344337e-17 9.564319702510349e-01 0.000000000000000e+00
					4.163336342344337e-17 8.201941016011038e-01 0.000000000000000e+00
					-1.737985254002759e-01 8.123816016011038e-01 0.000000000000000e+00
					-1.590298675627587e-01 7.020374390010349e-01 0.000000000000000e+00
					4.163336342344337e-17 8.201941016011038e-01 0.000000000000000e+00
					3.816391647148976e-17 7.064319702510349e-01 0.000000000000000e+00
					-1.590298675627587e-01 7.020374390010349e-01 0.000000000000000e+00
					-1.459738940502069e-01 6.131924512008279e-01 0.000000000000000e+00
					3.816391647148976e-17 7.064319702510349e-01 0.000000000000000e+00
					2.428612866367530e-17 6.151455762008279e-01 0.000000000000000e+00
					-1.459738940502069e-01 6.131924512008279e-01 0.000000000000000e+00
					-1.346306048626207e-01 5.458466382004830e-01 0.000000000000000e+00
					2.428612866367530e-17 6.151455762008279e-01 0.000000000000000e+00
					2.428612866367530e-17 5.463349194504830e-01 0.000000000000000e+00
					-1.346306048626207e-01 5.458466382004830e-01 0.000000000000000e+00
					-1.250000000000000e-01 5.000000000000000e-01 0.000000000000000e+00
					2.428612866367530e-17 5.463349194504830e-01 0.000000000000000e+00
					0.000000000000000e+00 5.000000000000000e-01 0.000000000000000e+00
					0.000000000000000e+00 1.500000000000000e+00 0.000000000000000e+00
					4.857225732735060e-17 1.296334919450483e+00 0.000000000000000e+00
					2.500000000000000e-01 1.468750000000000e+00 0.000000000000000e+00
					2.283806048626208e-01 1.272409138200483e+00 0.000000000000000e+00
					4.857225732735060e-17 1.296334919450483e+00 0.000000000000000e+00
					3.469446951953614e-17 1.115145576200828e+00 0.000000000000000e+00
					2.283806048626208e-01 1.272409138200483e+00 0.000000000000000e+00
					2.084738940502070e-01 1.097567451200828e+00 0.000000000000000e+00
					3.469446951953614e-17 1.115145576200828e+00 0.000000000000000e+00
					4.163336342344337e-17 9.564319702510349e-01 0.000000000000000e+00
					2.084738940502070e-01 1.097567451200828e+00 0.000000000000000e+00
					1.902798675627588e-01 9.442249390010349e-01 0.000000000000000e+00
					4.163336342344337e-17 9.564319702510349e-01 0.000000000000000e+00
					4.163336342344337e-17 8.201941016011038e-01 0.000000000000000e+00
					1.902798675627588e-01 9.442249390010349e-01 0.000000000000000e+00
					1.737985254002760e-01 8.123816016011038e-01 0.000000000000000e+00
					4.163336342344337e-17 8.201941016011038e-01 0.000000000000000e+00
					3.816391647148976e-17 7.064319702510349e-01 0.000000000000000e+00
					1.737985254002760e-01 8.123816016011038e-01 0.000000000000000e+00
					1.590298675627588e-01 7.020374390010349e-01 0.000000000000000e+00
					3.816391647148976e-17 7.064319702510349e-01 0.000000000000000e+00
					2.428612866367530e-17 6.151455762008279e-01 0.000000000000000e+00
					1.590298675627588e-01 7.020374390010349e-01 0.000000000000000e+00
					1.459738940502070e-01 6.131924512008278e-01 0.000000000000000e+00
					2.428612866367530e-17 6.151455762008279e-01 0.000000000000000e+00
					2.428612866367530e-17 5.463349194504830e-01 0.000000000000000e+00
					1.459738940502070e-01 6.131924512008278e-01 0.000000000000000e+00
					1.346306048626208e-01 5.458466382004830e-01 0.000000000000000e+00
					2.428612866367530e-17 5.463349194504830e-01 0.000000000000000e+00
					0.000000000000000e+00 5.000000000000000e-01 0.000000000000000e+00
					1.346306048626208e-01 5.458466382004830e-01 0.000000000000000e+00
					1.250000000000000e-01 5.000000000000000e-01 0.000000000000000e+00
					2.500000000000000e-01 1.468750000000000e+00 0.000000000000000e+00
					2.283806048626208e-01 1.272409138200483e+00 0.000000000000000e+00
					5.000000000000000e-01 1.375000000000000e+00 0.000000000000000e+00
					4.567612097252415e-01 1.200631794450483e+00 0.000000000000000e+00
					2.283806048626208e-01 1.272409138200483e+00 0.000000000000000e+00
					2.084738940502070e-01 1.097567451200828e+00 0.000000000000000e+00
					4.567612097252415e-01 1.200631794450483e+00 0.000000000000000e+00
					4.169477881004139e-01 1.044833076200828e+00 0.000000000000000e+00
					2.084738940502070e-01 1.097567451200828e+00 0.000000000000000e+00
					1.902798675627588e-01 9.442249390010349e-01 0.000000000000000e+00
					4.169477881004139e-01 1.044833076200828e+00 0.000000000000000e+00
					3.805597351255174e-01 9.076038452510349e-01 0.000000000000000e+00
					1.902798675627588e-01 9.442249390010349e-01 0.000000000000000e+00
					1.737985254002760e-01 8.123816016011038e-01 0.000000000000000e+00
					3.805597351255174e-01 9.076038452510349e-01 0.000000000000000e+00
					3.475970508005520e-01 7.889441016011038e-01 0.000000000000000e+00
					1.737985254002760e-01 8.123816016011038e-01 0.000000000000000e+00
					1.590298675627588e-01 7.020374390010349e-01 0.000000000000000e+00
					3.475970508005520e-01 7.889441016011038e-01 0.000000000000000e+00
					3.180597351255175e-01 6.888538452510349e-01 0.000000000000000e+00
					1.590298675627588e-01 7.020374390010349e-01 0.000000000000000e+00
					1.459738940502070e-01 6.131924512008278e-01 0.000000000000000e+00
					3.180597351255175e-01 6.888538452510349e-01 0.000000000000000e+00
					2.919477881004140e-01 6.073330762008278e-01 0.000000000000000e+00
					1.459738940502070e-01 6.131924512008278e-01 0.000000000000000e+00
					1.346306048626208e-01 5.458466382004830e-01 0.000000000000000e+00
					2.919477881004140e-01 6.073330762008278e-01 0.000000000000000e+00
					2.692612097252415e-01 5.443817944504830e-01 0.000000000000000e+00
					1.346306048626208e-01 5.458466382004830e-01 0.000000000000000e+00
					1.250000000000000e-01 5.000000000000000e-01 0.000000000000000e+00
					2.692612097252415e-01 5.443817944504830e-01 0.000000000000000e+00
					2.500000000000000e-01 5.000000000000000e-01 0.000000000000000e+00
					5.000000000000000e-01 1.375000000000000e+00 0.000000000000000e+00
					4.567612097252415e-01 1.200631794450483e+00 0.000000000000000e+00
					7.500000000000000e-01 1.218750000000000e+00 0.000000000000000e+00
					6.851418145878622e-01 1.081002888200483e+00 0.000000000000000e+00
					4.567612097252415e-01 1.200631794450483e+00 0.000000000000000e+00
					4.169477881004139e-01 1.044833076200828e+00 0.000000000000000e+00
					6.851418145878622e-01 1.081002888200483e+00 0.000000000000000e+00
					6.254216821506209e-01 9.569424512008279e-01 0.000000000000000e+00
					4.169477881004139e-01 1.044833076200828e+00 0.000000000000000e+00
					3.805597351255174e-01 9.076038452510349e-01 0.000000000000000e+00
					6.254216821506209e-01 9.569424512008279e-01 0.000000000000000e+00
					5.708396026882763e-01 8.465686890010349e-01 0.000000000000000e+00
					3.805597351255174e-01 9.076038452510349e-01 0.000000000000000e+00
					3.475970508005520e-01 7.889441016011038e-01 0.000000000000000e+00
					5.708396026882763e-01 8.465686890010349e-01 0.000000000000000e+00
					5.213955762008280e-01 7.498816016011038e-01 0.000000000000000e+00
					3.475970508005520e-01 7.889441016011038e-01 0.000000000000000e+00
					3.180597351255175e-01 6.888538452510349e-01 0.000000000000000e+00
					5.213955762008280e-01 7.498816016011038e-01 0.000000000000000e+00
					4.770896026882762e-01 6.668811890010349e-01 0.000000000000000e+00
					3.180597351255175e-01 6.888538452510349e-01 0.000000000000000e+00
					2.919477881004140e-01 6.073330762008278e-01 0.000000000000000e+00
					4.770896026882762e-01 6.668811890010349e-01 0.000000000000000e+00
					4.379216821506209e-01 5.975674512008278e-01 0.000000000000000e+00
					2.919477881004140e-01 6.073330762008278e-01 0.000000000000000e+00
					2.692612097252415e-01 5.443817944504830e-01 0.000000000000000e+00
					4.379216821506209e-01 5.975674512008278e-01 0.000000000000000e+00
					4.038918145878622e-01 5.419403882004830e-01 0.000000000000000e+00
					2.692612097252415e-01 5.443817944504830e-01 0.000000000000000e+00
					2.500000000000000e-01 5.000000000000000e-01 0.000000000000000e+00
					4.038918145878622e-01 5.419403882004830e-01 0.000000000000000e+00
					3.750000000000000e-01 5.000000000000000e-01 0.000000000000000e+00
					7.500000000000000e-01 1.218750000000000e+00 0.000000000000000e+00
					6.851418145878622e-01 1.081002888200483e+00 0.000000000000000e+00
					1.000000000000000e+00 1.000000000000000e+00 0.000000000000000e+00
					9.135224194504830e-01 9.135224194504830e-01 0.000000000000000e+00
					6.851418145878622e-01 1.081002888200483e+00 0.000000000000000e+00
					6.254216821506209e-01 9.569424512008279e-01 0.000000000000000e+00
					9.135224194504830e-01 9.135224194504830e-01 0.000000000000000e+00
					8.338955762008279e-01 8.338955762008279e-01 0.000000000000000e+00
					6.254216821506209e-01 9.569424512008279e-01 0.000000000000000e+00
					5.708396026882763e-01 8.465686890010349e-01 0.000000000000000e+00
					8.338955762008279e-01 8.338955762008279e-01 0.000000000000000e+00
					7.611194702510349e-01 7.611194702510349e-01 0.000000000000000e+00
					5.708396026882763e-01 8.465686890010349e-01 0.000000000000000e+00
					5.213955762008280e-01 7.498816016011038e-01 0.000000000000000e+00
					7.611194702510349e-01 7.611194702510349e-01 0.000000000000000e+00
					6.951941016011038e-01 6.951941016011038e-01 0.000000000000000e+00
					5.213955762008280e-01 7.498816016011038e-01 0.000000000000000e+00
					4.770896026882762e-01 6.668811890010349e-01 0.000000000000000e+00
					6.951941016011038e-01 6.951941016011038e-01 0.000000000000000e+00
					6.361194702510349e-01 6.361194702510349e-01 0.000000000000000e+00
					4.770896026882762e-01 6.668811890010349e-01 0.000000000000000e+00
					4.379216821506209e-01 5.975674512008278e-01 0.000000000000000e+00
					6.361194702510349e-01 6.361194702510349e-01 0.000000000000000e+00
					5.838955762008278e-01 5.838955762008278e-01 0.000000000000000e+00
					4.379216821506209e-01 5.975674512008278e-01 0.000000000000000e+00
					4.038918145878622e-01 5.419403882004830e-01 0.000000000000000e+00
					5.838955762008278e-01 5.838955762008278e-01 0.000000000000000e+00
					5.385224194504830e-01 5.385224194504830e-01 0.000000000000000e+00
					4.038918145878622e-01 5.419403882004830e-01 0.000000000000000e+00
					3.750000000000000e-01 5.000000000000000e-01 0.000000000000000e+00
					5.385224194504830e-01 5.385224194504830e-01 0.000000000000000e+00
					5.000000000000000e-01 5.000000000000000e-01 0.000000000000000e+00
				</DataArray>
			</Points>
			<Cells>
				<DataArray Name="connectivity" type="UInt32" format="ascii">
					0 1 3 2 4 5 7 6 8 9 11 10 12 13 15 14 16 17 19 18 20 21 23 22 24 25 27 26 28 29 31 30 32 33 35 34 36 37 39 38 40 41 43 42 44 45 47 46 48 49 51 50 52 53 55 54 56 57 59 58 60 61 63 62 64 65 67 66 68 69 71 70 72 73 75 74 76 77 79 78 80 81 83 82 84 85 87 86 88 89 91 90 92 93 95 94 96 97 99 98 100 101 103 102 104 105 107 106 108 109 111 110 112 113 115 114 116 117 119 118 120 121 123 122 124 125 127 126 128 129 131 130 132 133 135 134 136 137 139 138 140 141 143 142 144 145 147 146 148 149 151 150 152 153 155 154 156 157 159 158 160 161 163 162 164 165 167 166 168 169 171 170 172 173 175 174 176 177 179 178 180 181 183 182 184 185 187 186 188 189 191 190 192 193 195 194 196 197 199 198 200 201 203 202 204 205 207 206 208 209 211 210 212 213 215 214 216 217 219 218 220 221 223 222 224 225 227 226 228 229 231 230 232 233 235 234 236 237 239 238 240 241 243 242 244 245 247 246 248 249 251 250 252 253 255 254 
				</DataArray>
				<DataArray Name="offsets" type="UInt32" format="ascii">
					4 8 12 16 20 24 28 32 36 40 44 48 52 56 60 64 68 72 76 80 84 88 92 96 100 104 108 112 116 120 124 128 132 136 140 144 148 152 156 160 164 168 172 176 180 184 188 192 196 200 204 208 212 216 220 224 228 232 236 240 244 248 252 256 
				</DataArray>
				<DataArray Name="types" type="UInt8" format="ascii">
					9 9 9 9 9 9 9 9 9 9 9 9 9 9 9 9 9 9 9 9 9 9 9 9 9 9 9 9 9 9 9 9 9 9 9 9 9 9 9 9 9 9 9 9 9 9 9 9 9 9 9 9 9 9 9 9 9 9 9 9 9 9 9 9 
				</DataArray>
			</Cells>
			<PointData Vectors="solution ">
				<DataArray Name="solution" type="Float64" NumberOfComponents="1" format="ascii">
					0.000000000000000e+00 3.241654388190246e-02 0.000000000000000e+00 1.114565947695525e-01 3.241654388190246e-02 3.683350925046749e-01 1.114565947695525e-01 1.081464575397446e+00 3.683350925046750e-01 1.316960874183164e+00 1.081464575397446e+00 3.367564330062659e+00 1.316960874183165e+00 2.935879350459526e+00 3.367564330062660e+00 6.605903510369989e+00 2.935879350459527e+00 5.060270780607069e+00 6.605903510369990e+00 1.013631737530404e+01 5.060270780607071e+00 7.429201641690816e+00 1.013631737530404e+01 1.342966271677031e+01 7.429201641690817e+00 9.788736367552405e+00 1.342966271677031e+01 1.621162149612802e+01 9.788736367552406e+00 1.194495450839974e+01 1.621162149612802e+01 1.841441160033273e+01 0.000000000000000e+00 1.114565947695525e-01 0.000000000000000e+00 2.844382851815679e-01 1.114565947695525e-01 1.081464575397446e+00 2.844382851815679e-01 2.367596985072996e+00 1.081464575397446e+00 3.367564330062659e+00 2.367596985072996e+00 6.684694871116154e+00 3.367564330062660e+00 6.605903510369989e+00 6.684694871116157e+00 1.201753209923105e+01 6.605903510369990e+00 1.013631737530404e+01 1.201753209923106e+01 1.701849464305683e+01 1.013631737530404e+01 1.342966271677031e+01 1.701849464305684e+01 2.098632936528767e+01 1.342966271677031e+01 1.621162149612802e+01 2.098632936528767e+01 2.382241612252639e+01 1.621162149612802e+01 1.841441160033273e+01 2.382241612252640e+01 2.573578085078437e+01 0.000000000000000e+00 2.844382851815680e-01 0.000000000000000e+00 5.589336112275882e-01 2.844382851815680e-01 2.367596985072996e+00 5.589336112275882e-01 4.075138193958350e+00 2.367596985072996e+00 6.684694871116156e+00 4.075138193958350e+00 1.074800454084720e+01 6.684694871116158e+00 1.201753209923105e+01 1.074800454084721e+01 1.825440652496155e+01 1.201753209923106e+01 1.701849464305683e+01 1.825440652496155e+01 2.454466190809460e+01 1.701849464305684e+01 2.098632936528767e+01 2.454466190809461e+01 2.889195342442796e+01 2.098632936528767e+01 2.382241612252640e+01 2.889195342442797e+01 3.151155527045245e+01 2.382241612252641e+01 2.573578085078437e+01 3.151155527045246e+01 3.295019672445998e+01 0.000000000000000e+00 5.589336112275884e-01 0.000000000000000e+00 8.199852027972783e-01 5.589336112275884e-01 4.075138193958352e+00 8.199852027972783e-01 5.605969893028256e+00 4.075138193958352e+00 1.074800454084721e+01 5.605969893028257e+00 1.426836007405913e+01 1.074800454084721e+01 1.825440652496155e+01 1.426836007405914e+01 2.352371740152660e+01 1.825440652496155e+01 2.454466190809461e+01 2.352371740152661e+01 3.079290619395896e+01 2.454466190809462e+01 2.889195342442797e+01 3.079290619395897e+01 3.538959692021200e+01 2.889195342442798e+01 3.151155527045246e+01 3.538959692021201e+01 3.780918033350894e+01 3.151155527045247e+01 3.295019672445999e+01 3.780918033350896e+01 3.886558775119637e+01 0.000000000000000e+00 8.199852027972785e-01 0.000000000000000e+00 8.827385304193857e-01 8.199852027972786e-01 5.605969893028258e+00 8.827385304193857e-01 6.183557839767967e+00 5.605969893028258e+00 1.426836007405914e+01 6.183557839767968e+00 1.572555698677649e+01 1.426836007405914e+01 2.352371740152661e+01 1.572555698677650e+01 2.584211868883784e+01 2.352371740152661e+01 3.079290619395897e+01 2.584211868883785e+01 3.373566329515369e+01 3.079290619395898e+01 3.538959692021201e+01 3.373566329515370e+01 3.868731241518701e+01 3.538959692021202e+01 3.780918033350896e+01 3.868731241518701e+01 4.124856245214688e+01 3.780918033350897e+01 3.886558775119639e+01 4.124856245214690e+01 4.230892483722724e+01 0.000000000000000e+00 8.827385304193861e-01 0.000000000000000e+00 7.092489899011315e-01 8.827385304193861e-01 6.183557839767968e+00 7.092489899011315e-01 5.451104881138251e+00 6.183557839767970e+00 1.572555698677650e+01 5.451104881138252e+00 1.430987347218384e+01 1.572555698677651e+01 2.584211868883785e+01 1.430987347218385e+01 2.408439919087258e+01 2.584211868883785e+01 3.373566329515370e+01 2.408439919087258e+01 3.215032188175210e+01 3.373566329515371e+01 3.868731241518702e+01 3.215032188175211e+01 3.762873329312368e+01 3.868731241518703e+01 4.124856245214690e+01 3.762873329312368e+01 4.081907770013699e+01 4.124856245214691e+01 4.230892483722725e+01 4.081907770013701e+01 4.243110556756948e+01 0.000000000000000e+00 7.092489899011315e-01 0.000000000000000e+00 4.388247900964582e-01 7.092489899011315e-01 5.451104881138252e+00 4.388247900964582e-01 3.777975829985931e+00 5.451104881138252e+00 1.430987347218384e+01 3.777975829985932e+00 1.054732381405440e+01 1.430987347218385e+01 2.408439919087258e+01 1.054732381405440e+01 1.874181727530882e+01 2.408439919087259e+01 3.215032188175210e+01 1.874181727530882e+01 2.631940002918407e+01 3.215032188175212e+01 3.762873329312368e+01 2.631940002918407e+01 3.224332175372489e+01 3.762873329312369e+01 4.081907770013699e+01 3.224332175372489e+01 3.636160330248288e+01 4.081907770013701e+01 4.243110556756948e+01 3.636160330248288e+01 3.898335663208610e+01 0.000000000000000e+00 4.388247900964584e-01 0.000000000000000e+00 2.015051128541312e-01 4.388247900964584e-01 3.777975829985932e+00 2.015051128541312e-01 1.952432242288533e+00 3.777975829985933e+00 1.054732381405440e+01 1.952432242288533e+00 6.034923878456127e+00 1.054732381405440e+01 1.874181727530882e+01 6.034923878456128e+00 1.179175615611226e+01 1.874181727530883e+01 2.631940002918407e+01 1.179175615611226e+01 1.805923054150710e+01 2.631940002918408e+01 3.224332175372489e+01 1.805923054150711e+01 2.388401809102602e+01 3.224332175372489e+01 3.636160330248288e+01 2.388401809102602e+01 2.873963258022737e+01 3.636160330248289e+01 3.898335663208611e+01 2.873963258022738e+01 3.246975771658175e+01 
				</DataArray>
			</PointData>
			<CellData>
			</CellData>
		</Piece>
	</UnstructuredGrid>
</VTKFile>