<?xml version="1.0"?>
<VTKFile type="UnstructuredGrid" byte_order="LittleEndian">
	<UnstructuredGrid>
		<Piece NumberOfPoints="64" NumberOfCells="16">
			<Points>
				<DataArray type="Float64" NumberOfComponents="3" format="ascii">
					-5.000000000000000e-01 -5.000000000000000e-01 0.000000000000000e+00
					-2.500000000000000e-01 -5.000000000000000e-01 0.000000000000000e+00
					-5.000000000000000e-01 -2.500000000000000e-01 0.000000000000000e+00
					-2.500000000000000e-01 -2.500000000000000e-01 0.000000000000000e+00
					-2.500000000000000e-01 -5.000000000000000e-01 0.000000000000000e+00
					6.938893903907228e-18 -5.000000000000000e-01 0.000000000000000e+00
					-2.500000000000000e-01 -2.500000000000000e-01 0.000000000000000e+00
					1.040834085586084e-17 -2.500000000000000e-01 0.000000000000000e+00
					6.938893903907228e-18 -5.000000000000000e-01 0.000000000000000e+00
					2.500000000000000e-01 -5.000000000000000e-01 0.000000000000000e+00
					1.040834085586084e-17 -2.500000000000000e-01 0.000000000000000e+00
					2.500000000000000e-01 -2.500000000000000e-01 0.000000000000000e+00
					2.500000000000000e-01 -5.000000000000000e-01 0.000000000000000e+00
					5.000000000000000e-01 -5.000000000000000e-01 0.000000000000000e+00
					2.500000000000000e-01 -2.500000000000000e-01 0.000000000000000e+00
					5.000000000000000e-01 -2.500000000000000e-01 0.000000000000000e+00
					-5.000000000000000e-01 -2.500000000000000e-01 0.000000000000000e+00
					-2.500000000000000e-01 -2.500000000000000e-01 0.000000000000000e+00
					-5.000000000000000e-01 6.938893903907228e-18 0.000000000000000e+00
					-2.500000000000000e-01 6.938893903907228e-18 0.000000000000000e+00
					-2.500000000000000e-01 -2.500000000000000e-01 0.000000000000000e+00
					1.040834085586084e-17 -2.500000000000000e-01 0.000000000000000e+00
					-2.500000000000000e-01 6.938893903907228e-18 0.000000000000000e+00
					1.040834085586084e-17 6.938893903907228e-18 0.000000000000000e+00
					1.040834085586084e-17 -2.500000000000000e-01 0.000000000000000e+00
					2.500000000000000e-01 -2.500000000000000e-01 0.000000000000000e+00
					1.040834085586084e-17 6.938893903907228e-18 0.000000000000000e+00
					2.500000000000000e-01 6.938893903907228e-18 0.000000000000000e+00
					2.500000000000000e-01 -2.500000000000000e-01 0.000000000000000e+00
					5.000000000000000e-01 -2.500000000000000e-01 0.000000000000000e+00
					2.500000000000000e-01 6.938893903907228e-18 0.000000000000000e+00
					5.000000000000000e-01 6.938893903907228e-18 0.000000000000000e+00
					-5.000000000000000e-01 6.938893903907228e-18 0.000000000000000e+00
					-2.500000000000000e-01 6.938893903907228e-18 0.000000000000000e+00
					-5.000000000000000e-01 2.500000000000000e-01 0.000000000000000e+00
					-2.500000000000000e-01 2.500000000000000e-01 0.000000000000000e+00
					-2.500000000000000e-01 6.938893903907228e-18 0.000000000000000e+00
					1.040834085586084e-17 6.938893903907228e-18 0.000000000000000e+00
					-2.500000000000000e-01 2.500000000000000e-01 0.000000000000000e+00
					6.938893903907228e-18 2.500000000000000e-01 0.000000000000000e+00
					1.040834085586084e-17 6.938893903907228e-18 0.000000000000000e+00
					2.500000000000000e-01 6.938893903907228e-18 0.000000000000000e+00
					6.938893903907228e-18 2.500000000000000e-01 0.000000000000000e+00
					2.500000000000000e-01 2.500000000000000e-01 0.000000000000000e+00
					2.500000000000000e-01 6.938893903907228e-18 0.000000000000000e+00
					5.000000000000000e-01 6.938893903907228e-18 0.000000000000000e+00
					2.500000000000000e-01 2.500000000000000e-01 0.000000000000000e+00
					5.000000000000000e-01 2.500000000000000e-01 0.000000000000000e+00
					-5.000000000000000e-01 2.500000000000000e-01 0.000000000000000e+00
					-2.500000000000000e-01 2.500000000000000e-01 0.000000000000000e+00
					-5.000000000000000e-01 5.000000000000000e-01 0.000000000000000e+00
					-2.500000000000000e-01 5.000000000000000e-01 0.000000000000000e+00
					-2.500000000000000e-01 2.500000000000000e-01 0.000000000000000e+00
					6.938893903907228e-18 2.500000000000000e-01 0.000000000000000e+00
					-2.500000000000000e-01 5.000000000000000e-01 0.000000000000000e+00
					6.938893903907228e-18 5.000000000000000e-01 0.000000000000000e+00
					6.938893903907228e-18 2.500000000000000e-01 0.000000000000000e+00
					2.500000000000000e-01 2.500000000000000e-01 0.000000000000000e+00
					6.938893903907228e-18 5.000000000000000e-01 0.000000000000000e+00
					2.500000000000000e-01 5.000000000000000e-01 0.000000000000000e+00
					2.500000000000000e-01 2.500000000000000e-01 0.000000000000000e+00
					5.000000000000000e-01 2.500000000000000e-01 0.000000000000000e+00
					2.500000000000000e-01 5.000000000000000e-01 0.000000000000000e+00
					5.000000000000000e-01 5.000000000000000e-01 0.000000000000000e+00
				</DataArray>
			</Points>
			<Cells>
				<DataArray Name="connectivity" type="UInt32" format="ascii">
					0 1 3 2 4 5 7 6 8 9 11 10 12 13 15 14 16 17 19 18 20 21 23 22 24 25 27 26 28 29 31 30 32 33 35 34 36 37 39 38 40 41 43 42 44 45 47 46 48 49 51 50 52 53 55 54 56 57 59 58 60 61 63 62 
				</DataArray>
				<DataArray Name="offsets" type="UInt32" format="ascii">
					4 8 12 16 20 24 28 32 36 40 44 48 52 56 60 64 
				</DataArray>
				<DataArray Name="types" type="UInt8" format="ascii">
					9 9 9 9 9 9 9 9 9 9 9 9 9 9 9 9 
				</DataArray>
			</Cells>
			<PointData Vectors="solution ">
				<DataArray Name="solution" type="Float64" NumberOfComponents="1" format="ascii">
					1.419038131591309e+00 3.340286158349457e+00 4.382065949467623e+00 9.215346964203020e+00 3.340286158349458e+00 5.184613606839498e+00 9.215346964203020e+00 1.379658756046429e+01 5.184613606839499e+00 5.702040020429965e+00 1.379658756046429e+01 1.539506604637798e+01 5.702040020429966e+00 4.313879379222537e+00 1.539506604637799e+01 1.254537673205780e+01 4.382065949467624e+00 9.215346964203020e+00 8.785983505699114e+00 1.778694766527846e+01 9.215346964203020e+00 1.379658756046429e+01 1.778694766527846e+01 2.637933853275657e+01 1.379658756046429e+01 1.539506604637798e+01 2.637933853275658e+01 2.958641387611495e+01 1.539506604637799e+01 1.254537673205780e+01 2.958641387611495e+01 2.475657545001654e+01 8.785983505699116e+00 1.778694766527846e+01 1.250401162518838e+01 2.555596518959828e+01 1.778694766527847e+01 2.637933853275659e+01 2.555596518959828e+01 3.805973188181627e+01 2.637933853275659e+01 2.958641387611495e+01 3.805973188181628e+01 4.247945850309129e+01 2.958641387611496e+01 2.475657545001655e+01 4.247945850309129e+01 3.510186405350601e+01 1.250401162518838e+01 2.555596518959828e+01 1.235552993174890e+01 2.699598964497451e+01 2.555596518959828e+01 3.805973188181628e+01 2.699598964497452e+01 4.106404907207227e+01 3.805973188181629e+01 4.247945850309129e+01 4.106404907207229e+01 4.511610897742920e+01 4.247945850309130e+01 3.510186405350601e+01 4.511610897742920e+01 3.491952046066596e+01 
				</DataArray>
			</PointData>
			<CellData>
			</CellData>
		</Piece>
	</UnstructuredGrid>
</VTKFile>