<?xml version="1.0"?>
<VTKFile type="UnstructuredGrid" byte_order="LittleEndian">
	<UnstructuredGrid>
		<Piece NumberOfPoints="64" NumberOfCells="16">
			<Points>
				<DataArray type="Float64" NumberOfComponents="3" format="ascii">
					-1.000000000000000e+00 -1.000000000000000e+00 0.000000000000000e+00
					-5.000000000000000e-01 -1.375000000000000e+00 0.000000000000000e+00
					-8.338955762008279e-01 -8.338955762008279e-01 0.000000000000000e+00
					-4.169477881004139e-01 -1.044833076200828e+00 0.000000000000000e+00
					-5.000000000000000e-01 -1.375000000000000e+00 0.000000000000000e+00
					1.387778780781446e-17 -1.500000000000000e+00 0.000000000000000e+00
					-4.169477881004139e-01 -1.044833076200828e+00 0.000000000000000e+00
					6.938893903907228e-18 -1.115145576200828e+00 0.000000000000000e+00
					1.387778780781446e-17 -1.500000000000000e+00 0.000000000000000e+00
					5.000000000000000e-01 -1.375000000000000e+00 0.000000000000000e+00
					6.938893903907228e-18 -1.115145576200828e+00 0.000000000000000e+00
					4.169477881004139e-01 -1.044833076200828e+00 0.000000000000000e+00
					5.000000000000000e-01 -1.375000000000000e+00 0.000000000000000e+00
					1.000000000000000e+00 -1.000000000000000e+00 0.000000000000000e+00
					4.169477881004139e-01 -1.044833076200828e+00 0.000000000000000e+00
					8.338955762008279e-01 -8.338955762008279e-01 0.000000000000000e+00
					-8.338955762008279e-01 -8.338955762008279e-01 0.000000000000000e+00
					-4.169477881004139e-01 -1.044833076200828e+00 0.000000000000000e+00
					-6.951941016011038e-01 -6.951941016011038e-01 0.000000000000000e+00
					-3.475970508005519e-01 -7.889441016011038e-01 0.000000000000000e+00
					-4.169477881004139e-01 -1.044833076200828e+00 0.000000000000000e+00
					6.938893903907228e-18 -1.115145576200828e+00 0.000000000000000e+00
					-3.475970508005519e-01 -7.889441016011038e-01 0.000000000000000e+00
					0.000000000000000e+00 -8.201941016011038e-01 0.000000000000000e+00
					6.938893903907228e-18 -1.115145576200828e+00 0.000000000000000e+00
					4.169477881004139e-01 -1.044833076200828e+00 0.000000000000000e+00
					0.000000000000000e+00 -8.201941016011038e-01 0.000000000000000e+00
					3.475970508005519e-01 -7.889441016011038e-01 0.000000000000000e+00
					4.169477881004139e-01 -1.044833076200828e+00 0.000000000000000e+00
					8.338955762008279e-01 -8.338955762008279e-01 0.000000000000000e+00
					3.475970508005519e-01 -7.889441016011038e-01 0.000000000000000e+00
					6.951941016011038e-01 -6.951941016011038e-01 0.000000000000000e+00
					-6.951941016011038e-01 -6.951941016011038e-01 0.000000000000000e+00
					-3.475970508005519e-01 -7.889441016011038e-01 0.000000000000000e+00
					-5.838955762008279e-01 -5.838955762008279e-01 0.000000000000000e+00
					-2.919477881004139e-01 -6.073330762008279e-01 0.000000000000000e+00
					-3.475970508005519e-01 -7.889441016011038e-01 0.000000000000000e+00
					0.000000000000000e+00 -8.201941016011038e-01 0.000000000000000e+00
					-2.919477881004139e-01 -6.073330762008279e-01 0.000000000000000e+00
					6.938893903907228e-18 -6.151455762008279e-01 0.000000000000000e+00
					0.000000000000000e+00 -8.201941016011038e-01 0.000000000000000e+00
					3.475970508005519e-01 -7.889441016011038e-01 0.000000000000000e+00
					6.938893903907228e-18 -6.151455762008279e-01 0.000000000000000e+00
					2.919477881004139e-01 -6.073330762008279e-01 0.000000000000000e+00
					3.475970508005519e-01 -7.889441016011038e-01 0.000000000000000e+00
					6.951941016011038e-01 -6.951941016011038e-01 0.000000000000000e+00
					2.919477881004139e-01 -6.073330762008279e-01 0.000000000000000e+00
					5.838955762008279e-01 -5.838955762008279e-01 0.000000000000000e+00
					-5.838955762008279e-01 -5.838955762008279e-01 0.000000000000000e+00
					-2.919477881004139e-01 -6.073330762008279e-01 0.000000000000000e+00
					-5.000000000000000e-01 -5.000000000000000e-01 0.000000000000000e+00
					-2.500000000000000e-01 -5.000000000000000e-01 0.000000000000000e+00
					-2.919477881004139e-01 -6.073330762008279e-01 0.000000000000000e+00
					6.938893903907228e-18 -6.151455762008279e-01 0.000000000000000e+00
					-2.500000000000000e-01 -5.000000000000000e-01 0.000000000000000e+00
					6.938893903907228e-18 -5.000000000000000e-01 0.000000000000000e+00
					6.938893903907228e-18 -6.151455762008279e-01 0.000000000000000e+00
					2.919477881004139e-01 -6.073330762008279e-01 0.000000000000000e+00
					6.938893903907228e-18 -5.000000000000000e-01 0.000000000000000e+00
					2.500000000000000e-01 -5.000000000000000e-01 0.000000000000000e+00
					2.919477881004139e-01 -6.073330762008279e-01 0.000000000000000e+00
					5.838955762008279e-01 -5.838955762008279e-01 0.000000000000000e+00
					2.500000000000000e-01 -5.000000000000000e-01 0.000000000000000e+00
					5.000000000000000e-01 -5.000000000000000e-01 0.000000000000000e+00
				</DataArray>
			</Points>
			<Cells>
				<DataArray Name="connectivity" type="UInt32" format="ascii">
					0 1 3 2 4 5 7 6 8 9 11 10 12 13 15 14 16 17 19 18 20 21 23 22 24 25 27 26 28 29 31 30 32 33 35 34 36 37 39 38 40 41 43 42 44 45 47 46 48 49 51 50 52 53 55 54 56 57 59 58 60 61 63 62 
				</DataArray>
				<DataArray Name="offsets" type="UInt32" format="ascii">
					4 8 12 16 20 24 28 32 36 40 44 48 52 56 60 64 
				</DataArray>
				<DataArray Name="types" type="UInt8" format="ascii">
					9 9 9 9 9 9 9 9 9 9 9 9 9 9 9 9 
				</DataArray>
			</Cells>
			<PointData Vectors="solution ">
				<DataArray Name="solution" type="Float64" NumberOfComponents="1" format="ascii">
					0.000000000000000e+00 0.000000000000000e+00 1.004568867004503e-02 4.187147683709477e-02 0.000000000000000e+00 0.000000000000000e+00 4.187147683709478e-02 7.258418792231736e-02 0.000000000000000e+00 0.000000000000000e+00 7.258418792231737e-02 9.102729561241797e-02 0.000000000000000e+00 0.000000000000000e+00 9.102729561241799e-02 4.882131091438319e-02 1.004568867004503e-02 4.187147683709477e-02 1.947116824419085e-01 5.296827044926919e-01 4.187147683709478e-02 7.258418792231737e-02 5.296827044926921e-01 9.066272313033449e-01 7.258418792231740e-02 9.102729561241799e-02 9.066272313033452e-01 1.048955591612521e+00 9.102729561241800e-02 4.882131091438320e-02 1.048955591612521e+00 7.535676163825991e-01 1.947116824419086e-01 5.296827044926922e-01 7.390073352081249e-01 1.877735492634402e+00 5.296827044926922e-01 9.066272313033452e-01 1.877735492634402e+00 3.056507476390792e+00 9.066272313033453e-01 1.048955591612521e+00 3.056507476390792e+00 3.349846940019510e+00 1.048955591612521e+00 7.535676163825992e-01 3.349846940019510e+00 2.340439564999653e+00 7.390073352081250e-01 1.877735492634403e+00 1.642702451725865e+00 3.518788853597359e+00 1.877735492634403e+00 3.056507476390792e+00 3.518788853597359e+00 5.302775805684968e+00 3.056507476390792e+00 3.349846940019510e+00 5.302775805684970e+00 5.784082265173715e+00 3.349846940019511e+00 2.340439564999653e+00 5.784082265173716e+00 4.426357151993924e+00 
				</DataArray>
			</PointData>
			<CellData>
			</CellData>
		</Piece>
	</UnstructuredGrid>
</VTKFile>