<?xml version="1.0"?>
<VTKFile type="UnstructuredGrid" byte_order="LittleEndian">
	<UnstructuredGrid>
		<Piece NumberOfPoints="256" NumberOfCells="64">
			<Points>
				<DataArray type="Float64" NumberOfComponents="3" format="ascii">
					1.000000000000000e+00 -1.000000000000000e+00 0.000000000000000e+00
					1.218750000000000e+00 -7.500000000000000e-01 0.000000000000000e+00
					9.135224194504830e-01 -9.135224194504830e-01 0.000000000000000e+00
					1.081002888200483e+00 -6.851418145878622e-01 0.000000000000000e+00
					1.218750000000000e+00 -7.500000000000000e-01 0.000000000000000e+00
					1.375000000000000e+00 -5.000000000000000e-01 0.000000000000000e+00
					1.081002888200483e+00 -6.851418145878622e-01 0.000000000000000e+00
					1.200631794450483e+00 -4.567612097252415e-01 0.000000000000000e+00
					1.375000000000000e+00 -5.000000000000000e-01 0.000000000000000e+00
					1.468750000000000e+00 -2.500000000000000e-01 0.000000000000000e+00
					1.200631794450483e+00 -4.567612097252415e-01 0.000000000000000e+00
					1.272409138200483e+00 -2.283806048626207e-01 0.000000000000000e+00
					1.468750000000000e+00 -2.500000000000000e-01 0.000000000000000e+00
					1.500000000000000e+00 0.000000000000000e+00 0.000000000000000e+00
					1.272409138200483e+00 -2.283806048626207e-01 0.000000000000000e+00
					1.296334919450483e+00 1.040834085586084e-17 0.000000000000000e+00
					1.500000000000000e+00 0.000000000000000e+00 0.000000000000000e+00
					1.468750000000000e+00 2.500000000000000e-01 0.000000000000000e+00
					1.296334919450483e+00 1.040834085586084e-17 0.000000000000000e+00
					1.272409138200483e+00 2.283806048626208e-01 0.000000000000000e+00
					1.468750000000000e+00 2.500000000000000e-01 0.000000000000000e+00
					1.375000000000000e+00 5.000000000000000e-01 0.000000000000000e+00
					1.272409138200483e+00 2.283806048626208e-01 0.000000000000000e+00
					1.200631794450483e+00 4.567612097252415e-01 0.000000000000000e+00
					1.375000000000000e+00 5.000000000000000e-01 0.000000000000000e+00
					1.218750000000000e+00 7.500000000000000e-01 0.000000000000000e+00
					1.200631794450483e+00 4.567612097252415e-01 0.000000000000000e+00
					1.081002888200483e+00 6.851418145878623e-01 0.000000000000000e+00
					1.218750000000000e+00 7.500000000000000e-01 0.000000000000000e+00
					1.000000000000000e+00 1.000000000000000e+00 0.000000000000000e+00
					1.081002888200483e+00 6.851418145878623e-01 0.000000000000000e+00
					9.135224194504830e-01 9.135224194504830e-01 0.000000000000000e+00
					9.135224194504830e-01 -9.135224194504830e-01 0.000000000000000e+00
					1.081002888200483e+00 -6.851418145878622e-01 0.000000000000000e+00
					8.338955762008279e-01 -8.338955762008279e-01 0.000000000000000e+00
					9.569424512008280e-01 -6.254216821506209e-01 0.000000000000000e+00
					1.081002888200483e+00 -6.851418145878622e-01 0.000000000000000e+00
					1.200631794450483e+00 -4.567612097252415e-01 0.000000000000000e+00
					9.569424512008280e-01 -6.254216821506209e-01 0.000000000000000e+00
					1.044833076200828e+00 -4.169477881004140e-01 0.000000000000000e+00
					1.200631794450483e+00 -4.567612097252415e-01 0.000000000000000e+00
					1.272409138200483e+00 -2.283806048626207e-01 0.000000000000000e+00
					1.044833076200828e+00 -4.169477881004140e-01 0.000000000000000e+00
					1.097567451200828e+00 -2.084738940502070e-01 0.000000000000000e+00
					1.272409138200483e+00 -2.283806048626207e-01 0.000000000000000e+00
					1.296334919450483e+00 1.040834085586084e-17 0.000000000000000e+00
					1.097567451200828e+00 -2.084738940502070e-01 0.000000000000000e+00
					1.115145576200828e+00 1.734723475976807e-17 0.000000000000000e+00
					1.296334919450483e+00 1.040834085586084e-17 0.000000000000000e+00
					1.272409138200483e+00 2.283806048626208e-01 0.000000000000000e+00
					1.115145576200828e+00 1.734723475976807e-17 0.000000000000000e+00
					1.097567451200828e+00 2.084738940502070e-01 0.000000000000000e+00
					1.272409138200483e+00 2.283806048626208e-01 0.000000000000000e+00
					1.200631794450483e+00 4.567612097252415e-01 0.000000000000000e+00
					1.097567451200828e+00 2.084738940502070e-01 0.000000000000000e+00
					1.044833076200828e+00 4.169477881004140e-01 0.000000000000000e+00
					1.200631794450483e+00 4.567612097252415e-01 0.000000000000000e+00
					1.081002888200483e+00 6.851418145878623e-01 0.000000000000000e+00
					1.044833076200828e+00 4.169477881004140e-01 0.000000000000000e+00
					9.569424512008280e-01 6.254216821506209e-01 0.000000000000000e+00
					1.081002888200483e+00 6.851418145878623e-01 0.000000000000000e+00
					9.135224194504830e-01 9.135224194504830e-01 0.000000000000000e+00
					9.569424512008280e-01 6.254216821506209e-01 0.000000000000000e+00
					8.338955762008279e-01 8.338955762008279e-01 0.000000000000000e+00
					8.338955762008279e-01 -8.338955762008279e-01 0.000000000000000e+00
					9.569424512008280e-01 -6.254216821506209e-01 0.000000000000000e+00
					7.611194702510349e-01 -7.611194702510349e-01 0.000000000000000e+00
					8.465686890010349e-01 -5.708396026882762e-01 0.000000000000000e+00
					9.569424512008280e-01 -6.254216821506209e-01 0.000000000000000e+00
					1.044833076200828e+00 -4.169477881004140e-01 0.000000000000000e+00
					8.465686890010349e-01 -5.708396026882762e-01 0.000000000000000e+00
					9.076038452510349e-01 -3.805597351255174e-01 0.000000000000000e+00
					1.044833076200828e+00 -4.169477881004140e-01 0.000000000000000e+00
					1.097567451200828e+00 -2.084738940502070e-01 0.000000000000000e+00
					9.076038452510349e-01 -3.805597351255174e-01 0.000000000000000e+00
					9.442249390010350e-01 -1.902798675627587e-01 0.000000000000000e+00
					1.097567451200828e+00 -2.084738940502070e-01 0.000000000000000e+00
					1.115145576200828e+00 1.734723475976807e-17 0.000000000000000e+00
					9.442249390010350e-01 -1.902798675627587e-01 0.000000000000000e+00
					9.564319702510349e-01 2.428612866367530e-17 0.000000000000000e+00
					1.115145576200828e+00 1.734723475976807e-17 0.000000000000000e+00
					1.097567451200828e+00 2.084738940502070e-01 0.000000000000000e+00
					9.564319702510349e-01 2.428612866367530e-17 0.000000000000000e+00
					9.442249390010349e-01 1.902798675627587e-01 0.000000000000000e+00
					1.097567451200828e+00 2.084738940502070e-01 0.000000000000000e+00
					1.044833076200828e+00 4.169477881004140e-01 0.000000000000000e+00
					9.442249390010349e-01 1.902798675627587e-01 0.000000000000000e+00
					9.076038452510349e-01 3.805597351255174e-01 0.000000000000000e+00
					1.044833076200828e+00 4.169477881004140e-01 0.000000000000000e+00
					9.569424512008280e-01 6.254216821506209e-01 0.000000000000000e+00
					9.076038452510349e-01 3.805597351255174e-01 0.000000000000000e+00
					8.465686890010349e-01 5.708396026882762e-01 0.000000000000000e+00
					9.569424512008280e-01 6.254216821506209e-01 0.000000000000000e+00
					8.338955762008279e-01 8.338955762008279e-01 0.000000000000000e+00
					8.465686890010349e-01 5.708396026882762e-01 0.000000000000000e+00
					7.611194702510349e-01 7.611194702510349e-01 0.000000000000000e+00
					7.611194702510349e-01 -7.611194702510349e-01 0.000000000000000e+00
					8.465686890010349e-01 -5.708396026882762e-01 0.000000000000000e+00
					6.951941016011038e-01 -6.951941016011038e-01 0.000000000000000e+00
					7.498816016011038e-01 -5.213955762008279e-01 0.000000000000000e+00
					8.465686890010349e-01 -5.708396026882762e-01 0.000000000000000e+00
					9.076038452510349e-01 -3.805597351255174e-01 0.000000000000000e+00
					7.498816016011038e-01 -5.213955762008279e-01 0.000000000000000e+00
					7.889441016011040e-01 -3.475970508005519e-01 0.000000000000000e+00
					9.076038452510349e-01 -3.805597351255174e-01 0.000000000000000e+00
					9.442249390010350e-01 -1.902798675627587e-01 0.000000000000000e+00
					7.889441016011040e-01 -3.475970508005519e-01 0.000000000000000e+00
					8.123816016011040e-01 -1.737985254002760e-01 0.000000000000000e+00
					9.442249390010350e-01 -1.902798675627587e-01 0.000000000000000e+00
					9.564319702510349e-01 2.428612866367530e-17 0.000000000000000e+00
					8.123816016011040e-01 -1.737985254002760e-01 0.000000000000000e+00
					8.201941016011038e-01 2.428612866367530e-17 0.000000000000000e+00
					9.564319702510349e-01 2.428612866367530e-17 0.000000000000000e+00
					9.442249390010349e-01 1.902798675627587e-01 0.000000000000000e+00
					8.201941016011038e-01 2.428612866367530e-17 0.000000000000000e+00
					8.123816016011038e-01 1.737985254002760e-01 0.000000000000000e+00
					9.442249390010349e-01 1.902798675627587e-01 0.000000000000000e+00
					9.076038452510349e-01 3.805597351255174e-01 0.000000000000000e+00
					8.123816016011038e-01 1.737985254002760e-01 0.000000000000000e+00
					7.889441016011038e-01 3.475970508005519e-01 0.000000000000000e+00
					9.076038452510349e-01 3.805597351255174e-01 0.000000000000000e+00
					8.465686890010349e-01 5.708396026882762e-01 0.000000000000000e+00
					7.889441016011038e-01 3.475970508005519e-01 0.000000000000000e+00
					7.498816016011038e-01 5.213955762008279e-01 0.000000000000000e+00
					8.465686890010349e-01 5.708396026882762e-01 0.000000000000000e+00
					7.611194702510349e-01 7.611194702510349e-01 0.000000000000000e+00
					7.498816016011038e-01 5.213955762008279e-01 0.000000000000000e+00
					6.951941016011038e-01 6.951941016011038e-01 0.000000000000000e+00
					6.951941016011038e-01 -6.951941016011038e-01 0.000000000000000e+00
					7.498816016011038e-01 -5.213955762008279e-01 0.000000000000000e+00
					6.361194702510349e-01 -6.361194702510349e-01 0.000000000000000e+00
					6.668811890010349e-01 -4.770896026882762e-01 0.000000000000000e+00
					7.498816016011038e-01 -5.213955762008279e-01 0.000000000000000e+00
					7.889441016011040e-01 -3.475970508005519e-01 0.000000000000000e+00
					6.668811890010349e-01 -4.770896026882762e-01 0.000000000000000e+00
					6.888538452510349e-01 -3.180597351255174e-01 0.000000000000000e+00
					7.889441016011040e-01 -3.475970508005519e-01 0.000000000000000e+00
					8.123816016011040e-01 -1.737985254002760e-01 0.000000000000000e+00
					6.888538452510349e-01 -3.180597351255174e-01 0.000000000000000e+00
					7.020374390010350e-01 -1.590298675627587e-01 0.000000000000000e+00
					8.123816016011040e-01 -1.737985254002760e-01 0.000000000000000e+00
					8.201941016011038e-01 2.428612866367530e-17 0.000000000000000e+00
					7.020374390010350e-01 -1.590298675627587e-01 0.000000000000000e+00
					7.064319702510349e-01 1.734723475976807e-17 0.000000000000000e+00
					8.201941016011038e-01 2.428612866367530e-17 0.000000000000000e+00
					8.123816016011038e-01 1.737985254002760e-01 0.000000000000000e+00
					7.064319702510349e-01 1.734723475976807e-17 0.000000000000000e+00
					7.020374390010349e-01 1.590298675627587e-01 0.000000000000000e+00
					8.123816016011038e-01 1.737985254002760e-01 0.000000000000000e+00
					7.889441016011038e-01 3.475970508005519e-01 0.000000000000000e+00
					7.020374390010349e-01 1.590298675627587e-01 0.000000000000000e+00
					6.888538452510349e-01 3.180597351255174e-01 0.000000000000000e+00
					7.889441016011038e-01 3.475970508005519e-01 0.000000000000000e+00
					7.498816016011038e-01 5.213955762008279e-01 0.000000000000000e+00
					6.888538452510349e-01 3.180597351255174e-01 0.000000000000000e+00
					6.668811890010349e-01 4.770896026882762e-01 0.000000000000000e+00
					7.498816016011038e-01 5.213955762008279e-01 0.000000000000000e+00
					6.951941016011038e-01 6.951941016011038e-01 0.000000000000000e+00
					6.668811890010349e-01 4.770896026882762e-01 0.000000000000000e+00
					6.361194702510349e-01 6.361194702510349e-01 0.000000000000000e+00
					6.361194702510349e-01 -6.361194702510349e-01 0.000000000000000e+00
					6.668811890010349e-01 -4.770896026882762e-01 0.000000000000000e+00
					5.838955762008278e-01 -5.838955762008278e-01 0.000000000000000e+00
					5.975674512008280e-01 -4.379216821506209e-01 0.000000000000000e+00
					6.668811890010349e-01 -4.770896026882762e-01 0.000000000000000e+00
					6.888538452510349e-01 -3.180597351255174e-01 0.000000000000000e+00
					5.975674512008280e-01 -4.379216821506209e-01 0.000000000000000e+00
					6.073330762008280e-01 -2.919477881004139e-01 0.000000000000000e+00
					6.888538452510349e-01 -3.180597351255174e-01 0.000000000000000e+00
					7.020374390010350e-01 -1.590298675627587e-01 0.000000000000000e+00
					6.073330762008280e-01 -2.919477881004139e-01 0.000000000000000e+00
					6.131924512008280e-01 -1.459738940502069e-01 0.000000000000000e+00
					7.020374390010350e-01 -1.590298675627587e-01 0.000000000000000e+00
					7.064319702510349e-01 1.734723475976807e-17 0.000000000000000e+00
					6.131924512008280e-01 -1.459738940502069e-01 0.000000000000000e+00
					6.151455762008280e-01 1.040834085586084e-17 0.000000000000000e+00
					7.064319702510349e-01 1.734723475976807e-17 0.000000000000000e+00
					7.020374390010349e-01 1.590298675627587e-01 0.000000000000000e+00
					6.151455762008280e-01 1.040834085586084e-17 0.000000000000000e+00
					6.131924512008278e-01 1.459738940502070e-01 0.000000000000000e+00
					7.020374390010349e-01 1.590298675627587e-01 0.000000000000000e+00
					6.888538452510349e-01 3.180597351255174e-01 0.000000000000000e+00
					6.131924512008278e-01 1.459738940502070e-01 0.000000000000000e+00
					6.073330762008278e-01 2.919477881004139e-01 0.000000000000000e+00
					6.888538452510349e-01 3.180597351255174e-01 0.000000000000000e+00
					6.668811890010349e-01 4.770896026882762e-01 0.000000000000000e+00
					6.073330762008278e-01 2.919477881004139e-01 0.000000000000000e+00
					5.975674512008278e-01 4.379216821506209e-01 0.000000000000000e+00
					6.668811890010349e-01 4.770896026882762e-01 0.000000000000000e+00
					6.361194702510349e-01 6.361194702510349e-01 0.000000000000000e+00
					5.975674512008278e-01 4.379216821506209e-01 0.000000000000000e+00
					5.838955762008278e-01 5.838955762008278e-01 0.000000000000000e+00
					5.838955762008278e-01 -5.838955762008278e-01 0.000000000000000e+00
					5.975674512008280e-01 -4.379216821506209e-01 0.000000000000000e+00
					5.385224194504830e-01 -5.385224194504830e-01 0.000000000000000e+00
					5.419403882004830e-01 -4.038918145878622e-01 0.000000000000000e+00
					5.975674512008280e-01 -4.379216821506209e-01 0.000000000000000e+00
					6.073330762008280e-01 -2.919477881004139e-01 0.000000000000000e+00
					5.419403882004830e-01 -4.038918145878622e-01 0.000000000000000e+00
					5.443817944504830e-01 -2.692612097252414e-01 0.000000000000000e+00
					6.073330762008280e-01 -2.919477881004139e-01 0.000000000000000e+00
					6.131924512008280e-01 -1.459738940502069e-01 0.000000000000000e+00
					5.443817944504830e-01 -2.692612097252414e-01 0.000000000000000e+00
					5.458466382004830e-01 -1.346306048626207e-01 0.000000000000000e+00
					6.131924512008280e-01 -1.459738940502069e-01 0.000000000000000e+00
					6.151455762008280e-01 1.040834085586084e-17 0.000000000000000e+00
					5.458466382004830e-01 -1.346306048626207e-01 0.000000000000000e+00
					5.463349194504828e-01 3.469446951953614e-18 0.000000000000000e+00
					6.151455762008280e-01 1.040834085586084e-17 0.000000000000000e+00
					6.131924512008278e-01 1.459738940502070e-01 0.000000000000000e+00
					5.463349194504828e-01 3.469446951953614e-18 0.000000000000000e+00
					5.458466382004828e-01 1.346306048626207e-01 0.000000000000000e+00
					6.131924512008278e-01 1.459738940502070e-01 0.000000000000000e+00
					6.073330762008278e-01 2.919477881004139e-01 0.000000000000000e+00
					5.458466382004828e-01 1.346306048626207e-01 0.000000000000000e+00
					5.443817944504828e-01 2.692612097252414e-01 0.000000000000000e+00
					6.073330762008278e-01 2.919477881004139e-01 0.000000000000000e+00
					5.975674512008278e-01 4.379216821506209e-01 0.000000000000000e+00
					5.443817944504828e-01 2.692612097252414e-01 0.000000000000000e+00
					5.419403882004828e-01 4.038918145878622e-01 0.000000000000000e+00
					5.975674512008278e-01 4.379216821506209e-01 0.000000000000000e+00
					5.838955762008278e-01 5.838955762008278e-01 0.000000000000000e+00
					5.419403882004828e-01 4.038918145878622e-01 0.000000000000000e+00
					5.385224194504830e-01 5.385224194504830e-01 0.000000000000000e+00
					5.385224194504830e-01 -5.385224194504830e-01 0.000000000000000e+00
					5.419403882004830e-01 -4.038918145878622e-01 0.000000000000000e+00
					5.000000000000000e-01 -5.000000000000000e-01 0.000000000000000e+00
					5.000000000000000e-01 -3.750000000000000e-01 0.000000000000000e+00
					5.419403882004830e-01 -4.038918145878622e-01 0.000000000000000e+00
					5.443817944504830e-01 -2.692612097252414e-01 0.000000000000000e+00
					5.000000000000000e-01 -3.750000000000000e-01 0.000000000000000e+00
					5.000000000000000e-01 -2.500000000000000e-01 0.000000000000000e+00
					5.443817944504830e-01 -2.692612097252414e-01 0.000000000000000e+00
					5.458466382004830e-01 -1.346306048626207e-01 0.000000000000000e+00
					5.000000000000000e-01 -2.500000000000000e-01 0.000000000000000e+00
					5.000000000000000e-01 -1.250000000000000e-01 0.000000000000000e+00
					5.458466382004830e-01 -1.346306048626207e-01 0.000000000000000e+00
					5.463349194504828e-01 3.469446951953614e-18 0.000000000000000e+00
					5.000000000000000e-01 -1.250000000000000e-01 0.000000000000000e+00
					5.000000000000000e-01 0.000000000000000e+00 0.000000000000000e+00
					5.463349194504828e-01 3.469446951953614e-18 0.000000000000000e+00
					5.458466382004828e-01 1.346306048626207e-01 0.000000000000000e+00
					5.000000000000000e-01 0.000000000000000e+00 0.000000000000000e+00
					5.000000000000000e-01 1.250000000000000e-01 0.000000000000000e+00
					5.458466382004828e-01 1.346306048626207e-01 0.000000000000000e+00
					5.443817944504828e-01 2.692612097252414e-01 0.000000000000000e+00
					5.000000000000000e-01 1.250000000000000e-01 0.000000000000000e+00
					5.000000000000000e-01 2.500000000000000e-01 0.000000000000000e+00
					5.443817944504828e-01 2.692612097252414e-01 0.000000000000000e+00
					5.419403882004828e-01 4.038918145878622e-01 0.000000000000000e+00
					5.000000000000000e-01 2.500000000000000e-01 0.000000000000000e+00
					5.000000000000000e-01 3.750000000000000e-01 0.000000000000000e+00
					5.419403882004828e-01 4.038918145878622e-01 0.000000000000000e+00
					5.385224194504830e-01 5.385224194504830e-01 0.000000000000000e+00
					5.000000000000000e-01 3.750000000000000e-01 0.000000000000000e+00
					5.000000000000000e-01 5.000000000000000e-01 0.000000000000000e+00
				</DataArray>
			</Points>
			<Cells>
				<DataArray Name="connectivity" type="UInt32" format="ascii">
					0 1 3 2 4 5 7 6 8 9 11 10 12 13 15 14 16 17 19 18 20 21 23 22 24 25 27 26 28 29 31 30 32 33 35 34 36 37 39 38 40 41 43 42 44 45 47 46 48 49 51 50 52 53 55 54 56 57 59 58 60 61 63 62 64 65 67 66 68 69 71 70 72 73 75 74 76 77 79 78 80 81 83 82 84 85 87 86 88 89 91 90 92 93 95 94 96 97 99 98 100 101 103 102 104 105 107 106 108 109 111 110 112 113 115 114 116 117 119 118 120 121 123 122 124 125 127 126 128 129 131 130 132 133 135 134 136 137 139 138 140 141 143 142 144 145 147 146 148 149 151 150 152 153 155 154 156 157 159 158 160 161 163 162 164 165 167 166 168 169 171 170 172 173 175 174 176 177 179 178 180 181 183 182 184 185 187 186 188 189 191 190 192 193 195 194 196 197 199 198 200 201 203 202 204 205 207 206 208 209 211 210 212 213 215 214 216 217 219 218 220 221 223 222 224 225 227 226 228 229 231 230 232 233 235 234 236 237 239 238 240 241 243 242 244 245 247 246 248 249 251 250 252 253 255 254 
				</DataArray>
				<DataArray Name="offsets" type="UInt32" format="ascii">
					4 8 12 16 20 24 28 32 36 40 44 48 52 56 60 64 68 72 76 80 84 88 92 96 100 104 108 112 116 120 124 128 132 136 140 144 148 152 156 160 164 168 172 176 180 184 188 192 196 200 204 208 212 216 220 224 228 232 236 240 244 248 252 256 
				</DataArray>
				<DataArray Name="types" type="UInt8" format="ascii">
					9 9 9 9 9 9 9 9 9 9 9 9 9 9 9 9 9 9 9 9 9 9 9 9 9 9 9 9 9 9 9 9 9 9 9 9 9 9 9 9 9 9 9 9 9 9 9 9 9 9 9 9 9 9 9 9 9 9 9 9 9 9 9 9 
				</DataArray>
			</Cells>
			<PointData Vectors="solution ">
				<DataArray Name="solution" type="Float64" NumberOfComponents="1" format="ascii">
					0.000000000000000e+00 0.000000000000000e+00 5.222479659938516e-03 1.904655322771497e-02 0.000000000000000e+00 0.000000000000000e+00 1.904655322771497e-02 5.424974853724528e-02 0.000000000000000e+00 0.000000000000000e+00 5.424974853724530e-02 1.246021339694007e-01 0.000000000000000e+00 0.000000000000000e+00 1.246021339694008e-01 2.242721954794398e-01 0.000000000000000e+00 0.000000000000000e+00 2.242721954794399e-01 3.106271299319244e-01 0.000000000000000e+00 0.000000000000000e+00 3.106271299319245e-01 3.369655155552793e-01 0.000000000000000e+00 0.000000000000000e+00 3.369655155552794e-01 2.956429453076605e-01 0.000000000000000e+00 0.000000000000000e+00 2.956429453076606e-01 1.996745502409260e-01 5.222479659938516e-03 1.904655322771497e-02 6.945032437716728e-02 2.222213489565966e-01 1.904655322771497e-02 5.424974853724528e-02 2.222213489565966e-01 5.488212184637904e-01 5.424974853724530e-02 1.246021339694007e-01 5.488212184637907e-01 1.103820798449400e+00 1.246021339694008e-01 2.242721954794398e-01 1.103820798449401e+00 1.837793506579992e+00 2.242721954794399e-01 3.106271299319244e-01 1.837793506579993e+00 2.541415988703525e+00 3.106271299319245e-01 3.369655155552793e-01 2.541415988703525e+00 2.909190176382761e+00 3.369655155552794e-01 2.956429453076606e-01 2.909190176382761e+00 2.712111326733971e+00 2.956429453076606e-01 1.996745502409260e-01 2.712111326733972e+00 1.955238661877857e+00 6.945032437716731e-02 2.222213489565967e-01 2.874027084566464e-01 8.161051914827011e-01 2.222213489565967e-01 5.488212184637906e-01 8.161051914827011e-01 1.843481238971678e+00 5.488212184637907e-01 1.103820798449400e+00 1.843481238971678e+00 3.456337766318730e+00 1.103820798449401e+00 1.837793506579993e+00 3.456337766318732e+00 5.482746261696798e+00 1.837793506579993e+00 2.541415988703525e+00 5.482746261696799e+00 7.398928557794242e+00 2.541415988703526e+00 2.909190176382761e+00 7.398928557794245e+00 8.447759888829797e+00 2.909190176382761e+00 2.712111326733972e+00 8.447759888829797e+00 8.005359918991793e+00 2.712111326733972e+00 1.955238661877857e+00 8.005359918991795e+00 6.034134779033815e+00 2.874027084566465e-01 8.161051914827012e-01 7.310040121879695e-01 1.852782767034394e+00 8.161051914827012e-01 1.843481238971679e+00 1.852782767034394e+00 3.856767258615695e+00 1.843481238971679e+00 3.456337766318732e+00 3.856767258615696e+00 6.808879647580729e+00 3.456337766318732e+00 5.482746261696800e+00 6.808879647580732e+00 1.035859602947139e+01 5.482746261696802e+00 7.398928557794245e+00 1.035859602947140e+01 1.364566041216685e+01 7.398928557794248e+00 8.447759888829799e+00 1.364566041216686e+01 1.549033534386459e+01 8.447759888829800e+00 8.005359918991795e+00 1.549033534386459e+01 1.491351303000430e+01 8.005359918991799e+00 6.034134779033817e+00 1.491351303000430e+01 1.178994922030118e+01 7.310040121879696e-01 1.852782767034395e+00 1.417903980217386e+00 3.228935419146884e+00 1.852782767034395e+00 3.856767258615696e+00 3.228935419146884e+00 6.217634598917488e+00 3.856767258615696e+00 6.808879647580732e+00 6.217634598917488e+00 1.037530454159227e+01 6.808879647580733e+00 1.035859602947140e+01 1.037530454159227e+01 1.519326281317206e+01 1.035859602947140e+01 1.364566041216686e+01 1.519326281317206e+01 1.960037389762317e+01 1.364566041216686e+01 1.549033534386459e+01 1.960037389762318e+01 2.218969486880115e+01 1.549033534386459e+01 1.491351303000431e+01 2.218969486880115e+01 2.176976688652216e+01 1.491351303000431e+01 1.178994922030118e+01 2.176976688652216e+01 1.805974897609021e+01 1.417903980217386e+00 3.228935419146885e+00 2.310850703016403e+00 4.768229652730220e+00 3.228935419146885e+00 6.217634598917490e+00 4.768229652730220e+00 8.538551806862550e+00 6.217634598917490e+00 1.037530454159227e+01 8.538551806862552e+00 1.352309073872992e+01 1.037530454159227e+01 1.519326281317206e+01 1.352309073872992e+01 1.913020157325579e+01 1.519326281317207e+01 1.960037389762318e+01 1.913020157325579e+01 2.424709316539949e+01 1.960037389762318e+01 2.218969486880116e+01 2.424709316539949e+01 2.745034903630778e+01 2.218969486880116e+01 2.176976688652217e+01 2.745034903630778e+01 2.748570740560045e+01 2.176976688652217e+01 1.805974897609021e+01 2.748570740560046e+01 2.388462005165378e+01 2.310850703016403e+00 4.768229652730220e+00 3.334052491594047e+00 6.295849307203602e+00 4.768229652730220e+00 8.538551806862552e+00 6.295849307203603e+00 1.055908249165321e+01 8.538551806862554e+00 1.352309073872992e+01 1.055908249165321e+01 1.595671632737185e+01 1.352309073872992e+01 1.913020157325579e+01 1.595671632737186e+01 2.189393373171050e+01 1.913020157325580e+01 2.424709316539949e+01 2.189393373171051e+01 2.734155420986408e+01 2.424709316539950e+01 2.745034903630778e+01 2.734155420986409e+01 3.100112119519082e+01 2.745034903630779e+01 2.748570740560045e+01 3.100112119519082e+01 3.167306954248882e+01 2.748570740560046e+01 2.388462005165379e+01 3.167306954248883e+01 2.873934252040592e+01 3.334052491594048e+00 6.295849307203605e+00 4.394305960488543e+00 7.676203530221484e+00 6.295849307203605e+00 1.055908249165321e+01 7.676203530221484e+00 1.215678763322008e+01 1.055908249165321e+01 1.595671632737185e+01 1.215678763322008e+01 1.763700682102903e+01 1.595671632737186e+01 2.189393373171051e+01 1.763700682102904e+01 2.357297101075858e+01 2.189393373171052e+01 2.734155420986409e+01 2.357297101075859e+01 2.907872455079037e+01 2.734155420986409e+01 3.100112119519082e+01 2.907872455079038e+01 3.304523816368955e+01 3.100112119519082e+01 3.167306954248883e+01 3.304523816368955e+01 3.440269424269105e+01 3.167306954248884e+01 2.873934252040593e+01 3.440269424269106e+01 3.246961631116773e+01 
				</DataArray>
			</PointData>
			<CellData>
			</CellData>
		</Piece>
	</UnstructuredGrid>
</VTKFile>