<?xml version="1.0"?>
<VTKFile type="UnstructuredGrid" byte_order="LittleEndian">
	<UnstructuredGrid>
		<Piece NumberOfPoints="256" NumberOfCells="64">
			<Points>
				<DataArray type="Float64" NumberOfComponents="3" format="ascii">
					-5.000000000000000e-01 -5.000000000000000e-01 0.000000000000000e+00
					-3.750000000000000e-01 -5.000000000000000e-01 0.000000000000000e+00
					-5.000000000000000e-01 -3.750000000000000e-01 0.000000000000000e+00
					-3.750000000000000e-01 -3.750000000000000e-01 0.000000000000000e+00
					-3.750000000000000e-01 -5.000000000000000e-01 0.000000000000000e+00
					-2.500000000000000e-01 -5.000000000000000e-01 0.000000000000000e+00
					-3.750000000000000e-01 -3.750000000000000e-01 0.000000000000000e+00
					-2.500000000000000e-01 -3.750000000000000e-01 0.000000000000000e+00
					-2.500000000000000e-01 -5.000000000000000e-01 0.000000000000000e+00
					-1.250000000000000e-01 -5.000000000000000e-01 0.000000000000000e+00
					-2.500000000000000e-01 -3.750000000000000e-01 0.000000000000000e+00
					-1.250000000000000e-01 -3.750000000000000e-01 0.000000000000000e+00
					-1.250000000000000e-01 -5.000000000000000e-01 0.000000000000000e+00
					0.000000000000000e+00 -5.000000000000000e-01 0.000000000000000e+00
					-1.250000000000000e-01 -3.750000000000000e-01 0.000000000000000e+00
					0.000000000000000e+00 -3.750000000000000e-01 0.000000000000000e+00
					0.000000000000000e+00 -5.000000000000000e-01 0.000000000000000e+00
					1.250000000000000e-01 -5.000000000000000e-01 0.000000000000000e+00
					0.000000000000000e+00 -3.750000000000000e-01 0.000000000000000e+00
					1.250000000000000e-01 -3.750000000000000e-01 0.000000000000000e+00
					1.250000000000000e-01 -5.000000000000000e-01 0.000000000000000e+00
					2.500000000000000e-01 -5.000000000000000e-01 0.000000000000000e+00
					1.250000000000000e-01 -3.750000000000000e-01 0.000000000000000e+00
					2.500000000000000e-01 -3.750000000000000e-01 0.000000000000000e+00
					2.500000000000000e-01 -5.000000000000000e-01 0.000000000000000e+00
					3.750000000000000e-01 -5.000000000000000e-01 0.000000000000000e+00
					2.500000000000000e-01 -3.750000000000000e-01 0.000000000000000e+00
					3.750000000000000e-01 -3.750000000000000e-01 0.000000000000000e+00
					3.750000000000000e-01 -5.000000000000000e-01 0.000000000000000e+00
					5.000000000000000e-01 -5.000000000000000e-01 0.000000000000000e+00
					3.750000000000000e-01 -3.750000000000000e-01 0.000000000000000e+00
					5.000000000000000e-01 -3.750000000000000e-01 0.000000000000000e+00
					-5.000000000000000e-01 -3.750000000000000e-01 0.000000000000000e+00
					-3.750000000000000e-01 -3.750000000000000e-01 0.000000000000000e+00
					-5.000000000000000e-01 -2.500000000000000e-01 0.000000000000000e+00
					-3.750000000000001e-01 -2.500000000000000e-01 0.000000000000000e+00
					-3.750000000000000e-01 -3.750000000000000e-01 0.000000000000000e+00
					-2.500000000000000e-01 -3.750000000000000e-01 0.000000000000000e+00
					-3.750000000000001e-01 -2.500000000000000e-01 0.000000000000000e+00
					-2.500000000000000e-01 -2.500000000000000e-01 0.000000000000000e+00
					-2.500000000000000e-01 -3.750000000000000e-01 0.000000000000000e+00
					-1.250000000000000e-01 -3.750000000000000e-01 0.000000000000000e+00
					-2.500000000000000e-01 -2.500000000000000e-01 0.000000000000000e+00
					-1.250000000000000e-01 -2.500000000000000e-01 0.000000000000000e+00
					-1.250000000000000e-01 -3.750000000000000e-01 0.000000000000000e+00
					0.000000000000000e+00 -3.750000000000000e-01 0.000000000000000e+00
					-1.250000000000000e-01 -2.500000000000000e-01 0.000000000000000e+00
					0.000000000000000e+00 -2.500000000000000e-01 0.000000000000000e+00
					0.000000000000000e+00 -3.750000000000000e-01 0.000000000000000e+00
					1.250000000000000e-01 -3.750000000000000e-01 0.000000000000000e+00
					0.000000000000000e+00 -2.500000000000000e-01 0.000000000000000e+00
					1.250000000000000e-01 -2.500000000000000e-01 0.000000000000000e+00
					1.250000000000000e-01 -3.750000000000000e-01 0.000000000000000e+00
					2.500000000000000e-01 -3.750000000000000e-01 0.000000000000000e+00
					1.250000000000000e-01 -2.500000000000000e-01 0.000000000000000e+00
					2.500000000000000e-01 -2.500000000000000e-01 0.000000000000000e+00
					2.500000000000000e-01 -3.750000000000000e-01 0.000000000000000e+00
					3.750000000000000e-01 -3.750000000000000e-01 0.000000000000000e+00
					2.500000000000000e-01 -2.500000000000000e-01 0.000000000000000e+00
					3.750000000000001e-01 -2.500000000000000e-01 0.000000000000000e+00
					3.750000000000000e-01 -3.750000000000000e-01 0.000000000000000e+00
					5.000000000000000e-01 -3.750000000000000e-01 0.000000000000000e+00
					3.750000000000001e-01 -2.500000000000000e-01 0.000000000000000e+00
					5.000000000000000e-01 -2.500000000000000e-01 0.000000000000000e+00
					-5.000000000000000e-01 -2.500000000000000e-01 0.000000000000000e+00
					-3.750000000000001e-01 -2.500000000000000e-01 0.000000000000000e+00
					-5.000000000000000e-01 -1.250000000000000e-01 0.000000000000000e+00
					-3.750000000000001e-01 -1.250000000000000e-01 0.000000000000000e+00
					-3.750000000000001e-01 -2.500000000000000e-01 0.000000000000000e+00
					-2.500000000000000e-01 -2.500000000000000e-01 0.000000000000000e+00
					-3.750000000000001e-01 -1.250000000000000e-01 0.000000000000000e+00
					-2.500000000000000e-01 -1.250000000000000e-01 0.000000000000000e+00
					-2.500000000000000e-01 -2.500000000000000e-01 0.000000000000000e+00
					-1.250000000000000e-01 -2.500000000000000e-01 0.000000000000000e+00
					-2.500000000000000e-01 -1.250000000000000e-01 0.000000000000000e+00
					-1.250000000000000e-01 -1.250000000000000e-01 0.000000000000000e+00
					-1.250000000000000e-01 -2.500000000000000e-01 0.000000000000000e+00
					0.000000000000000e+00 -2.500000000000000e-01 0.000000000000000e+00
					-1.250000000000000e-01 -1.250000000000000e-01 0.000000000000000e+00
					0.000000000000000e+00 -1.250000000000000e-01 0.000000000000000e+00
					0.000000000000000e+00 -2.500000000000000e-01 0.000000000000000e+00
					1.250000000000000e-01 -2.500000000000000e-01 0.000000000000000e+00
					0.000000000000000e+00 -1.250000000000000e-01 0.000000000000000e+00
					1.250000000000000e-01 -1.250000000000000e-01 0.000000000000000e+00
					1.250000000000000e-01 -2.500000000000000e-01 0.000000000000000e+00
					2.500000000000000e-01 -2.500000000000000e-01 0.000000000000000e+00
					1.250000000000000e-01 -1.250000000000000e-01 0.000000000000000e+00
					2.500000000000000e-01 -1.250000000000000e-01 0.000000000000000e+00
					2.500000000000000e-01 -2.500000000000000e-01 0.000000000000000e+00
					3.750000000000001e-01 -2.500000000000000e-01 0.000000000000000e+00
					2.500000000000000e-01 -1.250000000000000e-01 0.000000000000000e+00
					3.750000000000001e-01 -1.250000000000000e-01 0.000000000000000e+00
					3.750000000000001e-01 -2.500000000000000e-01 0.000000000000000e+00
					5.000000000000000e-01 -2.500000000000000e-01 0.000000000000000e+00
					3.750000000000001e-01 -1.250000000000000e-01 0.000000000000000e+00
					5.000000000000000e-01 -1.250000000000000e-01 0.000000000000000e+00
					-5.000000000000000e-01 -1.250000000000000e-01 0.000000000000000e+00
					-3.750000000000001e-01 -1.250000000000000e-01 0.000000000000000e+00
					-5.000000000000000e-01 0.000000000000000e+00 0.000000000000000e+00
					-3.750000000000000e-01 0.000000000000000e+00 0.000000000000000e+00
					-3.750000000000001e-01 -1.250000000000000e-01 0.000000000000000e+00
					-2.500000000000000e-01 -1.250000000000000e-01 0.000000000000000e+00
					-3.750000000000000e-01 0.000000000000000e+00 0.000000000000000e+00
					-2.500000000000000e-01 0.000000000000000e+00 0.000000000000000e+00
					-2.500000000000000e-01 -1.250000000000000e-01 0.000000000000000e+00
					-1.250000000000000e-01 -1.250000000000000e-01 0.000000000000000e+00
					-2.500000000000000e-01 0.000000000000000e+00 0.000000000000000e+00
					-1.250000000000000e-01 0.000000000000000e+00 0.000000000000000e+00
					-1.250000000000000e-01 -1.250000000000000e-01 0.000000000000000e+00
					0.000000000000000e+00 -1.250000000000000e-01 0.000000000000000e+00
					-1.250000000000000e-01 0.000000000000000e+00 0.000000000000000e+00
					0.000000000000000e+00 0.000000000000000e+00 0.000000000000000e+00
					0.000000000000000e+00 -1.250000000000000e-01 0.000000000000000e+00
					1.250000000000000e-01 -1.250000000000000e-01 0.000000000000000e+00
					0.000000000000000e+00 0.000000000000000e+00 0.000000000000000e+00
					1.250000000000000e-01 0.000000000000000e+00 0.000000000000000e+00
					1.250000000000000e-01 -1.250000000000000e-01 0.000000000000000e+00
					2.500000000000000e-01 -1.250000000000000e-01 0.000000000000000e+00
					1.250000000000000e-01 0.000000000000000e+00 0.000000000000000e+00
					2.500000000000000e-01 0.000000000000000e+00 0.000000000000000e+00
					2.500000000000000e-01 -1.250000000000000e-01 0.000000000000000e+00
					3.750000000000001e-01 -1.250000000000000e-01 0.000000000000000e+00
					2.500000000000000e-01 0.000000000000000e+00 0.000000000000000e+00
					3.750000000000001e-01 0.000000000000000e+00 0.000000000000000e+00
					3.750000000000001e-01 -1.250000000000000e-01 0.000000000000000e+00
					5.000000000000000e-01 -1.250000000000000e-01 0.000000000000000e+00
					3.750000000000001e-01 0.000000000000000e+00 0.000000000000000e+00
					5.000000000000000e-01 0.000000000000000e+00 0.000000000000000e+00
					-5.000000000000000e-01 0.000000000000000e+00 0.000000000000000e+00
					-3.750000000000000e-01 0.000000000000000e+00 0.000000000000000e+00
					-5.000000000000000e-01 1.250000000000000e-01 0.000000000000000e+00
					-3.750000000000000e-01 1.250000000000000e-01 0.000000000000000e+00
					-3.750000000000000e-01 0.000000000000000e+00 0.000000000000000e+00
					-2.500000000000000e-01 0.000000000000000e+00 0.000000000000000e+00
					-3.750000000000000e-01 1.250000000000000e-01 0.000000000000000e+00
					-2.500000000000000e-01 1.250000000000000e-01 0.000000000000000e+00
					-2.500000000000000e-01 0.000000000000000e+00 0.000000000000000e+00
					-1.250000000000000e-01 0.000000000000000e+00 0.000000000000000e+00
					-2.500000000000000e-01 1.250000000000000e-01 0.000000000000000e+00
					-1.250000000000000e-01 1.250000000000000e-01 0.000000000000000e+00
					-1.250000000000000e-01 0.000000000000000e+00 0.000000000000000e+00
					0.000000000000000e+00 0.000000000000000e+00 0.000000000000000e+00
					-1.250000000000000e-01 1.250000000000000e-01 0.000000000000000e+00
					0.000000000000000e+00 1.250000000000000e-01 0.000000000000000e+00
					0.000000000000000e+00 0.000000000000000e+00 0.000000000000000e+00
					1.250000000000000e-01 0.000000000000000e+00 0.000000000000000e+00
					0.000000000000000e+00 1.250000000000000e-01 0.000000000000000e+00
					1.250000000000000e-01 1.250000000000000e-01 0.000000000000000e+00
					1.250000000000000e-01 0.000000000000000e+00 0.000000000000000e+00
					2.500000000000000e-01 0.000000000000000e+00 0.000000000000000e+00
					1.250000000000000e-01 1.250000000000000e-01 0.000000000000000e+00
					2.500000000000000e-01 1.250000000000000e-01 0.000000000000000e+00
					2.500000000000000e-01 0.000000000000000e+00 0.000000000000000e+00
					3.750000000000001e-01 0.000000000000000e+00 0.000000000000000e+00
					2.500000000000000e-01 1.250000000000000e-01 0.000000000000000e+00
					3.750000000000000e-01 1.250000000000000e-01 0.000000000000000e+00
					3.750000000000001e-01 0.000000000000000e+00 0.000000000000000e+00
					5.000000000000000e-01 0.000000000000000e+00 0.000000000000000e+00
					3.750000000000000e-01 1.250000000000000e-01 0.000000000000000e+00
					5.000000000000000e-01 1.250000000000000e-01 0.000000000000000e+00
					-5.000000000000000e-01 1.250000000000000e-01 0.000000000000000e+00
					-3.750000000000000e-01 1.250000000000000e-01 0.000000000000000e+00
					-5.000000000000000e-01 2.500000000000000e-01 0.000000000000000e+00
					-3.750000000000000e-01 2.500000000000000e-01 0.000000000000000e+00
					-3.750000000000000e-01 1.250000000000000e-01 0.000000000000000e+00
					-2.500000000000000e-01 1.250000000000000e-01 0.000000000000000e+00
					-3.750000000000000e-01 2.500000000000000e-01 0.000000000000000e+00
					-2.500000000000000e-01 2.500000000000000e-01 0.000000000000000e+00
					-2.500000000000000e-01 1.250000000000000e-01 0.000000000000000e+00
					-1.250000000000000e-01 1.250000000000000e-01 0.000000000000000e+00
					-2.500000000000000e-01 2.500000000000000e-01 0.000000000000000e+00
					-1.250000000000000e-01 2.500000000000000e-01 0.000000000000000e+00
					-1.250000000000000e-01 1.250000000000000e-01 0.000000000000000e+00
					0.000000000000000e+00 1.250000000000000e-01 0.000000000000000e+00
					-1.250000000000000e-01 2.500000000000000e-01 0.000000000000000e+00
					0.000000000000000e+00 2.500000000000000e-01 0.000000000000000e+00
					0.000000000000000e+00 1.250000000000000e-01 0.000000000000000e+00
					1.250000000000000e-01 1.250000000000000e-01 0.000000000000000e+00
					0.000000000000000e+00 2.500000000000000e-01 0.000000000000000e+00
					1.250000000000000e-01 2.500000000000000e-01 0.000000000000000e+00
					1.250000000000000e-01 1.250000000000000e-01 0.000000000000000e+00
					2.500000000000000e-01 1.250000000000000e-01 0.000000000000000e+00
					1.250000000000000e-01 2.500000000000000e-01 0.000000000000000e+00
					2.500000000000000e-01 2.500000000000000e-01 0.000000000000000e+00
					2.500000000000000e-01 1.250000000000000e-01 0.000000000000000e+00
					3.750000000000000e-01 1.250000000000000e-01 0.000000000000000e+00
					2.500000000000000e-01 2.500000000000000e-01 0.000000000000000e+00
					3.750000000000000e-01 2.500000000000000e-01 0.000000000000000e+00
					3.750000000000000e-01 1.250000000000000e-01 0.000000000000000e+00
					5.000000000000000e-01 1.250000000000000e-01 0.000000000000000e+00
					3.750000000000000e-01 2.500000000000000e-01 0.000000000000000e+00
					5.000000000000000e-01 2.500000000000000e-01 0.000000000000000e+00
					-5.000000000000000e-01 2.500000000000000e-01 0.000000000000000e+00
					-3.750000000000000e-01 2.500000000000000e-01 0.000000000000000e+00
					-5.000000000000000e-01 3.750000000000000e-01 0.000000000000000e+00
					-3.750000000000000e-01 3.750000000000000e-01 0.000000000000000e+00
					-3.750000000000000e-01 2.500000000000000e-01 0.000000000000000e+00
					-2.500000000000000e-01 2.500000000000000e-01 0.000000000000000e+00
					-3.750000000000000e-01 3.750000000000000e-01 0.000000000000000e+00
					-2.500000000000000e-01 3.750000000000000e-01 0.000000000000000e+00
					-2.500000000000000e-01 2.500000000000000e-01 0.000000000000000e+00
					-1.250000000000000e-01 2.500000000000000e-01 0.000000000000000e+00
					-2.500000000000000e-01 3.750000000000000e-01 0.000000000000000e+00
					-1.250000000000000e-01 3.750000000000000e-01 0.000000000000000e+00
					-1.250000000000000e-01 2.500000000000000e-01 0.000000000000000e+00
					0.000000000000000e+00 2.500000000000000e-01 0.000000000000000e+00
					-1.250000000000000e-01 3.750000000000000e-01 0.000000000000000e+00
					0.000000000000000e+00 3.750000000000000e-01 0.000000000000000e+00
					0.000000000000000e+00 2.500000000000000e-01 0.000000000000000e+00
					1.250000000000000e-01 2.500000000000000e-01 0.000000000000000e+00
					0.000000000000000e+00 3.750000000000000e-01 0.000000000000000e+00
					1.250000000000000e-01 3.750000000000000e-01 0.000000000000000e+00
					1.250000000000000e-01 2.500000000000000e-01 0.000000000000000e+00
					2.500000000000000e-01 2.500000000000000e-01 0.000000000000000e+00
					1.250000000000000e-01 3.750000000000000e-01 0.000000000000000e+00
					2.500000000000000e-01 3.750000000000000e-01 0.000000000000000e+00
					2.500000000000000e-01 2.500000000000000e-01 0.000000000000000e+00
					3.750000000000000e-01 2.500000000000000e-01 0.000000000000000e+00
					2.500000000000000e-01 3.750000000000000e-01 0.000000000000000e+00
					3.750000000000000e-01 3.750000000000000e-01 0.000000000000000e+00
					3.750000000000000e-01 2.500000000000000e-01 0.000000000000000e+00
					5.000000000000000e-01 2.500000000000000e-01 0.000000000000000e+00
					3.750000000000000e-01 3.750000000000000e-01 0.000000000000000e+00
					5.000000000000000e-01 3.750000000000000e-01 0.000000000000000e+00
					-5.000000000000000e-01 3.750000000000000e-01 0.000000000000000e+00
					-3.750000000000000e-01 3.750000000000000e-01 0.000000000000000e+00
					-5.000000000000000e-01 5.000000000000000e-01 0.000000000000000e+00
					-3.750000000000000e-01 5.000000000000000e-01 0.000000000000000e+00
					-3.750000000000000e-01 3.750000000000000e-01 0.000000000000000e+00
					-2.500000000000000e-01 3.750000000000000e-01 0.000000000000000e+00
					-3.750000000000000e-01 5.000000000000000e-01 0.000000000000000e+00
					-2.500000000000000e-01 5.000000000000000e-01 0.000000000000000e+00
					-2.500000000000000e-01 3.750000000000000e-01 0.000000000000000e+00
					-1.250000000000000e-01 3.750000000000000e-01 0.000000000000000e+00
					-2.500000000000000e-01 5.000000000000000e-01 0.000000000000000e+00
					-1.250000000000000e-01 5.000000000000000e-01 0.000000000000000e+00
					-1.250000000000000e-01 3.750000000000000e-01 0.000000000000000e+00
					0.000000000000000e+00 3.750000000000000e-01 0.000000000000000e+00
					-1.250000000000000e-01 5.000000000000000e-01 0.000000000000000e+00
					0.000000000000000e+00 5.000000000000000e-01 0.000000000000000e+00
					0.000000000000000e+00 3.750000000000000e-01 0.000000000000000e+00
					1.250000000000000e-01 3.750000000000000e-01 0.000000000000000e+00
					0.000000000000000e+00 5.000000000000000e-01 0.000000000000000e+00
					1.250000000000000e-01 5.000000000000000e-01 0.000000000000000e+00
					1.250000000000000e-01 3.750000000000000e-01 0.000000000000000e+00
					2.500000000000000e-01 3.750000000000000e-01 0.000000000000000e+00
					1.250000000000000e-01 5.000000000000000e-01 0.000000000000000e+00
					2.500000000000000e-01 5.000000000000000e-01 0.000000000000000e+00
					2.500000000000000e-01 3.750000000000000e-01 0.000000000000000e+00
					3.750000000000000e-01 3.750000000000000e-01 0.000000000000000e+00
					2.500000000000000e-01 5.000000000000000e-01 0.000000000000000e+00
					3.750000000000000e-01 5.000000000000000e-01 0.000000000000000e+00
					3.750000000000000e-01 3.750000000000000e-01 0.000000000000000e+00
					5.000000000000000e-01 3.750000000000000e-01 0.000000000000000e+00
					3.750000000000000e-01 5.000000000000000e-01 0.000000000000000e+00
					5.000000000000000e-01 5.000000000000000e-01 0.000000000000000e+00
				</DataArray>
			</Points>
			<Cells>
				<DataArray Name="connectivity" type="UInt32" format="ascii">
					0 1 3 2 4 5 7 6 8 9 11 10 12 13 15 14 16 17 19 18 20 21 23 22 24 25 27 26 28 29 31 30 32 33 35 34 36 37 39 38 40 41 43 42 44 45 47 46 48 49 51 50 52 53 55 54 56 57 59 58 60 61 63 62 64 65 67 66 68 69 71 70 72 73 75 74 76 77 79 78 80 81 83 82 84 85 87 86 88 89 91 90 92 93 95 94 96 97 99 98 100 101 103 102 104 105 107 106 108 109 111 110 112 113 115 114 116 117 119 118 120 121 123 122 124 125 127 126 128 129 131 130 132 133 135 134 136 137 139 138 140 141 143 142 144 145 147 146 148 149 151 150 152 153 155 154 156 157 159 158 160 161 163 162 164 165 167 166 168 169 171 170 172 173 175 174 176 177 179 178 180 181 183 182 184 185 187 186 188 189 191 190 192 193 195 194 196 197 199 198 200 201 203 202 204 205 207 206 208 209 211 210 212 213 215 214 216 217 219 218 220 221 223 222 224 225 227 226 228 229 231 230 232 233 235 234 236 237 239 238 240 241 243 242 244 245 247 246 248 249 251 250 252 253 255 254 
				</DataArray>
				<DataArray Name="offsets" type="UInt32" format="ascii">
					4 8 12 16 20 24 28 32 36 40 44 48 52 56 60 64 68 72 76 80 84 88 92 96 100 104 108 112 116 120 124 128 132 136 140 144 148 152 156 160 164 168 172 176 180 184 188 192 196 200 204 208 212 216 220 224 228 232 236 240 244 248 252 256 
				</DataArray>
				<DataArray Name="types" type="UInt8" format="ascii">
					9 9 9 9 9 9 9 9 9 9 9 9 9 9 9 9 9 9 9 9 9 9 9 9 9 9 9 9 9 9 9 9 9 9 9 9 9 9 9 9 9 9 9 9 9 9 9 9 9 9 9 9 9 9 9 9 9 9 9 9 9 9 9 9 
				</DataArray>
			</Cells>
			<PointData Vectors="solution ">
				<DataArray Name="solution" type="Float64" NumberOfComponents="1" format="ascii">
					1.616574256818343e+00 2.492120542736467e+00 2.823942694600943e+00 4.261101078025276e+00 2.492120542736467e+00 3.482957762592934e+00 4.261101078025276e+00 5.874035678702580e+00 3.482957762592934e+00 4.459325250678868e+00 5.874035678702580e+00 7.463104191515997e+00 4.459325250678869e+00 5.259885927068554e+00 7.463104191515999e+00 8.781146176606811e+00 5.259885927068556e+00 5.725888238553570e+00 8.781146176606812e+00 9.582816838768137e+00 5.725888238553571e+00 5.742428347041247e+00 9.582816838768140e+00 9.684650547438194e+00 5.742428347041248e+00 5.275821816153069e+00 9.684650547438196e+00 9.020754557339050e+00 5.275821816153070e+00 4.394303965974294e+00 9.020754557339052e+00 7.676272062752903e+00 2.823942694600943e+00 4.261101078025276e+00 4.472206315248619e+00 6.656153584197315e+00 4.261101078025277e+00 5.874035678702580e+00 6.656153584197315e+00 9.094700257984208e+00 5.874035678702581e+00 7.463104191515997e+00 9.094700257984210e+00 1.149760343472016e+01 7.463104191515999e+00 8.781146176606811e+00 1.149760343472017e+01 1.350642346762228e+01 8.781146176606812e+00 9.582816838768137e+00 1.350642346762229e+01 1.476321668524853e+01 9.582816838768140e+00 9.684650547438196e+00 1.476321668524854e+01 1.499463011696577e+01 9.684650547438196e+00 9.020754557339050e+00 1.499463011696577e+01 1.409108204833946e+01 9.020754557339052e+00 7.676272062752903e+00 1.409108204833947e+01 1.215671692266682e+01 4.472206315248620e+00 6.656153584197316e+00 6.488278435314832e+00 9.582812740012708e+00 6.656153584197316e+00 9.094700257984208e+00 9.582812740012708e+00 1.302848957962524e+01 9.094700257984211e+00 1.149760343472016e+01 1.302848957962524e+01 1.642454291904874e+01 1.149760343472017e+01 1.350642346762228e+01 1.642454291904875e+01 1.927667074287413e+01 1.350642346762229e+01 1.476321668524853e+01 1.927667074287414e+01 2.108953271402488e+01 1.476321668524854e+01 1.499463011696577e+01 2.108953271402489e+01 2.148035372923438e+01 1.499463011696577e+01 1.409108204833947e+01 2.148035372923438e+01 2.028682116647566e+01 1.409108204833947e+01 1.215671692266683e+01 2.028682116647566e+01 1.763696937814973e+01 6.488278435314835e+00 9.582812740012709e+00 8.672083942458748e+00 1.277648815460577e+01 9.582812740012709e+00 1.302848957962524e+01 1.277648815460577e+01 1.734258774248082e+01 1.302848957962524e+01 1.642454291904875e+01 1.734258774248082e+01 2.184332875024344e+01 1.642454291904875e+01 1.927667074287414e+01 2.184332875024345e+01 2.562890284872710e+01 1.927667074287415e+01 2.108953271402489e+01 2.562890284872710e+01 2.804739207859953e+01 2.108953271402490e+01 2.148035372923439e+01 2.804739207859954e+01 2.859310089580728e+01 2.148035372923439e+01 2.028682116647566e+01 2.859310089580729e+01 2.704783398767887e+01 2.028682116647567e+01 1.763696937814973e+01 2.704783398767888e+01 2.357316824277575e+01 8.672083942458750e+00 1.277648815460577e+01 1.069736336287627e+01 1.579938797564573e+01 1.277648815460577e+01 1.734258774248083e+01 1.579938797564573e+01 2.148034863564698e+01 1.734258774248083e+01 2.184332875024345e+01 2.148034863564698e+01 2.707949401674550e+01 2.184332875024345e+01 2.562890284872710e+01 2.707949401674551e+01 3.178185791179535e+01 2.562890284872711e+01 2.804739207859954e+01 3.178185791179536e+01 3.477076220243820e+01 2.804739207859955e+01 2.859310089580730e+01 3.477076220243821e+01 3.541511738100353e+01 2.859310089580730e+01 2.704783398767889e+01 3.541511738100353e+01 3.344731533639911e+01 2.704783398767889e+01 2.357316824277576e+01 3.344731533639911e+01 2.907844784757335e+01 1.069736336287628e+01 1.579938797564573e+01 1.215671935577561e+01 1.809330357052169e+01 1.579938797564574e+01 2.148034863564698e+01 1.809330357052169e+01 2.472196081085714e+01 2.148034863564698e+01 2.707949401674551e+01 2.472196081085714e+01 3.125372888347764e+01 2.707949401674552e+01 3.178185791179536e+01 3.125372888347766e+01 3.671426816913933e+01 3.178185791179537e+01 3.477076220243822e+01 3.671426816913934e+01 4.013058694684423e+01 3.477076220243823e+01 3.541511738100354e+01 4.013058694684425e+01 4.075963444427869e+01 3.541511738100354e+01 3.344731533639912e+01 4.075963444427869e+01 3.830353733334141e+01 3.344731533639913e+01 2.907844784757336e+01 3.830353733334143e+01 3.304539126784486e+01 1.215671935577561e+01 1.809330357052169e+01 1.265603624517223e+01 1.909693356681057e+01 1.809330357052169e+01 2.472196081085715e+01 1.909693356681057e+01 2.632560496621760e+01 2.472196081085715e+01 3.125372888347765e+01 2.632560496621760e+01 3.344731593707549e+01 3.125372888347766e+01 3.671426816913933e+01 3.344731593707550e+01 3.935437075011469e+01 3.671426816913934e+01 4.013058694684424e+01 3.935437075011470e+01 4.294721042157818e+01 4.013058694684425e+01 4.075963444427870e+01 4.294721042157820e+01 4.340359815340817e+01 4.075963444427870e+01 3.830353733334142e+01 4.340359815340817e+01 4.042822414616590e+01 3.830353733334143e+01 3.304539126784486e+01 4.042822414616591e+01 3.440267226753848e+01 1.265603624517223e+01 1.909693356681057e+01 1.194495540277639e+01 1.841441991535388e+01 1.909693356681057e+01 2.632560496621760e+01 1.841441991535388e+01 2.573576872371695e+01 2.632560496621761e+01 3.344731593707549e+01 2.573576872371695e+01 3.295020442370344e+01 3.344731593707551e+01 3.935437075011470e+01 3.295020442370345e+01 3.886559191004775e+01 3.935437075011472e+01 4.294721042157820e+01 3.886559191004776e+01 4.230890774716688e+01 4.294721042157821e+01 4.340359815340817e+01 4.230890774716691e+01 4.243112714452909e+01 4.340359815340818e+01 4.042822414616591e+01 4.243112714452909e+01 3.898334118744614e+01 4.042822414616592e+01 3.440267226753849e+01 3.898334118744614e+01 3.246976087862438e+01 
				</DataArray>
			</PointData>
			<CellData>
			</CellData>
		</Piece>
	</UnstructuredGrid>
</VTKFile>