<?xml version="1.0"?>
<VTKFile type="UnstructuredGrid" byte_order="LittleEndian">
	<UnstructuredGrid>
		<Piece NumberOfPoints="64" NumberOfCells="16">
			<Points>
				<DataArray type="Float64" NumberOfComponents="3" format="ascii">
					-1.000000000000000e+00 1.000000000000000e+00 0.000000000000000e+00
					-8.338955762008279e-01 8.338955762008279e-01 0.000000000000000e+00
					-5.000000000000000e-01 1.375000000000000e+00 0.000000000000000e+00
					-4.169477881004139e-01 1.044833076200828e+00 0.000000000000000e+00
					-8.338955762008279e-01 8.338955762008279e-01 0.000000000000000e+00
					-6.951941016011038e-01 6.951941016011038e-01 0.000000000000000e+00
					-4.169477881004139e-01 1.044833076200828e+00 0.000000000000000e+00
					-3.475970508005519e-01 7.889441016011038e-01 0.000000000000000e+00
					-6.951941016011038e-01 6.951941016011038e-01 0.000000000000000e+00
					-5.838955762008279e-01 5.838955762008279e-01 0.000000000000000e+00
					-3.475970508005519e-01 7.889441016011038e-01 0.000000000000000e+00
					-2.919477881004139e-01 6.073330762008279e-01 0.000000000000000e+00
					-5.838955762008279e-01 5.838955762008279e-01 0.000000000000000e+00
					-5.000000000000000e-01 5.000000000000000e-01 0.000000000000000e+00
					-2.919477881004139e-01 6.073330762008279e-01 0.000000000000000e+00
					-2.500000000000000e-01 5.000000000000000e-01 0.000000000000000e+00
					-5.000000000000000e-01 1.375000000000000e+00 0.000000000000000e+00
					-4.169477881004139e-01 1.044833076200828e+00 0.000000000000000e+00
					1.387778780781446e-17 1.500000000000000e+00 0.000000000000000e+00
					2.081668171172169e-17 1.115145576200828e+00 0.000000000000000e+00
					-4.169477881004139e-01 1.044833076200828e+00 0.000000000000000e+00
					-3.475970508005519e-01 7.889441016011038e-01 0.000000000000000e+00
					2.081668171172169e-17 1.115145576200828e+00 0.000000000000000e+00
					0.000000000000000e+00 8.201941016011038e-01 0.000000000000000e+00
					-3.475970508005519e-01 7.889441016011038e-01 0.000000000000000e+00
					-2.919477881004139e-01 6.073330762008279e-01 0.000000000000000e+00
					0.000000000000000e+00 8.201941016011038e-01 0.000000000000000e+00
					1.387778780781446e-17 6.151455762008279e-01 0.000000000000000e+00
					-2.919477881004139e-01 6.073330762008279e-01 0.000000000000000e+00
					-2.500000000000000e-01 5.000000000000000e-01 0.000000000000000e+00
					1.387778780781446e-17 6.151455762008279e-01 0.000000000000000e+00
					6.938893903907228e-18 5.000000000000000e-01 0.000000000000000e+00
					1.387778780781446e-17 1.500000000000000e+00 0.000000000000000e+00
					2.081668171172169e-17 1.115145576200828e+00 0.000000000000000e+00
					5.000000000000000e-01 1.375000000000000e+00 0.000000000000000e+00
					4.169477881004140e-01 1.044833076200828e+00 0.000000000000000e+00
					2.081668171172169e-17 1.115145576200828e+00 0.000000000000000e+00
					0.000000000000000e+00 8.201941016011038e-01 0.000000000000000e+00
					4.169477881004140e-01 1.044833076200828e+00 0.000000000000000e+00
					3.475970508005519e-01 7.889441016011038e-01 0.000000000000000e+00
					0.000000000000000e+00 8.201941016011038e-01 0.000000000000000e+00
					1.387778780781446e-17 6.151455762008279e-01 0.000000000000000e+00
					3.475970508005519e-01 7.889441016011038e-01 0.000000000000000e+00
					2.919477881004139e-01 6.073330762008279e-01 0.000000000000000e+00
					1.387778780781446e-17 6.151455762008279e-01 0.000000000000000e+00
					6.938893903907228e-18 5.000000000000000e-01 0.000000000000000e+00
					2.919477881004139e-01 6.073330762008279e-01 0.000000000000000e+00
					2.500000000000000e-01 5.000000000000000e-01 0.000000000000000e+00
					5.000000000000000e-01 1.375000000000000e+00 0.000000000000000e+00
					4.169477881004140e-01 1.044833076200828e+00 0.000000000000000e+00
					1.000000000000000e+00 1.000000000000000e+00 0.000000000000000e+00
					8.338955762008279e-01 8.338955762008279e-01 0.000000000000000e+00
					4.169477881004140e-01 1.044833076200828e+00 0.000000000000000e+00
					3.475970508005519e-01 7.889441016011038e-01 0.000000000000000e+00
					8.338955762008279e-01 8.338955762008279e-01 0.000000000000000e+00
					6.951941016011038e-01 6.951941016011038e-01 0.000000000000000e+00
					3.475970508005519e-01 7.889441016011038e-01 0.000000000000000e+00
					2.919477881004139e-01 6.073330762008279e-01 0.000000000000000e+00
					6.951941016011038e-01 6.951941016011038e-01 0.000000000000000e+00
					5.838955762008279e-01 5.838955762008279e-01 0.000000000000000e+00
					2.919477881004139e-01 6.073330762008279e-01 0.000000000000000e+00
					2.500000000000000e-01 5.000000000000000e-01 0.000000000000000e+00
					5.838955762008279e-01 5.838955762008279e-01 0.000000000000000e+00
					5.000000000000000e-01 5.000000000000000e-01 0.000000000000000e+00
				</DataArray>
			</Points>
			<Cells>
				<DataArray Name="connectivity" type="UInt32" format="ascii">
					0 1 3 2 4 5 7 6 8 9 11 10 12 13 15 14 16 17 19 18 20 21 23 22 24 25 27 26 28 29 31 30 32 33 35 34 36 37 39 38 40 41 43 42 44 45 47 46 48 49 51 50 52 53 55 54 56 57 59 58 60 61 63 62 
				</DataArray>
				<DataArray Name="offsets" type="UInt32" format="ascii">
					4 8 12 16 20 24 28 32 36 40 44 48 52 56 60 64 
				</DataArray>
				<DataArray Name="types" type="UInt8" format="ascii">
					9 9 9 9 9 9 9 9 9 9 9 9 9 9 9 9 
				</DataArray>
			</Cells>
			<PointData Vectors="solution ">
				<DataArray Name="solution" type="Float64" NumberOfComponents="1" format="ascii">
					0.000000000000000e+00 3.682132141181968e-01 0.000000000000000e+00 2.384887800111317e+00 3.682132141181969e-01 2.933452306666371e+00 2.384887800111317e+00 1.200333436295138e+01 2.933452306666371e+00 7.429472741041176e+00 1.200333436295139e+01 2.098572852383381e+01 7.429472741041177e+00 1.194508678962784e+01 2.098572852383381e+01 2.573558457243425e+01 0.000000000000000e+00 2.384887800111317e+00 0.000000000000000e+00 5.669035353958330e+00 2.384887800111318e+00 1.200333436295138e+01 5.669035353958330e+00 2.350522448302979e+01 1.200333436295139e+01 2.098572852383381e+01 2.350522448302980e+01 3.539051060079268e+01 2.098572852383382e+01 2.573558457243425e+01 3.539051060079269e+01 3.886584125323558e+01 0.000000000000000e+00 5.669035353958331e+00 0.000000000000000e+00 5.517029916981413e+00 5.669035353958331e+00 2.350522448302980e+01 5.517029916981413e+00 2.407276822712261e+01 2.350522448302980e+01 3.539051060079269e+01 2.407276822712262e+01 3.763188380596336e+01 3.539051060079269e+01 3.886584125323559e+01 3.763188380596336e+01 4.243147008481245e+01 0.000000000000000e+00 5.517029916981413e+00 0.000000000000000e+00 1.980163969896025e+00 5.517029916981414e+00 2.407276822712261e+01 1.980163969896025e+00 1.176611344474330e+01 2.407276822712262e+01 3.763188380596336e+01 1.176611344474330e+01 2.389401116511637e+01 3.763188380596337e+01 4.243147008481246e+01 2.389401116511638e+01 3.246936810507417e+01 
				</DataArray>
			</PointData>
			<CellData>
			</CellData>
		</Piece>
	</UnstructuredGrid>
</VTKFile>