<?xml version="1.0"?>
<VTKFile type="UnstructuredGrid" byte_order="LittleEndian">
	<UnstructuredGrid>
		<Piece NumberOfPoints="256" NumberOfCells="64">
			<Points>
				<DataArray type="Float64" NumberOfComponents="3" format="ascii">
					-1.000000000000000e+00 -1.000000000000000e+00 0.000000000000000e+00
					-7.500000000000000e-01 -1.218750000000000e+00 0.000000000000000e+00
					-9.135224194504830e-01 -9.135224194504830e-01 0.000000000000000e+00
					-6.851418145878622e-01 -1.081002888200483e+00 0.000000000000000e+00
					-7.500000000000000e-01 -1.218750000000000e+00 0.000000000000000e+00
					-5.000000000000000e-01 -1.375000000000000e+00 0.000000000000000e+00
					-6.851418145878622e-01 -1.081002888200483e+00 0.000000000000000e+00
					-4.567612097252415e-01 -1.200631794450483e+00 0.000000000000000e+00
					-5.000000000000000e-01 -1.375000000000000e+00 0.000000000000000e+00
					-2.500000000000000e-01 -1.468750000000000e+00 0.000000000000000e+00
					-4.567612097252415e-01 -1.200631794450483e+00 0.000000000000000e+00
					-2.283806048626207e-01 -1.272409138200483e+00 0.000000000000000e+00
					-2.500000000000000e-01 -1.468750000000000e+00 0.000000000000000e+00
					0.000000000000000e+00 -1.500000000000000e+00 0.000000000000000e+00
					-2.283806048626207e-01 -1.272409138200483e+00 0.000000000000000e+00
					1.040834085586084e-17 -1.296334919450483e+00 0.000000000000000e+00
					0.000000000000000e+00 -1.500000000000000e+00 0.000000000000000e+00
					2.500000000000000e-01 -1.468750000000000e+00 0.000000000000000e+00
					1.040834085586084e-17 -1.296334919450483e+00 0.000000000000000e+00
					2.283806048626208e-01 -1.272409138200483e+00 0.000000000000000e+00
					2.500000000000000e-01 -1.468750000000000e+00 0.000000000000000e+00
					5.000000000000000e-01 -1.375000000000000e+00 0.000000000000000e+00
					2.283806048626208e-01 -1.272409138200483e+00 0.000000000000000e+00
					4.567612097252415e-01 -1.200631794450483e+00 0.000000000000000e+00
					5.000000000000000e-01 -1.375000000000000e+00 0.000000000000000e+00
					7.500000000000000e-01 -1.218750000000000e+00 0.000000000000000e+00
					4.567612097252415e-01 -1.200631794450483e+00 0.000000000000000e+00
					6.851418145878623e-01 -1.081002888200483e+00 0.000000000000000e+00
					7.500000000000000e-01 -1.218750000000000e+00 0.000000000000000e+00
					1.000000000000000e+00 -1.000000000000000e+00 0.000000000000000e+00
					6.851418145878623e-01 -1.081002888200483e+00 0.000000000000000e+00
					9.135224194504830e-01 -9.135224194504830e-01 0.000000000000000e+00
					-9.135224194504830e-01 -9.135224194504830e-01 0.000000000000000e+00
					-6.851418145878622e-01 -1.081002888200483e+00 0.000000000000000e+00
					-8.338955762008279e-01 -8.338955762008279e-01 0.000000000000000e+00
					-6.254216821506209e-01 -9.569424512008280e-01 0.000000000000000e+00
					-6.851418145878622e-01 -1.081002888200483e+00 0.000000000000000e+00
					-4.567612097252415e-01 -1.200631794450483e+00 0.000000000000000e+00
					-6.254216821506209e-01 -9.569424512008280e-01 0.000000000000000e+00
					-4.169477881004140e-01 -1.044833076200828e+00 0.000000000000000e+00
					-4.567612097252415e-01 -1.200631794450483e+00 0.000000000000000e+00
					-2.283806048626207e-01 -1.272409138200483e+00 0.000000000000000e+00
					-4.169477881004140e-01 -1.044833076200828e+00 0.000000000000000e+00
					-2.084738940502070e-01 -1.097567451200828e+00 0.000000000000000e+00
					-2.283806048626207e-01 -1.272409138200483e+00 0.000000000000000e+00
					1.040834085586084e-17 -1.296334919450483e+00 0.000000000000000e+00
					-2.084738940502070e-01 -1.097567451200828e+00 0.000000000000000e+00
					1.734723475976807e-17 -1.115145576200828e+00 0.000000000000000e+00
					1.040834085586084e-17 -1.296334919450483e+00 0.000000000000000e+00
					2.283806048626208e-01 -1.272409138200483e+00 0.000000000000000e+00
					1.734723475976807e-17 -1.115145576200828e+00 0.000000000000000e+00
					2.084738940502070e-01 -1.097567451200828e+00 0.000000000000000e+00
					2.283806048626208e-01 -1.272409138200483e+00 0.000000000000000e+00
					4.567612097252415e-01 -1.200631794450483e+00 0.000000000000000e+00
					2.084738940502070e-01 -1.097567451200828e+00 0.000000000000000e+00
					4.169477881004140e-01 -1.044833076200828e+00 0.000000000000000e+00
					4.567612097252415e-01 -1.200631794450483e+00 0.000000000000000e+00
					6.851418145878623e-01 -1.081002888200483e+00 0.000000000000000e+00
					4.169477881004140e-01 -1.044833076200828e+00 0.000000000000000e+00
					6.254216821506209e-01 -9.569424512008280e-01 0.000000000000000e+00
					6.851418145878623e-01 -1.081002888200483e+00 0.000000000000000e+00
					9.135224194504830e-01 -9.135224194504830e-01 0.000000000000000e+00
					6.254216821506209e-01 -9.569424512008280e-01 0.000000000000000e+00
					8.338955762008279e-01 -8.338955762008279e-01 0.000000000000000e+00
					-8.338955762008279e-01 -8.338955762008279e-01 0.000000000000000e+00
					-6.254216821506209e-01 -9.569424512008280e-01 0.000000000000000e+00
					-7.611194702510349e-01 -7.611194702510349e-01 0.000000000000000e+00
					-5.708396026882762e-01 -8.465686890010349e-01 0.000000000000000e+00
					-6.254216821506209e-01 -9.569424512008280e-01 0.000000000000000e+00
					-4.169477881004140e-01 -1.044833076200828e+00 0.000000000000000e+00
					-5.708396026882762e-01 -8.465686890010349e-01 0.000000000000000e+00
					-3.805597351255174e-01 -9.076038452510349e-01 0.000000000000000e+00
					-4.169477881004140e-01 -1.044833076200828e+00 0.000000000000000e+00
					-2.084738940502070e-01 -1.097567451200828e+00 0.000000000000000e+00
					-3.805597351255174e-01 -9.076038452510349e-01 0.000000000000000e+00
					-1.902798675627587e-01 -9.442249390010350e-01 0.000000000000000e+00
					-2.084738940502070e-01 -1.097567451200828e+00 0.000000000000000e+00
					1.734723475976807e-17 -1.115145576200828e+00 0.000000000000000e+00
					-1.902798675627587e-01 -9.442249390010350e-01 0.000000000000000e+00
					2.428612866367530e-17 -9.564319702510349e-01 0.000000000000000e+00
					1.734723475976807e-17 -1.115145576200828e+00 0.000000000000000e+00
					2.084738940502070e-01 -1.097567451200828e+00 0.000000000000000e+00
					2.428612866367530e-17 -9.564319702510349e-01 0.000000000000000e+00
					1.902798675627587e-01 -9.442249390010349e-01 0.000000000000000e+00
					2.084738940502070e-01 -1.097567451200828e+00 0.000000000000000e+00
					4.169477881004140e-01 -1.044833076200828e+00 0.000000000000000e+00
					1.902798675627587e-01 -9.442249390010349e-01 0.000000000000000e+00
					3.805597351255174e-01 -9.076038452510349e-01 0.000000000000000e+00
					4.169477881004140e-01 -1.044833076200828e+00 0.000000000000000e+00
					6.254216821506209e-01 -9.569424512008280e-01 0.000000000000000e+00
					3.805597351255174e-01 -9.076038452510349e-01 0.000000000000000e+00
					5.708396026882762e-01 -8.465686890010349e-01 0.000000000000000e+00
					6.254216821506209e-01 -9.569424512008280e-01 0.000000000000000e+00
					8.338955762008279e-01 -8.338955762008279e-01 0.000000000000000e+00
					5.708396026882762e-01 -8.465686890010349e-01 0.000000000000000e+00
					7.611194702510349e-01 -7.611194702510349e-01 0.000000000000000e+00
					-7.611194702510349e-01 -7.611194702510349e-01 0.000000000000000e+00
					-5.708396026882762e-01 -8.465686890010349e-01 0.000000000000000e+00
					-6.951941016011038e-01 -6.951941016011038e-01 0.000000000000000e+00
					-5.213955762008279e-01 -7.498816016011038e-01 0.000000000000000e+00
					-5.708396026882762e-01 -8.465686890010349e-01 0.000000000000000e+00
					-3.805597351255174e-01 -9.076038452510349e-01 0.000000000000000e+00
					-5.213955762008279e-01 -7.498816016011038e-01 0.000000000000000e+00
					-3.475970508005519e-01 -7.889441016011040e-01 0.000000000000000e+00
					-3.805597351255174e-01 -9.076038452510349e-01 0.000000000000000e+00
					-1.902798675627587e-01 -9.442249390010350e-01 0.000000000000000e+00
					-3.475970508005519e-01 -7.889441016011040e-01 0.000000000000000e+00
					-1.737985254002760e-01 -8.123816016011040e-01 0.000000000000000e+00
					-1.902798675627587e-01 -9.442249390010350e-01 0.000000000000000e+00
					2.428612866367530e-17 -9.564319702510349e-01 0.000000000000000e+00
					-1.737985254002760e-01 -8.123816016011040e-01 0.000000000000000e+00
					2.428612866367530e-17 -8.201941016011038e-01 0.000000000000000e+00
					2.428612866367530e-17 -9.564319702510349e-01 0.000000000000000e+00
					1.902798675627587e-01 -9.442249390010349e-01 0.000000000000000e+00
					2.428612866367530e-17 -8.201941016011038e-01 0.000000000000000e+00
					1.737985254002760e-01 -8.123816016011038e-01 0.000000000000000e+00
					1.902798675627587e-01 -9.442249390010349e-01 0.000000000000000e+00
					3.805597351255174e-01 -9.076038452510349e-01 0.000000000000000e+00
					1.737985254002760e-01 -8.123816016011038e-01 0.000000000000000e+00
					3.475970508005519e-01 -7.889441016011038e-01 0.000000000000000e+00
					3.805597351255174e-01 -9.076038452510349e-01 0.000000000000000e+00
					5.708396026882762e-01 -8.465686890010349e-01 0.000000000000000e+00
					3.475970508005519e-01 -7.889441016011038e-01 0.000000000000000e+00
					5.213955762008279e-01 -7.498816016011038e-01 0.000000000000000e+00
					5.708396026882762e-01 -8.465686890010349e-01 0.000000000000000e+00
					7.611194702510349e-01 -7.611194702510349e-01 0.000000000000000e+00
					5.213955762008279e-01 -7.498816016011038e-01 0.000000000000000e+00
					6.951941016011038e-01 -6.951941016011038e-01 0.000000000000000e+00
					-6.951941016011038e-01 -6.951941016011038e-01 0.000000000000000e+00
					-5.213955762008279e-01 -7.498816016011038e-01 0.000000000000000e+00
					-6.361194702510349e-01 -6.361194702510349e-01 0.000000000000000e+00
					-4.770896026882762e-01 -6.668811890010349e-01 0.000000000000000e+00
					-5.213955762008279e-01 -7.498816016011038e-01 0.000000000000000e+00
					-3.475970508005519e-01 -7.889441016011040e-01 0.000000000000000e+00
					-4.770896026882762e-01 -6.668811890010349e-01 0.000000000000000e+00
					-3.180597351255174e-01 -6.888538452510349e-01 0.000000000000000e+00
					-3.475970508005519e-01 -7.889441016011040e-01 0.000000000000000e+00
					-1.737985254002760e-01 -8.123816016011040e-01 0.000000000000000e+00
					-3.180597351255174e-01 -6.888538452510349e-01 0.000000000000000e+00
					-1.590298675627587e-01 -7.020374390010350e-01 0.000000000000000e+00
					-1.737985254002760e-01 -8.123816016011040e-01 0.000000000000000e+00
					2.428612866367530e-17 -8.201941016011038e-01 0.000000000000000e+00
					-1.590298675627587e-01 -7.020374390010350e-01 0.000000000000000e+00
					1.734723475976807e-17 -7.064319702510349e-01 0.000000000000000e+00
					2.428612866367530e-17 -8.201941016011038e-01 0.000000000000000e+00
					1.737985254002760e-01 -8.123816016011038e-01 0.000000000000000e+00
					1.734723475976807e-17 -7.064319702510349e-01 0.000000000000000e+00
					1.590298675627587e-01 -7.020374390010349e-01 0.000000000000000e+00
					1.737985254002760e-01 -8.123816016011038e-01 0.000000000000000e+00
					3.475970508005519e-01 -7.889441016011038e-01 0.000000000000000e+00
					1.590298675627587e-01 -7.020374390010349e-01 0.000000000000000e+00
					3.180597351255174e-01 -6.888538452510349e-01 0.000000000000000e+00
					3.475970508005519e-01 -7.889441016011038e-01 0.000000000000000e+00
					5.213955762008279e-01 -7.498816016011038e-01 0.000000000000000e+00
					3.180597351255174e-01 -6.888538452510349e-01 0.000000000000000e+00
					4.770896026882762e-01 -6.668811890010349e-01 0.000000000000000e+00
					5.213955762008279e-01 -7.498816016011038e-01 0.000000000000000e+00
					6.951941016011038e-01 -6.951941016011038e-01 0.000000000000000e+00
					4.770896026882762e-01 -6.668811890010349e-01 0.000000000000000e+00
					6.361194702510349e-01 -6.361194702510349e-01 0.000000000000000e+00
					-6.361194702510349e-01 -6.361194702510349e-01 0.000000000000000e+00
					-4.770896026882762e-01 -6.668811890010349e-01 0.000000000000000e+00
					-5.838955762008278e-01 -5.838955762008278e-01 0.000000000000000e+00
					-4.379216821506209e-01 -5.975674512008280e-01 0.000000000000000e+00
					-4.770896026882762e-01 -6.668811890010349e-01 0.000000000000000e+00
					-3.180597351255174e-01 -6.888538452510349e-01 0.000000000000000e+00
					-4.379216821506209e-01 -5.975674512008280e-01 0.000000000000000e+00
					-2.919477881004139e-01 -6.073330762008280e-01 0.000000000000000e+00
					-3.180597351255174e-01 -6.888538452510349e-01 0.000000000000000e+00
					-1.590298675627587e-01 -7.020374390010350e-01 0.000000000000000e+00
					-2.919477881004139e-01 -6.073330762008280e-01 0.000000000000000e+00
					-1.459738940502069e-01 -6.131924512008280e-01 0.000000000000000e+00
					-1.590298675627587e-01 -7.020374390010350e-01 0.000000000000000e+00
					1.734723475976807e-17 -7.064319702510349e-01 0.000000000000000e+00
					-1.459738940502069e-01 -6.131924512008280e-01 0.000000000000000e+00
					1.040834085586084e-17 -6.151455762008280e-01 0.000000000000000e+00
					1.734723475976807e-17 -7.064319702510349e-01 0.000000000000000e+00
					1.590298675627587e-01 -7.020374390010349e-01 0.000000000000000e+00
					1.040834085586084e-17 -6.151455762008280e-01 0.000000000000000e+00
					1.459738940502070e-01 -6.131924512008278e-01 0.000000000000000e+00
					1.590298675627587e-01 -7.020374390010349e-01 0.000000000000000e+00
					3.180597351255174e-01 -6.888538452510349e-01 0.000000000000000e+00
					1.459738940502070e-01 -6.131924512008278e-01 0.000000000000000e+00
					2.919477881004139e-01 -6.073330762008278e-01 0.000000000000000e+00
					3.180597351255174e-01 -6.888538452510349e-01 0.000000000000000e+00
					4.770896026882762e-01 -6.668811890010349e-01 0.000000000000000e+00
					2.919477881004139e-01 -6.073330762008278e-01 0.000000000000000e+00
					4.379216821506209e-01 -5.975674512008278e-01 0.000000000000000e+00
					4.770896026882762e-01 -6.668811890010349e-01 0.000000000000000e+00
					6.361194702510349e-01 -6.361194702510349e-01 0.000000000000000e+00
					4.379216821506209e-01 -5.975674512008278e-01 0.000000000000000e+00
					5.838955762008278e-01 -5.838955762008278e-01 0.000000000000000e+00
					-5.838955762008278e-01 -5.838955762008278e-01 0.000000000000000e+00
					-4.379216821506209e-01 -5.975674512008280e-01 0.000000000000000e+00
					-5.385224194504830e-01 -5.385224194504830e-01 0.000000000000000e+00
					-4.038918145878622e-01 -5.419403882004830e-01 0.000000000000000e+00
					-4.379216821506209e-01 -5.975674512008280e-01 0.000000000000000e+00
					-2.919477881004139e-01 -6.073330762008280e-01 0.000000000000000e+00
					-4.038918145878622e-01 -5.419403882004830e-01 0.000000000000000e+00
					-2.692612097252414e-01 -5.443817944504830e-01 0.000000000000000e+00
					-2.919477881004139e-01 -6.073330762008280e-01 0.000000000000000e+00
					-1.459738940502069e-01 -6.131924512008280e-01 0.000000000000000e+00
					-2.692612097252414e-01 -5.443817944504830e-01 0.000000000000000e+00
					-1.346306048626207e-01 -5.458466382004830e-01 0.000000000000000e+00
					-1.459738940502069e-01 -6.131924512008280e-01 0.000000000000000e+00
					1.040834085586084e-17 -6.151455762008280e-01 0.000000000000000e+00
					-1.346306048626207e-01 -5.458466382004830e-01 0.000000000000000e+00
					3.469446951953614e-18 -5.463349194504828e-01 0.000000000000000e+00
					1.040834085586084e-17 -6.151455762008280e-01 0.000000000000000e+00
					1.459738940502070e-01 -6.131924512008278e-01 0.000000000000000e+00
					3.469446951953614e-18 -5.463349194504828e-01 0.000000000000000e+00
					1.346306048626207e-01 -5.458466382004828e-01 0.000000000000000e+00
					1.459738940502070e-01 -6.131924512008278e-01 0.000000000000000e+00
					2.919477881004139e-01 -6.073330762008278e-01 0.000000000000000e+00
					1.346306048626207e-01 -5.458466382004828e-01 0.000000000000000e+00
					2.692612097252414e-01 -5.443817944504828e-01 0.000000000000000e+00
					2.919477881004139e-01 -6.073330762008278e-01 0.000000000000000e+00
					4.379216821506209e-01 -5.975674512008278e-01 0.000000000000000e+00
					2.692612097252414e-01 -5.443817944504828e-01 0.000000000000000e+00
					4.038918145878622e-01 -5.419403882004828e-01 0.000000000000000e+00
					4.379216821506209e-01 -5.975674512008278e-01 0.000000000000000e+00
					5.838955762008278e-01 -5.838955762008278e-01 0.000000000000000e+00
					4.038918145878622e-01 -5.419403882004828e-01 0.000000000000000e+00
					5.385224194504830e-01 -5.385224194504830e-01 0.000000000000000e+00
					-5.385224194504830e-01 -5.385224194504830e-01 0.000000000000000e+00
					-4.038918145878622e-01 -5.419403882004830e-01 0.000000000000000e+00
					-5.000000000000000e-01 -5.000000000000000e-01 0.000000000000000e+00
					-3.750000000000000e-01 -5.000000000000000e-01 0.000000000000000e+00
					-4.038918145878622e-01 -5.419403882004830e-01 0.000000000000000e+00
					-2.692612097252414e-01 -5.443817944504830e-01 0.000000000000000e+00
					-3.750000000000000e-01 -5.000000000000000e-01 0.000000000000000e+00
					-2.500000000000000e-01 -5.000000000000000e-01 0.000000000000000e+00
					-2.692612097252414e-01 -5.443817944504830e-01 0.000000000000000e+00
					-1.346306048626207e-01 -5.458466382004830e-01 0.000000000000000e+00
					-2.500000000000000e-01 -5.000000000000000e-01 0.000000000000000e+00
					-1.250000000000000e-01 -5.000000000000000e-01 0.000000000000000e+00
					-1.346306048626207e-01 -5.458466382004830e-01 0.000000000000000e+00
					3.469446951953614e-18 -5.463349194504828e-01 0.000000000000000e+00
					-1.250000000000000e-01 -5.000000000000000e-01 0.000000000000000e+00
					0.000000000000000e+00 -5.000000000000000e-01 0.000000000000000e+00
					3.469446951953614e-18 -5.463349194504828e-01 0.000000000000000e+00
					1.346306048626207e-01 -5.458466382004828e-01 0.000000000000000e+00
					0.000000000000000e+00 -5.000000000000000e-01 0.000000000000000e+00
					1.250000000000000e-01 -5.000000000000000e-01 0.000000000000000e+00
					1.346306048626207e-01 -5.458466382004828e-01 0.000000000000000e+00
					2.692612097252414e-01 -5.443817944504828e-01 0.000000000000000e+00
					1.250000000000000e-01 -5.000000000000000e-01 0.000000000000000e+00
					2.500000000000000e-01 -5.000000000000000e-01 0.000000000000000e+00
					2.692612097252414e-01 -5.443817944504828e-01 0.000000000000000e+00
					4.038918145878622e-01 -5.419403882004828e-01 0.000000000000000e+00
					2.500000000000000e-01 -5.000000000000000e-01 0.000000000000000e+00
					3.750000000000000e-01 -5.000000000000000e-01 0.000000000000000e+00
					4.038918145878622e-01 -5.419403882004828e-01 0.000000000000000e+00
					5.385224194504830e-01 -5.385224194504830e-01 0.000000000000000e+00
					3.750000000000000e-01 -5.000000000000000e-01 0.000000000000000e+00
					5.000000000000000e-01 -5.000000000000000e-01 0.000000000000000e+00
				</DataArray>
			</Points>
			<Cells>
				<DataArray Name="connectivity" type="UInt32" format="ascii">
					0 1 3 2 4 5 7 6 8 9 11 10 12 13 15 14 16 17 19 18 20 21 23 22 24 25 27 26 28 29 31 30 32 33 35 34 36 37 39 38 40 41 43 42 44 45 47 46 48 49 51 50 52 53 55 54 56 57 59 58 60 61 63 62 64 65 67 66 68 69 71 70 72 73 75 74 76 77 79 78 80 81 83 82 84 85 87 86 88 89 91 90 92 93 95 94 96 97 99 98 100 101 103 102 104 105 107 106 108 109 111 110 112 113 115 114 116 117 119 118 120 121 123 122 124 125 127 126 128 129 131 130 132 133 135 134 136 137 139 138 140 141 143 142 144 145 147 146 148 149 151 150 152 153 155 154 156 157 159 158 160 161 163 162 164 165 167 166 168 169 171 170 172 173 175 174 176 177 179 178 180 181 183 182 184 185 187 186 188 189 191 190 192 193 195 194 196 197 199 198 200 201 203 202 204 205 207 206 208 209 211 210 212 213 215 214 216 217 219 218 220 221 223 222 224 225 227 226 228 229 231 230 232 233 235 234 236 237 239 238 240 241 243 242 244 245 247 246 248 249 251 250 252 253 255 254 
				</DataArray>
				<DataArray Name="offsets" type="UInt32" format="ascii">
					4 8 12 16 20 24 28 32 36 40 44 48 52 56 60 64 68 72 76 80 84 88 92 96 100 104 108 112 116 120 124 128 132 136 140 144 148 152 156 160 164 168 172 176 180 184 188 192 196 200 204 208 212 216 220 224 228 232 236 240 244 248 252 256 
				</DataArray>
				<DataArray Name="types" type="UInt8" format="ascii">
					9 9 9 9 9 9 9 9 9 9 9 9 9 9 9 9 9 9 9 9 9 9 9 9 9 9 9 9 9 9 9 9 9 9 9 9 9 9 9 9 9 9 9 9 9 9 9 9 9 9 9 9 9 9 9 9 9 9 9 9 9 9 9 9 
				</DataArray>
			</Cells>
			<PointData Vectors="solution ">
				<DataArray Name="solution" type="Float64" NumberOfComponents="1" format="ascii">
					0.000000000000000e+00 0.000000000000000e+00 8.405929209523782e-04 1.478899489618166e-03 0.000000000000000e+00 0.000000000000000e+00 1.478899489618166e-03 2.341594752374123e-03 0.000000000000000e+00 0.000000000000000e+00 2.341594752374123e-03 3.456530199237079e-03 0.000000000000000e+00 0.000000000000000e+00 3.456530199237080e-03 4.608601066896631e-03 0.000000000000000e+00 0.000000000000000e+00 4.608601066896634e-03 5.456943646717720e-03 0.000000000000000e+00 0.000000000000000e+00 5.456943646717721e-03 5.835477157139788e-03 0.000000000000000e+00 0.000000000000000e+00 5.835477157139788e-03 5.817970302612696e-03 0.000000000000000e+00 0.000000000000000e+00 5.817970302612697e-03 5.221466447038588e-03 8.405929209523782e-04 1.478899489618166e-03 1.310977006185071e-02 2.353038022887402e-02 1.478899489618166e-03 2.341594752374123e-03 2.353038022887402e-02 3.624469519472227e-02 2.341594752374123e-03 3.456530199237079e-03 3.624469519472227e-02 5.051958656170030e-02 3.456530199237080e-03 4.608601066896631e-03 5.051958656170033e-02 6.477590545481400e-02 4.608601066896634e-03 5.456943646717720e-03 6.477590545481401e-02 7.665238233714484e-02 5.456943646717721e-03 5.835477157139788e-03 7.665238233714489e-02 8.344137357712690e-02 5.835477157139788e-03 5.817970302612696e-03 8.344137357712690e-02 8.219441831291129e-02 5.817970302612697e-03 5.221466447038588e-03 8.219441831291129e-02 6.948624411845067e-02 1.310977006185072e-02 2.353038022887403e-02 6.271631331428647e-02 1.139385059643681e-01 2.353038022887403e-02 3.624469519472227e-02 1.139385059643681e-01 1.771755182326354e-01 3.624469519472228e-02 5.051958656170031e-02 1.771755182326355e-01 2.460525769666150e-01 5.051958656170034e-02 6.477590545481400e-02 2.460525769666151e-01 3.110748065536621e-01 6.477590545481403e-02 7.665238233714486e-02 3.110748065536622e-01 3.599995818345544e-01 7.665238233714489e-02 8.344137357712691e-02 3.599995818345546e-01 3.792731523892781e-01 8.344137357712693e-02 8.219441831291130e-02 3.792731523892781e-01 3.568566890521323e-01 8.219441831291130e-02 6.948624411845068e-02 3.568566890521324e-01 2.873945164119217e-01 6.271631331428648e-02 1.139385059643681e-01 1.819953109762210e-01 3.290434251792618e-01 1.139385059643681e-01 1.771755182326355e-01 3.290434251792618e-01 5.120090837676179e-01 1.771755182326356e-01 2.460525769666151e-01 5.120090837676179e-01 7.081320950248092e-01 2.460525769666152e-01 3.110748065536622e-01 7.081320950248096e-01 8.844646493305227e-01 3.110748065536623e-01 3.599995818345545e-01 8.844646493305229e-01 1.002476272591203e+00 3.599995818345548e-01 3.792731523892782e-01 1.002476272591204e+00 1.026117661553215e+00 3.792731523892782e-01 3.568566890521325e-01 1.026117661553215e+00 9.335390055074553e-01 3.568566890521325e-01 2.873945164119218e-01 9.335390055074555e-01 7.309684697414712e-01 1.819953109762210e-01 3.290434251792619e-01 3.973017096692540e-01 7.037026050474577e-01 3.290434251792619e-01 5.120090837676181e-01 7.037026050474579e-01 1.082080935751948e+00 5.120090837676182e-01 7.081320950248096e-01 1.082080935751948e+00 1.480448254866854e+00 7.081320950248098e-01 8.844646493305229e-01 1.480448254866855e+00 1.824957285196387e+00 8.844646493305233e-01 1.002476272591204e+00 1.824957285196388e+00 2.034815876568455e+00 1.002476272591204e+00 1.026117661553216e+00 2.034815876568456e+00 2.044200335068599e+00 1.026117661553216e+00 9.335390055074556e-01 2.044200335068600e+00 1.827194260935800e+00 9.335390055074557e-01 7.309684697414716e-01 1.827194260935801e+00 1.417903891828374e+00 3.973017096692541e-01 7.037026050474580e-01 7.188061113986267e-01 1.230224495960625e+00 7.037026050474582e-01 1.082080935751949e+00 1.230224495960625e+00 1.848805837494571e+00 1.082080935751949e+00 1.480448254866855e+00 1.848805837494572e+00 2.486297780285068e+00 1.480448254866855e+00 1.824957285196388e+00 2.486297780285069e+00 3.021752940541756e+00 1.824957285196389e+00 2.034815876568456e+00 3.021752940541757e+00 3.329236670174044e+00 2.034815876568457e+00 2.044200335068600e+00 3.329236670174045e+00 3.314930238616484e+00 2.044200335068600e+00 1.827194260935801e+00 3.314930238616484e+00 2.953649793104786e+00 1.827194260935801e+00 1.417903891828374e+00 2.953649793104787e+00 2.310879271988006e+00 7.188061113986267e-01 1.230224495960625e+00 1.135578852919099e+00 1.855153294583235e+00 1.230224495960625e+00 1.848805837494571e+00 1.855153294583235e+00 2.699589894849351e+00 1.848805837494572e+00 2.486297780285069e+00 2.699589894849352e+00 3.550072961137237e+00 2.486297780285069e+00 3.021752940541756e+00 3.550072961137238e+00 4.251247879027201e+00 3.021752940541757e+00 3.329236670174045e+00 4.251247879027202e+00 4.647035909330546e+00 3.329236670174045e+00 3.314930238616484e+00 4.647035909330548e+00 4.625677660079942e+00 3.314930238616484e+00 2.953649793104788e+00 4.625677660079943e+00 4.160984480826263e+00 2.953649793104788e+00 2.310879271988006e+00 4.160984480826263e+00 3.334048161487252e+00 1.135578852919099e+00 1.855153294583235e+00 1.616574290814292e+00 2.492120656154825e+00 1.855153294583235e+00 2.699589894849352e+00 2.492120656154825e+00 3.482957594824021e+00 2.699589894849352e+00 3.550072961137237e+00 3.482957594824022e+00 4.459325324718060e+00 3.550072961137239e+00 4.251247879027202e+00 4.459325324718062e+00 5.259886122270333e+00 4.251247879027203e+00 4.647035909330547e+00 5.259886122270335e+00 5.725887718157161e+00 4.647035909330548e+00 4.625677660079943e+00 5.725887718157162e+00 5.742429059334788e+00 4.625677660079944e+00 4.160984480826263e+00 5.742429059334788e+00 5.275821295615032e+00 4.160984480826265e+00 3.334048161487252e+00 5.275821295615033e+00 4.394303785903872e+00 
				</DataArray>
			</PointData>
			<CellData>
			</CellData>
		</Piece>
	</UnstructuredGrid>
</VTKFile>