<?xml version="1.0"?>
<VTKFile type="UnstructuredGrid" byte_order="LittleEndian">
	<UnstructuredGrid>
		<Piece NumberOfPoints="16" NumberOfCells="4">
			<Points>
				<DataArray type="Float64" NumberOfComponents="3" format="ascii">
					-5.000000000000000e-01 -5.000000000000000e-01 0.000000000000000e+00
					0.000000000000000e+00 -5.000000000000000e-01 0.000000000000000e+00
					-5.000000000000000e-01 0.000000000000000e+00 0.000000000000000e+00
					0.000000000000000e+00 0.000000000000000e+00 0.000000000000000e+00
					0.000000000000000e+00 -5.000000000000000e-01 0.000000000000000e+00
					5.000000000000000e-01 -5.000000000000000e-01 0.000000000000000e+00
					0.000000000000000e+00 0.000000000000000e+00 0.000000000000000e+00
					5.000000000000000e-01 0.000000000000000e+00 0.000000000000000e+00
					-5.000000000000000e-01 0.000000000000000e+00 0.000000000000000e+00
					0.000000000000000e+00 0.000000000000000e+00 0.000000000000000e+00
					-5.000000000000000e-01 5.000000000000000e-01 0.000000000000000e+00
					0.000000000000000e+00 5.000000000000000e-01 0.000000000000000e+00
					0.000000000000000e+00 0.000000000000000e+00 0.000000000000000e+00
					5.000000000000000e-01 0.000000000000000e+00 0.000000000000000e+00
					0.000000000000000e+00 5.000000000000000e-01 0.000000000000000e+00
					5.000000000000000e-01 5.000000000000000e-01 0.000000000000000e+00
				</DataArray>
			</Points>
			<Cells>
				<DataArray Name="connectivity" type="UInt32" format="ascii">
					0 1 3 2 4 5 7 6 8 9 11 10 12 13 15 14 
				</DataArray>
				<DataArray Name="offsets" type="UInt32" format="ascii">
					4 8 12 16 
				</DataArray>
				<DataArray Name="types" type="UInt8" format="ascii">
					9 9 9 9 
				</DataArray>
			</Cells>
			<PointData Vectors="solution ">
				<DataArray Name="solution" type="Float64" NumberOfComponents="1" format="ascii">
					1.618541983566815e+00 5.262969576177428e+00 8.673257645588100e+00 2.563411471597635e+01 5.262969576177428e+00 4.387605131095219e+00 2.563411471597635e+01 2.357880731275350e+01 8.673257645588100e+00 2.563411471597635e+01 1.192400608903525e+01 3.887921319767970e+01 2.563411471597635e+01 2.357880731275350e+01 3.887921319767970e+01 3.257725968641800e+01 
				</DataArray>
			</PointData>
			<CellData>
			</CellData>
		</Piece>
	</UnstructuredGrid>
</VTKFile>