<?xml version="1.0"?>
<VTKFile type="UnstructuredGrid" byte_order="LittleEndian">
	<UnstructuredGrid>
		<Piece NumberOfPoints="64" NumberOfCells="16">
			<Points>
				<DataArray type="Float64" NumberOfComponents="3" format="ascii">
					-1.000000000000000e+00 -1.000000000000000e+00 0.000000000000000e+00
					-8.338955762008279e-01 -8.338955762008279e-01 0.000000000000000e+00
					-1.375000000000000e+00 -5.000000000000000e-01 0.000000000000000e+00
					-1.044833076200828e+00 -4.169477881004139e-01 0.000000000000000e+00
					-8.338955762008279e-01 -8.338955762008279e-01 0.000000000000000e+00
					-6.951941016011038e-01 -6.951941016011038e-01 0.000000000000000e+00
					-1.044833076200828e+00 -4.169477881004139e-01 0.000000000000000e+00
					-7.889441016011038e-01 -3.475970508005519e-01 0.000000000000000e+00
					-6.951941016011038e-01 -6.951941016011038e-01 0.000000000000000e+00
					-5.838955762008279e-01 -5.838955762008279e-01 0.000000000000000e+00
					-7.889441016011038e-01 -3.475970508005519e-01 0.000000000000000e+00
					-6.073330762008279e-01 -2.919477881004139e-01 0.000000000000000e+00
					-5.838955762008279e-01 -5.838955762008279e-01 0.000000000000000e+00
					-5.000000000000000e-01 -5.000000000000000e-01 0.000000000000000e+00
					-6.073330762008279e-01 -2.919477881004139e-01 0.000000000000000e+00
					-5.000000000000000e-01 -2.500000000000000e-01 0.000000000000000e+00
					-1.375000000000000e+00 -5.000000000000000e-01 0.000000000000000e+00
					-1.044833076200828e+00 -4.169477881004139e-01 0.000000000000000e+00
					-1.500000000000000e+00 1.387778780781446e-17 0.000000000000000e+00
					-1.115145576200828e+00 2.081668171172169e-17 0.000000000000000e+00
					-1.044833076200828e+00 -4.169477881004139e-01 0.000000000000000e+00
					-7.889441016011038e-01 -3.475970508005519e-01 0.000000000000000e+00
					-1.115145576200828e+00 2.081668171172169e-17 0.000000000000000e+00
					-8.201941016011038e-01 0.000000000000000e+00 0.000000000000000e+00
					-7.889441016011038e-01 -3.475970508005519e-01 0.000000000000000e+00
					-6.073330762008279e-01 -2.919477881004139e-01 0.000000000000000e+00
					-8.201941016011038e-01 0.000000000000000e+00 0.000000000000000e+00
					-6.151455762008279e-01 1.387778780781446e-17 0.000000000000000e+00
					-6.073330762008279e-01 -2.919477881004139e-01 0.000000000000000e+00
					-5.000000000000000e-01 -2.500000000000000e-01 0.000000000000000e+00
					-6.151455762008279e-01 1.387778780781446e-17 0.000000000000000e+00
					-5.000000000000000e-01 6.938893903907228e-18 0.000000000000000e+00
					-1.500000000000000e+00 1.387778780781446e-17 0.000000000000000e+00
					-1.115145576200828e+00 2.081668171172169e-17 0.000000000000000e+00
					-1.375000000000000e+00 5.000000000000000e-01 0.000000000000000e+00
					-1.044833076200828e+00 4.169477881004140e-01 0.000000000000000e+00
					-1.115145576200828e+00 2.081668171172169e-17 0.000000000000000e+00
					-8.201941016011038e-01 0.000000000000000e+00 0.000000000000000e+00
					-1.044833076200828e+00 4.169477881004140e-01 0.000000000000000e+00
					-7.889441016011038e-01 3.475970508005519e-01 0.000000000000000e+00
					-8.201941016011038e-01 0.000000000000000e+00 0.000000000000000e+00
					-6.151455762008279e-01 1.387778780781446e-17 0.000000000000000e+00
					-7.889441016011038e-01 3.475970508005519e-01 0.000000000000000e+00
					-6.073330762008279e-01 2.919477881004139e-01 0.000000000000000e+00
					-6.151455762008279e-01 1.387778780781446e-17 0.000000000000000e+00
					-5.000000000000000e-01 6.938893903907228e-18 0.000000000000000e+00
					-6.073330762008279e-01 2.919477881004139e-01 0.000000000000000e+00
					-5.000000000000000e-01 2.500000000000000e-01 0.000000000000000e+00
					-1.375000000000000e+00 5.000000000000000e-01 0.000000000000000e+00
					-1.044833076200828e+00 4.169477881004140e-01 0.000000000000000e+00
					-1.000000000000000e+00 1.000000000000000e+00 0.000000000000000e+00
					-8.338955762008279e-01 8.338955762008279e-01 0.000000000000000e+00
					-1.044833076200828e+00 4.169477881004140e-01 0.000000000000000e+00
					-7.889441016011038e-01 3.475970508005519e-01 0.000000000000000e+00
					-8.338955762008279e-01 8.338955762008279e-01 0.000000000000000e+00
					-6.951941016011038e-01 6.951941016011038e-01 0.000000000000000e+00
					-7.889441016011038e-01 3.475970508005519e-01 0.000000000000000e+00
					-6.073330762008279e-01 2.919477881004139e-01 0.000000000000000e+00
					-6.951941016011038e-01 6.951941016011038e-01 0.000000000000000e+00
					-5.838955762008279e-01 5.838955762008279e-01 0.000000000000000e+00
					-6.073330762008279e-01 2.919477881004139e-01 0.000000000000000e+00
					-5.000000000000000e-01 2.500000000000000e-01 0.000000000000000e+00
					-5.838955762008279e-01 5.838955762008279e-01 0.000000000000000e+00
					-5.000000000000000e-01 5.000000000000000e-01 0.000000000000000e+00
				</DataArray>
			</Points>
			<Cells>
				<DataArray Name="connectivity" type="UInt32" format="ascii">
					0 1 3 2 4 5 7 6 8 9 11 10 12 13 15 14 16 17 19 18 20 21 23 22 24 25 27 26 28 29 31 30 32 33 35 34 36 37 39 38 40 41 43 42 44 45 47 46 48 49 51 50 52 53 55 54 56 57 59 58 60 61 63 62 
				</DataArray>
				<DataArray Name="offsets" type="UInt32" format="ascii">
					4 8 12 16 20 24 28 32 36 40 44 48 52 56 60 64 
				</DataArray>
				<DataArray Name="types" type="UInt8" format="ascii">
					9 9 9 9 9 9 9 9 9 9 9 9 9 9 9 9 
				</DataArray>
			</Cells>
			<PointData Vectors="solution ">
				<DataArray Name="solution" type="Float64" NumberOfComponents="1" format="ascii">
					0.000000000000000e+00 1.293367497406945e-02 0.000000000000000e+00 6.717824154714860e-02 1.293367497406946e-02 1.821026818863477e-01 6.717824154714860e-02 7.964431666582801e-01 1.821026818863477e-01 7.189358866608121e-01 7.964431666582803e-01 2.534273412575798e+00 7.189358866608123e-01 1.616729664826474e+00 2.534273412575799e+00 4.472377462143951e+00 0.000000000000000e+00 6.717824154714860e-02 0.000000000000000e+00 1.946606539914659e-01 6.717824154714862e-02 7.964431666582801e-01 1.946606539914660e-01 2.009591456486753e+00 7.964431666582804e-01 2.534273412575799e+00 2.009591456486754e+00 5.589546896245700e+00 2.534273412575799e+00 4.472377462143952e+00 5.589546896245701e+00 8.671449849061043e+00 0.000000000000000e+00 1.946606539914660e-01 0.000000000000000e+00 3.570743347659468e-01 1.946606539914660e-01 2.009591456486754e+00 3.570743347659468e-01 3.198500891400039e+00 2.009591456486754e+00 5.589546896245701e+00 3.198500891400040e+00 8.147079678585484e+00 5.589546896245703e+00 8.671449849061045e+00 8.147079678585486e+00 1.215640607575545e+01 0.000000000000000e+00 3.570743347659469e-01 0.000000000000000e+00 3.686129424610770e-01 3.570743347659469e-01 3.198500891400039e+00 3.686129424610771e-01 2.934005700738207e+00 3.198500891400041e+00 8.147079678585486e+00 2.934005700738208e+00 7.428182009278451e+00 8.147079678585490e+00 1.215640607575545e+01 7.428182009278453e+00 1.194584283617108e+01 
				</DataArray>
			</PointData>
			<CellData>
			</CellData>
		</Piece>
	</UnstructuredGrid>
</VTKFile>