<?xml version="1.0"?>
<VTKFile type="UnstructuredGrid" byte_order="LittleEndian">
	<UnstructuredGrid>
		<Piece NumberOfPoints="64" NumberOfCells="16">
			<Points>
				<DataArray type="Float64" NumberOfComponents="3" format="ascii">
					-1.000000000000000e+00 -1.000000000000000e+00 0.000000000000000e+00
					-5.000000000000000e-01 -1.375000000000000e+00 0.000000000000000e+00
					-8.338955762008279e-01 -8.338955762008279e-01 0.000000000000000e+00
					-4.169477881004139e-01 -1.044833076200828e+00 0.000000000000000e+00
					-5.000000000000000e-01 -1.375000000000000e+00 0.000000000000000e+00
					1.387778780781446e-17 -1.500000000000000e+00 0.000000000000000e+00
					-4.169477881004139e-01 -1.044833076200828e+00 0.000000000000000e+00
					6.938893903907228e-18 -1.115145576200828e+00 0.000000000000000e+00
					1.387778780781446e-17 -1.500000000000000e+00 0.000000000000000e+00
					5.000000000000000e-01 -1.375000000000000e+00 0.000000000000000e+00
					6.938893903907228e-18 -1.115145576200828e+00 0.000000000000000e+00
					4.169477881004139e-01 -1.044833076200828e+00 0.000000000000000e+00
					5.000000000000000e-01 -1.375000000000000e+00 0.000000000000000e+00
					1.000000000000000e+00 -1.000000000000000e+00 0.000000000000000e+00
					4.169477881004139e-01 -1.044833076200828e+00 0.000000000000000e+00
					8.338955762008279e-01 -8.338955762008279e-01 0.000000000000000e+00
					-8.338955762008279e-01 -8.338955762008279e-01 0.000000000000000e+00
					-4.169477881004139e-01 -1.044833076200828e+00 0.000000000000000e+00
					-6.951941016011038e-01 -6.951941016011038e-01 0.000000000000000e+00
					-3.475970508005519e-01 -7.889441016011038e-01 0.000000000000000e+00
					-4.169477881004139e-01 -1.044833076200828e+00 0.000000000000000e+00
					6.938893903907228e-18 -1.115145576200828e+00 0.000000000000000e+00
					-3.475970508005519e-01 -7.889441016011038e-01 0.000000000000000e+00
					0.000000000000000e+00 -8.201941016011038e-01 0.000000000000000e+00
					6.938893903907228e-18 -1.115145576200828e+00 0.000000000000000e+00
					4.169477881004139e-01 -1.044833076200828e+00 0.000000000000000e+00
					0.000000000000000e+00 -8.201941016011038e-01 0.000000000000000e+00
					3.475970508005519e-01 -7.889441016011038e-01 0.000000000000000e+00
					4.169477881004139e-01 -1.044833076200828e+00 0.000000000000000e+00
					8.338955762008279e-01 -8.338955762008279e-01 0.000000000000000e+00
					3.475970508005519e-01 -7.889441016011038e-01 0.000000000000000e+00
					6.951941016011038e-01 -6.951941016011038e-01 0.000000000000000e+00
					-6.951941016011038e-01 -6.951941016011038e-01 0.000000000000000e+00
					-3.475970508005519e-01 -7.889441016011038e-01 0.000000000000000e+00
					-5.838955762008279e-01 -5.838955762008279e-01 0.000000000000000e+00
					-2.919477881004139e-01 -6.073330762008279e-01 0.000000000000000e+00
					-3.475970508005519e-01 -7.889441016011038e-01 0.000000000000000e+00
					0.000000000000000e+00 -8.201941016011038e-01 0.000000000000000e+00
					-2.919477881004139e-01 -6.073330762008279e-01 0.000000000000000e+00
					6.938893903907228e-18 -6.151455762008279e-01 0.000000000000000e+00
					0.000000000000000e+00 -8.201941016011038e-01 0.000000000000000e+00
					3.475970508005519e-01 -7.889441016011038e-01 0.000000000000000e+00
					6.938893903907228e-18 -6.151455762008279e-01 0.000000000000000e+00
					2.919477881004139e-01 -6.073330762008279e-01 0.000000000000000e+00
					3.475970508005519e-01 -7.889441016011038e-01 0.000000000000000e+00
					6.951941016011038e-01 -6.951941016011038e-01 0.000000000000000e+00
					2.919477881004139e-01 -6.073330762008279e-01 0.000000000000000e+00
					5.838955762008279e-01 -5.838955762008279e-01 0.000000000000000e+00
					-5.838955762008279e-01 -5.838955762008279e-01 0.000000000000000e+00
					-2.919477881004139e-01 -6.073330762008279e-01 0.000000000000000e+00
					-5.000000000000000e-01 -5.000000000000000e-01 0.000000000000000e+00
					-2.500000000000000e-01 -5.000000000000000e-01 0.000000000000000e+00
					-2.919477881004139e-01 -6.073330762008279e-01 0.000000000000000e+00
					6.938893903907228e-18 -6.151455762008279e-01 0.000000000000000e+00
					-2.500000000000000e-01 -5.000000000000000e-01 0.000000000000000e+00
					6.938893903907228e-18 -5.000000000000000e-01 0.000000000000000e+00
					6.938893903907228e-18 -6.151455762008279e-01 0.000000000000000e+00
					2.919477881004139e-01 -6.073330762008279e-01 0.000000000000000e+00
					6.938893903907228e-18 -5.000000000000000e-01 0.000000000000000e+00
					2.500000000000000e-01 -5.000000000000000e-01 0.000000000000000e+00
					2.919477881004139e-01 -6.073330762008279e-01 0.000000000000000e+00
					5.838955762008279e-01 -5.838955762008279e-01 0.000000000000000e+00
					2.500000000000000e-01 -5.000000000000000e-01 0.000000000000000e+00
					5.000000000000000e-01 -5.000000000000000e-01 0.000000000000000e+00
				</DataArray>
			</Points>
			<Cells>
				<DataArray Name="connectivity" type="UInt32" format="ascii">
					0 1 3 2 4 5 7 6 8 9 11 10 12 13 15 14 16 17 19 18 20 21 23 22 24 25 27 26 28 29 31 30 32 33 35 34 36 37 39 38 40 41 43 42 44 45 47 46 48 49 51 50 52 53 55 54 56 57 59 58 60 61 63 62 
				</DataArray>
				<DataArray Name="offsets" type="UInt32" format="ascii">
					4 8 12 16 20 24 28 32 36 40 44 48 52 56 60 64 
				</DataArray>
				<DataArray Name="types" type="UInt8" format="ascii">
					9 9 9 9 9 9 9 9 9 9 9 9 9 9 9 9 
				</DataArray>
			</Cells>
			<PointData Vectors="solution ">
				<DataArray Name="solution" type="Float64" NumberOfComponents="1" format="ascii">
					0.000000000000000e+00 0.000000000000000e+00 -1.557750091623659e-02 1.128812269343118e-02 0.000000000000000e+00 0.000000000000000e+00 1.128812269343118e-02 4.532775704685427e-02 0.000000000000000e+00 0.000000000000000e+00 4.532775704685427e-02 6.388552591255046e-02 0.000000000000000e+00 0.000000000000000e+00 6.388552591255048e-02 2.961624195662171e-02 -1.557750091623660e-02 1.128812269343118e-02 9.262837689973361e-02 4.346091465228568e-01 1.128812269343118e-02 4.532775704685427e-02 4.346091465228569e-01 8.306468772603383e-01 4.532775704685429e-02 6.388552591255046e-02 8.306468772603384e-01 9.779525941416968e-01 6.388552591255048e-02 2.961624195662171e-02 9.779525941416969e-01 6.429284489009564e-01 9.262837689973363e-02 4.346091465228569e-01 5.684922604625603e-01 1.726345016052538e+00 4.346091465228569e-01 8.306468772603384e-01 1.726345016052538e+00 2.948605484800636e+00 8.306468772603385e-01 9.779525941416970e-01 2.948605484800638e+00 3.261452311182341e+00 9.779525941416970e-01 6.429284489009566e-01 3.261452311182341e+00 2.213855811729108e+00 5.684922604625605e-01 1.726345016052538e+00 1.419038131591309e+00 3.340286158349457e+00 1.726345016052538e+00 2.948605484800637e+00 3.340286158349458e+00 5.184613606839498e+00 2.948605484800638e+00 3.261452311182341e+00 5.184613606839499e+00 5.702040020429965e+00 3.261452311182342e+00 2.213855811729109e+00 5.702040020429966e+00 4.313879379222537e+00 
				</DataArray>
			</PointData>
			<CellData>
			</CellData>
		</Piece>
	</UnstructuredGrid>
</VTKFile>