<?xml version="1.0"?>
<VTKFile type="UnstructuredGrid" byte_order="LittleEndian">
	<UnstructuredGrid>
		<Piece NumberOfPoints="64" NumberOfCells="16">
			<Points>
				<DataArray type="Float64" NumberOfComponents="3" format="ascii">
					-1.000000000000000e+00 -1.000000000000000e+00 0.000000000000000e+00
					-5.000000000000000e-01 -1.375000000000000e+00 0.000000000000000e+00
					-8.338955762008279e-01 -8.338955762008279e-01 0.000000000000000e+00
					-4.169477881004139e-01 -1.044833076200828e+00 0.000000000000000e+00
					-5.000000000000000e-01 -1.375000000000000e+00 0.000000000000000e+00
					1.387778780781446e-17 -1.500000000000000e+00 0.000000000000000e+00
					-4.169477881004139e-01 -1.044833076200828e+00 0.000000000000000e+00
					6.938893903907228e-18 -1.115145576200828e+00 0.000000000000000e+00
					1.387778780781446e-17 -1.500000000000000e+00 0.000000000000000e+00
					5.000000000000000e-01 -1.375000000000000e+00 0.000000000000000e+00
					6.938893903907228e-18 -1.115145576200828e+00 0.000000000000000e+00
					4.169477881004139e-01 -1.044833076200828e+00 0.000000000000000e+00
					5.000000000000000e-01 -1.375000000000000e+00 0.000000000000000e+00
					1.000000000000000e+00 -1.000000000000000e+00 0.000000000000000e+00
					4.169477881004139e-01 -1.044833076200828e+00 0.000000000000000e+00
					8.338955762008279e-01 -8.338955762008279e-01 0.000000000000000e+00
					-8.338955762008279e-01 -8.338955762008279e-01 0.000000000000000e+00
					-4.169477881004139e-01 -1.044833076200828e+00 0.000000000000000e+00
					-6.951941016011038e-01 -6.951941016011038e-01 0.000000000000000e+00
					-3.475970508005519e-01 -7.889441016011038e-01 0.000000000000000e+00
					-4.169477881004139e-01 -1.044833076200828e+00 0.000000000000000e+00
					6.938893903907228e-18 -1.115145576200828e+00 0.000000000000000e+00
					-3.475970508005519e-01 -7.889441016011038e-01 0.000000000000000e+00
					0.000000000000000e+00 -8.201941016011038e-01 0.000000000000000e+00
					6.938893903907228e-18 -1.115145576200828e+00 0.000000000000000e+00
					4.169477881004139e-01 -1.044833076200828e+00 0.000000000000000e+00
					0.000000000000000e+00 -8.201941016011038e-01 0.000000000000000e+00
					3.475970508005519e-01 -7.889441016011038e-01 0.000000000000000e+00
					4.169477881004139e-01 -1.044833076200828e+00 0.000000000000000e+00
					8.338955762008279e-01 -8.338955762008279e-01 0.000000000000000e+00
					3.475970508005519e-01 -7.889441016011038e-01 0.000000000000000e+00
					6.951941016011038e-01 -6.951941016011038e-01 0.000000000000000e+00
					-6.951941016011038e-01 -6.951941016011038e-01 0.000000000000000e+00
					-3.475970508005519e-01 -7.889441016011038e-01 0.000000000000000e+00
					-5.838955762008279e-01 -5.838955762008279e-01 0.000000000000000e+00
					-2.919477881004139e-01 -6.073330762008279e-01 0.000000000000000e+00
					-3.475970508005519e-01 -7.889441016011038e-01 0.000000000000000e+00
					0.000000000000000e+00 -8.201941016011038e-01 0.000000000000000e+00
					-2.919477881004139e-01 -6.073330762008279e-01 0.000000000000000e+00
					6.938893903907228e-18 -6.151455762008279e-01 0.000000000000000e+00
					0.000000000000000e+00 -8.201941016011038e-01 0.000000000000000e+00
					3.475970508005519e-01 -7.889441016011038e-01 0.000000000000000e+00
					6.938893903907228e-18 -6.151455762008279e-01 0.000000000000000e+00
					2.919477881004139e-01 -6.073330762008279e-01 0.000000000000000e+00
					3.475970508005519e-01 -7.889441016011038e-01 0.000000000000000e+00
					6.951941016011038e-01 -6.951941016011038e-01 0.000000000000000e+00
					2.919477881004139e-01 -6.073330762008279e-01 0.000000000000000e+00
					5.838955762008279e-01 -5.838955762008279e-01 0.000000000000000e+00
					-5.838955762008279e-01 -5.838955762008279e-01 0.000000000000000e+00
					-2.919477881004139e-01 -6.073330762008279e-01 0.000000000000000e+00
					-5.000000000000000e-01 -5.000000000000000e-01 0.000000000000000e+00
					-2.500000000000000e-01 -5.000000000000000e-01 0.000000000000000e+00
					-2.919477881004139e-01 -6.073330762008279e-01 0.000000000000000e+00
					6.938893903907228e-18 -6.151455762008279e-01 0.000000000000000e+00
					-2.500000000000000e-01 -5.000000000000000e-01 0.000000000000000e+00
					6.938893903907228e-18 -5.000000000000000e-01 0.000000000000000e+00
					6.938893903907228e-18 -6.151455762008279e-01 0.000000000000000e+00
					2.919477881004139e-01 -6.073330762008279e-01 0.000000000000000e+00
					6.938893903907228e-18 -5.000000000000000e-01 0.000000000000000e+00
					2.500000000000000e-01 -5.000000000000000e-01 0.000000000000000e+00
					2.919477881004139e-01 -6.073330762008279e-01 0.000000000000000e+00
					5.838955762008279e-01 -5.838955762008279e-01 0.000000000000000e+00
					2.500000000000000e-01 -5.000000000000000e-01 0.000000000000000e+00
					5.000000000000000e-01 -5.000000000000000e-01 0.000000000000000e+00
				</DataArray>
			</Points>
			<Cells>
				<DataArray Name="connectivity" type="UInt32" format="ascii">
					0 1 3 2 4 5 7 6 8 9 11 10 12 13 15 14 16 17 19 18 20 21 23 22 24 25 27 26 28 29 31 30 32 33 35 34 36 37 39 38 40 41 43 42 44 45 47 46 48 49 51 50 52 53 55 54 56 57 59 58 60 61 63 62 
				</DataArray>
				<DataArray Name="offsets" type="UInt32" format="ascii">
					4 8 12 16 20 24 28 32 36 40 44 48 52 56 60 64 
				</DataArray>
				<DataArray Name="types" type="UInt8" format="ascii">
					9 9 9 9 9 9 9 9 9 9 9 9 9 9 9 9 
				</DataArray>
			</Cells>
			<PointData Vectors="solution ">
				<DataArray Name="solution" type="Float64" NumberOfComponents="1" format="ascii">
					0.000000000000000e+00 0.000000000000000e+00 7.207097787358616e-03 3.619184594726201e-02 0.000000000000000e+00 0.000000000000000e+00 3.619184594726201e-02 6.531537528294266e-02 0.000000000000000e+00 0.000000000000000e+00 6.531537528294266e-02 8.352255346385794e-02 0.000000000000000e+00 0.000000000000000e+00 8.352255346385795e-02 4.625886884756172e-02 7.207097787358616e-03 3.619184594726201e-02 1.838645585883291e-01 5.126618284996017e-01 3.619184594726201e-02 6.531537528294266e-02 5.126618284996017e-01 8.852733835929173e-01 6.531537528294268e-02 8.352255346385795e-02 8.852733835929174e-01 1.026980774070745e+00 8.352255346385797e-02 4.625886884756173e-02 1.026980774070745e+00 7.365921134910350e-01 1.838645585883291e-01 5.126618284996018e-01 7.203970974535827e-01 1.850024536519323e+00 5.126618284996018e-01 8.852733835929174e-01 1.850024536519323e+00 3.022877851910453e+00 8.852733835929176e-01 1.026980774070745e+00 3.022877851910454e+00 3.315197794121442e+00 1.026980774070746e+00 7.365921134910353e-01 3.315197794121443e+00 2.312685145078542e+00 7.203970974535828e-01 1.850024536519324e+00 1.617268087620363e+00 3.484026005012268e+00 1.850024536519324e+00 3.022877851910454e+00 3.484026005012268e+00 5.261962885879377e+00 3.022877851910454e+00 3.315197794121443e+00 5.261962885879379e+00 5.741909563309060e+00 3.315197794121443e+00 2.312685145078543e+00 5.741909563309062e+00 4.390695206364458e+00 
				</DataArray>
			</PointData>
			<CellData>
			</CellData>
		</Piece>
	</UnstructuredGrid>
</VTKFile>