<?xml version="1.0"?>
<VTKFile type="UnstructuredGrid" byte_order="LittleEndian">
	<UnstructuredGrid>
		<Piece NumberOfPoints="64" NumberOfCells="16">
			<Points>
				<DataArray type="Float64" NumberOfComponents="3" format="ascii">
					-1.000000000000000e+00 1.000000000000000e+00 0.000000000000000e+00
					-8.338955762008279e-01 8.338955762008279e-01 0.000000000000000e+00
					-5.000000000000000e-01 1.375000000000000e+00 0.000000000000000e+00
					-4.169477881004139e-01 1.044833076200828e+00 0.000000000000000e+00
					-8.338955762008279e-01 8.338955762008279e-01 0.000000000000000e+00
					-6.951941016011038e-01 6.951941016011038e-01 0.000000000000000e+00
					-4.169477881004139e-01 1.044833076200828e+00 0.000000000000000e+00
					-3.475970508005519e-01 7.889441016011038e-01 0.000000000000000e+00
					-6.951941016011038e-01 6.951941016011038e-01 0.000000000000000e+00
					-5.838955762008279e-01 5.838955762008279e-01 0.000000000000000e+00
					-3.475970508005519e-01 7.889441016011038e-01 0.000000000000000e+00
					-2.919477881004139e-01 6.073330762008279e-01 0.000000000000000e+00
					-5.838955762008279e-01 5.838955762008279e-01 0.000000000000000e+00
					-5.000000000000000e-01 5.000000000000000e-01 0.000000000000000e+00
					-2.919477881004139e-01 6.073330762008279e-01 0.000000000000000e+00
					-2.500000000000000e-01 5.000000000000000e-01 0.000000000000000e+00
					-5.000000000000000e-01 1.375000000000000e+00 0.000000000000000e+00
					-4.169477881004139e-01 1.044833076200828e+00 0.000000000000000e+00
					1.387778780781446e-17 1.500000000000000e+00 0.000000000000000e+00
					2.081668171172169e-17 1.115145576200828e+00 0.000000000000000e+00
					-4.169477881004139e-01 1.044833076200828e+00 0.000000000000000e+00
					-3.475970508005519e-01 7.889441016011038e-01 0.000000000000000e+00
					2.081668171172169e-17 1.115145576200828e+00 0.000000000000000e+00
					0.000000000000000e+00 8.201941016011038e-01 0.000000000000000e+00
					-3.475970508005519e-01 7.889441016011038e-01 0.000000000000000e+00
					-2.919477881004139e-01 6.073330762008279e-01 0.000000000000000e+00
					0.000000000000000e+00 8.201941016011038e-01 0.000000000000000e+00
					1.387778780781446e-17 6.151455762008279e-01 0.000000000000000e+00
					-2.919477881004139e-01 6.073330762008279e-01 0.000000000000000e+00
					-2.500000000000000e-01 5.000000000000000e-01 0.000000000000000e+00
					1.387778780781446e-17 6.151455762008279e-01 0.000000000000000e+00
					6.938893903907228e-18 5.000000000000000e-01 0.000000000000000e+00
					1.387778780781446e-17 1.500000000000000e+00 0.000000000000000e+00
					2.081668171172169e-17 1.115145576200828e+00 0.000000000000000e+00
					5.000000000000000e-01 1.375000000000000e+00 0.000000000000000e+00
					4.169477881004140e-01 1.044833076200828e+00 0.000000000000000e+00
					2.081668171172169e-17 1.115145576200828e+00 0.000000000000000e+00
					0.000000000000000e+00 8.201941016011038e-01 0.000000000000000e+00
					4.169477881004140e-01 1.044833076200828e+00 0.000000000000000e+00
					3.475970508005519e-01 7.889441016011038e-01 0.000000000000000e+00
					0.000000000000000e+00 8.201941016011038e-01 0.000000000000000e+00
					1.387778780781446e-17 6.151455762008279e-01 0.000000000000000e+00
					3.475970508005519e-01 7.889441016011038e-01 0.000000000000000e+00
					2.919477881004139e-01 6.073330762008279e-01 0.000000000000000e+00
					1.387778780781446e-17 6.151455762008279e-01 0.000000000000000e+00
					6.938893903907228e-18 5.000000000000000e-01 0.000000000000000e+00
					2.919477881004139e-01 6.073330762008279e-01 0.000000000000000e+00
					2.500000000000000e-01 5.000000000000000e-01 0.000000000000000e+00
					5.000000000000000e-01 1.375000000000000e+00 0.000000000000000e+00
					4.169477881004140e-01 1.044833076200828e+00 0.000000000000000e+00
					1.000000000000000e+00 1.000000000000000e+00 0.000000000000000e+00
					8.338955762008279e-01 8.338955762008279e-01 0.000000000000000e+00
					4.169477881004140e-01 1.044833076200828e+00 0.000000000000000e+00
					3.475970508005519e-01 7.889441016011038e-01 0.000000000000000e+00
					8.338955762008279e-01 8.338955762008279e-01 0.000000000000000e+00
					6.951941016011038e-01 6.951941016011038e-01 0.000000000000000e+00
					3.475970508005519e-01 7.889441016011038e-01 0.000000000000000e+00
					2.919477881004139e-01 6.073330762008279e-01 0.000000000000000e+00
					6.951941016011038e-01 6.951941016011038e-01 0.000000000000000e+00
					5.838955762008279e-01 5.838955762008279e-01 0.000000000000000e+00
					2.919477881004139e-01 6.073330762008279e-01 0.000000000000000e+00
					2.500000000000000e-01 5.000000000000000e-01 0.000000000000000e+00
					5.838955762008279e-01 5.838955762008279e-01 0.000000000000000e+00
					5.000000000000000e-01 5.000000000000000e-01 0.000000000000000e+00
				</DataArray>
			</Points>
			<Cells>
				<DataArray Name="connectivity" type="UInt32" format="ascii">
					0 1 3 2 4 5 7 6 8 9 11 10 12 13 15 14 16 17 19 18 20 21 23 22 24 25 27 26 28 29 31 30 32 33 35 34 36 37 39 38 40 41 43 42 44 45 47 46 48 49 51 50 52 53 55 54 56 57 59 58 60 61 63 62 
				</DataArray>
				<DataArray Name="offsets" type="UInt32" format="ascii">
					4 8 12 16 20 24 28 32 36 40 44 48 52 56 60 64 
				</DataArray>
				<DataArray Name="types" type="UInt8" format="ascii">
					9 9 9 9 9 9 9 9 9 9 9 9 9 9 9 9 
				</DataArray>
			</Cells>
			<PointData Vectors="solution ">
				<DataArray Name="solution" type="Float64" NumberOfComponents="1" format="ascii">
					0.000000000000000e+00 3.611538763640077e-01 0.000000000000000e+00 2.390217597247528e+00 3.611538763640078e-01 2.940155251543267e+00 2.390217597247528e+00 1.200338681467445e+01 2.940155251543268e+00 7.423050967653680e+00 1.200338681467446e+01 2.098384564119977e+01 7.423050967653682e+00 1.194713872608166e+01 2.098384564119978e+01 2.574174246568462e+01 0.000000000000000e+00 2.390217597247528e+00 0.000000000000000e+00 5.661612452027497e+00 2.390217597247528e+00 1.200338681467445e+01 5.661612452027498e+00 2.350109966106336e+01 1.200338681467446e+01 2.098384564119978e+01 2.350109966106337e+01 3.539664061392644e+01 2.098384564119978e+01 2.574174246568462e+01 3.539664061392644e+01 3.886728239600163e+01 0.000000000000000e+00 5.661612452027499e+00 0.000000000000000e+00 5.512890672516690e+00 5.661612452027500e+00 2.350109966106337e+01 5.512890672516691e+00 2.406655346561281e+01 2.350109966106337e+01 3.539664061392644e+01 2.406655346561281e+01 3.763841049845557e+01 3.539664061392645e+01 3.886728239600163e+01 3.763841049845558e+01 4.244077249567878e+01 0.000000000000000e+00 5.512890672516691e+00 0.000000000000000e+00 2.312074873022361e+00 5.512890672516691e+00 2.406655346561281e+01 2.312074873022361e+00 1.168913831987862e+01 2.406655346561282e+01 3.763841049845558e+01 1.168913831987863e+01 2.385907855127505e+01 3.763841049845559e+01 4.244077249567879e+01 2.385907855127505e+01 3.251987354864053e+01 
				</DataArray>
			</PointData>
			<CellData>
			</CellData>
		</Piece>
	</UnstructuredGrid>
</VTKFile>