<?xml version="1.0"?>
<VTKFile type="UnstructuredGrid" byte_order="LittleEndian">
	<UnstructuredGrid>
		<Piece NumberOfPoints="64" NumberOfCells="16">
			<Points>
				<DataArray type="Float64" NumberOfComponents="3" format="ascii">
					-5.000000000000000e-01 -5.000000000000000e-01 0.000000000000000e+00
					-2.500000000000000e-01 -5.000000000000000e-01 0.000000000000000e+00
					-5.000000000000000e-01 -2.500000000000000e-01 0.000000000000000e+00
					-2.500000000000000e-01 -2.500000000000000e-01 0.000000000000000e+00
					-2.500000000000000e-01 -5.000000000000000e-01 0.000000000000000e+00
					6.938893903907228e-18 -5.000000000000000e-01 0.000000000000000e+00
					-2.500000000000000e-01 -2.500000000000000e-01 0.000000000000000e+00
					1.040834085586084e-17 -2.500000000000000e-01 0.000000000000000e+00
					6.938893903907228e-18 -5.000000000000000e-01 0.000000000000000e+00
					2.500000000000000e-01 -5.000000000000000e-01 0.000000000000000e+00
					1.040834085586084e-17 -2.500000000000000e-01 0.000000000000000e+00
					2.500000000000000e-01 -2.500000000000000e-01 0.000000000000000e+00
					2.500000000000000e-01 -5.000000000000000e-01 0.000000000000000e+00
					5.000000000000000e-01 -5.000000000000000e-01 0.000000000000000e+00
					2.500000000000000e-01 -2.500000000000000e-01 0.000000000000000e+00
					5.000000000000000e-01 -2.500000000000000e-01 0.000000000000000e+00
					-5.000000000000000e-01 -2.500000000000000e-01 0.000000000000000e+00
					-2.500000000000000e-01 -2.500000000000000e-01 0.000000000000000e+00
					-5.000000000000000e-01 6.938893903907228e-18 0.000000000000000e+00
					-2.500000000000000e-01 6.938893903907228e-18 0.000000000000000e+00
					-2.500000000000000e-01 -2.500000000000000e-01 0.000000000000000e+00
					1.040834085586084e-17 -2.500000000000000e-01 0.000000000000000e+00
					-2.500000000000000e-01 6.938893903907228e-18 0.000000000000000e+00
					1.040834085586084e-17 6.938893903907228e-18 0.000000000000000e+00
					1.040834085586084e-17 -2.500000000000000e-01 0.000000000000000e+00
					2.500000000000000e-01 -2.500000000000000e-01 0.000000000000000e+00
					1.040834085586084e-17 6.938893903907228e-18 0.000000000000000e+00
					2.500000000000000e-01 6.938893903907228e-18 0.000000000000000e+00
					2.500000000000000e-01 -2.500000000000000e-01 0.000000000000000e+00
					5.000000000000000e-01 -2.500000000000000e-01 0.000000000000000e+00
					2.500000000000000e-01 6.938893903907228e-18 0.000000000000000e+00
					5.000000000000000e-01 6.938893903907228e-18 0.000000000000000e+00
					-5.000000000000000e-01 6.938893903907228e-18 0.000000000000000e+00
					-2.500000000000000e-01 6.938893903907228e-18 0.000000000000000e+00
					-5.000000000000000e-01 2.500000000000000e-01 0.000000000000000e+00
					-2.500000000000000e-01 2.500000000000000e-01 0.000000000000000e+00
					-2.500000000000000e-01 6.938893903907228e-18 0.000000000000000e+00
					1.040834085586084e-17 6.938893903907228e-18 0.000000000000000e+00
					-2.500000000000000e-01 2.500000000000000e-01 0.000000000000000e+00
					6.938893903907228e-18 2.500000000000000e-01 0.000000000000000e+00
					1.040834085586084e-17 6.938893903907228e-18 0.000000000000000e+00
					2.500000000000000e-01 6.938893903907228e-18 0.000000000000000e+00
					6.938893903907228e-18 2.500000000000000e-01 0.000000000000000e+00
					2.500000000000000e-01 2.500000000000000e-01 0.000000000000000e+00
					2.500000000000000e-01 6.938893903907228e-18 0.000000000000000e+00
					5.000000000000000e-01 6.938893903907228e-18 0.000000000000000e+00
					2.500000000000000e-01 2.500000000000000e-01 0.000000000000000e+00
					5.000000000000000e-01 2.500000000000000e-01 0.000000000000000e+00
					-5.000000000000000e-01 2.500000000000000e-01 0.000000000000000e+00
					-2.500000000000000e-01 2.500000000000000e-01 0.000000000000000e+00
					-5.000000000000000e-01 5.000000000000000e-01 0.000000000000000e+00
					-2.500000000000000e-01 5.000000000000000e-01 0.000000000000000e+00
					-2.500000000000000e-01 2.500000000000000e-01 0.000000000000000e+00
					6.938893903907228e-18 2.500000000000000e-01 0.000000000000000e+00
					-2.500000000000000e-01 5.000000000000000e-01 0.000000000000000e+00
					6.938893903907228e-18 5.000000000000000e-01 0.000000000000000e+00
					6.938893903907228e-18 2.500000000000000e-01 0.000000000000000e+00
					2.500000000000000e-01 2.500000000000000e-01 0.000000000000000e+00
					6.938893903907228e-18 5.000000000000000e-01 0.000000000000000e+00
					2.500000000000000e-01 5.000000000000000e-01 0.000000000000000e+00
					2.500000000000000e-01 2.500000000000000e-01 0.000000000000000e+00
					5.000000000000000e-01 2.500000000000000e-01 0.000000000000000e+00
					2.500000000000000e-01 5.000000000000000e-01 0.000000000000000e+00
					5.000000000000000e-01 5.000000000000000e-01 0.000000000000000e+00
				</DataArray>
			</Points>
			<Cells>
				<DataArray Name="connectivity" type="UInt32" format="ascii">
					0 1 3 2 4 5 7 6 8 9 11 10 12 13 15 14 16 17 19 18 20 21 23 22 24 25 27 26 28 29 31 30 32 33 35 34 36 37 39 38 40 41 43 42 44 45 47 46 48 49 51 50 52 53 55 54 56 57 59 58 60 61 63 62 
				</DataArray>
				<DataArray Name="offsets" type="UInt32" format="ascii">
					4 8 12 16 20 24 28 32 36 40 44 48 52 56 60 64 
				</DataArray>
				<DataArray Name="types" type="UInt8" format="ascii">
					9 9 9 9 9 9 9 9 9 9 9 9 9 9 9 9 
				</DataArray>
			</Cells>
			<PointData Vectors="solution ">
				<DataArray Name="solution" type="Float64" NumberOfComponents="1" format="ascii">
					1.616620396980843e+00 3.482857723093743e+00 4.472147021408549e+00 9.094475041427142e+00 3.482857723093744e+00 5.259864483912190e+00 9.094475041427142e+00 1.350629598337366e+01 5.259864483912192e+00 5.742389349887745e+00 1.350629598337366e+01 1.499460851733638e+01 5.742389349887746e+00 4.394257493007300e+00 1.499460851733639e+01 1.215676150378477e+01 4.472147021408549e+00 9.094475041427142e+00 8.671734697562755e+00 1.734204075187261e+01 9.094475041427144e+00 1.350629598337366e+01 1.734204075187261e+01 2.562846710703845e+01 1.350629598337366e+01 1.499460851733638e+01 2.562846710703845e+01 2.859279286955798e+01 1.499460851733639e+01 1.215676150378477e+01 2.859279286955798e+01 2.357235170581304e+01 8.671734697562758e+00 1.734204075187261e+01 1.215654926828835e+01 2.472150305417503e+01 1.734204075187261e+01 2.562846710703845e+01 2.472150305417503e+01 3.671405128209536e+01 2.562846710703846e+01 2.859279286955798e+01 3.671405128209537e+01 4.075962788248348e+01 2.859279286955799e+01 2.357235170581305e+01 4.075962788248349e+01 3.304548688619411e+01 1.215654926828835e+01 2.472150305417504e+01 1.194508678962784e+01 2.573558457243425e+01 2.472150305417504e+01 3.671405128209536e+01 2.573558457243425e+01 3.886584125323558e+01 3.671405128209538e+01 4.075962788248349e+01 3.886584125323559e+01 4.243147008481245e+01 4.075962788248349e+01 3.304548688619411e+01 4.243147008481246e+01 3.246936810507417e+01 
				</DataArray>
			</PointData>
			<CellData>
			</CellData>
		</Piece>
	</UnstructuredGrid>
</VTKFile>