<?xml version="1.0"?>
<VTKFile type="UnstructuredGrid" byte_order="LittleEndian">
	<UnstructuredGrid>
		<Piece NumberOfPoints="256" NumberOfCells="64">
			<Points>
				<DataArray type="Float64" NumberOfComponents="3" format="ascii">
					-5.000000000000000e-01 -5.000000000000000e-01 0.000000000000000e+00
					-3.750000000000000e-01 -5.000000000000000e-01 0.000000000000000e+00
					-5.000000000000000e-01 -3.750000000000000e-01 0.000000000000000e+00
					-3.750000000000000e-01 -3.750000000000000e-01 0.000000000000000e+00
					-3.750000000000000e-01 -5.000000000000000e-01 0.000000000000000e+00
					-2.500000000000000e-01 -5.000000000000000e-01 0.000000000000000e+00
					-3.750000000000000e-01 -3.750000000000000e-01 0.000000000000000e+00
					-2.500000000000000e-01 -3.750000000000000e-01 0.000000000000000e+00
					-2.500000000000000e-01 -5.000000000000000e-01 0.000000000000000e+00
					-1.250000000000000e-01 -5.000000000000000e-01 0.000000000000000e+00
					-2.500000000000000e-01 -3.750000000000000e-01 0.000000000000000e+00
					-1.250000000000000e-01 -3.750000000000000e-01 0.000000000000000e+00
					-1.250000000000000e-01 -5.000000000000000e-01 0.000000000000000e+00
					0.000000000000000e+00 -5.000000000000000e-01 0.000000000000000e+00
					-1.250000000000000e-01 -3.750000000000000e-01 0.000000000000000e+00
					0.000000000000000e+00 -3.750000000000000e-01 0.000000000000000e+00
					0.000000000000000e+00 -5.000000000000000e-01 0.000000000000000e+00
					1.250000000000000e-01 -5.000000000000000e-01 0.000000000000000e+00
					0.000000000000000e+00 -3.750000000000000e-01 0.000000000000000e+00
					1.250000000000000e-01 -3.750000000000000e-01 0.000000000000000e+00
					1.250000000000000e-01 -5.000000000000000e-01 0.000000000000000e+00
					2.500000000000000e-01 -5.000000000000000e-01 0.000000000000000e+00
					1.250000000000000e-01 -3.750000000000000e-01 0.000000000000000e+00
					2.500000000000000e-01 -3.750000000000000e-01 0.000000000000000e+00
					2.500000000000000e-01 -5.000000000000000e-01 0.000000000000000e+00
					3.750000000000000e-01 -5.000000000000000e-01 0.000000000000000e+00
					2.500000000000000e-01 -3.750000000000000e-01 0.000000000000000e+00
					3.750000000000000e-01 -3.750000000000000e-01 0.000000000000000e+00
					3.750000000000000e-01 -5.000000000000000e-01 0.000000000000000e+00
					5.000000000000000e-01 -5.000000000000000e-01 0.000000000000000e+00
					3.750000000000000e-01 -3.750000000000000e-01 0.000000000000000e+00
					5.000000000000000e-01 -3.750000000000000e-01 0.000000000000000e+00
					-5.000000000000000e-01 -3.750000000000000e-01 0.000000000000000e+00
					-3.750000000000000e-01 -3.750000000000000e-01 0.000000000000000e+00
					-5.000000000000000e-01 -2.500000000000000e-01 0.000000000000000e+00
					-3.750000000000001e-01 -2.500000000000000e-01 0.000000000000000e+00
					-3.750000000000000e-01 -3.750000000000000e-01 0.000000000000000e+00
					-2.500000000000000e-01 -3.750000000000000e-01 0.000000000000000e+00
					-3.750000000000001e-01 -2.500000000000000e-01 0.000000000000000e+00
					-2.500000000000000e-01 -2.500000000000000e-01 0.000000000000000e+00
					-2.500000000000000e-01 -3.750000000000000e-01 0.000000000000000e+00
					-1.250000000000000e-01 -3.750000000000000e-01 0.000000000000000e+00
					-2.500000000000000e-01 -2.500000000000000e-01 0.000000000000000e+00
					-1.250000000000000e-01 -2.500000000000000e-01 0.000000000000000e+00
					-1.250000000000000e-01 -3.750000000000000e-01 0.000000000000000e+00
					0.000000000000000e+00 -3.750000000000000e-01 0.000000000000000e+00
					-1.250000000000000e-01 -2.500000000000000e-01 0.000000000000000e+00
					0.000000000000000e+00 -2.500000000000000e-01 0.000000000000000e+00
					0.000000000000000e+00 -3.750000000000000e-01 0.000000000000000e+00
					1.250000000000000e-01 -3.750000000000000e-01 0.000000000000000e+00
					0.000000000000000e+00 -2.500000000000000e-01 0.000000000000000e+00
					1.250000000000000e-01 -2.500000000000000e-01 0.000000000000000e+00
					1.250000000000000e-01 -3.750000000000000e-01 0.000000000000000e+00
					2.500000000000000e-01 -3.750000000000000e-01 0.000000000000000e+00
					1.250000000000000e-01 -2.500000000000000e-01 0.000000000000000e+00
					2.500000000000000e-01 -2.500000000000000e-01 0.000000000000000e+00
					2.500000000000000e-01 -3.750000000000000e-01 0.000000000000000e+00
					3.750000000000000e-01 -3.750000000000000e-01 0.000000000000000e+00
					2.500000000000000e-01 -2.500000000000000e-01 0.000000000000000e+00
					3.750000000000001e-01 -2.500000000000000e-01 0.000000000000000e+00
					3.750000000000000e-01 -3.750000000000000e-01 0.000000000000000e+00
					5.000000000000000e-01 -3.750000000000000e-01 0.000000000000000e+00
					3.750000000000001e-01 -2.500000000000000e-01 0.000000000000000e+00
					5.000000000000000e-01 -2.500000000000000e-01 0.000000000000000e+00
					-5.000000000000000e-01 -2.500000000000000e-01 0.000000000000000e+00
					-3.750000000000001e-01 -2.500000000000000e-01 0.000000000000000e+00
					-5.000000000000000e-01 -1.250000000000000e-01 0.000000000000000e+00
					-3.750000000000001e-01 -1.250000000000000e-01 0.000000000000000e+00
					-3.750000000000001e-01 -2.500000000000000e-01 0.000000000000000e+00
					-2.500000000000000e-01 -2.500000000000000e-01 0.000000000000000e+00
					-3.750000000000001e-01 -1.250000000000000e-01 0.000000000000000e+00
					-2.500000000000000e-01 -1.250000000000000e-01 0.000000000000000e+00
					-2.500000000000000e-01 -2.500000000000000e-01 0.000000000000000e+00
					-1.250000000000000e-01 -2.500000000000000e-01 0.000000000000000e+00
					-2.500000000000000e-01 -1.250000000000000e-01 0.000000000000000e+00
					-1.250000000000000e-01 -1.250000000000000e-01 0.000000000000000e+00
					-1.250000000000000e-01 -2.500000000000000e-01 0.000000000000000e+00
					0.000000000000000e+00 -2.500000000000000e-01 0.000000000000000e+00
					-1.250000000000000e-01 -1.250000000000000e-01 0.000000000000000e+00
					0.000000000000000e+00 -1.250000000000000e-01 0.000000000000000e+00
					0.000000000000000e+00 -2.500000000000000e-01 0.000000000000000e+00
					1.250000000000000e-01 -2.500000000000000e-01 0.000000000000000e+00
					0.000000000000000e+00 -1.250000000000000e-01 0.000000000000000e+00
					1.250000000000000e-01 -1.250000000000000e-01 0.000000000000000e+00
					1.250000000000000e-01 -2.500000000000000e-01 0.000000000000000e+00
					2.500000000000000e-01 -2.500000000000000e-01 0.000000000000000e+00
					1.250000000000000e-01 -1.250000000000000e-01 0.000000000000000e+00
					2.500000000000000e-01 -1.250000000000000e-01 0.000000000000000e+00
					2.500000000000000e-01 -2.500000000000000e-01 0.000000000000000e+00
					3.750000000000001e-01 -2.500000000000000e-01 0.000000000000000e+00
					2.500000000000000e-01 -1.250000000000000e-01 0.000000000000000e+00
					3.750000000000001e-01 -1.250000000000000e-01 0.000000000000000e+00
					3.750000000000001e-01 -2.500000000000000e-01 0.000000000000000e+00
					5.000000000000000e-01 -2.500000000000000e-01 0.000000000000000e+00
					3.750000000000001e-01 -1.250000000000000e-01 0.000000000000000e+00
					5.000000000000000e-01 -1.250000000000000e-01 0.000000000000000e+00
					-5.000000000000000e-01 -1.250000000000000e-01 0.000000000000000e+00
					-3.750000000000001e-01 -1.250000000000000e-01 0.000000000000000e+00
					-5.000000000000000e-01 0.000000000000000e+00 0.000000000000000e+00
					-3.750000000000000e-01 0.000000000000000e+00 0.000000000000000e+00
					-3.750000000000001e-01 -1.250000000000000e-01 0.000000000000000e+00
					-2.500000000000000e-01 -1.250000000000000e-01 0.000000000000000e+00
					-3.750000000000000e-01 0.000000000000000e+00 0.000000000000000e+00
					-2.500000000000000e-01 0.000000000000000e+00 0.000000000000000e+00
					-2.500000000000000e-01 -1.250000000000000e-01 0.000000000000000e+00
					-1.250000000000000e-01 -1.250000000000000e-01 0.000000000000000e+00
					-2.500000000000000e-01 0.000000000000000e+00 0.000000000000000e+00
					-1.250000000000000e-01 0.000000000000000e+00 0.000000000000000e+00
					-1.250000000000000e-01 -1.250000000000000e-01 0.000000000000000e+00
					0.000000000000000e+00 -1.250000000000000e-01 0.000000000000000e+00
					-1.250000000000000e-01 0.000000000000000e+00 0.000000000000000e+00
					0.000000000000000e+00 0.000000000000000e+00 0.000000000000000e+00
					0.000000000000000e+00 -1.250000000000000e-01 0.000000000000000e+00
					1.250000000000000e-01 -1.250000000000000e-01 0.000000000000000e+00
					0.000000000000000e+00 0.000000000000000e+00 0.000000000000000e+00
					1.250000000000000e-01 0.000000000000000e+00 0.000000000000000e+00
					1.250000000000000e-01 -1.250000000000000e-01 0.000000000000000e+00
					2.500000000000000e-01 -1.250000000000000e-01 0.000000000000000e+00
					1.250000000000000e-01 0.000000000000000e+00 0.000000000000000e+00
					2.500000000000000e-01 0.000000000000000e+00 0.000000000000000e+00
					2.500000000000000e-01 -1.250000000000000e-01 0.000000000000000e+00
					3.750000000000001e-01 -1.250000000000000e-01 0.000000000000000e+00
					2.500000000000000e-01 0.000000000000000e+00 0.000000000000000e+00
					3.750000000000001e-01 0.000000000000000e+00 0.000000000000000e+00
					3.750000000000001e-01 -1.250000000000000e-01 0.000000000000000e+00
					5.000000000000000e-01 -1.250000000000000e-01 0.000000000000000e+00
					3.750000000000001e-01 0.000000000000000e+00 0.000000000000000e+00
					5.000000000000000e-01 0.000000000000000e+00 0.000000000000000e+00
					-5.000000000000000e-01 0.000000000000000e+00 0.000000000000000e+00
					-3.750000000000000e-01 0.000000000000000e+00 0.000000000000000e+00
					-5.000000000000000e-01 1.250000000000000e-01 0.000000000000000e+00
					-3.750000000000000e-01 1.250000000000000e-01 0.000000000000000e+00
					-3.750000000000000e-01 0.000000000000000e+00 0.000000000000000e+00
					-2.500000000000000e-01 0.000000000000000e+00 0.000000000000000e+00
					-3.750000000000000e-01 1.250000000000000e-01 0.000000000000000e+00
					-2.500000000000000e-01 1.250000000000000e-01 0.000000000000000e+00
					-2.500000000000000e-01 0.000000000000000e+00 0.000000000000000e+00
					-1.250000000000000e-01 0.000000000000000e+00 0.000000000000000e+00
					-2.500000000000000e-01 1.250000000000000e-01 0.000000000000000e+00
					-1.250000000000000e-01 1.250000000000000e-01 0.000000000000000e+00
					-1.250000000000000e-01 0.000000000000000e+00 0.000000000000000e+00
					0.000000000000000e+00 0.000000000000000e+00 0.000000000000000e+00
					-1.250000000000000e-01 1.250000000000000e-01 0.000000000000000e+00
					0.000000000000000e+00 1.250000000000000e-01 0.000000000000000e+00
					0.000000000000000e+00 0.000000000000000e+00 0.000000000000000e+00
					1.250000000000000e-01 0.000000000000000e+00 0.000000000000000e+00
					0.000000000000000e+00 1.250000000000000e-01 0.000000000000000e+00
					1.250000000000000e-01 1.250000000000000e-01 0.000000000000000e+00
					1.250000000000000e-01 0.000000000000000e+00 0.000000000000000e+00
					2.500000000000000e-01 0.000000000000000e+00 0.000000000000000e+00
					1.250000000000000e-01 1.250000000000000e-01 0.000000000000000e+00
					2.500000000000000e-01 1.250000000000000e-01 0.000000000000000e+00
					2.500000000000000e-01 0.000000000000000e+00 0.000000000000000e+00
					3.750000000000001e-01 0.000000000000000e+00 0.000000000000000e+00
					2.500000000000000e-01 1.250000000000000e-01 0.000000000000000e+00
					3.750000000000000e-01 1.250000000000000e-01 0.000000000000000e+00
					3.750000000000001e-01 0.000000000000000e+00 0.000000000000000e+00
					5.000000000000000e-01 0.000000000000000e+00 0.000000000000000e+00
					3.750000000000000e-01 1.250000000000000e-01 0.000000000000000e+00
					5.000000000000000e-01 1.250000000000000e-01 0.000000000000000e+00
					-5.000000000000000e-01 1.250000000000000e-01 0.000000000000000e+00
					-3.750000000000000e-01 1.250000000000000e-01 0.000000000000000e+00
					-5.000000000000000e-01 2.500000000000000e-01 0.000000000000000e+00
					-3.750000000000000e-01 2.500000000000000e-01 0.000000000000000e+00
					-3.750000000000000e-01 1.250000000000000e-01 0.000000000000000e+00
					-2.500000000000000e-01 1.250000000000000e-01 0.000000000000000e+00
					-3.750000000000000e-01 2.500000000000000e-01 0.000000000000000e+00
					-2.500000000000000e-01 2.500000000000000e-01 0.000000000000000e+00
					-2.500000000000000e-01 1.250000000000000e-01 0.000000000000000e+00
					-1.250000000000000e-01 1.250000000000000e-01 0.000000000000000e+00
					-2.500000000000000e-01 2.500000000000000e-01 0.000000000000000e+00
					-1.250000000000000e-01 2.500000000000000e-01 0.000000000000000e+00
					-1.250000000000000e-01 1.250000000000000e-01 0.000000000000000e+00
					0.000000000000000e+00 1.250000000000000e-01 0.000000000000000e+00
					-1.250000000000000e-01 2.500000000000000e-01 0.000000000000000e+00
					0.000000000000000e+00 2.500000000000000e-01 0.000000000000000e+00
					0.000000000000000e+00 1.250000000000000e-01 0.000000000000000e+00
					1.250000000000000e-01 1.250000000000000e-01 0.000000000000000e+00
					0.000000000000000e+00 2.500000000000000e-01 0.000000000000000e+00
					1.250000000000000e-01 2.500000000000000e-01 0.000000000000000e+00
					1.250000000000000e-01 1.250000000000000e-01 0.000000000000000e+00
					2.500000000000000e-01 1.250000000000000e-01 0.000000000000000e+00
					1.250000000000000e-01 2.500000000000000e-01 0.000000000000000e+00
					2.500000000000000e-01 2.500000000000000e-01 0.000000000000000e+00
					2.500000000000000e-01 1.250000000000000e-01 0.000000000000000e+00
					3.750000000000000e-01 1.250000000000000e-01 0.000000000000000e+00
					2.500000000000000e-01 2.500000000000000e-01 0.000000000000000e+00
					3.750000000000000e-01 2.500000000000000e-01 0.000000000000000e+00
					3.750000000000000e-01 1.250000000000000e-01 0.000000000000000e+00
					5.000000000000000e-01 1.250000000000000e-01 0.000000000000000e+00
					3.750000000000000e-01 2.500000000000000e-01 0.000000000000000e+00
					5.000000000000000e-01 2.500000000000000e-01 0.000000000000000e+00
					-5.000000000000000e-01 2.500000000000000e-01 0.000000000000000e+00
					-3.750000000000000e-01 2.500000000000000e-01 0.000000000000000e+00
					-5.000000000000000e-01 3.750000000000000e-01 0.000000000000000e+00
					-3.750000000000000e-01 3.750000000000000e-01 0.000000000000000e+00
					-3.750000000000000e-01 2.500000000000000e-01 0.000000000000000e+00
					-2.500000000000000e-01 2.500000000000000e-01 0.000000000000000e+00
					-3.750000000000000e-01 3.750000000000000e-01 0.000000000000000e+00
					-2.500000000000000e-01 3.750000000000000e-01 0.000000000000000e+00
					-2.500000000000000e-01 2.500000000000000e-01 0.000000000000000e+00
					-1.250000000000000e-01 2.500000000000000e-01 0.000000000000000e+00
					-2.500000000000000e-01 3.750000000000000e-01 0.000000000000000e+00
					-1.250000000000000e-01 3.750000000000000e-01 0.000000000000000e+00
					-1.250000000000000e-01 2.500000000000000e-01 0.000000000000000e+00
					0.000000000000000e+00 2.500000000000000e-01 0.000000000000000e+00
					-1.250000000000000e-01 3.750000000000000e-01 0.000000000000000e+00
					0.000000000000000e+00 3.750000000000000e-01 0.000000000000000e+00
					0.000000000000000e+00 2.500000000000000e-01 0.000000000000000e+00
					1.250000000000000e-01 2.500000000000000e-01 0.000000000000000e+00
					0.000000000000000e+00 3.750000000000000e-01 0.000000000000000e+00
					1.250000000000000e-01 3.750000000000000e-01 0.000000000000000e+00
					1.250000000000000e-01 2.500000000000000e-01 0.000000000000000e+00
					2.500000000000000e-01 2.500000000000000e-01 0.000000000000000e+00
					1.250000000000000e-01 3.750000000000000e-01 0.000000000000000e+00
					2.500000000000000e-01 3.750000000000000e-01 0.000000000000000e+00
					2.500000000000000e-01 2.500000000000000e-01 0.000000000000000e+00
					3.750000000000000e-01 2.500000000000000e-01 0.000000000000000e+00
					2.500000000000000e-01 3.750000000000000e-01 0.000000000000000e+00
					3.750000000000000e-01 3.750000000000000e-01 0.000000000000000e+00
					3.750000000000000e-01 2.500000000000000e-01 0.000000000000000e+00
					5.000000000000000e-01 2.500000000000000e-01 0.000000000000000e+00
					3.750000000000000e-01 3.750000000000000e-01 0.000000000000000e+00
					5.000000000000000e-01 3.750000000000000e-01 0.000000000000000e+00
					-5.000000000000000e-01 3.750000000000000e-01 0.000000000000000e+00
					-3.750000000000000e-01 3.750000000000000e-01 0.000000000000000e+00
					-5.000000000000000e-01 5.000000000000000e-01 0.000000000000000e+00
					-3.750000000000000e-01 5.000000000000000e-01 0.000000000000000e+00
					-3.750000000000000e-01 3.750000000000000e-01 0.000000000000000e+00
					-2.500000000000000e-01 3.750000000000000e-01 0.000000000000000e+00
					-3.750000000000000e-01 5.000000000000000e-01 0.000000000000000e+00
					-2.500000000000000e-01 5.000000000000000e-01 0.000000000000000e+00
					-2.500000000000000e-01 3.750000000000000e-01 0.000000000000000e+00
					-1.250000000000000e-01 3.750000000000000e-01 0.000000000000000e+00
					-2.500000000000000e-01 5.000000000000000e-01 0.000000000000000e+00
					-1.250000000000000e-01 5.000000000000000e-01 0.000000000000000e+00
					-1.250000000000000e-01 3.750000000000000e-01 0.000000000000000e+00
					0.000000000000000e+00 3.750000000000000e-01 0.000000000000000e+00
					-1.250000000000000e-01 5.000000000000000e-01 0.000000000000000e+00
					0.000000000000000e+00 5.000000000000000e-01 0.000000000000000e+00
					0.000000000000000e+00 3.750000000000000e-01 0.000000000000000e+00
					1.250000000000000e-01 3.750000000000000e-01 0.000000000000000e+00
					0.000000000000000e+00 5.000000000000000e-01 0.000000000000000e+00
					1.250000000000000e-01 5.000000000000000e-01 0.000000000000000e+00
					1.250000000000000e-01 3.750000000000000e-01 0.000000000000000e+00
					2.500000000000000e-01 3.750000000000000e-01 0.000000000000000e+00
					1.250000000000000e-01 5.000000000000000e-01 0.000000000000000e+00
					2.500000000000000e-01 5.000000000000000e-01 0.000000000000000e+00
					2.500000000000000e-01 3.750000000000000e-01 0.000000000000000e+00
					3.750000000000000e-01 3.750000000000000e-01 0.000000000000000e+00
					2.500000000000000e-01 5.000000000000000e-01 0.000000000000000e+00
					3.750000000000000e-01 5.000000000000000e-01 0.000000000000000e+00
					3.750000000000000e-01 3.750000000000000e-01 0.000000000000000e+00
					5.000000000000000e-01 3.750000000000000e-01 0.000000000000000e+00
					3.750000000000000e-01 5.000000000000000e-01 0.000000000000000e+00
					5.000000000000000e-01 5.000000000000000e-01 0.000000000000000e+00
				</DataArray>
			</Points>
			<Cells>
				<DataArray Name="connectivity" type="UInt32" format="ascii">
					0 1 3 2 4 5 7 6 8 9 11 10 12 13 15 14 16 17 19 18 20 21 23 22 24 25 27 26 28 29 31 30 32 33 35 34 36 37 39 38 40 41 43 42 44 45 47 46 48 49 51 50 52 53 55 54 56 57 59 58 60 61 63 62 64 65 67 66 68 69 71 70 72 73 75 74 76 77 79 78 80 81 83 82 84 85 87 86 88 89 91 90 92 93 95 94 96 97 99 98 100 101 103 102 104 105 107 106 108 109 111 110 112 113 115 114 116 117 119 118 120 121 123 122 124 125 127 126 128 129 131 130 132 133 135 134 136 137 139 138 140 141 143 142 144 145 147 146 148 149 151 150 152 153 155 154 156 157 159 158 160 161 163 162 164 165 167 166 168 169 171 170 172 173 175 174 176 177 179 178 180 181 183 182 184 185 187 186 188 189 191 190 192 193 195 194 196 197 199 198 200 201 203 202 204 205 207 206 208 209 211 210 212 213 215 214 216 217 219 218 220 221 223 222 224 225 227 226 228 229 231 230 232 233 235 234 236 237 239 238 240 241 243 242 244 245 247 246 248 249 251 250 252 253 255 254 
				</DataArray>
				<DataArray Name="offsets" type="UInt32" format="ascii">
					4 8 12 16 20 24 28 32 36 40 44 48 52 56 60 64 68 72 76 80 84 88 92 96 100 104 108 112 116 120 124 128 132 136 140 144 148 152 156 160 164 168 172 176 180 184 188 192 196 200 204 208 212 216 220 224 228 232 236 240 244 248 252 256 
				</DataArray>
				<DataArray Name="types" type="UInt8" format="ascii">
					9 9 9 9 9 9 9 9 9 9 9 9 9 9 9 9 9 9 9 9 9 9 9 9 9 9 9 9 9 9 9 9 9 9 9 9 9 9 9 9 9 9 9 9 9 9 9 9 9 9 9 9 9 9 9 9 9 9 9 9 9 9 9 9 
				</DataArray>
			</Cells>
			<PointData Vectors="solution ">
				<DataArray Name="solution" type="Float64" NumberOfComponents="1" format="ascii">
					1.616581612946387e+00 2.492108057899991e+00 2.823916102089806e+00 4.261088528917104e+00 2.492108057899991e+00 3.482970520386654e+00 4.261088528917104e+00 5.874039520387057e+00 3.482970520386655e+00 4.459321879023875e+00 5.874039520387059e+00 7.463103883719984e+00 4.459321879023877e+00 5.259881133713262e+00 7.463103883719985e+00 8.781145571199428e+00 5.259881133713264e+00 5.725900984195698e+00 8.781145571199430e+00 9.582817707467767e+00 5.725900984195699e+00 5.742393965983956e+00 9.582817707467770e+00 9.684634969682635e+00 5.742393965983957e+00 5.275843196425805e+00 9.684634969682635e+00 9.020735608906371e+00 5.275843196425805e+00 4.394305960488543e+00 9.020735608906373e+00 7.676203530221484e+00 2.823916102089806e+00 4.261088528917104e+00 4.472229376631181e+00 6.656164254551387e+00 4.261088528917104e+00 5.874039520387058e+00 6.656164254551387e+00 9.094704582942269e+00 5.874039520387059e+00 7.463103883719984e+00 9.094704582942272e+00 1.149760498961531e+01 7.463103883719985e+00 8.781145571199428e+00 1.149760498961531e+01 1.350642359946330e+01 8.781145571199430e+00 9.582817707467767e+00 1.350642359946331e+01 1.476321628807928e+01 9.582817707467770e+00 9.684634969682635e+00 1.476321628807929e+01 1.499463354420596e+01 9.684634969682635e+00 9.020735608906371e+00 1.499463354420596e+01 1.409111352451613e+01 9.020735608906373e+00 7.676203530221484e+00 1.409111352451614e+01 1.215678763322008e+01 4.472229376631182e+00 6.656164254551387e+00 6.488293166579163e+00 9.582813162839678e+00 6.656164254551388e+00 9.094704582942272e+00 9.582813162839679e+00 1.302848991798864e+01 9.094704582942274e+00 1.149760498961531e+01 1.302848991798864e+01 1.642454375755027e+01 1.149760498961531e+01 1.350642359946330e+01 1.642454375755028e+01 1.927667031242705e+01 1.350642359946331e+01 1.476321628807929e+01 1.927667031242706e+01 2.108952969919220e+01 1.476321628807929e+01 1.499463354420596e+01 2.108952969919220e+01 2.148034763486645e+01 1.499463354420596e+01 1.409111352451614e+01 2.148034763486645e+01 2.028681972434086e+01 1.409111352451614e+01 1.215678763322008e+01 2.028681972434086e+01 1.763700682102903e+01 6.488293166579163e+00 9.582813162839681e+00 8.672008476238522e+00 1.277646693335746e+01 9.582813162839681e+00 1.302848991798864e+01 1.277646693335747e+01 1.734258680157728e+01 1.302848991798864e+01 1.642454375755028e+01 1.734258680157728e+01 2.184333043596933e+01 1.642454375755029e+01 1.927667031242706e+01 2.184333043596934e+01 2.562890272405214e+01 1.927667031242707e+01 2.108952969919220e+01 2.562890272405214e+01 2.804738823244618e+01 2.108952969919221e+01 2.148034763486645e+01 2.804738823244619e+01 2.859308920015259e+01 2.148034763486646e+01 2.028681972434087e+01 2.859308920015259e+01 2.704777456048102e+01 2.028681972434087e+01 1.763700682102904e+01 2.704777456048103e+01 2.357297101075858e+01 8.672008476238524e+00 1.277646693335747e+01 1.069746048215111e+01 1.579942002991423e+01 1.277646693335747e+01 1.734258680157728e+01 1.579942002991423e+01 2.148035888547458e+01 1.734258680157728e+01 2.184333043596934e+01 2.148035888547458e+01 2.707949863331692e+01 2.184333043596934e+01 2.562890272405214e+01 2.707949863331693e+01 3.178185881186463e+01 2.562890272405215e+01 2.804738823244619e+01 3.178185881186464e+01 3.477076017472905e+01 2.804738823244620e+01 2.859308920015259e+01 3.477076017472906e+01 3.541512545383654e+01 2.859308920015260e+01 2.704777456048103e+01 3.541512545383654e+01 3.344740433172008e+01 2.704777456048103e+01 2.357297101075859e+01 3.344740433172009e+01 2.907872455079037e+01 1.069746048215112e+01 1.579942002991424e+01 1.215665226126768e+01 1.809328122382094e+01 1.579942002991424e+01 2.148035888547459e+01 1.809328122382095e+01 2.472196926508873e+01 2.148035888547459e+01 2.707949863331693e+01 2.472196926508874e+01 3.125373289144411e+01 2.707949863331694e+01 3.178185881186464e+01 3.125373289144412e+01 3.671426926030054e+01 3.178185881186464e+01 3.477076017472906e+01 3.671426926030055e+01 4.013058005476363e+01 3.477076017472907e+01 3.541512545383655e+01 4.013058005476363e+01 4.075960300741465e+01 3.541512545383656e+01 3.344740433172009e+01 4.075960300741465e+01 3.830349114334065e+01 3.344740433172011e+01 2.907872455079038e+01 3.830349114334066e+01 3.304523816368955e+01 1.215665226126768e+01 1.809328122382095e+01 1.265603201565344e+01 1.909689640887610e+01 1.809328122382095e+01 2.472196926508873e+01 1.909689640887610e+01 2.632564415672052e+01 2.472196926508874e+01 3.125373289144411e+01 2.632564415672053e+01 3.344730984860571e+01 3.125373289144412e+01 3.671426926030055e+01 3.344730984860573e+01 3.935436802617208e+01 3.671426926030056e+01 4.013058005476363e+01 3.935436802617208e+01 4.294723095596437e+01 4.013058005476364e+01 4.075960300741466e+01 4.294723095596439e+01 4.340350073376778e+01 4.075960300741466e+01 3.830349114334065e+01 4.340350073376778e+01 4.042823533893253e+01 3.830349114334066e+01 3.304523816368955e+01 4.042823533893253e+01 3.440269424269105e+01 1.265603201565344e+01 1.909689640887610e+01 1.194495745242977e+01 1.841432776662156e+01 1.909689640887610e+01 2.632564415672053e+01 1.841432776662156e+01 2.573588656111968e+01 2.632564415672053e+01 3.344730984860573e+01 2.573588656111968e+01 3.295017079648861e+01 3.344730984860573e+01 3.935436802617208e+01 3.295017079648861e+01 3.886556212736693e+01 3.935436802617210e+01 4.294723095596438e+01 3.886556212736694e+01 4.230903353494994e+01 4.294723095596439e+01 4.340350073376779e+01 4.230903353494996e+01 4.243089164004240e+01 4.340350073376779e+01 4.042823533893254e+01 4.243089164004240e+01 3.898351321866628e+01 4.042823533893255e+01 3.440269424269106e+01 3.898351321866629e+01 3.246961631116773e+01 
				</DataArray>
			</PointData>
			<CellData>
			</CellData>
		</Piece>
	</UnstructuredGrid>
</VTKFile>