<?xml version="1.0"?>
<VTKFile type="UnstructuredGrid" byte_order="LittleEndian">
	<UnstructuredGrid>
		<Piece NumberOfPoints="64" NumberOfCells="16">
			<Points>
				<DataArray type="Float64" NumberOfComponents="3" format="ascii">
					1.000000000000000e+00 -1.000000000000000e+00 0.000000000000000e+00
					1.375000000000000e+00 -5.000000000000000e-01 0.000000000000000e+00
					8.338955762008279e-01 -8.338955762008279e-01 0.000000000000000e+00
					1.185458076200828e+00 -4.169477881004139e-01 0.000000000000000e+00
					1.375000000000000e+00 -5.000000000000000e-01 0.000000000000000e+00
					1.500000000000000e+00 5.551115123125783e-17 0.000000000000000e+00
					1.185458076200828e+00 -4.169477881004139e-01 0.000000000000000e+00
					1.302645576200828e+00 4.857225732735060e-17 0.000000000000000e+00
					1.500000000000000e+00 5.551115123125783e-17 0.000000000000000e+00
					1.375000000000000e+00 5.000000000000000e-01 0.000000000000000e+00
					1.302645576200828e+00 4.857225732735060e-17 0.000000000000000e+00
					1.185458076200828e+00 4.169477881004139e-01 0.000000000000000e+00
					1.375000000000000e+00 5.000000000000000e-01 0.000000000000000e+00
					1.000000000000000e+00 1.000000000000000e+00 0.000000000000000e+00
					1.185458076200828e+00 4.169477881004139e-01 0.000000000000000e+00
					8.338955762008279e-01 8.338955762008279e-01 0.000000000000000e+00
					8.338955762008279e-01 -8.338955762008279e-01 0.000000000000000e+00
					1.185458076200828e+00 -4.169477881004139e-01 0.000000000000000e+00
					6.951941016011038e-01 -6.951941016011038e-01 0.000000000000000e+00
					9.764441016011038e-01 -3.475970508005519e-01 0.000000000000000e+00
					1.185458076200828e+00 -4.169477881004139e-01 0.000000000000000e+00
					1.302645576200828e+00 4.857225732735060e-17 0.000000000000000e+00
					9.764441016011038e-01 -3.475970508005519e-01 0.000000000000000e+00
					1.070194101601104e+00 4.163336342344337e-17 0.000000000000000e+00
					1.302645576200828e+00 4.857225732735060e-17 0.000000000000000e+00
					1.185458076200828e+00 4.169477881004139e-01 0.000000000000000e+00
					1.070194101601104e+00 4.163336342344337e-17 0.000000000000000e+00
					9.764441016011038e-01 3.475970508005519e-01 0.000000000000000e+00
					1.185458076200828e+00 4.169477881004139e-01 0.000000000000000e+00
					8.338955762008279e-01 8.338955762008279e-01 0.000000000000000e+00
					9.764441016011038e-01 3.475970508005519e-01 0.000000000000000e+00
					6.951941016011038e-01 6.951941016011038e-01 0.000000000000000e+00
					6.951941016011038e-01 -6.951941016011038e-01 0.000000000000000e+00
					9.764441016011038e-01 -3.475970508005519e-01 0.000000000000000e+00
					5.838955762008279e-01 -5.838955762008279e-01 0.000000000000000e+00
					7.479580762008279e-01 -2.919477881004139e-01 0.000000000000000e+00
					9.764441016011038e-01 -3.475970508005519e-01 0.000000000000000e+00
					1.070194101601104e+00 4.163336342344337e-17 0.000000000000000e+00
					7.479580762008279e-01 -2.919477881004139e-01 0.000000000000000e+00
					8.026455762008279e-01 3.469446951953614e-17 0.000000000000000e+00
					1.070194101601104e+00 4.163336342344337e-17 0.000000000000000e+00
					9.764441016011038e-01 3.475970508005519e-01 0.000000000000000e+00
					8.026455762008279e-01 3.469446951953614e-17 0.000000000000000e+00
					7.479580762008279e-01 2.919477881004139e-01 0.000000000000000e+00
					9.764441016011038e-01 3.475970508005519e-01 0.000000000000000e+00
					6.951941016011038e-01 6.951941016011038e-01 0.000000000000000e+00
					7.479580762008279e-01 2.919477881004139e-01 0.000000000000000e+00
					5.838955762008279e-01 5.838955762008279e-01 0.000000000000000e+00
					5.838955762008279e-01 -5.838955762008279e-01 0.000000000000000e+00
					7.479580762008279e-01 -2.919477881004139e-01 0.000000000000000e+00
					5.000000000000000e-01 -5.000000000000000e-01 0.000000000000000e+00
					5.000000000000000e-01 -2.500000000000000e-01 0.000000000000000e+00
					7.479580762008279e-01 -2.919477881004139e-01 0.000000000000000e+00
					8.026455762008279e-01 3.469446951953614e-17 0.000000000000000e+00
					5.000000000000000e-01 -2.500000000000000e-01 0.000000000000000e+00
					5.000000000000000e-01 2.775557561562891e-17 0.000000000000000e+00
					8.026455762008279e-01 3.469446951953614e-17 0.000000000000000e+00
					7.479580762008279e-01 2.919477881004139e-01 0.000000000000000e+00
					5.000000000000000e-01 2.775557561562891e-17 0.000000000000000e+00
					5.000000000000000e-01 2.500000000000000e-01 0.000000000000000e+00
					7.479580762008279e-01 2.919477881004139e-01 0.000000000000000e+00
					5.838955762008279e-01 5.838955762008279e-01 0.000000000000000e+00
					5.000000000000000e-01 2.500000000000000e-01 0.000000000000000e+00
					5.000000000000000e-01 5.000000000000000e-01 0.000000000000000e+00
				</DataArray>
			</Points>
			<Cells>
				<DataArray Name="connectivity" type="UInt32" format="ascii">
					0 1 3 2 4 5 7 6 8 9 11 10 12 13 15 14 16 17 19 18 20 21 23 22 24 25 27 26 28 29 31 30 32 33 35 34 36 37 39 38 40 41 43 42 44 45 47 46 48 49 51 50 52 53 55 54 56 57 59 58 60 61 63 62 
				</DataArray>
				<DataArray Name="offsets" type="UInt32" format="ascii">
					4 8 12 16 20 24 28 32 36 40 44 48 52 56 60 64 
				</DataArray>
				<DataArray Name="types" type="UInt8" format="ascii">
					9 9 9 9 9 9 9 9 9 9 9 9 9 9 9 9 
				</DataArray>
			</Cells>
			<PointData Vectors="solution ">
				<DataArray Name="solution" type="Float64" NumberOfComponents="1" format="ascii">
					0.000000000000000e+00 0.000000000000000e+00 4.385067941334440e-01 -3.324751119222694e-02 0.000000000000000e+00 0.000000000000000e+00 -3.324751119222694e-02 -2.511861379387205e-01 0.000000000000000e+00 0.000000000000000e+00 -2.511861379387205e-01 -5.243859162711189e-01 0.000000000000000e+00 0.000000000000000e+00 -5.243859162711189e-01 1.868956730791838e+00 4.385067941334440e-01 -3.324751119222694e-02 1.555655918476033e+00 8.453282313017688e-01 -3.324751119222694e-02 -2.511861379387205e-01 8.453282313017688e-01 6.850190004618377e-01 -2.511861379387205e-01 -5.243859162711189e-01 6.850190004618377e-01 1.917845193481038e+00 -5.243859162711189e-01 1.868956730791838e+00 1.917845193481038e+00 6.630206096362853e+00 1.555655918476033e+00 8.453282313017688e-01 3.053885957485583e+00 4.446000878460306e+00 8.453282313017688e-01 6.850190004618377e-01 4.446000878460306e+00 7.016747328192079e+00 6.850190004618377e-01 1.917845193481038e+00 7.016747328192079e+00 1.071720118724360e+01 1.917845193481038e+00 6.630206096362853e+00 1.071720118724360e+01 1.301510526479630e+01 3.053885957485583e+00 4.446000878460306e+00 4.635645593595455e+00 1.020941376263599e+01 4.446000878460306e+00 7.016747328192079e+00 1.020941376263599e+01 1.885829513641968e+01 7.016747328192079e+00 1.071720118724360e+01 1.885829513641968e+01 2.524932016356688e+01 1.071720118724360e+01 1.301510526479630e+01 2.524932016356688e+01 1.975541297844750e+01 
				</DataArray>
			</PointData>
			<CellData>
			</CellData>
		</Piece>
	</UnstructuredGrid>
</VTKFile>