1 0
2 0
3 0
4 0
5 0
6 0
7 0
8 0
9 0
10 0
11 0
12 0
13 0
14 0
15 0
16 0
17 0
18 0
19 0
20 0
21 0
22 0
23 0
24 0
25 0
26 0
27 0
28 0
29 0
30 0
31 0
32 0
33 0
34 0
35 0
36 0
37 0
38 0
39 0
40 0
41 0
42 0
43 0
44 0
45 0
46 0
47 0
48 0
49 0
50 0
51 0
52 0
53 0
54 0
55 0
56 0
57 0
58 0
59 0
60 0
61 0
62 0
63 0
64 0
65 0
66 0
67 0
68 0
69 0
70 0
71 0
72 0
73 0
74 0
75 0
76 0
77 0
78 0
79 0
80 0
81 0
82 0
83 0
84 0
85 0
86 0
87 0
88 0
89 0
90 0
91 0
92 0
93 0
94 0
95 0
96 0
97 0
98 0
99 0
100 0
101 0
102 0
103 0
104 0
105 0
106 0
107 0
108 0
109 0
110 0
111 0
112 0
113 0
114 0
115 0
116 0
117 0
118 0
119 0
120 0
121 0
122 0
123 0
124 0
125 0
126 0
127 0
128 0
129 0
130 0
131 0
132 0
133 0
134 0
135 0
136 0
137 0
138 0
139 0
140 0
141 0
142 0
143 0
144 0
145 0
146 0
147 0
148 0
149 0
150 0
151 0
152 0
153 0
154 0
155 0
156 0
157 0
158 0
159 0
160 0
161 0
162 0
163 0
164 0
165 0
166 0
167 0
168 0
169 0
170 0
171 0
172 0
173 0
174 0
175 0
176 0
177 0
178 0
179 0
180 0
181 0
182 0
183 0
184 0
185 0
186 0
187 0
188 0
189 0
190 0
191 0
192 0
193 0
194 0
195 0
196 0
197 0
198 0
199 0
200 0
201 0
202 0
203 0
204 0
205 0
206 0
207 0
208 0
209 0
210 0
211 0
212 0
213 0
214 0
215 0
216 0
217 0
218 0
219 0
220 0
221 0
222 0
223 0
224 0
225 0
226 0
227 0
228 0
229 0
230 0
231 0
232 0
233 0
234 0
235 0
236 0
237 0
238 0
239 0
240 0
241 0
242 0
243 0
244 0
245 0
246 0
247 0
248 0
249 0
250 0
251 0
252 0
253 0
254 0
255 0
256 0
257 0
258 0
259 0
260 0
261 0
262 0
263 0
264 0
265 0
266 0
267 0
268 0
269 0
270 0
271 0
272 0
273 0
274 0
275 0
276 0
277 0
278 0
279 0
280 0
281 0
282 0
283 0
284 0
285 0
286 0
287 0
288 0
289 0
290 0
291 0
292 0
293 0
294 0
295 0
296 0
297 0
298 0
299 0
300 0
301 0
302 0
303 0
304 0
305 0
306 0
307 0
308 0
309 0
310 0
311 0
312 0
313 0
314 0
315 0
316 0
317 0
318 0
319 0
320 0
321 0
322 0
323 0
324 0
325 0
326 0
327 0
328 0
329 0
330 0
331 0
332 0
333 0
334 0
335 0
336 0
337 0
338 0
339 0
340 0
341 0
342 0
343 0
344 0
345 0
346 0
347 0
348 0
349 0
350 0
351 0
352 0
353 0
354 0
355 0
356 0
357 0
358 0
359 0
360 0
361 0
362 0
363 0
364 0
365 0
366 0
367 0
368 0
369 0
370 0
371 0
372 0
373 0
374 0
375 0
376 0
377 0
378 0
379 0
380 0
381 0
382 0
383 0
384 0
385 0
386 0
387 0
388 0
389 0
390 0
391 0
392 0
393 0
394 0
395 0
396 0
397 0
398 0
399 0
400 0
401 0
402 0
403 0
404 0
405 0
406 0
407 0
408 0
409 0
410 0
411 0
412 0
413 0
414 0
415 0
416 0
417 0
418 0
419 0
420 0
421 0
422 0
423 0
424 0
425 0
426 0
427 0
428 0
429 0
430 0
431 0
432 0
433 0
434 0
435 0
436 0
437 0
438 0
439 0
440 0
441 0
442 0
443 0
444 0
445 0
446 0
447 0
448 0
449 0
450 0
451 0
452 0
453 0
454 0
455 0
456 0
457 0
458 0
459 0
460 0
461 0
462 0
463 0
464 0
465 0
466 0
467 0
468 0
469 0
470 0
471 0
472 0
473 0
474 0
475 0
476 0
477 0
478 0
479 0
480 0
481 0
482 0
483 0
484 0
485 0
486 0
487 0
488 0
489 0
490 0
491 0
492 0
493 0
494 0
495 0
496 0
497 0
498 0
499 0
500 0
501 0
502 0
503 0
504 0
505 0
506 0
507 0
508 0
509 0
510 0
511 0
512 2.000000e-15
513 2.600000e-14
514 2.700000e-14
515 2.700000e-14
516 2.700000e-14
517 6.706000e-12
518 6.732000e-12
519 6.733000e-12
520 6.759000e-12
521 1.947220e-10
522 2.020810e-10
523 2.020890e-10
524 2.104130e-10
525 3.915610e-10
526 3.992340e-10
527 3.992350e-10
528 4.059580e-10
529 2.993451e-09
530 3.048843e-09
531 3.048843e-09
532 3.104127e-09
533 5.041484e-09
534 5.062990e-09
535 5.062990e-09
536 5.083731e-09
537 1.986536e-08
538 1.991346e-08
539 1.991346e-08
540 1.996145e-08
541 7.372413e-08
542 7.379120e-08
543 7.379120e-08
544 7.385782e-08
545 1.844565e-07
546 1.847605e-07
547 1.847605e-07
548 1.850633e-07
549 2.342262e-07
550 2.342911e-07
551 2.342911e-07
552 2.343586e-07
553 4.079370e-07
554 4.099239e-07
555 4.099239e-07
556 4.119161e-07
557 8.812563e-07
558 8.818875e-07
559 8.818875e-07
560 8.825343e-07
561 1.309947e-06
562 1.316780e-06
563 1.316780e-06
564 1.324869e-06
565 1.371514e-06
566 1.377432e-06
567 1.377432e-06
568 1.382073e-06
569 6.033335e-06
570 6.033418e-06
571 6.033418e-06
572 6.033502e-06
573 6.682073e-06
574 6.682402e-06
575 6.682402e-06
576 6.682731e-06
577 1.900058e-05
578 1.900059e-05
579 1.900059e-05
580 1.900060e-05
581 4.017086e-05
582 4.063759e-05
583 4.063759e-05
584 4.146021e-05
585 4.388291e-05
586 4.593519e-05
587 4.593519e-05
588 4.976137e-05
589 5.010860e-05
590 5.438591e-05
591 5.438591e-05
592 5.664108e-05
593 5.964876e-05
594 5.964876e-05
595 5.964876e-05
596 5.964876e-05
597 8.503801e-05
598 8.659484e-05
599 8.659484e-05
600 8.805092e-05
601 1.435373e-04
602 1.435375e-04
603 1.435375e-04
604 1.435378e-04
605 3.514418e-04
606 3.593668e-04
607 3.593668e-04
608 3.727020e-04
609 3.899402e-04
610 4.032105e-04
611 4.032105e-04
612 4.110626e-04
613 4.624492e-04
614 4.624607e-04
615 4.624607e-04
616 4.624737e-04
617 1.288932e-03
618 1.289448e-03
619 1.289448e-03
620 1.289965e-03
621 1.375565e-03
622 1.375803e-03
623 1.375803e-03
624 1.376047e-03
625 2.101443e-03
626 2.110670e-03
627 2.110670e-03
628 2.121301e-03
629 2.218729e-03
630 2.227812e-03
631 2.227812e-03
632 2.235484e-03
633 6.452070e-03
634 6.452133e-03
635 6.452133e-03
636 6.452197e-03
637 4.545307e-02
638 4.545307e-02
639 4.545307e-02
640 4.545307e-02
641 5.727168e-02
642 5.727168e-02
643 5.727168e-02
644 5.727168e-02
645 6.908099e-02
646 6.908100e-02
647 6.908100e-02
648 6.908100e-02
649 7.838782e-02
650 7.838830e-02
651 7.838830e-02
652 7.838877e-02
653 8.457259e-02
654 8.459921e-02
655 8.459921e-02
656 8.462604e-02
657 8.760977e-02
658 8.770916e-02
659 8.770916e-02
660 8.784328e-02
661 8.837817e-02
662 8.849424e-02
663 8.849424e-02
664 8.857295e-02
665 9.097113e-02
666 9.124156e-02
667 9.124156e-02
668 9.158402e-02
669 9.456671e-02
670 9.473248e-02
671 9.473248e-02
672 9.480137e-02
673 9.570489e-02
674 9.628692e-02
675 9.628692e-02
676 9.701480e-02
677 1.018772e-01
678 1.024276e-01
679 1.024276e-01
680 1.025156e-01
681 1.027069e-01
682 1.032240e-01
683 1.032240e-01
684 1.045718e-01
685 1.063539e-01
686 1.066280e-01
687 1.066280e-01
688 1.066283e-01
689 1.066321e-01
690 1.078802e-01
691 1.078802e-01
692 1.097981e-01
693 1.098981e-01
694 1.098981e-01
695 1.098981e-01
696 1.099163e-01
697 1.099425e-01
698 1.116583e-01
699 1.116583e-01
700 1.119411e-01
701 1.119486e-01
702 1.119584e-01
703 1.119584e-01
704 1.129006e-01
705 1.132359e-01
706 1.132374e-01
707 1.132374e-01
708 1.132839e-01
709 1.135357e-01
710 1.140487e-01
711 1.140487e-01
712 1.140625e-01
713 1.141092e-01
714 1.145476e-01
715 1.145476e-01
716 1.150862e-01
717 1.151988e-01
718 1.152020e-01
719 1.152020e-01
720 1.152384e-01
721 1.166100e-01
722 1.169575e-01
723 1.169575e-01
724 1.172278e-01
725 1.172357e-01
726 1.172364e-01
727 1.172364e-01
728 1.172828e-01
729 1.179728e-01
730 1.181167e-01
731 1.181167e-01
732 1.182116e-01
733 1.192543e-01
734 1.192695e-01
735 1.192695e-01
736 1.192857e-01
737 1.209310e-01
738 1.209905e-01
739 1.209905e-01
740 1.210868e-01
741 1.212415e-01
742 1.213650e-01
743 1.213650e-01
744 1.214910e-01
745 1.215907e-01
746 1.216777e-01
747 1.216777e-01
748 1.217259e-01
749 1.221523e-01
750 1.221628e-01
751 1.221628e-01
752 1.221725e-01
753 1.225282e-01
754 1.225302e-01
755 1.225302e-01
756 1.225322e-01
757 1.229208e-01
758 1.229217e-01
759 1.229217e-01
760 1.229226e-01
761 1.229438e-01
762 1.229446e-01
763 1.229446e-01
764 1.229452e-01
