<?xml version="1.0"?>
<VTKFile type="UnstructuredGrid" byte_order="LittleEndian">
	<UnstructuredGrid>
		<Piece NumberOfPoints="256" NumberOfCells="64">
			<Points>
				<DataArray type="Float64" NumberOfComponents="3" format="ascii">
					-1.000000000000000e+00 0.000000000000000e+00 0.000000000000000e+00
					-8.749999999794923e-01 0.000000000000000e+00 0.000000000000000e+00
					-1.000000000000000e+00 1.249999999876953e-01 0.000000000000000e+00
					-8.717277526650634e-01 1.249999999876954e-01 0.000000000000000e+00
					-8.749999999794923e-01 0.000000000000000e+00 0.000000000000000e+00
					-7.499999999671876e-01 0.000000000000000e+00 0.000000000000000e+00
					-8.717277526650634e-01 1.249999999876954e-01 0.000000000000000e+00
					-7.376647948892548e-01 1.249999999876954e-01 0.000000000000000e+00
					-7.499999999671876e-01 0.000000000000000e+00 0.000000000000000e+00
					-6.249999999619140e-01 0.000000000000000e+00 0.000000000000000e+00
					-7.376647948892548e-01 1.249999999876954e-01 0.000000000000000e+00
					-5.989418029410787e-01 1.249999999876954e-01 0.000000000000000e+00
					-6.249999999619140e-01 0.000000000000000e+00 0.000000000000000e+00
					-4.999999999624999e-01 0.000000000000000e+00 0.000000000000000e+00
					-5.989418029410787e-01 1.249999999876954e-01 0.000000000000000e+00
					-4.566894530890381e-01 1.249999999876954e-01 0.000000000000000e+00
					-4.999999999624999e-01 0.000000000000000e+00 0.000000000000000e+00
					-3.749999999677734e-01 0.000000000000000e+00 0.000000000000000e+00
					-4.566894530890381e-01 1.249999999876954e-01 0.000000000000000e+00
					-3.120384216016369e-01 1.249999999876954e-01 0.000000000000000e+00
					-3.749999999677734e-01 0.000000000000000e+00 0.000000000000000e+00
					-2.499999999765625e-01 0.000000000000000e+00 0.000000000000000e+00
					-3.120384216016369e-01 1.249999999876954e-01 0.000000000000000e+00
					-1.661193847473785e-01 1.249999999876953e-01 0.000000000000000e+00
					-2.499999999765625e-01 0.000000000000000e+00 0.000000000000000e+00
					-1.249999999876953e-01 0.000000000000000e+00 0.000000000000000e+00
					-1.661193847473785e-01 1.249999999876953e-01 0.000000000000000e+00
					-2.006301879476659e-02 1.249999999876953e-01 0.000000000000000e+00
					-1.249999999876953e-01 0.000000000000000e+00 0.000000000000000e+00
					0.000000000000000e+00 0.000000000000000e+00 0.000000000000000e+00
					-2.006301879476659e-02 1.249999999876953e-01 0.000000000000000e+00
					1.249999999876953e-01 1.249999999876953e-01 0.000000000000000e+00
					-1.000000000000000e+00 1.249999999876953e-01 0.000000000000000e+00
					-8.717277526650634e-01 1.249999999876954e-01 0.000000000000000e+00
					-1.000000000000000e+00 2.499999999765626e-01 0.000000000000000e+00
					-8.710510253701633e-01 2.499999999765626e-01 0.000000000000000e+00
					-8.717277526650634e-01 1.249999999876954e-01 0.000000000000000e+00
					-7.376647948892548e-01 1.249999999876954e-01 0.000000000000000e+00
					-8.710510253701633e-01 2.499999999765626e-01 0.000000000000000e+00
					-7.342285155925539e-01 2.499999999765626e-01 0.000000000000000e+00
					-7.376647948892548e-01 1.249999999876954e-01 0.000000000000000e+00
					-5.989418029410787e-01 1.249999999876954e-01 0.000000000000000e+00
					-7.342285155925539e-01 2.499999999765626e-01 0.000000000000000e+00
					-5.895690917600251e-01 2.499999999765626e-01 0.000000000000000e+00
					-5.989418029410787e-01 1.249999999876954e-01 0.000000000000000e+00
					-4.566894530890381e-01 1.249999999876954e-01 0.000000000000000e+00
					-5.895690917600251e-01 2.499999999765626e-01 0.000000000000000e+00
					-4.371093749654298e-01 2.499999999765626e-01 0.000000000000000e+00
					-4.566894530890381e-01 1.249999999876954e-01 0.000000000000000e+00
					-3.120384216016369e-01 1.249999999876954e-01 0.000000000000000e+00
					-4.371093749654298e-01 2.499999999765626e-01 0.000000000000000e+00
					-2.768859863016205e-01 2.499999999765626e-01 0.000000000000000e+00
					-3.120384216016369e-01 1.249999999876954e-01 0.000000000000000e+00
					-1.661193847473785e-01 1.249999999876953e-01 0.000000000000000e+00
					-2.768859863016205e-01 2.499999999765626e-01 0.000000000000000e+00
					-1.089355468614502e-01 2.499999999765625e-01 0.000000000000000e+00
					-1.661193847473785e-01 1.249999999876953e-01 0.000000000000000e+00
					-2.006301879476659e-02 1.249999999876953e-01 0.000000000000000e+00
					-1.089355468614502e-01 2.499999999765625e-01 0.000000000000000e+00
					6.670532226222842e-02 2.499999999765625e-01 0.000000000000000e+00
					-2.006301879476659e-02 1.249999999876953e-01 0.000000000000000e+00
					1.249999999876953e-01 1.249999999876953e-01 0.000000000000000e+00
					6.670532226222842e-02 2.499999999765625e-01 0.000000000000000e+00
					2.499999999765626e-01 2.499999999765626e-01 0.000000000000000e+00
					-1.000000000000000e+00 2.499999999765626e-01 0.000000000000000e+00
					-8.710510253701633e-01 2.499999999765626e-01 0.000000000000000e+00
					-1.000000000000000e+00 3.749999999677735e-01 0.000000000000000e+00
					-8.721046447549461e-01 3.749999999677737e-01 0.000000000000000e+00
					-8.710510253701633e-01 2.499999999765626e-01 0.000000000000000e+00
					-7.342285155925539e-01 2.499999999765626e-01 0.000000000000000e+00
					-8.721046447549461e-01 3.749999999677737e-01 0.000000000000000e+00
					-7.367248534833163e-01 3.749999999677737e-01 0.000000000000000e+00
					-7.342285155925539e-01 2.499999999765626e-01 0.000000000000000e+00
					-5.895690917600251e-01 2.499999999765626e-01 0.000000000000000e+00
					-7.367248534833163e-01 3.749999999677737e-01 0.000000000000000e+00
					-5.913200378054105e-01 3.749999999677737e-01 0.000000000000000e+00
					-5.895690917600251e-01 2.499999999765626e-01 0.000000000000000e+00
					-4.371093749654298e-01 2.499999999765626e-01 0.000000000000000e+00
					-5.913200378054105e-01 3.749999999677737e-01 0.000000000000000e+00
					-4.333496093415284e-01 3.749999999677737e-01 0.000000000000000e+00
					-4.371093749654298e-01 2.499999999765626e-01 0.000000000000000e+00
					-2.768859863016205e-01 2.499999999765626e-01 0.000000000000000e+00
					-4.333496093415284e-01 3.749999999677737e-01 0.000000000000000e+00
					-2.602729797119694e-01 3.749999999677737e-01 0.000000000000000e+00
					-2.768859863016205e-01 2.499999999765626e-01 0.000000000000000e+00
					-1.089355468614502e-01 2.499999999765625e-01 0.000000000000000e+00
					-2.602729797119694e-01 3.749999999677737e-01 0.000000000000000e+00
					-6.954956053703309e-02 3.749999999677735e-01 0.000000000000000e+00
					-1.089355468614502e-01 2.499999999765625e-01 0.000000000000000e+00
					6.670532226222842e-02 2.499999999765625e-01 0.000000000000000e+00
					-6.954956053703309e-02 3.749999999677735e-01 0.000000000000000e+00
					1.413612365629811e-01 3.749999999677735e-01 0.000000000000000e+00
					6.670532226222842e-02 2.499999999765625e-01 0.000000000000000e+00
					2.499999999765626e-01 2.499999999765626e-01 0.000000000000000e+00
					1.413612365629811e-01 3.749999999677735e-01 0.000000000000000e+00
					3.749999999677735e-01 3.749999999677735e-01 0.000000000000000e+00
					-1.000000000000000e+00 3.749999999677735e-01 0.000000000000000e+00
					-8.721046447549461e-01 3.749999999677737e-01 0.000000000000000e+00
					-1.000000000000000e+00 4.999999999625001e-01 0.000000000000000e+00
					-8.740234374795657e-01 4.999999999625002e-01 0.000000000000000e+00
					-8.721046447549461e-01 3.749999999677737e-01 0.000000000000000e+00
					-7.367248534833163e-01 3.749999999677737e-01 0.000000000000000e+00
					-8.740234374795657e-01 4.999999999625002e-01 0.000000000000000e+00
					-7.421874999677737e-01 4.999999999625003e-01 0.000000000000000e+00
					-7.367248534833163e-01 3.749999999677737e-01 0.000000000000000e+00
					-5.913200378054105e-01 3.749999999677737e-01 0.000000000000000e+00
					-7.421874999677737e-01 4.999999999625003e-01 0.000000000000000e+00
					-5.986328124638918e-01 4.999999999625002e-01 0.000000000000000e+00
					-5.913200378054105e-01 3.749999999677737e-01 0.000000000000000e+00
					-4.333496093415284e-01 3.749999999677737e-01 0.000000000000000e+00
					-5.986328124638918e-01 4.999999999625002e-01 0.000000000000000e+00
					-4.374999999671877e-01 4.999999999625002e-01 0.000000000000000e+00
					-4.333496093415284e-01 3.749999999677737e-01 0.000000000000000e+00
					-2.602729797119694e-01 3.749999999677737e-01 0.000000000000000e+00
					-4.374999999671877e-01 4.999999999625002e-01 0.000000000000000e+00
					-2.529296874769288e-01 4.999999999625002e-01 0.000000000000000e+00
					-2.602729797119694e-01 3.749999999677737e-01 0.000000000000000e+00
					-6.954956053703309e-02 3.749999999677735e-01 0.000000000000000e+00
					-2.529296874769288e-01 4.999999999625002e-01 0.000000000000000e+00
					-3.906249999238282e-02 4.999999999625001e-01 0.000000000000000e+00
					-6.954956053703309e-02 3.749999999677735e-01 0.000000000000000e+00
					1.413612365629811e-01 3.749999999677735e-01 0.000000000000000e+00
					-3.906249999238282e-02 4.999999999625001e-01 0.000000000000000e+00
					2.099609374871826e-01 4.999999999625001e-01 0.000000000000000e+00
					1.413612365629811e-01 3.749999999677735e-01 0.000000000000000e+00
					3.749999999677735e-01 3.749999999677735e-01 0.000000000000000e+00
					2.099609374871826e-01 4.999999999625001e-01 0.000000000000000e+00
					4.999999999625001e-01 4.999999999625001e-01 0.000000000000000e+00
					-1.000000000000000e+00 4.999999999625001e-01 0.000000000000000e+00
					-8.740234374795657e-01 4.999999999625002e-01 0.000000000000000e+00
					-1.000000000000000e+00 6.249999999619140e-01 0.000000000000000e+00
					-8.759422302041762e-01 6.249999999619144e-01 0.000000000000000e+00
					-8.740234374795657e-01 4.999999999625002e-01 0.000000000000000e+00
					-7.421874999677737e-01 4.999999999625003e-01 0.000000000000000e+00
					-8.759422302041762e-01 6.249999999619144e-01 0.000000000000000e+00
					-7.476501464521579e-01 6.249999999619145e-01 0.000000000000000e+00
					-7.421874999677737e-01 4.999999999625003e-01 0.000000000000000e+00
					-5.986328124638918e-01 4.999999999625002e-01 0.000000000000000e+00
					-7.476501464521579e-01 6.249999999619145e-01 0.000000000000000e+00
					-6.059455871221258e-01 6.249999999619145e-01 0.000000000000000e+00
					-5.986328124638918e-01 4.999999999625002e-01 0.000000000000000e+00
					-4.374999999671877e-01 4.999999999625002e-01 0.000000000000000e+00
					-6.059455871221258e-01 6.249999999619145e-01 0.000000000000000e+00
					-4.416503905922610e-01 6.249999999619142e-01 0.000000000000000e+00
					-4.374999999671877e-01 4.999999999625002e-01 0.000000000000000e+00
					-2.529296874769288e-01 4.999999999625002e-01 0.000000000000000e+00
					-4.416503905922610e-01 6.249999999619142e-01 0.000000000000000e+00
					-2.455863952407437e-01 6.249999999619141e-01 0.000000000000000e+00
					-2.529296874769288e-01 4.999999999625002e-01 0.000000000000000e+00
					-3.906249999238282e-02 4.999999999625001e-01 0.000000000000000e+00
					-2.455863952407437e-01 6.249999999619141e-01 0.000000000000000e+00
					-8.575439445755006e-03 6.249999999619140e-01 0.000000000000000e+00
					-3.906249999238282e-02 4.999999999625001e-01 0.000000000000000e+00
					2.099609374871826e-01 4.999999999625001e-01 0.000000000000000e+00
					-8.575439445755006e-03 6.249999999619140e-01 0.000000000000000e+00
					2.785606384145245e-01 6.249999999619140e-01 0.000000000000000e+00
					2.099609374871826e-01 4.999999999625001e-01 0.000000000000000e+00
					4.999999999625001e-01 4.999999999625001e-01 0.000000000000000e+00
					2.785606384145245e-01 6.249999999619140e-01 0.000000000000000e+00
					6.249999999619140e-01 6.249999999619140e-01 0.000000000000000e+00
					-1.000000000000000e+00 6.249999999619140e-01 0.000000000000000e+00
					-8.759422302041762e-01 6.249999999619144e-01 0.000000000000000e+00
					-1.000000000000000e+00 7.499999999671875e-01 0.000000000000000e+00
					-8.769958495889314e-01 7.499999999671876e-01 0.000000000000000e+00
					-8.759422302041762e-01 6.249999999619144e-01 0.000000000000000e+00
					-7.476501464521579e-01 6.249999999619145e-01 0.000000000000000e+00
					-8.769958495889314e-01 7.499999999671876e-01 0.000000000000000e+00
					-7.501464843427004e-01 7.499999999671877e-01 0.000000000000000e+00
					-7.476501464521579e-01 6.249999999619145e-01 0.000000000000000e+00
					-6.059455871221258e-01 6.249999999619145e-01 0.000000000000000e+00
					-7.501464843427004e-01 7.499999999671877e-01 0.000000000000000e+00
					-6.076965331667695e-01 7.499999999671877e-01 0.000000000000000e+00
					-6.059455871221258e-01 6.249999999619145e-01 0.000000000000000e+00
					-4.416503905922610e-01 6.249999999619142e-01 0.000000000000000e+00
					-6.076965331667695e-01 7.499999999671877e-01 0.000000000000000e+00
					-4.378906249666017e-01 7.499999999671876e-01 0.000000000000000e+00
					-4.416503905922610e-01 6.249999999619142e-01 0.000000000000000e+00
					-2.455863952407437e-01 6.249999999619141e-01 0.000000000000000e+00
					-4.378906249666017e-01 7.499999999671876e-01 0.000000000000000e+00
					-2.289733886476593e-01 7.499999999671876e-01 0.000000000000000e+00
					-2.455863952407437e-01 6.249999999619141e-01 0.000000000000000e+00
					-8.575439445755006e-03 6.249999999619140e-01 0.000000000000000e+00
					-2.289733886476593e-01 7.499999999671876e-01 0.000000000000000e+00
					3.081054688459473e-02 7.499999999671874e-01 0.000000000000000e+00
					-8.575439445755006e-03 6.249999999619140e-01 0.000000000000000e+00
					2.785606384145245e-01 6.249999999619140e-01 0.000000000000000e+00
					3.081054688459473e-02 7.499999999671874e-01 0.000000000000000e+00
					3.532165527246979e-01 7.499999999671874e-01 0.000000000000000e+00
					2.785606384145245e-01 6.249999999619140e-01 0.000000000000000e+00
					6.249999999619140e-01 6.249999999619140e-01 0.000000000000000e+00
					3.532165527246979e-01 7.499999999671874e-01 0.000000000000000e+00
					7.499999999671875e-01 7.499999999671875e-01 0.000000000000000e+00
					-1.000000000000000e+00 7.499999999671875e-01 0.000000000000000e+00
					-8.769958495889314e-01 7.499999999671876e-01 0.000000000000000e+00
					-1.000000000000000e+00 8.749999999794922e-01 0.000000000000000e+00
					-8.763191222939855e-01 8.749999999794923e-01 0.000000000000000e+00
					-8.769958495889314e-01 7.499999999671876e-01 0.000000000000000e+00
					-7.501464843427004e-01 7.499999999671877e-01 0.000000000000000e+00
					-8.763191222939855e-01 8.749999999794923e-01 0.000000000000000e+00
					-7.467102050456330e-01 8.749999999794923e-01 0.000000000000000e+00
					-7.501464843427004e-01 7.499999999671877e-01 0.000000000000000e+00
					-6.076965331667695e-01 7.499999999671877e-01 0.000000000000000e+00
					-7.467102050456330e-01 8.749999999794923e-01 0.000000000000000e+00
					-5.983238219844799e-01 8.749999999794923e-01 0.000000000000000e+00
					-6.076965331667695e-01 7.499999999671877e-01 0.000000000000000e+00
					-4.378906249666017e-01 7.499999999671876e-01 0.000000000000000e+00
					-5.983238219844799e-01 8.749999999794923e-01 0.000000000000000e+00
					-4.183105468400635e-01 8.749999999794922e-01 0.000000000000000e+00
					-4.378906249666017e-01 7.499999999671876e-01 0.000000000000000e+00
					-2.289733886476593e-01 7.499999999671876e-01 0.000000000000000e+00
					-4.183105468400635e-01 8.749999999794922e-01 0.000000000000000e+00
					-1.938209533419208e-01 8.749999999794922e-01 0.000000000000000e+00
					-2.289733886476593e-01 7.499999999671876e-01 0.000000000000000e+00
					3.081054688459473e-02 7.499999999671874e-01 0.000000000000000e+00
					-1.938209533419208e-01 8.749999999794922e-01 0.000000000000000e+00
					8.799438478041079e-02 8.749999999794922e-01 0.000000000000000e+00
					3.081054688459473e-02 7.499999999671874e-01 0.000000000000000e+00
					3.532165527246979e-01 7.499999999671874e-01 0.000000000000000e+00
					8.799438478041079e-02 8.749999999794922e-01 0.000000000000000e+00
					4.399848937973941e-01 8.749999999794922e-01 0.000000000000000e+00
					3.532165527246979e-01 7.499999999671874e-01 0.000000000000000e+00
					7.499999999671875e-01 7.499999999671875e-01 0.000000000000000e+00
					4.399848937973941e-01 8.749999999794922e-01 0.000000000000000e+00
					8.749999999794922e-01 8.749999999794922e-01 0.000000000000000e+00
					-1.000000000000000e+00 8.749999999794922e-01 0.000000000000000e+00
					-8.763191222939855e-01 8.749999999794923e-01 0.000000000000000e+00
					-1.000000000000000e+00 1.000000000000000e+00 0.000000000000000e+00
					-8.730468749794923e-01 1.000000000000000e+00 0.000000000000000e+00
					-8.763191222939855e-01 8.749999999794923e-01 0.000000000000000e+00
					-7.467102050456330e-01 8.749999999794923e-01 0.000000000000000e+00
					-8.730468749794923e-01 1.000000000000000e+00 0.000000000000000e+00
					-7.343749999671876e-01 1.000000000000000e+00 0.000000000000000e+00
					-7.467102050456330e-01 8.749999999794923e-01 0.000000000000000e+00
					-5.983238219844799e-01 8.749999999794923e-01 0.000000000000000e+00
					-7.343749999671876e-01 1.000000000000000e+00 0.000000000000000e+00
					-5.722656249619140e-01 1.000000000000000e+00 0.000000000000000e+00
					-5.983238219844799e-01 8.749999999794923e-01 0.000000000000000e+00
					-4.183105468400635e-01 8.749999999794922e-01 0.000000000000000e+00
					-5.722656249619140e-01 1.000000000000000e+00 0.000000000000000e+00
					-3.749999999625000e-01 1.000000000000000e+00 0.000000000000000e+00
					-4.183105468400635e-01 8.749999999794922e-01 0.000000000000000e+00
					-1.938209533419208e-01 8.749999999794922e-01 0.000000000000000e+00
					-3.749999999625000e-01 1.000000000000000e+00 0.000000000000000e+00
					-1.308593749677734e-01 1.000000000000000e+00 0.000000000000000e+00
					-1.938209533419208e-01 8.749999999794922e-01 0.000000000000000e+00
					8.799438478041079e-02 8.749999999794922e-01 0.000000000000000e+00
					-1.308593749677734e-01 1.000000000000000e+00 0.000000000000000e+00
					1.718750000234375e-01 1.000000000000000e+00 0.000000000000000e+00
					8.799438478041079e-02 8.749999999794922e-01 0.000000000000000e+00
					4.399848937973941e-01 8.749999999794922e-01 0.000000000000000e+00
					1.718750000234375e-01 1.000000000000000e+00 0.000000000000000e+00
					5.449218750123046e-01 1.000000000000000e+00 0.000000000000000e+00
					4.399848937973941e-01 8.749999999794922e-01 0.000000000000000e+00
					8.749999999794922e-01 8.749999999794922e-01 0.000000000000000e+00
					5.449218750123046e-01 1.000000000000000e+00 0.000000000000000e+00
					1.000000000000000e+00 1.000000000000000e+00 0.000000000000000e+00
				</DataArray>
			</Points>
			<Cells>
				<DataArray Name="connectivity" type="UInt32" format="ascii">
					0 1 3 2 4 5 7 6 8 9 11 10 12 13 15 14 16 17 19 18 20 21 23 22 24 25 27 26 28 29 31 30 32 33 35 34 36 37 39 38 40 41 43 42 44 45 47 46 48 49 51 50 52 53 55 54 56 57 59 58 60 61 63 62 64 65 67 66 68 69 71 70 72 73 75 74 76 77 79 78 80 81 83 82 84 85 87 86 88 89 91 90 92 93 95 94 96 97 99 98 100 101 103 102 104 105 107 106 108 109 111 110 112 113 115 114 116 117 119 118 120 121 123 122 124 125 127 126 128 129 131 130 132 133 135 134 136 137 139 138 140 141 143 142 144 145 147 146 148 149 151 150 152 153 155 154 156 157 159 158 160 161 163 162 164 165 167 166 168 169 171 170 172 173 175 174 176 177 179 178 180 181 183 182 184 185 187 186 188 189 191 190 192 193 195 194 196 197 199 198 200 201 203 202 204 205 207 206 208 209 211 210 212 213 215 214 216 217 219 218 220 221 223 222 224 225 227 226 228 229 231 230 232 233 235 234 236 237 239 238 240 241 243 242 244 245 247 246 248 249 251 250 252 253 255 254 
				</DataArray>
				<DataArray Name="offsets" type="UInt32" format="ascii">
					4 8 12 16 20 24 28 32 36 40 44 48 52 56 60 64 68 72 76 80 84 88 92 96 100 104 108 112 116 120 124 128 132 136 140 144 148 152 156 160 164 168 172 176 180 184 188 192 196 200 204 208 212 216 220 224 228 232 236 240 244 248 252 256 
				</DataArray>
				<DataArray Name="types" type="UInt8" format="ascii">
					9 9 9 9 9 9 9 9 9 9 9 9 9 9 9 9 9 9 9 9 9 9 9 9 9 9 9 9 9 9 9 9 9 9 9 9 9 9 9 9 9 9 9 9 9 9 9 9 9 9 9 9 9 9 9 9 9 9 9 9 9 9 9 9 
				</DataArray>
			</Cells>
			<PointData Vectors="solution ">
				<DataArray Name="solution" type="Float64" NumberOfComponents="1" format="ascii">
					0.000000000000000e+00 0.000000000000000e+00 0.000000000000000e+00 6.634306003903473e-03 0.000000000000000e+00 0.000000000000000e+00 6.634306003903473e-03 1.713267939647452e-02 0.000000000000000e+00 0.000000000000000e+00 1.713267939647452e-02 2.237188059973906e-02 0.000000000000000e+00 0.000000000000000e+00 2.237188059973906e-02 1.986218002793398e-02 0.000000000000000e+00 0.000000000000000e+00 1.986218002793398e-02 1.217451159304432e-02 0.000000000000000e+00 0.000000000000000e+00 1.217451159304432e-02 4.234595110564135e-03 0.000000000000000e+00 0.000000000000000e+00 4.234595110564135e-03 4.774217826648870e-04 0.000000000000000e+00 0.000000000000000e+00 4.774217826648870e-04 3.194595789561979e-03 0.000000000000000e+00 6.634306003903473e-03 0.000000000000000e+00 2.427204748669703e-02 6.634306003903473e-03 1.713267939647452e-02 2.427204748669703e-02 6.295744947357554e-02 1.713267939647452e-02 2.237188059973906e-02 6.295744947357554e-02 8.140101158100302e-02 2.237188059973906e-02 1.986218002793398e-02 8.140101158100302e-02 6.897463415987572e-02 1.986218002793398e-02 1.217451159304432e-02 6.897463415987572e-02 3.650166184897383e-02 1.217451159304432e-02 4.234595110564135e-03 3.650166184897383e-02 7.481766626044965e-03 4.234595110564135e-03 4.774217826648870e-04 7.481766626044965e-03 4.370674320767449e-03 4.774217826648870e-04 3.194595789561979e-03 4.370674320767449e-03 3.116967000524105e-02 0.000000000000000e+00 2.427204748669703e-02 0.000000000000000e+00 4.530214504712153e-02 2.427204748669703e-02 6.295744947357554e-02 4.530214504712153e-02 1.179294916380863e-01 6.295744947357554e-02 8.140101158100302e-02 1.179294916380863e-01 1.538042430559174e-01 8.140101158100302e-02 6.897463415987572e-02 1.538042430559174e-01 1.291461246065059e-01 6.897463415987572e-02 3.650166184897383e-02 1.291461246065059e-01 6.214726018174951e-02 3.650166184897383e-02 7.481766626044965e-03 6.214726018174951e-02 6.854009213538529e-03 7.481766626044965e-03 4.370674320767449e-03 6.854009213538529e-03 2.238179794671852e-02 4.370674320767449e-03 3.116967000524105e-02 2.238179794671852e-02 1.056122402988357e-01 0.000000000000000e+00 4.530214504712153e-02 0.000000000000000e+00 5.989499028515684e-02 4.530214504712153e-02 1.179294916380863e-01 5.989499028515684e-02 1.563648510567537e-01 1.179294916380863e-01 1.538042430559174e-01 1.563648510567537e-01 2.077144402431941e-01 1.538042430559174e-01 1.291461246065059e-01 2.077144402431941e-01 1.765286294067197e-01 1.291461246065059e-01 6.214726018174951e-02 1.765286294067197e-01 7.994273070202601e-02 6.214726018174951e-02 6.854009213538529e-03 7.994273070202601e-02 4.115922201661697e-03 6.854009213538529e-03 2.238179794671852e-02 4.115922201661697e-03 5.795906022297042e-02 2.238179794671852e-02 1.056122402988357e-01 5.795906022297042e-02 1.926656154207508e-01 0.000000000000000e+00 5.989499028515684e-02 0.000000000000000e+00 6.029431434042604e-02 5.989499028515684e-02 1.563648510567537e-01 6.029431434042604e-02 1.577743389256515e-01 1.563648510567537e-01 2.077144402431941e-01 1.577743389256515e-01 2.134839486213451e-01 2.077144402431941e-01 1.765286294067197e-01 2.134839486213451e-01 1.837729484357573e-01 1.765286294067197e-01 7.994273070202601e-02 1.837729484357573e-01 7.819032761534533e-02 7.994273070202601e-02 4.115922201661697e-03 7.819032761534533e-02 1.598207536270483e-03 4.115922201661697e-03 5.795906022297042e-02 1.598207536270483e-03 9.541179412900776e-02 5.795906022297042e-02 1.926656154207508e-01 9.541179412900776e-02 2.008524096794136e-01 0.000000000000000e+00 6.029431434042604e-02 0.000000000000000e+00 4.414726363051267e-02 6.029431434042604e-02 1.577743389256515e-01 4.414726363051267e-02 1.158857491004074e-01 1.577743389256515e-01 2.134839486213451e-01 1.158857491004074e-01 1.582746494303995e-01 2.134839486213451e-01 1.837729484357573e-01 1.582746494303995e-01 1.351429527016620e-01 1.837729484357573e-01 7.819032761534533e-02 1.351429527016620e-01 5.128536320866743e-02 7.819032761534533e-02 1.598207536270483e-03 5.128536320866743e-02 1.919993896508029e-03 1.598207536270483e-03 9.541179412900776e-02 1.919993896508029e-03 1.018998575593131e-01 9.541179412900776e-02 2.008524096794136e-01 1.018998575593131e-01 1.103724362968384e-01 0.000000000000000e+00 4.414726363051267e-02 0.000000000000000e+00 1.739414938530582e-02 4.414726363051267e-02 1.158857491004074e-01 1.739414938530582e-02 4.590951446533788e-02 1.158857491004074e-01 1.582746494303995e-01 4.590951446533788e-02 6.209114898621691e-02 1.582746494303995e-01 1.351429527016620e-01 6.209114898621691e-02 5.018175774273274e-02 1.351429527016620e-01 5.128536320866743e-02 5.018175774273274e-02 1.481545232662982e-02 5.128536320866743e-02 1.919993896508029e-03 1.481545232662982e-02 3.343988254922259e-03 1.919993896508029e-03 1.018998575593131e-01 3.343988254922259e-03 5.155523235245638e-02 1.018998575593131e-01 1.103724362968384e-01 5.155523235245638e-02 2.077804663438276e-02 0.000000000000000e+00 1.739414938530582e-02 0.000000000000000e+00 0.000000000000000e+00 1.739414938530582e-02 4.590951446533788e-02 0.000000000000000e+00 0.000000000000000e+00 4.590951446533788e-02 6.209114898621691e-02 0.000000000000000e+00 0.000000000000000e+00 6.209114898621691e-02 5.018175774273274e-02 0.000000000000000e+00 0.000000000000000e+00 5.018175774273274e-02 1.481545232662982e-02 0.000000000000000e+00 0.000000000000000e+00 1.481545232662982e-02 3.343988254922259e-03 0.000000000000000e+00 0.000000000000000e+00 3.343988254922259e-03 5.155523235245638e-02 0.000000000000000e+00 0.000000000000000e+00 5.155523235245638e-02 2.077804663438276e-02 0.000000000000000e+00 0.000000000000000e+00 
				</DataArray>
			</PointData>
			<CellData>
			</CellData>
		</Piece>
	</UnstructuredGrid>
</VTKFile>