<?xml version="1.0"?>
<VTKFile type="UnstructuredGrid" byte_order="LittleEndian">
	<UnstructuredGrid>
		<Piece NumberOfPoints="64" NumberOfCells="16">
			<Points>
				<DataArray type="Float64" NumberOfComponents="3" format="ascii">
					0.000000000000000e+00 0.000000000000000e+00 0.000000000000000e+00
					0.000000000000000e+00 -2.499999999765626e-01 0.000000000000000e+00
					2.499999999765626e-01 2.499999999765626e-01 0.000000000000000e+00
					2.499999999765626e-01 -1.445312499864503e-01 0.000000000000000e+00
					0.000000000000000e+00 -2.499999999765626e-01 0.000000000000000e+00
					0.000000000000000e+00 -4.999999999625001e-01 0.000000000000000e+00
					2.499999999765626e-01 -1.445312499864503e-01 0.000000000000000e+00
					2.499999999765626e-01 -4.687499999654298e-01 0.000000000000000e+00
					0.000000000000000e+00 -4.999999999625001e-01 0.000000000000000e+00
					0.000000000000000e+00 -7.499999999671876e-01 0.000000000000000e+00
					2.499999999765626e-01 -4.687499999654298e-01 0.000000000000000e+00
					2.499999999765626e-01 -7.460937499675537e-01 0.000000000000000e+00
					0.000000000000000e+00 -7.499999999671876e-01 0.000000000000000e+00
					0.000000000000000e+00 -1.000000000000000e+00 0.000000000000000e+00
					2.499999999765626e-01 -7.460937499675537e-01 0.000000000000000e+00
					2.499999999765626e-01 -1.000000000000000e+00 0.000000000000000e+00
					2.499999999765626e-01 2.499999999765626e-01 0.000000000000000e+00
					2.499999999765626e-01 -1.445312499864503e-01 0.000000000000000e+00
					4.999999999625001e-01 4.999999999625001e-01 0.000000000000000e+00
					4.999999999625001e-01 -3.906249999238288e-02 0.000000000000000e+00
					2.499999999765626e-01 -1.445312499864503e-01 0.000000000000000e+00
					2.499999999765626e-01 -4.687499999654298e-01 0.000000000000000e+00
					4.999999999625001e-01 -3.906249999238288e-02 0.000000000000000e+00
					4.999999999625001e-01 -4.374999999671876e-01 0.000000000000000e+00
					2.499999999765626e-01 -4.687499999654298e-01 0.000000000000000e+00
					2.499999999765626e-01 -7.460937499675537e-01 0.000000000000000e+00
					4.999999999625001e-01 -4.374999999671876e-01 0.000000000000000e+00
					4.999999999625001e-01 -7.421874999677734e-01 0.000000000000000e+00
					2.499999999765626e-01 -7.460937499675537e-01 0.000000000000000e+00
					2.499999999765626e-01 -1.000000000000000e+00 0.000000000000000e+00
					4.999999999625001e-01 -7.421874999677734e-01 0.000000000000000e+00
					4.999999999625001e-01 -1.000000000000000e+00 0.000000000000000e+00
					4.999999999625001e-01 4.999999999625001e-01 0.000000000000000e+00
					4.999999999625001e-01 -3.906249999238288e-02 0.000000000000000e+00
					7.499999999671876e-01 7.499999999671876e-01 0.000000000000000e+00
					7.499999999671876e-01 6.640625000959469e-02 0.000000000000000e+00
					4.999999999625001e-01 -3.906249999238288e-02 0.000000000000000e+00
					4.999999999625001e-01 -4.374999999671876e-01 0.000000000000000e+00
					7.499999999671876e-01 6.640625000959469e-02 0.000000000000000e+00
					7.499999999671876e-01 -4.062499999666016e-01 0.000000000000000e+00
					4.999999999625001e-01 -4.374999999671876e-01 0.000000000000000e+00
					4.999999999625001e-01 -7.421874999677734e-01 0.000000000000000e+00
					7.499999999671876e-01 -4.062499999666016e-01 0.000000000000000e+00
					7.499999999671876e-01 -7.382812499677003e-01 0.000000000000000e+00
					4.999999999625001e-01 -7.421874999677734e-01 0.000000000000000e+00
					4.999999999625001e-01 -1.000000000000000e+00 0.000000000000000e+00
					7.499999999671876e-01 -7.382812499677003e-01 0.000000000000000e+00
					7.499999999671876e-01 -1.000000000000000e+00 0.000000000000000e+00
					7.499999999671876e-01 7.499999999671876e-01 0.000000000000000e+00
					7.499999999671876e-01 6.640625000959469e-02 0.000000000000000e+00
					1.000000000000000e+00 1.000000000000000e+00 0.000000000000000e+00
					1.000000000000000e+00 1.718750000234375e-01 0.000000000000000e+00
					7.499999999671876e-01 6.640625000959469e-02 0.000000000000000e+00
					7.499999999671876e-01 -4.062499999666016e-01 0.000000000000000e+00
					1.000000000000000e+00 1.718750000234375e-01 0.000000000000000e+00
					1.000000000000000e+00 -3.749999999625001e-01 0.000000000000000e+00
					7.499999999671876e-01 -4.062499999666016e-01 0.000000000000000e+00
					7.499999999671876e-01 -7.382812499677003e-01 0.000000000000000e+00
					1.000000000000000e+00 -3.749999999625001e-01 0.000000000000000e+00
					1.000000000000000e+00 -7.343749999671876e-01 0.000000000000000e+00
					7.499999999671876e-01 -7.382812499677003e-01 0.000000000000000e+00
					7.499999999671876e-01 -1.000000000000000e+00 0.000000000000000e+00
					1.000000000000000e+00 -7.343749999671876e-01 0.000000000000000e+00
					1.000000000000000e+00 -1.000000000000000e+00 0.000000000000000e+00
				</DataArray>
			</Points>
			<Cells>
				<DataArray Name="connectivity" type="UInt32" format="ascii">
					0 1 3 2 4 5 7 6 8 9 11 10 12 13 15 14 16 17 19 18 20 21 23 22 24 25 27 26 28 29 31 30 32 33 35 34 36 37 39 38 40 41 43 42 44 45 47 46 48 49 51 50 52 53 55 54 56 57 59 58 60 61 63 62 
				</DataArray>
				<DataArray Name="offsets" type="UInt32" format="ascii">
					4 8 12 16 20 24 28 32 36 40 44 48 52 56 60 64 
				</DataArray>
				<DataArray Name="types" type="UInt8" format="ascii">
					9 9 9 9 9 9 9 9 9 9 9 9 9 9 9 9 
				</DataArray>
			</Cells>
			<PointData Vectors="solution ">
				<DataArray Name="solution" type="Float64" NumberOfComponents="1" format="ascii">
					0.000000000000000e+00 0.000000000000000e+00 3.358777733283183e-02 9.838330325215451e-03 0.000000000000000e+00 0.000000000000000e+00 9.838330325215451e-03 7.314458368966756e-02 0.000000000000000e+00 0.000000000000000e+00 7.314458368966756e-02 6.005310104524501e-02 0.000000000000000e+00 0.000000000000000e+00 6.005310104524501e-02 0.000000000000000e+00 3.358777733283183e-02 9.838330325215451e-03 1.771473431631941e-01 -1.984361096243286e-03 9.838330325215451e-03 7.314458368966756e-02 -1.984361096243286e-03 1.753032010732052e-01 7.314458368966756e-02 6.005310104524501e-02 1.753032010732052e-01 1.561474876345655e-01 6.005310104524501e-02 0.000000000000000e+00 1.561474876345655e-01 0.000000000000000e+00 1.771473431631941e-01 -1.984361096243286e-03 1.105539458022251e-01 -1.032991014943429e-04 -1.984361096243286e-03 1.753032010732052e-01 -1.032991014943429e-04 1.234532459996343e-01 1.753032010732052e-01 1.561474876345655e-01 1.234532459996343e-01 1.213481854684070e-01 1.561474876345655e-01 0.000000000000000e+00 1.213481854684070e-01 0.000000000000000e+00 1.105539458022251e-01 -1.032991014943429e-04 0.000000000000000e+00 0.000000000000000e+00 -1.032991014943429e-04 1.234532459996343e-01 0.000000000000000e+00 0.000000000000000e+00 1.234532459996343e-01 1.213481854684070e-01 0.000000000000000e+00 0.000000000000000e+00 1.213481854684070e-01 0.000000000000000e+00 0.000000000000000e+00 0.000000000000000e+00 
				</DataArray>
			</PointData>
			<CellData>
			</CellData>
		</Piece>
	</UnstructuredGrid>
</VTKFile>