<?xml version="1.0"?>
<VTKFile type="UnstructuredGrid" byte_order="LittleEndian">
	<UnstructuredGrid>
		<Piece NumberOfPoints="256" NumberOfCells="64">
			<Points>
				<DataArray type="Float64" NumberOfComponents="3" format="ascii">
					-1.000000000000000e+00 0.000000000000000e+00 0.000000000000000e+00
					-8.749999999794923e-01 0.000000000000000e+00 0.000000000000000e+00
					-1.000000000000000e+00 1.249999999876953e-01 0.000000000000000e+00
					-8.717277526650634e-01 1.249999999876954e-01 0.000000000000000e+00
					-8.749999999794923e-01 0.000000000000000e+00 0.000000000000000e+00
					-7.499999999671876e-01 0.000000000000000e+00 0.000000000000000e+00
					-8.717277526650634e-01 1.249999999876954e-01 0.000000000000000e+00
					-7.376647948892548e-01 1.249999999876954e-01 0.000000000000000e+00
					-7.499999999671876e-01 0.000000000000000e+00 0.000000000000000e+00
					-6.249999999619140e-01 0.000000000000000e+00 0.000000000000000e+00
					-7.376647948892548e-01 1.249999999876954e-01 0.000000000000000e+00
					-5.989418029410787e-01 1.249999999876954e-01 0.000000000000000e+00
					-6.249999999619140e-01 0.000000000000000e+00 0.000000000000000e+00
					-4.999999999624999e-01 0.000000000000000e+00 0.000000000000000e+00
					-5.989418029410787e-01 1.249999999876954e-01 0.000000000000000e+00
					-4.566894530890381e-01 1.249999999876954e-01 0.000000000000000e+00
					-4.999999999624999e-01 0.000000000000000e+00 0.000000000000000e+00
					-3.749999999677734e-01 0.000000000000000e+00 0.000000000000000e+00
					-4.566894530890381e-01 1.249999999876954e-01 0.000000000000000e+00
					-3.120384216016369e-01 1.249999999876954e-01 0.000000000000000e+00
					-3.749999999677734e-01 0.000000000000000e+00 0.000000000000000e+00
					-2.499999999765625e-01 0.000000000000000e+00 0.000000000000000e+00
					-3.120384216016369e-01 1.249999999876954e-01 0.000000000000000e+00
					-1.661193847473785e-01 1.249999999876953e-01 0.000000000000000e+00
					-2.499999999765625e-01 0.000000000000000e+00 0.000000000000000e+00
					-1.249999999876953e-01 0.000000000000000e+00 0.000000000000000e+00
					-1.661193847473785e-01 1.249999999876953e-01 0.000000000000000e+00
					-2.006301879476659e-02 1.249999999876953e-01 0.000000000000000e+00
					-1.249999999876953e-01 0.000000000000000e+00 0.000000000000000e+00
					0.000000000000000e+00 0.000000000000000e+00 0.000000000000000e+00
					-2.006301879476659e-02 1.249999999876953e-01 0.000000000000000e+00
					1.249999999876953e-01 1.249999999876953e-01 0.000000000000000e+00
					-1.000000000000000e+00 1.249999999876953e-01 0.000000000000000e+00
					-8.717277526650634e-01 1.249999999876954e-01 0.000000000000000e+00
					-1.000000000000000e+00 2.499999999765626e-01 0.000000000000000e+00
					-8.710510253701633e-01 2.499999999765626e-01 0.000000000000000e+00
					-8.717277526650634e-01 1.249999999876954e-01 0.000000000000000e+00
					-7.376647948892548e-01 1.249999999876954e-01 0.000000000000000e+00
					-8.710510253701633e-01 2.499999999765626e-01 0.000000000000000e+00
					-7.342285155925539e-01 2.499999999765626e-01 0.000000000000000e+00
					-7.376647948892548e-01 1.249999999876954e-01 0.000000000000000e+00
					-5.989418029410787e-01 1.249999999876954e-01 0.000000000000000e+00
					-7.342285155925539e-01 2.499999999765626e-01 0.000000000000000e+00
					-5.895690917600251e-01 2.499999999765626e-01 0.000000000000000e+00
					-5.989418029410787e-01 1.249999999876954e-01 0.000000000000000e+00
					-4.566894530890381e-01 1.249999999876954e-01 0.000000000000000e+00
					-5.895690917600251e-01 2.499999999765626e-01 0.000000000000000e+00
					-4.371093749654298e-01 2.499999999765626e-01 0.000000000000000e+00
					-4.566894530890381e-01 1.249999999876954e-01 0.000000000000000e+00
					-3.120384216016369e-01 1.249999999876954e-01 0.000000000000000e+00
					-4.371093749654298e-01 2.499999999765626e-01 0.000000000000000e+00
					-2.768859863016205e-01 2.499999999765626e-01 0.000000000000000e+00
					-3.120384216016369e-01 1.249999999876954e-01 0.000000000000000e+00
					-1.661193847473785e-01 1.249999999876953e-01 0.000000000000000e+00
					-2.768859863016205e-01 2.499999999765626e-01 0.000000000000000e+00
					-1.089355468614502e-01 2.499999999765625e-01 0.000000000000000e+00
					-1.661193847473785e-01 1.249999999876953e-01 0.000000000000000e+00
					-2.006301879476659e-02 1.249999999876953e-01 0.000000000000000e+00
					-1.089355468614502e-01 2.499999999765625e-01 0.000000000000000e+00
					6.670532226222842e-02 2.499999999765625e-01 0.000000000000000e+00
					-2.006301879476659e-02 1.249999999876953e-01 0.000000000000000e+00
					1.249999999876953e-01 1.249999999876953e-01 0.000000000000000e+00
					6.670532226222842e-02 2.499999999765625e-01 0.000000000000000e+00
					2.499999999765626e-01 2.499999999765626e-01 0.000000000000000e+00
					-1.000000000000000e+00 2.499999999765626e-01 0.000000000000000e+00
					-8.710510253701633e-01 2.499999999765626e-01 0.000000000000000e+00
					-1.000000000000000e+00 3.749999999677735e-01 0.000000000000000e+00
					-8.721046447549461e-01 3.749999999677737e-01 0.000000000000000e+00
					-8.710510253701633e-01 2.499999999765626e-01 0.000000000000000e+00
					-7.342285155925539e-01 2.499999999765626e-01 0.000000000000000e+00
					-8.721046447549461e-01 3.749999999677737e-01 0.000000000000000e+00
					-7.367248534833163e-01 3.749999999677737e-01 0.000000000000000e+00
					-7.342285155925539e-01 2.499999999765626e-01 0.000000000000000e+00
					-5.895690917600251e-01 2.499999999765626e-01 0.000000000000000e+00
					-7.367248534833163e-01 3.749999999677737e-01 0.000000000000000e+00
					-5.913200378054105e-01 3.749999999677737e-01 0.000000000000000e+00
					-5.895690917600251e-01 2.499999999765626e-01 0.000000000000000e+00
					-4.371093749654298e-01 2.499999999765626e-01 0.000000000000000e+00
					-5.913200378054105e-01 3.749999999677737e-01 0.000000000000000e+00
					-4.333496093415284e-01 3.749999999677737e-01 0.000000000000000e+00
					-4.371093749654298e-01 2.499999999765626e-01 0.000000000000000e+00
					-2.768859863016205e-01 2.499999999765626e-01 0.000000000000000e+00
					-4.333496093415284e-01 3.749999999677737e-01 0.000000000000000e+00
					-2.602729797119694e-01 3.749999999677737e-01 0.000000000000000e+00
					-2.768859863016205e-01 2.499999999765626e-01 0.000000000000000e+00
					-1.089355468614502e-01 2.499999999765625e-01 0.000000000000000e+00
					-2.602729797119694e-01 3.749999999677737e-01 0.000000000000000e+00
					-6.954956053703309e-02 3.749999999677735e-01 0.000000000000000e+00
					-1.089355468614502e-01 2.499999999765625e-01 0.000000000000000e+00
					6.670532226222842e-02 2.499999999765625e-01 0.000000000000000e+00
					-6.954956053703309e-02 3.749999999677735e-01 0.000000000000000e+00
					1.413612365629811e-01 3.749999999677735e-01 0.000000000000000e+00
					6.670532226222842e-02 2.499999999765625e-01 0.000000000000000e+00
					2.499999999765626e-01 2.499999999765626e-01 0.000000000000000e+00
					1.413612365629811e-01 3.749999999677735e-01 0.000000000000000e+00
					3.749999999677735e-01 3.749999999677735e-01 0.000000000000000e+00
					-1.000000000000000e+00 3.749999999677735e-01 0.000000000000000e+00
					-8.721046447549461e-01 3.749999999677737e-01 0.000000000000000e+00
					-1.000000000000000e+00 4.999999999625001e-01 0.000000000000000e+00
					-8.740234374795657e-01 4.999999999625002e-01 0.000000000000000e+00
					-8.721046447549461e-01 3.749999999677737e-01 0.000000000000000e+00
					-7.367248534833163e-01 3.749999999677737e-01 0.000000000000000e+00
					-8.740234374795657e-01 4.999999999625002e-01 0.000000000000000e+00
					-7.421874999677737e-01 4.999999999625003e-01 0.000000000000000e+00
					-7.367248534833163e-01 3.749999999677737e-01 0.000000000000000e+00
					-5.913200378054105e-01 3.749999999677737e-01 0.000000000000000e+00
					-7.421874999677737e-01 4.999999999625003e-01 0.000000000000000e+00
					-5.986328124638918e-01 4.999999999625002e-01 0.000000000000000e+00
					-5.913200378054105e-01 3.749999999677737e-01 0.000000000000000e+00
					-4.333496093415284e-01 3.749999999677737e-01 0.000000000000000e+00
					-5.986328124638918e-01 4.999999999625002e-01 0.000000000000000e+00
					-4.374999999671877e-01 4.999999999625002e-01 0.000000000000000e+00
					-4.333496093415284e-01 3.749999999677737e-01 0.000000000000000e+00
					-2.602729797119694e-01 3.749999999677737e-01 0.000000000000000e+00
					-4.374999999671877e-01 4.999999999625002e-01 0.000000000000000e+00
					-2.529296874769288e-01 4.999999999625002e-01 0.000000000000000e+00
					-2.602729797119694e-01 3.749999999677737e-01 0.000000000000000e+00
					-6.954956053703309e-02 3.749999999677735e-01 0.000000000000000e+00
					-2.529296874769288e-01 4.999999999625002e-01 0.000000000000000e+00
					-3.906249999238282e-02 4.999999999625001e-01 0.000000000000000e+00
					-6.954956053703309e-02 3.749999999677735e-01 0.000000000000000e+00
					1.413612365629811e-01 3.749999999677735e-01 0.000000000000000e+00
					-3.906249999238282e-02 4.999999999625001e-01 0.000000000000000e+00
					2.099609374871826e-01 4.999999999625001e-01 0.000000000000000e+00
					1.413612365629811e-01 3.749999999677735e-01 0.000000000000000e+00
					3.749999999677735e-01 3.749999999677735e-01 0.000000000000000e+00
					2.099609374871826e-01 4.999999999625001e-01 0.000000000000000e+00
					4.999999999625001e-01 4.999999999625001e-01 0.000000000000000e+00
					-1.000000000000000e+00 4.999999999625001e-01 0.000000000000000e+00
					-8.740234374795657e-01 4.999999999625002e-01 0.000000000000000e+00
					-1.000000000000000e+00 6.249999999619140e-01 0.000000000000000e+00
					-8.759422302041762e-01 6.249999999619144e-01 0.000000000000000e+00
					-8.740234374795657e-01 4.999999999625002e-01 0.000000000000000e+00
					-7.421874999677737e-01 4.999999999625003e-01 0.000000000000000e+00
					-8.759422302041762e-01 6.249999999619144e-01 0.000000000000000e+00
					-7.476501464521579e-01 6.249999999619145e-01 0.000000000000000e+00
					-7.421874999677737e-01 4.999999999625003e-01 0.000000000000000e+00
					-5.986328124638918e-01 4.999999999625002e-01 0.000000000000000e+00
					-7.476501464521579e-01 6.249999999619145e-01 0.000000000000000e+00
					-6.059455871221258e-01 6.249999999619145e-01 0.000000000000000e+00
					-5.986328124638918e-01 4.999999999625002e-01 0.000000000000000e+00
					-4.374999999671877e-01 4.999999999625002e-01 0.000000000000000e+00
					-6.059455871221258e-01 6.249999999619145e-01 0.000000000000000e+00
					-4.416503905922610e-01 6.249999999619142e-01 0.000000000000000e+00
					-4.374999999671877e-01 4.999999999625002e-01 0.000000000000000e+00
					-2.529296874769288e-01 4.999999999625002e-01 0.000000000000000e+00
					-4.416503905922610e-01 6.249999999619142e-01 0.000000000000000e+00
					-2.455863952407437e-01 6.249999999619141e-01 0.000000000000000e+00
					-2.529296874769288e-01 4.999999999625002e-01 0.000000000000000e+00
					-3.906249999238282e-02 4.999999999625001e-01 0.000000000000000e+00
					-2.455863952407437e-01 6.249999999619141e-01 0.000000000000000e+00
					-8.575439445755006e-03 6.249999999619140e-01 0.000000000000000e+00
					-3.906249999238282e-02 4.999999999625001e-01 0.000000000000000e+00
					2.099609374871826e-01 4.999999999625001e-01 0.000000000000000e+00
					-8.575439445755006e-03 6.249999999619140e-01 0.000000000000000e+00
					2.785606384145245e-01 6.249999999619140e-01 0.000000000000000e+00
					2.099609374871826e-01 4.999999999625001e-01 0.000000000000000e+00
					4.999999999625001e-01 4.999999999625001e-01 0.000000000000000e+00
					2.785606384145245e-01 6.249999999619140e-01 0.000000000000000e+00
					6.249999999619140e-01 6.249999999619140e-01 0.000000000000000e+00
					-1.000000000000000e+00 6.249999999619140e-01 0.000000000000000e+00
					-8.759422302041762e-01 6.249999999619144e-01 0.000000000000000e+00
					-1.000000000000000e+00 7.499999999671875e-01 0.000000000000000e+00
					-8.769958495889314e-01 7.499999999671876e-01 0.000000000000000e+00
					-8.759422302041762e-01 6.249999999619144e-01 0.000000000000000e+00
					-7.476501464521579e-01 6.249999999619145e-01 0.000000000000000e+00
					-8.769958495889314e-01 7.499999999671876e-01 0.000000000000000e+00
					-7.501464843427004e-01 7.499999999671877e-01 0.000000000000000e+00
					-7.476501464521579e-01 6.249999999619145e-01 0.000000000000000e+00
					-6.059455871221258e-01 6.249999999619145e-01 0.000000000000000e+00
					-7.501464843427004e-01 7.499999999671877e-01 0.000000000000000e+00
					-6.076965331667695e-01 7.499999999671877e-01 0.000000000000000e+00
					-6.059455871221258e-01 6.249999999619145e-01 0.000000000000000e+00
					-4.416503905922610e-01 6.249999999619142e-01 0.000000000000000e+00
					-6.076965331667695e-01 7.499999999671877e-01 0.000000000000000e+00
					-4.378906249666017e-01 7.499999999671876e-01 0.000000000000000e+00
					-4.416503905922610e-01 6.249999999619142e-01 0.000000000000000e+00
					-2.455863952407437e-01 6.249999999619141e-01 0.000000000000000e+00
					-4.378906249666017e-01 7.499999999671876e-01 0.000000000000000e+00
					-2.289733886476593e-01 7.499999999671876e-01 0.000000000000000e+00
					-2.455863952407437e-01 6.249999999619141e-01 0.000000000000000e+00
					-8.575439445755006e-03 6.249999999619140e-01 0.000000000000000e+00
					-2.289733886476593e-01 7.499999999671876e-01 0.000000000000000e+00
					3.081054688459473e-02 7.499999999671874e-01 0.000000000000000e+00
					-8.575439445755006e-03 6.249999999619140e-01 0.000000000000000e+00
					2.785606384145245e-01 6.249999999619140e-01 0.000000000000000e+00
					3.081054688459473e-02 7.499999999671874e-01 0.000000000000000e+00
					3.532165527246979e-01 7.499999999671874e-01 0.000000000000000e+00
					2.785606384145245e-01 6.249999999619140e-01 0.000000000000000e+00
					6.249999999619140e-01 6.249999999619140e-01 0.000000000000000e+00
					3.532165527246979e-01 7.499999999671874e-01 0.000000000000000e+00
					7.499999999671875e-01 7.499999999671875e-01 0.000000000000000e+00
					-1.000000000000000e+00 7.499999999671875e-01 0.000000000000000e+00
					-8.769958495889314e-01 7.499999999671876e-01 0.000000000000000e+00
					-1.000000000000000e+00 8.749999999794922e-01 0.000000000000000e+00
					-8.763191222939855e-01 8.749999999794923e-01 0.000000000000000e+00
					-8.769958495889314e-01 7.499999999671876e-01 0.000000000000000e+00
					-7.501464843427004e-01 7.499999999671877e-01 0.000000000000000e+00
					-8.763191222939855e-01 8.749999999794923e-01 0.000000000000000e+00
					-7.467102050456330e-01 8.749999999794923e-01 0.000000000000000e+00
					-7.501464843427004e-01 7.499999999671877e-01 0.000000000000000e+00
					-6.076965331667695e-01 7.499999999671877e-01 0.000000000000000e+00
					-7.467102050456330e-01 8.749999999794923e-01 0.000000000000000e+00
					-5.983238219844799e-01 8.749999999794923e-01 0.000000000000000e+00
					-6.076965331667695e-01 7.499999999671877e-01 0.000000000000000e+00
					-4.378906249666017e-01 7.499999999671876e-01 0.000000000000000e+00
					-5.983238219844799e-01 8.749999999794923e-01 0.000000000000000e+00
					-4.183105468400635e-01 8.749999999794922e-01 0.000000000000000e+00
					-4.378906249666017e-01 7.499999999671876e-01 0.000000000000000e+00
					-2.289733886476593e-01 7.499999999671876e-01 0.000000000000000e+00
					-4.183105468400635e-01 8.749999999794922e-01 0.000000000000000e+00
					-1.938209533419208e-01 8.749999999794922e-01 0.000000000000000e+00
					-2.289733886476593e-01 7.499999999671876e-01 0.000000000000000e+00
					3.081054688459473e-02 7.499999999671874e-01 0.000000000000000e+00
					-1.938209533419208e-01 8.749999999794922e-01 0.000000000000000e+00
					8.799438478041079e-02 8.749999999794922e-01 0.000000000000000e+00
					3.081054688459473e-02 7.499999999671874e-01 0.000000000000000e+00
					3.532165527246979e-01 7.499999999671874e-01 0.000000000000000e+00
					8.799438478041079e-02 8.749999999794922e-01 0.000000000000000e+00
					4.399848937973941e-01 8.749999999794922e-01 0.000000000000000e+00
					3.532165527246979e-01 7.499999999671874e-01 0.000000000000000e+00
					7.499999999671875e-01 7.499999999671875e-01 0.000000000000000e+00
					4.399848937973941e-01 8.749999999794922e-01 0.000000000000000e+00
					8.749999999794922e-01 8.749999999794922e-01 0.000000000000000e+00
					-1.000000000000000e+00 8.749999999794922e-01 0.000000000000000e+00
					-8.763191222939855e-01 8.749999999794923e-01 0.000000000000000e+00
					-1.000000000000000e+00 1.000000000000000e+00 0.000000000000000e+00
					-8.730468749794923e-01 1.000000000000000e+00 0.000000000000000e+00
					-8.763191222939855e-01 8.749999999794923e-01 0.000000000000000e+00
					-7.467102050456330e-01 8.749999999794923e-01 0.000000000000000e+00
					-8.730468749794923e-01 1.000000000000000e+00 0.000000000000000e+00
					-7.343749999671876e-01 1.000000000000000e+00 0.000000000000000e+00
					-7.467102050456330e-01 8.749999999794923e-01 0.000000000000000e+00
					-5.983238219844799e-01 8.749999999794923e-01 0.000000000000000e+00
					-7.343749999671876e-01 1.000000000000000e+00 0.000000000000000e+00
					-5.722656249619140e-01 1.000000000000000e+00 0.000000000000000e+00
					-5.983238219844799e-01 8.749999999794923e-01 0.000000000000000e+00
					-4.183105468400635e-01 8.749999999794922e-01 0.000000000000000e+00
					-5.722656249619140e-01 1.000000000000000e+00 0.000000000000000e+00
					-3.749999999625000e-01 1.000000000000000e+00 0.000000000000000e+00
					-4.183105468400635e-01 8.749999999794922e-01 0.000000000000000e+00
					-1.938209533419208e-01 8.749999999794922e-01 0.000000000000000e+00
					-3.749999999625000e-01 1.000000000000000e+00 0.000000000000000e+00
					-1.308593749677734e-01 1.000000000000000e+00 0.000000000000000e+00
					-1.938209533419208e-01 8.749999999794922e-01 0.000000000000000e+00
					8.799438478041079e-02 8.749999999794922e-01 0.000000000000000e+00
					-1.308593749677734e-01 1.000000000000000e+00 0.000000000000000e+00
					1.718750000234375e-01 1.000000000000000e+00 0.000000000000000e+00
					8.799438478041079e-02 8.749999999794922e-01 0.000000000000000e+00
					4.399848937973941e-01 8.749999999794922e-01 0.000000000000000e+00
					1.718750000234375e-01 1.000000000000000e+00 0.000000000000000e+00
					5.449218750123046e-01 1.000000000000000e+00 0.000000000000000e+00
					4.399848937973941e-01 8.749999999794922e-01 0.000000000000000e+00
					8.749999999794922e-01 8.749999999794922e-01 0.000000000000000e+00
					5.449218750123046e-01 1.000000000000000e+00 0.000000000000000e+00
					1.000000000000000e+00 1.000000000000000e+00 0.000000000000000e+00
				</DataArray>
			</Points>
			<Cells>
				<DataArray Name="connectivity" type="UInt32" format="ascii">
					0 1 3 2 4 5 7 6 8 9 11 10 12 13 15 14 16 17 19 18 20 21 23 22 24 25 27 26 28 29 31 30 32 33 35 34 36 37 39 38 40 41 43 42 44 45 47 46 48 49 51 50 52 53 55 54 56 57 59 58 60 61 63 62 64 65 67 66 68 69 71 70 72 73 75 74 76 77 79 78 80 81 83 82 84 85 87 86 88 89 91 90 92 93 95 94 96 97 99 98 100 101 103 102 104 105 107 106 108 109 111 110 112 113 115 114 116 117 119 118 120 121 123 122 124 125 127 126 128 129 131 130 132 133 135 134 136 137 139 138 140 141 143 142 144 145 147 146 148 149 151 150 152 153 155 154 156 157 159 158 160 161 163 162 164 165 167 166 168 169 171 170 172 173 175 174 176 177 179 178 180 181 183 182 184 185 187 186 188 189 191 190 192 193 195 194 196 197 199 198 200 201 203 202 204 205 207 206 208 209 211 210 212 213 215 214 216 217 219 218 220 221 223 222 224 225 227 226 228 229 231 230 232 233 235 234 236 237 239 238 240 241 243 242 244 245 247 246 248 249 251 250 252 253 255 254 
				</DataArray>
				<DataArray Name="offsets" type="UInt32" format="ascii">
					4 8 12 16 20 24 28 32 36 40 44 48 52 56 60 64 68 72 76 80 84 88 92 96 100 104 108 112 116 120 124 128 132 136 140 144 148 152 156 160 164 168 172 176 180 184 188 192 196 200 204 208 212 216 220 224 228 232 236 240 244 248 252 256 
				</DataArray>
				<DataArray Name="types" type="UInt8" format="ascii">
					9 9 9 9 9 9 9 9 9 9 9 9 9 9 9 9 9 9 9 9 9 9 9 9 9 9 9 9 9 9 9 9 9 9 9 9 9 9 9 9 9 9 9 9 9 9 9 9 9 9 9 9 9 9 9 9 9 9 9 9 9 9 9 9 
				</DataArray>
			</Cells>
			<PointData Vectors="solution ">
				<DataArray Name="solution" type="Float64" NumberOfComponents="1" format="ascii">
					0.000000000000000e+00 0.000000000000000e+00 0.000000000000000e+00 6.632200292111849e-03 0.000000000000000e+00 0.000000000000000e+00 6.632200292111849e-03 1.711983260680162e-02 0.000000000000000e+00 0.000000000000000e+00 1.711983260680162e-02 2.233458330318260e-02 0.000000000000000e+00 0.000000000000000e+00 2.233458330318260e-02 1.977807753147092e-02 0.000000000000000e+00 0.000000000000000e+00 1.977807753147092e-02 1.200923946039524e-02 0.000000000000000e+00 0.000000000000000e+00 1.200923946039524e-02 3.952202096565285e-03 0.000000000000000e+00 0.000000000000000e+00 3.952202096565285e-03 7.728880414955232e-05 0.000000000000000e+00 0.000000000000000e+00 7.728880414955232e-05 2.290911281240051e-03 0.000000000000000e+00 6.632200292111849e-03 0.000000000000000e+00 2.426171480681091e-02 6.632200292111849e-03 1.711983260680162e-02 2.426171480681091e-02 6.290866213015171e-02 1.711983260680162e-02 2.233458330318260e-02 6.290866213015171e-02 8.126763759448513e-02 2.233458330318260e-02 1.977807753147092e-02 8.126763759448513e-02 6.867568177843698e-02 1.977807753147092e-02 1.200923946039524e-02 6.867568177843698e-02 3.590082432694195e-02 1.200923946039524e-02 3.952202096565285e-03 3.590082432694195e-02 6.373701265963027e-03 3.952202096565285e-03 7.728880414955232e-05 6.373701265963027e-03 2.451122532633160e-03 7.728880414955232e-05 2.290911281240051e-03 2.451122532633160e-03 3.026330969391286e-02 0.000000000000000e+00 2.426171480681091e-02 0.000000000000000e+00 4.528285075803981e-02 2.426171480681091e-02 6.290866213015171e-02 4.528285075803981e-02 1.178459637634499e-01 6.290866213015171e-02 8.126763759448513e-02 1.178459637634499e-01 1.535832326125226e-01 8.126763759448513e-02 6.867568177843698e-02 1.535832326125226e-01 1.286522280125470e-01 6.867568177843698e-02 3.590082432694195e-02 1.286522280125470e-01 6.113914803501325e-02 3.590082432694195e-02 6.373701265963027e-03 6.113914803501325e-02 4.989546727624227e-03 6.373701265963027e-03 2.451122532633160e-03 4.989546727624227e-03 2.000104848647915e-02 2.451122532633160e-03 3.026330969391286e-02 2.000104848647915e-02 1.082233885171923e-01 0.000000000000000e+00 4.528285075803981e-02 0.000000000000000e+00 5.987247889667210e-02 4.528285075803981e-02 1.178459637634499e-01 5.987247889667210e-02 1.562709320610244e-01 1.178459637634499e-01 1.535832326125226e-01 1.562709320610244e-01 2.074696766294813e-01 1.535832326125226e-01 1.286522280125470e-01 2.074696766294813e-01 1.759798724180484e-01 1.286522280125470e-01 6.113914803501325e-02 1.759798724180484e-01 7.881309429284378e-02 6.113914803501325e-02 4.989546727624227e-03 7.881309429284378e-02 2.149503617453774e-03 4.989546727624227e-03 2.000104848647915e-02 2.149503617453774e-03 5.671185818984098e-02 2.000104848647915e-02 1.082233885171923e-01 5.671185818984098e-02 1.982949828229144e-01 0.000000000000000e+00 5.987247889667210e-02 0.000000000000000e+00 6.027614190787909e-02 5.987247889667210e-02 1.562709320610244e-01 6.027614190787909e-02 1.576984129111542e-01 1.562709320610244e-01 2.074696766294813e-01 1.576984129111542e-01 2.132846455458454e-01 2.074696766294813e-01 1.759798724180484e-01 2.132846455458454e-01 1.833187847569048e-01 1.759798724180484e-01 7.881309429284378e-02 1.833187847569048e-01 7.724468020260550e-02 7.881309429284378e-02 2.149503617453774e-03 7.724468020260550e-02 9.603259020601949e-05 2.149503617453774e-03 5.671185818984098e-02 9.603259020601949e-05 9.574548471600025e-02 5.671185818984098e-02 1.982949828229144e-01 9.574548471600025e-02 2.107072021120961e-01 0.000000000000000e+00 6.027614190787909e-02 0.000000000000000e+00 4.413780432730739e-02 6.027614190787909e-02 1.576984129111542e-01 4.413780432730739e-02 1.158433539555467e-01 1.576984129111542e-01 2.132846455458454e-01 1.158433539555467e-01 1.581579510822840e-01 2.132846455458454e-01 1.833187847569048e-01 1.581579510822840e-01 1.348643245714529e-01 1.833187847569048e-01 7.724468020260550e-02 1.348643245714529e-01 5.068164172316333e-02 7.724468020260550e-02 9.603259020601949e-05 5.068164172316333e-02 1.000524182512405e-03 9.603259020601949e-05 9.574548471600025e-02 1.000524182512405e-03 1.028937961428078e-01 9.574548471600025e-02 2.107072021120961e-01 1.028937961428078e-01 1.162230761751751e-01 0.000000000000000e+00 4.413780432730739e-02 0.000000000000000e+00 1.739217619772504e-02 4.413780432730739e-02 1.158433539555467e-01 1.739217619772504e-02 4.589776077505155e-02 1.158433539555467e-01 1.581579510822840e-01 4.589776077505155e-02 6.205512406322247e-02 1.581579510822840e-01 1.348643245714529e-01 6.205512406322247e-02 5.009164798726232e-02 1.348643245714529e-01 5.068164172316333e-02 5.009164798726232e-02 1.463258219009933e-02 5.068164172316333e-02 1.000524182512405e-03 1.463258219009933e-02 3.209943445796566e-03 1.000524182512405e-03 1.028937961428078e-01 3.209943445796566e-03 5.309540071746730e-02 1.028937961428078e-01 1.162230761751751e-01 5.309540071746730e-02 1.839198092238626e-02 0.000000000000000e+00 1.739217619772504e-02 0.000000000000000e+00 0.000000000000000e+00 1.739217619772504e-02 4.589776077505155e-02 0.000000000000000e+00 0.000000000000000e+00 4.589776077505155e-02 6.205512406322247e-02 0.000000000000000e+00 0.000000000000000e+00 6.205512406322247e-02 5.009164798726232e-02 0.000000000000000e+00 0.000000000000000e+00 5.009164798726232e-02 1.463258219009933e-02 0.000000000000000e+00 0.000000000000000e+00 1.463258219009933e-02 3.209943445796566e-03 0.000000000000000e+00 0.000000000000000e+00 3.209943445796566e-03 5.309540071746730e-02 0.000000000000000e+00 0.000000000000000e+00 5.309540071746730e-02 1.839198092238626e-02 0.000000000000000e+00 0.000000000000000e+00 
				</DataArray>
			</PointData>
			<CellData>
			</CellData>
		</Piece>
	</UnstructuredGrid>
</VTKFile>