<?xml version="1.0"?>
<VTKFile type="UnstructuredGrid" byte_order="LittleEndian">
	<UnstructuredGrid>
		<Piece NumberOfPoints="64" NumberOfCells="16">
			<Points>
				<DataArray type="Float64" NumberOfComponents="3" format="ascii">
					-1.000000000000000e+00 0.000000000000000e+00 0.000000000000000e+00
					-7.499999999671876e-01 0.000000000000000e+00 0.000000000000000e+00
					-1.000000000000000e+00 2.499999999765626e-01 0.000000000000000e+00
					-7.342285155925539e-01 2.499999999765626e-01 0.000000000000000e+00
					-7.499999999671876e-01 0.000000000000000e+00 0.000000000000000e+00
					-4.999999999625000e-01 0.000000000000000e+00 0.000000000000000e+00
					-7.342285155925539e-01 2.499999999765626e-01 0.000000000000000e+00
					-4.371093749654298e-01 2.499999999765626e-01 0.000000000000000e+00
					-4.999999999625000e-01 0.000000000000000e+00 0.000000000000000e+00
					-2.499999999765625e-01 0.000000000000000e+00 0.000000000000000e+00
					-4.371093749654298e-01 2.499999999765626e-01 0.000000000000000e+00
					-1.089355468614502e-01 2.499999999765626e-01 0.000000000000000e+00
					-2.499999999765625e-01 0.000000000000000e+00 0.000000000000000e+00
					0.000000000000000e+00 0.000000000000000e+00 0.000000000000000e+00
					-1.089355468614502e-01 2.499999999765626e-01 0.000000000000000e+00
					2.499999999765626e-01 2.499999999765626e-01 0.000000000000000e+00
					-1.000000000000000e+00 2.499999999765626e-01 0.000000000000000e+00
					-7.342285155925539e-01 2.499999999765626e-01 0.000000000000000e+00
					-1.000000000000000e+00 4.999999999625001e-01 0.000000000000000e+00
					-7.421874999677738e-01 4.999999999625001e-01 0.000000000000000e+00
					-7.342285155925539e-01 2.499999999765626e-01 0.000000000000000e+00
					-4.371093749654298e-01 2.499999999765626e-01 0.000000000000000e+00
					-7.421874999677738e-01 4.999999999625001e-01 0.000000000000000e+00
					-4.374999999671876e-01 4.999999999625001e-01 0.000000000000000e+00
					-4.371093749654298e-01 2.499999999765626e-01 0.000000000000000e+00
					-1.089355468614502e-01 2.499999999765626e-01 0.000000000000000e+00
					-4.374999999671876e-01 4.999999999625001e-01 0.000000000000000e+00
					-3.906249999238282e-02 4.999999999625001e-01 0.000000000000000e+00
					-1.089355468614502e-01 2.499999999765626e-01 0.000000000000000e+00
					2.499999999765626e-01 2.499999999765626e-01 0.000000000000000e+00
					-3.906249999238282e-02 4.999999999625001e-01 0.000000000000000e+00
					4.999999999625001e-01 4.999999999625001e-01 0.000000000000000e+00
					-1.000000000000000e+00 4.999999999625001e-01 0.000000000000000e+00
					-7.421874999677738e-01 4.999999999625001e-01 0.000000000000000e+00
					-1.000000000000000e+00 7.499999999671876e-01 0.000000000000000e+00
					-7.501464843427004e-01 7.499999999671876e-01 0.000000000000000e+00
					-7.421874999677738e-01 4.999999999625001e-01 0.000000000000000e+00
					-4.374999999671876e-01 4.999999999625001e-01 0.000000000000000e+00
					-7.501464843427004e-01 7.499999999671876e-01 0.000000000000000e+00
					-4.378906249666016e-01 7.499999999671876e-01 0.000000000000000e+00
					-4.374999999671876e-01 4.999999999625001e-01 0.000000000000000e+00
					-3.906249999238282e-02 4.999999999625001e-01 0.000000000000000e+00
					-4.378906249666016e-01 7.499999999671876e-01 0.000000000000000e+00
					3.081054688459475e-02 7.499999999671876e-01 0.000000000000000e+00
					-3.906249999238282e-02 4.999999999625001e-01 0.000000000000000e+00
					4.999999999625001e-01 4.999999999625001e-01 0.000000000000000e+00
					3.081054688459475e-02 7.499999999671876e-01 0.000000000000000e+00
					7.499999999671876e-01 7.499999999671876e-01 0.000000000000000e+00
					-1.000000000000000e+00 7.499999999671876e-01 0.000000000000000e+00
					-7.501464843427004e-01 7.499999999671876e-01 0.000000000000000e+00
					-1.000000000000000e+00 1.000000000000000e+00 0.000000000000000e+00
					-7.343749999671876e-01 1.000000000000000e+00 0.000000000000000e+00
					-7.501464843427004e-01 7.499999999671876e-01 0.000000000000000e+00
					-4.378906249666016e-01 7.499999999671876e-01 0.000000000000000e+00
					-7.343749999671876e-01 1.000000000000000e+00 0.000000000000000e+00
					-3.749999999625000e-01 1.000000000000000e+00 0.000000000000000e+00
					-4.378906249666016e-01 7.499999999671876e-01 0.000000000000000e+00
					3.081054688459475e-02 7.499999999671876e-01 0.000000000000000e+00
					-3.749999999625000e-01 1.000000000000000e+00 0.000000000000000e+00
					1.718750000234375e-01 1.000000000000000e+00 0.000000000000000e+00
					3.081054688459475e-02 7.499999999671876e-01 0.000000000000000e+00
					7.499999999671876e-01 7.499999999671876e-01 0.000000000000000e+00
					1.718750000234375e-01 1.000000000000000e+00 0.000000000000000e+00
					1.000000000000000e+00 1.000000000000000e+00 0.000000000000000e+00
				</DataArray>
			</Points>
			<Cells>
				<DataArray Name="connectivity" type="UInt32" format="ascii">
					0 1 3 2 4 5 7 6 8 9 11 10 12 13 15 14 16 17 19 18 20 21 23 22 24 25 27 26 28 29 31 30 32 33 35 34 36 37 39 38 40 41 43 42 44 45 47 46 48 49 51 50 52 53 55 54 56 57 59 58 60 61 63 62 
				</DataArray>
				<DataArray Name="offsets" type="UInt32" format="ascii">
					4 8 12 16 20 24 28 32 36 40 44 48 52 56 60 64 
				</DataArray>
				<DataArray Name="types" type="UInt8" format="ascii">
					9 9 9 9 9 9 9 9 9 9 9 9 9 9 9 9 
				</DataArray>
			</Cells>
			<PointData Vectors="solution ">
				<DataArray Name="solution" type="Float64" NumberOfComponents="1" format="ascii">
					0.000000000000000e+00 0.000000000000000e+00 0.000000000000000e+00 6.336871594981089e-02 0.000000000000000e+00 0.000000000000000e+00 6.336871594981089e-02 7.120590913554702e-02 0.000000000000000e+00 0.000000000000000e+00 7.120590913554702e-02 1.498073955422190e-02 0.000000000000000e+00 0.000000000000000e+00 1.498073955422190e-02 2.812044479215944e-02 0.000000000000000e+00 6.336871594981089e-02 0.000000000000000e+00 1.570618213817698e-01 6.336871594981089e-02 7.120590913554702e-02 1.570618213817698e-01 1.805819059621814e-01 7.120590913554702e-02 1.498073955422190e-02 1.805819059621814e-01 1.556574988064490e-02 1.498073955422190e-02 2.812044479215944e-02 1.556574988064490e-02 1.249803343307120e-01 0.000000000000000e+00 1.570618213817698e-01 0.000000000000000e+00 1.160611964125064e-01 1.570618213817698e-01 1.805819059621814e-01 1.160611964125064e-01 1.372206853909167e-01 1.805819059621814e-01 1.556574988064490e-02 1.372206853909167e-01 5.949706851917736e-03 1.556574988064490e-02 1.249803343307120e-01 5.949706851917736e-03 7.343038144743710e-02 0.000000000000000e+00 1.160611964125064e-01 0.000000000000000e+00 0.000000000000000e+00 1.160611964125064e-01 1.372206853909167e-01 0.000000000000000e+00 0.000000000000000e+00 1.372206853909167e-01 5.949706851917736e-03 0.000000000000000e+00 0.000000000000000e+00 5.949706851917736e-03 7.343038144743710e-02 0.000000000000000e+00 0.000000000000000e+00 
				</DataArray>
			</PointData>
			<CellData>
			</CellData>
		</Piece>
	</UnstructuredGrid>
</VTKFile>