<?xml version="1.0"?>
<VTKFile type="UnstructuredGrid" byte_order="LittleEndian">
	<UnstructuredGrid>
		<Piece NumberOfPoints="256" NumberOfCells="64">
			<Points>
				<DataArray type="Float64" NumberOfComponents="3" format="ascii">
					-1.000000000000000e+00 0.000000000000000e+00 0.000000000000000e+00
					-8.749999999794923e-01 0.000000000000000e+00 0.000000000000000e+00
					-1.000000000000000e+00 1.249999999876953e-01 0.000000000000000e+00
					-8.717277526650634e-01 1.249999999876954e-01 0.000000000000000e+00
					-8.749999999794923e-01 0.000000000000000e+00 0.000000000000000e+00
					-7.499999999671876e-01 0.000000000000000e+00 0.000000000000000e+00
					-8.717277526650634e-01 1.249999999876954e-01 0.000000000000000e+00
					-7.376647948892548e-01 1.249999999876954e-01 0.000000000000000e+00
					-7.499999999671876e-01 0.000000000000000e+00 0.000000000000000e+00
					-6.249999999619140e-01 0.000000000000000e+00 0.000000000000000e+00
					-7.376647948892548e-01 1.249999999876954e-01 0.000000000000000e+00
					-5.989418029410787e-01 1.249999999876954e-01 0.000000000000000e+00
					-6.249999999619140e-01 0.000000000000000e+00 0.000000000000000e+00
					-4.999999999624999e-01 0.000000000000000e+00 0.000000000000000e+00
					-5.989418029410787e-01 1.249999999876954e-01 0.000000000000000e+00
					-4.566894530890381e-01 1.249999999876954e-01 0.000000000000000e+00
					-4.999999999624999e-01 0.000000000000000e+00 0.000000000000000e+00
					-3.749999999677734e-01 0.000000000000000e+00 0.000000000000000e+00
					-4.566894530890381e-01 1.249999999876954e-01 0.000000000000000e+00
					-3.120384216016369e-01 1.249999999876954e-01 0.000000000000000e+00
					-3.749999999677734e-01 0.000000000000000e+00 0.000000000000000e+00
					-2.499999999765625e-01 0.000000000000000e+00 0.000000000000000e+00
					-3.120384216016369e-01 1.249999999876954e-01 0.000000000000000e+00
					-1.661193847473785e-01 1.249999999876953e-01 0.000000000000000e+00
					-2.499999999765625e-01 0.000000000000000e+00 0.000000000000000e+00
					-1.249999999876953e-01 0.000000000000000e+00 0.000000000000000e+00
					-1.661193847473785e-01 1.249999999876953e-01 0.000000000000000e+00
					-2.006301879476659e-02 1.249999999876953e-01 0.000000000000000e+00
					-1.249999999876953e-01 0.000000000000000e+00 0.000000000000000e+00
					0.000000000000000e+00 0.000000000000000e+00 0.000000000000000e+00
					-2.006301879476659e-02 1.249999999876953e-01 0.000000000000000e+00
					1.249999999876953e-01 1.249999999876953e-01 0.000000000000000e+00
					-1.000000000000000e+00 1.249999999876953e-01 0.000000000000000e+00
					-8.717277526650634e-01 1.249999999876954e-01 0.000000000000000e+00
					-1.000000000000000e+00 2.499999999765626e-01 0.000000000000000e+00
					-8.710510253701633e-01 2.499999999765626e-01 0.000000000000000e+00
					-8.717277526650634e-01 1.249999999876954e-01 0.000000000000000e+00
					-7.376647948892548e-01 1.249999999876954e-01 0.000000000000000e+00
					-8.710510253701633e-01 2.499999999765626e-01 0.000000000000000e+00
					-7.342285155925539e-01 2.499999999765626e-01 0.000000000000000e+00
					-7.376647948892548e-01 1.249999999876954e-01 0.000000000000000e+00
					-5.989418029410787e-01 1.249999999876954e-01 0.000000000000000e+00
					-7.342285155925539e-01 2.499999999765626e-01 0.000000000000000e+00
					-5.895690917600251e-01 2.499999999765626e-01 0.000000000000000e+00
					-5.989418029410787e-01 1.249999999876954e-01 0.000000000000000e+00
					-4.566894530890381e-01 1.249999999876954e-01 0.000000000000000e+00
					-5.895690917600251e-01 2.499999999765626e-01 0.000000000000000e+00
					-4.371093749654298e-01 2.499999999765626e-01 0.000000000000000e+00
					-4.566894530890381e-01 1.249999999876954e-01 0.000000000000000e+00
					-3.120384216016369e-01 1.249999999876954e-01 0.000000000000000e+00
					-4.371093749654298e-01 2.499999999765626e-01 0.000000000000000e+00
					-2.768859863016205e-01 2.499999999765626e-01 0.000000000000000e+00
					-3.120384216016369e-01 1.249999999876954e-01 0.000000000000000e+00
					-1.661193847473785e-01 1.249999999876953e-01 0.000000000000000e+00
					-2.768859863016205e-01 2.499999999765626e-01 0.000000000000000e+00
					-1.089355468614502e-01 2.499999999765625e-01 0.000000000000000e+00
					-1.661193847473785e-01 1.249999999876953e-01 0.000000000000000e+00
					-2.006301879476659e-02 1.249999999876953e-01 0.000000000000000e+00
					-1.089355468614502e-01 2.499999999765625e-01 0.000000000000000e+00
					6.670532226222842e-02 2.499999999765625e-01 0.000000000000000e+00
					-2.006301879476659e-02 1.249999999876953e-01 0.000000000000000e+00
					1.249999999876953e-01 1.249999999876953e-01 0.000000000000000e+00
					6.670532226222842e-02 2.499999999765625e-01 0.000000000000000e+00
					2.499999999765626e-01 2.499999999765626e-01 0.000000000000000e+00
					-1.000000000000000e+00 2.499999999765626e-01 0.000000000000000e+00
					-8.710510253701633e-01 2.499999999765626e-01 0.000000000000000e+00
					-1.000000000000000e+00 3.749999999677735e-01 0.000000000000000e+00
					-8.721046447549461e-01 3.749999999677737e-01 0.000000000000000e+00
					-8.710510253701633e-01 2.499999999765626e-01 0.000000000000000e+00
					-7.342285155925539e-01 2.499999999765626e-01 0.000000000000000e+00
					-8.721046447549461e-01 3.749999999677737e-01 0.000000000000000e+00
					-7.367248534833163e-01 3.749999999677737e-01 0.000000000000000e+00
					-7.342285155925539e-01 2.499999999765626e-01 0.000000000000000e+00
					-5.895690917600251e-01 2.499999999765626e-01 0.000000000000000e+00
					-7.367248534833163e-01 3.749999999677737e-01 0.000000000000000e+00
					-5.913200378054105e-01 3.749999999677737e-01 0.000000000000000e+00
					-5.895690917600251e-01 2.499999999765626e-01 0.000000000000000e+00
					-4.371093749654298e-01 2.499999999765626e-01 0.000000000000000e+00
					-5.913200378054105e-01 3.749999999677737e-01 0.000000000000000e+00
					-4.333496093415284e-01 3.749999999677737e-01 0.000000000000000e+00
					-4.371093749654298e-01 2.499999999765626e-01 0.000000000000000e+00
					-2.768859863016205e-01 2.499999999765626e-01 0.000000000000000e+00
					-4.333496093415284e-01 3.749999999677737e-01 0.000000000000000e+00
					-2.602729797119694e-01 3.749999999677737e-01 0.000000000000000e+00
					-2.768859863016205e-01 2.499999999765626e-01 0.000000000000000e+00
					-1.089355468614502e-01 2.499999999765625e-01 0.000000000000000e+00
					-2.602729797119694e-01 3.749999999677737e-01 0.000000000000000e+00
					-6.954956053703309e-02 3.749999999677735e-01 0.000000000000000e+00
					-1.089355468614502e-01 2.499999999765625e-01 0.000000000000000e+00
					6.670532226222842e-02 2.499999999765625e-01 0.000000000000000e+00
					-6.954956053703309e-02 3.749999999677735e-01 0.000000000000000e+00
					1.413612365629811e-01 3.749999999677735e-01 0.000000000000000e+00
					6.670532226222842e-02 2.499999999765625e-01 0.000000000000000e+00
					2.499999999765626e-01 2.499999999765626e-01 0.000000000000000e+00
					1.413612365629811e-01 3.749999999677735e-01 0.000000000000000e+00
					3.749999999677735e-01 3.749999999677735e-01 0.000000000000000e+00
					-1.000000000000000e+00 3.749999999677735e-01 0.000000000000000e+00
					-8.721046447549461e-01 3.749999999677737e-01 0.000000000000000e+00
					-1.000000000000000e+00 4.999999999625001e-01 0.000000000000000e+00
					-8.740234374795657e-01 4.999999999625002e-01 0.000000000000000e+00
					-8.721046447549461e-01 3.749999999677737e-01 0.000000000000000e+00
					-7.367248534833163e-01 3.749999999677737e-01 0.000000000000000e+00
					-8.740234374795657e-01 4.999999999625002e-01 0.000000000000000e+00
					-7.421874999677737e-01 4.999999999625003e-01 0.000000000000000e+00
					-7.367248534833163e-01 3.749999999677737e-01 0.000000000000000e+00
					-5.913200378054105e-01 3.749999999677737e-01 0.000000000000000e+00
					-7.421874999677737e-01 4.999999999625003e-01 0.000000000000000e+00
					-5.986328124638918e-01 4.999999999625002e-01 0.000000000000000e+00
					-5.913200378054105e-01 3.749999999677737e-01 0.000000000000000e+00
					-4.333496093415284e-01 3.749999999677737e-01 0.000000000000000e+00
					-5.986328124638918e-01 4.999999999625002e-01 0.000000000000000e+00
					-4.374999999671877e-01 4.999999999625002e-01 0.000000000000000e+00
					-4.333496093415284e-01 3.749999999677737e-01 0.000000000000000e+00
					-2.602729797119694e-01 3.749999999677737e-01 0.000000000000000e+00
					-4.374999999671877e-01 4.999999999625002e-01 0.000000000000000e+00
					-2.529296874769288e-01 4.999999999625002e-01 0.000000000000000e+00
					-2.602729797119694e-01 3.749999999677737e-01 0.000000000000000e+00
					-6.954956053703309e-02 3.749999999677735e-01 0.000000000000000e+00
					-2.529296874769288e-01 4.999999999625002e-01 0.000000000000000e+00
					-3.906249999238282e-02 4.999999999625001e-01 0.000000000000000e+00
					-6.954956053703309e-02 3.749999999677735e-01 0.000000000000000e+00
					1.413612365629811e-01 3.749999999677735e-01 0.000000000000000e+00
					-3.906249999238282e-02 4.999999999625001e-01 0.000000000000000e+00
					2.099609374871826e-01 4.999999999625001e-01 0.000000000000000e+00
					1.413612365629811e-01 3.749999999677735e-01 0.000000000000000e+00
					3.749999999677735e-01 3.749999999677735e-01 0.000000000000000e+00
					2.099609374871826e-01 4.999999999625001e-01 0.000000000000000e+00
					4.999999999625001e-01 4.999999999625001e-01 0.000000000000000e+00
					-1.000000000000000e+00 4.999999999625001e-01 0.000000000000000e+00
					-8.740234374795657e-01 4.999999999625002e-01 0.000000000000000e+00
					-1.000000000000000e+00 6.249999999619140e-01 0.000000000000000e+00
					-8.759422302041762e-01 6.249999999619144e-01 0.000000000000000e+00
					-8.740234374795657e-01 4.999999999625002e-01 0.000000000000000e+00
					-7.421874999677737e-01 4.999999999625003e-01 0.000000000000000e+00
					-8.759422302041762e-01 6.249999999619144e-01 0.000000000000000e+00
					-7.476501464521579e-01 6.249999999619145e-01 0.000000000000000e+00
					-7.421874999677737e-01 4.999999999625003e-01 0.000000000000000e+00
					-5.986328124638918e-01 4.999999999625002e-01 0.000000000000000e+00
					-7.476501464521579e-01 6.249999999619145e-01 0.000000000000000e+00
					-6.059455871221258e-01 6.249999999619145e-01 0.000000000000000e+00
					-5.986328124638918e-01 4.999999999625002e-01 0.000000000000000e+00
					-4.374999999671877e-01 4.999999999625002e-01 0.000000000000000e+00
					-6.059455871221258e-01 6.249999999619145e-01 0.000000000000000e+00
					-4.416503905922610e-01 6.249999999619142e-01 0.000000000000000e+00
					-4.374999999671877e-01 4.999999999625002e-01 0.000000000000000e+00
					-2.529296874769288e-01 4.999999999625002e-01 0.000000000000000e+00
					-4.416503905922610e-01 6.249999999619142e-01 0.000000000000000e+00
					-2.455863952407437e-01 6.249999999619141e-01 0.000000000000000e+00
					-2.529296874769288e-01 4.999999999625002e-01 0.000000000000000e+00
					-3.906249999238282e-02 4.999999999625001e-01 0.000000000000000e+00
					-2.455863952407437e-01 6.249999999619141e-01 0.000000000000000e+00
					-8.575439445755006e-03 6.249999999619140e-01 0.000000000000000e+00
					-3.906249999238282e-02 4.999999999625001e-01 0.000000000000000e+00
					2.099609374871826e-01 4.999999999625001e-01 0.000000000000000e+00
					-8.575439445755006e-03 6.249999999619140e-01 0.000000000000000e+00
					2.785606384145245e-01 6.249999999619140e-01 0.000000000000000e+00
					2.099609374871826e-01 4.999999999625001e-01 0.000000000000000e+00
					4.999999999625001e-01 4.999999999625001e-01 0.000000000000000e+00
					2.785606384145245e-01 6.249999999619140e-01 0.000000000000000e+00
					6.249999999619140e-01 6.249999999619140e-01 0.000000000000000e+00
					-1.000000000000000e+00 6.249999999619140e-01 0.000000000000000e+00
					-8.759422302041762e-01 6.249999999619144e-01 0.000000000000000e+00
					-1.000000000000000e+00 7.499999999671875e-01 0.000000000000000e+00
					-8.769958495889314e-01 7.499999999671876e-01 0.000000000000000e+00
					-8.759422302041762e-01 6.249999999619144e-01 0.000000000000000e+00
					-7.476501464521579e-01 6.249999999619145e-01 0.000000000000000e+00
					-8.769958495889314e-01 7.499999999671876e-01 0.000000000000000e+00
					-7.501464843427004e-01 7.499999999671877e-01 0.000000000000000e+00
					-7.476501464521579e-01 6.249999999619145e-01 0.000000000000000e+00
					-6.059455871221258e-01 6.249999999619145e-01 0.000000000000000e+00
					-7.501464843427004e-01 7.499999999671877e-01 0.000000000000000e+00
					-6.076965331667695e-01 7.499999999671877e-01 0.000000000000000e+00
					-6.059455871221258e-01 6.249999999619145e-01 0.000000000000000e+00
					-4.416503905922610e-01 6.249999999619142e-01 0.000000000000000e+00
					-6.076965331667695e-01 7.499999999671877e-01 0.000000000000000e+00
					-4.378906249666017e-01 7.499999999671876e-01 0.000000000000000e+00
					-4.416503905922610e-01 6.249999999619142e-01 0.000000000000000e+00
					-2.455863952407437e-01 6.249999999619141e-01 0.000000000000000e+00
					-4.378906249666017e-01 7.499999999671876e-01 0.000000000000000e+00
					-2.289733886476593e-01 7.499999999671876e-01 0.000000000000000e+00
					-2.455863952407437e-01 6.249999999619141e-01 0.000000000000000e+00
					-8.575439445755006e-03 6.249999999619140e-01 0.000000000000000e+00
					-2.289733886476593e-01 7.499999999671876e-01 0.000000000000000e+00
					3.081054688459473e-02 7.499999999671874e-01 0.000000000000000e+00
					-8.575439445755006e-03 6.249999999619140e-01 0.000000000000000e+00
					2.785606384145245e-01 6.249999999619140e-01 0.000000000000000e+00
					3.081054688459473e-02 7.499999999671874e-01 0.000000000000000e+00
					3.532165527246979e-01 7.499999999671874e-01 0.000000000000000e+00
					2.785606384145245e-01 6.249999999619140e-01 0.000000000000000e+00
					6.249999999619140e-01 6.249999999619140e-01 0.000000000000000e+00
					3.532165527246979e-01 7.499999999671874e-01 0.000000000000000e+00
					7.499999999671875e-01 7.499999999671875e-01 0.000000000000000e+00
					-1.000000000000000e+00 7.499999999671875e-01 0.000000000000000e+00
					-8.769958495889314e-01 7.499999999671876e-01 0.000000000000000e+00
					-1.000000000000000e+00 8.749999999794922e-01 0.000000000000000e+00
					-8.763191222939855e-01 8.749999999794923e-01 0.000000000000000e+00
					-8.769958495889314e-01 7.499999999671876e-01 0.000000000000000e+00
					-7.501464843427004e-01 7.499999999671877e-01 0.000000000000000e+00
					-8.763191222939855e-01 8.749999999794923e-01 0.000000000000000e+00
					-7.467102050456330e-01 8.749999999794923e-01 0.000000000000000e+00
					-7.501464843427004e-01 7.499999999671877e-01 0.000000000000000e+00
					-6.076965331667695e-01 7.499999999671877e-01 0.000000000000000e+00
					-7.467102050456330e-01 8.749999999794923e-01 0.000000000000000e+00
					-5.983238219844799e-01 8.749999999794923e-01 0.000000000000000e+00
					-6.076965331667695e-01 7.499999999671877e-01 0.000000000000000e+00
					-4.378906249666017e-01 7.499999999671876e-01 0.000000000000000e+00
					-5.983238219844799e-01 8.749999999794923e-01 0.000000000000000e+00
					-4.183105468400635e-01 8.749999999794922e-01 0.000000000000000e+00
					-4.378906249666017e-01 7.499999999671876e-01 0.000000000000000e+00
					-2.289733886476593e-01 7.499999999671876e-01 0.000000000000000e+00
					-4.183105468400635e-01 8.749999999794922e-01 0.000000000000000e+00
					-1.938209533419208e-01 8.749999999794922e-01 0.000000000000000e+00
					-2.289733886476593e-01 7.499999999671876e-01 0.000000000000000e+00
					3.081054688459473e-02 7.499999999671874e-01 0.000000000000000e+00
					-1.938209533419208e-01 8.749999999794922e-01 0.000000000000000e+00
					8.799438478041079e-02 8.749999999794922e-01 0.000000000000000e+00
					3.081054688459473e-02 7.499999999671874e-01 0.000000000000000e+00
					3.532165527246979e-01 7.499999999671874e-01 0.000000000000000e+00
					8.799438478041079e-02 8.749999999794922e-01 0.000000000000000e+00
					4.399848937973941e-01 8.749999999794922e-01 0.000000000000000e+00
					3.532165527246979e-01 7.499999999671874e-01 0.000000000000000e+00
					7.499999999671875e-01 7.499999999671875e-01 0.000000000000000e+00
					4.399848937973941e-01 8.749999999794922e-01 0.000000000000000e+00
					8.749999999794922e-01 8.749999999794922e-01 0.000000000000000e+00
					-1.000000000000000e+00 8.749999999794922e-01 0.000000000000000e+00
					-8.763191222939855e-01 8.749999999794923e-01 0.000000000000000e+00
					-1.000000000000000e+00 1.000000000000000e+00 0.000000000000000e+00
					-8.730468749794923e-01 1.000000000000000e+00 0.000000000000000e+00
					-8.763191222939855e-01 8.749999999794923e-01 0.000000000000000e+00
					-7.467102050456330e-01 8.749999999794923e-01 0.000000000000000e+00
					-8.730468749794923e-01 1.000000000000000e+00 0.000000000000000e+00
					-7.343749999671876e-01 1.000000000000000e+00 0.000000000000000e+00
					-7.467102050456330e-01 8.749999999794923e-01 0.000000000000000e+00
					-5.983238219844799e-01 8.749999999794923e-01 0.000000000000000e+00
					-7.343749999671876e-01 1.000000000000000e+00 0.000000000000000e+00
					-5.722656249619140e-01 1.000000000000000e+00 0.000000000000000e+00
					-5.983238219844799e-01 8.749999999794923e-01 0.000000000000000e+00
					-4.183105468400635e-01 8.749999999794922e-01 0.000000000000000e+00
					-5.722656249619140e-01 1.000000000000000e+00 0.000000000000000e+00
					-3.749999999625000e-01 1.000000000000000e+00 0.000000000000000e+00
					-4.183105468400635e-01 8.749999999794922e-01 0.000000000000000e+00
					-1.938209533419208e-01 8.749999999794922e-01 0.000000000000000e+00
					-3.749999999625000e-01 1.000000000000000e+00 0.000000000000000e+00
					-1.308593749677734e-01 1.000000000000000e+00 0.000000000000000e+00
					-1.938209533419208e-01 8.749999999794922e-01 0.000000000000000e+00
					8.799438478041079e-02 8.749999999794922e-01 0.000000000000000e+00
					-1.308593749677734e-01 1.000000000000000e+00 0.000000000000000e+00
					1.718750000234375e-01 1.000000000000000e+00 0.000000000000000e+00
					8.799438478041079e-02 8.749999999794922e-01 0.000000000000000e+00
					4.399848937973941e-01 8.749999999794922e-01 0.000000000000000e+00
					1.718750000234375e-01 1.000000000000000e+00 0.000000000000000e+00
					5.449218750123046e-01 1.000000000000000e+00 0.000000000000000e+00
					4.399848937973941e-01 8.749999999794922e-01 0.000000000000000e+00
					8.749999999794922e-01 8.749999999794922e-01 0.000000000000000e+00
					5.449218750123046e-01 1.000000000000000e+00 0.000000000000000e+00
					1.000000000000000e+00 1.000000000000000e+00 0.000000000000000e+00
				</DataArray>
			</Points>
			<Cells>
				<DataArray Name="connectivity" type="UInt32" format="ascii">
					0 1 3 2 4 5 7 6 8 9 11 10 12 13 15 14 16 17 19 18 20 21 23 22 24 25 27 26 28 29 31 30 32 33 35 34 36 37 39 38 40 41 43 42 44 45 47 46 48 49 51 50 52 53 55 54 56 57 59 58 60 61 63 62 64 65 67 66 68 69 71 70 72 73 75 74 76 77 79 78 80 81 83 82 84 85 87 86 88 89 91 90 92 93 95 94 96 97 99 98 100 101 103 102 104 105 107 106 108 109 111 110 112 113 115 114 116 117 119 118 120 121 123 122 124 125 127 126 128 129 131 130 132 133 135 134 136 137 139 138 140 141 143 142 144 145 147 146 148 149 151 150 152 153 155 154 156 157 159 158 160 161 163 162 164 165 167 166 168 169 171 170 172 173 175 174 176 177 179 178 180 181 183 182 184 185 187 186 188 189 191 190 192 193 195 194 196 197 199 198 200 201 203 202 204 205 207 206 208 209 211 210 212 213 215 214 216 217 219 218 220 221 223 222 224 225 227 226 228 229 231 230 232 233 235 234 236 237 239 238 240 241 243 242 244 245 247 246 248 249 251 250 252 253 255 254 
				</DataArray>
				<DataArray Name="offsets" type="UInt32" format="ascii">
					4 8 12 16 20 24 28 32 36 40 44 48 52 56 60 64 68 72 76 80 84 88 92 96 100 104 108 112 116 120 124 128 132 136 140 144 148 152 156 160 164 168 172 176 180 184 188 192 196 200 204 208 212 216 220 224 228 232 236 240 244 248 252 256 
				</DataArray>
				<DataArray Name="types" type="UInt8" format="ascii">
					9 9 9 9 9 9 9 9 9 9 9 9 9 9 9 9 9 9 9 9 9 9 9 9 9 9 9 9 9 9 9 9 9 9 9 9 9 9 9 9 9 9 9 9 9 9 9 9 9 9 9 9 9 9 9 9 9 9 9 9 9 9 9 9 
				</DataArray>
			</Cells>
			<PointData Vectors="solution ">
				<DataArray Name="solution" type="Float64" NumberOfComponents="1" format="ascii">
					0.000000000000000e+00 0.000000000000000e+00 0.000000000000000e+00 6.632002603773015e-03 0.000000000000000e+00 0.000000000000000e+00 6.632002603773015e-03 1.711915437036961e-02 0.000000000000000e+00 0.000000000000000e+00 1.711915437036961e-02 2.233317304481253e-02 0.000000000000000e+00 0.000000000000000e+00 2.233317304481253e-02 1.977502435141928e-02 0.000000000000000e+00 0.000000000000000e+00 1.977502435141928e-02 1.200036347444336e-02 0.000000000000000e+00 0.000000000000000e+00 1.200036347444336e-02 3.921521936631660e-03 0.000000000000000e+00 0.000000000000000e+00 3.921521936631660e-03 2.157694176713982e-05 0.000000000000000e+00 0.000000000000000e+00 2.157694176713982e-05 2.936861080715556e-03 0.000000000000000e+00 6.632002603773015e-03 0.000000000000000e+00 2.426118871893517e-02 6.632002603773015e-03 1.711915437036961e-02 2.426118871893517e-02 6.290708483577703e-02 1.711915437036961e-02 2.233317304481253e-02 6.290708483577703e-02 8.126507699901760e-02 2.233317304481253e-02 1.977502435141928e-02 8.126507699901760e-02 6.867254919777573e-02 1.977502435141928e-02 1.200036347444336e-02 6.867254919777573e-02 3.589923957267598e-02 1.200036347444336e-02 3.921521936631660e-03 3.589923957267598e-02 6.411012633992384e-03 3.921521936631660e-03 2.157694176713982e-05 6.411012633992384e-03 2.893194491637645e-03 2.157694176713982e-05 2.936861080715556e-03 2.893194491637645e-03 3.111029521139067e-02 0.000000000000000e+00 2.426118871893517e-02 0.000000000000000e+00 4.528223264239044e-02 2.426118871893517e-02 6.290708483577703e-02 4.528223264239044e-02 1.178444827226480e-01 6.290708483577703e-02 8.126507699901760e-02 1.178444827226480e-01 1.535826116777376e-01 8.126507699901760e-02 6.867254919777573e-02 1.535826116777376e-01 1.286590650194137e-01 6.867254919777573e-02 3.589923957267598e-02 1.286590650194137e-01 6.117917364104051e-02 3.589923957267598e-02 6.411012633992384e-03 6.117917364104051e-02 5.179728597109487e-03 6.411012633992384e-03 2.893194491637645e-03 5.179728597109487e-03 2.053364167561196e-02 2.893194491637645e-03 3.111029521139067e-02 2.053364167561196e-02 1.078753275784349e-01 0.000000000000000e+00 4.528223264239044e-02 0.000000000000000e+00 5.987199782336503e-02 4.528223264239044e-02 1.178444827226480e-01 5.987199782336503e-02 1.562701984986405e-01 1.178444827226480e-01 1.535826116777376e-01 1.562701984986405e-01 2.074718552344211e-01 1.535826116777376e-01 1.286590650194137e-01 2.074718552344211e-01 1.759963726330418e-01 1.286590650194137e-01 6.117917364104051e-02 1.759963726330418e-01 7.888195654444256e-02 6.117917364104051e-02 5.179728597109487e-03 7.888195654444256e-02 2.365352548224898e-03 5.179728597109487e-03 2.053364167561196e-02 2.365352548224898e-03 5.684952335344867e-02 2.053364167561196e-02 1.078753275784349e-01 5.684952335344867e-02 1.978048319594132e-01 0.000000000000000e+00 5.987199782336503e-02 0.000000000000000e+00 6.027582177977580e-02 5.987199782336503e-02 1.562701984986405e-01 6.027582177977580e-02 1.576981828193441e-01 1.562701984986405e-01 2.074718552344211e-01 1.576981828193441e-01 2.132876271043891e-01 2.074718552344211e-01 1.759963726330418e-01 2.132876271043891e-01 1.833357438951549e-01 1.759963726330418e-01 7.888195654444256e-02 1.833357438951549e-01 7.730705107934301e-02 7.888195654444256e-02 2.365352548224898e-03 7.730705107934301e-02 2.397206943448354e-04 2.365352548224898e-03 5.684952335344867e-02 2.397206943448354e-04 9.567793587114763e-02 5.684952335344867e-02 1.978048319594132e-01 9.567793587114763e-02 2.084575445536203e-01 0.000000000000000e+00 6.027582177977580e-02 0.000000000000000e+00 4.413760192003825e-02 6.027582177977580e-02 1.576981828193441e-01 4.413760192003825e-02 1.158432545720363e-01 1.576981828193441e-01 2.132876271043891e-01 1.158432545720363e-01 1.581602308300560e-01 2.132876271043891e-01 1.833357438951549e-01 1.581602308300560e-01 1.348773702343727e-01 1.833357438951549e-01 7.730705107934301e-02 1.348773702343727e-01 5.073064086811216e-02 7.730705107934301e-02 2.397206943448354e-04 5.073064086811216e-02 1.132906885097630e-03 2.397206943448354e-04 9.567793587114763e-02 1.132906885097630e-03 1.030953643627206e-01 9.567793587114763e-02 2.084575445536203e-01 1.030953643627206e-01 1.146557023122291e-01 0.000000000000000e+00 4.413760192003825e-02 0.000000000000000e+00 1.739206778835194e-02 4.413760192003825e-02 1.158432545720363e-01 1.739206778835194e-02 4.589757279856542e-02 1.158432545720363e-01 1.581602308300560e-01 4.589757279856542e-02 6.205536473148762e-02 1.581602308300560e-01 1.348773702343727e-01 6.205536473148762e-02 5.009324704527916e-02 1.348773702343727e-01 5.073064086811216e-02 5.009324704527916e-02 1.463221936012176e-02 5.073064086811216e-02 1.132906885097630e-03 1.463221936012176e-02 3.191017028551163e-03 1.132906885097630e-03 1.030953643627206e-01 3.191017028551163e-03 5.292714243034083e-02 1.030953643627206e-01 1.146557023122291e-01 5.292714243034083e-02 2.072612348440002e-02 0.000000000000000e+00 1.739206778835194e-02 0.000000000000000e+00 0.000000000000000e+00 1.739206778835194e-02 4.589757279856542e-02 0.000000000000000e+00 0.000000000000000e+00 4.589757279856542e-02 6.205536473148762e-02 0.000000000000000e+00 0.000000000000000e+00 6.205536473148762e-02 5.009324704527916e-02 0.000000000000000e+00 0.000000000000000e+00 5.009324704527916e-02 1.463221936012176e-02 0.000000000000000e+00 0.000000000000000e+00 1.463221936012176e-02 3.191017028551163e-03 0.000000000000000e+00 0.000000000000000e+00 3.191017028551163e-03 5.292714243034083e-02 0.000000000000000e+00 0.000000000000000e+00 5.292714243034083e-02 2.072612348440002e-02 0.000000000000000e+00 0.000000000000000e+00 
				</DataArray>
			</PointData>
			<CellData>
			</CellData>
		</Piece>
	</UnstructuredGrid>
</VTKFile>