\relax 
\citation{kiendl-bletzinger-linhard-09}
\citation{benson2011large}
\citation{da2012isogeometric}
\citation{gomez2008isogeometric}
\citation{gomez2010isogeometric}
\@writefile{toc}{\contentsline {section}{\numberline {1}$C^1$ continuity for 4$^{th}$ order differential problems}{1}}
\@writefile{toc}{\contentsline {subsection}{\numberline {1.1}Introduction}{1}}
\@writefile{toc}{\contentsline {subsection}{\numberline {1.2}Biharmonic equations (toy model)}{1}}
\newlabel{eq:biharmonicPb}{{1}{1}}
\newlabel{eq:biharmonicPbVarForm}{{2}{1}}
\citation{collin2015approximation}
\@writefile{toc}{\contentsline {subsection}{\numberline {1.3}ASG1 definition}{2}}
\newlabel{def:AS-G1}{{1}{2}}
\@writefile{toc}{\contentsline {section}{\numberline {2}$C^1$ strong}{2}}
\@writefile{toc}{\contentsline {subsection}{\numberline {2.1}Introduction}{2}}
\@writefile{toc}{\contentsline {subsection}{\numberline {2.2}Numerical implementation of $C^1$ continuity}{2}}
\newlabel{eq:nullspace}{{3}{2}}
\newlabel{systemBCContDer}{{4}{2}}
\citation{collin2015approximation}
\@writefile{lof}{\contentsline {figure}{\numberline {1}{\ignorespaces Control points of the ASG1 geometry}}{3}}
\newlabel{fig:ASG1CP}{{1}{3}}
\@writefile{toc}{\contentsline {subsection}{\numberline {2.3}Numerical results}{3}}
\@writefile{toc}{\contentsline {subsubsection}{\numberline {2.3.1}An ASG1 geometry}{3}}
\@writefile{toc}{\contentsline {subsubsection}{\numberline {2.3.2}A first non ASG1 geometry (nASG1-0.01)}{3}}
\@writefile{lof}{\contentsline {figure}{\numberline {2}{\ignorespaces Five-patch ASG1 geometry (left), one solution affected by $C^1$ locking for p = 3, r = 2, as well as a correct numerical solution for p = 3, r = 1 (right). The contour lines for $w = 6$ are plotted for $r = 1$ and $2$ on the correct numerical simulation (right) in order to see the locking along the interfaces.}}{4}}
\newlabel{fig:ASG1Sol}{{2}{4}}
\@writefile{lof}{\contentsline {figure}{\numberline {3}{\ignorespaces Convergence results for the five-patch ASG1 geometry.}}{4}}
\newlabel{fig:ASG1Cv}{{3}{4}}
\@writefile{lof}{\contentsline {figure}{\numberline {4}{\ignorespaces Control points of \emph  {ASG1} and \emph  {nASG1+0.01} geometries}}{5}}
\newlabel{fig:nASG1CP-0.01}{{4}{5}}
\@writefile{lof}{\contentsline {figure}{\numberline {5}{\ignorespaces Convergence results for the ASG1 and the nASG1+0.01 geometries.}}{5}}
\newlabel{fig:ASG1nASG1+0.01Cv}{{5}{5}}
\@writefile{lof}{\contentsline {figure}{\numberline {6}{\ignorespaces Eigenvalues for the ASG1 and the nASG1+0.01 geometries.}}{6}}
\newlabel{fig:ASG1nASG1+0.01EV}{{6}{6}}
\@writefile{lof}{\contentsline {figure}{\numberline {7}{\ignorespaces Convergence results for the nASG1+0.01 geometry with $ld= 10^{-11}$ (left) and $ld= 10^{-12}$ (right).}}{6}}
\newlabel{fig:nASG1+0.01LB}{{7}{6}}
\@writefile{lof}{\contentsline {figure}{\numberline {8}{\ignorespaces Control points of \emph  {ASG1} and \emph  {nASG1+$10^k$} geometries for $k\nobreakspace  {}\in \nobreakspace  {}\{-3, \cdots  , 0\}$}}{7}}
\newlabel{fig:nASG1CPandASG1}{{8}{7}}
\@writefile{toc}{\contentsline {subsubsection}{\numberline {2.3.3}Sensitivity of the geometry}{7}}
\@writefile{lof}{\contentsline {figure}{\numberline {9}{\ignorespaces Convergence results for ASG1 and \emph  {nASG1+$10^k$} geometries for $k\nobreakspace  {}\in \nobreakspace  {}\{-5, \cdots  , 0\}$ (left). $L^2$ error norms for $p = 3$, $r = 1$ and for the last refinement $8\times 8$ (right).}}{8}}
\newlabel{fig:ASG1nASG1CvsensivityGeom}{{9}{8}}
\@writefile{lof}{\contentsline {figure}{\numberline {10}{\ignorespaces Eigenvalues for ASG1 and \emph  {nASG1+$10^k$} geometries for $k\nobreakspace  {}\in \nobreakspace  {}\{-5, \cdots  , 0\}$}}{8}}
\newlabel{fig:ASG1nASG1EV}{{10}{8}}
\@writefile{lof}{\contentsline {figure}{\numberline {11}{\ignorespaces Convergence results for ASG1, \emph  {nASG1+0.01} and \emph  {nASG1+0.01ns}.}}{9}}
\newlabel{fig:ASG1nASG1CvNS}{{11}{9}}
\@writefile{toc}{\contentsline {subsubsection}{\numberline {2.3.4}And non symmetric ASG1 geometries ?}{9}}
\@writefile{toc}{\contentsline {section}{\numberline {3}$C^1$ weak}{9}}
\@writefile{toc}{\contentsline {subsection}{\numberline {3.1}Penalty and Nitsche's methods}{9}}
\newlabel{eq:jump}{{5}{10}}
\newlabel{eq:gradjump}{{6}{10}}
\newlabel{eq:NEq}{{7}{10}}
\newlabel{eq:PenEq}{{8}{10}}
\@writefile{toc}{\contentsline {subsection}{\numberline {3.2}Numerical results}{10}}
\@writefile{lof}{\contentsline {figure}{\numberline {12}{\ignorespaces Convergence results for the ASG1 (left) and nASG1+0.01 (right) geometries. Three methods are compared: $C^1$ strong (green), $C^1$ weak with the Penalty ones (red) and the Nitsche's ones (blue).}}{11}}
\newlabel{fig:C1strongC1weak}{{12}{11}}
\@writefile{lof}{\contentsline {figure}{\numberline {13}{\ignorespaces Convergence results for the ASG1 (left) and nASG1+0.01 (right) geometries. The convergence of penalty and Nitsche's methods are plotted for degree = 3 and regularity = 1.}}{11}}
\newlabel{fig:CC1weakAlphaDeg3R1}{{13}{11}}
\@writefile{lof}{\contentsline {figure}{\numberline {14}{\ignorespaces Convergence results for ASG1 (left) and nASG1+0.01 (right) geometries. The convergence of penalty and Nitsche's methods are plotted for degree = 3 and regularity = 2.}}{12}}
\newlabel{fig:CC1weakAlphaDeg3R2}{{14}{12}}
\@writefile{lof}{\contentsline {figure}{\numberline {15}{\ignorespaces $L^2$-norm for the refinement $8 \times 8$ versus the values of $\alpha \leq 10^5$ for ASG1 (left) and nASG1+0.01 (right) geometries for $p = 3$ for the Penalty and the Nitsche's methods.}}{12}}
\newlabel{fig:CC1weakSmallAlphaDeg3R12Ref3}{{15}{12}}
\bibstyle{plain}
\bibdata{biblio}
\bibcite{da2012isogeometric}{1}
\@writefile{lof}{\contentsline {figure}{\numberline {16}{\ignorespaces Control points of L-shaped geometries}}{13}}
\newlabel{fig:LshapeCPs}{{16}{13}}
\@writefile{toc}{\contentsline {subsection}{\numberline {3.3}Sensitivity of the geometry with the L-shape geometry with the penalty method}{13}}
\bibcite{benson2011large}{2}
\bibcite{collin2015approximation}{3}
\bibcite{gomez2008isogeometric}{4}
\bibcite{gomez2010isogeometric}{5}
\@writefile{lof}{\contentsline {figure}{\numberline {17}{\ignorespaces $p = 4$, $r = 2$ and $16\times 16$ refinement. Convergence results for L-shape geometries: versus the penalty constant $\alpha =10^\beta $ for $\beta \in \{ 5, \cdots  , 10 \}$ (left) and versus the distance between the control points (right).}}{14}}
\newlabel{fig:LshapeCvRes}{{17}{14}}
\bibcite{kiendl-bletzinger-linhard-09}{6}
