<?xml version="1.0"?>
<VTKFile type="UnstructuredGrid" byte_order="LittleEndian">
	<UnstructuredGrid>
		<Piece NumberOfPoints="256" NumberOfCells="64">
			<Points>
				<DataArray type="Float64" NumberOfComponents="3" format="ascii">
					-5.000000000000000e-01 -5.000000000000000e-01 0.000000000000000e+00
					-3.750000000000000e-01 -5.000000000000000e-01 0.000000000000000e+00
					-5.000000000000000e-01 -3.750000000000000e-01 0.000000000000000e+00
					-3.750000000000000e-01 -3.750000000000000e-01 0.000000000000000e+00
					-3.750000000000000e-01 -5.000000000000000e-01 0.000000000000000e+00
					-2.500000000000000e-01 -5.000000000000000e-01 0.000000000000000e+00
					-3.750000000000000e-01 -3.750000000000000e-01 0.000000000000000e+00
					-2.500000000000000e-01 -3.750000000000000e-01 0.000000000000000e+00
					-2.500000000000000e-01 -5.000000000000000e-01 0.000000000000000e+00
					-1.250000000000000e-01 -5.000000000000000e-01 0.000000000000000e+00
					-2.500000000000000e-01 -3.750000000000000e-01 0.000000000000000e+00
					-1.250000000000000e-01 -3.750000000000000e-01 0.000000000000000e+00
					-1.250000000000000e-01 -5.000000000000000e-01 0.000000000000000e+00
					3.469446951953614e-17 -5.000000000000000e-01 0.000000000000000e+00
					-1.250000000000000e-01 -3.750000000000000e-01 0.000000000000000e+00
					3.469446951953615e-17 -3.750000000000000e-01 0.000000000000000e+00
					3.469446951953614e-17 -5.000000000000000e-01 0.000000000000000e+00
					1.250000000000001e-01 -5.000000000000000e-01 0.000000000000000e+00
					3.469446951953615e-17 -3.750000000000000e-01 0.000000000000000e+00
					1.250000000000001e-01 -3.750000000000000e-01 0.000000000000000e+00
					1.250000000000001e-01 -5.000000000000000e-01 0.000000000000000e+00
					2.500000000000001e-01 -5.000000000000000e-01 0.000000000000000e+00
					1.250000000000001e-01 -3.750000000000000e-01 0.000000000000000e+00
					2.500000000000001e-01 -3.750000000000000e-01 0.000000000000000e+00
					2.500000000000001e-01 -5.000000000000000e-01 0.000000000000000e+00
					3.750000000000000e-01 -5.000000000000000e-01 0.000000000000000e+00
					2.500000000000001e-01 -3.750000000000000e-01 0.000000000000000e+00
					3.750000000000000e-01 -3.750000000000000e-01 0.000000000000000e+00
					3.750000000000000e-01 -5.000000000000000e-01 0.000000000000000e+00
					5.000000000000000e-01 -5.000000000000000e-01 0.000000000000000e+00
					3.750000000000000e-01 -3.750000000000000e-01 0.000000000000000e+00
					5.000000000000000e-01 -3.750000000000000e-01 0.000000000000000e+00
					-5.000000000000000e-01 -3.750000000000000e-01 0.000000000000000e+00
					-3.750000000000000e-01 -3.750000000000000e-01 0.000000000000000e+00
					-5.000000000000000e-01 -2.500000000000000e-01 0.000000000000000e+00
					-3.750000000000001e-01 -2.500000000000000e-01 0.000000000000000e+00
					-3.750000000000000e-01 -3.750000000000000e-01 0.000000000000000e+00
					-2.500000000000000e-01 -3.750000000000000e-01 0.000000000000000e+00
					-3.750000000000001e-01 -2.500000000000000e-01 0.000000000000000e+00
					-2.500000000000000e-01 -2.500000000000000e-01 0.000000000000000e+00
					-2.500000000000000e-01 -3.750000000000000e-01 0.000000000000000e+00
					-1.250000000000000e-01 -3.750000000000000e-01 0.000000000000000e+00
					-2.500000000000000e-01 -2.500000000000000e-01 0.000000000000000e+00
					-1.250000000000000e-01 -2.500000000000000e-01 0.000000000000000e+00
					-1.250000000000000e-01 -3.750000000000000e-01 0.000000000000000e+00
					3.469446951953615e-17 -3.750000000000000e-01 0.000000000000000e+00
					-1.250000000000000e-01 -2.500000000000000e-01 0.000000000000000e+00
					3.469446951953615e-17 -2.500000000000000e-01 0.000000000000000e+00
					3.469446951953615e-17 -3.750000000000000e-01 0.000000000000000e+00
					1.250000000000001e-01 -3.750000000000000e-01 0.000000000000000e+00
					3.469446951953615e-17 -2.500000000000000e-01 0.000000000000000e+00
					1.250000000000001e-01 -2.500000000000000e-01 0.000000000000000e+00
					1.250000000000001e-01 -3.750000000000000e-01 0.000000000000000e+00
					2.500000000000001e-01 -3.750000000000000e-01 0.000000000000000e+00
					1.250000000000001e-01 -2.500000000000000e-01 0.000000000000000e+00
					2.500000000000001e-01 -2.500000000000000e-01 0.000000000000000e+00
					2.500000000000001e-01 -3.750000000000000e-01 0.000000000000000e+00
					3.750000000000000e-01 -3.750000000000000e-01 0.000000000000000e+00
					2.500000000000001e-01 -2.500000000000000e-01 0.000000000000000e+00
					3.750000000000001e-01 -2.500000000000000e-01 0.000000000000000e+00
					3.750000000000000e-01 -3.750000000000000e-01 0.000000000000000e+00
					5.000000000000000e-01 -3.750000000000000e-01 0.000000000000000e+00
					3.750000000000001e-01 -2.500000000000000e-01 0.000000000000000e+00
					5.000000000000000e-01 -2.500000000000000e-01 0.000000000000000e+00
					-5.000000000000000e-01 -2.500000000000000e-01 0.000000000000000e+00
					-3.750000000000001e-01 -2.500000000000000e-01 0.000000000000000e+00
					-5.000000000000000e-01 -1.250000000000000e-01 0.000000000000000e+00
					-3.750000000000001e-01 -1.250000000000000e-01 0.000000000000000e+00
					-3.750000000000001e-01 -2.500000000000000e-01 0.000000000000000e+00
					-2.500000000000000e-01 -2.500000000000000e-01 0.000000000000000e+00
					-3.750000000000001e-01 -1.250000000000000e-01 0.000000000000000e+00
					-2.500000000000000e-01 -1.250000000000000e-01 0.000000000000000e+00
					-2.500000000000000e-01 -2.500000000000000e-01 0.000000000000000e+00
					-1.250000000000000e-01 -2.500000000000000e-01 0.000000000000000e+00
					-2.500000000000000e-01 -1.250000000000000e-01 0.000000000000000e+00
					-1.250000000000000e-01 -1.250000000000000e-01 0.000000000000000e+00
					-1.250000000000000e-01 -2.500000000000000e-01 0.000000000000000e+00
					3.469446951953615e-17 -2.500000000000000e-01 0.000000000000000e+00
					-1.250000000000000e-01 -1.250000000000000e-01 0.000000000000000e+00
					3.469446951953615e-17 -1.250000000000000e-01 0.000000000000000e+00
					3.469446951953615e-17 -2.500000000000000e-01 0.000000000000000e+00
					1.250000000000001e-01 -2.500000000000000e-01 0.000000000000000e+00
					3.469446951953615e-17 -1.250000000000000e-01 0.000000000000000e+00
					1.250000000000001e-01 -1.250000000000000e-01 0.000000000000000e+00
					1.250000000000001e-01 -2.500000000000000e-01 0.000000000000000e+00
					2.500000000000001e-01 -2.500000000000000e-01 0.000000000000000e+00
					1.250000000000001e-01 -1.250000000000000e-01 0.000000000000000e+00
					2.500000000000001e-01 -1.250000000000000e-01 0.000000000000000e+00
					2.500000000000001e-01 -2.500000000000000e-01 0.000000000000000e+00
					3.750000000000001e-01 -2.500000000000000e-01 0.000000000000000e+00
					2.500000000000001e-01 -1.250000000000000e-01 0.000000000000000e+00
					3.750000000000001e-01 -1.250000000000000e-01 0.000000000000000e+00
					3.750000000000001e-01 -2.500000000000000e-01 0.000000000000000e+00
					5.000000000000000e-01 -2.500000000000000e-01 0.000000000000000e+00
					3.750000000000001e-01 -1.250000000000000e-01 0.000000000000000e+00
					5.000000000000000e-01 -1.250000000000000e-01 0.000000000000000e+00
					-5.000000000000000e-01 -1.250000000000000e-01 0.000000000000000e+00
					-3.750000000000001e-01 -1.250000000000000e-01 0.000000000000000e+00
					-5.000000000000000e-01 3.469446951953614e-17 0.000000000000000e+00
					-3.750000000000001e-01 3.469446951953614e-17 0.000000000000000e+00
					-3.750000000000001e-01 -1.250000000000000e-01 0.000000000000000e+00
					-2.500000000000000e-01 -1.250000000000000e-01 0.000000000000000e+00
					-3.750000000000001e-01 3.469446951953614e-17 0.000000000000000e+00
					-2.500000000000000e-01 3.469446951953614e-17 0.000000000000000e+00
					-2.500000000000000e-01 -1.250000000000000e-01 0.000000000000000e+00
					-1.250000000000000e-01 -1.250000000000000e-01 0.000000000000000e+00
					-2.500000000000000e-01 3.469446951953614e-17 0.000000000000000e+00
					-1.250000000000000e-01 3.469446951953614e-17 0.000000000000000e+00
					-1.250000000000000e-01 -1.250000000000000e-01 0.000000000000000e+00
					3.469446951953615e-17 -1.250000000000000e-01 0.000000000000000e+00
					-1.250000000000000e-01 3.469446951953614e-17 0.000000000000000e+00
					3.469446951953615e-17 3.469446951953614e-17 0.000000000000000e+00
					3.469446951953615e-17 -1.250000000000000e-01 0.000000000000000e+00
					1.250000000000001e-01 -1.250000000000000e-01 0.000000000000000e+00
					3.469446951953615e-17 3.469446951953614e-17 0.000000000000000e+00
					1.250000000000001e-01 3.469446951953614e-17 0.000000000000000e+00
					1.250000000000001e-01 -1.250000000000000e-01 0.000000000000000e+00
					2.500000000000001e-01 -1.250000000000000e-01 0.000000000000000e+00
					1.250000000000001e-01 3.469446951953614e-17 0.000000000000000e+00
					2.500000000000001e-01 3.469446951953614e-17 0.000000000000000e+00
					2.500000000000001e-01 -1.250000000000000e-01 0.000000000000000e+00
					3.750000000000001e-01 -1.250000000000000e-01 0.000000000000000e+00
					2.500000000000001e-01 3.469446951953614e-17 0.000000000000000e+00
					3.750000000000001e-01 3.469446951953614e-17 0.000000000000000e+00
					3.750000000000001e-01 -1.250000000000000e-01 0.000000000000000e+00
					5.000000000000000e-01 -1.250000000000000e-01 0.000000000000000e+00
					3.750000000000001e-01 3.469446951953614e-17 0.000000000000000e+00
					5.000000000000000e-01 3.469446951953614e-17 0.000000000000000e+00
					-5.000000000000000e-01 3.469446951953614e-17 0.000000000000000e+00
					-3.750000000000001e-01 3.469446951953614e-17 0.000000000000000e+00
					-5.000000000000000e-01 1.250000000000001e-01 0.000000000000000e+00
					-3.750000000000000e-01 1.250000000000001e-01 0.000000000000000e+00
					-3.750000000000001e-01 3.469446951953614e-17 0.000000000000000e+00
					-2.500000000000000e-01 3.469446951953614e-17 0.000000000000000e+00
					-3.750000000000000e-01 1.250000000000001e-01 0.000000000000000e+00
					-2.500000000000000e-01 1.250000000000001e-01 0.000000000000000e+00
					-2.500000000000000e-01 3.469446951953614e-17 0.000000000000000e+00
					-1.250000000000000e-01 3.469446951953614e-17 0.000000000000000e+00
					-2.500000000000000e-01 1.250000000000001e-01 0.000000000000000e+00
					-1.250000000000000e-01 1.250000000000001e-01 0.000000000000000e+00
					-1.250000000000000e-01 3.469446951953614e-17 0.000000000000000e+00
					3.469446951953615e-17 3.469446951953614e-17 0.000000000000000e+00
					-1.250000000000000e-01 1.250000000000001e-01 0.000000000000000e+00
					3.469446951953615e-17 1.250000000000001e-01 0.000000000000000e+00
					3.469446951953615e-17 3.469446951953614e-17 0.000000000000000e+00
					1.250000000000001e-01 3.469446951953614e-17 0.000000000000000e+00
					3.469446951953615e-17 1.250000000000001e-01 0.000000000000000e+00
					1.250000000000001e-01 1.250000000000001e-01 0.000000000000000e+00
					1.250000000000001e-01 3.469446951953614e-17 0.000000000000000e+00
					2.500000000000001e-01 3.469446951953614e-17 0.000000000000000e+00
					1.250000000000001e-01 1.250000000000001e-01 0.000000000000000e+00
					2.500000000000001e-01 1.250000000000001e-01 0.000000000000000e+00
					2.500000000000001e-01 3.469446951953614e-17 0.000000000000000e+00
					3.750000000000001e-01 3.469446951953614e-17 0.000000000000000e+00
					2.500000000000001e-01 1.250000000000001e-01 0.000000000000000e+00
					3.750000000000000e-01 1.250000000000001e-01 0.000000000000000e+00
					3.750000000000001e-01 3.469446951953614e-17 0.000000000000000e+00
					5.000000000000000e-01 3.469446951953614e-17 0.000000000000000e+00
					3.750000000000000e-01 1.250000000000001e-01 0.000000000000000e+00
					5.000000000000000e-01 1.250000000000001e-01 0.000000000000000e+00
					-5.000000000000000e-01 1.250000000000001e-01 0.000000000000000e+00
					-3.750000000000000e-01 1.250000000000001e-01 0.000000000000000e+00
					-5.000000000000000e-01 2.500000000000001e-01 0.000000000000000e+00
					-3.750000000000000e-01 2.500000000000001e-01 0.000000000000000e+00
					-3.750000000000000e-01 1.250000000000001e-01 0.000000000000000e+00
					-2.500000000000000e-01 1.250000000000001e-01 0.000000000000000e+00
					-3.750000000000000e-01 2.500000000000001e-01 0.000000000000000e+00
					-2.500000000000000e-01 2.500000000000001e-01 0.000000000000000e+00
					-2.500000000000000e-01 1.250000000000001e-01 0.000000000000000e+00
					-1.250000000000000e-01 1.250000000000001e-01 0.000000000000000e+00
					-2.500000000000000e-01 2.500000000000001e-01 0.000000000000000e+00
					-1.250000000000000e-01 2.500000000000001e-01 0.000000000000000e+00
					-1.250000000000000e-01 1.250000000000001e-01 0.000000000000000e+00
					3.469446951953615e-17 1.250000000000001e-01 0.000000000000000e+00
					-1.250000000000000e-01 2.500000000000001e-01 0.000000000000000e+00
					3.469446951953615e-17 2.500000000000001e-01 0.000000000000000e+00
					3.469446951953615e-17 1.250000000000001e-01 0.000000000000000e+00
					1.250000000000001e-01 1.250000000000001e-01 0.000000000000000e+00
					3.469446951953615e-17 2.500000000000001e-01 0.000000000000000e+00
					1.250000000000001e-01 2.500000000000001e-01 0.000000000000000e+00
					1.250000000000001e-01 1.250000000000001e-01 0.000000000000000e+00
					2.500000000000001e-01 1.250000000000001e-01 0.000000000000000e+00
					1.250000000000001e-01 2.500000000000001e-01 0.000000000000000e+00
					2.500000000000001e-01 2.500000000000001e-01 0.000000000000000e+00
					2.500000000000001e-01 1.250000000000001e-01 0.000000000000000e+00
					3.750000000000000e-01 1.250000000000001e-01 0.000000000000000e+00
					2.500000000000001e-01 2.500000000000001e-01 0.000000000000000e+00
					3.750000000000000e-01 2.500000000000001e-01 0.000000000000000e+00
					3.750000000000000e-01 1.250000000000001e-01 0.000000000000000e+00
					5.000000000000000e-01 1.250000000000001e-01 0.000000000000000e+00
					3.750000000000000e-01 2.500000000000001e-01 0.000000000000000e+00
					5.000000000000000e-01 2.500000000000001e-01 0.000000000000000e+00
					-5.000000000000000e-01 2.500000000000001e-01 0.000000000000000e+00
					-3.750000000000000e-01 2.500000000000001e-01 0.000000000000000e+00
					-5.000000000000000e-01 3.750000000000000e-01 0.000000000000000e+00
					-3.750000000000000e-01 3.750000000000000e-01 0.000000000000000e+00
					-3.750000000000000e-01 2.500000000000001e-01 0.000000000000000e+00
					-2.500000000000000e-01 2.500000000000001e-01 0.000000000000000e+00
					-3.750000000000000e-01 3.750000000000000e-01 0.000000000000000e+00
					-2.500000000000000e-01 3.750000000000000e-01 0.000000000000000e+00
					-2.500000000000000e-01 2.500000000000001e-01 0.000000000000000e+00
					-1.250000000000000e-01 2.500000000000001e-01 0.000000000000000e+00
					-2.500000000000000e-01 3.750000000000000e-01 0.000000000000000e+00
					-1.250000000000000e-01 3.750000000000000e-01 0.000000000000000e+00
					-1.250000000000000e-01 2.500000000000001e-01 0.000000000000000e+00
					3.469446951953615e-17 2.500000000000001e-01 0.000000000000000e+00
					-1.250000000000000e-01 3.750000000000000e-01 0.000000000000000e+00
					3.469446951953614e-17 3.750000000000000e-01 0.000000000000000e+00
					3.469446951953615e-17 2.500000000000001e-01 0.000000000000000e+00
					1.250000000000001e-01 2.500000000000001e-01 0.000000000000000e+00
					3.469446951953614e-17 3.750000000000000e-01 0.000000000000000e+00
					1.250000000000001e-01 3.750000000000000e-01 0.000000000000000e+00
					1.250000000000001e-01 2.500000000000001e-01 0.000000000000000e+00
					2.500000000000001e-01 2.500000000000001e-01 0.000000000000000e+00
					1.250000000000001e-01 3.750000000000000e-01 0.000000000000000e+00
					2.500000000000001e-01 3.750000000000000e-01 0.000000000000000e+00
					2.500000000000001e-01 2.500000000000001e-01 0.000000000000000e+00
					3.750000000000000e-01 2.500000000000001e-01 0.000000000000000e+00
					2.500000000000001e-01 3.750000000000000e-01 0.000000000000000e+00
					3.750000000000000e-01 3.750000000000000e-01 0.000000000000000e+00
					3.750000000000000e-01 2.500000000000001e-01 0.000000000000000e+00
					5.000000000000000e-01 2.500000000000001e-01 0.000000000000000e+00
					3.750000000000000e-01 3.750000000000000e-01 0.000000000000000e+00
					5.000000000000000e-01 3.750000000000000e-01 0.000000000000000e+00
					-5.000000000000000e-01 3.750000000000000e-01 0.000000000000000e+00
					-3.750000000000000e-01 3.750000000000000e-01 0.000000000000000e+00
					-5.000000000000000e-01 5.000000000000000e-01 0.000000000000000e+00
					-3.750000000000000e-01 5.000000000000000e-01 0.000000000000000e+00
					-3.750000000000000e-01 3.750000000000000e-01 0.000000000000000e+00
					-2.500000000000000e-01 3.750000000000000e-01 0.000000000000000e+00
					-3.750000000000000e-01 5.000000000000000e-01 0.000000000000000e+00
					-2.500000000000000e-01 5.000000000000000e-01 0.000000000000000e+00
					-2.500000000000000e-01 3.750000000000000e-01 0.000000000000000e+00
					-1.250000000000000e-01 3.750000000000000e-01 0.000000000000000e+00
					-2.500000000000000e-01 5.000000000000000e-01 0.000000000000000e+00
					-1.250000000000000e-01 5.000000000000000e-01 0.000000000000000e+00
					-1.250000000000000e-01 3.750000000000000e-01 0.000000000000000e+00
					3.469446951953614e-17 3.750000000000000e-01 0.000000000000000e+00
					-1.250000000000000e-01 5.000000000000000e-01 0.000000000000000e+00
					3.469446951953614e-17 5.000000000000000e-01 0.000000000000000e+00
					3.469446951953614e-17 3.750000000000000e-01 0.000000000000000e+00
					1.250000000000001e-01 3.750000000000000e-01 0.000000000000000e+00
					3.469446951953614e-17 5.000000000000000e-01 0.000000000000000e+00
					1.250000000000001e-01 5.000000000000000e-01 0.000000000000000e+00
					1.250000000000001e-01 3.750000000000000e-01 0.000000000000000e+00
					2.500000000000001e-01 3.750000000000000e-01 0.000000000000000e+00
					1.250000000000001e-01 5.000000000000000e-01 0.000000000000000e+00
					2.500000000000001e-01 5.000000000000000e-01 0.000000000000000e+00
					2.500000000000001e-01 3.750000000000000e-01 0.000000000000000e+00
					3.750000000000000e-01 3.750000000000000e-01 0.000000000000000e+00
					2.500000000000001e-01 5.000000000000000e-01 0.000000000000000e+00
					3.750000000000000e-01 5.000000000000000e-01 0.000000000000000e+00
					3.750000000000000e-01 3.750000000000000e-01 0.000000000000000e+00
					5.000000000000000e-01 3.750000000000000e-01 0.000000000000000e+00
					3.750000000000000e-01 5.000000000000000e-01 0.000000000000000e+00
					5.000000000000000e-01 5.000000000000000e-01 0.000000000000000e+00
				</DataArray>
			</Points>
			<Cells>
				<DataArray Name="connectivity" type="UInt32" format="ascii">
					0 1 3 2 4 5 7 6 8 9 11 10 12 13 15 14 16 17 19 18 20 21 23 22 24 25 27 26 28 29 31 30 32 33 35 34 36 37 39 38 40 41 43 42 44 45 47 46 48 49 51 50 52 53 55 54 56 57 59 58 60 61 63 62 64 65 67 66 68 69 71 70 72 73 75 74 76 77 79 78 80 81 83 82 84 85 87 86 88 89 91 90 92 93 95 94 96 97 99 98 100 101 103 102 104 105 107 106 108 109 111 110 112 113 115 114 116 117 119 118 120 121 123 122 124 125 127 126 128 129 131 130 132 133 135 134 136 137 139 138 140 141 143 142 144 145 147 146 148 149 151 150 152 153 155 154 156 157 159 158 160 161 163 162 164 165 167 166 168 169 171 170 172 173 175 174 176 177 179 178 180 181 183 182 184 185 187 186 188 189 191 190 192 193 195 194 196 197 199 198 200 201 203 202 204 205 207 206 208 209 211 210 212 213 215 214 216 217 219 218 220 221 223 222 224 225 227 226 228 229 231 230 232 233 235 234 236 237 239 238 240 241 243 242 244 245 247 246 248 249 251 250 252 253 255 254 
				</DataArray>
				<DataArray Name="offsets" type="UInt32" format="ascii">
					4 8 12 16 20 24 28 32 36 40 44 48 52 56 60 64 68 72 76 80 84 88 92 96 100 104 108 112 116 120 124 128 132 136 140 144 148 152 156 160 164 168 172 176 180 184 188 192 196 200 204 208 212 216 220 224 228 232 236 240 244 248 252 256 
				</DataArray>
				<DataArray Name="types" type="UInt8" format="ascii">
					9 9 9 9 9 9 9 9 9 9 9 9 9 9 9 9 9 9 9 9 9 9 9 9 9 9 9 9 9 9 9 9 9 9 9 9 9 9 9 9 9 9 9 9 9 9 9 9 9 9 9 9 9 9 9 9 9 9 9 9 9 9 9 9 
				</DataArray>
			</Cells>
			<PointData Vectors="solution ">
				<DataArray Name="solution" type="Float64" NumberOfComponents="1" format="ascii">
					1.616872756692747e+00 2.492309102018556e+00 2.824186254375185e+00 4.261338500577889e+00 2.492309102018556e+00 3.483067962053314e+00 4.261338500577889e+00 5.874194002532044e+00 3.483067962053314e+00 4.459338334211679e+00 5.874194002532044e+00 7.463147464702239e+00 4.459338334211679e+00 5.259781989634980e+00 7.463147464702239e+00 8.781055627006895e+00 5.259781989634980e+00 5.725691151014089e+00 8.781055627006895e+00 9.582603434663451e+00 5.725691151014089e+00 5.742187872732183e+00 9.582603434663451e+00 9.684339977435419e+00 5.742187872732183e+00 5.275590182622624e+00 9.684339977435419e+00 9.020392665126334e+00 5.275590182622624e+00 4.394146672985082e+00 9.020392665126334e+00 7.675896373844123e+00 2.824186254375185e+00 4.261338500577889e+00 4.472431756956517e+00 6.656361481414299e+00 4.261338500577889e+00 5.874194002532044e+00 6.656361481414299e+00 9.094964553455297e+00 5.874194002532044e+00 7.463147464702239e+00 9.094964553455297e+00 1.149768672012241e+01 7.463147464702239e+00 8.781055627006895e+00 1.149768672012241e+01 1.350633344235014e+01 8.781055627006895e+00 9.582603434663451e+00 1.350633344235014e+01 1.476299030056321e+01 9.582603434663451e+00 9.684339977435419e+00 1.476299030056321e+01 1.499429166851205e+01 9.684339977435419e+00 9.020392665126334e+00 1.499429166851205e+01 1.409065960003032e+01 9.020392665126334e+00 7.675896373844123e+00 1.409065960003032e+01 1.215622561886629e+01 4.472431756956517e+00 6.656361481414299e+00 6.488594847184018e+00 9.583859376824684e+00 6.656361481414299e+00 9.094964553455297e+00 9.583859376824684e+00 1.302884908884855e+01 9.094964553455297e+00 1.149768672012241e+01 1.302884908884855e+01 1.642456847373592e+01 1.149768672012241e+01 1.350633344235014e+01 1.642456847373592e+01 1.927654286603668e+01 1.350633344235014e+01 1.476299030056321e+01 1.927654286603668e+01 2.108930949602702e+01 1.476299030056321e+01 1.499429166851205e+01 2.108930949602702e+01 2.148003329753230e+01 1.499429166851205e+01 1.409065960003032e+01 2.148003329753230e+01 2.028640118675925e+01 1.409065960003032e+01 1.215622561886629e+01 2.028640118675925e+01 1.763644795041892e+01 6.488594847184018e+00 9.583859376824684e+00 8.672381123748938e+00 1.277633860313963e+01 9.583859376824684e+00 1.302884908884855e+01 1.277633860313963e+01 1.734238372946665e+01 1.302884908884855e+01 1.642456847373592e+01 1.734238372946665e+01 2.184310021029834e+01 1.642456847373592e+01 1.927654286603668e+01 2.184310021029834e+01 2.562870606206764e+01 1.927654286603668e+01 2.108930949602702e+01 2.562870606206764e+01 2.804721262166852e+01 2.108930949602702e+01 2.148003329753230e+01 2.804721262166852e+01 2.859285032612749e+01 2.148003329753230e+01 2.028640118675925e+01 2.859285032612749e+01 2.704747034588508e+01 2.028640118675925e+01 1.763644795041892e+01 2.704747034588508e+01 2.357263192794569e+01 8.672381123748938e+00 1.277633860313963e+01 1.069774532112910e+01 1.579853600462898e+01 1.277633860313963e+01 1.734238372946665e+01 1.579853600462898e+01 2.147978539431618e+01 1.734238372946665e+01 2.184310021029834e+01 2.147978539431618e+01 2.707906719715134e+01 2.184310021029834e+01 2.562870606206764e+01 2.707906719715134e+01 3.178166330504761e+01 2.562870606206764e+01 2.804721262166852e+01 3.178166330504761e+01 3.477073500634538e+01 2.804721262166852e+01 2.859285032612749e+01 3.477073500634538e+01 3.541498317797160e+01 2.859285032612749e+01 2.704747034588508e+01 3.541498317797160e+01 3.344699670394782e+01 2.704747034588508e+01 2.357263192794569e+01 3.344699670394782e+01 2.907795685227599e+01 1.069774532112910e+01 1.579853600462898e+01 1.215742418697845e+01 1.809383191577255e+01 1.579853600462898e+01 2.147978539431618e+01 1.809383191577255e+01 2.472181836046615e+01 2.147978539431618e+01 2.707906719715134e+01 2.472181836046615e+01 3.125324646528317e+01 2.707906719715134e+01 3.178166330504761e+01 3.125324646528317e+01 3.671419698512610e+01 3.178166330504761e+01 3.477073500634538e+01 3.671419698512610e+01 4.013091892549370e+01 3.477073500634538e+01 3.541498317797160e+01 4.013091892549370e+01 4.075956534558307e+01 3.541498317797160e+01 3.344699670394782e+01 4.075956534558307e+01 3.830322910652421e+01 3.344699670394782e+01 2.907795685227599e+01 3.830322910652421e+01 3.304472164536178e+01 1.215742418697845e+01 1.809383191577255e+01 1.265719158270425e+01 1.909757185792081e+01 1.809383191577255e+01 2.472181836046615e+01 1.909757185792081e+01 2.632590619489269e+01 2.472181836046615e+01 3.125324646528317e+01 2.632590619489269e+01 3.344658726952272e+01 3.125324646528317e+01 3.671419698512610e+01 3.344658726952272e+01 3.935446756599492e+01 3.671419698512610e+01 4.013091892549370e+01 3.935446756599492e+01 4.294826883107724e+01 4.013091892549370e+01 4.075956534558307e+01 4.294826883107724e+01 4.340312025958019e+01 4.075956534558307e+01 3.830322910652421e+01 4.340312025958019e+01 4.042754505600048e+01 3.830322910652421e+01 3.304472164536178e+01 4.042754505600048e+01 3.440197715177750e+01 1.265719158270425e+01 1.909757185792081e+01 1.194566589125880e+01 1.841478337158808e+01 1.909757185792081e+01 2.632590619489269e+01 1.841478337158808e+01 2.573614518293991e+01 2.632590619489269e+01 3.344658726952272e+01 2.573614518293991e+01 3.295048631929291e+01 3.344658726952272e+01 3.935446756599492e+01 3.295048631929291e+01 3.886596352966955e+01 3.935446756599492e+01 4.294826883107724e+01 3.886596352966955e+01 4.230902740730808e+01 4.294826883107724e+01 4.340312025958019e+01 4.230902740730808e+01 4.243089266126374e+01 4.340312025958019e+01 4.042754505600048e+01 4.243089266126374e+01 3.898246222240904e+01 4.042754505600048e+01 3.440197715177750e+01 3.898246222240904e+01 3.246726398859330e+01 
				</DataArray>
			</PointData>
			<CellData>
			</CellData>
		</Piece>
	</UnstructuredGrid>
</VTKFile>