<?xml version="1.0"?>
<VTKFile type="UnstructuredGrid" byte_order="LittleEndian">
	<UnstructuredGrid>
		<Piece NumberOfPoints="64" NumberOfCells="16">
			<Points>
				<DataArray type="Float64" NumberOfComponents="3" format="ascii">
					-5.000000000000000e-01 -5.000000000000000e-01 0.000000000000000e+00
					-2.500000000000000e-01 -5.000000000000000e-01 0.000000000000000e+00
					-5.000000000000000e-01 -2.500000000000000e-01 0.000000000000000e+00
					-2.500000000000000e-01 -2.500000000000000e-01 0.000000000000000e+00
					-2.500000000000000e-01 -5.000000000000000e-01 0.000000000000000e+00
					2.775557561562891e-17 -5.000000000000000e-01 0.000000000000000e+00
					-2.500000000000000e-01 -2.500000000000000e-01 0.000000000000000e+00
					2.775557561562891e-17 -2.500000000000000e-01 0.000000000000000e+00
					2.775557561562891e-17 -5.000000000000000e-01 0.000000000000000e+00
					2.500000000000000e-01 -5.000000000000000e-01 0.000000000000000e+00
					2.775557561562891e-17 -2.500000000000000e-01 0.000000000000000e+00
					2.500000000000000e-01 -2.500000000000000e-01 0.000000000000000e+00
					2.500000000000000e-01 -5.000000000000000e-01 0.000000000000000e+00
					5.000000000000000e-01 -5.000000000000000e-01 0.000000000000000e+00
					2.500000000000000e-01 -2.500000000000000e-01 0.000000000000000e+00
					5.000000000000000e-01 -2.500000000000000e-01 0.000000000000000e+00
					-5.000000000000000e-01 -2.500000000000000e-01 0.000000000000000e+00
					-2.500000000000000e-01 -2.500000000000000e-01 0.000000000000000e+00
					-5.000000000000000e-01 2.775557561562891e-17 0.000000000000000e+00
					-2.500000000000000e-01 2.775557561562891e-17 0.000000000000000e+00
					-2.500000000000000e-01 -2.500000000000000e-01 0.000000000000000e+00
					2.775557561562891e-17 -2.500000000000000e-01 0.000000000000000e+00
					-2.500000000000000e-01 2.775557561562891e-17 0.000000000000000e+00
					2.775557561562891e-17 2.775557561562891e-17 0.000000000000000e+00
					2.775557561562891e-17 -2.500000000000000e-01 0.000000000000000e+00
					2.500000000000000e-01 -2.500000000000000e-01 0.000000000000000e+00
					2.775557561562891e-17 2.775557561562891e-17 0.000000000000000e+00
					2.500000000000000e-01 2.775557561562891e-17 0.000000000000000e+00
					2.500000000000000e-01 -2.500000000000000e-01 0.000000000000000e+00
					5.000000000000000e-01 -2.500000000000000e-01 0.000000000000000e+00
					2.500000000000000e-01 2.775557561562891e-17 0.000000000000000e+00
					5.000000000000000e-01 2.775557561562891e-17 0.000000000000000e+00
					-5.000000000000000e-01 2.775557561562891e-17 0.000000000000000e+00
					-2.500000000000000e-01 2.775557561562891e-17 0.000000000000000e+00
					-5.000000000000000e-01 2.500000000000000e-01 0.000000000000000e+00
					-2.500000000000000e-01 2.500000000000000e-01 0.000000000000000e+00
					-2.500000000000000e-01 2.775557561562891e-17 0.000000000000000e+00
					2.775557561562891e-17 2.775557561562891e-17 0.000000000000000e+00
					-2.500000000000000e-01 2.500000000000000e-01 0.000000000000000e+00
					2.775557561562891e-17 2.500000000000000e-01 0.000000000000000e+00
					2.775557561562891e-17 2.775557561562891e-17 0.000000000000000e+00
					2.500000000000000e-01 2.775557561562891e-17 0.000000000000000e+00
					2.775557561562891e-17 2.500000000000000e-01 0.000000000000000e+00
					2.500000000000000e-01 2.500000000000000e-01 0.000000000000000e+00
					2.500000000000000e-01 2.775557561562891e-17 0.000000000000000e+00
					5.000000000000000e-01 2.775557561562891e-17 0.000000000000000e+00
					2.500000000000000e-01 2.500000000000000e-01 0.000000000000000e+00
					5.000000000000000e-01 2.500000000000000e-01 0.000000000000000e+00
					-5.000000000000000e-01 2.500000000000000e-01 0.000000000000000e+00
					-2.500000000000000e-01 2.500000000000000e-01 0.000000000000000e+00
					-5.000000000000000e-01 5.000000000000000e-01 0.000000000000000e+00
					-2.500000000000000e-01 5.000000000000000e-01 0.000000000000000e+00
					-2.500000000000000e-01 2.500000000000000e-01 0.000000000000000e+00
					2.775557561562891e-17 2.500000000000000e-01 0.000000000000000e+00
					-2.500000000000000e-01 5.000000000000000e-01 0.000000000000000e+00
					2.775557561562891e-17 5.000000000000000e-01 0.000000000000000e+00
					2.775557561562891e-17 2.500000000000000e-01 0.000000000000000e+00
					2.500000000000000e-01 2.500000000000000e-01 0.000000000000000e+00
					2.775557561562891e-17 5.000000000000000e-01 0.000000000000000e+00
					2.500000000000000e-01 5.000000000000000e-01 0.000000000000000e+00
					2.500000000000000e-01 2.500000000000000e-01 0.000000000000000e+00
					5.000000000000000e-01 2.500000000000000e-01 0.000000000000000e+00
					2.500000000000000e-01 5.000000000000000e-01 0.000000000000000e+00
					5.000000000000000e-01 5.000000000000000e-01 0.000000000000000e+00
				</DataArray>
			</Points>
			<Cells>
				<DataArray Name="connectivity" type="UInt32" format="ascii">
					0 1 3 2 4 5 7 6 8 9 11 10 12 13 15 14 16 17 19 18 20 21 23 22 24 25 27 26 28 29 31 30 32 33 35 34 36 37 39 38 40 41 43 42 44 45 47 46 48 49 51 50 52 53 55 54 56 57 59 58 60 61 63 62 
				</DataArray>
				<DataArray Name="offsets" type="UInt32" format="ascii">
					4 8 12 16 20 24 28 32 36 40 44 48 52 56 60 64 
				</DataArray>
				<DataArray Name="types" type="UInt8" format="ascii">
					9 9 9 9 9 9 9 9 9 9 9 9 9 9 9 9 
				</DataArray>
			</Cells>
			<PointData Vectors="solution ">
				<DataArray Name="solution" type="Float64" NumberOfComponents="1" format="ascii">
					1.625618565439134e+00 3.523259347931642e+00 4.470951667234907e+00 9.051674071217821e+00 3.523259347931642e+00 5.256278011159582e+00 9.051674071217821e+00 1.343526373357057e+01 5.256278011159582e+00 5.716056435009392e+00 1.343526373357057e+01 1.492446800949485e+01 5.716056435009392e+00 4.365298855189358e+00 1.492446800949485e+01 1.209480673684974e+01 4.470951667234907e+00 9.051674071217821e+00 8.677470341721978e+00 1.717183353600415e+01 9.051674071217821e+00 1.343526373357057e+01 1.717183353600415e+01 2.550222294704441e+01 1.343526373357057e+01 1.492446800949485e+01 2.550222294704441e+01 2.849861139931406e+01 1.492446800949485e+01 1.209480673684974e+01 2.849861139931406e+01 2.349111656082357e+01 8.677470341721978e+00 1.717183353600415e+01 1.217484929551615e+01 2.465520858098277e+01 1.717183353600415e+01 2.550222294704441e+01 2.465520858098277e+01 3.663993958093383e+01 2.550222294704441e+01 2.849861139931406e+01 3.663993958093383e+01 4.068723786356337e+01 2.849861139931406e+01 2.349111656082357e+01 4.068723786356337e+01 3.296656525581059e+01 1.217484929551615e+01 2.465520858098277e+01 1.198481572768200e+01 2.580015673935759e+01 2.465520858098277e+01 3.663993958093383e+01 2.580015673935759e+01 3.887029859840693e+01 3.663993958093383e+01 4.068723786356337e+01 3.887029859840693e+01 4.239902821458034e+01 4.068723786356337e+01 3.296656525581059e+01 4.239902821458034e+01 3.237545451227525e+01 
				</DataArray>
			</PointData>
			<CellData>
			</CellData>
		</Piece>
	</UnstructuredGrid>
</VTKFile>