<?xml version="1.0"?>
<VTKFile type="UnstructuredGrid" byte_order="LittleEndian">
	<UnstructuredGrid>
		<Piece NumberOfPoints="256" NumberOfCells="64">
			<Points>
				<DataArray type="Float64" NumberOfComponents="3" format="ascii">
					1.000000000000000e+00 -1.000000000000000e+00 0.000000000000000e+00
					1.218750000000000e+00 -7.500000000000000e-01 0.000000000000000e+00
					9.135224194504830e-01 -9.135224194504830e-01 0.000000000000000e+00
					1.081462827695690e+00 -6.851418145878623e-01 0.000000000000000e+00
					1.218750000000000e+00 -7.500000000000000e-01 0.000000000000000e+00
					1.375000000000000e+00 -5.000000000000000e-01 0.000000000000000e+00
					1.081462827695690e+00 -6.851418145878623e-01 0.000000000000000e+00
					1.201420262156552e+00 -4.567612097252415e-01 0.000000000000000e+00
					1.375000000000000e+00 -5.000000000000000e-01 0.000000000000000e+00
					1.468750000000000e+00 -2.499999999999999e-01 0.000000000000000e+00
					1.201420262156552e+00 -4.567612097252415e-01 0.000000000000000e+00
					1.273394722833069e+00 -2.283806048626207e-01 0.000000000000000e+00
					1.468750000000000e+00 -2.499999999999999e-01 0.000000000000000e+00
					1.500000000000000e+00 6.938893903907228e-17 0.000000000000000e+00
					1.273394722833069e+00 -2.283806048626207e-01 0.000000000000000e+00
					1.297386209725242e+00 6.581107186987012e-17 0.000000000000000e+00
					1.500000000000000e+00 6.938893903907228e-17 0.000000000000000e+00
					1.468750000000000e+00 2.500000000000001e-01 0.000000000000000e+00
					1.297386209725242e+00 6.581107186987012e-17 0.000000000000000e+00
					1.273394722833069e+00 2.283806048626209e-01 0.000000000000000e+00
					1.468750000000000e+00 2.500000000000001e-01 0.000000000000000e+00
					1.375000000000000e+00 5.000000000000001e-01 0.000000000000000e+00
					1.273394722833069e+00 2.283806048626209e-01 0.000000000000000e+00
					1.201420262156552e+00 4.567612097252416e-01 0.000000000000000e+00
					1.375000000000000e+00 5.000000000000001e-01 0.000000000000000e+00
					1.218750000000000e+00 7.500000000000000e-01 0.000000000000000e+00
					1.201420262156552e+00 4.567612097252416e-01 0.000000000000000e+00
					1.081462827695690e+00 6.851418145878623e-01 0.000000000000000e+00
					1.218750000000000e+00 7.500000000000000e-01 0.000000000000000e+00
					1.000000000000000e+00 1.000000000000000e+00 0.000000000000000e+00
					1.081462827695690e+00 6.851418145878623e-01 0.000000000000000e+00
					9.135224194504830e-01 9.135224194504830e-01 0.000000000000000e+00
					9.135224194504830e-01 -9.135224194504830e-01 0.000000000000000e+00
					1.081462827695690e+00 -6.851418145878623e-01 0.000000000000000e+00
					8.338955762008280e-01 -8.338955762008280e-01 0.000000000000000e+00
					9.577309189068972e-01 -6.254216821506211e-01 0.000000000000000e+00
					1.081462827695690e+00 -6.851418145878623e-01 0.000000000000000e+00
					1.201420262156552e+00 -4.567612097252415e-01 0.000000000000000e+00
					9.577309189068972e-01 -6.254216821506211e-01 0.000000000000000e+00
					1.046184735125518e+00 -4.169477881004140e-01 0.000000000000000e+00
					1.201420262156552e+00 -4.567612097252415e-01 0.000000000000000e+00
					1.273394722833069e+00 -2.283806048626207e-01 0.000000000000000e+00
					1.046184735125518e+00 -4.169477881004140e-01 0.000000000000000e+00
					1.099257024856690e+00 -2.084738940502070e-01 0.000000000000000e+00
					1.273394722833069e+00 -2.283806048626207e-01 0.000000000000000e+00
					1.297386209725242e+00 6.581107186987012e-17 0.000000000000000e+00
					1.099257024856690e+00 -2.084738940502070e-01 0.000000000000000e+00
					1.116947788100414e+00 6.201636426617085e-17 0.000000000000000e+00
					1.297386209725242e+00 6.581107186987012e-17 0.000000000000000e+00
					1.273394722833069e+00 2.283806048626209e-01 0.000000000000000e+00
					1.116947788100414e+00 6.201636426617085e-17 0.000000000000000e+00
					1.099257024856690e+00 2.084738940502071e-01 0.000000000000000e+00
					1.273394722833069e+00 2.283806048626209e-01 0.000000000000000e+00
					1.201420262156552e+00 4.567612097252416e-01 0.000000000000000e+00
					1.099257024856690e+00 2.084738940502071e-01 0.000000000000000e+00
					1.046184735125518e+00 4.169477881004141e-01 0.000000000000000e+00
					1.201420262156552e+00 4.567612097252416e-01 0.000000000000000e+00
					1.081462827695690e+00 6.851418145878623e-01 0.000000000000000e+00
					1.046184735125518e+00 4.169477881004141e-01 0.000000000000000e+00
					9.577309189068969e-01 6.254216821506211e-01 0.000000000000000e+00
					1.081462827695690e+00 6.851418145878623e-01 0.000000000000000e+00
					9.135224194504830e-01 9.135224194504830e-01 0.000000000000000e+00
					9.577309189068969e-01 6.254216821506211e-01 0.000000000000000e+00
					8.338955762008280e-01 8.338955762008280e-01 0.000000000000000e+00
					8.338955762008280e-01 -8.338955762008280e-01 0.000000000000000e+00
					9.577309189068972e-01 -6.254216821506211e-01 0.000000000000000e+00
					7.611194702510350e-01 -7.611194702510350e-01 0.000000000000000e+00
					8.475542736336211e-01 -5.708396026882762e-01 0.000000000000000e+00
					9.577309189068972e-01 -6.254216821506211e-01 0.000000000000000e+00
					1.046184735125518e+00 -4.169477881004140e-01 0.000000000000000e+00
					8.475542736336211e-01 -5.708396026882762e-01 0.000000000000000e+00
					9.092934189068971e-01 -3.805597351255174e-01 0.000000000000000e+00
					1.046184735125518e+00 -4.169477881004140e-01 0.000000000000000e+00
					1.099257024856690e+00 -2.084738940502070e-01 0.000000000000000e+00
					9.092934189068971e-01 -3.805597351255174e-01 0.000000000000000e+00
					9.463369060708624e-01 -1.902798675627587e-01 0.000000000000000e+00
					1.099257024856690e+00 -2.084738940502070e-01 0.000000000000000e+00
					1.116947788100414e+00 6.201636426617085e-17 0.000000000000000e+00
					9.463369060708624e-01 -1.902798675627587e-01 0.000000000000000e+00
					9.586847351255174e-01 5.800481622797449e-17 0.000000000000000e+00
					1.116947788100414e+00 6.201636426617085e-17 0.000000000000000e+00
					1.099257024856690e+00 2.084738940502071e-01 0.000000000000000e+00
					9.586847351255174e-01 5.800481622797449e-17 0.000000000000000e+00
					9.463369060708622e-01 1.902798675627588e-01 0.000000000000000e+00
					1.099257024856690e+00 2.084738940502071e-01 0.000000000000000e+00
					1.046184735125518e+00 4.169477881004141e-01 0.000000000000000e+00
					9.463369060708622e-01 1.902798675627588e-01 0.000000000000000e+00
					9.092934189068969e-01 3.805597351255176e-01 0.000000000000000e+00
					1.046184735125518e+00 4.169477881004141e-01 0.000000000000000e+00
					9.577309189068969e-01 6.254216821506211e-01 0.000000000000000e+00
					9.092934189068969e-01 3.805597351255176e-01 0.000000000000000e+00
					8.475542736336210e-01 5.708396026882762e-01 0.000000000000000e+00
					9.577309189068969e-01 6.254216821506211e-01 0.000000000000000e+00
					8.338955762008280e-01 8.338955762008280e-01 0.000000000000000e+00
					8.475542736336210e-01 5.708396026882762e-01 0.000000000000000e+00
					7.611194702510350e-01 7.611194702510350e-01 0.000000000000000e+00
					7.611194702510350e-01 -7.611194702510350e-01 0.000000000000000e+00
					8.475542736336211e-01 -5.708396026882762e-01 0.000000000000000e+00
					6.951941016011041e-01 -6.951941016011041e-01 0.000000000000000e+00
					7.509328918758625e-01 -5.213955762008279e-01 0.000000000000000e+00
					8.475542736336211e-01 -5.708396026882762e-01 0.000000000000000e+00
					9.092934189068971e-01 -3.805597351255174e-01 0.000000000000000e+00
					7.509328918758625e-01 -5.213955762008279e-01 0.000000000000000e+00
					7.907463135006900e-01 -3.475970508005519e-01 0.000000000000000e+00
					9.092934189068971e-01 -3.805597351255174e-01 0.000000000000000e+00
					9.463369060708624e-01 -1.902798675627587e-01 0.000000000000000e+00
					7.907463135006900e-01 -3.475970508005519e-01 0.000000000000000e+00
					8.146343664755866e-01 -1.737985254002760e-01 0.000000000000000e+00
					9.463369060708624e-01 -1.902798675627587e-01 0.000000000000000e+00
					9.586847351255174e-01 5.800481622797449e-17 0.000000000000000e+00
					8.146343664755866e-01 -1.737985254002760e-01 0.000000000000000e+00
					8.225970508005521e-01 5.377642775528102e-17 0.000000000000000e+00
					9.586847351255174e-01 5.800481622797449e-17 0.000000000000000e+00
					9.463369060708622e-01 1.902798675627588e-01 0.000000000000000e+00
					8.225970508005521e-01 5.377642775528102e-17 0.000000000000000e+00
					8.146343664755865e-01 1.737985254002761e-01 0.000000000000000e+00
					9.463369060708622e-01 1.902798675627588e-01 0.000000000000000e+00
					9.092934189068969e-01 3.805597351255176e-01 0.000000000000000e+00
					8.146343664755865e-01 1.737985254002761e-01 0.000000000000000e+00
					7.907463135006900e-01 3.475970508005521e-01 0.000000000000000e+00
					9.092934189068969e-01 3.805597351255176e-01 0.000000000000000e+00
					8.475542736336210e-01 5.708396026882762e-01 0.000000000000000e+00
					7.907463135006900e-01 3.475970508005521e-01 0.000000000000000e+00
					7.509328918758625e-01 5.213955762008279e-01 0.000000000000000e+00
					8.475542736336210e-01 5.708396026882762e-01 0.000000000000000e+00
					7.611194702510350e-01 7.611194702510350e-01 0.000000000000000e+00
					7.509328918758625e-01 5.213955762008279e-01 0.000000000000000e+00
					6.951941016011041e-01 6.951941016011041e-01 0.000000000000000e+00
					6.951941016011041e-01 -6.951941016011041e-01 0.000000000000000e+00
					7.509328918758625e-01 -5.213955762008279e-01 0.000000000000000e+00
					6.361194702510350e-01 -6.361194702510350e-01 0.000000000000000e+00
					6.678667736336210e-01 -4.770896026882761e-01 0.000000000000000e+00
					7.509328918758625e-01 -5.213955762008279e-01 0.000000000000000e+00
					7.907463135006900e-01 -3.475970508005519e-01 0.000000000000000e+00
					6.678667736336210e-01 -4.770896026882761e-01 0.000000000000000e+00
					6.905434189068970e-01 -3.180597351255174e-01 0.000000000000000e+00
					7.907463135006900e-01 -3.475970508005519e-01 0.000000000000000e+00
					8.146343664755866e-01 -1.737985254002760e-01 0.000000000000000e+00
					6.905434189068970e-01 -3.180597351255174e-01 0.000000000000000e+00
					7.041494060708624e-01 -1.590298675627587e-01 0.000000000000000e+00
					8.146343664755866e-01 -1.737985254002760e-01 0.000000000000000e+00
					8.225970508005521e-01 5.377642775528102e-17 0.000000000000000e+00
					7.041494060708624e-01 -1.590298675627587e-01 0.000000000000000e+00
					7.086847351255176e-01 4.933119884809045e-17 0.000000000000000e+00
					8.225970508005521e-01 5.377642775528102e-17 0.000000000000000e+00
					8.146343664755865e-01 1.737985254002761e-01 0.000000000000000e+00
					7.086847351255176e-01 4.933119884809045e-17 0.000000000000000e+00
					7.041494060708624e-01 1.590298675627588e-01 0.000000000000000e+00
					8.146343664755865e-01 1.737985254002761e-01 0.000000000000000e+00
					7.907463135006900e-01 3.475970508005521e-01 0.000000000000000e+00
					7.041494060708624e-01 1.590298675627588e-01 0.000000000000000e+00
					6.905434189068969e-01 3.180597351255176e-01 0.000000000000000e+00
					7.907463135006900e-01 3.475970508005521e-01 0.000000000000000e+00
					7.509328918758625e-01 5.213955762008279e-01 0.000000000000000e+00
					6.905434189068969e-01 3.180597351255176e-01 0.000000000000000e+00
					6.678667736336210e-01 4.770896026882761e-01 0.000000000000000e+00
					7.509328918758625e-01 5.213955762008279e-01 0.000000000000000e+00
					6.951941016011041e-01 6.951941016011041e-01 0.000000000000000e+00
					6.678667736336210e-01 4.770896026882761e-01 0.000000000000000e+00
					6.361194702510350e-01 6.361194702510350e-01 0.000000000000000e+00
					6.361194702510350e-01 -6.361194702510350e-01 0.000000000000000e+00
					6.678667736336210e-01 -4.770896026882761e-01 0.000000000000000e+00
					5.838955762008280e-01 -5.838955762008280e-01 0.000000000000000e+00
					5.983559189068968e-01 -4.379216821506209e-01 0.000000000000000e+00
					6.678667736336210e-01 -4.770896026882761e-01 0.000000000000000e+00
					6.905434189068970e-01 -3.180597351255174e-01 0.000000000000000e+00
					5.983559189068968e-01 -4.379216821506209e-01 0.000000000000000e+00
					6.086847351255175e-01 -2.919477881004139e-01 0.000000000000000e+00
					6.905434189068970e-01 -3.180597351255174e-01 0.000000000000000e+00
					7.041494060708624e-01 -1.590298675627587e-01 0.000000000000000e+00
					6.086847351255175e-01 -2.919477881004139e-01 0.000000000000000e+00
					6.148820248566899e-01 -1.459738940502070e-01 0.000000000000000e+00
					7.041494060708624e-01 -1.590298675627587e-01 0.000000000000000e+00
					7.086847351255176e-01 4.933119884809045e-17 0.000000000000000e+00
					6.148820248566899e-01 -1.459738940502070e-01 0.000000000000000e+00
					6.169477881004140e-01 4.466912950640279e-17 0.000000000000000e+00
					7.086847351255176e-01 4.933119884809045e-17 0.000000000000000e+00
					7.041494060708624e-01 1.590298675627588e-01 0.000000000000000e+00
					6.169477881004140e-01 4.466912950640279e-17 0.000000000000000e+00
					6.148820248566899e-01 1.459738940502071e-01 0.000000000000000e+00
					7.041494060708624e-01 1.590298675627588e-01 0.000000000000000e+00
					6.905434189068969e-01 3.180597351255176e-01 0.000000000000000e+00
					6.148820248566899e-01 1.459738940502071e-01 0.000000000000000e+00
					6.086847351255174e-01 2.919477881004141e-01 0.000000000000000e+00
					6.905434189068969e-01 3.180597351255176e-01 0.000000000000000e+00
					6.678667736336210e-01 4.770896026882761e-01 0.000000000000000e+00
					6.086847351255174e-01 2.919477881004141e-01 0.000000000000000e+00
					5.983559189068968e-01 4.379216821506209e-01 0.000000000000000e+00
					6.678667736336210e-01 4.770896026882761e-01 0.000000000000000e+00
					6.361194702510350e-01 6.361194702510350e-01 0.000000000000000e+00
					5.983559189068968e-01 4.379216821506209e-01 0.000000000000000e+00
					5.838955762008280e-01 5.838955762008280e-01 0.000000000000000e+00
					5.838955762008280e-01 -5.838955762008280e-01 0.000000000000000e+00
					5.983559189068968e-01 -4.379216821506209e-01 0.000000000000000e+00
					5.385224194504830e-01 -5.385224194504830e-01 0.000000000000000e+00
					5.424003276956897e-01 -4.038918145878622e-01 0.000000000000000e+00
					5.983559189068968e-01 -4.379216821506209e-01 0.000000000000000e+00
					6.086847351255175e-01 -2.919477881004139e-01 0.000000000000000e+00
					5.424003276956897e-01 -4.038918145878622e-01 0.000000000000000e+00
					5.451702621565517e-01 -2.692612097252415e-01 0.000000000000000e+00
					6.086847351255175e-01 -2.919477881004139e-01 0.000000000000000e+00
					6.148820248566899e-01 -1.459738940502070e-01 0.000000000000000e+00
					5.451702621565517e-01 -2.692612097252415e-01 0.000000000000000e+00
					5.468322228330691e-01 -1.346306048626207e-01 0.000000000000000e+00
					6.148820248566899e-01 -1.459738940502070e-01 0.000000000000000e+00
					6.169477881004140e-01 4.466912950640279e-17 0.000000000000000e+00
					5.468322228330691e-01 -1.346306048626207e-01 0.000000000000000e+00
					5.473862097252414e-01 3.979021973021801e-17 0.000000000000000e+00
					6.169477881004140e-01 4.466912950640279e-17 0.000000000000000e+00
					6.148820248566899e-01 1.459738940502071e-01 0.000000000000000e+00
					5.473862097252414e-01 3.979021973021801e-17 0.000000000000000e+00
					5.468322228330691e-01 1.346306048626208e-01 0.000000000000000e+00
					6.148820248566899e-01 1.459738940502071e-01 0.000000000000000e+00
					6.086847351255174e-01 2.919477881004141e-01 0.000000000000000e+00
					5.468322228330691e-01 1.346306048626208e-01 0.000000000000000e+00
					5.451702621565517e-01 2.692612097252415e-01 0.000000000000000e+00
					6.086847351255174e-01 2.919477881004141e-01 0.000000000000000e+00
					5.983559189068968e-01 4.379216821506209e-01 0.000000000000000e+00
					5.451702621565517e-01 2.692612097252415e-01 0.000000000000000e+00
					5.424003276956897e-01 4.038918145878622e-01 0.000000000000000e+00
					5.983559189068968e-01 4.379216821506209e-01 0.000000000000000e+00
					5.838955762008280e-01 5.838955762008280e-01 0.000000000000000e+00
					5.424003276956897e-01 4.038918145878622e-01 0.000000000000000e+00
					5.385224194504830e-01 5.385224194504830e-01 0.000000000000000e+00
					5.385224194504830e-01 -5.385224194504830e-01 0.000000000000000e+00
					5.424003276956897e-01 -4.038918145878622e-01 0.000000000000000e+00
					5.000000000000000e-01 -5.000000000000000e-01 0.000000000000000e+00
					5.000000000000000e-01 -3.750000000000000e-01 0.000000000000000e+00
					5.424003276956897e-01 -4.038918145878622e-01 0.000000000000000e+00
					5.451702621565517e-01 -2.692612097252415e-01 0.000000000000000e+00
					5.000000000000000e-01 -3.750000000000000e-01 0.000000000000000e+00
					5.000000000000000e-01 -2.500000000000000e-01 0.000000000000000e+00
					5.451702621565517e-01 -2.692612097252415e-01 0.000000000000000e+00
					5.468322228330691e-01 -1.346306048626207e-01 0.000000000000000e+00
					5.000000000000000e-01 -2.500000000000000e-01 0.000000000000000e+00
					5.000000000000000e-01 -1.250000000000000e-01 0.000000000000000e+00
					5.468322228330691e-01 -1.346306048626207e-01 0.000000000000000e+00
					5.473862097252414e-01 3.979021973021801e-17 0.000000000000000e+00
					5.000000000000000e-01 -1.250000000000000e-01 0.000000000000000e+00
					5.000000000000000e-01 3.469446951953614e-17 0.000000000000000e+00
					5.473862097252414e-01 3.979021973021801e-17 0.000000000000000e+00
					5.468322228330691e-01 1.346306048626208e-01 0.000000000000000e+00
					5.000000000000000e-01 3.469446951953614e-17 0.000000000000000e+00
					5.000000000000000e-01 1.250000000000001e-01 0.000000000000000e+00
					5.468322228330691e-01 1.346306048626208e-01 0.000000000000000e+00
					5.451702621565517e-01 2.692612097252415e-01 0.000000000000000e+00
					5.000000000000000e-01 1.250000000000001e-01 0.000000000000000e+00
					5.000000000000000e-01 2.500000000000001e-01 0.000000000000000e+00
					5.451702621565517e-01 2.692612097252415e-01 0.000000000000000e+00
					5.424003276956897e-01 4.038918145878622e-01 0.000000000000000e+00
					5.000000000000000e-01 2.500000000000001e-01 0.000000000000000e+00
					5.000000000000000e-01 3.750000000000000e-01 0.000000000000000e+00
					5.424003276956897e-01 4.038918145878622e-01 0.000000000000000e+00
					5.385224194504830e-01 5.385224194504830e-01 0.000000000000000e+00
					5.000000000000000e-01 3.750000000000000e-01 0.000000000000000e+00
					5.000000000000000e-01 5.000000000000000e-01 0.000000000000000e+00
				</DataArray>
			</Points>
			<Cells>
				<DataArray Name="connectivity" type="UInt32" format="ascii">
					0 1 3 2 4 5 7 6 8 9 11 10 12 13 15 14 16 17 19 18 20 21 23 22 24 25 27 26 28 29 31 30 32 33 35 34 36 37 39 38 40 41 43 42 44 45 47 46 48 49 51 50 52 53 55 54 56 57 59 58 60 61 63 62 64 65 67 66 68 69 71 70 72 73 75 74 76 77 79 78 80 81 83 82 84 85 87 86 88 89 91 90 92 93 95 94 96 97 99 98 100 101 103 102 104 105 107 106 108 109 111 110 112 113 115 114 116 117 119 118 120 121 123 122 124 125 127 126 128 129 131 130 132 133 135 134 136 137 139 138 140 141 143 142 144 145 147 146 148 149 151 150 152 153 155 154 156 157 159 158 160 161 163 162 164 165 167 166 168 169 171 170 172 173 175 174 176 177 179 178 180 181 183 182 184 185 187 186 188 189 191 190 192 193 195 194 196 197 199 198 200 201 203 202 204 205 207 206 208 209 211 210 212 213 215 214 216 217 219 218 220 221 223 222 224 225 227 226 228 229 231 230 232 233 235 234 236 237 239 238 240 241 243 242 244 245 247 246 248 249 251 250 252 253 255 254 
				</DataArray>
				<DataArray Name="offsets" type="UInt32" format="ascii">
					4 8 12 16 20 24 28 32 36 40 44 48 52 56 60 64 68 72 76 80 84 88 92 96 100 104 108 112 116 120 124 128 132 136 140 144 148 152 156 160 164 168 172 176 180 184 188 192 196 200 204 208 212 216 220 224 228 232 236 240 244 248 252 256 
				</DataArray>
				<DataArray Name="types" type="UInt8" format="ascii">
					9 9 9 9 9 9 9 9 9 9 9 9 9 9 9 9 9 9 9 9 9 9 9 9 9 9 9 9 9 9 9 9 9 9 9 9 9 9 9 9 9 9 9 9 9 9 9 9 9 9 9 9 9 9 9 9 9 9 9 9 9 9 9 9 
				</DataArray>
			</Cells>
			<PointData Vectors="solution ">
				<DataArray Name="solution" type="Float64" NumberOfComponents="1" format="ascii">
					0.000000000000000e+00 0.000000000000000e+00 1.472038593990066e-02 -5.677536869890925e-03 0.000000000000000e+00 0.000000000000000e+00 -5.677536869890924e-03 2.229469276804297e-02 0.000000000000000e+00 0.000000000000000e+00 2.229469276804297e-02 8.489954299138415e-02 0.000000000000000e+00 0.000000000000000e+00 8.489954299138415e-02 1.770172836412560e-01 0.000000000000000e+00 0.000000000000000e+00 1.770172836412560e-01 2.576220412406469e-01 0.000000000000000e+00 0.000000000000000e+00 2.576220412406469e-01 2.815101710099579e-01 0.000000000000000e+00 0.000000000000000e+00 2.815101710099579e-01 2.429357186045283e-01 0.000000000000000e+00 0.000000000000000e+00 2.429357186045283e-01 1.677199372186295e-01 1.472038593990066e-02 -5.677536869890925e-03 -6.490445665304313e-02 1.250504855394930e-01 -5.677536869890923e-03 2.229469276804297e-02 1.250504855394931e-01 4.284875346164767e-01 2.229469276804297e-02 8.489954299138416e-02 4.284875346164767e-01 9.524374529771512e-01 8.489954299138416e-02 1.770172836412560e-01 9.524374529771512e-01 1.654733922426066e+00 1.770172836412560e-01 2.576220412406469e-01 1.654733922426066e+00 2.334334744747793e+00 2.576220412406469e-01 2.815101710099580e-01 2.334334744747793e+00 2.696714104019927e+00 2.815101710099580e-01 2.429357186045283e-01 2.696714104019927e+00 2.522000463533653e+00 2.429357186045283e-01 1.677199372186295e-01 2.522000463533653e+00 1.803380800671424e+00 -6.490445665304313e-02 1.250504855394930e-01 1.734527223603204e-01 6.348114935491220e-01 1.250504855394931e-01 4.284875346164767e-01 6.348114935491220e-01 1.605103258151160e+00 4.284875346164767e-01 9.524374529771513e-01 1.605103258151160e+00 3.153065378688698e+00 9.524374529771513e-01 1.654733922426066e+00 3.153065378688698e+00 5.115147940644643e+00 1.654733922426066e+00 2.334334744747793e+00 5.115147940644643e+00 6.985798035774897e+00 2.334334744747793e+00 2.696714104019927e+00 6.985798035774897e+00 8.030554937872871e+00 2.696714104019927e+00 2.522000463533653e+00 8.030554937872871e+00 7.640492693097973e+00 2.522000463533653e+00 1.803380800671425e+00 7.640492693097973e+00 5.812428436697719e+00 1.734527223603204e-01 6.348114935491220e-01 5.283996676328078e-01 1.570488567900963e+00 6.348114935491220e-01 1.605103258151160e+00 1.570488567900963e+00 3.491778526760314e+00 1.605103258151160e+00 3.153065378688698e+00 3.491778526760314e+00 6.350894687783292e+00 3.153065378688698e+00 5.115147940644643e+00 6.350894687783292e+00 9.812349088395239e+00 5.115147940644643e+00 6.985798035774897e+00 9.812349088395239e+00 1.303959954906141e+01 6.985798035774897e+00 8.030554937872871e+00 1.303959954906141e+01 1.488148979850045e+01 8.030554937872871e+00 7.640492693097974e+00 1.488148979850045e+01 1.438025153611761e+01 7.640492693097974e+00 5.812428436697719e+00 1.438025153611761e+01 1.134283927981025e+01 5.283996676328078e-01 1.570488567900963e+00 1.099886849176080e+00 2.851485295978948e+00 1.570488567900963e+00 3.491778526760314e+00 2.851485295978949e+00 5.735552911194297e+00 3.491778526760314e+00 6.350894687783292e+00 5.735552911194297e+00 9.787452301482094e+00 6.350894687783292e+00 9.812349088395239e+00 9.787452301482094e+00 1.450998049555608e+01 9.812349088395239e+00 1.303959954906141e+01 1.450998049555608e+01 1.885438625072285e+01 1.303959954906141e+01 1.488148979850045e+01 1.885438625072285e+01 2.144182774559113e+01 1.488148979850045e+01 1.438025153611761e+01 2.144182774559113e+01 2.109755219349555e+01 1.438025153611761e+01 1.134283927981025e+01 2.109755219349555e+01 1.761967217992950e+01 1.099886849176080e+00 2.851485295978948e+00 1.975552299481683e+00 4.297803990454696e+00 2.851485295978949e+00 5.735552911194297e+00 4.297803990454696e+00 7.959849766298913e+00 5.735552911194297e+00 9.787452301482094e+00 7.959849766298913e+00 1.284009586597018e+01 9.787452301482094e+00 1.450998049555608e+01 1.284009586597018e+01 1.835890384012790e+01 1.450998049555608e+01 1.885438625072285e+01 1.835890384012790e+01 2.341900093257433e+01 1.885438625072285e+01 2.144182774559113e+01 2.341900093257433e+01 2.662037396132730e+01 2.144182774559113e+01 2.109755219349555e+01 2.662037396132730e+01 2.672361199562834e+01 2.109755219349555e+01 1.761967217992950e+01 2.672361199562834e+01 2.322121074135756e+01 1.975552299481683e+00 4.297803990454696e+00 2.884700985386035e+00 5.748295786975602e+00 4.297803990454696e+00 7.959849766298913e+00 5.748295786975602e+00 9.908703351174029e+00 7.959849766298913e+00 1.284009586597018e+01 9.908703351174029e+00 1.521256173820987e+01 1.284009586597018e+01 1.835890384012790e+01 1.521256173820987e+01 2.107543986771162e+01 1.835890384012790e+01 2.341900093257433e+01 2.107543986771162e+01 2.647529811724482e+01 2.341900093257433e+01 2.662037396132730e+01 2.647529811724482e+01 3.013068258185821e+01 2.662037396132730e+01 2.672361199562834e+01 3.013068258185821e+01 3.085536612919484e+01 2.672361199562834e+01 2.322121074135756e+01 3.085536612919484e+01 2.804150652350372e+01 2.884700985386035e+00 5.748295786975602e+00 3.888287879510720e+00 7.068349578497714e+00 5.748295786975602e+00 9.908703351174029e+00 7.068349578497715e+00 1.145684820756611e+01 9.908703351174029e+00 1.521256173820987e+01 1.145684820756611e+01 1.686257501168438e+01 1.521256173820987e+01 2.107543986771162e+01 1.686257501168438e+01 2.273945374089056e+01 2.107543986771162e+01 2.647529811724482e+01 2.273945374089056e+01 2.820666699045277e+01 2.647529811724482e+01 3.013068258185821e+01 2.820666699045277e+01 3.217056965491509e+01 3.013068258185821e+01 3.085536612919484e+01 3.217056965491509e+01 3.355918538863312e+01 3.085536612919484e+01 2.804150652350372e+01 3.355918538863312e+01 3.169824338784416e+01 
				</DataArray>
			</PointData>
			<CellData>
			</CellData>
		</Piece>
	</UnstructuredGrid>
</VTKFile>