<?xml version="1.0"?>
<VTKFile type="UnstructuredGrid" byte_order="LittleEndian">
	<UnstructuredGrid>
		<Piece NumberOfPoints="64" NumberOfCells="16">
			<Points>
				<DataArray type="Float64" NumberOfComponents="3" format="ascii">
					-1.000000000000000e+00 -1.000000000000000e+00 0.000000000000000e+00
					-8.338955762008279e-01 -8.338955762008279e-01 0.000000000000000e+00
					-1.375000000000000e+00 -5.000000000000000e-01 0.000000000000000e+00
					-1.046184735125518e+00 -4.169477881004139e-01 0.000000000000000e+00
					-8.338955762008279e-01 -8.338955762008279e-01 0.000000000000000e+00
					-6.951941016011038e-01 -6.951941016011038e-01 0.000000000000000e+00
					-1.046184735125518e+00 -4.169477881004139e-01 0.000000000000000e+00
					-7.907463135006899e-01 -3.475970508005519e-01 0.000000000000000e+00
					-6.951941016011038e-01 -6.951941016011038e-01 0.000000000000000e+00
					-5.838955762008279e-01 -5.838955762008279e-01 0.000000000000000e+00
					-7.907463135006899e-01 -3.475970508005519e-01 0.000000000000000e+00
					-6.086847351255174e-01 -2.919477881004139e-01 0.000000000000000e+00
					-5.838955762008279e-01 -5.838955762008279e-01 0.000000000000000e+00
					-5.000000000000000e-01 -5.000000000000000e-01 0.000000000000000e+00
					-6.086847351255174e-01 -2.919477881004139e-01 0.000000000000000e+00
					-5.000000000000000e-01 -2.500000000000000e-01 0.000000000000000e+00
					-1.375000000000000e+00 -5.000000000000000e-01 0.000000000000000e+00
					-1.046184735125518e+00 -4.169477881004139e-01 0.000000000000000e+00
					-1.500000000000000e+00 1.387778780781446e-17 0.000000000000000e+00
					-1.116947788100414e+00 2.081668171172169e-17 0.000000000000000e+00
					-1.046184735125518e+00 -4.169477881004139e-01 0.000000000000000e+00
					-7.907463135006899e-01 -3.475970508005519e-01 0.000000000000000e+00
					-1.116947788100414e+00 2.081668171172169e-17 0.000000000000000e+00
					-8.225970508005519e-01 0.000000000000000e+00 0.000000000000000e+00
					-7.907463135006899e-01 -3.475970508005519e-01 0.000000000000000e+00
					-6.086847351255174e-01 -2.919477881004139e-01 0.000000000000000e+00
					-8.225970508005519e-01 0.000000000000000e+00 0.000000000000000e+00
					-6.169477881004140e-01 1.387778780781446e-17 0.000000000000000e+00
					-6.086847351255174e-01 -2.919477881004139e-01 0.000000000000000e+00
					-5.000000000000000e-01 -2.500000000000000e-01 0.000000000000000e+00
					-6.169477881004140e-01 1.387778780781446e-17 0.000000000000000e+00
					-5.000000000000000e-01 6.938893903907228e-18 0.000000000000000e+00
					-1.500000000000000e+00 1.387778780781446e-17 0.000000000000000e+00
					-1.116947788100414e+00 2.081668171172169e-17 0.000000000000000e+00
					-1.375000000000000e+00 5.000000000000000e-01 0.000000000000000e+00
					-1.046184735125518e+00 4.169477881004140e-01 0.000000000000000e+00
					-1.116947788100414e+00 2.081668171172169e-17 0.000000000000000e+00
					-8.225970508005519e-01 0.000000000000000e+00 0.000000000000000e+00
					-1.046184735125518e+00 4.169477881004140e-01 0.000000000000000e+00
					-7.907463135006899e-01 3.475970508005519e-01 0.000000000000000e+00
					-8.225970508005519e-01 0.000000000000000e+00 0.000000000000000e+00
					-6.169477881004140e-01 1.387778780781446e-17 0.000000000000000e+00
					-7.907463135006899e-01 3.475970508005519e-01 0.000000000000000e+00
					-6.086847351255174e-01 2.919477881004139e-01 0.000000000000000e+00
					-6.169477881004140e-01 1.387778780781446e-17 0.000000000000000e+00
					-5.000000000000000e-01 6.938893903907228e-18 0.000000000000000e+00
					-6.086847351255174e-01 2.919477881004139e-01 0.000000000000000e+00
					-5.000000000000000e-01 2.500000000000000e-01 0.000000000000000e+00
					-1.375000000000000e+00 5.000000000000000e-01 0.000000000000000e+00
					-1.046184735125518e+00 4.169477881004140e-01 0.000000000000000e+00
					-1.000000000000000e+00 1.000000000000000e+00 0.000000000000000e+00
					-8.338955762008279e-01 8.338955762008279e-01 0.000000000000000e+00
					-1.046184735125518e+00 4.169477881004140e-01 0.000000000000000e+00
					-7.907463135006899e-01 3.475970508005519e-01 0.000000000000000e+00
					-8.338955762008279e-01 8.338955762008279e-01 0.000000000000000e+00
					-6.951941016011038e-01 6.951941016011038e-01 0.000000000000000e+00
					-7.907463135006899e-01 3.475970508005519e-01 0.000000000000000e+00
					-6.086847351255174e-01 2.919477881004139e-01 0.000000000000000e+00
					-6.951941016011038e-01 6.951941016011038e-01 0.000000000000000e+00
					-5.838955762008279e-01 5.838955762008279e-01 0.000000000000000e+00
					-6.086847351255174e-01 2.919477881004139e-01 0.000000000000000e+00
					-5.000000000000000e-01 2.500000000000000e-01 0.000000000000000e+00
					-5.838955762008279e-01 5.838955762008279e-01 0.000000000000000e+00
					-5.000000000000000e-01 5.000000000000000e-01 0.000000000000000e+00
				</DataArray>
			</Points>
			<Cells>
				<DataArray Name="connectivity" type="UInt32" format="ascii">
					0 1 3 2 4 5 7 6 8 9 11 10 12 13 15 14 16 17 19 18 20 21 23 22 24 25 27 26 28 29 31 30 32 33 35 34 36 37 39 38 40 41 43 42 44 45 47 46 48 49 51 50 52 53 55 54 56 57 59 58 60 61 63 62 
				</DataArray>
				<DataArray Name="offsets" type="UInt32" format="ascii">
					4 8 12 16 20 24 28 32 36 40 44 48 52 56 60 64 
				</DataArray>
				<DataArray Name="types" type="UInt8" format="ascii">
					9 9 9 9 9 9 9 9 9 9 9 9 9 9 9 9 
				</DataArray>
			</Cells>
			<PointData Vectors="solution ">
				<DataArray Name="solution" type="Float64" NumberOfComponents="1" format="ascii">
					0.000000000000000e+00 -2.456830992449954e-03 0.000000000000000e+00 7.174197930524011e-02 -2.456830992449959e-03 1.929901648743019e-01 7.174197930524012e-02 8.129612364821133e-01 1.929901648743020e-01 7.499106759139962e-01 8.129612364821136e-01 2.568448808301401e+00 7.499106759139962e-01 1.644153750224635e+00 2.568448808301401e+00 4.535873367825308e+00 0.000000000000000e+00 7.174197930524012e-02 0.000000000000000e+00 2.075557515984740e-01 7.174197930524015e-02 8.129612364821134e-01 2.075557515984740e-01 2.013433611827798e+00 8.129612364821136e-01 2.568448808301401e+00 2.013433611827798e+00 5.588363429588563e+00 2.568448808301401e+00 4.535873367825308e+00 5.588363429588564e+00 8.779598831586192e+00 0.000000000000000e+00 2.075557515984740e-01 0.000000000000000e+00 4.394132071132607e-01 2.075557515984740e-01 2.013433611827798e+00 4.394132071132608e-01 3.267396311578704e+00 2.013433611827799e+00 5.588363429588564e+00 3.267396311578705e+00 8.214243980583660e+00 5.588363429588565e+00 8.779598831586194e+00 8.214243980583664e+00 1.228115435232861e+01 0.000000000000000e+00 4.394132071132608e-01 0.000000000000000e+00 7.555915262263153e-01 4.394132071132609e-01 3.267396311578705e+00 7.555915262263156e-01 3.320861000524553e+00 3.267396311578706e+00 8.214243980583662e+00 3.320861000524553e+00 7.459078143563234e+00 8.214243980583664e+00 1.228115435232861e+01 7.459078143563235e+00 1.201397867141483e+01 
				</DataArray>
			</PointData>
			<CellData>
			</CellData>
		</Piece>
	</UnstructuredGrid>
</VTKFile>