<?xml version="1.0"?>
<VTKFile type="UnstructuredGrid" byte_order="LittleEndian">
	<UnstructuredGrid>
		<Piece NumberOfPoints="64" NumberOfCells="16">
			<Points>
				<DataArray type="Float64" NumberOfComponents="3" format="ascii">
					1.000000000000000e+00 -1.000000000000000e+00 0.000000000000000e+00
					1.375000000000000e+00 -5.000000000000000e-01 0.000000000000000e+00
					8.338955762008279e-01 -8.338955762008279e-01 0.000000000000000e+00
					1.046184735125517e+00 -4.169477881004139e-01 0.000000000000000e+00
					1.375000000000000e+00 -5.000000000000000e-01 0.000000000000000e+00
					1.500000000000000e+00 1.387778780781446e-17 0.000000000000000e+00
					1.046184735125517e+00 -4.169477881004139e-01 0.000000000000000e+00
					1.116947788100414e+00 6.938893903907228e-18 0.000000000000000e+00
					1.500000000000000e+00 1.387778780781446e-17 0.000000000000000e+00
					1.375000000000000e+00 5.000000000000000e-01 0.000000000000000e+00
					1.116947788100414e+00 6.938893903907228e-18 0.000000000000000e+00
					1.046184735125518e+00 4.169477881004139e-01 0.000000000000000e+00
					1.375000000000000e+00 5.000000000000000e-01 0.000000000000000e+00
					1.000000000000000e+00 1.000000000000000e+00 0.000000000000000e+00
					1.046184735125518e+00 4.169477881004139e-01 0.000000000000000e+00
					8.338955762008279e-01 8.338955762008279e-01 0.000000000000000e+00
					8.338955762008279e-01 -8.338955762008279e-01 0.000000000000000e+00
					1.046184735125517e+00 -4.169477881004139e-01 0.000000000000000e+00
					6.951941016011038e-01 -6.951941016011038e-01 0.000000000000000e+00
					7.907463135006900e-01 -3.475970508005519e-01 0.000000000000000e+00
					1.046184735125517e+00 -4.169477881004139e-01 0.000000000000000e+00
					1.116947788100414e+00 6.938893903907228e-18 0.000000000000000e+00
					7.907463135006900e-01 -3.475970508005519e-01 0.000000000000000e+00
					8.225970508005519e-01 0.000000000000000e+00 0.000000000000000e+00
					1.116947788100414e+00 6.938893903907228e-18 0.000000000000000e+00
					1.046184735125518e+00 4.169477881004139e-01 0.000000000000000e+00
					8.225970508005519e-01 0.000000000000000e+00 0.000000000000000e+00
					7.907463135006899e-01 3.475970508005519e-01 0.000000000000000e+00
					1.046184735125518e+00 4.169477881004139e-01 0.000000000000000e+00
					8.338955762008279e-01 8.338955762008279e-01 0.000000000000000e+00
					7.907463135006899e-01 3.475970508005519e-01 0.000000000000000e+00
					6.951941016011038e-01 6.951941016011038e-01 0.000000000000000e+00
					6.951941016011038e-01 -6.951941016011038e-01 0.000000000000000e+00
					7.907463135006900e-01 -3.475970508005519e-01 0.000000000000000e+00
					5.838955762008279e-01 -5.838955762008279e-01 0.000000000000000e+00
					6.086847351255175e-01 -2.919477881004139e-01 0.000000000000000e+00
					7.907463135006900e-01 -3.475970508005519e-01 0.000000000000000e+00
					8.225970508005519e-01 0.000000000000000e+00 0.000000000000000e+00
					6.086847351255175e-01 -2.919477881004139e-01 0.000000000000000e+00
					6.169477881004140e-01 6.938893903907228e-18 0.000000000000000e+00
					8.225970508005519e-01 0.000000000000000e+00 0.000000000000000e+00
					7.907463135006899e-01 3.475970508005519e-01 0.000000000000000e+00
					6.169477881004140e-01 6.938893903907228e-18 0.000000000000000e+00
					6.086847351255174e-01 2.919477881004139e-01 0.000000000000000e+00
					7.907463135006899e-01 3.475970508005519e-01 0.000000000000000e+00
					6.951941016011038e-01 6.951941016011038e-01 0.000000000000000e+00
					6.086847351255174e-01 2.919477881004139e-01 0.000000000000000e+00
					5.838955762008279e-01 5.838955762008279e-01 0.000000000000000e+00
					5.838955762008279e-01 -5.838955762008279e-01 0.000000000000000e+00
					6.086847351255175e-01 -2.919477881004139e-01 0.000000000000000e+00
					5.000000000000000e-01 -5.000000000000000e-01 0.000000000000000e+00
					5.000000000000000e-01 -2.500000000000000e-01 0.000000000000000e+00
					6.086847351255175e-01 -2.919477881004139e-01 0.000000000000000e+00
					6.169477881004140e-01 6.938893903907228e-18 0.000000000000000e+00
					5.000000000000000e-01 -2.500000000000000e-01 0.000000000000000e+00
					5.000000000000000e-01 6.938893903907228e-18 0.000000000000000e+00
					6.169477881004140e-01 6.938893903907228e-18 0.000000000000000e+00
					6.086847351255174e-01 2.919477881004139e-01 0.000000000000000e+00
					5.000000000000000e-01 6.938893903907228e-18 0.000000000000000e+00
					5.000000000000000e-01 2.500000000000000e-01 0.000000000000000e+00
					6.086847351255174e-01 2.919477881004139e-01 0.000000000000000e+00
					5.838955762008279e-01 5.838955762008279e-01 0.000000000000000e+00
					5.000000000000000e-01 2.500000000000000e-01 0.000000000000000e+00
					5.000000000000000e-01 5.000000000000000e-01 0.000000000000000e+00
				</DataArray>
			</Points>
			<Cells>
				<DataArray Name="connectivity" type="UInt32" format="ascii">
					0 1 3 2 4 5 7 6 8 9 11 10 12 13 15 14 16 17 19 18 20 21 23 22 24 25 27 26 28 29 31 30 32 33 35 34 36 37 39 38 40 41 43 42 44 45 47 46 48 49 51 50 52 53 55 54 56 57 59 58 60 61 63 62 
				</DataArray>
				<DataArray Name="offsets" type="UInt32" format="ascii">
					4 8 12 16 20 24 28 32 36 40 44 48 52 56 60 64 
				</DataArray>
				<DataArray Name="types" type="UInt8" format="ascii">
					9 9 9 9 9 9 9 9 9 9 9 9 9 9 9 9 
				</DataArray>
			</Cells>
			<PointData Vectors="solution ">
				<DataArray Name="solution" type="Float64" NumberOfComponents="1" format="ascii">
					0.000000000000000e+00 0.000000000000000e+00 9.649418073835697e-02 5.706307194929674e-01 0.000000000000000e+00 0.000000000000000e+00 5.706307194929676e-01 1.959368271047054e+00 0.000000000000000e+00 0.000000000000000e+00 1.959368271047054e+00 3.183242454062778e+00 0.000000000000000e+00 0.000000000000000e+00 3.183242454062778e+00 3.957688044208822e+00 9.649418073835700e-02 5.706307194929676e-01 8.046087217462282e-01 3.859984734671918e+00 5.706307194929676e-01 1.959368271047054e+00 3.859984734671919e+00 1.037360856285645e+01 1.959368271047054e+00 3.183242454062778e+00 1.037360856285645e+01 1.561867329199228e+01 3.183242454062778e+00 3.957688044208822e+00 1.561867329199228e+01 1.318705081413832e+01 8.046087217462286e-01 3.859984734671919e+00 2.353850822349392e+00 8.582404135386737e+00 3.859984734671920e+00 1.037360856285645e+01 8.582404135386739e+00 1.920266928642508e+01 1.037360856285645e+01 1.561867329199228e+01 1.920266928642508e+01 2.764088932275052e+01 1.561867329199229e+01 1.318705081413832e+01 2.764088932275052e+01 2.393953928099324e+01 2.353850822349392e+00 8.582404135386737e+00 4.440109768382581e+00 1.223739337203754e+01 8.582404135386739e+00 1.920266928642508e+01 1.223739337203754e+01 2.376642018544297e+01 1.920266928642509e+01 2.764088932275052e+01 2.376642018544297e+01 3.329714637345524e+01 2.764088932275053e+01 2.393953928099325e+01 3.329714637345524e+01 3.274586012000773e+01 
				</DataArray>
			</PointData>
			<CellData>
			</CellData>
		</Piece>
	</UnstructuredGrid>
</VTKFile>