<?xml version="1.0"?>
<VTKFile type="UnstructuredGrid" byte_order="LittleEndian">
	<UnstructuredGrid>
		<Piece NumberOfPoints="256" NumberOfCells="64">
			<Points>
				<DataArray type="Float64" NumberOfComponents="3" format="ascii">
					-1.000000000000000e+00 0.000000000000000e+00 0.000000000000000e+00
					-8.749999999794923e-01 0.000000000000000e+00 0.000000000000000e+00
					-1.000000000000000e+00 1.249999999876953e-01 0.000000000000000e+00
					-8.727371215615477e-01 1.249999999876954e-01 0.000000000000000e+00
					-8.749999999794923e-01 0.000000000000000e+00 0.000000000000000e+00
					-7.499999999671876e-01 0.000000000000000e+00 0.000000000000000e+00
					-8.727371215615477e-01 1.249999999876954e-01 0.000000000000000e+00
					-7.411254882486300e-01 1.249999999876954e-01 0.000000000000000e+00
					-7.499999999671876e-01 0.000000000000000e+00 0.000000000000000e+00
					-6.249999999619140e-01 0.000000000000000e+00 0.000000000000000e+00
					-7.411254882486300e-01 1.249999999876954e-01 0.000000000000000e+00
					-6.054306029899068e-01 1.249999999876954e-01 0.000000000000000e+00
					-6.249999999619140e-01 0.000000000000000e+00 0.000000000000000e+00
					-4.999999999624999e-01 0.000000000000000e+00 0.000000000000000e+00
					-6.054306029899068e-01 1.249999999876954e-01 0.000000000000000e+00
					-4.659179687140381e-01 1.249999999876954e-01 0.000000000000000e+00
					-4.999999999624999e-01 0.000000000000000e+00 0.000000000000000e+00
					-3.749999999677734e-01 0.000000000000000e+00 0.000000000000000e+00
					-4.659179687140381e-01 1.249999999876954e-01 0.000000000000000e+00
					-3.228530883496838e-01 1.249999999876954e-01 0.000000000000000e+00
					-3.749999999677734e-01 0.000000000000000e+00 0.000000000000000e+00
					-2.499999999765625e-01 0.000000000000000e+00 0.000000000000000e+00
					-3.228530883496838e-01 1.249999999876954e-01 0.000000000000000e+00
					-1.765014648255036e-01 1.249999999876953e-01 0.000000000000000e+00
					-2.499999999765625e-01 0.000000000000000e+00 0.000000000000000e+00
					-1.249999999876953e-01 0.000000000000000e+00 0.000000000000000e+00
					-1.765014648255036e-01 1.249999999876953e-01 0.000000000000000e+00
					-2.712860107015722e-02 1.249999999876953e-01 0.000000000000000e+00
					-1.249999999876953e-01 0.000000000000000e+00 0.000000000000000e+00
					0.000000000000000e+00 0.000000000000000e+00 0.000000000000000e+00
					-2.712860107015722e-02 1.249999999876953e-01 0.000000000000000e+00
					1.249999999876953e-01 1.249999999876953e-01 0.000000000000000e+00
					-1.000000000000000e+00 1.249999999876953e-01 0.000000000000000e+00
					-8.727371215615477e-01 1.249999999876954e-01 0.000000000000000e+00
					-1.000000000000000e+00 2.499999999765626e-01 0.000000000000000e+00
					-8.722045898232883e-01 2.499999999765626e-01 0.000000000000000e+00
					-8.727371215615477e-01 1.249999999876954e-01 0.000000000000000e+00
					-7.411254882486300e-01 1.249999999876954e-01 0.000000000000000e+00
					-8.722045898232883e-01 2.499999999765626e-01 0.000000000000000e+00
					-7.381835937175539e-01 2.499999999765626e-01 0.000000000000000e+00
					-7.411254882486300e-01 1.249999999876954e-01 0.000000000000000e+00
					-6.054306029899068e-01 1.249999999876954e-01 0.000000000000000e+00
					-7.381835937175539e-01 2.499999999765626e-01 0.000000000000000e+00
					-5.969848632444003e-01 2.499999999765626e-01 0.000000000000000e+00
					-6.054306029899068e-01 1.249999999876954e-01 0.000000000000000e+00
					-4.659179687140381e-01 1.249999999876954e-01 0.000000000000000e+00
					-5.969848632444003e-01 2.499999999765626e-01 0.000000000000000e+00
					-4.476562499654299e-01 2.499999999765626e-01 0.000000000000000e+00
					-4.659179687140381e-01 1.249999999876954e-01 0.000000000000000e+00
					-3.228530883496838e-01 1.249999999876954e-01 0.000000000000000e+00
					-4.476562499654299e-01 2.499999999765626e-01 0.000000000000000e+00
					-2.892456054422456e-01 2.499999999765626e-01 0.000000000000000e+00
					-3.228530883496838e-01 1.249999999876954e-01 0.000000000000000e+00
					-1.765014648255036e-01 1.249999999876953e-01 0.000000000000000e+00
					-2.892456054422456e-01 2.499999999765626e-01 0.000000000000000e+00
					-1.208007812364502e-01 2.499999999765625e-01 0.000000000000000e+00
					-1.765014648255036e-01 1.249999999876953e-01 0.000000000000000e+00
					-2.712860107015722e-02 1.249999999876953e-01 0.000000000000000e+00
					-1.208007812364502e-01 2.499999999765625e-01 0.000000000000000e+00
					5.863037109035342e-02 2.499999999765625e-01 0.000000000000000e+00
					-2.712860107015722e-02 1.249999999876953e-01 0.000000000000000e+00
					1.249999999876953e-01 1.249999999876953e-01 0.000000000000000e+00
					5.863037109035342e-02 2.499999999765625e-01 0.000000000000000e+00
					2.499999999765626e-01 2.499999999765626e-01 0.000000000000000e+00
					-1.000000000000000e+00 2.499999999765626e-01 0.000000000000000e+00
					-8.722045898232883e-01 2.499999999765626e-01 0.000000000000000e+00
					-1.000000000000000e+00 3.749999999677735e-01 0.000000000000000e+00
					-8.728256225381491e-01 3.749999999677737e-01 0.000000000000000e+00
					-8.722045898232883e-01 2.499999999765626e-01 0.000000000000000e+00
					-7.381835937175539e-01 2.499999999765626e-01 0.000000000000000e+00
					-8.728256225381491e-01 3.749999999677737e-01 0.000000000000000e+00
					-7.391967773114412e-01 3.749999999677737e-01 0.000000000000000e+00
					-7.381835937175539e-01 2.499999999765626e-01 0.000000000000000e+00
					-5.969848632444003e-01 2.499999999765626e-01 0.000000000000000e+00
					-7.391967773114412e-01 3.749999999677737e-01 0.000000000000000e+00
					-5.959548949831450e-01 3.749999999677737e-01 0.000000000000000e+00
					-5.969848632444003e-01 2.499999999765626e-01 0.000000000000000e+00
					-4.476562499654299e-01 2.499999999765626e-01 0.000000000000000e+00
					-5.959548949831450e-01 3.749999999677737e-01 0.000000000000000e+00
					-4.399414062165284e-01 3.749999999677737e-01 0.000000000000000e+00
					-4.476562499654299e-01 2.499999999765626e-01 0.000000000000000e+00
					-2.892456054422456e-01 2.499999999765626e-01 0.000000000000000e+00
					-4.399414062165284e-01 3.749999999677737e-01 0.000000000000000e+00
					-2.679977416748601e-01 3.749999999677737e-01 0.000000000000000e+00
					-2.892456054422456e-01 2.499999999765626e-01 0.000000000000000e+00
					-1.208007812364502e-01 2.499999999765625e-01 0.000000000000000e+00
					-2.679977416748601e-01 3.749999999677737e-01 0.000000000000000e+00
					-7.696533202140812e-02 3.749999999677735e-01 0.000000000000000e+00
					-1.208007812364502e-01 2.499999999765625e-01 0.000000000000000e+00
					5.863037109035342e-02 2.499999999765625e-01 0.000000000000000e+00
					-7.696533202140812e-02 3.749999999677735e-01 0.000000000000000e+00
					1.363143920805592e-01 3.749999999677735e-01 0.000000000000000e+00
					5.863037109035342e-02 2.499999999765625e-01 0.000000000000000e+00
					2.499999999765626e-01 2.499999999765626e-01 0.000000000000000e+00
					1.363143920805592e-01 3.749999999677735e-01 0.000000000000000e+00
					3.749999999677735e-01 3.749999999677735e-01 0.000000000000000e+00
					-1.000000000000000e+00 3.749999999677735e-01 0.000000000000000e+00
					-8.728256225381491e-01 3.749999999677737e-01 0.000000000000000e+00
					-1.000000000000000e+00 4.999999999625001e-01 0.000000000000000e+00
					-8.740234374795657e-01 4.999999999625002e-01 0.000000000000000e+00
					-8.728256225381491e-01 3.749999999677737e-01 0.000000000000000e+00
					-7.391967773114412e-01 3.749999999677737e-01 0.000000000000000e+00
					-8.740234374795657e-01 4.999999999625002e-01 0.000000000000000e+00
					-7.421874999677737e-01 4.999999999625003e-01 0.000000000000000e+00
					-7.391967773114412e-01 3.749999999677737e-01 0.000000000000000e+00
					-5.959548949831450e-01 3.749999999677737e-01 0.000000000000000e+00
					-7.421874999677737e-01 4.999999999625003e-01 0.000000000000000e+00
					-5.986328124638918e-01 4.999999999625002e-01 0.000000000000000e+00
					-5.959548949831450e-01 3.749999999677737e-01 0.000000000000000e+00
					-4.399414062165284e-01 3.749999999677737e-01 0.000000000000000e+00
					-5.986328124638918e-01 4.999999999625002e-01 0.000000000000000e+00
					-4.374999999671877e-01 4.999999999625002e-01 0.000000000000000e+00
					-4.399414062165284e-01 3.749999999677737e-01 0.000000000000000e+00
					-2.679977416748601e-01 3.749999999677737e-01 0.000000000000000e+00
					-4.374999999671877e-01 4.999999999625002e-01 0.000000000000000e+00
					-2.529296874769288e-01 4.999999999625002e-01 0.000000000000000e+00
					-2.679977416748601e-01 3.749999999677737e-01 0.000000000000000e+00
					-7.696533202140812e-02 3.749999999677735e-01 0.000000000000000e+00
					-2.529296874769288e-01 4.999999999625002e-01 0.000000000000000e+00
					-3.906249999238283e-02 4.999999999625001e-01 0.000000000000000e+00
					-7.696533202140812e-02 3.749999999677735e-01 0.000000000000000e+00
					1.363143920805592e-01 3.749999999677735e-01 0.000000000000000e+00
					-3.906249999238283e-02 4.999999999625001e-01 0.000000000000000e+00
					2.099609374871826e-01 4.999999999625001e-01 0.000000000000000e+00
					1.363143920805592e-01 3.749999999677735e-01 0.000000000000000e+00
					3.749999999677735e-01 3.749999999677735e-01 0.000000000000000e+00
					2.099609374871826e-01 4.999999999625001e-01 0.000000000000000e+00
					4.999999999625001e-01 4.999999999625001e-01 0.000000000000000e+00
					-1.000000000000000e+00 4.999999999625001e-01 0.000000000000000e+00
					-8.740234374795657e-01 4.999999999625002e-01 0.000000000000000e+00
					-1.000000000000000e+00 6.249999999619140e-01 0.000000000000000e+00
					-8.752212524209730e-01 6.249999999619144e-01 0.000000000000000e+00
					-8.740234374795657e-01 4.999999999625002e-01 0.000000000000000e+00
					-7.421874999677737e-01 4.999999999625003e-01 0.000000000000000e+00
					-8.752212524209730e-01 6.249999999619144e-01 0.000000000000000e+00
					-7.451782226240327e-01 6.249999999619145e-01 0.000000000000000e+00
					-7.421874999677737e-01 4.999999999625003e-01 0.000000000000000e+00
					-5.986328124638918e-01 4.999999999625002e-01 0.000000000000000e+00
					-7.451782226240327e-01 6.249999999619145e-01 0.000000000000000e+00
					-6.013107299443914e-01 6.249999999619145e-01 0.000000000000000e+00
					-5.986328124638918e-01 4.999999999625002e-01 0.000000000000000e+00
					-4.374999999671877e-01 4.999999999625002e-01 0.000000000000000e+00
					-6.013107299443914e-01 6.249999999619145e-01 0.000000000000000e+00
					-4.350585937172609e-01 6.249999999619142e-01 0.000000000000000e+00
					-4.374999999671877e-01 4.999999999625002e-01 0.000000000000000e+00
					-2.529296874769288e-01 4.999999999625002e-01 0.000000000000000e+00
					-4.350585937172609e-01 6.249999999619142e-01 0.000000000000000e+00
					-2.378616332778531e-01 6.249999999619141e-01 0.000000000000000e+00
					-2.529296874769288e-01 4.999999999625002e-01 0.000000000000000e+00
					-3.906249999238283e-02 4.999999999625001e-01 0.000000000000000e+00
					-2.378616332778531e-01 6.249999999619141e-01 0.000000000000000e+00
					-1.159667961380013e-03 6.249999999619140e-01 0.000000000000000e+00
					-3.906249999238283e-02 4.999999999625001e-01 0.000000000000000e+00
					2.099609374871826e-01 4.999999999625001e-01 0.000000000000000e+00
					-1.159667961380013e-03 6.249999999619140e-01 0.000000000000000e+00
					2.836074828969463e-01 6.249999999619140e-01 0.000000000000000e+00
					2.099609374871826e-01 4.999999999625001e-01 0.000000000000000e+00
					4.999999999625001e-01 4.999999999625001e-01 0.000000000000000e+00
					2.836074828969463e-01 6.249999999619140e-01 0.000000000000000e+00
					6.249999999619140e-01 6.249999999619140e-01 0.000000000000000e+00
					-1.000000000000000e+00 6.249999999619140e-01 0.000000000000000e+00
					-8.752212524209730e-01 6.249999999619144e-01 0.000000000000000e+00
					-1.000000000000000e+00 7.499999999671875e-01 0.000000000000000e+00
					-8.758422851358064e-01 7.499999999671876e-01 0.000000000000000e+00
					-8.752212524209730e-01 6.249999999619144e-01 0.000000000000000e+00
					-7.451782226240327e-01 6.249999999619145e-01 0.000000000000000e+00
					-8.758422851358064e-01 7.499999999671876e-01 0.000000000000000e+00
					-7.461914062177003e-01 7.499999999671877e-01 0.000000000000000e+00
					-7.451782226240327e-01 6.249999999619145e-01 0.000000000000000e+00
					-6.013107299443914e-01 6.249999999619145e-01 0.000000000000000e+00
					-7.461914062177003e-01 7.499999999671877e-01 0.000000000000000e+00
					-6.002807616823945e-01 7.499999999671877e-01 0.000000000000000e+00
					-6.013107299443914e-01 6.249999999619145e-01 0.000000000000000e+00
					-4.350585937172609e-01 6.249999999619142e-01 0.000000000000000e+00
					-6.002807616823945e-01 7.499999999671877e-01 0.000000000000000e+00
					-4.273437499666016e-01 7.499999999671876e-01 0.000000000000000e+00
					-4.350585937172609e-01 6.249999999619142e-01 0.000000000000000e+00
					-2.378616332778531e-01 6.249999999619141e-01 0.000000000000000e+00
					-4.273437499666016e-01 7.499999999671876e-01 0.000000000000000e+00
					-2.166137695070343e-01 7.499999999671876e-01 0.000000000000000e+00
					-2.378616332778531e-01 6.249999999619141e-01 0.000000000000000e+00
					-1.159667961380013e-03 6.249999999619140e-01 0.000000000000000e+00
					-2.166137695070343e-01 7.499999999671876e-01 0.000000000000000e+00
					4.267578125959473e-02 7.499999999671874e-01 0.000000000000000e+00
					-1.159667961380013e-03 6.249999999619140e-01 0.000000000000000e+00
					2.836074828969463e-01 6.249999999619140e-01 0.000000000000000e+00
					4.267578125959473e-02 7.499999999671874e-01 0.000000000000000e+00
					3.612915038965728e-01 7.499999999671874e-01 0.000000000000000e+00
					2.836074828969463e-01 6.249999999619140e-01 0.000000000000000e+00
					6.249999999619140e-01 6.249999999619140e-01 0.000000000000000e+00
					3.612915038965728e-01 7.499999999671874e-01 0.000000000000000e+00
					7.499999999671875e-01 7.499999999671875e-01 0.000000000000000e+00
					-1.000000000000000e+00 7.499999999671875e-01 0.000000000000000e+00
					-8.758422851358064e-01 7.499999999671876e-01 0.000000000000000e+00
					-1.000000000000000e+00 8.749999999794922e-01 0.000000000000000e+00
					-8.753097533975012e-01 8.749999999794923e-01 0.000000000000000e+00
					-8.758422851358064e-01 7.499999999671876e-01 0.000000000000000e+00
					-7.461914062177003e-01 7.499999999671877e-01 0.000000000000000e+00
					-8.753097533975012e-01 8.749999999794923e-01 0.000000000000000e+00
					-7.432495116862581e-01 8.749999999794923e-01 0.000000000000000e+00
					-7.461914062177003e-01 7.499999999671877e-01 0.000000000000000e+00
					-6.002807616823945e-01 7.499999999671877e-01 0.000000000000000e+00
					-7.432495116862581e-01 8.749999999794923e-01 0.000000000000000e+00
					-5.918350219356517e-01 8.749999999794923e-01 0.000000000000000e+00
					-6.002807616823945e-01 7.499999999671877e-01 0.000000000000000e+00
					-4.273437499666016e-01 7.499999999671876e-01 0.000000000000000e+00
					-5.918350219356517e-01 8.749999999794923e-01 0.000000000000000e+00
					-4.090820312150635e-01 8.749999999794922e-01 0.000000000000000e+00
					-4.273437499666016e-01 7.499999999671876e-01 0.000000000000000e+00
					-2.166137695070343e-01 7.499999999671876e-01 0.000000000000000e+00
					-4.090820312150635e-01 8.749999999794922e-01 0.000000000000000e+00
					-1.830062865938740e-01 8.749999999794922e-01 0.000000000000000e+00
					-2.166137695070343e-01 7.499999999671876e-01 0.000000000000000e+00
					4.267578125959473e-02 7.499999999671874e-01 0.000000000000000e+00
					-1.830062865938740e-01 8.749999999794922e-01 0.000000000000000e+00
					9.837646485853577e-02 8.749999999794922e-01 0.000000000000000e+00
					4.267578125959473e-02 7.499999999671874e-01 0.000000000000000e+00
					3.612915038965728e-01 7.499999999671874e-01 0.000000000000000e+00
					9.837646485853577e-02 8.749999999794922e-01 0.000000000000000e+00
					4.470504760727847e-01 8.749999999794922e-01 0.000000000000000e+00
					3.612915038965728e-01 7.499999999671874e-01 0.000000000000000e+00
					7.499999999671875e-01 7.499999999671875e-01 0.000000000000000e+00
					4.470504760727847e-01 8.749999999794922e-01 0.000000000000000e+00
					8.749999999794922e-01 8.749999999794922e-01 0.000000000000000e+00
					-1.000000000000000e+00 8.749999999794922e-01 0.000000000000000e+00
					-8.753097533975012e-01 8.749999999794923e-01 0.000000000000000e+00
					-1.000000000000000e+00 1.000000000000000e+00 0.000000000000000e+00
					-8.730468749794923e-01 1.000000000000000e+00 0.000000000000000e+00
					-8.753097533975012e-01 8.749999999794923e-01 0.000000000000000e+00
					-7.432495116862581e-01 8.749999999794923e-01 0.000000000000000e+00
					-8.730468749794923e-01 1.000000000000000e+00 0.000000000000000e+00
					-7.343749999671876e-01 1.000000000000000e+00 0.000000000000000e+00
					-7.432495116862581e-01 8.749999999794923e-01 0.000000000000000e+00
					-5.918350219356517e-01 8.749999999794923e-01 0.000000000000000e+00
					-7.343749999671876e-01 1.000000000000000e+00 0.000000000000000e+00
					-5.722656249619140e-01 1.000000000000000e+00 0.000000000000000e+00
					-5.918350219356517e-01 8.749999999794923e-01 0.000000000000000e+00
					-4.090820312150635e-01 8.749999999794922e-01 0.000000000000000e+00
					-5.722656249619140e-01 1.000000000000000e+00 0.000000000000000e+00
					-3.749999999625000e-01 1.000000000000000e+00 0.000000000000000e+00
					-4.090820312150635e-01 8.749999999794922e-01 0.000000000000000e+00
					-1.830062865938740e-01 8.749999999794922e-01 0.000000000000000e+00
					-3.749999999625000e-01 1.000000000000000e+00 0.000000000000000e+00
					-1.308593749677734e-01 1.000000000000000e+00 0.000000000000000e+00
					-1.830062865938740e-01 8.749999999794922e-01 0.000000000000000e+00
					9.837646485853577e-02 8.749999999794922e-01 0.000000000000000e+00
					-1.308593749677734e-01 1.000000000000000e+00 0.000000000000000e+00
					1.718750000234375e-01 1.000000000000000e+00 0.000000000000000e+00
					9.837646485853577e-02 8.749999999794922e-01 0.000000000000000e+00
					4.470504760727847e-01 8.749999999794922e-01 0.000000000000000e+00
					1.718750000234375e-01 1.000000000000000e+00 0.000000000000000e+00
					5.449218750123046e-01 1.000000000000000e+00 0.000000000000000e+00
					4.470504760727847e-01 8.749999999794922e-01 0.000000000000000e+00
					8.749999999794922e-01 8.749999999794922e-01 0.000000000000000e+00
					5.449218750123046e-01 1.000000000000000e+00 0.000000000000000e+00
					1.000000000000000e+00 1.000000000000000e+00 0.000000000000000e+00
				</DataArray>
			</Points>
			<Cells>
				<DataArray Name="connectivity" type="UInt32" format="ascii">
					0 1 3 2 4 5 7 6 8 9 11 10 12 13 15 14 16 17 19 18 20 21 23 22 24 25 27 26 28 29 31 30 32 33 35 34 36 37 39 38 40 41 43 42 44 45 47 46 48 49 51 50 52 53 55 54 56 57 59 58 60 61 63 62 64 65 67 66 68 69 71 70 72 73 75 74 76 77 79 78 80 81 83 82 84 85 87 86 88 89 91 90 92 93 95 94 96 97 99 98 100 101 103 102 104 105 107 106 108 109 111 110 112 113 115 114 116 117 119 118 120 121 123 122 124 125 127 126 128 129 131 130 132 133 135 134 136 137 139 138 140 141 143 142 144 145 147 146 148 149 151 150 152 153 155 154 156 157 159 158 160 161 163 162 164 165 167 166 168 169 171 170 172 173 175 174 176 177 179 178 180 181 183 182 184 185 187 186 188 189 191 190 192 193 195 194 196 197 199 198 200 201 203 202 204 205 207 206 208 209 211 210 212 213 215 214 216 217 219 218 220 221 223 222 224 225 227 226 228 229 231 230 232 233 235 234 236 237 239 238 240 241 243 242 244 245 247 246 248 249 251 250 252 253 255 254 
				</DataArray>
				<DataArray Name="offsets" type="UInt32" format="ascii">
					4 8 12 16 20 24 28 32 36 40 44 48 52 56 60 64 68 72 76 80 84 88 92 96 100 104 108 112 116 120 124 128 132 136 140 144 148 152 156 160 164 168 172 176 180 184 188 192 196 200 204 208 212 216 220 224 228 232 236 240 244 248 252 256 
				</DataArray>
				<DataArray Name="types" type="UInt8" format="ascii">
					9 9 9 9 9 9 9 9 9 9 9 9 9 9 9 9 9 9 9 9 9 9 9 9 9 9 9 9 9 9 9 9 9 9 9 9 9 9 9 9 9 9 9 9 9 9 9 9 9 9 9 9 9 9 9 9 9 9 9 9 9 9 9 9 
				</DataArray>
			</Cells>
			<PointData Vectors="solution ">
				<DataArray Name="solution" type="Float64" NumberOfComponents="1" format="ascii">
					0.000000000000000e+00 0.000000000000000e+00 0.000000000000000e+00 6.550351277257735e-03 0.000000000000000e+00 0.000000000000000e+00 6.550351277257735e-03 1.689504479750212e-02 0.000000000000000e+00 0.000000000000000e+00 1.689504479750212e-02 2.226890822276085e-02 0.000000000000000e+00 0.000000000000000e+00 2.226890822276085e-02 2.014660849831842e-02 0.000000000000000e+00 0.000000000000000e+00 2.014660849831842e-02 1.266207122802244e-02 0.000000000000000e+00 0.000000000000000e+00 1.266207122802244e-02 4.415345726172916e-03 0.000000000000000e+00 0.000000000000000e+00 4.415345726172916e-03 8.942361975237503e-05 0.000000000000000e+00 0.000000000000000e+00 8.942361975237503e-05 2.950611929838162e-03 0.000000000000000e+00 6.550351277257735e-03 0.000000000000000e+00 2.392213144648453e-02 6.550351277257735e-03 1.689504479750212e-02 2.392213144648453e-02 6.199247444248800e-02 1.689504479750212e-02 2.226890822276085e-02 6.199247444248800e-02 8.109691175082520e-02 2.226890822276085e-02 2.014660849831842e-02 8.109691175082520e-02 7.038971487381646e-02 2.014660849831842e-02 1.266207122802244e-02 7.038971487381646e-02 3.861275272479243e-02 1.266207122802244e-02 4.415345726172916e-03 3.861275272479243e-02 7.871309820795045e-03 4.415345726172916e-03 8.942361975237503e-05 7.871309820795045e-03 2.376597233213675e-03 8.942361975237503e-05 2.950611929838162e-03 2.376597233213675e-03 3.107821511621753e-02 0.000000000000000e+00 2.392213144648453e-02 0.000000000000000e+00 4.488265675276435e-02 2.392213144648453e-02 6.199247444248800e-02 4.488265675276435e-02 1.167552650460549e-01 6.199247444248800e-02 8.109691175082520e-02 1.167552650460549e-01 1.533821809128021e-01 8.109691175082520e-02 7.038971487381646e-02 1.533821809128021e-01 1.307537269151736e-01 7.038971487381646e-02 3.861275272479243e-02 1.307537269151736e-01 6.433974889886376e-02 3.861275272479243e-02 7.871309820795045e-03 6.433974889886376e-02 6.348450614203915e-03 7.871309820795045e-03 2.376597233213675e-03 6.348450614203915e-03 1.924760199604772e-02 2.376597233213675e-03 3.107821511621753e-02 1.924760199604772e-02 1.076000496828897e-01 0.000000000000000e+00 4.488265675276435e-02 0.000000000000000e+00 5.987337984788029e-02 4.488265675276435e-02 1.167552650460549e-01 5.987337984788029e-02 1.562755703830572e-01 1.167552650460549e-01 1.533821809128021e-01 1.562755703830572e-01 2.074847945869498e-01 1.533821809128021e-01 1.307537269151736e-01 2.074847945869498e-01 1.760233783853301e-01 1.307537269151736e-01 6.433974889886376e-02 1.760233783853301e-01 7.893320219652852e-02 6.433974889886376e-02 6.348450614203915e-03 7.893320219652852e-02 2.438273641685061e-03 6.348450614203915e-03 1.924760199604772e-02 2.438273641685061e-03 5.683344946337204e-02 1.924760199604772e-02 1.076000496828897e-01 5.683344946337204e-02 1.977203586400840e-01 0.000000000000000e+00 5.987337984788029e-02 0.000000000000000e+00 6.083288163523581e-02 5.987337984788029e-02 1.562755703830572e-01 6.083288163523581e-02 1.592947449238585e-01 1.562755703830572e-01 2.074847945869498e-01 1.592947449238585e-01 2.137794143657050e-01 2.074847945869498e-01 1.760233783853301e-01 2.137794143657050e-01 1.804912984321156e-01 1.760233783853301e-01 7.893320219652852e-02 1.804912984321156e-01 7.314482757859848e-02 7.893320219652852e-02 2.438273641685061e-03 7.314482757859848e-02 1.859280373647893e-04 2.438273641685061e-03 5.683344946337204e-02 1.859280373647893e-04 9.851854933624714e-02 5.683344946337204e-02 1.977203586400840e-01 9.851854933624714e-02 2.076320627964833e-01 0.000000000000000e+00 6.083288163523581e-02 0.000000000000000e+00 4.479714253175011e-02 6.083288163523581e-02 1.592947449238585e-01 4.479714253175011e-02 1.177521344283384e-01 1.592947449238585e-01 2.137794143657050e-01 1.177521344283384e-01 1.587465568029471e-01 2.137794143657050e-01 1.804912984321156e-01 1.587465568029471e-01 1.313917808048182e-01 1.804912984321156e-01 7.314482757859848e-02 1.313917808048182e-01 4.596542036297584e-02 7.314482757859848e-02 1.859280373647893e-04 4.596542036297584e-02 2.112208193802604e-03 1.859280373647893e-04 9.851854933624714e-02 2.112208193802604e-03 1.064772338647371e-01 9.851854933624714e-02 2.076320627964833e-01 1.064772338647371e-01 1.142849833283866e-01 0.000000000000000e+00 4.479714253175011e-02 0.000000000000000e+00 1.761777057734982e-02 4.479714253175011e-02 1.177521344283384e-01 1.761777057734982e-02 4.654074110102734e-02 1.177521344283384e-01 1.587465568029471e-01 4.654074110102734e-02 6.218902064618058e-02 1.587465568029471e-01 1.313917808048182e-01 6.218902064618058e-02 4.880337530887092e-02 1.313917808048182e-01 4.596542036297584e-02 4.880337530887092e-02 1.316016267323794e-02 4.596542036297584e-02 2.112208193802604e-03 1.316016267323794e-02 3.946960778620965e-03 2.112208193802604e-03 1.064772338647371e-01 3.946960778620965e-03 5.351816346479799e-02 1.064772338647371e-01 1.142849833283866e-01 5.351816346479799e-02 2.117684410328941e-02 0.000000000000000e+00 1.761777057734982e-02 0.000000000000000e+00 0.000000000000000e+00 1.761777057734982e-02 4.654074110102734e-02 0.000000000000000e+00 0.000000000000000e+00 4.654074110102734e-02 6.218902064618058e-02 0.000000000000000e+00 0.000000000000000e+00 6.218902064618058e-02 4.880337530887092e-02 0.000000000000000e+00 0.000000000000000e+00 4.880337530887092e-02 1.316016267323794e-02 0.000000000000000e+00 0.000000000000000e+00 1.316016267323794e-02 3.946960778620965e-03 0.000000000000000e+00 0.000000000000000e+00 3.946960778620965e-03 5.351816346479799e-02 0.000000000000000e+00 0.000000000000000e+00 5.351816346479799e-02 2.117684410328941e-02 0.000000000000000e+00 0.000000000000000e+00 
				</DataArray>
			</PointData>
			<CellData>
			</CellData>
		</Piece>
	</UnstructuredGrid>
</VTKFile>