<?xml version="1.0"?>
<VTKFile type="UnstructuredGrid" byte_order="LittleEndian">
	<UnstructuredGrid>
		<Piece NumberOfPoints="256" NumberOfCells="64">
			<Points>
				<DataArray type="Float64" NumberOfComponents="3" format="ascii">
					-1.000000000000000e+00 0.000000000000000e+00 0.000000000000000e+00
					-8.749999999794923e-01 0.000000000000000e+00 0.000000000000000e+00
					-1.000000000000000e+00 1.249999999876953e-01 0.000000000000000e+00
					-8.727371215615477e-01 1.249999999876954e-01 0.000000000000000e+00
					-8.749999999794923e-01 0.000000000000000e+00 0.000000000000000e+00
					-7.499999999671876e-01 0.000000000000000e+00 0.000000000000000e+00
					-8.727371215615477e-01 1.249999999876954e-01 0.000000000000000e+00
					-7.411254882486300e-01 1.249999999876954e-01 0.000000000000000e+00
					-7.499999999671876e-01 0.000000000000000e+00 0.000000000000000e+00
					-6.249999999619140e-01 0.000000000000000e+00 0.000000000000000e+00
					-7.411254882486300e-01 1.249999999876954e-01 0.000000000000000e+00
					-6.054306029899068e-01 1.249999999876954e-01 0.000000000000000e+00
					-6.249999999619140e-01 0.000000000000000e+00 0.000000000000000e+00
					-4.999999999624999e-01 0.000000000000000e+00 0.000000000000000e+00
					-6.054306029899068e-01 1.249999999876954e-01 0.000000000000000e+00
					-4.659179687140381e-01 1.249999999876954e-01 0.000000000000000e+00
					-4.999999999624999e-01 0.000000000000000e+00 0.000000000000000e+00
					-3.749999999677734e-01 0.000000000000000e+00 0.000000000000000e+00
					-4.659179687140381e-01 1.249999999876954e-01 0.000000000000000e+00
					-3.228530883496838e-01 1.249999999876954e-01 0.000000000000000e+00
					-3.749999999677734e-01 0.000000000000000e+00 0.000000000000000e+00
					-2.499999999765625e-01 0.000000000000000e+00 0.000000000000000e+00
					-3.228530883496838e-01 1.249999999876954e-01 0.000000000000000e+00
					-1.765014648255036e-01 1.249999999876953e-01 0.000000000000000e+00
					-2.499999999765625e-01 0.000000000000000e+00 0.000000000000000e+00
					-1.249999999876953e-01 0.000000000000000e+00 0.000000000000000e+00
					-1.765014648255036e-01 1.249999999876953e-01 0.000000000000000e+00
					-2.712860107015722e-02 1.249999999876953e-01 0.000000000000000e+00
					-1.249999999876953e-01 0.000000000000000e+00 0.000000000000000e+00
					0.000000000000000e+00 0.000000000000000e+00 0.000000000000000e+00
					-2.712860107015722e-02 1.249999999876953e-01 0.000000000000000e+00
					1.249999999876953e-01 1.249999999876953e-01 0.000000000000000e+00
					-1.000000000000000e+00 1.249999999876953e-01 0.000000000000000e+00
					-8.727371215615477e-01 1.249999999876954e-01 0.000000000000000e+00
					-1.000000000000000e+00 2.499999999765626e-01 0.000000000000000e+00
					-8.722045898232883e-01 2.499999999765626e-01 0.000000000000000e+00
					-8.727371215615477e-01 1.249999999876954e-01 0.000000000000000e+00
					-7.411254882486300e-01 1.249999999876954e-01 0.000000000000000e+00
					-8.722045898232883e-01 2.499999999765626e-01 0.000000000000000e+00
					-7.381835937175539e-01 2.499999999765626e-01 0.000000000000000e+00
					-7.411254882486300e-01 1.249999999876954e-01 0.000000000000000e+00
					-6.054306029899068e-01 1.249999999876954e-01 0.000000000000000e+00
					-7.381835937175539e-01 2.499999999765626e-01 0.000000000000000e+00
					-5.969848632444003e-01 2.499999999765626e-01 0.000000000000000e+00
					-6.054306029899068e-01 1.249999999876954e-01 0.000000000000000e+00
					-4.659179687140381e-01 1.249999999876954e-01 0.000000000000000e+00
					-5.969848632444003e-01 2.499999999765626e-01 0.000000000000000e+00
					-4.476562499654299e-01 2.499999999765626e-01 0.000000000000000e+00
					-4.659179687140381e-01 1.249999999876954e-01 0.000000000000000e+00
					-3.228530883496838e-01 1.249999999876954e-01 0.000000000000000e+00
					-4.476562499654299e-01 2.499999999765626e-01 0.000000000000000e+00
					-2.892456054422456e-01 2.499999999765626e-01 0.000000000000000e+00
					-3.228530883496838e-01 1.249999999876954e-01 0.000000000000000e+00
					-1.765014648255036e-01 1.249999999876953e-01 0.000000000000000e+00
					-2.892456054422456e-01 2.499999999765626e-01 0.000000000000000e+00
					-1.208007812364502e-01 2.499999999765625e-01 0.000000000000000e+00
					-1.765014648255036e-01 1.249999999876953e-01 0.000000000000000e+00
					-2.712860107015722e-02 1.249999999876953e-01 0.000000000000000e+00
					-1.208007812364502e-01 2.499999999765625e-01 0.000000000000000e+00
					5.863037109035342e-02 2.499999999765625e-01 0.000000000000000e+00
					-2.712860107015722e-02 1.249999999876953e-01 0.000000000000000e+00
					1.249999999876953e-01 1.249999999876953e-01 0.000000000000000e+00
					5.863037109035342e-02 2.499999999765625e-01 0.000000000000000e+00
					2.499999999765626e-01 2.499999999765626e-01 0.000000000000000e+00
					-1.000000000000000e+00 2.499999999765626e-01 0.000000000000000e+00
					-8.722045898232883e-01 2.499999999765626e-01 0.000000000000000e+00
					-1.000000000000000e+00 3.749999999677735e-01 0.000000000000000e+00
					-8.728256225381491e-01 3.749999999677737e-01 0.000000000000000e+00
					-8.722045898232883e-01 2.499999999765626e-01 0.000000000000000e+00
					-7.381835937175539e-01 2.499999999765626e-01 0.000000000000000e+00
					-8.728256225381491e-01 3.749999999677737e-01 0.000000000000000e+00
					-7.391967773114412e-01 3.749999999677737e-01 0.000000000000000e+00
					-7.381835937175539e-01 2.499999999765626e-01 0.000000000000000e+00
					-5.969848632444003e-01 2.499999999765626e-01 0.000000000000000e+00
					-7.391967773114412e-01 3.749999999677737e-01 0.000000000000000e+00
					-5.959548949831450e-01 3.749999999677737e-01 0.000000000000000e+00
					-5.969848632444003e-01 2.499999999765626e-01 0.000000000000000e+00
					-4.476562499654299e-01 2.499999999765626e-01 0.000000000000000e+00
					-5.959548949831450e-01 3.749999999677737e-01 0.000000000000000e+00
					-4.399414062165284e-01 3.749999999677737e-01 0.000000000000000e+00
					-4.476562499654299e-01 2.499999999765626e-01 0.000000000000000e+00
					-2.892456054422456e-01 2.499999999765626e-01 0.000000000000000e+00
					-4.399414062165284e-01 3.749999999677737e-01 0.000000000000000e+00
					-2.679977416748601e-01 3.749999999677737e-01 0.000000000000000e+00
					-2.892456054422456e-01 2.499999999765626e-01 0.000000000000000e+00
					-1.208007812364502e-01 2.499999999765625e-01 0.000000000000000e+00
					-2.679977416748601e-01 3.749999999677737e-01 0.000000000000000e+00
					-7.696533202140812e-02 3.749999999677735e-01 0.000000000000000e+00
					-1.208007812364502e-01 2.499999999765625e-01 0.000000000000000e+00
					5.863037109035342e-02 2.499999999765625e-01 0.000000000000000e+00
					-7.696533202140812e-02 3.749999999677735e-01 0.000000000000000e+00
					1.363143920805592e-01 3.749999999677735e-01 0.000000000000000e+00
					5.863037109035342e-02 2.499999999765625e-01 0.000000000000000e+00
					2.499999999765626e-01 2.499999999765626e-01 0.000000000000000e+00
					1.363143920805592e-01 3.749999999677735e-01 0.000000000000000e+00
					3.749999999677735e-01 3.749999999677735e-01 0.000000000000000e+00
					-1.000000000000000e+00 3.749999999677735e-01 0.000000000000000e+00
					-8.728256225381491e-01 3.749999999677737e-01 0.000000000000000e+00
					-1.000000000000000e+00 4.999999999625001e-01 0.000000000000000e+00
					-8.740234374795657e-01 4.999999999625002e-01 0.000000000000000e+00
					-8.728256225381491e-01 3.749999999677737e-01 0.000000000000000e+00
					-7.391967773114412e-01 3.749999999677737e-01 0.000000000000000e+00
					-8.740234374795657e-01 4.999999999625002e-01 0.000000000000000e+00
					-7.421874999677737e-01 4.999999999625003e-01 0.000000000000000e+00
					-7.391967773114412e-01 3.749999999677737e-01 0.000000000000000e+00
					-5.959548949831450e-01 3.749999999677737e-01 0.000000000000000e+00
					-7.421874999677737e-01 4.999999999625003e-01 0.000000000000000e+00
					-5.986328124638918e-01 4.999999999625002e-01 0.000000000000000e+00
					-5.959548949831450e-01 3.749999999677737e-01 0.000000000000000e+00
					-4.399414062165284e-01 3.749999999677737e-01 0.000000000000000e+00
					-5.986328124638918e-01 4.999999999625002e-01 0.000000000000000e+00
					-4.374999999671877e-01 4.999999999625002e-01 0.000000000000000e+00
					-4.399414062165284e-01 3.749999999677737e-01 0.000000000000000e+00
					-2.679977416748601e-01 3.749999999677737e-01 0.000000000000000e+00
					-4.374999999671877e-01 4.999999999625002e-01 0.000000000000000e+00
					-2.529296874769288e-01 4.999999999625002e-01 0.000000000000000e+00
					-2.679977416748601e-01 3.749999999677737e-01 0.000000000000000e+00
					-7.696533202140812e-02 3.749999999677735e-01 0.000000000000000e+00
					-2.529296874769288e-01 4.999999999625002e-01 0.000000000000000e+00
					-3.906249999238283e-02 4.999999999625001e-01 0.000000000000000e+00
					-7.696533202140812e-02 3.749999999677735e-01 0.000000000000000e+00
					1.363143920805592e-01 3.749999999677735e-01 0.000000000000000e+00
					-3.906249999238283e-02 4.999999999625001e-01 0.000000000000000e+00
					2.099609374871826e-01 4.999999999625001e-01 0.000000000000000e+00
					1.363143920805592e-01 3.749999999677735e-01 0.000000000000000e+00
					3.749999999677735e-01 3.749999999677735e-01 0.000000000000000e+00
					2.099609374871826e-01 4.999999999625001e-01 0.000000000000000e+00
					4.999999999625001e-01 4.999999999625001e-01 0.000000000000000e+00
					-1.000000000000000e+00 4.999999999625001e-01 0.000000000000000e+00
					-8.740234374795657e-01 4.999999999625002e-01 0.000000000000000e+00
					-1.000000000000000e+00 6.249999999619140e-01 0.000000000000000e+00
					-8.752212524209730e-01 6.249999999619144e-01 0.000000000000000e+00
					-8.740234374795657e-01 4.999999999625002e-01 0.000000000000000e+00
					-7.421874999677737e-01 4.999999999625003e-01 0.000000000000000e+00
					-8.752212524209730e-01 6.249999999619144e-01 0.000000000000000e+00
					-7.451782226240327e-01 6.249999999619145e-01 0.000000000000000e+00
					-7.421874999677737e-01 4.999999999625003e-01 0.000000000000000e+00
					-5.986328124638918e-01 4.999999999625002e-01 0.000000000000000e+00
					-7.451782226240327e-01 6.249999999619145e-01 0.000000000000000e+00
					-6.013107299443914e-01 6.249999999619145e-01 0.000000000000000e+00
					-5.986328124638918e-01 4.999999999625002e-01 0.000000000000000e+00
					-4.374999999671877e-01 4.999999999625002e-01 0.000000000000000e+00
					-6.013107299443914e-01 6.249999999619145e-01 0.000000000000000e+00
					-4.350585937172609e-01 6.249999999619142e-01 0.000000000000000e+00
					-4.374999999671877e-01 4.999999999625002e-01 0.000000000000000e+00
					-2.529296874769288e-01 4.999999999625002e-01 0.000000000000000e+00
					-4.350585937172609e-01 6.249999999619142e-01 0.000000000000000e+00
					-2.378616332778531e-01 6.249999999619141e-01 0.000000000000000e+00
					-2.529296874769288e-01 4.999999999625002e-01 0.000000000000000e+00
					-3.906249999238283e-02 4.999999999625001e-01 0.000000000000000e+00
					-2.378616332778531e-01 6.249999999619141e-01 0.000000000000000e+00
					-1.159667961380013e-03 6.249999999619140e-01 0.000000000000000e+00
					-3.906249999238283e-02 4.999999999625001e-01 0.000000000000000e+00
					2.099609374871826e-01 4.999999999625001e-01 0.000000000000000e+00
					-1.159667961380013e-03 6.249999999619140e-01 0.000000000000000e+00
					2.836074828969463e-01 6.249999999619140e-01 0.000000000000000e+00
					2.099609374871826e-01 4.999999999625001e-01 0.000000000000000e+00
					4.999999999625001e-01 4.999999999625001e-01 0.000000000000000e+00
					2.836074828969463e-01 6.249999999619140e-01 0.000000000000000e+00
					6.249999999619140e-01 6.249999999619140e-01 0.000000000000000e+00
					-1.000000000000000e+00 6.249999999619140e-01 0.000000000000000e+00
					-8.752212524209730e-01 6.249999999619144e-01 0.000000000000000e+00
					-1.000000000000000e+00 7.499999999671875e-01 0.000000000000000e+00
					-8.758422851358064e-01 7.499999999671876e-01 0.000000000000000e+00
					-8.752212524209730e-01 6.249999999619144e-01 0.000000000000000e+00
					-7.451782226240327e-01 6.249999999619145e-01 0.000000000000000e+00
					-8.758422851358064e-01 7.499999999671876e-01 0.000000000000000e+00
					-7.461914062177003e-01 7.499999999671877e-01 0.000000000000000e+00
					-7.451782226240327e-01 6.249999999619145e-01 0.000000000000000e+00
					-6.013107299443914e-01 6.249999999619145e-01 0.000000000000000e+00
					-7.461914062177003e-01 7.499999999671877e-01 0.000000000000000e+00
					-6.002807616823945e-01 7.499999999671877e-01 0.000000000000000e+00
					-6.013107299443914e-01 6.249999999619145e-01 0.000000000000000e+00
					-4.350585937172609e-01 6.249999999619142e-01 0.000000000000000e+00
					-6.002807616823945e-01 7.499999999671877e-01 0.000000000000000e+00
					-4.273437499666016e-01 7.499999999671876e-01 0.000000000000000e+00
					-4.350585937172609e-01 6.249999999619142e-01 0.000000000000000e+00
					-2.378616332778531e-01 6.249999999619141e-01 0.000000000000000e+00
					-4.273437499666016e-01 7.499999999671876e-01 0.000000000000000e+00
					-2.166137695070343e-01 7.499999999671876e-01 0.000000000000000e+00
					-2.378616332778531e-01 6.249999999619141e-01 0.000000000000000e+00
					-1.159667961380013e-03 6.249999999619140e-01 0.000000000000000e+00
					-2.166137695070343e-01 7.499999999671876e-01 0.000000000000000e+00
					4.267578125959473e-02 7.499999999671874e-01 0.000000000000000e+00
					-1.159667961380013e-03 6.249999999619140e-01 0.000000000000000e+00
					2.836074828969463e-01 6.249999999619140e-01 0.000000000000000e+00
					4.267578125959473e-02 7.499999999671874e-01 0.000000000000000e+00
					3.612915038965728e-01 7.499999999671874e-01 0.000000000000000e+00
					2.836074828969463e-01 6.249999999619140e-01 0.000000000000000e+00
					6.249999999619140e-01 6.249999999619140e-01 0.000000000000000e+00
					3.612915038965728e-01 7.499999999671874e-01 0.000000000000000e+00
					7.499999999671875e-01 7.499999999671875e-01 0.000000000000000e+00
					-1.000000000000000e+00 7.499999999671875e-01 0.000000000000000e+00
					-8.758422851358064e-01 7.499999999671876e-01 0.000000000000000e+00
					-1.000000000000000e+00 8.749999999794922e-01 0.000000000000000e+00
					-8.753097533975012e-01 8.749999999794923e-01 0.000000000000000e+00
					-8.758422851358064e-01 7.499999999671876e-01 0.000000000000000e+00
					-7.461914062177003e-01 7.499999999671877e-01 0.000000000000000e+00
					-8.753097533975012e-01 8.749999999794923e-01 0.000000000000000e+00
					-7.432495116862581e-01 8.749999999794923e-01 0.000000000000000e+00
					-7.461914062177003e-01 7.499999999671877e-01 0.000000000000000e+00
					-6.002807616823945e-01 7.499999999671877e-01 0.000000000000000e+00
					-7.432495116862581e-01 8.749999999794923e-01 0.000000000000000e+00
					-5.918350219356517e-01 8.749999999794923e-01 0.000000000000000e+00
					-6.002807616823945e-01 7.499999999671877e-01 0.000000000000000e+00
					-4.273437499666016e-01 7.499999999671876e-01 0.000000000000000e+00
					-5.918350219356517e-01 8.749999999794923e-01 0.000000000000000e+00
					-4.090820312150635e-01 8.749999999794922e-01 0.000000000000000e+00
					-4.273437499666016e-01 7.499999999671876e-01 0.000000000000000e+00
					-2.166137695070343e-01 7.499999999671876e-01 0.000000000000000e+00
					-4.090820312150635e-01 8.749999999794922e-01 0.000000000000000e+00
					-1.830062865938740e-01 8.749999999794922e-01 0.000000000000000e+00
					-2.166137695070343e-01 7.499999999671876e-01 0.000000000000000e+00
					4.267578125959473e-02 7.499999999671874e-01 0.000000000000000e+00
					-1.830062865938740e-01 8.749999999794922e-01 0.000000000000000e+00
					9.837646485853577e-02 8.749999999794922e-01 0.000000000000000e+00
					4.267578125959473e-02 7.499999999671874e-01 0.000000000000000e+00
					3.612915038965728e-01 7.499999999671874e-01 0.000000000000000e+00
					9.837646485853577e-02 8.749999999794922e-01 0.000000000000000e+00
					4.470504760727847e-01 8.749999999794922e-01 0.000000000000000e+00
					3.612915038965728e-01 7.499999999671874e-01 0.000000000000000e+00
					7.499999999671875e-01 7.499999999671875e-01 0.000000000000000e+00
					4.470504760727847e-01 8.749999999794922e-01 0.000000000000000e+00
					8.749999999794922e-01 8.749999999794922e-01 0.000000000000000e+00
					-1.000000000000000e+00 8.749999999794922e-01 0.000000000000000e+00
					-8.753097533975012e-01 8.749999999794923e-01 0.000000000000000e+00
					-1.000000000000000e+00 1.000000000000000e+00 0.000000000000000e+00
					-8.730468749794923e-01 1.000000000000000e+00 0.000000000000000e+00
					-8.753097533975012e-01 8.749999999794923e-01 0.000000000000000e+00
					-7.432495116862581e-01 8.749999999794923e-01 0.000000000000000e+00
					-8.730468749794923e-01 1.000000000000000e+00 0.000000000000000e+00
					-7.343749999671876e-01 1.000000000000000e+00 0.000000000000000e+00
					-7.432495116862581e-01 8.749999999794923e-01 0.000000000000000e+00
					-5.918350219356517e-01 8.749999999794923e-01 0.000000000000000e+00
					-7.343749999671876e-01 1.000000000000000e+00 0.000000000000000e+00
					-5.722656249619140e-01 1.000000000000000e+00 0.000000000000000e+00
					-5.918350219356517e-01 8.749999999794923e-01 0.000000000000000e+00
					-4.090820312150635e-01 8.749999999794922e-01 0.000000000000000e+00
					-5.722656249619140e-01 1.000000000000000e+00 0.000000000000000e+00
					-3.749999999625000e-01 1.000000000000000e+00 0.000000000000000e+00
					-4.090820312150635e-01 8.749999999794922e-01 0.000000000000000e+00
					-1.830062865938740e-01 8.749999999794922e-01 0.000000000000000e+00
					-3.749999999625000e-01 1.000000000000000e+00 0.000000000000000e+00
					-1.308593749677734e-01 1.000000000000000e+00 0.000000000000000e+00
					-1.830062865938740e-01 8.749999999794922e-01 0.000000000000000e+00
					9.837646485853577e-02 8.749999999794922e-01 0.000000000000000e+00
					-1.308593749677734e-01 1.000000000000000e+00 0.000000000000000e+00
					1.718750000234375e-01 1.000000000000000e+00 0.000000000000000e+00
					9.837646485853577e-02 8.749999999794922e-01 0.000000000000000e+00
					4.470504760727847e-01 8.749999999794922e-01 0.000000000000000e+00
					1.718750000234375e-01 1.000000000000000e+00 0.000000000000000e+00
					5.449218750123046e-01 1.000000000000000e+00 0.000000000000000e+00
					4.470504760727847e-01 8.749999999794922e-01 0.000000000000000e+00
					8.749999999794922e-01 8.749999999794922e-01 0.000000000000000e+00
					5.449218750123046e-01 1.000000000000000e+00 0.000000000000000e+00
					1.000000000000000e+00 1.000000000000000e+00 0.000000000000000e+00
				</DataArray>
			</Points>
			<Cells>
				<DataArray Name="connectivity" type="UInt32" format="ascii">
					0 1 3 2 4 5 7 6 8 9 11 10 12 13 15 14 16 17 19 18 20 21 23 22 24 25 27 26 28 29 31 30 32 33 35 34 36 37 39 38 40 41 43 42 44 45 47 46 48 49 51 50 52 53 55 54 56 57 59 58 60 61 63 62 64 65 67 66 68 69 71 70 72 73 75 74 76 77 79 78 80 81 83 82 84 85 87 86 88 89 91 90 92 93 95 94 96 97 99 98 100 101 103 102 104 105 107 106 108 109 111 110 112 113 115 114 116 117 119 118 120 121 123 122 124 125 127 126 128 129 131 130 132 133 135 134 136 137 139 138 140 141 143 142 144 145 147 146 148 149 151 150 152 153 155 154 156 157 159 158 160 161 163 162 164 165 167 166 168 169 171 170 172 173 175 174 176 177 179 178 180 181 183 182 184 185 187 186 188 189 191 190 192 193 195 194 196 197 199 198 200 201 203 202 204 205 207 206 208 209 211 210 212 213 215 214 216 217 219 218 220 221 223 222 224 225 227 226 228 229 231 230 232 233 235 234 236 237 239 238 240 241 243 242 244 245 247 246 248 249 251 250 252 253 255 254 
				</DataArray>
				<DataArray Name="offsets" type="UInt32" format="ascii">
					4 8 12 16 20 24 28 32 36 40 44 48 52 56 60 64 68 72 76 80 84 88 92 96 100 104 108 112 116 120 124 128 132 136 140 144 148 152 156 160 164 168 172 176 180 184 188 192 196 200 204 208 212 216 220 224 228 232 236 240 244 248 252 256 
				</DataArray>
				<DataArray Name="types" type="UInt8" format="ascii">
					9 9 9 9 9 9 9 9 9 9 9 9 9 9 9 9 9 9 9 9 9 9 9 9 9 9 9 9 9 9 9 9 9 9 9 9 9 9 9 9 9 9 9 9 9 9 9 9 9 9 9 9 9 9 9 9 9 9 9 9 9 9 9 9 
				</DataArray>
			</Cells>
			<PointData Vectors="solution ">
				<DataArray Name="solution" type="Float64" NumberOfComponents="1" format="ascii">
					0.000000000000000e+00 0.000000000000000e+00 0.000000000000000e+00 6.551259893451879e-03 0.000000000000000e+00 0.000000000000000e+00 6.551259893451879e-03 1.690020841056680e-02 0.000000000000000e+00 0.000000000000000e+00 1.690020841056680e-02 2.228338067959446e-02 0.000000000000000e+00 0.000000000000000e+00 2.228338067959446e-02 2.017869006989385e-02 0.000000000000000e+00 0.000000000000000e+00 2.017869006989385e-02 1.272562706834321e-02 0.000000000000000e+00 0.000000000000000e+00 1.272562706834321e-02 4.529845848107263e-03 0.000000000000000e+00 0.000000000000000e+00 4.529845848107263e-03 2.563872293531878e-04 0.000000000000000e+00 0.000000000000000e+00 2.563872293531878e-04 3.001114557463351e-03 0.000000000000000e+00 6.551259893451879e-03 0.000000000000000e+00 2.392634223346609e-02 6.551259893451879e-03 1.690020841056680e-02 2.392634223346609e-02 6.201153484381330e-02 1.690020841056680e-02 2.228338067959446e-02 6.201153484381330e-02 8.114731790250118e-02 2.228338067959446e-02 2.017869006989385e-02 8.114731790250118e-02 7.049993216369192e-02 2.017869006989385e-02 1.272562706834321e-02 7.049993216369192e-02 3.883034398354725e-02 1.272562706834321e-02 4.529845848107263e-03 3.883034398354725e-02 8.255815601739174e-03 4.529845848107263e-03 2.563872293531878e-04 8.255815601739174e-03 2.890320778796239e-03 2.563872293531878e-04 3.001114557463351e-03 2.890320778796239e-03 3.094120952884825e-02 0.000000000000000e+00 2.392634223346609e-02 0.000000000000000e+00 4.489038357428594e-02 2.392634223346609e-02 6.201153484381330e-02 4.489038357428594e-02 1.167877226679889e-01 6.201153484381330e-02 8.114731790250118e-02 1.167877226679889e-01 1.534655156577977e-01 8.114731790250118e-02 7.049993216369192e-02 1.534655156577977e-01 1.309343705403085e-01 7.049993216369192e-02 3.883034398354725e-02 1.309343705403085e-01 6.469449480548579e-02 3.883034398354725e-02 8.255815601739174e-03 6.469449480548579e-02 6.951678572332504e-03 8.255815601739174e-03 2.890320778796239e-03 6.951678572332504e-03 1.986633127771559e-02 2.890320778796239e-03 3.094120952884825e-02 1.986633127771559e-02 1.066201309807290e-01 0.000000000000000e+00 4.489038357428594e-02 0.000000000000000e+00 5.988237747943851e-02 4.489038357428594e-02 1.167877226679889e-01 5.988237747943851e-02 1.563123565291563e-01 1.167877226679889e-01 1.534655156577977e-01 1.563123565291563e-01 2.075782660732808e-01 1.534655156577977e-01 1.309343705403085e-01 2.075782660732808e-01 1.762262631600725e-01 1.309343705403085e-01 6.469449480548579e-02 1.762262631600725e-01 7.933133414583435e-02 6.469449480548579e-02 6.951678572332504e-03 7.933133414583435e-02 3.075647559835631e-03 6.951678572332504e-03 1.986633127771559e-02 3.075647559835631e-03 5.717868763935597e-02 1.986633127771559e-02 1.066201309807290e-01 5.717868763935597e-02 1.955974850564034e-01 0.000000000000000e+00 5.988237747943851e-02 0.000000000000000e+00 6.084020404457776e-02 5.988237747943851e-02 1.563123565291563e-01 6.084020404457776e-02 1.593249447751253e-01 1.563123565291563e-01 2.075782660732808e-01 1.593249447751253e-01 2.138570508768503e-01 2.075782660732808e-01 1.762262631600725e-01 2.138570508768503e-01 1.806626716315136e-01 1.762262631600725e-01 7.933133414583435e-02 1.806626716315136e-01 7.348426359149211e-02 7.933133414583435e-02 3.075647559835631e-03 7.348426359149211e-02 6.845743494663663e-04 3.075647559835631e-03 5.717868763935597e-02 6.845743494663663e-04 9.834575661505567e-02 5.717868763935597e-02 1.955974850564034e-01 9.834575661505567e-02 2.044257147428224e-01 0.000000000000000e+00 6.084020404457776e-02 0.000000000000000e+00 4.480101430474705e-02 6.084020404457776e-02 1.593249447751253e-01 4.480101430474705e-02 1.177692530684820e-01 1.593249447751253e-01 2.138570508768503e-01 1.177692530684820e-01 1.587926170233686e-01 2.138570508768503e-01 1.806626716315136e-01 1.587926170233686e-01 1.314976796653901e-01 1.806626716315136e-01 7.348426359149211e-02 1.314976796653901e-01 4.618115826045234e-02 7.348426359149211e-02 6.845743494663663e-04 4.618115826045234e-02 2.398036481062549e-03 6.845743494663663e-04 9.834575661505567e-02 2.398036481062549e-03 1.059132594915608e-01 9.834575661505567e-02 2.044257147428224e-01 1.059132594915608e-01 1.123660260266235e-01 0.000000000000000e+00 4.480101430474705e-02 0.000000000000000e+00 1.761861712764760e-02 4.480101430474705e-02 1.177692530684820e-01 1.761861712764760e-02 4.654556742142314e-02 1.177692530684820e-01 1.587926170233686e-01 4.654556742142314e-02 6.220338360060663e-02 1.587926170233686e-01 1.314976796653901e-01 6.220338360060663e-02 4.883846013681837e-02 1.314976796653901e-01 4.618115826045234e-02 4.883846013681837e-02 1.323160979863232e-02 4.618115826045234e-02 2.398036481062549e-03 1.323160979863232e-02 4.004171663966128e-03 2.398036481062549e-03 1.059132594915608e-01 4.004171663966128e-03 5.294115299929575e-02 1.059132594915608e-01 1.123660260266235e-01 5.294115299929575e-02 2.109266502187161e-02 0.000000000000000e+00 1.761861712764760e-02 0.000000000000000e+00 0.000000000000000e+00 1.761861712764760e-02 4.654556742142314e-02 0.000000000000000e+00 0.000000000000000e+00 4.654556742142314e-02 6.220338360060663e-02 0.000000000000000e+00 0.000000000000000e+00 6.220338360060663e-02 4.883846013681837e-02 0.000000000000000e+00 0.000000000000000e+00 4.883846013681837e-02 1.323160979863232e-02 0.000000000000000e+00 0.000000000000000e+00 1.323160979863232e-02 4.004171663966128e-03 0.000000000000000e+00 0.000000000000000e+00 4.004171663966128e-03 5.294115299929575e-02 0.000000000000000e+00 0.000000000000000e+00 5.294115299929575e-02 2.109266502187161e-02 0.000000000000000e+00 0.000000000000000e+00 
				</DataArray>
			</PointData>
			<CellData>
			</CellData>
		</Piece>
	</UnstructuredGrid>
</VTKFile>