<?xml version="1.0"?>
<VTKFile type="UnstructuredGrid" byte_order="LittleEndian">
	<UnstructuredGrid>
		<Piece NumberOfPoints="256" NumberOfCells="64">
			<Points>
				<DataArray type="Float64" NumberOfComponents="3" format="ascii">
					-1.000000000000000e+00 0.000000000000000e+00 0.000000000000000e+00
					-8.749999999794923e-01 0.000000000000000e+00 0.000000000000000e+00
					-1.000000000000000e+00 1.249999999876953e-01 0.000000000000000e+00
					-8.727371215615477e-01 1.249999999876954e-01 0.000000000000000e+00
					-8.749999999794923e-01 0.000000000000000e+00 0.000000000000000e+00
					-7.499999999671876e-01 0.000000000000000e+00 0.000000000000000e+00
					-8.727371215615477e-01 1.249999999876954e-01 0.000000000000000e+00
					-7.411254882486300e-01 1.249999999876954e-01 0.000000000000000e+00
					-7.499999999671876e-01 0.000000000000000e+00 0.000000000000000e+00
					-6.249999999619140e-01 0.000000000000000e+00 0.000000000000000e+00
					-7.411254882486300e-01 1.249999999876954e-01 0.000000000000000e+00
					-6.054306029899068e-01 1.249999999876954e-01 0.000000000000000e+00
					-6.249999999619140e-01 0.000000000000000e+00 0.000000000000000e+00
					-4.999999999624999e-01 0.000000000000000e+00 0.000000000000000e+00
					-6.054306029899068e-01 1.249999999876954e-01 0.000000000000000e+00
					-4.659179687140381e-01 1.249999999876954e-01 0.000000000000000e+00
					-4.999999999624999e-01 0.000000000000000e+00 0.000000000000000e+00
					-3.749999999677734e-01 0.000000000000000e+00 0.000000000000000e+00
					-4.659179687140381e-01 1.249999999876954e-01 0.000000000000000e+00
					-3.228530883496838e-01 1.249999999876954e-01 0.000000000000000e+00
					-3.749999999677734e-01 0.000000000000000e+00 0.000000000000000e+00
					-2.499999999765625e-01 0.000000000000000e+00 0.000000000000000e+00
					-3.228530883496838e-01 1.249999999876954e-01 0.000000000000000e+00
					-1.765014648255036e-01 1.249999999876953e-01 0.000000000000000e+00
					-2.499999999765625e-01 0.000000000000000e+00 0.000000000000000e+00
					-1.249999999876953e-01 0.000000000000000e+00 0.000000000000000e+00
					-1.765014648255036e-01 1.249999999876953e-01 0.000000000000000e+00
					-2.712860107015722e-02 1.249999999876953e-01 0.000000000000000e+00
					-1.249999999876953e-01 0.000000000000000e+00 0.000000000000000e+00
					0.000000000000000e+00 0.000000000000000e+00 0.000000000000000e+00
					-2.712860107015722e-02 1.249999999876953e-01 0.000000000000000e+00
					1.249999999876953e-01 1.249999999876953e-01 0.000000000000000e+00
					-1.000000000000000e+00 1.249999999876953e-01 0.000000000000000e+00
					-8.727371215615477e-01 1.249999999876954e-01 0.000000000000000e+00
					-1.000000000000000e+00 2.499999999765626e-01 0.000000000000000e+00
					-8.722045898232883e-01 2.499999999765626e-01 0.000000000000000e+00
					-8.727371215615477e-01 1.249999999876954e-01 0.000000000000000e+00
					-7.411254882486300e-01 1.249999999876954e-01 0.000000000000000e+00
					-8.722045898232883e-01 2.499999999765626e-01 0.000000000000000e+00
					-7.381835937175539e-01 2.499999999765626e-01 0.000000000000000e+00
					-7.411254882486300e-01 1.249999999876954e-01 0.000000000000000e+00
					-6.054306029899068e-01 1.249999999876954e-01 0.000000000000000e+00
					-7.381835937175539e-01 2.499999999765626e-01 0.000000000000000e+00
					-5.969848632444003e-01 2.499999999765626e-01 0.000000000000000e+00
					-6.054306029899068e-01 1.249999999876954e-01 0.000000000000000e+00
					-4.659179687140381e-01 1.249999999876954e-01 0.000000000000000e+00
					-5.969848632444003e-01 2.499999999765626e-01 0.000000000000000e+00
					-4.476562499654299e-01 2.499999999765626e-01 0.000000000000000e+00
					-4.659179687140381e-01 1.249999999876954e-01 0.000000000000000e+00
					-3.228530883496838e-01 1.249999999876954e-01 0.000000000000000e+00
					-4.476562499654299e-01 2.499999999765626e-01 0.000000000000000e+00
					-2.892456054422456e-01 2.499999999765626e-01 0.000000000000000e+00
					-3.228530883496838e-01 1.249999999876954e-01 0.000000000000000e+00
					-1.765014648255036e-01 1.249999999876953e-01 0.000000000000000e+00
					-2.892456054422456e-01 2.499999999765626e-01 0.000000000000000e+00
					-1.208007812364502e-01 2.499999999765625e-01 0.000000000000000e+00
					-1.765014648255036e-01 1.249999999876953e-01 0.000000000000000e+00
					-2.712860107015722e-02 1.249999999876953e-01 0.000000000000000e+00
					-1.208007812364502e-01 2.499999999765625e-01 0.000000000000000e+00
					5.863037109035342e-02 2.499999999765625e-01 0.000000000000000e+00
					-2.712860107015722e-02 1.249999999876953e-01 0.000000000000000e+00
					1.249999999876953e-01 1.249999999876953e-01 0.000000000000000e+00
					5.863037109035342e-02 2.499999999765625e-01 0.000000000000000e+00
					2.499999999765626e-01 2.499999999765626e-01 0.000000000000000e+00
					-1.000000000000000e+00 2.499999999765626e-01 0.000000000000000e+00
					-8.722045898232883e-01 2.499999999765626e-01 0.000000000000000e+00
					-1.000000000000000e+00 3.749999999677735e-01 0.000000000000000e+00
					-8.728256225381491e-01 3.749999999677737e-01 0.000000000000000e+00
					-8.722045898232883e-01 2.499999999765626e-01 0.000000000000000e+00
					-7.381835937175539e-01 2.499999999765626e-01 0.000000000000000e+00
					-8.728256225381491e-01 3.749999999677737e-01 0.000000000000000e+00
					-7.391967773114412e-01 3.749999999677737e-01 0.000000000000000e+00
					-7.381835937175539e-01 2.499999999765626e-01 0.000000000000000e+00
					-5.969848632444003e-01 2.499999999765626e-01 0.000000000000000e+00
					-7.391967773114412e-01 3.749999999677737e-01 0.000000000000000e+00
					-5.959548949831450e-01 3.749999999677737e-01 0.000000000000000e+00
					-5.969848632444003e-01 2.499999999765626e-01 0.000000000000000e+00
					-4.476562499654299e-01 2.499999999765626e-01 0.000000000000000e+00
					-5.959548949831450e-01 3.749999999677737e-01 0.000000000000000e+00
					-4.399414062165284e-01 3.749999999677737e-01 0.000000000000000e+00
					-4.476562499654299e-01 2.499999999765626e-01 0.000000000000000e+00
					-2.892456054422456e-01 2.499999999765626e-01 0.000000000000000e+00
					-4.399414062165284e-01 3.749999999677737e-01 0.000000000000000e+00
					-2.679977416748601e-01 3.749999999677737e-01 0.000000000000000e+00
					-2.892456054422456e-01 2.499999999765626e-01 0.000000000000000e+00
					-1.208007812364502e-01 2.499999999765625e-01 0.000000000000000e+00
					-2.679977416748601e-01 3.749999999677737e-01 0.000000000000000e+00
					-7.696533202140812e-02 3.749999999677735e-01 0.000000000000000e+00
					-1.208007812364502e-01 2.499999999765625e-01 0.000000000000000e+00
					5.863037109035342e-02 2.499999999765625e-01 0.000000000000000e+00
					-7.696533202140812e-02 3.749999999677735e-01 0.000000000000000e+00
					1.363143920805592e-01 3.749999999677735e-01 0.000000000000000e+00
					5.863037109035342e-02 2.499999999765625e-01 0.000000000000000e+00
					2.499999999765626e-01 2.499999999765626e-01 0.000000000000000e+00
					1.363143920805592e-01 3.749999999677735e-01 0.000000000000000e+00
					3.749999999677735e-01 3.749999999677735e-01 0.000000000000000e+00
					-1.000000000000000e+00 3.749999999677735e-01 0.000000000000000e+00
					-8.728256225381491e-01 3.749999999677737e-01 0.000000000000000e+00
					-1.000000000000000e+00 4.999999999625001e-01 0.000000000000000e+00
					-8.740234374795657e-01 4.999999999625002e-01 0.000000000000000e+00
					-8.728256225381491e-01 3.749999999677737e-01 0.000000000000000e+00
					-7.391967773114412e-01 3.749999999677737e-01 0.000000000000000e+00
					-8.740234374795657e-01 4.999999999625002e-01 0.000000000000000e+00
					-7.421874999677737e-01 4.999999999625003e-01 0.000000000000000e+00
					-7.391967773114412e-01 3.749999999677737e-01 0.000000000000000e+00
					-5.959548949831450e-01 3.749999999677737e-01 0.000000000000000e+00
					-7.421874999677737e-01 4.999999999625003e-01 0.000000000000000e+00
					-5.986328124638918e-01 4.999999999625002e-01 0.000000000000000e+00
					-5.959548949831450e-01 3.749999999677737e-01 0.000000000000000e+00
					-4.399414062165284e-01 3.749999999677737e-01 0.000000000000000e+00
					-5.986328124638918e-01 4.999999999625002e-01 0.000000000000000e+00
					-4.374999999671877e-01 4.999999999625002e-01 0.000000000000000e+00
					-4.399414062165284e-01 3.749999999677737e-01 0.000000000000000e+00
					-2.679977416748601e-01 3.749999999677737e-01 0.000000000000000e+00
					-4.374999999671877e-01 4.999999999625002e-01 0.000000000000000e+00
					-2.529296874769288e-01 4.999999999625002e-01 0.000000000000000e+00
					-2.679977416748601e-01 3.749999999677737e-01 0.000000000000000e+00
					-7.696533202140812e-02 3.749999999677735e-01 0.000000000000000e+00
					-2.529296874769288e-01 4.999999999625002e-01 0.000000000000000e+00
					-3.906249999238283e-02 4.999999999625001e-01 0.000000000000000e+00
					-7.696533202140812e-02 3.749999999677735e-01 0.000000000000000e+00
					1.363143920805592e-01 3.749999999677735e-01 0.000000000000000e+00
					-3.906249999238283e-02 4.999999999625001e-01 0.000000000000000e+00
					2.099609374871826e-01 4.999999999625001e-01 0.000000000000000e+00
					1.363143920805592e-01 3.749999999677735e-01 0.000000000000000e+00
					3.749999999677735e-01 3.749999999677735e-01 0.000000000000000e+00
					2.099609374871826e-01 4.999999999625001e-01 0.000000000000000e+00
					4.999999999625001e-01 4.999999999625001e-01 0.000000000000000e+00
					-1.000000000000000e+00 4.999999999625001e-01 0.000000000000000e+00
					-8.740234374795657e-01 4.999999999625002e-01 0.000000000000000e+00
					-1.000000000000000e+00 6.249999999619140e-01 0.000000000000000e+00
					-8.752212524209730e-01 6.249999999619144e-01 0.000000000000000e+00
					-8.740234374795657e-01 4.999999999625002e-01 0.000000000000000e+00
					-7.421874999677737e-01 4.999999999625003e-01 0.000000000000000e+00
					-8.752212524209730e-01 6.249999999619144e-01 0.000000000000000e+00
					-7.451782226240327e-01 6.249999999619145e-01 0.000000000000000e+00
					-7.421874999677737e-01 4.999999999625003e-01 0.000000000000000e+00
					-5.986328124638918e-01 4.999999999625002e-01 0.000000000000000e+00
					-7.451782226240327e-01 6.249999999619145e-01 0.000000000000000e+00
					-6.013107299443914e-01 6.249999999619145e-01 0.000000000000000e+00
					-5.986328124638918e-01 4.999999999625002e-01 0.000000000000000e+00
					-4.374999999671877e-01 4.999999999625002e-01 0.000000000000000e+00
					-6.013107299443914e-01 6.249999999619145e-01 0.000000000000000e+00
					-4.350585937172609e-01 6.249999999619142e-01 0.000000000000000e+00
					-4.374999999671877e-01 4.999999999625002e-01 0.000000000000000e+00
					-2.529296874769288e-01 4.999999999625002e-01 0.000000000000000e+00
					-4.350585937172609e-01 6.249999999619142e-01 0.000000000000000e+00
					-2.378616332778531e-01 6.249999999619141e-01 0.000000000000000e+00
					-2.529296874769288e-01 4.999999999625002e-01 0.000000000000000e+00
					-3.906249999238283e-02 4.999999999625001e-01 0.000000000000000e+00
					-2.378616332778531e-01 6.249999999619141e-01 0.000000000000000e+00
					-1.159667961380013e-03 6.249999999619140e-01 0.000000000000000e+00
					-3.906249999238283e-02 4.999999999625001e-01 0.000000000000000e+00
					2.099609374871826e-01 4.999999999625001e-01 0.000000000000000e+00
					-1.159667961380013e-03 6.249999999619140e-01 0.000000000000000e+00
					2.836074828969463e-01 6.249999999619140e-01 0.000000000000000e+00
					2.099609374871826e-01 4.999999999625001e-01 0.000000000000000e+00
					4.999999999625001e-01 4.999999999625001e-01 0.000000000000000e+00
					2.836074828969463e-01 6.249999999619140e-01 0.000000000000000e+00
					6.249999999619140e-01 6.249999999619140e-01 0.000000000000000e+00
					-1.000000000000000e+00 6.249999999619140e-01 0.000000000000000e+00
					-8.752212524209730e-01 6.249999999619144e-01 0.000000000000000e+00
					-1.000000000000000e+00 7.499999999671875e-01 0.000000000000000e+00
					-8.758422851358064e-01 7.499999999671876e-01 0.000000000000000e+00
					-8.752212524209730e-01 6.249999999619144e-01 0.000000000000000e+00
					-7.451782226240327e-01 6.249999999619145e-01 0.000000000000000e+00
					-8.758422851358064e-01 7.499999999671876e-01 0.000000000000000e+00
					-7.461914062177003e-01 7.499999999671877e-01 0.000000000000000e+00
					-7.451782226240327e-01 6.249999999619145e-01 0.000000000000000e+00
					-6.013107299443914e-01 6.249999999619145e-01 0.000000000000000e+00
					-7.461914062177003e-01 7.499999999671877e-01 0.000000000000000e+00
					-6.002807616823945e-01 7.499999999671877e-01 0.000000000000000e+00
					-6.013107299443914e-01 6.249999999619145e-01 0.000000000000000e+00
					-4.350585937172609e-01 6.249999999619142e-01 0.000000000000000e+00
					-6.002807616823945e-01 7.499999999671877e-01 0.000000000000000e+00
					-4.273437499666016e-01 7.499999999671876e-01 0.000000000000000e+00
					-4.350585937172609e-01 6.249999999619142e-01 0.000000000000000e+00
					-2.378616332778531e-01 6.249999999619141e-01 0.000000000000000e+00
					-4.273437499666016e-01 7.499999999671876e-01 0.000000000000000e+00
					-2.166137695070343e-01 7.499999999671876e-01 0.000000000000000e+00
					-2.378616332778531e-01 6.249999999619141e-01 0.000000000000000e+00
					-1.159667961380013e-03 6.249999999619140e-01 0.000000000000000e+00
					-2.166137695070343e-01 7.499999999671876e-01 0.000000000000000e+00
					4.267578125959473e-02 7.499999999671874e-01 0.000000000000000e+00
					-1.159667961380013e-03 6.249999999619140e-01 0.000000000000000e+00
					2.836074828969463e-01 6.249999999619140e-01 0.000000000000000e+00
					4.267578125959473e-02 7.499999999671874e-01 0.000000000000000e+00
					3.612915038965728e-01 7.499999999671874e-01 0.000000000000000e+00
					2.836074828969463e-01 6.249999999619140e-01 0.000000000000000e+00
					6.249999999619140e-01 6.249999999619140e-01 0.000000000000000e+00
					3.612915038965728e-01 7.499999999671874e-01 0.000000000000000e+00
					7.499999999671875e-01 7.499999999671875e-01 0.000000000000000e+00
					-1.000000000000000e+00 7.499999999671875e-01 0.000000000000000e+00
					-8.758422851358064e-01 7.499999999671876e-01 0.000000000000000e+00
					-1.000000000000000e+00 8.749999999794922e-01 0.000000000000000e+00
					-8.753097533975012e-01 8.749999999794923e-01 0.000000000000000e+00
					-8.758422851358064e-01 7.499999999671876e-01 0.000000000000000e+00
					-7.461914062177003e-01 7.499999999671877e-01 0.000000000000000e+00
					-8.753097533975012e-01 8.749999999794923e-01 0.000000000000000e+00
					-7.432495116862581e-01 8.749999999794923e-01 0.000000000000000e+00
					-7.461914062177003e-01 7.499999999671877e-01 0.000000000000000e+00
					-6.002807616823945e-01 7.499999999671877e-01 0.000000000000000e+00
					-7.432495116862581e-01 8.749999999794923e-01 0.000000000000000e+00
					-5.918350219356517e-01 8.749999999794923e-01 0.000000000000000e+00
					-6.002807616823945e-01 7.499999999671877e-01 0.000000000000000e+00
					-4.273437499666016e-01 7.499999999671876e-01 0.000000000000000e+00
					-5.918350219356517e-01 8.749999999794923e-01 0.000000000000000e+00
					-4.090820312150635e-01 8.749999999794922e-01 0.000000000000000e+00
					-4.273437499666016e-01 7.499999999671876e-01 0.000000000000000e+00
					-2.166137695070343e-01 7.499999999671876e-01 0.000000000000000e+00
					-4.090820312150635e-01 8.749999999794922e-01 0.000000000000000e+00
					-1.830062865938740e-01 8.749999999794922e-01 0.000000000000000e+00
					-2.166137695070343e-01 7.499999999671876e-01 0.000000000000000e+00
					4.267578125959473e-02 7.499999999671874e-01 0.000000000000000e+00
					-1.830062865938740e-01 8.749999999794922e-01 0.000000000000000e+00
					9.837646485853577e-02 8.749999999794922e-01 0.000000000000000e+00
					4.267578125959473e-02 7.499999999671874e-01 0.000000000000000e+00
					3.612915038965728e-01 7.499999999671874e-01 0.000000000000000e+00
					9.837646485853577e-02 8.749999999794922e-01 0.000000000000000e+00
					4.470504760727847e-01 8.749999999794922e-01 0.000000000000000e+00
					3.612915038965728e-01 7.499999999671874e-01 0.000000000000000e+00
					7.499999999671875e-01 7.499999999671875e-01 0.000000000000000e+00
					4.470504760727847e-01 8.749999999794922e-01 0.000000000000000e+00
					8.749999999794922e-01 8.749999999794922e-01 0.000000000000000e+00
					-1.000000000000000e+00 8.749999999794922e-01 0.000000000000000e+00
					-8.753097533975012e-01 8.749999999794923e-01 0.000000000000000e+00
					-1.000000000000000e+00 1.000000000000000e+00 0.000000000000000e+00
					-8.730468749794923e-01 1.000000000000000e+00 0.000000000000000e+00
					-8.753097533975012e-01 8.749999999794923e-01 0.000000000000000e+00
					-7.432495116862581e-01 8.749999999794923e-01 0.000000000000000e+00
					-8.730468749794923e-01 1.000000000000000e+00 0.000000000000000e+00
					-7.343749999671876e-01 1.000000000000000e+00 0.000000000000000e+00
					-7.432495116862581e-01 8.749999999794923e-01 0.000000000000000e+00
					-5.918350219356517e-01 8.749999999794923e-01 0.000000000000000e+00
					-7.343749999671876e-01 1.000000000000000e+00 0.000000000000000e+00
					-5.722656249619140e-01 1.000000000000000e+00 0.000000000000000e+00
					-5.918350219356517e-01 8.749999999794923e-01 0.000000000000000e+00
					-4.090820312150635e-01 8.749999999794922e-01 0.000000000000000e+00
					-5.722656249619140e-01 1.000000000000000e+00 0.000000000000000e+00
					-3.749999999625000e-01 1.000000000000000e+00 0.000000000000000e+00
					-4.090820312150635e-01 8.749999999794922e-01 0.000000000000000e+00
					-1.830062865938740e-01 8.749999999794922e-01 0.000000000000000e+00
					-3.749999999625000e-01 1.000000000000000e+00 0.000000000000000e+00
					-1.308593749677734e-01 1.000000000000000e+00 0.000000000000000e+00
					-1.830062865938740e-01 8.749999999794922e-01 0.000000000000000e+00
					9.837646485853577e-02 8.749999999794922e-01 0.000000000000000e+00
					-1.308593749677734e-01 1.000000000000000e+00 0.000000000000000e+00
					1.718750000234375e-01 1.000000000000000e+00 0.000000000000000e+00
					9.837646485853577e-02 8.749999999794922e-01 0.000000000000000e+00
					4.470504760727847e-01 8.749999999794922e-01 0.000000000000000e+00
					1.718750000234375e-01 1.000000000000000e+00 0.000000000000000e+00
					5.449218750123046e-01 1.000000000000000e+00 0.000000000000000e+00
					4.470504760727847e-01 8.749999999794922e-01 0.000000000000000e+00
					8.749999999794922e-01 8.749999999794922e-01 0.000000000000000e+00
					5.449218750123046e-01 1.000000000000000e+00 0.000000000000000e+00
					1.000000000000000e+00 1.000000000000000e+00 0.000000000000000e+00
				</DataArray>
			</Points>
			<Cells>
				<DataArray Name="connectivity" type="UInt32" format="ascii">
					0 1 3 2 4 5 7 6 8 9 11 10 12 13 15 14 16 17 19 18 20 21 23 22 24 25 27 26 28 29 31 30 32 33 35 34 36 37 39 38 40 41 43 42 44 45 47 46 48 49 51 50 52 53 55 54 56 57 59 58 60 61 63 62 64 65 67 66 68 69 71 70 72 73 75 74 76 77 79 78 80 81 83 82 84 85 87 86 88 89 91 90 92 93 95 94 96 97 99 98 100 101 103 102 104 105 107 106 108 109 111 110 112 113 115 114 116 117 119 118 120 121 123 122 124 125 127 126 128 129 131 130 132 133 135 134 136 137 139 138 140 141 143 142 144 145 147 146 148 149 151 150 152 153 155 154 156 157 159 158 160 161 163 162 164 165 167 166 168 169 171 170 172 173 175 174 176 177 179 178 180 181 183 182 184 185 187 186 188 189 191 190 192 193 195 194 196 197 199 198 200 201 203 202 204 205 207 206 208 209 211 210 212 213 215 214 216 217 219 218 220 221 223 222 224 225 227 226 228 229 231 230 232 233 235 234 236 237 239 238 240 241 243 242 244 245 247 246 248 249 251 250 252 253 255 254 
				</DataArray>
				<DataArray Name="offsets" type="UInt32" format="ascii">
					4 8 12 16 20 24 28 32 36 40 44 48 52 56 60 64 68 72 76 80 84 88 92 96 100 104 108 112 116 120 124 128 132 136 140 144 148 152 156 160 164 168 172 176 180 184 188 192 196 200 204 208 212 216 220 224 228 232 236 240 244 248 252 256 
				</DataArray>
				<DataArray Name="types" type="UInt8" format="ascii">
					9 9 9 9 9 9 9 9 9 9 9 9 9 9 9 9 9 9 9 9 9 9 9 9 9 9 9 9 9 9 9 9 9 9 9 9 9 9 9 9 9 9 9 9 9 9 9 9 9 9 9 9 9 9 9 9 9 9 9 9 9 9 9 9 
				</DataArray>
			</Cells>
			<PointData Vectors="solution ">
				<DataArray Name="solution" type="Float64" NumberOfComponents="1" format="ascii">
					0.000000000000000e+00 0.000000000000000e+00 0.000000000000000e+00 6.550501464229641e-03 0.000000000000000e+00 0.000000000000000e+00 6.550501464229641e-03 1.689532286033888e-02 0.000000000000000e+00 0.000000000000000e+00 1.689532286033888e-02 2.226894719161446e-02 0.000000000000000e+00 0.000000000000000e+00 2.226894719161446e-02 2.014600617785830e-02 0.000000000000000e+00 0.000000000000000e+00 2.014600617785830e-02 1.266204764731951e-02 0.000000000000000e+00 0.000000000000000e+00 1.266204764731951e-02 4.425971424608491e-03 0.000000000000000e+00 0.000000000000000e+00 4.425971424608491e-03 1.152216772320373e-04 0.000000000000000e+00 0.000000000000000e+00 1.152216772320373e-04 2.266713039677294e-03 0.000000000000000e+00 6.550501464229641e-03 0.000000000000000e+00 2.392235675717711e-02 6.550501464229641e-03 1.689532286033888e-02 2.392235675717711e-02 6.199244258568402e-02 1.689532286033888e-02 2.226894719161446e-02 6.199244258568402e-02 8.109455992312353e-02 2.226894719161446e-02 2.014600617785830e-02 8.109455992312353e-02 7.038043282325582e-02 2.014600617785830e-02 1.266204764731951e-02 7.038043282325582e-02 3.858599865813061e-02 1.266204764731951e-02 4.425971424608491e-03 3.858599865813061e-02 7.779674268525037e-03 4.425971424608491e-03 1.152216772320373e-04 7.779674268525037e-03 1.862817068822244e-03 1.152216772320373e-04 2.266713039677294e-03 1.862817068822244e-03 3.018446604705853e-02 0.000000000000000e+00 2.392235675717711e-02 0.000000000000000e+00 4.488268700826756e-02 2.392235675717711e-02 6.199244258568402e-02 4.488268700826756e-02 1.167539753057934e-01 6.199244258568402e-02 8.109455992312353e-02 1.167539753057934e-01 1.533748126923011e-01 8.109455992312353e-02 7.038043282325582e-02 1.533748126923011e-01 1.307273726458232e-01 7.038043282325582e-02 3.858599865813061e-02 1.307273726458232e-01 6.425624706201823e-02 3.858599865813061e-02 7.779674268525037e-03 6.425624706201823e-02 6.071815090174172e-03 7.779674268525037e-03 1.862817068822244e-03 6.071815090174172e-03 1.856086544768439e-02 1.862817068822244e-03 3.018446604705853e-02 1.856086544768439e-02 1.078515983645597e-01 0.000000000000000e+00 4.488268700826756e-02 0.000000000000000e+00 5.987317592077678e-02 4.488268700826756e-02 1.167539753057934e-01 5.987317592077678e-02 1.562731954590918e-01 1.167539753057934e-01 1.533748126923011e-01 1.562731954590918e-01 2.074737330146536e-01 1.533748126923011e-01 1.307273726458232e-01 2.074737330146536e-01 1.759849837083687e-01 1.307273726458232e-01 6.425624706201823e-02 1.759849837083687e-01 7.881455512664497e-02 6.425624706201823e-02 6.071815090174172e-03 7.881455512664497e-02 2.122744369550893e-03 6.071815090174172e-03 1.856086544768439e-02 2.122744369550893e-03 5.655252360762170e-02 1.856086544768439e-02 1.078515983645597e-01 5.655252360762170e-02 1.974445409959444e-01 0.000000000000000e+00 5.987317592077678e-02 0.000000000000000e+00 6.083267157662740e-02 5.987317592077678e-02 1.562731954590918e-01 6.083267157662740e-02 1.592925141450027e-01 1.562731954590918e-01 2.074737330146536e-01 1.592925141450027e-01 2.137692222568635e-01 2.074737330146536e-01 1.759849837083687e-01 2.137692222568635e-01 1.804560711711279e-01 1.759849837083687e-01 7.881455512664497e-02 1.804560711711279e-01 7.304046503089286e-02 7.881455512664497e-02 2.122744369550893e-03 7.304046503089286e-02 -3.230632628684689e-05 2.122744369550893e-03 5.655252360762170e-02 -3.230632628684689e-05 9.845957110769434e-02 5.655252360762170e-02 1.974445409959444e-01 9.845957110769434e-02 2.097405766076821e-01 0.000000000000000e+00 6.083267157662740e-02 0.000000000000000e+00 4.479708249677503e-02 6.083267157662740e-02 1.592925141450027e-01 4.479708249677503e-02 1.177508702466639e-01 1.592925141450027e-01 2.137692222568635e-01 1.177508702466639e-01 1.587399082509475e-01 2.137692222568635e-01 1.804560711711279e-01 1.587399082509475e-01 1.313666655538597e-01 1.804560711711279e-01 7.304046503089286e-02 1.313666655538597e-01 4.588655957804891e-02 7.304046503089286e-02 -3.230632628684689e-05 4.588655957804891e-02 1.920242644212884e-03 -3.230632628684689e-05 9.845957110769434e-02 1.920242644212884e-03 1.061049633880049e-01 9.845957110769434e-02 2.097405766076821e-01 1.061049633880049e-01 1.150594824596648e-01 0.000000000000000e+00 4.479708249677503e-02 0.000000000000000e+00 1.761784490748858e-02 4.479708249677503e-02 1.177508702466639e-01 1.761784490748858e-02 4.654061009904478e-02 1.177508702466639e-01 1.587399082509475e-01 4.654061009904478e-02 6.218754069428961e-02 1.587399082509475e-01 1.313666655538597e-01 6.218754069428961e-02 4.879805130564362e-02 1.313666655538597e-01 4.588655957804891e-02 4.879805130564362e-02 1.315661071259672e-02 4.588655957804891e-02 1.920242644212884e-03 1.315661071259672e-02 4.015604999538051e-03 1.920242644212884e-03 1.061049633880049e-01 4.015604999538051e-03 5.406682474647252e-02 1.061049633880049e-01 1.150594824596648e-01 5.406682474647252e-02 1.934203689957167e-02 0.000000000000000e+00 1.761784490748858e-02 0.000000000000000e+00 0.000000000000000e+00 1.761784490748858e-02 4.654061009904478e-02 0.000000000000000e+00 0.000000000000000e+00 4.654061009904478e-02 6.218754069428961e-02 0.000000000000000e+00 0.000000000000000e+00 6.218754069428961e-02 4.879805130564362e-02 0.000000000000000e+00 0.000000000000000e+00 4.879805130564362e-02 1.315661071259672e-02 0.000000000000000e+00 0.000000000000000e+00 1.315661071259672e-02 4.015604999538051e-03 0.000000000000000e+00 0.000000000000000e+00 4.015604999538051e-03 5.406682474647252e-02 0.000000000000000e+00 0.000000000000000e+00 5.406682474647252e-02 1.934203689957167e-02 0.000000000000000e+00 0.000000000000000e+00 
				</DataArray>
			</PointData>
			<CellData>
			</CellData>
		</Piece>
	</UnstructuredGrid>
</VTKFile>