<?xml version="1.0"?>
<VTKFile type="UnstructuredGrid" byte_order="LittleEndian">
	<UnstructuredGrid>
		<Piece NumberOfPoints="64" NumberOfCells="16">
			<Points>
				<DataArray type="Float64" NumberOfComponents="3" format="ascii">
					-1.000000000000000e+00 -1.000000000000000e+00 0.000000000000000e+00
					-5.000000000000000e-01 -1.375000000000000e+00 0.000000000000000e+00
					-8.338955762008279e-01 -8.338955762008279e-01 0.000000000000000e+00
					-4.169477881004139e-01 -1.046184735125517e+00 0.000000000000000e+00
					-5.000000000000000e-01 -1.375000000000000e+00 0.000000000000000e+00
					1.387778780781446e-17 -1.500000000000000e+00 0.000000000000000e+00
					-4.169477881004139e-01 -1.046184735125517e+00 0.000000000000000e+00
					6.938893903907228e-18 -1.116947788100414e+00 0.000000000000000e+00
					1.387778780781446e-17 -1.500000000000000e+00 0.000000000000000e+00
					5.000000000000000e-01 -1.375000000000000e+00 0.000000000000000e+00
					6.938893903907228e-18 -1.116947788100414e+00 0.000000000000000e+00
					4.169477881004139e-01 -1.046184735125518e+00 0.000000000000000e+00
					5.000000000000000e-01 -1.375000000000000e+00 0.000000000000000e+00
					1.000000000000000e+00 -1.000000000000000e+00 0.000000000000000e+00
					4.169477881004139e-01 -1.046184735125518e+00 0.000000000000000e+00
					8.338955762008279e-01 -8.338955762008279e-01 0.000000000000000e+00
					-8.338955762008279e-01 -8.338955762008279e-01 0.000000000000000e+00
					-4.169477881004139e-01 -1.046184735125517e+00 0.000000000000000e+00
					-6.951941016011038e-01 -6.951941016011038e-01 0.000000000000000e+00
					-3.475970508005519e-01 -7.907463135006900e-01 0.000000000000000e+00
					-4.169477881004139e-01 -1.046184735125517e+00 0.000000000000000e+00
					6.938893903907228e-18 -1.116947788100414e+00 0.000000000000000e+00
					-3.475970508005519e-01 -7.907463135006900e-01 0.000000000000000e+00
					0.000000000000000e+00 -8.225970508005519e-01 0.000000000000000e+00
					6.938893903907228e-18 -1.116947788100414e+00 0.000000000000000e+00
					4.169477881004139e-01 -1.046184735125518e+00 0.000000000000000e+00
					0.000000000000000e+00 -8.225970508005519e-01 0.000000000000000e+00
					3.475970508005519e-01 -7.907463135006899e-01 0.000000000000000e+00
					4.169477881004139e-01 -1.046184735125518e+00 0.000000000000000e+00
					8.338955762008279e-01 -8.338955762008279e-01 0.000000000000000e+00
					3.475970508005519e-01 -7.907463135006899e-01 0.000000000000000e+00
					6.951941016011038e-01 -6.951941016011038e-01 0.000000000000000e+00
					-6.951941016011038e-01 -6.951941016011038e-01 0.000000000000000e+00
					-3.475970508005519e-01 -7.907463135006900e-01 0.000000000000000e+00
					-5.838955762008279e-01 -5.838955762008279e-01 0.000000000000000e+00
					-2.919477881004139e-01 -6.086847351255175e-01 0.000000000000000e+00
					-3.475970508005519e-01 -7.907463135006900e-01 0.000000000000000e+00
					0.000000000000000e+00 -8.225970508005519e-01 0.000000000000000e+00
					-2.919477881004139e-01 -6.086847351255175e-01 0.000000000000000e+00
					6.938893903907228e-18 -6.169477881004140e-01 0.000000000000000e+00
					0.000000000000000e+00 -8.225970508005519e-01 0.000000000000000e+00
					3.475970508005519e-01 -7.907463135006899e-01 0.000000000000000e+00
					6.938893903907228e-18 -6.169477881004140e-01 0.000000000000000e+00
					2.919477881004139e-01 -6.086847351255174e-01 0.000000000000000e+00
					3.475970508005519e-01 -7.907463135006899e-01 0.000000000000000e+00
					6.951941016011038e-01 -6.951941016011038e-01 0.000000000000000e+00
					2.919477881004139e-01 -6.086847351255174e-01 0.000000000000000e+00
					5.838955762008279e-01 -5.838955762008279e-01 0.000000000000000e+00
					-5.838955762008279e-01 -5.838955762008279e-01 0.000000000000000e+00
					-2.919477881004139e-01 -6.086847351255175e-01 0.000000000000000e+00
					-5.000000000000000e-01 -5.000000000000000e-01 0.000000000000000e+00
					-2.500000000000000e-01 -5.000000000000000e-01 0.000000000000000e+00
					-2.919477881004139e-01 -6.086847351255175e-01 0.000000000000000e+00
					6.938893903907228e-18 -6.169477881004140e-01 0.000000000000000e+00
					-2.500000000000000e-01 -5.000000000000000e-01 0.000000000000000e+00
					6.938893903907228e-18 -5.000000000000000e-01 0.000000000000000e+00
					6.938893903907228e-18 -6.169477881004140e-01 0.000000000000000e+00
					2.919477881004139e-01 -6.086847351255174e-01 0.000000000000000e+00
					6.938893903907228e-18 -5.000000000000000e-01 0.000000000000000e+00
					2.500000000000000e-01 -5.000000000000000e-01 0.000000000000000e+00
					2.919477881004139e-01 -6.086847351255174e-01 0.000000000000000e+00
					5.838955762008279e-01 -5.838955762008279e-01 0.000000000000000e+00
					2.500000000000000e-01 -5.000000000000000e-01 0.000000000000000e+00
					5.000000000000000e-01 -5.000000000000000e-01 0.000000000000000e+00
				</DataArray>
			</Points>
			<Cells>
				<DataArray Name="connectivity" type="UInt32" format="ascii">
					0 1 3 2 4 5 7 6 8 9 11 10 12 13 15 14 16 17 19 18 20 21 23 22 24 25 27 26 28 29 31 30 32 33 35 34 36 37 39 38 40 41 43 42 44 45 47 46 48 49 51 50 52 53 55 54 56 57 59 58 60 61 63 62 
				</DataArray>
				<DataArray Name="offsets" type="UInt32" format="ascii">
					4 8 12 16 20 24 28 32 36 40 44 48 52 56 60 64 
				</DataArray>
				<DataArray Name="types" type="UInt8" format="ascii">
					9 9 9 9 9 9 9 9 9 9 9 9 9 9 9 9 
				</DataArray>
			</Cells>
			<PointData Vectors="solution ">
				<DataArray Name="solution" type="Float64" NumberOfComponents="1" format="ascii">
					0.000000000000000e+00 0.000000000000000e+00 7.823754612374185e-03 3.544548886109324e-02 0.000000000000000e+00 0.000000000000000e+00 3.544548886109324e-02 6.430041442677766e-02 0.000000000000000e+00 0.000000000000000e+00 6.430041442677766e-02 8.266114078407052e-02 0.000000000000000e+00 0.000000000000000e+00 8.266114078407054e-02 4.320998362096579e-02 7.823754612374187e-03 3.544548886109324e-02 1.840382826057621e-01 5.059167783223475e-01 3.544548886109325e-02 6.430041442677766e-02 5.059167783223476e-01 8.704052034645201e-01 6.430041442677767e-02 8.266114078407054e-02 8.704052034645202e-01 1.015635583488461e+00 8.266114078407057e-02 4.320998362096579e-02 1.015635583488461e+00 7.372618320968636e-01 1.840382826057621e-01 5.059167783223476e-01 7.198549038835623e-01 1.837624107450023e+00 5.059167783223477e-01 8.704052034645202e-01 1.837624107450023e+00 2.991258551196430e+00 8.704052034645205e-01 1.015635583488461e+00 2.991258551196430e+00 3.296001547838643e+00 1.015635583488461e+00 7.372618320968637e-01 3.296001547838644e+00 2.312988967695895e+00 7.198549038835624e-01 1.837624107450023e+00 1.617253720326282e+00 3.483122692194736e+00 1.837624107450023e+00 2.991258551196430e+00 3.483122692194736e+00 5.261519455766470e+00 2.991258551196431e+00 3.296001547838644e+00 5.261519455766472e+00 5.741419708757559e+00 3.296001547838644e+00 2.312988967695896e+00 5.741419708757561e+00 4.390271895987404e+00 
				</DataArray>
			</PointData>
			<CellData>
			</CellData>
		</Piece>
	</UnstructuredGrid>
</VTKFile>