<?xml version="1.0"?>
<VTKFile type="UnstructuredGrid" byte_order="LittleEndian">
	<UnstructuredGrid>
		<Piece NumberOfPoints="256" NumberOfCells="64">
			<Points>
				<DataArray type="Float64" NumberOfComponents="3" format="ascii">
					1.000000000000000e+00 -1.000000000000000e+00 0.000000000000000e+00
					1.218750000000000e+00 -7.500000000000000e-01 0.000000000000000e+00
					9.135224194504830e-01 -9.135224194504830e-01 0.000000000000000e+00
					1.081462827695690e+00 -6.851418145878622e-01 0.000000000000000e+00
					1.218750000000000e+00 -7.500000000000000e-01 0.000000000000000e+00
					1.375000000000000e+00 -5.000000000000000e-01 0.000000000000000e+00
					1.081462827695690e+00 -6.851418145878622e-01 0.000000000000000e+00
					1.201420262156552e+00 -4.567612097252415e-01 0.000000000000000e+00
					1.375000000000000e+00 -5.000000000000000e-01 0.000000000000000e+00
					1.468750000000000e+00 -2.500000000000000e-01 0.000000000000000e+00
					1.201420262156552e+00 -4.567612097252415e-01 0.000000000000000e+00
					1.273394722833069e+00 -2.283806048626207e-01 0.000000000000000e+00
					1.468750000000000e+00 -2.500000000000000e-01 0.000000000000000e+00
					1.500000000000000e+00 0.000000000000000e+00 0.000000000000000e+00
					1.273394722833069e+00 -2.283806048626207e-01 0.000000000000000e+00
					1.297386209725242e+00 1.040834085586084e-17 0.000000000000000e+00
					1.500000000000000e+00 0.000000000000000e+00 0.000000000000000e+00
					1.468750000000000e+00 2.500000000000000e-01 0.000000000000000e+00
					1.297386209725242e+00 1.040834085586084e-17 0.000000000000000e+00
					1.273394722833069e+00 2.283806048626208e-01 0.000000000000000e+00
					1.468750000000000e+00 2.500000000000000e-01 0.000000000000000e+00
					1.375000000000000e+00 5.000000000000000e-01 0.000000000000000e+00
					1.273394722833069e+00 2.283806048626208e-01 0.000000000000000e+00
					1.201420262156552e+00 4.567612097252415e-01 0.000000000000000e+00
					1.375000000000000e+00 5.000000000000000e-01 0.000000000000000e+00
					1.218750000000000e+00 7.500000000000000e-01 0.000000000000000e+00
					1.201420262156552e+00 4.567612097252415e-01 0.000000000000000e+00
					1.081462827695690e+00 6.851418145878623e-01 0.000000000000000e+00
					1.218750000000000e+00 7.500000000000000e-01 0.000000000000000e+00
					1.000000000000000e+00 1.000000000000000e+00 0.000000000000000e+00
					1.081462827695690e+00 6.851418145878623e-01 0.000000000000000e+00
					9.135224194504830e-01 9.135224194504830e-01 0.000000000000000e+00
					9.135224194504830e-01 -9.135224194504830e-01 0.000000000000000e+00
					1.081462827695690e+00 -6.851418145878622e-01 0.000000000000000e+00
					8.338955762008279e-01 -8.338955762008279e-01 0.000000000000000e+00
					9.577309189068969e-01 -6.254216821506209e-01 0.000000000000000e+00
					1.081462827695690e+00 -6.851418145878622e-01 0.000000000000000e+00
					1.201420262156552e+00 -4.567612097252415e-01 0.000000000000000e+00
					9.577309189068969e-01 -6.254216821506209e-01 0.000000000000000e+00
					1.046184735125518e+00 -4.169477881004140e-01 0.000000000000000e+00
					1.201420262156552e+00 -4.567612097252415e-01 0.000000000000000e+00
					1.273394722833069e+00 -2.283806048626207e-01 0.000000000000000e+00
					1.046184735125518e+00 -4.169477881004140e-01 0.000000000000000e+00
					1.099257024856690e+00 -2.084738940502070e-01 0.000000000000000e+00
					1.273394722833069e+00 -2.283806048626207e-01 0.000000000000000e+00
					1.297386209725242e+00 1.040834085586084e-17 0.000000000000000e+00
					1.099257024856690e+00 -2.084738940502070e-01 0.000000000000000e+00
					1.116947788100414e+00 1.734723475976807e-17 0.000000000000000e+00
					1.297386209725242e+00 1.040834085586084e-17 0.000000000000000e+00
					1.273394722833069e+00 2.283806048626208e-01 0.000000000000000e+00
					1.116947788100414e+00 1.734723475976807e-17 0.000000000000000e+00
					1.099257024856690e+00 2.084738940502070e-01 0.000000000000000e+00
					1.273394722833069e+00 2.283806048626208e-01 0.000000000000000e+00
					1.201420262156552e+00 4.567612097252415e-01 0.000000000000000e+00
					1.099257024856690e+00 2.084738940502070e-01 0.000000000000000e+00
					1.046184735125518e+00 4.169477881004140e-01 0.000000000000000e+00
					1.201420262156552e+00 4.567612097252415e-01 0.000000000000000e+00
					1.081462827695690e+00 6.851418145878623e-01 0.000000000000000e+00
					1.046184735125518e+00 4.169477881004140e-01 0.000000000000000e+00
					9.577309189068968e-01 6.254216821506209e-01 0.000000000000000e+00
					1.081462827695690e+00 6.851418145878623e-01 0.000000000000000e+00
					9.135224194504830e-01 9.135224194504830e-01 0.000000000000000e+00
					9.577309189068968e-01 6.254216821506209e-01 0.000000000000000e+00
					8.338955762008279e-01 8.338955762008279e-01 0.000000000000000e+00
					8.338955762008279e-01 -8.338955762008279e-01 0.000000000000000e+00
					9.577309189068969e-01 -6.254216821506209e-01 0.000000000000000e+00
					7.611194702510349e-01 -7.611194702510349e-01 0.000000000000000e+00
					8.475542736336210e-01 -5.708396026882762e-01 0.000000000000000e+00
					9.577309189068969e-01 -6.254216821506209e-01 0.000000000000000e+00
					1.046184735125518e+00 -4.169477881004140e-01 0.000000000000000e+00
					8.475542736336210e-01 -5.708396026882762e-01 0.000000000000000e+00
					9.092934189068969e-01 -3.805597351255174e-01 0.000000000000000e+00
					1.046184735125518e+00 -4.169477881004140e-01 0.000000000000000e+00
					1.099257024856690e+00 -2.084738940502070e-01 0.000000000000000e+00
					9.092934189068969e-01 -3.805597351255174e-01 0.000000000000000e+00
					9.463369060708624e-01 -1.902798675627587e-01 0.000000000000000e+00
					1.099257024856690e+00 -2.084738940502070e-01 0.000000000000000e+00
					1.116947788100414e+00 1.734723475976807e-17 0.000000000000000e+00
					9.463369060708624e-01 -1.902798675627587e-01 0.000000000000000e+00
					9.586847351255177e-01 2.428612866367530e-17 0.000000000000000e+00
					1.116947788100414e+00 1.734723475976807e-17 0.000000000000000e+00
					1.099257024856690e+00 2.084738940502070e-01 0.000000000000000e+00
					9.586847351255177e-01 2.428612866367530e-17 0.000000000000000e+00
					9.463369060708624e-01 1.902798675627587e-01 0.000000000000000e+00
					1.099257024856690e+00 2.084738940502070e-01 0.000000000000000e+00
					1.046184735125518e+00 4.169477881004140e-01 0.000000000000000e+00
					9.463369060708624e-01 1.902798675627587e-01 0.000000000000000e+00
					9.092934189068969e-01 3.805597351255174e-01 0.000000000000000e+00
					1.046184735125518e+00 4.169477881004140e-01 0.000000000000000e+00
					9.577309189068968e-01 6.254216821506209e-01 0.000000000000000e+00
					9.092934189068969e-01 3.805597351255174e-01 0.000000000000000e+00
					8.475542736336210e-01 5.708396026882762e-01 0.000000000000000e+00
					9.577309189068968e-01 6.254216821506209e-01 0.000000000000000e+00
					8.338955762008279e-01 8.338955762008279e-01 0.000000000000000e+00
					8.475542736336210e-01 5.708396026882762e-01 0.000000000000000e+00
					7.611194702510349e-01 7.611194702510349e-01 0.000000000000000e+00
					7.611194702510349e-01 -7.611194702510349e-01 0.000000000000000e+00
					8.475542736336210e-01 -5.708396026882762e-01 0.000000000000000e+00
					6.951941016011038e-01 -6.951941016011038e-01 0.000000000000000e+00
					7.509328918758624e-01 -5.213955762008279e-01 0.000000000000000e+00
					8.475542736336210e-01 -5.708396026882762e-01 0.000000000000000e+00
					9.092934189068969e-01 -3.805597351255174e-01 0.000000000000000e+00
					7.509328918758624e-01 -5.213955762008279e-01 0.000000000000000e+00
					7.907463135006900e-01 -3.475970508005519e-01 0.000000000000000e+00
					9.092934189068969e-01 -3.805597351255174e-01 0.000000000000000e+00
					9.463369060708624e-01 -1.902798675627587e-01 0.000000000000000e+00
					7.907463135006900e-01 -3.475970508005519e-01 0.000000000000000e+00
					8.146343664755866e-01 -1.737985254002760e-01 0.000000000000000e+00
					9.463369060708624e-01 -1.902798675627587e-01 0.000000000000000e+00
					9.586847351255177e-01 2.428612866367530e-17 0.000000000000000e+00
					8.146343664755866e-01 -1.737985254002760e-01 0.000000000000000e+00
					8.225970508005520e-01 2.428612866367530e-17 0.000000000000000e+00
					9.586847351255177e-01 2.428612866367530e-17 0.000000000000000e+00
					9.463369060708624e-01 1.902798675627587e-01 0.000000000000000e+00
					8.225970508005520e-01 2.428612866367530e-17 0.000000000000000e+00
					8.146343664755865e-01 1.737985254002760e-01 0.000000000000000e+00
					9.463369060708624e-01 1.902798675627587e-01 0.000000000000000e+00
					9.092934189068969e-01 3.805597351255174e-01 0.000000000000000e+00
					8.146343664755865e-01 1.737985254002760e-01 0.000000000000000e+00
					7.907463135006900e-01 3.475970508005519e-01 0.000000000000000e+00
					9.092934189068969e-01 3.805597351255174e-01 0.000000000000000e+00
					8.475542736336210e-01 5.708396026882762e-01 0.000000000000000e+00
					7.907463135006900e-01 3.475970508005519e-01 0.000000000000000e+00
					7.509328918758624e-01 5.213955762008279e-01 0.000000000000000e+00
					8.475542736336210e-01 5.708396026882762e-01 0.000000000000000e+00
					7.611194702510349e-01 7.611194702510349e-01 0.000000000000000e+00
					7.509328918758624e-01 5.213955762008279e-01 0.000000000000000e+00
					6.951941016011038e-01 6.951941016011038e-01 0.000000000000000e+00
					6.951941016011038e-01 -6.951941016011038e-01 0.000000000000000e+00
					7.509328918758624e-01 -5.213955762008279e-01 0.000000000000000e+00
					6.361194702510349e-01 -6.361194702510349e-01 0.000000000000000e+00
					6.678667736336210e-01 -4.770896026882762e-01 0.000000000000000e+00
					7.509328918758624e-01 -5.213955762008279e-01 0.000000000000000e+00
					7.907463135006900e-01 -3.475970508005519e-01 0.000000000000000e+00
					6.678667736336210e-01 -4.770896026882762e-01 0.000000000000000e+00
					6.905434189068969e-01 -3.180597351255174e-01 0.000000000000000e+00
					7.907463135006900e-01 -3.475970508005519e-01 0.000000000000000e+00
					8.146343664755866e-01 -1.737985254002760e-01 0.000000000000000e+00
					6.905434189068969e-01 -3.180597351255174e-01 0.000000000000000e+00
					7.041494060708624e-01 -1.590298675627587e-01 0.000000000000000e+00
					8.146343664755866e-01 -1.737985254002760e-01 0.000000000000000e+00
					8.225970508005520e-01 2.428612866367530e-17 0.000000000000000e+00
					7.041494060708624e-01 -1.590298675627587e-01 0.000000000000000e+00
					7.086847351255174e-01 1.734723475976807e-17 0.000000000000000e+00
					8.225970508005520e-01 2.428612866367530e-17 0.000000000000000e+00
					8.146343664755865e-01 1.737985254002760e-01 0.000000000000000e+00
					7.086847351255174e-01 1.734723475976807e-17 0.000000000000000e+00
					7.041494060708622e-01 1.590298675627587e-01 0.000000000000000e+00
					8.146343664755865e-01 1.737985254002760e-01 0.000000000000000e+00
					7.907463135006900e-01 3.475970508005519e-01 0.000000000000000e+00
					7.041494060708622e-01 1.590298675627587e-01 0.000000000000000e+00
					6.905434189068967e-01 3.180597351255174e-01 0.000000000000000e+00
					7.907463135006900e-01 3.475970508005519e-01 0.000000000000000e+00
					7.509328918758624e-01 5.213955762008279e-01 0.000000000000000e+00
					6.905434189068967e-01 3.180597351255174e-01 0.000000000000000e+00
					6.678667736336210e-01 4.770896026882762e-01 0.000000000000000e+00
					7.509328918758624e-01 5.213955762008279e-01 0.000000000000000e+00
					6.951941016011038e-01 6.951941016011038e-01 0.000000000000000e+00
					6.678667736336210e-01 4.770896026882762e-01 0.000000000000000e+00
					6.361194702510349e-01 6.361194702510349e-01 0.000000000000000e+00
					6.361194702510349e-01 -6.361194702510349e-01 0.000000000000000e+00
					6.678667736336210e-01 -4.770896026882762e-01 0.000000000000000e+00
					5.838955762008278e-01 -5.838955762008278e-01 0.000000000000000e+00
					5.983559189068968e-01 -4.379216821506209e-01 0.000000000000000e+00
					6.678667736336210e-01 -4.770896026882762e-01 0.000000000000000e+00
					6.905434189068969e-01 -3.180597351255174e-01 0.000000000000000e+00
					5.983559189068968e-01 -4.379216821506209e-01 0.000000000000000e+00
					6.086847351255174e-01 -2.919477881004139e-01 0.000000000000000e+00
					6.905434189068969e-01 -3.180597351255174e-01 0.000000000000000e+00
					7.041494060708624e-01 -1.590298675627587e-01 0.000000000000000e+00
					6.086847351255174e-01 -2.919477881004139e-01 0.000000000000000e+00
					6.148820248566897e-01 -1.459738940502069e-01 0.000000000000000e+00
					7.041494060708624e-01 -1.590298675627587e-01 0.000000000000000e+00
					7.086847351255174e-01 1.734723475976807e-17 0.000000000000000e+00
					6.148820248566897e-01 -1.459738940502069e-01 0.000000000000000e+00
					6.169477881004138e-01 1.040834085586084e-17 0.000000000000000e+00
					7.086847351255174e-01 1.734723475976807e-17 0.000000000000000e+00
					7.041494060708622e-01 1.590298675627587e-01 0.000000000000000e+00
					6.169477881004138e-01 1.040834085586084e-17 0.000000000000000e+00
					6.148820248566897e-01 1.459738940502070e-01 0.000000000000000e+00
					7.041494060708622e-01 1.590298675627587e-01 0.000000000000000e+00
					6.905434189068967e-01 3.180597351255174e-01 0.000000000000000e+00
					6.148820248566897e-01 1.459738940502070e-01 0.000000000000000e+00
					6.086847351255174e-01 2.919477881004139e-01 0.000000000000000e+00
					6.905434189068967e-01 3.180597351255174e-01 0.000000000000000e+00
					6.678667736336210e-01 4.770896026882762e-01 0.000000000000000e+00
					6.086847351255174e-01 2.919477881004139e-01 0.000000000000000e+00
					5.983559189068968e-01 4.379216821506209e-01 0.000000000000000e+00
					6.678667736336210e-01 4.770896026882762e-01 0.000000000000000e+00
					6.361194702510349e-01 6.361194702510349e-01 0.000000000000000e+00
					5.983559189068968e-01 4.379216821506209e-01 0.000000000000000e+00
					5.838955762008278e-01 5.838955762008278e-01 0.000000000000000e+00
					5.838955762008278e-01 -5.838955762008278e-01 0.000000000000000e+00
					5.983559189068968e-01 -4.379216821506209e-01 0.000000000000000e+00
					5.385224194504830e-01 -5.385224194504830e-01 0.000000000000000e+00
					5.424003276956898e-01 -4.038918145878622e-01 0.000000000000000e+00
					5.983559189068968e-01 -4.379216821506209e-01 0.000000000000000e+00
					6.086847351255174e-01 -2.919477881004139e-01 0.000000000000000e+00
					5.424003276956898e-01 -4.038918145878622e-01 0.000000000000000e+00
					5.451702621565517e-01 -2.692612097252414e-01 0.000000000000000e+00
					6.086847351255174e-01 -2.919477881004139e-01 0.000000000000000e+00
					6.148820248566897e-01 -1.459738940502069e-01 0.000000000000000e+00
					5.451702621565517e-01 -2.692612097252414e-01 0.000000000000000e+00
					5.468322228330691e-01 -1.346306048626207e-01 0.000000000000000e+00
					6.148820248566897e-01 -1.459738940502069e-01 0.000000000000000e+00
					6.169477881004138e-01 1.040834085586084e-17 0.000000000000000e+00
					5.468322228330691e-01 -1.346306048626207e-01 0.000000000000000e+00
					5.473862097252414e-01 3.469446951953614e-18 0.000000000000000e+00
					6.169477881004138e-01 1.040834085586084e-17 0.000000000000000e+00
					6.148820248566897e-01 1.459738940502070e-01 0.000000000000000e+00
					5.473862097252414e-01 3.469446951953614e-18 0.000000000000000e+00
					5.468322228330691e-01 1.346306048626207e-01 0.000000000000000e+00
					6.148820248566897e-01 1.459738940502070e-01 0.000000000000000e+00
					6.086847351255174e-01 2.919477881004139e-01 0.000000000000000e+00
					5.468322228330691e-01 1.346306048626207e-01 0.000000000000000e+00
					5.451702621565518e-01 2.692612097252414e-01 0.000000000000000e+00
					6.086847351255174e-01 2.919477881004139e-01 0.000000000000000e+00
					5.983559189068968e-01 4.379216821506209e-01 0.000000000000000e+00
					5.451702621565518e-01 2.692612097252414e-01 0.000000000000000e+00
					5.424003276956898e-01 4.038918145878622e-01 0.000000000000000e+00
					5.983559189068968e-01 4.379216821506209e-01 0.000000000000000e+00
					5.838955762008278e-01 5.838955762008278e-01 0.000000000000000e+00
					5.424003276956898e-01 4.038918145878622e-01 0.000000000000000e+00
					5.385224194504830e-01 5.385224194504830e-01 0.000000000000000e+00
					5.385224194504830e-01 -5.385224194504830e-01 0.000000000000000e+00
					5.424003276956898e-01 -4.038918145878622e-01 0.000000000000000e+00
					5.000000000000000e-01 -5.000000000000000e-01 0.000000000000000e+00
					5.000000000000000e-01 -3.750000000000000e-01 0.000000000000000e+00
					5.424003276956898e-01 -4.038918145878622e-01 0.000000000000000e+00
					5.451702621565517e-01 -2.692612097252414e-01 0.000000000000000e+00
					5.000000000000000e-01 -3.750000000000000e-01 0.000000000000000e+00
					5.000000000000000e-01 -2.500000000000000e-01 0.000000000000000e+00
					5.451702621565517e-01 -2.692612097252414e-01 0.000000000000000e+00
					5.468322228330691e-01 -1.346306048626207e-01 0.000000000000000e+00
					5.000000000000000e-01 -2.500000000000000e-01 0.000000000000000e+00
					5.000000000000000e-01 -1.250000000000000e-01 0.000000000000000e+00
					5.468322228330691e-01 -1.346306048626207e-01 0.000000000000000e+00
					5.473862097252414e-01 3.469446951953614e-18 0.000000000000000e+00
					5.000000000000000e-01 -1.250000000000000e-01 0.000000000000000e+00
					5.000000000000000e-01 0.000000000000000e+00 0.000000000000000e+00
					5.473862097252414e-01 3.469446951953614e-18 0.000000000000000e+00
					5.468322228330691e-01 1.346306048626207e-01 0.000000000000000e+00
					5.000000000000000e-01 0.000000000000000e+00 0.000000000000000e+00
					5.000000000000000e-01 1.250000000000000e-01 0.000000000000000e+00
					5.468322228330691e-01 1.346306048626207e-01 0.000000000000000e+00
					5.451702621565518e-01 2.692612097252414e-01 0.000000000000000e+00
					5.000000000000000e-01 1.250000000000000e-01 0.000000000000000e+00
					5.000000000000000e-01 2.500000000000000e-01 0.000000000000000e+00
					5.451702621565518e-01 2.692612097252414e-01 0.000000000000000e+00
					5.424003276956898e-01 4.038918145878622e-01 0.000000000000000e+00
					5.000000000000000e-01 2.500000000000000e-01 0.000000000000000e+00
					5.000000000000000e-01 3.750000000000000e-01 0.000000000000000e+00
					5.424003276956898e-01 4.038918145878622e-01 0.000000000000000e+00
					5.385224194504830e-01 5.385224194504830e-01 0.000000000000000e+00
					5.000000000000000e-01 3.750000000000000e-01 0.000000000000000e+00
					5.000000000000000e-01 5.000000000000000e-01 0.000000000000000e+00
				</DataArray>
			</Points>
			<Cells>
				<DataArray Name="connectivity" type="UInt32" format="ascii">
					0 1 3 2 4 5 7 6 8 9 11 10 12 13 15 14 16 17 19 18 20 21 23 22 24 25 27 26 28 29 31 30 32 33 35 34 36 37 39 38 40 41 43 42 44 45 47 46 48 49 51 50 52 53 55 54 56 57 59 58 60 61 63 62 64 65 67 66 68 69 71 70 72 73 75 74 76 77 79 78 80 81 83 82 84 85 87 86 88 89 91 90 92 93 95 94 96 97 99 98 100 101 103 102 104 105 107 106 108 109 111 110 112 113 115 114 116 117 119 118 120 121 123 122 124 125 127 126 128 129 131 130 132 133 135 134 136 137 139 138 140 141 143 142 144 145 147 146 148 149 151 150 152 153 155 154 156 157 159 158 160 161 163 162 164 165 167 166 168 169 171 170 172 173 175 174 176 177 179 178 180 181 183 182 184 185 187 186 188 189 191 190 192 193 195 194 196 197 199 198 200 201 203 202 204 205 207 206 208 209 211 210 212 213 215 214 216 217 219 218 220 221 223 222 224 225 227 226 228 229 231 230 232 233 235 234 236 237 239 238 240 241 243 242 244 245 247 246 248 249 251 250 252 253 255 254 
				</DataArray>
				<DataArray Name="offsets" type="UInt32" format="ascii">
					4 8 12 16 20 24 28 32 36 40 44 48 52 56 60 64 68 72 76 80 84 88 92 96 100 104 108 112 116 120 124 128 132 136 140 144 148 152 156 160 164 168 172 176 180 184 188 192 196 200 204 208 212 216 220 224 228 232 236 240 244 248 252 256 
				</DataArray>
				<DataArray Name="types" type="UInt8" format="ascii">
					9 9 9 9 9 9 9 9 9 9 9 9 9 9 9 9 9 9 9 9 9 9 9 9 9 9 9 9 9 9 9 9 9 9 9 9 9 9 9 9 9 9 9 9 9 9 9 9 9 9 9 9 9 9 9 9 9 9 9 9 9 9 9 9 
				</DataArray>
			</Cells>
			<PointData Vectors="solution ">
				<DataArray Name="solution" type="Float64" NumberOfComponents="1" format="ascii">
					0.000000000000000e+00 0.000000000000000e+00 -1.204379301473117e-02 1.586807534837896e-02 0.000000000000000e+00 0.000000000000000e+00 1.586807534837896e-02 5.322685908202365e-02 0.000000000000000e+00 0.000000000000000e+00 5.322685908202366e-02 1.216964097502516e-01 0.000000000000000e+00 0.000000000000000e+00 1.216964097502516e-01 2.192587034685967e-01 0.000000000000000e+00 0.000000000000000e+00 2.192587034685968e-01 3.036876062688215e-01 0.000000000000000e+00 0.000000000000000e+00 3.036876062688216e-01 3.349366541057714e-01 0.000000000000000e+00 0.000000000000000e+00 3.349366541057714e-01 3.428690026821019e-01 0.000000000000000e+00 0.000000000000000e+00 3.428690026821020e-01 3.770345699280368e-01 -1.204379301473117e-02 1.586807534837896e-02 4.783408066462399e-02 2.161474191508437e-01 1.586807534837896e-02 5.322685908202365e-02 2.161474191508438e-01 5.412586305425009e-01 5.322685908202366e-02 1.216964097502516e-01 5.412586305425010e-01 1.085982236383962e+00 1.216964097502516e-01 2.192587034685967e-01 1.085982236383962e+00 1.806112940490783e+00 2.192587034685968e-01 3.036876062688215e-01 1.806112940490784e+00 2.500500172167685e+00 3.036876062688216e-01 3.349366541057714e-01 2.500500172167686e+00 2.877466254061282e+00 3.349366541057714e-01 3.428690026821019e-01 2.877466254061283e+00 2.772644102348401e+00 3.428690026821020e-01 3.770345699280368e-01 2.772644102348402e+00 2.304585039599631e+00 4.783408066462400e-02 2.161474191508438e-01 2.812441343241942e-01 8.115361340591556e-01 2.161474191508438e-01 5.412586305425010e-01 8.115361340591556e-01 1.825192704069394e+00 5.412586305425011e-01 1.085982236383962e+00 1.825192704069394e+00 3.413066991454580e+00 1.085982236383962e+00 1.806112940490784e+00 3.413066991454581e+00 5.410315659729092e+00 1.806112940490784e+00 2.500500172167685e+00 5.410315659729094e+00 7.306803663321227e+00 2.500500172167686e+00 2.877466254061283e+00 7.306803663321229e+00 8.357501968023710e+00 2.877466254061283e+00 2.772644102348402e+00 8.357501968023710e+00 7.960887994020879e+00 2.772644102348402e+00 2.304585039599632e+00 7.960887994020879e+00 6.194639921637782e+00 2.812441343241942e-01 8.115361340591557e-01 7.385141041709995e-01 1.847433429875716e+00 8.115361340591557e-01 1.825192704069395e+00 1.847433429875716e+00 3.828872119842451e+00 1.825192704069395e+00 3.413066991454581e+00 3.828872119842451e+00 6.745319289966645e+00 3.413066991454583e+00 5.410315659729094e+00 6.745319289966647e+00 1.025798611709646e+01 5.410315659729096e+00 7.306803663321228e+00 1.025798611709647e+01 1.352405055910743e+01 7.306803663321229e+00 8.357501968023712e+00 1.352405055910744e+01 1.536647257060439e+01 8.357501968023714e+00 7.960887994020881e+00 1.536647257060439e+01 1.479141194572345e+01 7.960887994020881e+00 6.194639921637783e+00 1.479141194572346e+01 1.167266517489966e+01 7.385141041709997e-01 1.847433429875717e+00 1.425337060922078e+00 3.219328985408950e+00 1.847433429875717e+00 3.828872119842452e+00 3.219328985408950e+00 6.187420053252043e+00 3.828872119842452e+00 6.745319289966647e+00 6.187420053252045e+00 1.030699229715142e+01 6.745319289966649e+00 1.025798611709647e+01 1.030699229715143e+01 1.509137695195585e+01 1.025798611709647e+01 1.352405055910744e+01 1.509137695195585e+01 1.948830849555384e+01 1.352405055910744e+01 1.536647257060440e+01 1.948830849555385e+01 2.207821351953631e+01 1.536647257060440e+01 1.479141194572346e+01 2.207821351953632e+01 2.169170731869685e+01 1.479141194572346e+01 1.167266517489967e+01 2.169170731869685e+01 1.789963606821029e+01 1.425337060922079e+00 3.219328985408952e+00 2.309466525675359e+00 4.758295165092948e+00 3.219328985408952e+00 6.187420053252045e+00 4.758295165092948e+00 8.515911275897075e+00 6.187420053252046e+00 1.030699229715143e+01 8.515911275897077e+00 1.346463361305383e+01 1.030699229715143e+01 1.509137695195585e+01 1.346463361305383e+01 1.905002872446121e+01 1.509137695195586e+01 1.948830849555385e+01 1.905002872446121e+01 2.417174745381798e+01 1.948830849555386e+01 2.207821351953632e+01 2.417174745381798e+01 2.737797705951039e+01 2.207821351953632e+01 2.169170731869686e+01 2.737797705951039e+01 2.745415739036969e+01 2.169170731869686e+01 1.789963606821030e+01 2.745415739036970e+01 2.389488865753360e+01 2.309466525675359e+00 4.758295165092948e+00 3.327426463703652e+00 6.292991554174834e+00 4.758295165092948e+00 8.515911275897077e+00 6.292991554174834e+00 1.054950782416415e+01 8.515911275897079e+00 1.346463361305383e+01 1.054950782416415e+01 1.591872720455809e+01 1.346463361305383e+01 1.905002872446121e+01 1.591872720455809e+01 2.184676441299385e+01 1.905002872446121e+01 2.417174745381798e+01 2.184676441299386e+01 2.731366251711147e+01 2.417174745381798e+01 2.737797705951039e+01 2.731366251711148e+01 3.098110270072941e+01 2.737797705951039e+01 2.745415739036970e+01 3.098110270072941e+01 3.163521937689444e+01 2.745415739036971e+01 2.389488865753360e+01 3.163521937689445e+01 2.885988811767389e+01 3.327426463703653e+00 6.292991554174836e+00 4.391218531542276e+00 7.682479943822903e+00 6.292991554174836e+00 1.054950782416415e+01 7.682479943822904e+00 1.216163588976220e+01 1.054950782416416e+01 1.591872720455809e+01 1.216163588976220e+01 1.762667116415158e+01 1.591872720455810e+01 2.184676441299385e+01 1.762667116415159e+01 2.356375341052567e+01 2.184676441299386e+01 2.731366251711147e+01 2.356375341052568e+01 2.910014129398702e+01 2.731366251711149e+01 3.098110270072941e+01 2.910014129398704e+01 3.307285038451952e+01 3.098110270072941e+01 3.163521937689445e+01 3.307285038451953e+01 3.439265798336886e+01 3.163521937689446e+01 2.885988811767390e+01 3.439265798336886e+01 3.250300639672164e+01 
				</DataArray>
			</PointData>
			<CellData>
			</CellData>
		</Piece>
	</UnstructuredGrid>
</VTKFile>