<?xml version="1.0"?>
<VTKFile type="UnstructuredGrid" byte_order="LittleEndian">
	<UnstructuredGrid>
		<Piece NumberOfPoints="256" NumberOfCells="64">
			<Points>
				<DataArray type="Float64" NumberOfComponents="3" format="ascii">
					-1.000000000000000e+00 -1.000000000000000e+00 0.000000000000000e+00
					-7.500000000000000e-01 -1.218750000000000e+00 0.000000000000000e+00
					-9.135224194504830e-01 -9.135224194504830e-01 0.000000000000000e+00
					-6.851418145878622e-01 -1.081462827695690e+00 0.000000000000000e+00
					-7.500000000000000e-01 -1.218750000000000e+00 0.000000000000000e+00
					-5.000000000000000e-01 -1.375000000000000e+00 0.000000000000000e+00
					-6.851418145878622e-01 -1.081462827695690e+00 0.000000000000000e+00
					-4.567612097252415e-01 -1.201420262156552e+00 0.000000000000000e+00
					-5.000000000000000e-01 -1.375000000000000e+00 0.000000000000000e+00
					-2.500000000000000e-01 -1.468750000000000e+00 0.000000000000000e+00
					-4.567612097252415e-01 -1.201420262156552e+00 0.000000000000000e+00
					-2.283806048626207e-01 -1.273394722833069e+00 0.000000000000000e+00
					-2.500000000000000e-01 -1.468750000000000e+00 0.000000000000000e+00
					0.000000000000000e+00 -1.500000000000000e+00 0.000000000000000e+00
					-2.283806048626207e-01 -1.273394722833069e+00 0.000000000000000e+00
					1.040834085586084e-17 -1.297386209725242e+00 0.000000000000000e+00
					0.000000000000000e+00 -1.500000000000000e+00 0.000000000000000e+00
					2.500000000000000e-01 -1.468750000000000e+00 0.000000000000000e+00
					1.040834085586084e-17 -1.297386209725242e+00 0.000000000000000e+00
					2.283806048626208e-01 -1.273394722833069e+00 0.000000000000000e+00
					2.500000000000000e-01 -1.468750000000000e+00 0.000000000000000e+00
					5.000000000000000e-01 -1.375000000000000e+00 0.000000000000000e+00
					2.283806048626208e-01 -1.273394722833069e+00 0.000000000000000e+00
					4.567612097252415e-01 -1.201420262156552e+00 0.000000000000000e+00
					5.000000000000000e-01 -1.375000000000000e+00 0.000000000000000e+00
					7.500000000000000e-01 -1.218750000000000e+00 0.000000000000000e+00
					4.567612097252415e-01 -1.201420262156552e+00 0.000000000000000e+00
					6.851418145878623e-01 -1.081462827695690e+00 0.000000000000000e+00
					7.500000000000000e-01 -1.218750000000000e+00 0.000000000000000e+00
					1.000000000000000e+00 -1.000000000000000e+00 0.000000000000000e+00
					6.851418145878623e-01 -1.081462827695690e+00 0.000000000000000e+00
					9.135224194504830e-01 -9.135224194504830e-01 0.000000000000000e+00
					-9.135224194504830e-01 -9.135224194504830e-01 0.000000000000000e+00
					-6.851418145878622e-01 -1.081462827695690e+00 0.000000000000000e+00
					-8.338955762008279e-01 -8.338955762008279e-01 0.000000000000000e+00
					-6.254216821506209e-01 -9.577309189068969e-01 0.000000000000000e+00
					-6.851418145878622e-01 -1.081462827695690e+00 0.000000000000000e+00
					-4.567612097252415e-01 -1.201420262156552e+00 0.000000000000000e+00
					-6.254216821506209e-01 -9.577309189068969e-01 0.000000000000000e+00
					-4.169477881004140e-01 -1.046184735125518e+00 0.000000000000000e+00
					-4.567612097252415e-01 -1.201420262156552e+00 0.000000000000000e+00
					-2.283806048626207e-01 -1.273394722833069e+00 0.000000000000000e+00
					-4.169477881004140e-01 -1.046184735125518e+00 0.000000000000000e+00
					-2.084738940502070e-01 -1.099257024856690e+00 0.000000000000000e+00
					-2.283806048626207e-01 -1.273394722833069e+00 0.000000000000000e+00
					1.040834085586084e-17 -1.297386209725242e+00 0.000000000000000e+00
					-2.084738940502070e-01 -1.099257024856690e+00 0.000000000000000e+00
					1.734723475976807e-17 -1.116947788100414e+00 0.000000000000000e+00
					1.040834085586084e-17 -1.297386209725242e+00 0.000000000000000e+00
					2.283806048626208e-01 -1.273394722833069e+00 0.000000000000000e+00
					1.734723475976807e-17 -1.116947788100414e+00 0.000000000000000e+00
					2.084738940502070e-01 -1.099257024856690e+00 0.000000000000000e+00
					2.283806048626208e-01 -1.273394722833069e+00 0.000000000000000e+00
					4.567612097252415e-01 -1.201420262156552e+00 0.000000000000000e+00
					2.084738940502070e-01 -1.099257024856690e+00 0.000000000000000e+00
					4.169477881004140e-01 -1.046184735125518e+00 0.000000000000000e+00
					4.567612097252415e-01 -1.201420262156552e+00 0.000000000000000e+00
					6.851418145878623e-01 -1.081462827695690e+00 0.000000000000000e+00
					4.169477881004140e-01 -1.046184735125518e+00 0.000000000000000e+00
					6.254216821506209e-01 -9.577309189068968e-01 0.000000000000000e+00
					6.851418145878623e-01 -1.081462827695690e+00 0.000000000000000e+00
					9.135224194504830e-01 -9.135224194504830e-01 0.000000000000000e+00
					6.254216821506209e-01 -9.577309189068968e-01 0.000000000000000e+00
					8.338955762008279e-01 -8.338955762008279e-01 0.000000000000000e+00
					-8.338955762008279e-01 -8.338955762008279e-01 0.000000000000000e+00
					-6.254216821506209e-01 -9.577309189068969e-01 0.000000000000000e+00
					-7.611194702510349e-01 -7.611194702510349e-01 0.000000000000000e+00
					-5.708396026882762e-01 -8.475542736336210e-01 0.000000000000000e+00
					-6.254216821506209e-01 -9.577309189068969e-01 0.000000000000000e+00
					-4.169477881004140e-01 -1.046184735125518e+00 0.000000000000000e+00
					-5.708396026882762e-01 -8.475542736336210e-01 0.000000000000000e+00
					-3.805597351255174e-01 -9.092934189068969e-01 0.000000000000000e+00
					-4.169477881004140e-01 -1.046184735125518e+00 0.000000000000000e+00
					-2.084738940502070e-01 -1.099257024856690e+00 0.000000000000000e+00
					-3.805597351255174e-01 -9.092934189068969e-01 0.000000000000000e+00
					-1.902798675627587e-01 -9.463369060708624e-01 0.000000000000000e+00
					-2.084738940502070e-01 -1.099257024856690e+00 0.000000000000000e+00
					1.734723475976807e-17 -1.116947788100414e+00 0.000000000000000e+00
					-1.902798675627587e-01 -9.463369060708624e-01 0.000000000000000e+00
					2.428612866367530e-17 -9.586847351255177e-01 0.000000000000000e+00
					1.734723475976807e-17 -1.116947788100414e+00 0.000000000000000e+00
					2.084738940502070e-01 -1.099257024856690e+00 0.000000000000000e+00
					2.428612866367530e-17 -9.586847351255177e-01 0.000000000000000e+00
					1.902798675627587e-01 -9.463369060708624e-01 0.000000000000000e+00
					2.084738940502070e-01 -1.099257024856690e+00 0.000000000000000e+00
					4.169477881004140e-01 -1.046184735125518e+00 0.000000000000000e+00
					1.902798675627587e-01 -9.463369060708624e-01 0.000000000000000e+00
					3.805597351255174e-01 -9.092934189068969e-01 0.000000000000000e+00
					4.169477881004140e-01 -1.046184735125518e+00 0.000000000000000e+00
					6.254216821506209e-01 -9.577309189068968e-01 0.000000000000000e+00
					3.805597351255174e-01 -9.092934189068969e-01 0.000000000000000e+00
					5.708396026882762e-01 -8.475542736336210e-01 0.000000000000000e+00
					6.254216821506209e-01 -9.577309189068968e-01 0.000000000000000e+00
					8.338955762008279e-01 -8.338955762008279e-01 0.000000000000000e+00
					5.708396026882762e-01 -8.475542736336210e-01 0.000000000000000e+00
					7.611194702510349e-01 -7.611194702510349e-01 0.000000000000000e+00
					-7.611194702510349e-01 -7.611194702510349e-01 0.000000000000000e+00
					-5.708396026882762e-01 -8.475542736336210e-01 0.000000000000000e+00
					-6.951941016011038e-01 -6.951941016011038e-01 0.000000000000000e+00
					-5.213955762008279e-01 -7.509328918758624e-01 0.000000000000000e+00
					-5.708396026882762e-01 -8.475542736336210e-01 0.000000000000000e+00
					-3.805597351255174e-01 -9.092934189068969e-01 0.000000000000000e+00
					-5.213955762008279e-01 -7.509328918758624e-01 0.000000000000000e+00
					-3.475970508005519e-01 -7.907463135006900e-01 0.000000000000000e+00
					-3.805597351255174e-01 -9.092934189068969e-01 0.000000000000000e+00
					-1.902798675627587e-01 -9.463369060708624e-01 0.000000000000000e+00
					-3.475970508005519e-01 -7.907463135006900e-01 0.000000000000000e+00
					-1.737985254002760e-01 -8.146343664755866e-01 0.000000000000000e+00
					-1.902798675627587e-01 -9.463369060708624e-01 0.000000000000000e+00
					2.428612866367530e-17 -9.586847351255177e-01 0.000000000000000e+00
					-1.737985254002760e-01 -8.146343664755866e-01 0.000000000000000e+00
					2.428612866367530e-17 -8.225970508005520e-01 0.000000000000000e+00
					2.428612866367530e-17 -9.586847351255177e-01 0.000000000000000e+00
					1.902798675627587e-01 -9.463369060708624e-01 0.000000000000000e+00
					2.428612866367530e-17 -8.225970508005520e-01 0.000000000000000e+00
					1.737985254002760e-01 -8.146343664755865e-01 0.000000000000000e+00
					1.902798675627587e-01 -9.463369060708624e-01 0.000000000000000e+00
					3.805597351255174e-01 -9.092934189068969e-01 0.000000000000000e+00
					1.737985254002760e-01 -8.146343664755865e-01 0.000000000000000e+00
					3.475970508005519e-01 -7.907463135006900e-01 0.000000000000000e+00
					3.805597351255174e-01 -9.092934189068969e-01 0.000000000000000e+00
					5.708396026882762e-01 -8.475542736336210e-01 0.000000000000000e+00
					3.475970508005519e-01 -7.907463135006900e-01 0.000000000000000e+00
					5.213955762008279e-01 -7.509328918758624e-01 0.000000000000000e+00
					5.708396026882762e-01 -8.475542736336210e-01 0.000000000000000e+00
					7.611194702510349e-01 -7.611194702510349e-01 0.000000000000000e+00
					5.213955762008279e-01 -7.509328918758624e-01 0.000000000000000e+00
					6.951941016011038e-01 -6.951941016011038e-01 0.000000000000000e+00
					-6.951941016011038e-01 -6.951941016011038e-01 0.000000000000000e+00
					-5.213955762008279e-01 -7.509328918758624e-01 0.000000000000000e+00
					-6.361194702510349e-01 -6.361194702510349e-01 0.000000000000000e+00
					-4.770896026882762e-01 -6.678667736336210e-01 0.000000000000000e+00
					-5.213955762008279e-01 -7.509328918758624e-01 0.000000000000000e+00
					-3.475970508005519e-01 -7.907463135006900e-01 0.000000000000000e+00
					-4.770896026882762e-01 -6.678667736336210e-01 0.000000000000000e+00
					-3.180597351255174e-01 -6.905434189068969e-01 0.000000000000000e+00
					-3.475970508005519e-01 -7.907463135006900e-01 0.000000000000000e+00
					-1.737985254002760e-01 -8.146343664755866e-01 0.000000000000000e+00
					-3.180597351255174e-01 -6.905434189068969e-01 0.000000000000000e+00
					-1.590298675627587e-01 -7.041494060708624e-01 0.000000000000000e+00
					-1.737985254002760e-01 -8.146343664755866e-01 0.000000000000000e+00
					2.428612866367530e-17 -8.225970508005520e-01 0.000000000000000e+00
					-1.590298675627587e-01 -7.041494060708624e-01 0.000000000000000e+00
					1.734723475976807e-17 -7.086847351255174e-01 0.000000000000000e+00
					2.428612866367530e-17 -8.225970508005520e-01 0.000000000000000e+00
					1.737985254002760e-01 -8.146343664755865e-01 0.000000000000000e+00
					1.734723475976807e-17 -7.086847351255174e-01 0.000000000000000e+00
					1.590298675627587e-01 -7.041494060708622e-01 0.000000000000000e+00
					1.737985254002760e-01 -8.146343664755865e-01 0.000000000000000e+00
					3.475970508005519e-01 -7.907463135006900e-01 0.000000000000000e+00
					1.590298675627587e-01 -7.041494060708622e-01 0.000000000000000e+00
					3.180597351255174e-01 -6.905434189068967e-01 0.000000000000000e+00
					3.475970508005519e-01 -7.907463135006900e-01 0.000000000000000e+00
					5.213955762008279e-01 -7.509328918758624e-01 0.000000000000000e+00
					3.180597351255174e-01 -6.905434189068967e-01 0.000000000000000e+00
					4.770896026882762e-01 -6.678667736336210e-01 0.000000000000000e+00
					5.213955762008279e-01 -7.509328918758624e-01 0.000000000000000e+00
					6.951941016011038e-01 -6.951941016011038e-01 0.000000000000000e+00
					4.770896026882762e-01 -6.678667736336210e-01 0.000000000000000e+00
					6.361194702510349e-01 -6.361194702510349e-01 0.000000000000000e+00
					-6.361194702510349e-01 -6.361194702510349e-01 0.000000000000000e+00
					-4.770896026882762e-01 -6.678667736336210e-01 0.000000000000000e+00
					-5.838955762008278e-01 -5.838955762008278e-01 0.000000000000000e+00
					-4.379216821506209e-01 -5.983559189068968e-01 0.000000000000000e+00
					-4.770896026882762e-01 -6.678667736336210e-01 0.000000000000000e+00
					-3.180597351255174e-01 -6.905434189068969e-01 0.000000000000000e+00
					-4.379216821506209e-01 -5.983559189068968e-01 0.000000000000000e+00
					-2.919477881004139e-01 -6.086847351255174e-01 0.000000000000000e+00
					-3.180597351255174e-01 -6.905434189068969e-01 0.000000000000000e+00
					-1.590298675627587e-01 -7.041494060708624e-01 0.000000000000000e+00
					-2.919477881004139e-01 -6.086847351255174e-01 0.000000000000000e+00
					-1.459738940502069e-01 -6.148820248566897e-01 0.000000000000000e+00
					-1.590298675627587e-01 -7.041494060708624e-01 0.000000000000000e+00
					1.734723475976807e-17 -7.086847351255174e-01 0.000000000000000e+00
					-1.459738940502069e-01 -6.148820248566897e-01 0.000000000000000e+00
					1.040834085586084e-17 -6.169477881004138e-01 0.000000000000000e+00
					1.734723475976807e-17 -7.086847351255174e-01 0.000000000000000e+00
					1.590298675627587e-01 -7.041494060708622e-01 0.000000000000000e+00
					1.040834085586084e-17 -6.169477881004138e-01 0.000000000000000e+00
					1.459738940502070e-01 -6.148820248566897e-01 0.000000000000000e+00
					1.590298675627587e-01 -7.041494060708622e-01 0.000000000000000e+00
					3.180597351255174e-01 -6.905434189068967e-01 0.000000000000000e+00
					1.459738940502070e-01 -6.148820248566897e-01 0.000000000000000e+00
					2.919477881004139e-01 -6.086847351255174e-01 0.000000000000000e+00
					3.180597351255174e-01 -6.905434189068967e-01 0.000000000000000e+00
					4.770896026882762e-01 -6.678667736336210e-01 0.000000000000000e+00
					2.919477881004139e-01 -6.086847351255174e-01 0.000000000000000e+00
					4.379216821506209e-01 -5.983559189068968e-01 0.000000000000000e+00
					4.770896026882762e-01 -6.678667736336210e-01 0.000000000000000e+00
					6.361194702510349e-01 -6.361194702510349e-01 0.000000000000000e+00
					4.379216821506209e-01 -5.983559189068968e-01 0.000000000000000e+00
					5.838955762008278e-01 -5.838955762008278e-01 0.000000000000000e+00
					-5.838955762008278e-01 -5.838955762008278e-01 0.000000000000000e+00
					-4.379216821506209e-01 -5.983559189068968e-01 0.000000000000000e+00
					-5.385224194504830e-01 -5.385224194504830e-01 0.000000000000000e+00
					-4.038918145878622e-01 -5.424003276956898e-01 0.000000000000000e+00
					-4.379216821506209e-01 -5.983559189068968e-01 0.000000000000000e+00
					-2.919477881004139e-01 -6.086847351255174e-01 0.000000000000000e+00
					-4.038918145878622e-01 -5.424003276956898e-01 0.000000000000000e+00
					-2.692612097252414e-01 -5.451702621565517e-01 0.000000000000000e+00
					-2.919477881004139e-01 -6.086847351255174e-01 0.000000000000000e+00
					-1.459738940502069e-01 -6.148820248566897e-01 0.000000000000000e+00
					-2.692612097252414e-01 -5.451702621565517e-01 0.000000000000000e+00
					-1.346306048626207e-01 -5.468322228330691e-01 0.000000000000000e+00
					-1.459738940502069e-01 -6.148820248566897e-01 0.000000000000000e+00
					1.040834085586084e-17 -6.169477881004138e-01 0.000000000000000e+00
					-1.346306048626207e-01 -5.468322228330691e-01 0.000000000000000e+00
					3.469446951953614e-18 -5.473862097252414e-01 0.000000000000000e+00
					1.040834085586084e-17 -6.169477881004138e-01 0.000000000000000e+00
					1.459738940502070e-01 -6.148820248566897e-01 0.000000000000000e+00
					3.469446951953614e-18 -5.473862097252414e-01 0.000000000000000e+00
					1.346306048626207e-01 -5.468322228330691e-01 0.000000000000000e+00
					1.459738940502070e-01 -6.148820248566897e-01 0.000000000000000e+00
					2.919477881004139e-01 -6.086847351255174e-01 0.000000000000000e+00
					1.346306048626207e-01 -5.468322228330691e-01 0.000000000000000e+00
					2.692612097252414e-01 -5.451702621565518e-01 0.000000000000000e+00
					2.919477881004139e-01 -6.086847351255174e-01 0.000000000000000e+00
					4.379216821506209e-01 -5.983559189068968e-01 0.000000000000000e+00
					2.692612097252414e-01 -5.451702621565518e-01 0.000000000000000e+00
					4.038918145878622e-01 -5.424003276956898e-01 0.000000000000000e+00
					4.379216821506209e-01 -5.983559189068968e-01 0.000000000000000e+00
					5.838955762008278e-01 -5.838955762008278e-01 0.000000000000000e+00
					4.038918145878622e-01 -5.424003276956898e-01 0.000000000000000e+00
					5.385224194504830e-01 -5.385224194504830e-01 0.000000000000000e+00
					-5.385224194504830e-01 -5.385224194504830e-01 0.000000000000000e+00
					-4.038918145878622e-01 -5.424003276956898e-01 0.000000000000000e+00
					-5.000000000000000e-01 -5.000000000000000e-01 0.000000000000000e+00
					-3.750000000000000e-01 -5.000000000000000e-01 0.000000000000000e+00
					-4.038918145878622e-01 -5.424003276956898e-01 0.000000000000000e+00
					-2.692612097252414e-01 -5.451702621565517e-01 0.000000000000000e+00
					-3.750000000000000e-01 -5.000000000000000e-01 0.000000000000000e+00
					-2.500000000000000e-01 -5.000000000000000e-01 0.000000000000000e+00
					-2.692612097252414e-01 -5.451702621565517e-01 0.000000000000000e+00
					-1.346306048626207e-01 -5.468322228330691e-01 0.000000000000000e+00
					-2.500000000000000e-01 -5.000000000000000e-01 0.000000000000000e+00
					-1.250000000000000e-01 -5.000000000000000e-01 0.000000000000000e+00
					-1.346306048626207e-01 -5.468322228330691e-01 0.000000000000000e+00
					3.469446951953614e-18 -5.473862097252414e-01 0.000000000000000e+00
					-1.250000000000000e-01 -5.000000000000000e-01 0.000000000000000e+00
					0.000000000000000e+00 -5.000000000000000e-01 0.000000000000000e+00
					3.469446951953614e-18 -5.473862097252414e-01 0.000000000000000e+00
					1.346306048626207e-01 -5.468322228330691e-01 0.000000000000000e+00
					0.000000000000000e+00 -5.000000000000000e-01 0.000000000000000e+00
					1.250000000000000e-01 -5.000000000000000e-01 0.000000000000000e+00
					1.346306048626207e-01 -5.468322228330691e-01 0.000000000000000e+00
					2.692612097252414e-01 -5.451702621565518e-01 0.000000000000000e+00
					1.250000000000000e-01 -5.000000000000000e-01 0.000000000000000e+00
					2.500000000000000e-01 -5.000000000000000e-01 0.000000000000000e+00
					2.692612097252414e-01 -5.451702621565518e-01 0.000000000000000e+00
					4.038918145878622e-01 -5.424003276956898e-01 0.000000000000000e+00
					2.500000000000000e-01 -5.000000000000000e-01 0.000000000000000e+00
					3.750000000000000e-01 -5.000000000000000e-01 0.000000000000000e+00
					4.038918145878622e-01 -5.424003276956898e-01 0.000000000000000e+00
					5.385224194504830e-01 -5.385224194504830e-01 0.000000000000000e+00
					3.750000000000000e-01 -5.000000000000000e-01 0.000000000000000e+00
					5.000000000000000e-01 -5.000000000000000e-01 0.000000000000000e+00
				</DataArray>
			</Points>
			<Cells>
				<DataArray Name="connectivity" type="UInt32" format="ascii">
					0 1 3 2 4 5 7 6 8 9 11 10 12 13 15 14 16 17 19 18 20 21 23 22 24 25 27 26 28 29 31 30 32 33 35 34 36 37 39 38 40 41 43 42 44 45 47 46 48 49 51 50 52 53 55 54 56 57 59 58 60 61 63 62 64 65 67 66 68 69 71 70 72 73 75 74 76 77 79 78 80 81 83 82 84 85 87 86 88 89 91 90 92 93 95 94 96 97 99 98 100 101 103 102 104 105 107 106 108 109 111 110 112 113 115 114 116 117 119 118 120 121 123 122 124 125 127 126 128 129 131 130 132 133 135 134 136 137 139 138 140 141 143 142 144 145 147 146 148 149 151 150 152 153 155 154 156 157 159 158 160 161 163 162 164 165 167 166 168 169 171 170 172 173 175 174 176 177 179 178 180 181 183 182 184 185 187 186 188 189 191 190 192 193 195 194 196 197 199 198 200 201 203 202 204 205 207 206 208 209 211 210 212 213 215 214 216 217 219 218 220 221 223 222 224 225 227 226 228 229 231 230 232 233 235 234 236 237 239 238 240 241 243 242 244 245 247 246 248 249 251 250 252 253 255 254 
				</DataArray>
				<DataArray Name="offsets" type="UInt32" format="ascii">
					4 8 12 16 20 24 28 32 36 40 44 48 52 56 60 64 68 72 76 80 84 88 92 96 100 104 108 112 116 120 124 128 132 136 140 144 148 152 156 160 164 168 172 176 180 184 188 192 196 200 204 208 212 216 220 224 228 232 236 240 244 248 252 256 
				</DataArray>
				<DataArray Name="types" type="UInt8" format="ascii">
					9 9 9 9 9 9 9 9 9 9 9 9 9 9 9 9 9 9 9 9 9 9 9 9 9 9 9 9 9 9 9 9 9 9 9 9 9 9 9 9 9 9 9 9 9 9 9 9 9 9 9 9 9 9 9 9 9 9 9 9 9 9 9 9 
				</DataArray>
			</Cells>
			<PointData Vectors="solution ">
				<DataArray Name="solution" type="Float64" NumberOfComponents="1" format="ascii">
					0.000000000000000e+00 0.000000000000000e+00 -2.611434668803372e-03 7.760907564402352e-04 0.000000000000000e+00 0.000000000000000e+00 7.760907564402351e-04 2.380939877933102e-03 0.000000000000000e+00 0.000000000000000e+00 2.380939877933103e-03 3.536478138406053e-03 0.000000000000000e+00 0.000000000000000e+00 3.536478138406055e-03 4.749972314162206e-03 0.000000000000000e+00 0.000000000000000e+00 4.749972314162207e-03 5.537708801006246e-03 0.000000000000000e+00 0.000000000000000e+00 5.537708801006247e-03 5.791926161317313e-03 0.000000000000000e+00 0.000000000000000e+00 5.791926161317313e-03 2.916286666310990e-03 0.000000000000000e+00 0.000000000000000e+00 2.916286666310990e-03 -1.204379301473117e-02 -2.611434668803372e-03 7.760907564402351e-04 7.954172507732817e-03 2.232583903513791e-02 7.760907564402350e-04 2.380939877933102e-03 2.232583903513791e-02 3.590557256571942e-02 2.380939877933103e-03 3.536478138406054e-03 3.590557256571943e-02 5.003690967926130e-02 3.536478138406055e-03 4.749972314162206e-03 5.003690967926132e-02 6.402356656934502e-02 4.749972314162207e-03 5.537708801006246e-03 6.402356656934505e-02 7.574620678128006e-02 5.537708801006247e-03 5.791926161317313e-03 7.574620678128008e-02 8.233150572073869e-02 5.791926161317313e-03 2.916286666310990e-03 8.233150572073870e-02 7.722298461107986e-02 2.916286666310990e-03 -1.204379301473117e-02 7.722298461107989e-02 4.783408066462399e-02 7.954172507732817e-03 2.232583903513792e-02 6.091975803704340e-02 1.132863408262852e-01 2.232583903513792e-02 3.590557256571943e-02 1.132863408262852e-01 1.751521924203392e-01 3.590557256571943e-02 5.003690967926132e-02 1.751521924203392e-01 2.425067385548398e-01 5.003690967926133e-02 6.402356656934505e-02 2.425067385548398e-01 3.060328312178731e-01 6.402356656934506e-02 7.574620678128008e-02 3.060328312178731e-01 3.543175757887800e-01 7.574620678128011e-02 8.233150572073870e-02 3.543175757887802e-01 3.747394599608453e-01 8.233150572073872e-02 7.722298461107989e-02 3.747394599608453e-01 3.543160280755152e-01 7.722298461107990e-02 4.783408066462400e-02 3.543160280755152e-01 2.812441343241942e-01 6.091975803704341e-02 1.132863408262852e-01 1.843236667907198e-01 3.278120113629074e-01 1.132863408262852e-01 1.751521924203393e-01 3.278120113629074e-01 5.061888773214129e-01 1.751521924203393e-01 2.425067385548399e-01 5.061888773214132e-01 6.984444828441111e-01 2.425067385548400e-01 3.060328312178731e-01 6.984444828441113e-01 8.710275177814105e-01 3.060328312178732e-01 3.543175757887802e-01 8.710275177814106e-01 9.874831555467237e-01 3.543175757887803e-01 3.747394599608454e-01 9.874831555467238e-01 1.014412210406176e+00 3.747394599608455e-01 3.543160280755153e-01 1.014412210406176e+00 9.296460222557573e-01 3.543160280755154e-01 2.812441343241942e-01 9.296460222557577e-01 7.385141041709995e-01 1.843236667907199e-01 3.278120113629075e-01 4.001874865251734e-01 7.000830960159721e-01 3.278120113629075e-01 5.061888773214133e-01 7.000830960159721e-01 1.071457718994831e+00 5.061888773214133e-01 6.984444828441112e-01 1.071457718994831e+00 1.464050228954641e+00 6.984444828441113e-01 8.710275177814105e-01 1.464050228954641e+00 1.802334721528397e+00 8.710275177814110e-01 9.874831555467238e-01 1.802334721528398e+00 2.009474256898443e+00 9.874831555467243e-01 1.014412210406176e+00 2.009474256898444e+00 2.024491010792933e+00 1.014412210406176e+00 9.296460222557578e-01 2.024491010792933e+00 1.816653900642655e+00 9.296460222557579e-01 7.385141041709997e-01 1.816653900642656e+00 1.425337060922078e+00 4.001874865251735e-01 7.000830960159723e-01 7.191547870654582e-01 1.225218830865838e+00 7.000830960159723e-01 1.071457718994832e+00 1.225218830865838e+00 1.835374275462357e+00 1.071457718994832e+00 1.464050228954641e+00 1.835374275462357e+00 2.467464575970766e+00 1.464050228954642e+00 1.802334721528398e+00 2.467464575970767e+00 2.995337377387818e+00 1.802334721528398e+00 2.009474256898444e+00 2.995337377387819e+00 3.299088988748399e+00 2.009474256898444e+00 2.024491010792933e+00 3.299088988748400e+00 3.292154511822859e+00 2.024491010792933e+00 1.816653900642656e+00 3.292154511822859e+00 2.940092972047094e+00 1.816653900642656e+00 1.425337060922079e+00 2.940092972047095e+00 2.309466525675359e+00 7.191547870654583e-01 1.225218830865838e+00 1.134777315616664e+00 1.851258488696364e+00 1.225218830865839e+00 1.835374275462357e+00 1.851258488696364e+00 2.689143108804323e+00 1.835374275462357e+00 2.467464575970767e+00 2.689143108804324e+00 3.537137171824084e+00 2.467464575970767e+00 2.995337377387818e+00 3.537137171824085e+00 4.232327844363916e+00 2.995337377387819e+00 3.299088988748399e+00 4.232327844363918e+00 4.624043039250579e+00 3.299088988748400e+00 3.292154511822859e+00 4.624043039250581e+00 4.608873381889997e+00 3.292154511822859e+00 2.940092972047094e+00 4.608873381889997e+00 4.152797971921061e+00 2.940092972047095e+00 2.309466525675359e+00 4.152797971921061e+00 3.327426463703652e+00 1.134777315616664e+00 1.851258488696364e+00 1.617577814292014e+00 2.492226670594371e+00 1.851258488696365e+00 2.689143108804324e+00 2.492226670594371e+00 3.483773237881602e+00 2.689143108804325e+00 3.537137171824085e+00 3.483773237881603e+00 4.462356675665175e+00 3.537137171824086e+00 4.232327844363918e+00 4.462356675665176e+00 5.262355751389155e+00 4.232327844363918e+00 4.624043039250580e+00 5.262355751389157e+00 5.725754548929238e+00 4.624043039250581e+00 4.608873381889998e+00 5.725754548929239e+00 5.742717290061984e+00 4.608873381889999e+00 4.152797971921061e+00 5.742717290061985e+00 5.278368286879347e+00 4.152797971921062e+00 3.327426463703653e+00 5.278368286879349e+00 4.391218531542276e+00 
				</DataArray>
			</PointData>
			<CellData>
			</CellData>
		</Piece>
	</UnstructuredGrid>
</VTKFile>