Eigenvalues_0=
[ 0 5.86032000000000e-10 1.91349600000000e-09 1.91349700000000e-09 4.28184400000000e-09 5.59721850000000e-08 5.59721850000000e-08 1.37358411000000e-07 8.49269029000000e-07 1.05069211500000e-06 1.05069211600000e-06 1.30607313800000e-06 0.240368650267839 0.266127989702890 0.266127989702891 0.268787850974701 0.294650024479160 0.337462319346160 0.337462319346160 0.413839501139774 0.632279613932334 0.637387073754345 0.644736248148902 0.644736248148902 0.719251565485451 0.724900411716400 0.724900411716400 0.731949619929132 ]
;
Eigenvalues_1=
[ -3.00000000000000e-15 -1.00000000000000e-15 0 0 0 0 0 0 0 0 0 0 0 0 1.07819000000000e-10 1.07819000000000e-10 1.32299000000000e-10 2.11739000000000e-10 2.13096000000000e-10 2.13096000000000e-10 6.76599000000000e-10 9.46575630000000e-08 1.01267104000000e-07 1.01267104000000e-07 1.16838626000000e-07 4.43028274000000e-07 1.02164266500000e-06 1.02164266500000e-06 1.46727492900000e-06 0.000368548534821000 0.000370037280116000 0.000370037280116000 0.000371609811898000 0.201568876197547 0.201612733548123 0.201710988690138 0.201710988690138 0.222901996942392 0.244927335950211 0.244927335950211 0.270160935943088 0.301975352175474 0.311535215062217 0.311535215062217 0.316805202661627 0.345371721261632 0.365486042477073 0.365486042477074 0.401301905213412 0.414974537143104 0.425616324429323 0.425616324429323 0.425962001868330 0.427872914472610 0.441657139219899 0.441657139219899 0.450812412419782 ]
;
Eigenvalues_2=
[ -1.00000000000000e-15 0 0 0 0 0 0 0 0 0 0 0 0 0 0 0 0 0 0 0 0 0 0 0 0 0 0 0 0 0 0 0 0 0 0 0 0 0 0 0 0 0 0 0 0 0 0 0 0 0 0 0 0 0 0 0 0 0 0 0 0 0 1.11900000000000e-12 1.12100000000000e-12 1.17200000000000e-12 2.63300000000000e-12 2.63700000000000e-12 3.09400000000000e-12 1.06340000000000e-11 2.14252000000000e-10 2.45075000000000e-10 2.45075000000000e-10 2.70022000000000e-10 1.56289400000000e-09 2.83602600000000e-09 2.83602600000000e-09 3.98176500000000e-09 1.39886210000000e-08 1.43211450000000e-08 1.43211450000000e-08 1.50891320000000e-08 3.65583850000000e-08 4.04337390000000e-08 4.04337390000000e-08 4.44573300000000e-08 4.64526716300000e-06 4.88326548100000e-06 4.88326548200000e-06 5.11856674500000e-06 0.000164052901687000 0.000169464748608000 0.000169464748612000 0.000178214695857000 0.000219542476153000 0.000236843315100000 0.000236843315101000 0.000251017781867000 0.000427563402237000 0.000437729681761000 0.000437729681762000 0.000447039633424000 0.00485605102090300 0.00486810981276500 0.00486810981276500 0.00488129447456400 0.138164336465848 0.138427693876235 0.138427693876236 0.138761583831553 0.169847889237884 0.170471539135901 0.170471539135902 0.175034501236104 0.175815555988756 0.177262331405461 0.177262331405462 0.179627978435026 0.182853730762626 0.198043226716257 0.198043226716257 0.213331593390615 0.213337931846887 0.213392529218066 0.213392529218067 0.213443506100482 0.218624003229119 0.227945739237288 0.227945739237288 0.228758601641033 0.228820956423186 0.229031603081043 0.229031603081043 0.232227207890351 0.233223060758122 0.233383035685147 0.233383035685147 0.235582031855348 0.236793778596433 0.239866405763241 0.239866405763241 0.241464864629813 0.242716840781292 0.243284118549933 0.243284118549933 0.243568015547905 ]
;
Eigenvalues_3=
[ 0 0 0 0 0 0 0 0 0 0 0 0 0 0 0 0 0 0 0 0 0 0 0 0 0 0 0 0 0 0 0 0 0 0 0 0 0 0 0 0 0 0 0 0 0 0 0 0 0 0 0 0 0 0 0 0 0 0 0 0 0 0 0 0 0 0 0 0 0 0 0 0 0 0 0 0 0 0 0 0 0 0 0 0 0 0 0 0 0 0 0 0 0 0 0 0 0 0 0 0 0 0 0 0 0 0 0 0 0 0 0 0 0 0 0 0 0 0 0 0 0 0 0 0 0 0 0 0 0 0 0 0 0 0 0 0 0 0 0 0 0 0 0 0 0 0 0 0 0 0 0 0 0 0 0 0 0 0 0 0 0 0 0 0 0 0 0 0 0 0 0 0 0 0 0 0 0 0 0 0 0 0 0 0 0 0 0 0 0 0 0 0 0 0 0 0 0 0 0 0 0 0 0 0 0 2.00000000000000e-15 2.00000000000000e-15 3.00000000000000e-15 4.00000000000000e-15 4.00000000000000e-15 4.00000000000000e-15 5.00000000000000e-15 6.00000000000000e-15 7.00000000000000e-15 1.40000000000000e-14 5.70000000000000e-14 2.98000000000000e-13 6.71000000000000e-13 6.71000000000000e-13 9.64000000000000e-13 4.37100000000000e-12 4.58400000000000e-12 4.58400000000000e-12 4.79100000000000e-12 4.70050000000000e-11 4.89570000000000e-11 4.89570000000000e-11 5.24090000000000e-11 1.09888000000000e-10 1.20021000000000e-10 1.20021000000000e-10 1.27081000000000e-10 4.17918000000000e-10 4.21179000000000e-10 4.21180000000000e-10 4.28759000000000e-10 6.79326000000000e-10 7.18378000000000e-10 7.18378000000000e-10 7.61612000000000e-10 2.44218400000000e-09 2.60151400000000e-09 2.60151400000000e-09 2.79263000000000e-09 3.23468000000000e-09 3.60604700000000e-09 3.60604800000000e-09 3.94552900000000e-09 4.00348620000000e-08 4.04257350000000e-08 4.04257390000000e-08 4.07835980000000e-08 7.66338026000000e-07 8.42709833000000e-07 8.Eigenvalues_3=
[ -1.00000000000000e-15 0 0 0 0 0 0 0 0 0 0 0 0 0 0 0 0 0 0 0 0 0 0 0 0 0 0 0 0 0 0 0 0 0 0 0 0 0 0 0 0 0 0 0 0 0 0 0 0 0 0 0 0 0 0 0 0 0 0 0 0 0 0 0 0 0 0 0 0 0 0 0 0 0 0 0 0 0 0 0 0 0 0 0 0 0 0 0 0 0 0 0 0 0 0 0 0 0 0 0 0 0 0 0 0 0 0 0 0 0 0 0 0 0 0 0 0 0 0 0 0 0 0 0 0 0 0 0 0 0 0 0 0 0 0 0 0 0 0 0 0 0 0 0 0 0 0 0 0 0 0 0 0 0 0 0 0 0 0 0 0 0 0 0 0 0 0 0 0 0 0 0 0 0 0 0 0 0 0 0 0 0 0 0 0 0 0 0 0 0 0 0 0 0 0 0 0 0 0 0 0 0 0 0 0 0 0 0 0 0 0 0 0 0 0 0 0 0 0 0 0 0 0 0 0 0 0 0 0 0 0 0 0 0 0 0 0 0 0 0 0 0 0 0 0 0 0 0 0 0 0 0 0 0 0 0 0 0 0 0 0 0 0 0 0 0 0 0 0 0 0 0 0 0 0 0 0 0 0 0 0 0 0 0 0 0 0 0 0 0 0 0 0 0 0 0 0 0 0 0 0 0 0 0 0 0 0 0 0 0 0 0 0 0 0 0 0 0 0 0 0 0 0 0 0 0 0 0 0 0 0 0 0 0 0 0 0 0 0 0 0 0 0 0 0 0 0 0 0 0 0 0 0 0 0 0 0 0 0 0 0 0 0 0 0 0 0 0 0 0 0 0 0 0 0 0 0 0 0 0 0 0 0 0 0 0 0 0 0 0 0 0 0 0 0 0 0 0 0 0 0 0 0 0 0 0 0 0 0 0 0 0 0 0 0 0 0 0 0 0 0 0 0 0 0 0 0 0 0 0 0 0 0 0 0 0 0 0 0 0 0 0 0 0 0 0 0 0 0 0 0 0 0 0 0 0 0 0 0 0 0 0 0 0 0 0 0 0 0 0 0 0 0 0 0 0 0 0 0 0 0 0 0 0 0 0 0 0 0 0 0 0 0 0 0 0 0 0 0 0 0 0 0 0 0 0 0 0 0 0 0 0 0 0 0 0 0 1.00000000000000e-15 2.00000000000000e-15 8.00000000000000e-15 1.20000000000000e-14 2.90000000000000e-14 3.20000000000000e-14 3.30000000000000e-14 3.21000000000000e-13 3.64000000000000e-13 3.69000000000000e-13 4.78000000000000e-13 5.51000000000000e-13 6.37000000000000e-13 6.43000000000000e-13 6.80000000000000e-13 2.92000000000000e-12 3.09100000000000e-12 3.09800000000000e-12 3.25200000000000e-12 8.02300000000000e-12 8.38300000000000e-12 8.39500000000000e-12 8.83300000000000e-12 1.02790000000000e-11 1.04950000000000e-11 1.05410000000000e-11 1.07010000000000e-11 2.48000000000000e-11 2.48560000000000e-11 2.48640000000000e-11 2.49450000000000e-11 1.13703000000000e-10 1.14364000000000e-10 1.14366000000000e-10 1.14988000000000e-10 4.05799000000000e-10 4.17776000000000e-10 4.17777000000000e-10 4.29992000000000e-10 7.61193000000000e-10 7.64371000000000e-10 7.64371000000000e-10 7.67577000000000e-10 1.74090900000000e-09 1.75255100000000e-09 1.75255100000000e-09 1.77853000000000e-09 1.81262100000000e-09 1.85253400000000e-09 1.85253400000000e-09 1.87790800000000e-09 4.84053400000000e-09 4.84245600000000e-09 4.84245600000000e-09 4.84439700000000e-09 4.87089500000000e-09 4.87124900000000e-09 4.87124900000000e-09 4.87159100000000e-09 9.02451400000000e-09 9.02685000000000e-09 9.02685000000000e-09 9.02918400000000e-09 2.14453310000000e-08 2.14464790000000e-08 2.14464810000000e-08 2.14476320000000e-08 0.000419173335905000 0.000419173364720000 0.000419173364722000 0.000419173393598000 0.000679913483432000 0.000682142291438000 0.000682142291439000 0.000684512520641000 0.000770034546320000 0.000772923805106000 0.000772923805108000 0.000775672006794000 0.00205520645184900 0.00205523299266000 0.00205523299266100 0.00205525954661100 0.00300214901764400 0.00301722862760100 0.00301722862760100 0.00303584198841300 0.00319740553860100 0.00322055462545900 0.00322055462546000 0.00324018748155100 0.00493826885105200 0.00493925942270000 0.00493925942270100 0.00494023940678700 0.00770621892271700 0.00771030669239000 0.00771030669239200 0.00771437490314200 0.0110540463466530 0.0111253231627430 0.0111253231627450 0.0112637466958560 0.0113600808179890 0.0115048566421870 0.0115048566421870 0.0115826289757890 0.0130201756452600 0.0130245711144130 0.0130245711144130 0.0130288356844970 0.0227641261620830 0.0227641556278790 0.0227641556278790 0.0227641850730540 0.0398856897241370 0.0398856926147690 0.0398856926147690 0.0398856955053590 0.0655406240440510 0.0655406240471150 0.0655406240471150 0.0655406240501800 0.0860255338472930 0.0860255338624880 0.0860255338624880 0.0860255338776900 0.0871931546926710 0.0872038831913750 0.0872038831913750 0.0872146773944000 0.0973914198162400 0.0974105017383080 0.0974105017383090 0.0974261398987540 0.0979831528737110 0.0980397771075120 0.0980397771075120 0.0980877484423710 0.0982085366443550 0.0982253727704190 0.0982253727704190 0.0982573984801340 0.106392934374905 0.106743054387173 0.106743054387173 0.106743055706571 0.106743056139497 0.106914736320115 0.106914736320115 0.108193749295533 0.108255763026548 0.109883520767201 0.109883520767201 0.111426240908465 0.111429731939303 0.111429745289223 0.111429745289223 0.111429745391428 0.111788199798856 0.113152331700793 0.113152331700794 0.113152356248519 0.113152358472573 0.113218619579123 0.113218619579124 0.114484316255176 0.114790057839713 0.115313395141081 0.115313395141081 0.115313444397641 0.115313641590457 0.115799331816011 0.115799331816012 0.116048750293307 0.116049970853832 0.116050806560192 0.116050806560193 0.116394950683309 0.117614647751754 0.117884017562352 0.117884017562352 0.117884432628762 0.117884688948511 0.117952876773765 0.117952876773765 0.118211223411560 0.119010006165669 0.119010216069184 0.119010216069184 0.119010609380496 0.119558474486430 0.119659810315867 0.119659810315867 0.119744421955918 0.119898583804604 0.119898614562599 0.119898614562599 0.119898672014688 0.120462709243054 0.120501221231985 0.120501221231985 0.120567642592670 0.120774437109822 0.120828026050269 0.120828026050269 0.120837610759369 0.120863010648091 0.120903338351681 0.120903338351681 0.120961567184343 0.121227054081200 0.121227156409647 0.121227156409647 0.121227297555016 0.121959465290177 0.121999425621823 0.121999425621823 0.122066488277004 0.122098455089643 0.122099112033445 0.122099112033446 0.122099124466357 0.122105839615906 0.122159588559396 0.122159588559396 0.122185950933802 0.122978086857553 0.122979113878511 0.122979113878511 0.122980136676680 0.123322743034260 0.123323062153403 0.123323062153403 0.123323380476573 0.123575603386964 0.123575686039406 0.123575686039406 0.123575768617806 0.123740316484906 0.123740338712759 0.123740338712760 0.123740360932433 0.123832354782885 0.123832359389429 0.123832359389429 0.123832363994863 ]
;
Eigenvalues_0=
[ 0 0 0 0 0 0 0 0 0 0 0 0 0 0 0 0 0 0 0 0 1.00000000000000e-15 4.20686000000000e-09 4.31461200000000e-09 4.31461300000000e-09 5.32804600000000e-09 6.94759970000000e-08 2.40523872000000e-07 2.40523872000000e-07 3.15939318000000e-07 3.75799825000000e-07 5.50079974000000e-07 5.50079974000000e-07 7.22593839000000e-07 0.115215876934254 0.140895004546029 0.140895004546030 0.153117789853872 0.165856882884613 0.176131674286399 0.176131674286399 0.214877919198814 0.388125152903782 0.393185542857341 0.393185542857341 0.394087908214048 0.487212851929200 0.535077055890096 0.535077055890096 0.572781561654440 0.706163393575422 0.714219620570212 0.714219620570212 0.718318343466841 0.762448780578060 0.769536550812937 0.769536550812937 0.777731473746973 ]
;
Eigenvalues_1=
[ -1.00000000000000e-15 0 0 0 0 0 0 0 0 0 0 0 0 0 0 0 0 0 0 0 0 0 0 0 0 0 0 0 0 0 0 0 0 0 0 0 0 0 0 0 0 0 0 0 0 0 0 0 0 0 0 0 0 0 0 0 0 0 0 0 0 0 0 0 0 0 0 0 0 0 0 0 0 0 0 1.00000000000000e-15 2.00000000000000e-15 3.19910000000000e-11 4.58090000000000e-11 4.77280000000000e-11 4.77280000000000e-11 5.21420000000000e-11 9.72560000000000e-11 9.72570000000000e-11 1.62424000000000e-10 1.59035800000000e-09 1.86852400000000e-09 2.08819400000000e-09 2.08819500000000e-09 3.99821100000000e-09 3.99821300000000e-09 4.05628400000000e-09 4.23719600000000e-09 1.91466480000000e-07 2.26375177000000e-07 2.26375182000000e-07 4.70293558000000e-07 5.16088893000000e-07 1.26298115400000e-06 1.26298115600000e-06 1.76321658100000e-06 0.00130071083884700 0.00130391324549000 0.00130391324549000 0.00130689568088300 0.0949589759676860 0.0951253395266070 0.0951253395266070 0.0952551922544470 0.162717489575806 0.176864776137256 0.176864776137256 0.193596815245595 0.269825557177878 0.269829617910800 0.269852611345411 0.269852611345412 0.308414889947402 0.315966472391206 0.315966472391206 0.321458330572273 0.330916906011380 0.332611792059614 0.332611792059615 0.334062422297454 0.361304263592966 0.375000389806231 0.375000389806232 0.391962235036411 0.404488468758635 0.404514745552522 0.404514745552522 0.404701544246748 0.422266729192916 0.431368576106692 0.431368576106692 0.436409636213986 0.448375419194023 0.449521236887206 0.449521236887206 0.451655964933922 0.460339206771126 0.462227917624277 0.462227917624277 0.463482776212349 ]
;
Eigenvalues_2=
[ 0 0 0 0 0 0 0 0 0 0 0 0 0 0 0 0 0 0 0 0 0 0 0 0 0 0 0 0 0 0 0 0 0 0 0 0 0 0 0 0 0 0 0 0 0 0 0 0 0 0 0 0 0 0 0 0 0 0 0 0 0 0 0 0 0 0 0 0 0 0 0 0 0 0 0 0 0 0 0 0 0 0 0 0 0 0 0 0 0 0 0 0 0 0 0 0 0 0 0 0 0 0 0 0 0 0 0 0 0 0 0 0 0 0 0 0 0 0 0 0 0 0 0 0 0 0 0 0 0 0 0 0 0 0 0 0 0 0 0 0 0 0 0 0 0 0 0 0 0 0 0 0 0 0 0 0 0 0 0 0 0 0 0 0 0 0 0 0 0 0 0 0 0 0 0 0 0 0 0 0 0 0 0 0 0 0 0 0 0 0 0 0 0 0 0 0 0 0 0 0 0 0 0 0 0 0 0 0 0 0 0 0 0 0 0 0 0 0 0 0 0 0 0 0 0 0 0 0 0 0 0 0 0 0 0 0 0 0 0 0 0 0 0 0 0 0 0 0 0 0 0 0 0 0 0 0 0 0 0 0 0 0 0 0 0 0 0 0 0 0 0 0 0 0 0 0 1.00000000000000e-15 1.00000000000000e-15 3.00000000000000e-15 3.00000000000000e-15 4.00000000000000e-15 5.00000000000000e-15 7.00000000000000e-15 8.00000000000000e-15 2.40000000000000e-14 2.50000000000000e-14 2.60000000000000e-14 2.70000000000000e-14 3.50000000000000e-14 3.50000000000000e-14 5.60000000000000e-14 8.80000000000000e-14 9.90000000000000e-14 2.10000000000000e-13 2.10000000000000e-13 3.02000000000000e-13 4.10800000000000e-12 4.12100000000000e-12 4.12900000000000e-12 4.19200000000000e-12 5.55900000000000e-12 7.45700000000000e-12 7.45900000000000e-12 9.55800000000000e-12 6.38460000000000e-11 6.47980000000000e-11 6.48010000000000e-11 6.64650000000000e-11 1.01685000000000e-10 1.18032000000000e-10 1.18032000000000e-10 1.34481000000000e-10 5.76928000000000e-10 5.82409000000000e-10 5.82409000000000e-10 5.89311000000000e-10 7.81252400000000e-09 8.09592100000000e-09 8.09592100000000e-09 8.75547200000000e-09 1.15753100000000e-08 1.35225880000000e-08 1.35225880000000e-08 1.50735690000000e-08 4.63924970000000e-08 4.64261120000000e-08 4.64261120000000e-08 4.64585970000000e-08 1.10272287000000e-07 1.10977479000000e-07 1.10977481000000e-07 1.11692367000000e-07 0.000309050417340000 0.000309106012632000 0.000309106012635000 0.000309159542569000 0.000537223119811000 0.000549747783228000 0.000549747783229000 0.000565700493352000 0.000691477292158000 0.000713666895389000 0.000713666895392000 0.000732522854852000 0.00187612146864900 0.00187649069277700 0.00187649069277800 0.00187684919801600 0.00743463170848600 0.00743470953960600 0.00743470953960600 0.00743478542653100 0.0829484043886420 0.0829488159617520 0.0829488159617520 0.0829492076030750 0.134659514411392 0.134661959055307 0.134661959055309 0.134663976832172 0.141250992893309 0.144208824026595 0.144208824026595 0.148094831463156 0.158994314016129 0.160661211117286 0.160661211117286 0.161502961270549 0.174516381286054 0.174529576008262 0.174529576008263 0.174578827376936 0.186250175237950 0.190832240509635 0.190832240509635 0.193611199311067 0.193632982765757 0.193686613787318 0.193686613787320 0.199455358241229 0.202034155902949 0.210232972548272 0.210232972548273 0.211680519974272 0.211687895377950 0.211690426079079 0.211690426079081 0.215202634630126 0.223919252234633 0.225674794767965 0.225674794767965 0.225676224107545 0.225676401159882 0.226493903961906 0.226493903961907 0.228371205479366 0.233124456981571 0.233125632176488 0.233125632176488 0.233127868014423 0.235444792285096 0.235620066680016 0.235620066680016 0.235689947204250 0.235967672412388 0.235971238826650 0.235971238826650 0.235973444266746 0.236722164475239 0.237312751554474 0.237312751554474 0.237974385389142 0.240492945987306 0.240854954894523 0.240854954894523 0.241142749183814 0.243204428528971 0.243268399446945 0.243268399446946 0.243324953307314 0.245597579590070 0.245599775204976 0.245599775204976 0.245601954772666 ]
;
0 0 0 0 0 1.00000000000000e-15 3.38630000000000e-11 6.54060000000000e-11 6.54060000000000e-11 7.40890000000000e-11 1.00616900000000e-09 1.05629900000000e-09 1.05630000000000e-09 1.09218400000000e-09 1.24872979000000e-07 1.42137782000000e-07 1.42137783000000e-07 2.21779926000000e-07 5.33164615000000e-07 1.00882410600000e-06 1.00882410700000e-06 1.36213620500000e-06 3.35993093950000e-05 3.36586522680000e-05 3.36586522690000e-05 3.37111651270000e-05 0.0385645241775640 0.0389139888188200 0.0389139888188200 0.0391632131706340 0.0750652195385190 0.0852016067637020 0.0852016067637020 0.0975764419404540 0.206386580676314 0.206466661042582 0.206466661042583 0.206552058105015 0.252803002950931 0.272627462612609 0.272627462612610 0.291464623587749 0.316987563998522 0.321027874476869 0.321027874476870 0.323210934455211 0.357436954437066 0.369032582435394 0.369032582435394 0.390620659149862 0.396358277829775 0.396358277829775 0.396640212995822 0.398209144118453 0.411702080636100 0.435797440667458 0.435797440667458 0.450563962506061 0.454626318027284 0.454787402257000 0.454787402257001 0.458467184772193 0.458663645377963 0.467005143194833 0.467005143194834 0.469738724551835 ]
;
Eigenvalues_2=
[ 0 0 0 0 0 0 0 0 0 0 0 0 0 0 0 0 0 0 0 0 0 0 0 0 0 0 0 0 0 0 0 0 0 0 0 0 0 0 0 0 0 0 0 0 0 0 0 0 0 0 0 0 0 0 0 0 0 0 0 0 0 0 0 0 0 0 0 0 0 0 0 0 0 0 0 0 0 0 0 0 0 0 0 0 0 0 0 0 0 0 0 0 0 0 0 0 0 0 0 0 0 0 0 0 0 0 0 0 0 0 0 0 0 0 0 0 0 0 0 0 0 0 0 0 0 0 0 0 0 0 0 0 0 0 0 0 0 0 0 0 0 0 0 0 0 0 0 0 0 0 0 0 0 0 0 0 0 0 0 0 0 0 0 0 0 0 0 0 0 0 0 0 1.00000000000000e-15 2.11000000000000e-13 5.05000000000000e-13 5.06000000000000e-13 8.91000000000000e-13 6.07600000000000e-12 6.50600000000000e-12 6.51000000000000e-12 7.10700000000000e-12 2.40948000000000e-10 2.94987000000000e-10 2.94988000000000e-10 6.62122000000000e-10 7.43252000000000e-10 2.31046200000000e-09 2.31046200000000e-09 4.19152600000000e-09 6.48700100000000e-09 7.86855700000000e-09 7.86855800000000e-09 8.61097800000000e-09 1.94754160000000e-08 1.95815850000000e-08 1.95815860000000e-08 1.96696300000000e-08 1.03503999300000e-06 1.03938355300000e-06 1.03938355700000e-06 1.04373837700000e-06 1.84491868080000e-05 1.95923849220000e-05 1.95923849230000e-05 2.11308213550000e-05 3.61087429710000e-05 4.08932448510000e-05 4.08932448540000e-05 4.74389006040000e-05 5.51570404290000e-05 5.94892239460000e-05 5.94892239460000e-05 6.17250574470000e-05 0.000421779177360000 0.000422461464291000 0.000422461464291000 0.000423134248234000 0.0401513160487420 0.0401700505734970 0.0401700505734990 0.0401873744535720 0.100915641827691 0.105008915044797 0.105008915044798 0.109334577244673 0.143209106847488 0.143223793424503 0.143223793424503 0.143230945675020 0.173950477378745 0.175995785169588 0.175995785169588 0.179219077767654 0.180798819240651 0.181121156807481 0.181121156807482 0.186098424821014 0.187635652959380 0.202519028324380 0.202519028324380 0.215804594314992 0.215812236284722 0.215815750314334 0.215815750314335 0.216003001288537 0.220916031222318 0.229800160407984 0.229800160407985 0.231215270065709 0.231229792041273 0.231247503247744 0.231247503247745 0.235883349021582 0.237302096831976 0.238760845137484 0.238760845137484 0.238807671228823 0.239128613963051 0.240724064982625 0.240724064982625 0.241127590377085 0.241292891673061 0.241523539298300 0.241523539298300 0.243028739804646 0.243915661363114 0.244889517733054 0.244889517733054 0.245448842695467 0.246099704520308 0.246288742211079 0.246288742211079 0.246396153579034 ]
;
Eigenvalues_3=
[ 0 0 0 0 0 0 0 0 0 0 0 0 0 0 0 0 0 0 0 0 0 0 0 0 0 0 0 0 0 0 0 0 0 0 0 0 0 0 0 0 0 0 0 0 0 0 0 0 0 0 0 0 0 0 0 0 0 0 0 0 0 0 0 0 0 0 0 0 0 0 0 0 0 0 0 0 0 0 0 0 0 0 0 0 0 0 0 0 0 0 0 0 0 0 0 0 0 0 0 0 0 0 0 0 0 0 0 0 0 0 0 0 0 0 0 0 0 0 0 0 0 0 0 0 0 0 0 0 0 0 0 0 0 0 0 0 0 0 0 0 0 0 0 0 0 0 0 0 0 0 0 0 0 0 0 0 0 0 0 0 0 0 0 0 0 0 0 0 0 0 0 0 0 0 0 0 0 0 0 0 0 0 0 0 0 0 0 0 0 0 0 0 0 0 0 0 0 0 0 0 0 0 0 0 0 0 0 0 0 0 0 0 0 0 0 0 0 0 0 0 0 0 0 0 0 0 0 0 0 0 0 0 0 0 0 0 0 0 0 0 0 0 0 0 0 0 0 0 0 0 0 0 0 0 0 0 0 0 0 0 0 0 0 0 0 0 0 0 0 0 0 0 0 0 0 0 0 0 0 0 0 0 0 0 0 0 0 0 0 0 0 0 0 0 0 0 0 0 0 0 0 0 0 0 0 0 0 0 0 0 0 0 0 0 0 0 0 0 0 0 0 0 0 0 0 0 0 0 0 0 0 0 0 0 0 0 0 0 0 0 0 0 0 0 0 0 0 0 0 0 0 0 0 0 0 0 0 0 0 0 0 0 0 0 0 0 0 0 0 0 0 0 0 0 0 0 0 0 0 0 0 0 0 0 0 0 0 0 0 0 0 0 0 0 0 0 0 0 0 0 0 0 0 0 0 0 0 0 0 0 0 0 0 0 0 0 0 0 0 0 0 0 0 0 0 0 0 0 0 0 0 0 0 0 0 0 0 0 0 1.00000000000000e-15 1.00000000000000e-15 1.00000000000000e-15 1.00000000000000e-15 1.00000000000000e-15 2.00000000000000e-15 3.00000000000000e-15 3.00000000000000e-15 4.00000000000000e-15 4.00000000000000e-15 6.00000000000000e-15 1.00000000000000e-14 1.10000000000000e-14 1.10000000000000e-14 1.50000000000000e-14 3.30000000000000e-14 3.90000000000000e-14 5.50000000000000e-14 5.70000000000000e-14 5.70000000000000e-14 6.30000000000000e-14 1.77000000000000e-13 2.52000000000000e-13 2.52000000000000e-13 3.34000000000000e-13 3.47700000000000e-12 4.17100000000000e-12 4.17200000000000e-12 5.69200000000000e-12 6.93800000000000e-12 9.44300000000000e-12 9.44400000000000e-12 1.12480000000000e-11 6.03950000000000e-11 6.79590000000000e-11 6.79600000000000e-11 7.79870000000000e-11 1.21921000000000e-10 1.30678000000000e-10 1.30678000000000e-10 1.36775000000000e-10 9.86699000000000e-10 1.03655100000000e-09 1.03655100000000e-09 1.08979300000000e-09 1.51872100000000e-09 1.55121900000000e-09 1.55129000000000e-09 1.58327900000000e-09 3.28311800000000e-09 3.32304200000000e-09 3.32310100000000e-09 3.36083400000000e-09 3.47738240000000e-08 3.52976370000000e-08 3.52976380000000e-08 3.58582330000000e-08 8.11367540000000e-08 8.69307160000000e-08 8.69307160000000e-08 9.95788690000000e-08 1.03218976000000e-07 1.16873456000000e-07 1.16873457000000e-07 1.23660844000000e-07 1.57483073600000e-06 1.58177558800000e-06 1.58177558900000e-06 1.58889635600000e-06 6.84787270100000e-06 6.86467813200000e-06 6.86467813400000e-06 6.89032584200000e-06 7.11779543400000e-06 7.16616939200000e-06 7.16616940100000e-06 7.20484883200000e-06 1.44906178860000e-05 1.45877720160000e-05 1.45877720160000e-05 1.46850374890000e-05 7.71231574460000e-05 7.74521805880000e-05 7.74521805900000e-05 7.77861303440000e-05 0.000176234472192000 0.000177678199614000 0.000177678199615000 0.000179374380866000 0.000226016561907000 0.000230640945089000 0.000230640945092000 0.000235064596618000 0.000452771740014000 0.000453857175023000 0.000453857175024000 0.000454901349576000 0.00216426855289200 0.00216440950120100 0.00216440950120400 0.00216455112845900 0.0533893760570290 0.0533898956484420 0.0533898956484440 0.0533904119780530 0.0762509808017310 0.0762579883094430 0.0762579883094440 0.0762652754745800 0.0852128428510080 0.0857100929027280 0.0857100929027280 0.0869248098728190 0.0892425780388190 0.0925294382253680 0.0925294382253680 0.0938292187786650 0.0940084635910940 0.0940321369027340 0.0940321369027350 0.0978264754321630 0.0992263173417240 0.104477097901153 0.104477097901153 0.105932816179579 0.105938704039152 0.105938704039153 0.105940855966958 0.107938324686109 0.112967604768152 0.114071620646426 0.114072891029246 0.114072891029246 0.114074688063137 0.115185527973503 0.115185527973504 0.117699836200276 0.117980689222618 0.118833587085183 0.118833587085184 0.118834188326890 0.118835876393175 0.119779085125425 0.119779085125425 0.120928128125496 0.121049331233193 0.121071986369167 0.121071986369168 0.121072374035182 0.121390200945233 0.122027979135887 0.122027979135887 0.122199720576737 0.122289517260304 0.122341610881608 0.122341610881608 0.122575419439867 0.122706182986410 0.122714430496747 0.122714430496749 0.122814690654448 0.122975464908522 0.123288855191854 0.123288855191854 0.123378453741618 0.123381695884958 0.123383893238262 0.123383893238262 0.123549442677281 0.123630545694348 0.123784533327921 0.123784533327921 0.123854118185323 0.123855355274614 0.123855381692748 0.123855381692748 0.123858001112576 0.124168738224285 0.124186659054725 0.124186659054725 0.124202256262342 0.124362906810045 0.124366125015742 0.124366125015742 0.124369064376032 0.124654742494213 0.124654759602990 0.124654759602990 0.124654776699305 ]
;
