This is LuaTeX, Version beta-0.80.0 (TeX Live 2015) (rev 5238)  (format=lualatex 2015.9.17)  21 JAN 2016 11:16
 restricted \write18 enabled.
 file:line:error style messages enabled.
**eigenValues.tex
(./eigenValues.tex
LaTeX2e <2015/01/01>
Babel <3.9l> and hyphenation patterns for 79 languages loaded.
(/usr/local/texlive/2015/texmf-dist/tex/latex/standalone/standalone.cls
Document Class: standalone 2012/09/15 v1.1b Class to compile TeX sub-files stand
alone
(/usr/local/texlive/2015/texmf-dist/tex/generic/oberdiek/ifluatex.sty
Package: ifluatex 2010/03/01 v1.3 Provides the ifluatex switch (HO)
Package ifluatex Info: LuaTeX detected.
)
(/usr/local/texlive/2015/texmf-dist/tex/generic/oberdiek/ifpdf.sty
Package: ifpdf 2011/01/30 v2.3 Provides the ifpdf switch (HO)
Package ifpdf Info: pdfTeX in PDF mode is detected.
)
(/usr/local/texlive/2015/texmf-dist/tex/generic/ifxetex/ifxetex.sty
Package: ifxetex 2010/09/12 v0.6 Provides ifxetex conditional
)
(/usr/local/texlive/2015/texmf-dist/tex/latex/xkeyval/xkeyval.sty
Package: xkeyval 2014/12/03 v2.7a package option processing (HA)

(/usr/local/texlive/2015/texmf-dist/tex/generic/xkeyval/xkeyval.tex
(/usr/local/texlive/2015/texmf-dist/tex/generic/xkeyval/xkvutils.tex
\XKV@toks=\toks14
\XKV@tempa@toks=\toks15

(/usr/local/texlive/2015/texmf-dist/tex/generic/xkeyval/keyval.tex))
\XKV@depth=\count79
File: xkeyval.tex 2014/12/03 v2.7a key=value parser (HA)
))
\sa@internal=\count80

(/usr/local/texlive/2015/texmf-dist/tex/latex/standalone/standalone.cfg
File: standalone.cfg 2012/09/15 v1.1b Default configuration file for 'standalone
' class
)
(/usr/local/texlive/2015/texmf-dist/tex/latex/base/article.cls
Document Class: article 2014/09/29 v1.4h Standard LaTeX document class
(/usr/local/texlive/2015/texmf-dist/tex/latex/base/size10.clo
File: size10.clo 2014/09/29 v1.4h Standard LaTeX file (size option)
)
\c@part=\count81
\c@section=\count82
\c@subsection=\count83
\c@subsubsection=\count84
\c@paragraph=\count85
\c@subparagraph=\count86
\c@figure=\count87
\c@table=\count88
\abovecaptionskip=\skip41
\belowcaptionskip=\skip42
\bibindent=\dimen102
)
\sa@box=\box26
)
(/usr/local/texlive/2015/texmf-dist/tex/latex/base/inputenc.sty
Package: inputenc 2015/03/17 v1.2c Input encoding file
\inpenc@prehook=\toks16
\inpenc@posthook=\toks17


Package inputenc Warning: inputenc package ignored with utf8 based engines.

) (/usr/local/texlive/2015/texmf-dist/tex/latex/amsmath/amsmath.sty
Package: amsmath 2013/01/14 v2.14 AMS math features
\@mathmargin=\skip43

For additional information on amsmath, use the `?' option.
(/usr/local/texlive/2015/texmf-dist/tex/latex/amsmath/amstext.sty
Package: amstext 2000/06/29 v2.01

(/usr/local/texlive/2015/texmf-dist/tex/latex/amsmath/amsgen.sty
File: amsgen.sty 1999/11/30 v2.0
\@emptytoks=\toks18
\ex@=\dimen103
))
(/usr/local/texlive/2015/texmf-dist/tex/latex/amsmath/amsbsy.sty
Package: amsbsy 1999/11/29 v1.2d
\pmbraise@=\dimen104
)
(/usr/local/texlive/2015/texmf-dist/tex/latex/amsmath/amsopn.sty
Package: amsopn 1999/12/14 v2.01 operator names
)
\inf@bad=\count89
LaTeX Info: Redefining \frac on input line 210.
\uproot@=\count90
\leftroot@=\count91
LaTeX Info: Redefining \overline on input line 306.
\classnum@=\count92
\DOTSCASE@=\count93
LaTeX Info: Redefining \ldots on input line 378.
LaTeX Info: Redefining \dots on input line 381.
LaTeX Info: Redefining \cdots on input line 466.
\Mathstrutbox@=\box27
\strutbox@=\box28
\big@size=\dimen105
LaTeX Font Info:    Redeclaring font encoding OML on input line 566.
LaTeX Font Info:    Redeclaring font encoding OMS on input line 567.
\macc@depth=\count94
\c@MaxMatrixCols=\count95
\dotsspace@=\muskip10
\c@parentequation=\count96
\dspbrk@lvl=\count97
\tag@help=\toks19
\row@=\count98
\column@=\count99
\maxfields@=\count100
\andhelp@=\toks20
\eqnshift@=\dimen106
\alignsep@=\dimen107
\tagshift@=\dimen108
\tagwidth@=\dimen109
\totwidth@=\dimen110
\lineht@=\dimen111
\@envbody=\toks21
\multlinegap=\skip44
\multlinetaggap=\skip45
\mathdisplay@stack=\toks22
LaTeX Info: Redefining \[ on input line 2665.
LaTeX Info: Redefining \] on input line 2666.
)
(/usr/local/texlive/2015/texmf-dist/tex/latex/amsfonts/amssymb.sty
Package: amssymb 2013/01/14 v3.01 AMS font symbols

(/usr/local/texlive/2015/texmf-dist/tex/latex/amsfonts/amsfonts.sty
Package: amsfonts 2013/01/14 v3.01 Basic AMSFonts support
\symAMSa=\mathgroup4
\symAMSb=\mathgroup5
LaTeX Font Info:    Overwriting math alphabet `\mathfrak' in version `bold'
(Font)                  U/euf/m/n --> U/euf/b/n on input line 106.
))
(/usr/local/texlive/2015/texmf-dist/tex/latex/base/latexsym.sty
Package: latexsym 1998/08/17 v2.2e Standard LaTeX package (lasy symbols)
\symlasy=\mathgroup6
LaTeX Font Info:    Overwriting symbol font `lasy' in version `bold'
(Font)                  U/lasy/m/n --> U/lasy/b/n on input line 52.
)
(/usr/local/texlive/2015/texmf-dist/tex/latex/base/ifthen.sty
Package: ifthen 2014/09/29 v1.1c Standard LaTeX ifthen package (DPC)
)
(/usr/local/texlive/2015/texmf-dist/tex/latex/listings/listings.sty
\lst@mode=\count101
\lst@gtempboxa=\box29
\lst@token=\toks23
\lst@length=\count102
\lst@currlwidth=\dimen112
\lst@column=\count103
\lst@pos=\count104
\lst@lostspace=\dimen113
\lst@width=\dimen114
\lst@newlines=\count105
\lst@lineno=\count106
\lst@maxwidth=\dimen115

(/usr/local/texlive/2015/texmf-dist/tex/latex/listings/lstmisc.sty
File: lstmisc.sty 2014/09/06 1.5e (Carsten Heinz)
\c@lstnumber=\count107
\lst@skipnumbers=\count108
\lst@framebox=\box30
)
(/usr/local/texlive/2015/texmf-dist/tex/latex/listings/listings.cfg
File: listings.cfg 2014/09/06 1.5e listings configuration
))
Package: listings 2014/09/06 1.5e (Carsten Heinz)

(/usr/local/texlive/2015/texmf-dist/tex/latex/tools/bm.sty
Package: bm 2014/10/28 v1.1c Bold Symbol Support (DPC/FMi)
\symboldoperators=\mathgroup7
\symboldletters=\mathgroup8
\symboldsymbols=\mathgroup9
\symboldlasy=\mathgroup10
LaTeX Font Info:    Redeclaring math alphabet \mathbf on input line 141.
LaTeX Info: Redefining \bm on input line 207.
)
(/usr/local/texlive/2015/texmf-dist/tex/latex/bbm-macros/bbm.sty
Package: bbm 1999/03/15 V 1.2 provides fonts for set symbols - TH
LaTeX Font Info:    Overwriting math alphabet `\mathbbm' in version `bold'
(Font)                  U/bbm/m/n --> U/bbm/bx/n on input line 33.
LaTeX Font Info:    Overwriting math alphabet `\mathbbmss' in version `bold'
(Font)                  U/bbmss/m/n --> U/bbmss/bx/n on input line 35.
)
(/usr/local/texlive/2015/texmf-dist/tex/latex/jknapltx/mathrsfs.sty
Package: mathrsfs 1996/01/01 Math RSFS package v1.0 (jk)
\symrsfs=\mathgroup11
)
(/usr/local/texlive/2015/texmf-dist/tex/latex/graphics/color.sty
Package: color 2014/10/28 v1.1a Standard LaTeX Color (DPC)

(/usr/local/texlive/2015/texmf-dist/tex/latex/latexconfig/color.cfg
File: color.cfg 2007/01/18 v1.5 color configuration of teTeX/TeXLive
)
Package color Info: Driver file: pdftex.def on input line 142.

(/usr/local/texlive/2015/texmf-dist/tex/latex/pdftex-def/pdftex.def
File: pdftex.def 2011/05/27 v0.06d Graphics/color for pdfTeX

(/usr/local/texlive/2015/texmf-dist/tex/generic/oberdiek/infwarerr.sty
Package: infwarerr 2010/04/08 v1.3 Providing info/warning/error messages (HO)
)
(/usr/local/texlive/2015/texmf-dist/tex/generic/oberdiek/ltxcmds.sty
Package: ltxcmds 2011/11/09 v1.22 LaTeX kernel commands for general use (HO)
)
\Gread@gobject=\count109
))
(/usr/local/texlive/2015/texmf-dist/tex/latex/pgfplots/pgfplotstable.sty
(/usr/local/texlive/2015/texmf-dist/tex/generic/pgfplots/pgfplots.revision.tex)
Package: pgfplotstable 2015/05/02 v1.12.1 Table typesetting and Pretty-printing 
(1.12.1)

(/usr/local/texlive/2015/texmf-dist/tex/latex/pgfplots/pgfplots.sty
(/usr/local/texlive/2015/texmf-dist/tex/generic/pgfplots/pgfplots.revision.tex)
Package: pgfplots 2015/05/02 v1.12.1 Data Visualization (1.12.1)

(/usr/local/texlive/2015/texmf-dist/tex/latex/pgf/frontendlayer/tikz.sty
(/usr/local/texlive/2015/texmf-dist/tex/latex/pgf/basiclayer/pgf.sty
(/usr/local/texlive/2015/texmf-dist/tex/latex/pgf/utilities/pgfrcs.sty
(/usr/local/texlive/2015/texmf-dist/tex/generic/pgf/utilities/pgfutil-common.te
x
\pgfutil@everybye=\toks24
\pgfutil@tempdima=\dimen116
\pgfutil@tempdimb=\dimen117

(/usr/local/texlive/2015/texmf-dist/tex/generic/pgf/utilities/pgfutil-common-li
sts.tex))
(/usr/local/texlive/2015/texmf-dist/tex/generic/pgf/utilities/pgfutil-latex.def
\pgfutil@abb=\box31
(/usr/local/texlive/2015/texmf-dist/tex/latex/ms/everyshi.sty
Package: everyshi 2001/05/15 v3.00 EveryShipout Package (MS)
))
(/usr/local/texlive/2015/texmf-dist/tex/generic/pgf/utilities/pgfrcs.code.tex
Package: pgfrcs 2013/12/20 v3.0.0 (rcs-revision 1.28)
))
Package: pgf 2013/12/18 v3.0.0 (rcs-revision 1.14)

(/usr/local/texlive/2015/texmf-dist/tex/latex/pgf/basiclayer/pgfcore.sty
(/usr/local/texlive/2015/texmf-dist/tex/latex/graphics/graphicx.sty
Package: graphicx 2014/10/28 v1.0g Enhanced LaTeX Graphics (DPC,SPQR)

(/usr/local/texlive/2015/texmf-dist/tex/latex/graphics/graphics.sty
Package: graphics 2014/10/28 v1.0p Standard LaTeX Graphics (DPC,SPQR)

(/usr/local/texlive/2015/texmf-dist/tex/latex/graphics/trig.sty
Package: trig 1999/03/16 v1.09 sin cos tan (DPC)
)
(/usr/local/texlive/2015/texmf-dist/tex/latex/latexconfig/graphics.cfg
File: graphics.cfg 2010/04/23 v1.9 graphics configuration of TeX Live
)
Package graphics Info: Driver file: pdftex.def on input line 94.
)
\Gin@req@height=\dimen118
\Gin@req@width=\dimen119
)
(/usr/local/texlive/2015/texmf-dist/tex/latex/pgf/systemlayer/pgfsys.sty
(/usr/local/texlive/2015/texmf-dist/tex/generic/pgf/systemlayer/pgfsys.code.tex
Package: pgfsys 2013/11/30 v3.0.0 (rcs-revision 1.47)
(/usr/local/texlive/2015/texmf-dist/tex/generic/pgf/utilities/pgfkeys.code.tex
\pgfkeys@pathtoks=\toks25
\pgfkeys@temptoks=\toks26

(/usr/local/texlive/2015/texmf-dist/tex/generic/pgf/utilities/pgfkeysfiltered.c
ode.tex
\pgfkeys@tmptoks=\toks27
))
\pgf@x=\dimen120
\pgf@y=\dimen121
\pgf@xa=\dimen122
\pgf@ya=\dimen123
\pgf@xb=\dimen124
\pgf@yb=\dimen125
\pgf@xc=\dimen126
\pgf@yc=\dimen127
\w@pgf@writea=\write3
\r@pgf@reada=\read1
\c@pgf@counta=\count110
\c@pgf@countb=\count111
\c@pgf@countc=\count112
\c@pgf@countd=\count113
\t@pgf@toka=\toks28
\t@pgf@tokb=\toks29
\t@pgf@tokc=\toks30

(/usr/local/texlive/2015/texmf-dist/tex/generic/pgf/systemlayer/pgf.cfg
File: pgf.cfg 2008/05/14  (rcs-revision 1.7)
)
Driver file for pgf: pgfsys-pdftex.def

(/usr/local/texlive/2015/texmf-dist/tex/generic/pgf/systemlayer/pgfsys-pdftex.d
ef
File: pgfsys-pdftex.def 2013/07/18  (rcs-revision 1.33)

(/usr/local/texlive/2015/texmf-dist/tex/generic/pgf/systemlayer/pgfsys-common-p
df.def
File: pgfsys-common-pdf.def 2013/10/10  (rcs-revision 1.13)
)))
(/usr/local/texlive/2015/texmf-dist/tex/generic/pgf/systemlayer/pgfsyssoftpath.
code.tex
File: pgfsyssoftpath.code.tex 2013/09/09  (rcs-revision 1.9)
\pgfsyssoftpath@smallbuffer@items=\count114
\pgfsyssoftpath@bigbuffer@items=\count115
)
(/usr/local/texlive/2015/texmf-dist/tex/generic/pgf/systemlayer/pgfsysprotocol.
code.tex
File: pgfsysprotocol.code.tex 2006/10/16  (rcs-revision 1.4)
)) (/usr/local/texlive/2015/texmf-dist/tex/latex/xcolor/xcolor.sty
Package: xcolor 2007/01/21 v2.11 LaTeX color extensions (UK)

(/usr/local/texlive/2015/texmf-dist/tex/latex/latexconfig/color.cfg
File: color.cfg 2007/01/18 v1.5 color configuration of teTeX/TeXLive
)
Package xcolor Info: Driver file: pdftex.def on input line 225.
LaTeX Info: Redefining \color on input line 702.
Package xcolor Info: Model `cmy' substituted by `cmy0' on input line 1337.
Package xcolor Info: Model `hsb' substituted by `rgb' on input line 1341.
Package xcolor Info: Model `RGB' extended on input line 1353.
Package xcolor Info: Model `HTML' substituted by `rgb' on input line 1355.
Package xcolor Info: Model `Hsb' substituted by `hsb' on input line 1356.
Package xcolor Info: Model `tHsb' substituted by `hsb' on input line 1357.
Package xcolor Info: Model `HSB' substituted by `hsb' on input line 1358.
Package xcolor Info: Model `Gray' substituted by `gray' on input line 1359.
Package xcolor Info: Model `wave' substituted by `hsb' on input line 1360.
)
(/usr/local/texlive/2015/texmf-dist/tex/generic/pgf/basiclayer/pgfcore.code.tex
Package: pgfcore 2010/04/11 v3.0.0 (rcs-revision 1.7)
(/usr/local/texlive/2015/texmf-dist/tex/generic/pgf/math/pgfmath.code.tex
(/usr/local/texlive/2015/texmf-dist/tex/generic/pgf/math/pgfmathcalc.code.tex
(/usr/local/texlive/2015/texmf-dist/tex/generic/pgf/math/pgfmathutil.code.tex)
(/usr/local/texlive/2015/texmf-dist/tex/generic/pgf/math/pgfmathparser.code.tex
\pgfmath@dimen=\dimen128
\pgfmath@count=\count116
\pgfmath@box=\box32
\pgfmath@toks=\toks31
\pgfmath@stack@operand=\toks32
\pgfmath@stack@operation=\toks33
)
(/usr/local/texlive/2015/texmf-dist/tex/generic/pgf/math/pgfmathfunctions.code.
tex
(/usr/local/texlive/2015/texmf-dist/tex/generic/pgf/math/pgfmathfunctions.basic
.code.tex)
(/usr/local/texlive/2015/texmf-dist/tex/generic/pgf/math/pgfmathfunctions.trigo
nometric.code.tex)
(/usr/local/texlive/2015/texmf-dist/tex/generic/pgf/math/pgfmathfunctions.rando
m.code.tex)
(/usr/local/texlive/2015/texmf-dist/tex/generic/pgf/math/pgfmathfunctions.compa
rison.code.tex)
(/usr/local/texlive/2015/texmf-dist/tex/generic/pgf/math/pgfmathfunctions.base.
code.tex)
(/usr/local/texlive/2015/texmf-dist/tex/generic/pgf/math/pgfmathfunctions.round
.code.tex)
(/usr/local/texlive/2015/texmf-dist/tex/generic/pgf/math/pgfmathfunctions.misc.
code.tex)
(/usr/local/texlive/2015/texmf-dist/tex/generic/pgf/math/pgfmathfunctions.integ
erarithmetics.code.tex)))
(/usr/local/texlive/2015/texmf-dist/tex/generic/pgf/math/pgfmathfloat.code.tex
\c@pgfmathroundto@lastzeros=\count117
))
(/usr/local/texlive/2015/texmf-dist/tex/generic/pgf/basiclayer/pgfcorepoints.co
de.tex
File: pgfcorepoints.code.tex 2013/10/07  (rcs-revision 1.27)
\pgf@picminx=\dimen129
\pgf@picmaxx=\dimen130
\pgf@picminy=\dimen131
\pgf@picmaxy=\dimen132
\pgf@pathminx=\dimen133
\pgf@pathmaxx=\dimen134
\pgf@pathminy=\dimen135
\pgf@pathmaxy=\dimen136
\pgf@xx=\dimen137
\pgf@xy=\dimen138
\pgf@yx=\dimen139
\pgf@yy=\dimen140
\pgf@zx=\dimen141
\pgf@zy=\dimen142
)
(/usr/local/texlive/2015/texmf-dist/tex/generic/pgf/basiclayer/pgfcorepathconst
ruct.code.tex
File: pgfcorepathconstruct.code.tex 2013/10/07  (rcs-revision 1.29)
\pgf@path@lastx=\dimen143
\pgf@path@lasty=\dimen144
)
(/usr/local/texlive/2015/texmf-dist/tex/generic/pgf/basiclayer/pgfcorepathusage
.code.tex
File: pgfcorepathusage.code.tex 2013/12/13  (rcs-revision 1.23)
\pgf@shorten@end@additional=\dimen145
\pgf@shorten@start@additional=\dimen146
)
(/usr/local/texlive/2015/texmf-dist/tex/generic/pgf/basiclayer/pgfcorescopes.co
de.tex
File: pgfcorescopes.code.tex 2013/10/09  (rcs-revision 1.44)
\pgfpic=\box33
\pgf@hbox=\box34
\pgf@layerbox@main=\box35
\pgf@picture@serial@count=\count118
)
(/usr/local/texlive/2015/texmf-dist/tex/generic/pgf/basiclayer/pgfcoregraphicst
ate.code.tex
File: pgfcoregraphicstate.code.tex 2013/09/19  (rcs-revision 1.11)
\pgflinewidth=\dimen147
)
(/usr/local/texlive/2015/texmf-dist/tex/generic/pgf/basiclayer/pgfcoretransform
ations.code.tex
File: pgfcoretransformations.code.tex 2013/10/10  (rcs-revision 1.17)
\pgf@pt@x=\dimen148
\pgf@pt@y=\dimen149
\pgf@pt@temp=\dimen150
)
(/usr/local/texlive/2015/texmf-dist/tex/generic/pgf/basiclayer/pgfcorequick.cod
e.tex
File: pgfcorequick.code.tex 2008/10/09  (rcs-revision 1.3)
)
(/usr/local/texlive/2015/texmf-dist/tex/generic/pgf/basiclayer/pgfcoreobjects.c
ode.tex
File: pgfcoreobjects.code.tex 2006/10/11  (rcs-revision 1.2)
)
(/usr/local/texlive/2015/texmf-dist/tex/generic/pgf/basiclayer/pgfcorepathproce
ssing.code.tex
File: pgfcorepathprocessing.code.tex 2013/09/09  (rcs-revision 1.9)
)
(/usr/local/texlive/2015/texmf-dist/tex/generic/pgf/basiclayer/pgfcorearrows.co
de.tex
File: pgfcorearrows.code.tex 2013/11/07  (rcs-revision 1.40)
\pgfarrowsep=\dimen151
)
(/usr/local/texlive/2015/texmf-dist/tex/generic/pgf/basiclayer/pgfcoreshade.cod
e.tex
File: pgfcoreshade.code.tex 2013/07/15  (rcs-revision 1.15)
\pgf@max=\dimen152
\pgf@sys@shading@range@num=\count119
)
(/usr/local/texlive/2015/texmf-dist/tex/generic/pgf/basiclayer/pgfcoreimage.cod
e.tex
File: pgfcoreimage.code.tex 2013/07/15  (rcs-revision 1.18)

(/usr/local/texlive/2015/texmf-dist/tex/generic/pgf/basiclayer/pgfcoreexternal.
code.tex
File: pgfcoreexternal.code.tex 2013/07/15  (rcs-revision 1.20)
\pgfexternal@startupbox=\box36
))
(/usr/local/texlive/2015/texmf-dist/tex/generic/pgf/basiclayer/pgfcorelayers.co
de.tex
File: pgfcorelayers.code.tex 2013/07/18  (rcs-revision 1.7)
)
(/usr/local/texlive/2015/texmf-dist/tex/generic/pgf/basiclayer/pgfcoretranspare
ncy.code.tex
File: pgfcoretransparency.code.tex 2013/09/30  (rcs-revision 1.5)
)
(/usr/local/texlive/2015/texmf-dist/tex/generic/pgf/basiclayer/pgfcorepatterns.
code.tex
File: pgfcorepatterns.code.tex 2013/11/07  (rcs-revision 1.5)
)))
(/usr/local/texlive/2015/texmf-dist/tex/generic/pgf/modules/pgfmoduleshapes.cod
e.tex
File: pgfmoduleshapes.code.tex 2013/10/31  (rcs-revision 1.34)
\pgfnodeparttextbox=\box37
)
(/usr/local/texlive/2015/texmf-dist/tex/generic/pgf/modules/pgfmoduleplot.code.
tex
File: pgfmoduleplot.code.tex 2013/07/31  (rcs-revision 1.12)
)
(/usr/local/texlive/2015/texmf-dist/tex/latex/pgf/compatibility/pgfcomp-version
-0-65.sty
Package: pgfcomp-version-0-65 2007/07/03 v3.0.0 (rcs-revision 1.7)
\pgf@nodesepstart=\dimen153
\pgf@nodesepend=\dimen154
)
(/usr/local/texlive/2015/texmf-dist/tex/latex/pgf/compatibility/pgfcomp-version
-1-18.sty
Package: pgfcomp-version-1-18 2007/07/23 v3.0.0 (rcs-revision 1.1)
))
(/usr/local/texlive/2015/texmf-dist/tex/latex/pgf/utilities/pgffor.sty
(/usr/local/texlive/2015/texmf-dist/tex/latex/pgf/utilities/pgfkeys.sty
(/usr/local/texlive/2015/texmf-dist/tex/generic/pgf/utilities/pgfkeys.code.tex))
(/usr/local/texlive/2015/texmf-dist/tex/latex/pgf/math/pgfmath.sty
(/usr/local/texlive/2015/texmf-dist/tex/generic/pgf/math/pgfmath.code.tex))
(/usr/local/texlive/2015/texmf-dist/tex/generic/pgf/utilities/pgffor.code.tex
Package: pgffor 2013/12/13 v3.0.0 (rcs-revision 1.25)

(/usr/local/texlive/2015/texmf-dist/tex/generic/pgf/math/pgfmath.code.tex)
\pgffor@iter=\dimen155
\pgffor@skip=\dimen156
\pgffor@stack=\toks34
\pgffor@toks=\toks35
))
(/usr/local/texlive/2015/texmf-dist/tex/generic/pgf/frontendlayer/tikz/tikz.cod
e.tex
Package: tikz 2013/12/13 v3.0.0 (rcs-revision 1.142)

(/usr/local/texlive/2015/texmf-dist/tex/generic/pgf/libraries/pgflibraryplothan
dlers.code.tex
File: pgflibraryplothandlers.code.tex 2013/08/31 v3.0.0 (rcs-revision 1.20)
\pgf@plot@mark@count=\count120
\pgfplotmarksize=\dimen157
)
\tikz@lastx=\dimen158
\tikz@lasty=\dimen159
\tikz@lastxsaved=\dimen160
\tikz@lastysaved=\dimen161
\tikzleveldistance=\dimen162
\tikzsiblingdistance=\dimen163
\tikz@figbox=\box38
\tikz@figbox@bg=\box39
\tikz@tempbox=\box40
\tikz@tempbox@bg=\box41
\tikztreelevel=\count121
\tikznumberofchildren=\count122
\tikznumberofcurrentchild=\count123
\tikz@fig@count=\count124

(/usr/local/texlive/2015/texmf-dist/tex/generic/pgf/modules/pgfmodulematrix.cod
e.tex
File: pgfmodulematrix.code.tex 2013/09/17  (rcs-revision 1.8)
\pgfmatrixcurrentrow=\count125
\pgfmatrixcurrentcolumn=\count126
\pgf@matrix@numberofcolumns=\count127
)
\tikz@expandcount=\count128

(/usr/local/texlive/2015/texmf-dist/tex/generic/pgf/frontendlayer/tikz/librarie
s/tikzlibrarytopaths.code.tex
File: tikzlibrarytopaths.code.tex 2008/06/17 v3.0.0 (rcs-revision 1.2)
)))
(/usr/local/texlive/2015/texmf-dist/tex/luatex/luatexbase/luatexbase.sty
Package: luatexbase 2013/05/11 v0.6 Resource management for the LuaTeX macro pro
grammer

(/usr/local/texlive/2015/texmf-dist/tex/generic/oberdiek/luatex.sty
Package: luatex 2010/03/09 v0.4 LuaTeX basic definition package (HO)

(/usr/local/texlive/2015/texmf-dist/tex/latex/etex-pkg/etex.sty
Package: etex 2015/03/02 v2.1 eTeX basic definition package (PEB,DPC)
\et@xins=\count129
)
\LuT@AllocAttribute=\count277
\LuT@AllocCatcodeTable=\count278
\CatcodeTableStack=\count279
\CatcodeTableIniTeX=\catcodetable1
\CatcodeTableString=\catcodetable3
\CatcodeTableOther=\catcodetable5
\CatcodeTableLaTeX=\catcodetable7

(/usr/local/texlive/2015/texmf-dist/tex/generic/oberdiek/luatex-loader.sty
Package: luatex-loader 2010/03/09 v0.4 Lua module loader (HO)

(/usr/local/texlive/2015/texmf-dist/scripts/oberdiek/oberdiek.luatex.lua)))
(/usr/local/texlive/2015/texmf-dist/tex/luatex/luatexbase/luatexbase-compat.sty
Package: luatexbase-compat 2011/05/24 v0.4 Compatibility tools for LuaTeX
)
(/usr/local/texlive/2015/texmf-dist/tex/luatex/luatexbase/luatexbase-modutils.s
ty
Package: luatexbase-modutils 2013/05/11 v0.6 Module utilities for LuaTeX

(/usr/local/texlive/2015/texmf-dist/tex/luatex/luatexbase/luatexbase-loader.sty
Package: luatexbase-loader 2013/05/11 v0.6 Lua module loader for LuaTeX
(/usr/local/texlive/2015/texmf-dist/tex/luatex/luatexbase/luatexbase.loader.lua)
)
(/usr/local/texlive/2015/texmf-dist/tex/luatex/luatexbase/modutils.lua)
Lua module: luatexbase-modutils 2013/05/11 0.6 Module utilities for LuaTeX
)
(/usr/local/texlive/2015/texmf-dist/tex/luatex/luatexbase/luatexbase-regs.sty
Package: luatexbase-regs 2011/05/24 v0.4 Registers allocation for LuaTeX
)
(/usr/local/texlive/2015/texmf-dist/tex/luatex/luatexbase/luatexbase-attr.sty
Package: luatexbase-attr 2013/05/11 v0.6 Attributes allocation for LuaTeX

(/usr/local/texlive/2015/texmf-dist/tex/luatex/luatexbase/attr.lua)
Lua module: luatexbase-attr 2013/05/11 0.6 Attributes allocation for LuaTeX
\lltxb@attr@unsetvalue=\count280
)
(/usr/local/texlive/2015/texmf-dist/tex/luatex/luatexbase/luatexbase-cctb.sty
Package: luatexbase-cctb 2013/05/11 v0.6 Catcodetable allocation for LuaTeX

(/usr/local/texlive/2015/texmf-dist/tex/luatex/luatexbase/cctb.lua)
Lua module: luatexbase-cctb 2013/05/11 0.6 Catcodetable allocation for LuaTeX
\lltxb@catcodetable@alloc=\count281
\CatcodeTableStack=\count282
\CatcodeTableIniTeX=\luatexcatcodetable1
\CatcodeTableString=\luatexcatcodetable3
\CatcodeTableOther=\luatexcatcodetable5
\CatcodeTableLaTeX=\luatexcatcodetable7
\CatcodeTableLaTeXAtLetter=\luatexcatcodetable9
\CatcodeTableExpl=\luatexcatcodetable11
)
(/usr/local/texlive/2015/texmf-dist/tex/luatex/luatexbase/luatexbase-mcb.sty
Package: luatexbase-mcb 2013/05/11 v0.6 Callback management for LuaTeX

(/usr/local/texlive/2015/texmf-dist/tex/luatex/luatexbase/mcb.lua)
Lua module: luatexbase-mcb 2013/05/11 0.6 register several functions in a callba
ck
))
(/usr/local/texlive/2015/texmf-dist/tex/generic/pgfplots/pgfplots.code.tex
(/usr/local/texlive/2015/texmf-dist/tex/generic/pgfplots/pgfplotscore.code.tex
Package pgfplots info on input line 115: Initializing with LUA version Lua 5.2

(/usr/local/texlive/2015/texmf-dist/tex/generic/pgfplots/lua/pgfplots.lua)
(/usr/local/texlive/2015/texmf-dist/tex/generic/pgfplots/lua/pgfplots/binary.lua
)
(/usr/local/texlive/2015/texmf-dist/tex/generic/pgfplots/lua/pgfplots/pgfplotsut
il.lua)
pgfplots.lua: loading complementary lua code for your pgf version...

(/usr/local/texlive/2015/texmf-dist/tex/generic/pgfplots/lua/pgfplotsoldpgfsupp/
luamath/functions.lua)
(/usr/local/texlive/2015/texmf-dist/tex/generic/pgfplots/lua/pgfplotsoldpgfsupp/
luamath/parser.lua)
(/usr/local/texlive/2015/texmf-dist/tex/generic/pgfplots/lua/pgfplots/plothandle
r.lua)
(/usr/local/texlive/2015/texmf-dist/tex/generic/pgfplots/lua/pgfplots/meshplotha
ndler.lua)
(/usr/local/texlive/2015/texmf-dist/tex/generic/pgfplots/lua/pgfplots/colormap.l
ua)
(/usr/local/texlive/2015/texmf-dist/tex/generic/pgfplots/lua/pgfplots/streamer.l
ua)
(/usr/local/texlive/2015/texmf-dist/tex/generic/pgfplots/lua/pgfplots/pgfplotste
xio.lua)
\pgfplots@luabackend@table=\catcodetable9
\t@pgfplots@toka=\toks36
\t@pgfplots@tokb=\toks37
\t@pgfplots@tokc=\toks38
\pgfplots@tmpa=\dimen256
\c@pgfplots@coordindex=\count283
\c@pgfplots@scanlineindex=\count284

(/usr/local/texlive/2015/texmf-dist/tex/generic/pgfplots/sys/pgfplotssysgeneric
.code.tex))
(/usr/local/texlive/2015/texmf-dist/tex/generic/pgfplots/libs/pgfplotslibrary.c
ode.tex)
(/usr/local/texlive/2015/texmf-dist/tex/generic/pgfplots/oldpgfcompatib/pgfplot
soldpgfsupp_loader.code.tex
(/usr/local/texlive/2015/texmf-dist/tex/generic/pgf/libraries/pgflibraryfpu.cod
e.tex)
Package pgfplots: loading complementary arithmetics for your pgf version...

(/usr/local/texlive/2015/texmf-dist/tex/generic/pgfplots/oldpgfcompatib/pgfplot
soldpgfsupp_pgflibraryfpu.code.tex)
(/usr/local/texlive/2015/texmf-dist/tex/generic/pgfplots/oldpgfcompatib/pgfplot
soldpgfsupp_pgfmathfloat.code.tex
\c@pgfmathroundto@lastzeros=\count285
)
(/usr/local/texlive/2015/texmf-dist/tex/generic/pgfplots/oldpgfcompatib/pgfplot
soldpgfsupp_trig_format.code.tex)
(/usr/local/texlive/2015/texmf-dist/tex/generic/pgfplots/oldpgfcompatib/pgfplot
soldpgfsupp_pgflibraryluamath.code.tex))
(/usr/local/texlive/2015/texmf-dist/tex/generic/pgfplots/util/pgfplotsutil.code
.tex
(/usr/local/texlive/2015/texmf-dist/tex/generic/pgfplots/liststructure/pgfplots
liststructure.code.tex)
(/usr/local/texlive/2015/texmf-dist/tex/generic/pgfplots/liststructure/pgfplots
liststructureext.code.tex)
(/usr/local/texlive/2015/texmf-dist/tex/generic/pgfplots/liststructure/pgfplots
array.code.tex
\c@pgfplotsarray@tmp=\count286
)
(/usr/local/texlive/2015/texmf-dist/tex/generic/pgfplots/liststructure/pgfplots
matrix.code.tex)
(/usr/local/texlive/2015/texmf-dist/tex/generic/pgfplots/numtable/pgfplotstable
shared.code.tex
\c@pgfplotstable@counta=\count287
\t@pgfplotstable@a=\toks39
)
(/usr/local/texlive/2015/texmf-dist/tex/generic/pgfplots/liststructure/pgfplots
deque.code.tex)
(/usr/local/texlive/2015/texmf-dist/tex/generic/pgfplots/util/pgfplotsbinary.co
de.tex
(/usr/local/texlive/2015/texmf-dist/tex/generic/pgfplots/util/pgfplotsbinary.da
ta.code.tex))
(/usr/local/texlive/2015/texmf-dist/tex/generic/pgfplots/util/pgfplotsutil.verb
.code.tex)
(/usr/local/texlive/2015/texmf-dist/tex/generic/pgfplots/libs/pgflibrarypgfplot
s.surfshading.code.tex
\c@pgfplotslibrarysurf@no=\count288

(/usr/local/texlive/2015/texmf-dist/tex/generic/pgfplots/sys/pgflibrarypgfplots
.surfshading.pgfsys-pdftex.def)))
(/usr/local/texlive/2015/texmf-dist/tex/generic/pgfplots/util/pgfplotscolormap.
code.tex
(/usr/local/texlive/2015/texmf-dist/tex/generic/pgfplots/util/pgfplotscolor.cod
e.tex))
(/usr/local/texlive/2015/texmf-dist/tex/generic/pgfplots/pgfplotsstackedplots.c
ode.tex)
(/usr/local/texlive/2015/texmf-dist/tex/generic/pgfplots/pgfplotsplothandlers.c
ode.tex
(/usr/local/texlive/2015/texmf-dist/tex/generic/pgfplots/pgfplotsmeshplothandle
r.code.tex))
(/usr/local/texlive/2015/texmf-dist/tex/generic/pgfplots/pgfplots.scaling.code.
tex)
(/usr/local/texlive/2015/texmf-dist/tex/generic/pgfplots/pgfplotscoordprocessin
g.code.tex)
(/usr/local/texlive/2015/texmf-dist/tex/generic/pgfplots/pgfplots.errorbars.cod
e.tex)
(/usr/local/texlive/2015/texmf-dist/tex/generic/pgfplots/pgfplots.markers.code.
tex)
(/usr/local/texlive/2015/texmf-dist/tex/generic/pgfplots/pgfplotsticks.code.tex
)
(/usr/local/texlive/2015/texmf-dist/tex/generic/pgfplots/pgfplots.paths.code.te
x)
(/usr/local/texlive/2015/texmf-dist/tex/generic/pgf/frontendlayer/tikz/librarie
s/tikzlibrarydecorations.code.tex
(/usr/local/texlive/2015/texmf-dist/tex/generic/pgf/modules/pgfmoduledecoration
s.code.tex
\pgfdecoratedcompleteddistance=\dimen257
\pgfdecoratedremainingdistance=\dimen258
\pgfdecoratedinputsegmentcompleteddistance=\dimen259
\pgfdecoratedinputsegmentremainingdistance=\dimen260
\pgf@decorate@distancetomove=\dimen261
\pgf@decorate@repeatstate=\count289
\pgfdecorationsegmentamplitude=\dimen262
\pgfdecorationsegmentlength=\dimen263
)
\tikz@lib@dec@box=\box256
)
(/usr/local/texlive/2015/texmf-dist/tex/generic/pgf/frontendlayer/tikz/librarie
s/tikzlibrarydecorations.pathmorphing.code.tex
(/usr/local/texlive/2015/texmf-dist/tex/generic/pgf/libraries/decorations/pgfli
brarydecorations.pathmorphing.code.tex))
(/usr/local/texlive/2015/texmf-dist/tex/generic/pgf/frontendlayer/tikz/librarie
s/tikzlibrarydecorations.pathreplacing.code.tex
(/usr/local/texlive/2015/texmf-dist/tex/generic/pgf/libraries/decorations/pgfli
brarydecorations.pathreplacing.code.tex))
\pgfplots@numplots=\count290
\pgfplots@xmin@reg=\dimen264
\pgfplots@xmax@reg=\dimen265
\pgfplots@ymin@reg=\dimen266
\pgfplots@ymax@reg=\dimen267
\pgfplots@zmin@reg=\dimen268
\pgfplots@zmax@reg=\dimen269
)
(/usr/local/texlive/2015/texmf-dist/tex/generic/pgf/frontendlayer/tikz/librarie
s/tikzlibraryplotmarks.code.tex
File: tikzlibraryplotmarks.code.tex 2008/01/09 v3.0.0 (rcs-revision 1.1)

(/usr/local/texlive/2015/texmf-dist/tex/generic/pgf/libraries/pgflibraryplotmar
ks.code.tex
File: pgflibraryplotmarks.code.tex 2013/07/20 v3.0.0 (rcs-revision 1.13)
)))
(/usr/local/texlive/2015/texmf-dist/tex/generic/pgfplots/numtable/pgfplotstable
.code.tex
(/usr/local/texlive/2015/texmf-dist/tex/generic/pgfplots/numtable/pgfplotstable
.coltype.code.tex))
(/usr/local/texlive/2015/texmf-dist/tex/latex/tools/array.sty
Package: array 2014/10/28 v2.4c Tabular extension package (FMi)
\col@sep=\dimen270
\extrarowheight=\dimen271
\NC@list=\toks40
\extratabsurround=\skip256
\backup@length=\skip257
))
(/usr/local/texlive/2015/texmf-dist/tex/generic/pgf/frontendlayer/tikz/librarie
s/tikzlibraryspy.code.tex
File: tikzlibraryspy.code.tex 2011/05/19 v3.0.0 (rcs-revision 1.4)
\tikz@lib@spybox=\box257
)
(/usr/local/texlive/2015/texmf-dist/tex/generic/pgf/frontendlayer/tikz/librarie
s/tikzlibrarybackgrounds.code.tex
File: tikzlibrarybackgrounds.code.tex 2013/07/18 v3.0.0 (rcs-revision 1.3)
\pgf@layerbox@background=\box43
\pgf@layerboxsaved@background=\box44
)
(/usr/local/texlive/2015/texmf-dist/tex/generic/pgfplots/libs/tikzlibrarypgfplo
ts.groupplots.code.tex
\pgfplots@group@current@plot=\count291
\pgfplots@group@current@row=\count292
\pgfplots@group@current@column=\count293

(/usr/local/texlive/2015/texmf-dist/tex/generic/pgf/frontendlayer/tikz/librarie
s/tikzlibrarycalc.code.tex
File: tikzlibrarycalc.code.tex 2013/07/15 v3.0.0 (rcs-revision 1.9)
))
(/usr/local/texlive/2015/texmf-dist/tex/generic/pgfplots/libs/tikzlibrarypgfplo
ts.groupplots.code.tex
\pgfplots@group@current@plot=\count294
\pgfplots@group@current@row=\count295
\pgfplots@group@current@column=\count296
)
(/usr/local/texlive/2015/texmf-dist/tex/generic/pgf/frontendlayer/tikz/librarie
s/tikzlibrarymatrix.code.tex
File: tikzlibrarymatrix.code.tex 2013/07/12 v3.0.0 (rcs-revision 1.4)
)
(/usr/local/texlive/2015/texmf-dist/tex/generic/pgf/frontendlayer/tikz/librarie
s/tikzlibraryarrows.code.tex
File: tikzlibraryarrows.code.tex 2008/01/09 v3.0.0 (rcs-revision 1.1)

(/usr/local/texlive/2015/texmf-dist/tex/generic/pgf/libraries/pgflibraryarrows.
code.tex
File: pgflibraryarrows.code.tex 2013/09/23 v3.0.0 (rcs-revision 1.16)
\arrowsize=\dimen272
)) (./eigenValues.aux)
\openout1 = eigenValues.aux

LaTeX Font Info:    Checking defaults for OML/cmm/m/it on input line 64.
LaTeX Font Info:    ... okay on input line 64.
LaTeX Font Info:    Checking defaults for T1/cmr/m/n on input line 64.
LaTeX Font Info:    ... okay on input line 64.
LaTeX Font Info:    Checking defaults for OT1/cmr/m/n on input line 64.
LaTeX Font Info:    ... okay on input line 64.
LaTeX Font Info:    Checking defaults for OMS/cmsy/m/n on input line 64.
LaTeX Font Info:    ... okay on input line 64.
LaTeX Font Info:    Checking defaults for OMX/cmex/m/n on input line 64.
LaTeX Font Info:    ... okay on input line 64.
LaTeX Font Info:    Checking defaults for U/cmr/m/n on input line 64.
LaTeX Font Info:    ... okay on input line 64.
\c@lstlisting=\count297

(/usr/local/texlive/2015/texmf-dist/tex/context/base/supp-pdf.mkii
[Loading MPS to PDF converter (version 2006.09.02).]
\scratchcounter=\count298
\scratchdimen=\dimen273
\scratchbox=\box258
\nofMPsegments=\count299
\nofMParguments=\count300
\everyMPshowfont=\toks41
\MPscratchCnt=\count301
\MPscratchDim=\dimen274
\MPnumerator=\count302
\makeMPintoPDFobject=\count303
\everyMPtoPDFconversion=\toks42
) ABD: EveryShipout initializing macros
(/usr/local/texlive/2015/texmf-dist/tex/generic/oberdiek/pdftexcmds.sty
Package: pdftexcmds 2011/11/29 v0.20 Utility functions of pdfTeX for LuaTeX (HO)

Package pdftexcmds Info: \pdf@primitive is available.
Package pdftexcmds Info: \pdf@ifprimitive is available.
Package pdftexcmds Info: \pdfdraftmode found.

(/usr/local/texlive/2015/texmf-dist/scripts/oberdiek/pdftexcmds.lua)
\pdftexcmds@toks=\toks43
)
(/usr/local/texlive/2015/texmf-dist/tex/latex/oberdiek/epstopdf-base.sty
Package: epstopdf-base 2010/02/09 v2.5 Base part for package epstopdf

(/usr/local/texlive/2015/texmf-dist/tex/latex/oberdiek/grfext.sty
Package: grfext 2010/08/19 v1.1 Manage graphics extensions (HO)

(/usr/local/texlive/2015/texmf-dist/tex/generic/oberdiek/kvdefinekeys.sty
Package: kvdefinekeys 2011/04/07 v1.3 Define keys (HO)
))
(/usr/local/texlive/2015/texmf-dist/tex/latex/oberdiek/kvoptions.sty
Package: kvoptions 2011/06/30 v3.11 Key value format for package options (HO)

(/usr/local/texlive/2015/texmf-dist/tex/generic/oberdiek/kvsetkeys.sty
Package: kvsetkeys 2012/04/25 v1.16 Key value parser (HO)

(/usr/local/texlive/2015/texmf-dist/tex/generic/oberdiek/etexcmds.sty
Package: etexcmds 2011/02/16 v1.5 Avoid name clashes with e-TeX commands (HO)
)))
Package grfext Info: Graphics extension search list:
(grfext)             [.png,.pdf,.jpg,.mps,.tif,.jpeg,.PNG,.PDF,.JPG,.JPEG,.eps]
(grfext)             \AppendGraphicsExtensions on input line 452.

(/usr/local/texlive/2015/texmf-dist/tex/latex/latexconfig/epstopdf-sys.cfg
File: epstopdf-sys.cfg 2010/07/13 v1.3 Configuration of (r)epstopdf for TeX Live

))
Package pgfplots notification 'compat/show suggested version=true': document has
 been generated with the most recent feature set (\pgfplotsset{compat=1.12}).

Package pgfplots info on input line 80: Using 'lua backend=false' for axis: ymod
e=log unsupported (yet).
PGFPlots: reading {ref_3.txt}
NOTE: coordinate (1,0Y0.0e0]) has been dropped because it is unbounded (in y). (
see also unbounded coords=jump). 
NOTE: coordinate (2,0Y0.0e0]) has been dropped because it is unbounded (in y). (
see also unbounded coords=jump). 
NOTE: coordinate (3,0Y0.0e0]) has been dropped because it is unbounded (in y). (
see also unbounded coords=jump). 
NOTE: coordinate (4,0Y0.0e0]) has been dropped because it is unbounded (in y). (
see also unbounded coords=jump). 
NOTE: coordinate (5,0Y0.0e0]) has been dropped because it is unbounded (in y). (
see also unbounded coords=jump). 
NOTE: coordinate (6,0Y0.0e0]) has been dropped because it is unbounded (in y). (
see also unbounded coords=jump). 
NOTE: coordinate (7,0Y0.0e0]) has been dropped because it is unbounded (in y). (
see also unbounded coords=jump). 
NOTE: coordinate (8,0Y0.0e0]) has been dropped because it is unbounded (in y). (
see also unbounded coords=jump). 
NOTE: coordinate (9,0Y0.0e0]) has been dropped because it is unbounded (in y). (
see also unbounded coords=jump). 
NOTE: coordinate (10,0Y0.0e0]) has been dropped because it is unbounded (in y). 
(see also unbounded coords=jump). 
NOTE: coordinate (11,0Y0.0e0]) has been dropped because it is unbounded (in y). 
(see also unbounded coords=jump). 
NOTE: coordinate (12,0Y0.0e0]) has been dropped because it is unbounded (in y). 
(see also unbounded coords=jump). 
NOTE: coordinate (13,0Y0.0e0]) has been dropped because it is unbounded (in y). 
(see also unbounded coords=jump). 
NOTE: coordinate (14,0Y0.0e0]) has been dropped because it is unbounded (in y). 
(see also unbounded coords=jump). 
NOTE: coordinate (15,0Y0.0e0]) has been dropped because it is unbounded (in y). 
(see also unbounded coords=jump). 
NOTE: coordinate (16,0Y0.0e0]) has been dropped because it is unbounded (in y). 
(see also unbounded coords=jump). 
NOTE: coordinate (17,0Y0.0e0]) has been dropped because it is unbounded (in y). 
(see also unbounded coords=jump). 
NOTE: coordinate (18,0Y0.0e0]) has been dropped because it is unbounded (in y). 
(see also unbounded coords=jump). 
NOTE: coordinate (19,0Y0.0e0]) has been dropped because it is unbounded (in y). 
(see also unbounded coords=jump). 
NOTE: coordinate (20,0Y0.0e0]) has been dropped because it is unbounded (in y). 
(see also unbounded coords=jump). 
NOTE: coordinate (21,0Y0.0e0]) has been dropped because it is unbounded (in y). 
(see also unbounded coords=jump). 
NOTE: coordinate (22,0Y0.0e0]) has been dropped because it is unbounded (in y). 
(see also unbounded coords=jump). 
NOTE: coordinate (23,0Y0.0e0]) has been dropped because it is unbounded (in y). 
(see also unbounded coords=jump). 
NOTE: coordinate (24,0Y0.0e0]) has been dropped because it is unbounded (in y). 
(see also unbounded coords=jump). 
NOTE: coordinate (25,0Y0.0e0]) has been dropped because it is unbounded (in y). 
(see also unbounded coords=jump). 
NOTE: coordinate (26,0Y0.0e0]) has been dropped because it is unbounded (in y). 
(see also unbounded coords=jump). 
NOTE: coordinate (27,0Y0.0e0]) has been dropped because it is unbounded (in y). 
(see also unbounded coords=jump). 
NOTE: coordinate (28,0Y0.0e0]) has been dropped because it is unbounded (in y). 
(see also unbounded coords=jump). 
NOTE: coordinate (29,0Y0.0e0]) has been dropped because it is unbounded (in y). 
(see also unbounded coords=jump). 
NOTE: coordinate (30,0Y0.0e0]) has been dropped because it is unbounded (in y). 
(see also unbounded coords=jump). 
NOTE: coordinate (31,0Y0.0e0]) has been dropped because it is unbounded (in y). 
(see also unbounded coords=jump). 
NOTE: coordinate (32,0Y0.0e0]) has been dropped because it is unbounded (in y). 
(see also unbounded coords=jump). 
NOTE: coordinate (33,0Y0.0e0]) has been dropped because it is unbounded (in y). 
(see also unbounded coords=jump). 
NOTE: coordinate (34,0Y0.0e0]) has been dropped because it is unbounded (in y). 
(see also unbounded coords=jump). 
NOTE: coordinate (35,0Y0.0e0]) has been dropped because it is unbounded (in y). 
(see also unbounded coords=jump). 
NOTE: coordinate (36,0Y0.0e0]) has been dropped because it is unbounded (in y). 
(see also unbounded coords=jump). 
NOTE: coordinate (37,0Y0.0e0]) has been dropped because it is unbounded (in y). 
(see also unbounded coords=jump). 
NOTE: coordinate (38,0Y0.0e0]) has been dropped because it is unbounded (in y). 
(see also unbounded coords=jump). 
NOTE: coordinate (39,0Y0.0e0]) has been dropped because it is unbounded (in y). 
(see also unbounded coords=jump). 
NOTE: coordinate (40,0Y0.0e0]) has been dropped because it is unbounded (in y). 
(see also unbounded coords=jump). 
NOTE: coordinate (41,0Y0.0e0]) has been dropped because it is unbounded (in y). 
(see also unbounded coords=jump). 
NOTE: coordinate (42,0Y0.0e0]) has been dropped because it is unbounded (in y). 
(see also unbounded coords=jump). 
NOTE: coordinate (43,0Y0.0e0]) has been dropped because it is unbounded (in y). 
(see also unbounded coords=jump). 
NOTE: coordinate (44,0Y0.0e0]) has been dropped because it is unbounded (in y). 
(see also unbounded coords=jump). 
NOTE: coordinate (45,0Y0.0e0]) has been dropped because it is unbounded (in y). 
(see also unbounded coords=jump). 
NOTE: coordinate (46,0Y0.0e0]) has been dropped because it is unbounded (in y). 
(see also unbounded coords=jump). 
NOTE: coordinate (47,0Y0.0e0]) has been dropped because it is unbounded (in y). 
(see also unbounded coords=jump). 
NOTE: coordinate (48,0Y0.0e0]) has been dropped because it is unbounded (in y). 
(see also unbounded coords=jump). 
NOTE: coordinate (49,0Y0.0e0]) has been dropped because it is unbounded (in y). 
(see also unbounded coords=jump). 
NOTE: coordinate (50,0Y0.0e0]) has been dropped because it is unbounded (in y). 
(see also unbounded coords=jump). 
NOTE: coordinate (51,0Y0.0e0]) has been dropped because it is unbounded (in y). 
(see also unbounded coords=jump). 
NOTE: coordinate (52,0Y0.0e0]) has been dropped because it is unbounded (in y). 
(see also unbounded coords=jump). 
NOTE: coordinate (53,0Y0.0e0]) has been dropped because it is unbounded (in y). 
(see also unbounded coords=jump). 
NOTE: coordinate (54,0Y0.0e0]) has been dropped because it is unbounded (in y). 
(see also unbounded coords=jump). 
NOTE: coordinate (55,0Y0.0e0]) has been dropped because it is unbounded (in y). 
(see also unbounded coords=jump). 
NOTE: coordinate (56,0Y0.0e0]) has been dropped because it is unbounded (in y). 
(see also unbounded coords=jump). 
NOTE: coordinate (57,0Y0.0e0]) has been dropped because it is unbounded (in y). 
(see also unbounded coords=jump). 
NOTE: coordinate (58,0Y0.0e0]) has been dropped because it is unbounded (in y). 
(see also unbounded coords=jump). 
NOTE: coordinate (59,0Y0.0e0]) has been dropped because it is unbounded (in y). 
(see also unbounded coords=jump). 
NOTE: coordinate (60,0Y0.0e0]) has been dropped because it is unbounded (in y). 
(see also unbounded coords=jump). 
NOTE: coordinate (61,0Y0.0e0]) has been dropped because it is unbounded (in y). 
(see also unbounded coords=jump). 
NOTE: coordinate (62,0Y0.0e0]) has been dropped because it is unbounded (in y). 
(see also unbounded coords=jump). 
NOTE: coordinate (63,0Y0.0e0]) has been dropped because it is unbounded (in y). 
(see also unbounded coords=jump). 
NOTE: coordinate (64,0Y0.0e0]) has been dropped because it is unbounded (in y). 
(see also unbounded coords=jump). 
NOTE: coordinate (65,0Y0.0e0]) has been dropped because it is unbounded (in y). 
(see also unbounded coords=jump). 
NOTE: coordinate (66,0Y0.0e0]) has been dropped because it is unbounded (in y). 
(see also unbounded coords=jump). 
NOTE: coordinate (67,0Y0.0e0]) has been dropped because it is unbounded (in y). 
(see also unbounded coords=jump). 
NOTE: coordinate (68,0Y0.0e0]) has been dropped because it is unbounded (in y). 
(see also unbounded coords=jump). 
NOTE: coordinate (69,0Y0.0e0]) has been dropped because it is unbounded (in y). 
(see also unbounded coords=jump). 
NOTE: coordinate (70,0Y0.0e0]) has been dropped because it is unbounded (in y). 
(see also unbounded coords=jump). 
NOTE: coordinate (71,0Y0.0e0]) has been dropped because it is unbounded (in y). 
(see also unbounded coords=jump). 
NOTE: coordinate (72,0Y0.0e0]) has been dropped because it is unbounded (in y). 
(see also unbounded coords=jump). 
NOTE: coordinate (73,0Y0.0e0]) has been dropped because it is unbounded (in y). 
(see also unbounded coords=jump). 
NOTE: coordinate (74,0Y0.0e0]) has been dropped because it is unbounded (in y). 
(see also unbounded coords=jump). 
NOTE: coordinate (75,0Y0.0e0]) has been dropped because it is unbounded (in y). 
(see also unbounded coords=jump). 
NOTE: coordinate (76,0Y0.0e0]) has been dropped because it is unbounded (in y). 
(see also unbounded coords=jump). 
NOTE: coordinate (77,0Y0.0e0]) has been dropped because it is unbounded (in y). 
(see also unbounded coords=jump). 
NOTE: coordinate (78,0Y0.0e0]) has been dropped because it is unbounded (in y). 
(see also unbounded coords=jump). 
NOTE: coordinate (79,0Y0.0e0]) has been dropped because it is unbounded (in y). 
(see also unbounded coords=jump). 
NOTE: coordinate (80,0Y0.0e0]) has been dropped because it is unbounded (in y). 
(see also unbounded coords=jump). 
NOTE: coordinate (81,0Y0.0e0]) has been dropped because it is unbounded (in y). 
(see also unbounded coords=jump). 
NOTE: coordinate (82,0Y0.0e0]) has been dropped because it is unbounded (in y). 
(see also unbounded coords=jump). 
NOTE: coordinate (83,0Y0.0e0]) has been dropped because it is unbounded (in y). 
(see also unbounded coords=jump). 
NOTE: coordinate (84,0Y0.0e0]) has been dropped because it is unbounded (in y). 
(see also unbounded coords=jump). 
NOTE: coordinate (85,0Y0.0e0]) has been dropped because it is unbounded (in y). 
(see also unbounded coords=jump). 
NOTE: coordinate (86,0Y0.0e0]) has been dropped because it is unbounded (in y). 
(see also unbounded coords=jump). 
NOTE: coordinate (87,0Y0.0e0]) has been dropped because it is unbounded (in y). 
(see also unbounded coords=jump). 
NOTE: coordinate (88,0Y0.0e0]) has been dropped because it is unbounded (in y). 
(see also unbounded coords=jump). 
NOTE: coordinate (89,0Y0.0e0]) has been dropped because it is unbounded (in y). 
(see also unbounded coords=jump). 
NOTE: coordinate (90,0Y0.0e0]) has been dropped because it is unbounded (in y). 
(see also unbounded coords=jump). 
NOTE: coordinate (91,0Y0.0e0]) has been dropped because it is unbounded (in y). 
(see also unbounded coords=jump). 
NOTE: coordinate (92,0Y0.0e0]) has been dropped because it is unbounded (in y). 
(see also unbounded coords=jump). 
NOTE: coordinate (93,0Y0.0e0]) has been dropped because it is unbounded (in y). 
(see also unbounded coords=jump). 
NOTE: coordinate (94,0Y0.0e0]) has been dropped because it is unbounded (in y). 
(see also unbounded coords=jump). 
NOTE: coordinate (95,0Y0.0e0]) has been dropped because it is unbounded (in y). 
(see also unbounded coords=jump). 
NOTE: coordinate (96,0Y0.0e0]) has been dropped because it is unbounded (in y). 
(see also unbounded coords=jump). 
NOTE: coordinate (97,0Y0.0e0]) has been dropped because it is unbounded (in y). 
(see also unbounded coords=jump). 
NOTE: coordinate (98,0Y0.0e0]) has been dropped because it is unbounded (in y). 
(see also unbounded coords=jump). 
NOTE: coordinate (99,0Y0.0e0]) has been dropped because it is unbounded (in y). 
(see also unbounded coords=jump). 
NOTE: coordinate (100,0Y0.0e0]) has been dropped because it is unbounded (in y).
 (see also unbounded coords=jump). 
NOTE: coordinate (101,0Y0.0e0]) has been dropped because it is unbounded (in y).
 (see also unbounded coords=jump). 
NOTE: coordinate (102,0Y0.0e0]) has been dropped because it is unbounded (in y).
 (see also unbounded coords=jump). 
NOTE: coordinate (103,0Y0.0e0]) has been dropped because it is unbounded (in y).
 (see also unbounded coords=jump). 
NOTE: coordinate (104,0Y0.0e0]) has been dropped because it is unbounded (in y).
 (see also unbounded coords=jump). 
NOTE: coordinate (105,0Y0.0e0]) has been dropped because it is unbounded (in y).
 (see also unbounded coords=jump). 
NOTE: coordinate (106,0Y0.0e0]) has been dropped because it is unbounded (in y).
 (see also unbounded coords=jump). 
NOTE: coordinate (107,0Y0.0e0]) has been dropped because it is unbounded (in y).
 (see also unbounded coords=jump). 
NOTE: coordinate (108,0Y0.0e0]) has been dropped because it is unbounded (in y).
 (see also unbounded coords=jump). 
NOTE: coordinate (109,0Y0.0e0]) has been dropped because it is unbounded (in y).
 (see also unbounded coords=jump). 
NOTE: coordinate (110,0Y0.0e0]) has been dropped because it is unbounded (in y).
 (see also unbounded coords=jump). 
NOTE: coordinate (111,0Y0.0e0]) has been dropped because it is unbounded (in y).
 (see also unbounded coords=jump). 
NOTE: coordinate (112,0Y0.0e0]) has been dropped because it is unbounded (in y).
 (see also unbounded coords=jump). 
NOTE: coordinate (113,0Y0.0e0]) has been dropped because it is unbounded (in y).
 (see also unbounded coords=jump). 
NOTE: coordinate (114,0Y0.0e0]) has been dropped because it is unbounded (in y).
 (see also unbounded coords=jump). 
NOTE: coordinate (115,0Y0.0e0]) has been dropped because it is unbounded (in y).
 (see also unbounded coords=jump). 
NOTE: coordinate (116,0Y0.0e0]) has been dropped because it is unbounded (in y).
 (see also unbounded coords=jump). 
NOTE: coordinate (117,0Y0.0e0]) has been dropped because it is unbounded (in y).
 (see also unbounded coords=jump). 
NOTE: coordinate (118,0Y0.0e0]) has been dropped because it is unbounded (in y).
 (see also unbounded coords=jump). 
NOTE: coordinate (119,0Y0.0e0]) has been dropped because it is unbounded (in y).
 (see also unbounded coords=jump). 
NOTE: coordinate (120,0Y0.0e0]) has been dropped because it is unbounded (in y).
 (see also unbounded coords=jump). 
NOTE: coordinate (121,0Y0.0e0]) has been dropped because it is unbounded (in y).
 (see also unbounded coords=jump). 
NOTE: coordinate (122,0Y0.0e0]) has been dropped because it is unbounded (in y).
 (see also unbounded coords=jump). 
NOTE: coordinate (123,0Y0.0e0]) has been dropped because it is unbounded (in y).
 (see also unbounded coords=jump). 
NOTE: coordinate (124,0Y0.0e0]) has been dropped because it is unbounded (in y).
 (see also unbounded coords=jump). 
NOTE: coordinate (125,0Y0.0e0]) has been dropped because it is unbounded (in y).
 (see also unbounded coords=jump). 
NOTE: coordinate (126,0Y0.0e0]) has been dropped because it is unbounded (in y).
 (see also unbounded coords=jump). 
NOTE: coordinate (127,0Y0.0e0]) has been dropped because it is unbounded (in y).
 (see also unbounded coords=jump). 
NOTE: coordinate (128,0Y0.0e0]) has been dropped because it is unbounded (in y).
 (see also unbounded coords=jump). 
NOTE: coordinate (129,0Y0.0e0]) has been dropped because it is unbounded (in y).
 (see also unbounded coords=jump). 
NOTE: coordinate (130,0Y0.0e0]) has been dropped because it is unbounded (in y).
 (see also unbounded coords=jump). 
NOTE: coordinate (131,0Y0.0e0]) has been dropped because it is unbounded (in y).
 (see also unbounded coords=jump). 
NOTE: coordinate (132,0Y0.0e0]) has been dropped because it is unbounded (in y).
 (see also unbounded coords=jump). 
NOTE: coordinate (133,0Y0.0e0]) has been dropped because it is unbounded (in y).
 (see also unbounded coords=jump). 
NOTE: coordinate (134,0Y0.0e0]) has been dropped because it is unbounded (in y).
 (see also unbounded coords=jump). 
NOTE: coordinate (135,0Y0.0e0]) has been dropped because it is unbounded (in y).
 (see also unbounded coords=jump). 
NOTE: coordinate (136,0Y0.0e0]) has been dropped because it is unbounded (in y).
 (see also unbounded coords=jump). 
NOTE: coordinate (137,0Y0.0e0]) has been dropped because it is unbounded (in y).
 (see also unbounded coords=jump). 
NOTE: coordinate (138,0Y0.0e0]) has been dropped because it is unbounded (in y).
 (see also unbounded coords=jump). 
NOTE: coordinate (139,0Y0.0e0]) has been dropped because it is unbounded (in y).
 (see also unbounded coords=jump). 
NOTE: coordinate (140,0Y0.0e0]) has been dropped because it is unbounded (in y).
 (see also unbounded coords=jump). 
NOTE: coordinate (141,0Y0.0e0]) has been dropped because it is unbounded (in y).
 (see also unbounded coords=jump). 
NOTE: coordinate (142,0Y0.0e0]) has been dropped because it is unbounded (in y).
 (see also unbounded coords=jump). 
NOTE: coordinate (143,0Y0.0e0]) has been dropped because it is unbounded (in y).
 (see also unbounded coords=jump). 
NOTE: coordinate (144,0Y0.0e0]) has been dropped because it is unbounded (in y).
 (see also unbounded coords=jump). 
NOTE: coordinate (145,0Y0.0e0]) has been dropped because it is unbounded (in y).
 (see also unbounded coords=jump). 
NOTE: coordinate (146,0Y0.0e0]) has been dropped because it is unbounded (in y).
 (see also unbounded coords=jump). 
NOTE: coordinate (147,0Y0.0e0]) has been dropped because it is unbounded (in y).
 (see also unbounded coords=jump). 
NOTE: coordinate (148,0Y0.0e0]) has been dropped because it is unbounded (in y).
 (see also unbounded coords=jump). 
NOTE: coordinate (149,0Y0.0e0]) has been dropped because it is unbounded (in y).
 (see also unbounded coords=jump). 
NOTE: coordinate (150,0Y0.0e0]) has been dropped because it is unbounded (in y).
 (see also unbounded coords=jump). 
NOTE: coordinate (151,0Y0.0e0]) has been dropped because it is unbounded (in y).
 (see also unbounded coords=jump). 
NOTE: coordinate (152,0Y0.0e0]) has been dropped because it is unbounded (in y).
 (see also unbounded coords=jump). 
NOTE: coordinate (153,0Y0.0e0]) has been dropped because it is unbounded (in y).
 (see also unbounded coords=jump). 
NOTE: coordinate (154,0Y0.0e0]) has been dropped because it is unbounded (in y).
 (see also unbounded coords=jump). 
NOTE: coordinate (155,0Y0.0e0]) has been dropped because it is unbounded (in y).
 (see also unbounded coords=jump). 
NOTE: coordinate (156,0Y0.0e0]) has been dropped because it is unbounded (in y).
 (see also unbounded coords=jump). 
NOTE: coordinate (157,0Y0.0e0]) has been dropped because it is unbounded (in y).
 (see also unbounded coords=jump). 
NOTE: coordinate (158,0Y0.0e0]) has been dropped because it is unbounded (in y).
 (see also unbounded coords=jump). 
NOTE: coordinate (159,0Y0.0e0]) has been dropped because it is unbounded (in y).
 (see also unbounded coords=jump). 
NOTE: coordinate (160,0Y0.0e0]) has been dropped because it is unbounded (in y).
 (see also unbounded coords=jump). 
NOTE: coordinate (161,0Y0.0e0]) has been dropped because it is unbounded (in y).
 (see also unbounded coords=jump). 
NOTE: coordinate (162,0Y0.0e0]) has been dropped because it is unbounded (in y).
 (see also unbounded coords=jump). 
NOTE: coordinate (163,0Y0.0e0]) has been dropped because it is unbounded (in y).
 (see also unbounded coords=jump). 
NOTE: coordinate (164,0Y0.0e0]) has been dropped because it is unbounded (in y).
 (see also unbounded coords=jump). 
NOTE: coordinate (165,0Y0.0e0]) has been dropped because it is unbounded (in y).
 (see also unbounded coords=jump). 
NOTE: coordinate (166,0Y0.0e0]) has been dropped because it is unbounded (in y).
 (see also unbounded coords=jump). 
NOTE: coordinate (167,0Y0.0e0]) has been dropped because it is unbounded (in y).
 (see also unbounded coords=jump). 
NOTE: coordinate (168,0Y0.0e0]) has been dropped because it is unbounded (in y).
 (see also unbounded coords=jump). 
NOTE: coordinate (169,0Y0.0e0]) has been dropped because it is unbounded (in y).
 (see also unbounded coords=jump). 
NOTE: coordinate (170,0Y0.0e0]) has been dropped because it is unbounded (in y).
 (see also unbounded coords=jump). 
NOTE: coordinate (171,0Y0.0e0]) has been dropped because it is unbounded (in y).
 (see also unbounded coords=jump). 
NOTE: coordinate (172,0Y0.0e0]) has been dropped because it is unbounded (in y).
 (see also unbounded coords=jump). 
NOTE: coordinate (173,0Y0.0e0]) has been dropped because it is unbounded (in y).
 (see also unbounded coords=jump). 
NOTE: coordinate (174,0Y0.0e0]) has been dropped because it is unbounded (in y).
 (see also unbounded coords=jump). 
NOTE: coordinate (175,0Y0.0e0]) has been dropped because it is unbounded (in y).
 (see also unbounded coords=jump). 
NOTE: coordinate (176,0Y0.0e0]) has been dropped because it is unbounded (in y).
 (see also unbounded coords=jump). 
NOTE: coordinate (177,0Y0.0e0]) has been dropped because it is unbounded (in y).
 (see also unbounded coords=jump). 
NOTE: coordinate (178,0Y0.0e0]) has been dropped because it is unbounded (in y).
 (see also unbounded coords=jump). 
NOTE: coordinate (179,0Y0.0e0]) has been dropped because it is unbounded (in y).
 (see also unbounded coords=jump). 
NOTE: coordinate (180,0Y0.0e0]) has been dropped because it is unbounded (in y).
 (see also unbounded coords=jump). 
NOTE: coordinate (181,0Y0.0e0]) has been dropped because it is unbounded (in y).
 (see also unbounded coords=jump). 
NOTE: coordinate (182,0Y0.0e0]) has been dropped because it is unbounded (in y).
 (see also unbounded coords=jump). 
NOTE: coordinate (183,0Y0.0e0]) has been dropped because it is unbounded (in y).
 (see also unbounded coords=jump). 
NOTE: coordinate (184,0Y0.0e0]) has been dropped because it is unbounded (in y).
 (see also unbounded coords=jump). 
NOTE: coordinate (185,0Y0.0e0]) has been dropped because it is unbounded (in y).
 (see also unbounded coords=jump). 
NOTE: coordinate (186,0Y0.0e0]) has been dropped because it is unbounded (in y).
 (see also unbounded coords=jump). 
NOTE: coordinate (187,0Y0.0e0]) has been dropped because it is unbounded (in y).
 (see also unbounded coords=jump). 
NOTE: coordinate (188,0Y0.0e0]) has been dropped because it is unbounded (in y).
 (see also unbounded coords=jump). 
NOTE: coordinate (189,0Y0.0e0]) has been dropped because it is unbounded (in y).
 (see also unbounded coords=jump). 
NOTE: coordinate (190,0Y0.0e0]) has been dropped because it is unbounded (in y).
 (see also unbounded coords=jump). 
NOTE: coordinate (191,0Y0.0e0]) has been dropped because it is unbounded (in y).
 (see also unbounded coords=jump). 
NOTE: coordinate (192,0Y0.0e0]) has been dropped because it is unbounded (in y).
 (see also unbounded coords=jump). 
NOTE: coordinate (193,0Y0.0e0]) has been dropped because it is unbounded (in y).
 (see also unbounded coords=jump). 
NOTE: coordinate (194,0Y0.0e0]) has been dropped because it is unbounded (in y).
 (see also unbounded coords=jump). 
NOTE: coordinate (195,0Y0.0e0]) has been dropped because it is unbounded (in y).
 (see also unbounded coords=jump). 
NOTE: coordinate (196,0Y0.0e0]) has been dropped because it is unbounded (in y).
 (see also unbounded coords=jump). 
NOTE: coordinate (197,0Y0.0e0]) has been dropped because it is unbounded (in y).
 (see also unbounded coords=jump). 
NOTE: coordinate (198,0Y0.0e0]) has been dropped because it is unbounded (in y).
 (see also unbounded coords=jump). 
NOTE: coordinate (199,0Y0.0e0]) has been dropped because it is unbounded (in y).
 (see also unbounded coords=jump). 
NOTE: coordinate (200,0Y0.0e0]) has been dropped because it is unbounded (in y).
 (see also unbounded coords=jump). 
NOTE: coordinate (201,0Y0.0e0]) has been dropped because it is unbounded (in y).
 (see also unbounded coords=jump). 
NOTE: coordinate (202,0Y0.0e0]) has been dropped because it is unbounded (in y).
 (see also unbounded coords=jump). 
NOTE: coordinate (203,0Y0.0e0]) has been dropped because it is unbounded (in y).
 (see also unbounded coords=jump). 
NOTE: coordinate (204,0Y0.0e0]) has been dropped because it is unbounded (in y).
 (see also unbounded coords=jump). 
PGFPlots: reading {ref_2.txt}
NOTE: coordinate (1,0Y0.0e0]) has been dropped because it is unbounded (in y). (
see also unbounded coords=jump). 
NOTE: coordinate (2,0Y0.0e0]) has been dropped because it is unbounded (in y). (
see also unbounded coords=jump). 
NOTE: coordinate (3,0Y0.0e0]) has been dropped because it is unbounded (in y). (
see also unbounded coords=jump). 
NOTE: coordinate (4,0Y0.0e0]) has been dropped because it is unbounded (in y). (
see also unbounded coords=jump). 
NOTE: coordinate (5,0Y0.0e0]) has been dropped because it is unbounded (in y). (
see also unbounded coords=jump). 
NOTE: coordinate (6,0Y0.0e0]) has been dropped because it is unbounded (in y). (
see also unbounded coords=jump). 
NOTE: coordinate (7,0Y0.0e0]) has been dropped because it is unbounded (in y). (
see also unbounded coords=jump). 
NOTE: coordinate (8,0Y0.0e0]) has been dropped because it is unbounded (in y). (
see also unbounded coords=jump). 
NOTE: coordinate (9,0Y0.0e0]) has been dropped because it is unbounded (in y). (
see also unbounded coords=jump). 
NOTE: coordinate (10,0Y0.0e0]) has been dropped because it is unbounded (in y). 
(see also unbounded coords=jump). 
NOTE: coordinate (11,0Y0.0e0]) has been dropped because it is unbounded (in y). 
(see also unbounded coords=jump). 
NOTE: coordinate (12,0Y0.0e0]) has been dropped because it is unbounded (in y). 
(see also unbounded coords=jump). 
NOTE: coordinate (13,0Y0.0e0]) has been dropped because it is unbounded (in y). 
(see also unbounded coords=jump). 
NOTE: coordinate (14,0Y0.0e0]) has been dropped because it is unbounded (in y). 
(see also unbounded coords=jump). 
NOTE: coordinate (15,0Y0.0e0]) has been dropped because it is unbounded (in y). 
(see also unbounded coords=jump). 
NOTE: coordinate (16,0Y0.0e0]) has been dropped because it is unbounded (in y). 
(see also unbounded coords=jump). 
NOTE: coordinate (17,0Y0.0e0]) has been dropped because it is unbounded (in y). 
(see also unbounded coords=jump). 
NOTE: coordinate (18,0Y0.0e0]) has been dropped because it is unbounded (in y). 
(see also unbounded coords=jump). 
NOTE: coordinate (19,0Y0.0e0]) has been dropped because it is unbounded (in y). 
(see also unbounded coords=jump). 
NOTE: coordinate (20,0Y0.0e0]) has been dropped because it is unbounded (in y). 
(see also unbounded coords=jump). 
NOTE: coordinate (21,0Y0.0e0]) has been dropped because it is unbounded (in y). 
(see also unbounded coords=jump). 
NOTE: coordinate (22,0Y0.0e0]) has been dropped because it is unbounded (in y). 
(see also unbounded coords=jump). 
NOTE: coordinate (23,0Y0.0e0]) has been dropped because it is unbounded (in y). 
(see also unbounded coords=jump). 
NOTE: coordinate (24,0Y0.0e0]) has been dropped because it is unbounded (in y). 
(see also unbounded coords=jump). 
NOTE: coordinate (25,0Y0.0e0]) has been dropped because it is unbounded (in y). 
(see also unbounded coords=jump). 
NOTE: coordinate (26,0Y0.0e0]) has been dropped because it is unbounded (in y). 
(see also unbounded coords=jump). 
NOTE: coordinate (27,0Y0.0e0]) has been dropped because it is unbounded (in y). 
(see also unbounded coords=jump). 
NOTE: coordinate (28,0Y0.0e0]) has been dropped because it is unbounded (in y). 
(see also unbounded coords=jump). 
NOTE: coordinate (29,0Y0.0e0]) has been dropped because it is unbounded (in y). 
(see also unbounded coords=jump). 
NOTE: coordinate (30,0Y0.0e0]) has been dropped because it is unbounded (in y). 
(see also unbounded coords=jump). 
NOTE: coordinate (31,0Y0.0e0]) has been dropped because it is unbounded (in y). 
(see also unbounded coords=jump). 
NOTE: coordinate (32,0Y0.0e0]) has been dropped because it is unbounded (in y). 
(see also unbounded coords=jump). 
NOTE: coordinate (33,0Y0.0e0]) has been dropped because it is unbounded (in y). 
(see also unbounded coords=jump). 
NOTE: coordinate (34,0Y0.0e0]) has been dropped because it is unbounded (in y). 
(see also unbounded coords=jump). 
NOTE: coordinate (35,0Y0.0e0]) has been dropped because it is unbounded (in y). 
(see also unbounded coords=jump). 
NOTE: coordinate (36,0Y0.0e0]) has been dropped because it is unbounded (in y). 
(see also unbounded coords=jump). 
NOTE: coordinate (37,0Y0.0e0]) has been dropped because it is unbounded (in y). 
(see also unbounded coords=jump). 
NOTE: coordinate (38,0Y0.0e0]) has been dropped because it is unbounded (in y). 
(see also unbounded coords=jump). 
NOTE: coordinate (39,0Y0.0e0]) has been dropped because it is unbounded (in y). 
(see also unbounded coords=jump). 
NOTE: coordinate (40,0Y0.0e0]) has been dropped because it is unbounded (in y). 
(see also unbounded coords=jump). 
NOTE: coordinate (41,0Y0.0e0]) has been dropped because it is unbounded (in y). 
(see also unbounded coords=jump). 
NOTE: coordinate (42,0Y0.0e0]) has been dropped because it is unbounded (in y). 
(see also unbounded coords=jump). 
NOTE: coordinate (43,0Y0.0e0]) has been dropped because it is unbounded (in y). 
(see also unbounded coords=jump). 
NOTE: coordinate (44,0Y0.0e0]) has been dropped because it is unbounded (in y). 
(see also unbounded coords=jump). 
NOTE: coordinate (45,0Y0.0e0]) has been dropped because it is unbounded (in y). 
(see also unbounded coords=jump). 
NOTE: coordinate (46,0Y0.0e0]) has been dropped because it is unbounded (in y). 
(see also unbounded coords=jump). 
NOTE: coordinate (47,0Y0.0e0]) has been dropped because it is unbounded (in y). 
(see also unbounded coords=jump). 
NOTE: coordinate (48,0Y0.0e0]) has been dropped because it is unbounded (in y). 
(see also unbounded coords=jump). 
NOTE: coordinate (49,0Y0.0e0]) has been dropped because it is unbounded (in y). 
(see also unbounded coords=jump). 
NOTE: coordinate (50,0Y0.0e0]) has been dropped because it is unbounded (in y). 
(see also unbounded coords=jump). 
NOTE: coordinate (51,0Y0.0e0]) has been dropped because it is unbounded (in y). 
(see also unbounded coords=jump). 
NOTE: coordinate (52,0Y0.0e0]) has been dropped because it is unbounded (in y). 
(see also unbounded coords=jump). 
NOTE: coordinate (53,0Y0.0e0]) has been dropped because it is unbounded (in y). 
(see also unbounded coords=jump). 
NOTE: coordinate (54,0Y0.0e0]) has been dropped because it is unbounded (in y). 
(see also unbounded coords=jump). 
NOTE: coordinate (55,0Y0.0e0]) has been dropped because it is unbounded (in y). 
(see also unbounded coords=jump). 
NOTE: coordinate (56,0Y0.0e0]) has been dropped because it is unbounded (in y). 
(see also unbounded coords=jump). 
NOTE: coordinate (57,0Y0.0e0]) has been dropped because it is unbounded (in y). 
(see also unbounded coords=jump). 
NOTE: coordinate (58,0Y0.0e0]) has been dropped because it is unbounded (in y). 
(see also unbounded coords=jump). 
NOTE: coordinate (59,0Y0.0e0]) has been dropped because it is unbounded (in y). 
(see also unbounded coords=jump). 
NOTE: coordinate (60,0Y0.0e0]) has been dropped because it is unbounded (in y). 
(see also unbounded coords=jump). 
NOTE: coordinate (61,0Y0.0e0]) has been dropped because it is unbounded (in y). 
(see also unbounded coords=jump). 
PGFPlots: reading {ref_1.txt}
NOTE: coordinate (1,0Y0.0e0]) has been dropped because it is unbounded (in y). (
see also unbounded coords=jump). 
NOTE: coordinate (2,0Y0.0e0]) has been dropped because it is unbounded (in y). (
see also unbounded coords=jump). 
NOTE: coordinate (3,0Y0.0e0]) has been dropped because it is unbounded (in y). (
see also unbounded coords=jump). 
NOTE: coordinate (4,0Y0.0e0]) has been dropped because it is unbounded (in y). (
see also unbounded coords=jump). 
NOTE: coordinate (5,0Y0.0e0]) has been dropped because it is unbounded (in y). (
see also unbounded coords=jump). 
NOTE: coordinate (6,0Y0.0e0]) has been dropped because it is unbounded (in y). (
see also unbounded coords=jump). 
NOTE: coordinate (7,0Y0.0e0]) has been dropped because it is unbounded (in y). (
see also unbounded coords=jump). 
NOTE: coordinate (8,0Y0.0e0]) has been dropped because it is unbounded (in y). (
see also unbounded coords=jump). 
NOTE: coordinate (9,0Y0.0e0]) has been dropped because it is unbounded (in y). (
see also unbounded coords=jump). 
NOTE: coordinate (10,0Y0.0e0]) has been dropped because it is unbounded (in y). 
(see also unbounded coords=jump). 
NOTE: coordinate (11,0Y0.0e0]) has been dropped because it is unbounded (in y). 
(see also unbounded coords=jump). 
NOTE: coordinate (12,0Y0.0e0]) has been dropped because it is unbounded (in y). 
(see also unbounded coords=jump). 
NOTE: coordinate (13,0Y0.0e0]) has been dropped because it is unbounded (in y). 
(see also unbounded coords=jump). 
NOTE: coordinate (14,0Y0.0e0]) has been dropped because it is unbounded (in y). 
(see also unbounded coords=jump). 
PGFPlots: reading {ref_0.txt}
NOTE: coordinate (1,0Y0.0e0]) has been dropped because it is unbounded (in y). (
see also unbounded coords=jump). 
LaTeX Font Info:    Try loading font information for U+msa on input line 90.
(/usr/local/texlive/2015/texmf-dist/tex/latex/amsfonts/umsa.fd
File: umsa.fd 2013/01/14 v3.01 AMS symbols A
)
LaTeX Font Info:    Try loading font information for U+msb on input line 90.

(/usr/local/texlive/2015/texmf-dist/tex/latex/amsfonts/umsb.fd
File: umsb.fd 2013/01/14 v3.01 AMS symbols B
)
LaTeX Font Info:    Try loading font information for U+lasy on input line 90.

(/usr/local/texlive/2015/texmf-dist/tex/latex/base/ulasy.fd
File: ulasy.fd 1998/08/17 v2.2e LaTeX symbol font definitions
)
LaTeX Font Info:    Font shape `U/lasy/b/n' in size <7> not available
(Font)              Font shape `U/lasy/m/n' tried instead on input line 90.
LaTeX Font Info:    Font shape `U/lasy/b/n' in size <5> not available
(Font)              Font shape `U/lasy/m/n' tried instead on input line 90.
LaTeX Font Info:    Try loading font information for U+rsfs on input line 90.

(/usr/local/texlive/2015/texmf-dist/tex/latex/jknapltx/ursfs.fd
File: ursfs.fd 1998/03/24 rsfs font definition file (jk)
) [1

{/usr/local/texlive/2015/texmf-var/fonts/map/pdftex/updmap/pdftex.map}] (./eige
nValues.aux))

Here is how much of LuaTeX's memory you used:
 25987 strings out of 494693
 100000,953878 words of node,token memory allocated
 12201 words of node memory still in use:
   144 hlist, 3 vlist, 2 rule, 2 disc, 16 math, 280 glue, 3 kern, 61 glyph, 96 g
lue_spec, 1 write, 2934 pdf_literal, 8 pdf_colorstack nodes
   avail lists: 2:44,3:2936,4:326,5:2,6:69,7:1,9:148,10:2
 28632 multiletter control sequences out of 65536+600000
 53 fonts using 2093875 bytes
 69i,18n,84p,739b,2170s stack positions out of 5000i,500n,10000p,200000b,100000s
<</usr/local/texlive/2015/texmf-dist/fonts/type1/public/amsfonts/cm/cmr10.pfb><<
/usr/local/texlive/2015/texmf-dist/fonts/type1/public/amsfonts/cm/cmr12.pfb><</u
sr/local/texlive/2015/texmf-dist/fonts/type1/public/amsfonts/cm/cmr7.pfb><</usr/
local/texlive/2015/texmf-dist/fonts/type1/public/amsfonts/cm/cmsy7.pfb>
Output written on eigenValues.pdf (1 page, 58772 bytes).

PDF statistics: 27 PDF objects out of 1000 (max. 8388607)
 19 compressed objects within 1 object stream
 0 named destinations out of 1000 (max. 131072)
 16 words of extra memory for PDF output out of 10000 (max. 10000000)

