1 0
2 5.860320e-10
3 1.913497e-09
4 1.913497e-09
5 4.281844e-09
6 5.597218e-08
7 5.597219e-08
8 1.373584e-07
9 8.492690e-07
10 1.050692e-06
11 1.050692e-06
12 1.306073e-06
13 2.403687e-01
14 2.661280e-01
15 2.661280e-01
16 2.687879e-01
17 2.946500e-01
18 3.374623e-01
19 3.374623e-01
20 4.138395e-01
21 6.322796e-01
22 6.373871e-01
23 6.447362e-01
24 6.447362e-01
25 7.192516e-01
26 7.249004e-01
27 7.249004e-01
28 7.319496e-01
