<?xml version="1.0"?>
<VTKFile type="UnstructuredGrid" byte_order="LittleEndian">
	<UnstructuredGrid>
		<Piece NumberOfPoints="256" NumberOfCells="64">
			<Points>
				<DataArray type="Float64" NumberOfComponents="3" format="ascii">
					1.000000000000000e+00 -1.000000000000000e+00 0.000000000000000e+00
					1.218750000000000e+00 -7.500000000000000e-01 0.000000000000000e+00
					9.135224194504830e-01 -9.135224194504830e-01 0.000000000000000e+00
					1.081050739762983e+00 -6.851418145878623e-01 0.000000000000000e+00
					1.218750000000000e+00 -7.500000000000000e-01 0.000000000000000e+00
					1.375000000000000e+00 -5.000000000000000e-01 0.000000000000000e+00
					1.081050739762983e+00 -6.851418145878623e-01 0.000000000000000e+00
					1.200713825700483e+00 -4.567612097252415e-01 0.000000000000000e+00
					1.375000000000000e+00 -5.000000000000000e-01 0.000000000000000e+00
					1.468750000000000e+00 -2.499999999999999e-01 0.000000000000000e+00
					1.200713825700483e+00 -4.567612097252415e-01 0.000000000000000e+00
					1.272511677262983e+00 -2.283806048626207e-01 0.000000000000000e+00
					1.468750000000000e+00 -2.499999999999999e-01 0.000000000000000e+00
					1.500000000000000e+00 6.938893903907228e-17 0.000000000000000e+00
					1.272511677262983e+00 -2.283806048626207e-01 0.000000000000000e+00
					1.296444294450483e+00 6.581107186987012e-17 0.000000000000000e+00
					1.500000000000000e+00 6.938893903907228e-17 0.000000000000000e+00
					1.468750000000000e+00 2.500000000000001e-01 0.000000000000000e+00
					1.296444294450483e+00 6.581107186987012e-17 0.000000000000000e+00
					1.272511677262983e+00 2.283806048626209e-01 0.000000000000000e+00
					1.468750000000000e+00 2.500000000000001e-01 0.000000000000000e+00
					1.375000000000000e+00 5.000000000000001e-01 0.000000000000000e+00
					1.272511677262983e+00 2.283806048626209e-01 0.000000000000000e+00
					1.200713825700483e+00 4.567612097252416e-01 0.000000000000000e+00
					1.375000000000000e+00 5.000000000000001e-01 0.000000000000000e+00
					1.218750000000000e+00 7.500000000000000e-01 0.000000000000000e+00
					1.200713825700483e+00 4.567612097252416e-01 0.000000000000000e+00
					1.081050739762983e+00 6.851418145878623e-01 0.000000000000000e+00
					1.218750000000000e+00 7.500000000000000e-01 0.000000000000000e+00
					1.000000000000000e+00 1.000000000000000e+00 0.000000000000000e+00
					1.081050739762983e+00 6.851418145878623e-01 0.000000000000000e+00
					9.135224194504830e-01 9.135224194504830e-01 0.000000000000000e+00
					9.135224194504830e-01 -9.135224194504830e-01 0.000000000000000e+00
					1.081050739762983e+00 -6.851418145878623e-01 0.000000000000000e+00
					8.338955762008280e-01 -8.338955762008280e-01 0.000000000000000e+00
					9.570244824508282e-01 -6.254216821506211e-01 0.000000000000000e+00
					1.081050739762983e+00 -6.851418145878623e-01 0.000000000000000e+00
					1.200713825700483e+00 -4.567612097252415e-01 0.000000000000000e+00
					9.570244824508282e-01 -6.254216821506211e-01 0.000000000000000e+00
					1.044973701200828e+00 -4.169477881004140e-01 0.000000000000000e+00
					1.200713825700483e+00 -4.567612097252415e-01 0.000000000000000e+00
					1.272511677262983e+00 -2.283806048626207e-01 0.000000000000000e+00
					1.044973701200828e+00 -4.169477881004140e-01 0.000000000000000e+00
					1.097743232450828e+00 -2.084738940502070e-01 0.000000000000000e+00
					1.272511677262983e+00 -2.283806048626207e-01 0.000000000000000e+00
					1.296444294450483e+00 6.581107186987012e-17 0.000000000000000e+00
					1.097743232450828e+00 -2.084738940502070e-01 0.000000000000000e+00
					1.115333076200828e+00 6.201636426617085e-17 0.000000000000000e+00
					1.296444294450483e+00 6.581107186987012e-17 0.000000000000000e+00
					1.272511677262983e+00 2.283806048626209e-01 0.000000000000000e+00
					1.115333076200828e+00 6.201636426617085e-17 0.000000000000000e+00
					1.097743232450828e+00 2.084738940502071e-01 0.000000000000000e+00
					1.272511677262983e+00 2.283806048626209e-01 0.000000000000000e+00
					1.200713825700483e+00 4.567612097252416e-01 0.000000000000000e+00
					1.097743232450828e+00 2.084738940502071e-01 0.000000000000000e+00
					1.044973701200828e+00 4.169477881004141e-01 0.000000000000000e+00
					1.200713825700483e+00 4.567612097252416e-01 0.000000000000000e+00
					1.081050739762983e+00 6.851418145878623e-01 0.000000000000000e+00
					1.044973701200828e+00 4.169477881004141e-01 0.000000000000000e+00
					9.570244824508279e-01 6.254216821506211e-01 0.000000000000000e+00
					1.081050739762983e+00 6.851418145878623e-01 0.000000000000000e+00
					9.135224194504830e-01 9.135224194504830e-01 0.000000000000000e+00
					9.570244824508279e-01 6.254216821506211e-01 0.000000000000000e+00
					8.338955762008280e-01 8.338955762008280e-01 0.000000000000000e+00
					8.338955762008280e-01 -8.338955762008280e-01 0.000000000000000e+00
					9.570244824508282e-01 -6.254216821506211e-01 0.000000000000000e+00
					7.611194702510350e-01 -7.611194702510350e-01 0.000000000000000e+00
					8.466712280635349e-01 -5.708396026882762e-01 0.000000000000000e+00
					9.570244824508282e-01 -6.254216821506211e-01 0.000000000000000e+00
					1.044973701200828e+00 -4.169477881004140e-01 0.000000000000000e+00
					8.466712280635349e-01 -5.708396026882762e-01 0.000000000000000e+00
					9.077796265010353e-01 -3.805597351255174e-01 0.000000000000000e+00
					1.044973701200828e+00 -4.169477881004140e-01 0.000000000000000e+00
					1.097743232450828e+00 -2.084738940502070e-01 0.000000000000000e+00
					9.077796265010353e-01 -3.805597351255174e-01 0.000000000000000e+00
					9.444446655635350e-01 -1.902798675627587e-01 0.000000000000000e+00
					1.097743232450828e+00 -2.084738940502070e-01 0.000000000000000e+00
					1.115333076200828e+00 6.201636426617085e-17 0.000000000000000e+00
					9.444446655635350e-01 -1.902798675627587e-01 0.000000000000000e+00
					9.566663452510351e-01 5.800481622797449e-17 0.000000000000000e+00
					1.115333076200828e+00 6.201636426617085e-17 0.000000000000000e+00
					1.097743232450828e+00 2.084738940502071e-01 0.000000000000000e+00
					9.566663452510351e-01 5.800481622797449e-17 0.000000000000000e+00
					9.444446655635348e-01 1.902798675627588e-01 0.000000000000000e+00
					1.097743232450828e+00 2.084738940502071e-01 0.000000000000000e+00
					1.044973701200828e+00 4.169477881004141e-01 0.000000000000000e+00
					9.444446655635348e-01 1.902798675627588e-01 0.000000000000000e+00
					9.077796265010349e-01 3.805597351255176e-01 0.000000000000000e+00
					1.044973701200828e+00 4.169477881004141e-01 0.000000000000000e+00
					9.570244824508279e-01 6.254216821506211e-01 0.000000000000000e+00
					9.077796265010349e-01 3.805597351255176e-01 0.000000000000000e+00
					8.466712280635349e-01 5.708396026882762e-01 0.000000000000000e+00
					9.570244824508279e-01 6.254216821506211e-01 0.000000000000000e+00
					8.338955762008280e-01 8.338955762008280e-01 0.000000000000000e+00
					8.466712280635349e-01 5.708396026882762e-01 0.000000000000000e+00
					7.611194702510350e-01 7.611194702510350e-01 0.000000000000000e+00
					7.611194702510350e-01 -7.611194702510350e-01 0.000000000000000e+00
					8.466712280635349e-01 -5.708396026882762e-01 0.000000000000000e+00
					6.951941016011041e-01 -6.951941016011041e-01 0.000000000000000e+00
					7.499909766011039e-01 -5.213955762008279e-01 0.000000000000000e+00
					8.466712280635349e-01 -5.708396026882762e-01 0.000000000000000e+00
					9.077796265010353e-01 -3.805597351255174e-01 0.000000000000000e+00
					7.499909766011039e-01 -5.213955762008279e-01 0.000000000000000e+00
					7.891316016011043e-01 -3.475970508005519e-01 0.000000000000000e+00
					9.077796265010353e-01 -3.805597351255174e-01 0.000000000000000e+00
					9.444446655635350e-01 -1.902798675627587e-01 0.000000000000000e+00
					7.891316016011043e-01 -3.475970508005519e-01 0.000000000000000e+00
					8.126159766011041e-01 -1.737985254002760e-01 0.000000000000000e+00
					9.444446655635350e-01 -1.902798675627587e-01 0.000000000000000e+00
					9.566663452510351e-01 5.800481622797449e-17 0.000000000000000e+00
					8.126159766011041e-01 -1.737985254002760e-01 0.000000000000000e+00
					8.204441016011040e-01 5.377642775528102e-17 0.000000000000000e+00
					9.566663452510351e-01 5.800481622797449e-17 0.000000000000000e+00
					9.444446655635348e-01 1.902798675627588e-01 0.000000000000000e+00
					8.204441016011040e-01 5.377642775528102e-17 0.000000000000000e+00
					8.126159766011040e-01 1.737985254002761e-01 0.000000000000000e+00
					9.444446655635348e-01 1.902798675627588e-01 0.000000000000000e+00
					9.077796265010349e-01 3.805597351255176e-01 0.000000000000000e+00
					8.126159766011040e-01 1.737985254002761e-01 0.000000000000000e+00
					7.891316016011040e-01 3.475970508005521e-01 0.000000000000000e+00
					9.077796265010349e-01 3.805597351255176e-01 0.000000000000000e+00
					8.466712280635349e-01 5.708396026882762e-01 0.000000000000000e+00
					7.891316016011040e-01 3.475970508005521e-01 0.000000000000000e+00
					7.499909766011039e-01 5.213955762008279e-01 0.000000000000000e+00
					8.466712280635349e-01 5.708396026882762e-01 0.000000000000000e+00
					7.611194702510350e-01 7.611194702510350e-01 0.000000000000000e+00
					7.499909766011039e-01 5.213955762008279e-01 0.000000000000000e+00
					6.951941016011041e-01 6.951941016011041e-01 0.000000000000000e+00
					6.951941016011041e-01 -6.951941016011041e-01 0.000000000000000e+00
					7.499909766011039e-01 -5.213955762008279e-01 0.000000000000000e+00
					6.361194702510350e-01 -6.361194702510350e-01 0.000000000000000e+00
					6.669837280635349e-01 -4.770896026882761e-01 0.000000000000000e+00
					7.499909766011039e-01 -5.213955762008279e-01 0.000000000000000e+00
					7.891316016011043e-01 -3.475970508005519e-01 0.000000000000000e+00
					6.669837280635349e-01 -4.770896026882761e-01 0.000000000000000e+00
					6.890296265010352e-01 -3.180597351255174e-01 0.000000000000000e+00
					7.891316016011043e-01 -3.475970508005519e-01 0.000000000000000e+00
					8.126159766011041e-01 -1.737985254002760e-01 0.000000000000000e+00
					6.890296265010352e-01 -3.180597351255174e-01 0.000000000000000e+00
					7.022571655635349e-01 -1.590298675627587e-01 0.000000000000000e+00
					8.126159766011041e-01 -1.737985254002760e-01 0.000000000000000e+00
					8.204441016011040e-01 5.377642775528102e-17 0.000000000000000e+00
					7.022571655635349e-01 -1.590298675627587e-01 0.000000000000000e+00
					7.066663452510351e-01 4.933119884809045e-17 0.000000000000000e+00
					8.204441016011040e-01 5.377642775528102e-17 0.000000000000000e+00
					8.126159766011040e-01 1.737985254002761e-01 0.000000000000000e+00
					7.066663452510351e-01 4.933119884809045e-17 0.000000000000000e+00
					7.022571655635349e-01 1.590298675627588e-01 0.000000000000000e+00
					8.126159766011040e-01 1.737985254002761e-01 0.000000000000000e+00
					7.891316016011040e-01 3.475970508005521e-01 0.000000000000000e+00
					7.022571655635349e-01 1.590298675627588e-01 0.000000000000000e+00
					6.890296265010349e-01 3.180597351255176e-01 0.000000000000000e+00
					7.891316016011040e-01 3.475970508005521e-01 0.000000000000000e+00
					7.499909766011039e-01 5.213955762008279e-01 0.000000000000000e+00
					6.890296265010349e-01 3.180597351255176e-01 0.000000000000000e+00
					6.669837280635349e-01 4.770896026882761e-01 0.000000000000000e+00
					7.499909766011039e-01 5.213955762008279e-01 0.000000000000000e+00
					6.951941016011041e-01 6.951941016011041e-01 0.000000000000000e+00
					6.669837280635349e-01 4.770896026882761e-01 0.000000000000000e+00
					6.361194702510350e-01 6.361194702510350e-01 0.000000000000000e+00
					6.361194702510350e-01 -6.361194702510350e-01 0.000000000000000e+00
					6.669837280635349e-01 -4.770896026882761e-01 0.000000000000000e+00
					5.838955762008280e-01 -5.838955762008280e-01 0.000000000000000e+00
					5.976494824508278e-01 -4.379216821506209e-01 0.000000000000000e+00
					6.669837280635349e-01 -4.770896026882761e-01 0.000000000000000e+00
					6.890296265010352e-01 -3.180597351255174e-01 0.000000000000000e+00
					5.976494824508278e-01 -4.379216821506209e-01 0.000000000000000e+00
					6.074737012008280e-01 -2.919477881004139e-01 0.000000000000000e+00
					6.890296265010352e-01 -3.180597351255174e-01 0.000000000000000e+00
					7.022571655635349e-01 -1.590298675627587e-01 0.000000000000000e+00
					6.074737012008280e-01 -2.919477881004139e-01 0.000000000000000e+00
					6.133682324508279e-01 -1.459738940502070e-01 0.000000000000000e+00
					7.022571655635349e-01 -1.590298675627587e-01 0.000000000000000e+00
					7.066663452510351e-01 4.933119884809045e-17 0.000000000000000e+00
					6.133682324508279e-01 -1.459738940502070e-01 0.000000000000000e+00
					6.153330762008280e-01 4.466912950640279e-17 0.000000000000000e+00
					7.066663452510351e-01 4.933119884809045e-17 0.000000000000000e+00
					7.022571655635349e-01 1.590298675627588e-01 0.000000000000000e+00
					6.153330762008280e-01 4.466912950640279e-17 0.000000000000000e+00
					6.133682324508279e-01 1.459738940502071e-01 0.000000000000000e+00
					7.022571655635349e-01 1.590298675627588e-01 0.000000000000000e+00
					6.890296265010349e-01 3.180597351255176e-01 0.000000000000000e+00
					6.133682324508279e-01 1.459738940502071e-01 0.000000000000000e+00
					6.074737012008280e-01 2.919477881004141e-01 0.000000000000000e+00
					6.890296265010349e-01 3.180597351255176e-01 0.000000000000000e+00
					6.669837280635349e-01 4.770896026882761e-01 0.000000000000000e+00
					6.074737012008280e-01 2.919477881004141e-01 0.000000000000000e+00
					5.976494824508278e-01 4.379216821506209e-01 0.000000000000000e+00
					6.669837280635349e-01 4.770896026882761e-01 0.000000000000000e+00
					6.361194702510350e-01 6.361194702510350e-01 0.000000000000000e+00
					5.976494824508278e-01 4.379216821506209e-01 0.000000000000000e+00
					5.838955762008280e-01 5.838955762008280e-01 0.000000000000000e+00
					5.838955762008280e-01 -5.838955762008280e-01 0.000000000000000e+00
					5.976494824508278e-01 -4.379216821506209e-01 0.000000000000000e+00
					5.385224194504830e-01 -5.385224194504830e-01 0.000000000000000e+00
					5.419882397629829e-01 -4.038918145878622e-01 0.000000000000000e+00
					5.976494824508278e-01 -4.379216821506209e-01 0.000000000000000e+00
					6.074737012008280e-01 -2.919477881004139e-01 0.000000000000000e+00
					5.419882397629829e-01 -4.038918145878622e-01 0.000000000000000e+00
					5.444638257004829e-01 -2.692612097252415e-01 0.000000000000000e+00
					6.074737012008280e-01 -2.919477881004139e-01 0.000000000000000e+00
					6.133682324508279e-01 -1.459738940502070e-01 0.000000000000000e+00
					5.444638257004829e-01 -2.692612097252415e-01 0.000000000000000e+00
					5.459491772629829e-01 -1.346306048626207e-01 0.000000000000000e+00
					6.133682324508279e-01 -1.459738940502070e-01 0.000000000000000e+00
					6.153330762008280e-01 4.466912950640279e-17 0.000000000000000e+00
					5.459491772629829e-01 -1.346306048626207e-01 0.000000000000000e+00
					5.464442944504829e-01 3.979021973021801e-17 0.000000000000000e+00
					6.153330762008280e-01 4.466912950640279e-17 0.000000000000000e+00
					6.133682324508279e-01 1.459738940502071e-01 0.000000000000000e+00
					5.464442944504829e-01 3.979021973021801e-17 0.000000000000000e+00
					5.459491772629830e-01 1.346306048626208e-01 0.000000000000000e+00
					6.133682324508279e-01 1.459738940502071e-01 0.000000000000000e+00
					6.074737012008280e-01 2.919477881004141e-01 0.000000000000000e+00
					5.459491772629830e-01 1.346306048626208e-01 0.000000000000000e+00
					5.444638257004829e-01 2.692612097252415e-01 0.000000000000000e+00
					6.074737012008280e-01 2.919477881004141e-01 0.000000000000000e+00
					5.976494824508278e-01 4.379216821506209e-01 0.000000000000000e+00
					5.444638257004829e-01 2.692612097252415e-01 0.000000000000000e+00
					5.419882397629829e-01 4.038918145878622e-01 0.000000000000000e+00
					5.976494824508278e-01 4.379216821506209e-01 0.000000000000000e+00
					5.838955762008280e-01 5.838955762008280e-01 0.000000000000000e+00
					5.419882397629829e-01 4.038918145878622e-01 0.000000000000000e+00
					5.385224194504830e-01 5.385224194504830e-01 0.000000000000000e+00
					5.385224194504830e-01 -5.385224194504830e-01 0.000000000000000e+00
					5.419882397629829e-01 -4.038918145878622e-01 0.000000000000000e+00
					5.000000000000000e-01 -5.000000000000000e-01 0.000000000000000e+00
					5.000000000000000e-01 -3.750000000000000e-01 0.000000000000000e+00
					5.419882397629829e-01 -4.038918145878622e-01 0.000000000000000e+00
					5.444638257004829e-01 -2.692612097252415e-01 0.000000000000000e+00
					5.000000000000000e-01 -3.750000000000000e-01 0.000000000000000e+00
					5.000000000000000e-01 -2.500000000000000e-01 0.000000000000000e+00
					5.444638257004829e-01 -2.692612097252415e-01 0.000000000000000e+00
					5.459491772629829e-01 -1.346306048626207e-01 0.000000000000000e+00
					5.000000000000000e-01 -2.500000000000000e-01 0.000000000000000e+00
					5.000000000000000e-01 -1.250000000000000e-01 0.000000000000000e+00
					5.459491772629829e-01 -1.346306048626207e-01 0.000000000000000e+00
					5.464442944504829e-01 3.979021973021801e-17 0.000000000000000e+00
					5.000000000000000e-01 -1.250000000000000e-01 0.000000000000000e+00
					5.000000000000000e-01 3.469446951953614e-17 0.000000000000000e+00
					5.464442944504829e-01 3.979021973021801e-17 0.000000000000000e+00
					5.459491772629830e-01 1.346306048626208e-01 0.000000000000000e+00
					5.000000000000000e-01 3.469446951953614e-17 0.000000000000000e+00
					5.000000000000000e-01 1.250000000000001e-01 0.000000000000000e+00
					5.459491772629830e-01 1.346306048626208e-01 0.000000000000000e+00
					5.444638257004829e-01 2.692612097252415e-01 0.000000000000000e+00
					5.000000000000000e-01 1.250000000000001e-01 0.000000000000000e+00
					5.000000000000000e-01 2.500000000000001e-01 0.000000000000000e+00
					5.444638257004829e-01 2.692612097252415e-01 0.000000000000000e+00
					5.419882397629829e-01 4.038918145878622e-01 0.000000000000000e+00
					5.000000000000000e-01 2.500000000000001e-01 0.000000000000000e+00
					5.000000000000000e-01 3.750000000000000e-01 0.000000000000000e+00
					5.419882397629829e-01 4.038918145878622e-01 0.000000000000000e+00
					5.385224194504830e-01 5.385224194504830e-01 0.000000000000000e+00
					5.000000000000000e-01 3.750000000000000e-01 0.000000000000000e+00
					5.000000000000000e-01 5.000000000000000e-01 0.000000000000000e+00
				</DataArray>
			</Points>
			<Cells>
				<DataArray Name="connectivity" type="UInt32" format="ascii">
					0 1 3 2 4 5 7 6 8 9 11 10 12 13 15 14 16 17 19 18 20 21 23 22 24 25 27 26 28 29 31 30 32 33 35 34 36 37 39 38 40 41 43 42 44 45 47 46 48 49 51 50 52 53 55 54 56 57 59 58 60 61 63 62 64 65 67 66 68 69 71 70 72 73 75 74 76 77 79 78 80 81 83 82 84 85 87 86 88 89 91 90 92 93 95 94 96 97 99 98 100 101 103 102 104 105 107 106 108 109 111 110 112 113 115 114 116 117 119 118 120 121 123 122 124 125 127 126 128 129 131 130 132 133 135 134 136 137 139 138 140 141 143 142 144 145 147 146 148 149 151 150 152 153 155 154 156 157 159 158 160 161 163 162 164 165 167 166 168 169 171 170 172 173 175 174 176 177 179 178 180 181 183 182 184 185 187 186 188 189 191 190 192 193 195 194 196 197 199 198 200 201 203 202 204 205 207 206 208 209 211 210 212 213 215 214 216 217 219 218 220 221 223 222 224 225 227 226 228 229 231 230 232 233 235 234 236 237 239 238 240 241 243 242 244 245 247 246 248 249 251 250 252 253 255 254 
				</DataArray>
				<DataArray Name="offsets" type="UInt32" format="ascii">
					4 8 12 16 20 24 28 32 36 40 44 48 52 56 60 64 68 72 76 80 84 88 92 96 100 104 108 112 116 120 124 128 132 136 140 144 148 152 156 160 164 168 172 176 180 184 188 192 196 200 204 208 212 216 220 224 228 232 236 240 244 248 252 256 
				</DataArray>
				<DataArray Name="types" type="UInt8" format="ascii">
					9 9 9 9 9 9 9 9 9 9 9 9 9 9 9 9 9 9 9 9 9 9 9 9 9 9 9 9 9 9 9 9 9 9 9 9 9 9 9 9 9 9 9 9 9 9 9 9 9 9 9 9 9 9 9 9 9 9 9 9 9 9 9 9 
				</DataArray>
			</Cells>
			<PointData Vectors="solution ">
				<DataArray Name="solution" type="Float64" NumberOfComponents="1" format="ascii">
					0.000000000000000e+00 0.000000000000000e+00 5.245166067573331e-03 1.920976244064553e-02 0.000000000000000e+00 0.000000000000000e+00 1.920976244064553e-02 5.427298715506546e-02 0.000000000000000e+00 0.000000000000000e+00 5.427298715506546e-02 1.242509838193775e-01 0.000000000000000e+00 0.000000000000000e+00 1.242509838193775e-01 2.232965733778513e-01 0.000000000000000e+00 0.000000000000000e+00 2.232965733778513e-01 3.092507558757584e-01 0.000000000000000e+00 0.000000000000000e+00 3.092507558757584e-01 3.355531047949373e-01 0.000000000000000e+00 0.000000000000000e+00 3.355531047949373e-01 2.952139662038440e-01 0.000000000000000e+00 0.000000000000000e+00 2.952139662038440e-01 2.008580214873289e-01 5.245166067573331e-03 1.920976244064553e-02 6.957114218239488e-02 2.222924322242745e-01 1.920976244064553e-02 5.427298715506546e-02 2.222924322242745e-01 5.484681677960908e-01 5.427298715506546e-02 1.242509838193775e-01 5.484681677960908e-01 1.102496498879412e+00 1.242509838193775e-01 2.232965733778513e-01 1.102496498879412e+00 1.835257011386709e+00 2.232965733778513e-01 3.092507558757584e-01 1.835257011386709e+00 2.537934436285024e+00 3.092507558757584e-01 3.355531047949373e-01 2.537934436285024e+00 2.906054734612773e+00 3.355531047949373e-01 2.952139662038440e-01 2.906054734612773e+00 2.710858860680805e+00 2.952139662038440e-01 2.008580214873289e-01 2.710858860680805e+00 1.953759882235440e+00 6.957114218239488e-02 2.222924322242745e-01 2.875070734087958e-01 8.158181002590239e-01 2.222924322242745e-01 5.484681677960908e-01 8.158181002590239e-01 1.842002314504728e+00 5.484681677960908e-01 1.102496498879412e+00 1.842002314504728e+00 3.452797264718843e+00 1.102496498879412e+00 1.835257011386709e+00 3.452797264718843e+00 5.476771394930688e+00 1.835257011386709e+00 2.537934436285024e+00 5.476771394930688e+00 7.391370645448685e+00 2.537934436285024e+00 2.906054734612773e+00 7.391370645448685e+00 8.440942898837038e+00 2.906054734612773e+00 2.710858860680805e+00 8.440942898837038e+00 8.002598690485396e+00 2.710858860680805e+00 1.953759882235440e+00 8.002598690485396e+00 6.037801752596195e+00 2.875070734087958e-01 8.158181002590239e-01 7.310468803847348e-01 1.852040633794243e+00 8.158181002590239e-01 1.842002314504728e+00 1.852040633794243e+00 3.854044041453513e+00 1.842002314504728e+00 3.452797264718843e+00 3.854044041453513e+00 6.803132736862219e+00 3.452797264718843e+00 5.476771394930688e+00 6.803132736862219e+00 1.034952892657406e+01 5.476771394930688e+00 7.391370645448685e+00 1.034952892657406e+01 1.363460876272467e+01 7.391370645448685e+00 8.440942898837038e+00 1.363460876272467e+01 1.548031406378980e+01 8.440942898837038e+00 8.002598690485396e+00 1.548031406378980e+01 1.490846170074406e+01 8.002598690485396e+00 6.037801752596195e+00 1.490846170074406e+01 1.179444058194434e+01 7.310468803847348e-01 1.852040633794243e+00 1.417920390901491e+00 3.227883721500130e+00 1.852040633794243e+00 3.854044041453513e+00 3.227883721500130e+00 6.214265021010277e+00 3.854044041453513e+00 6.803132736862219e+00 6.214265021010277e+00 1.036874421845664e+01 6.803132736862219e+00 1.034952892657406e+01 1.036874421845664e+01 1.518341389411225e+01 1.034952892657406e+01 1.363460876272467e+01 1.518341389411225e+01 1.958856029990963e+01 1.363460876272467e+01 1.548031406378980e+01 1.958856029990963e+01 2.217887475758210e+01 1.548031406378980e+01 1.490846170074406e+01 2.217887475758210e+01 2.176325298530736e+01 1.490846170074406e+01 1.179444058194434e+01 2.176325298530736e+01 1.806141707308911e+01 1.417920390901491e+00 3.227883721500130e+00 2.310848774752533e+00 4.767126805748950e+00 3.227883721500130e+00 6.214265021010277e+00 4.767126805748950e+00 8.535406712504916e+00 6.214265021010277e+00 1.036874421845664e+01 8.535406712504916e+00 1.351740944132217e+01 1.036874421845664e+01 1.518341389411225e+01 1.351740944132217e+01 1.912210537034760e+01 1.518341389411225e+01 1.958856029990963e+01 1.912210537034760e+01 2.423730945666977e+01 1.958856029990963e+01 2.217887475758210e+01 2.423730945666977e+01 2.744162620283324e+01 2.217887475758210e+01 2.176325298530736e+01 2.744162620283324e+01 2.747943765473587e+01 2.176325298530736e+01 1.806141707308911e+01 2.747943765473587e+01 2.388495534855918e+01 2.310848774752533e+00 4.767126805748950e+00 3.333915038313925e+00 6.295031947086278e+00 4.767126805748950e+00 8.535406712504916e+00 6.295031947086278e+00 1.055690374245326e+01 8.535406712504916e+00 1.351740944132217e+01 1.055690374245326e+01 1.595315643526180e+01 1.351740944132217e+01 1.912210537034760e+01 1.595315643526180e+01 2.188924704527172e+01 1.912210537034760e+01 2.423730945666977e+01 2.188924704527172e+01 2.733557615626194e+01 2.423730945666977e+01 2.744162620283324e+01 2.733557615626194e+01 3.099614386536999e+01 2.744162620283324e+01 2.747943765473587e+01 3.099614386536999e+01 3.166841723793748e+01 2.747943765473587e+01 2.388495534855918e+01 3.166841723793748e+01 2.873880600016313e+01 3.333915038313925e+00 6.295031947086278e+00 4.394098238948421e+00 7.675827092231176e+00 6.295031947086278e+00 1.055690374245326e+01 7.675827092231176e+00 1.215611883661661e+01 1.055690374245326e+01 1.595315643526180e+01 1.215611883661661e+01 1.763631650638654e+01 1.595315643526180e+01 2.188924704527172e+01 1.763631650638654e+01 2.357249023526404e+01 2.188924704527172e+01 2.733557615626194e+01 2.357249023526404e+01 2.907779131615338e+01 2.733557615626194e+01 3.099614386536999e+01 2.907779131615338e+01 3.304461084432550e+01 3.099614386536999e+01 3.166841723793748e+01 3.304461084432550e+01 3.440189899557968e+01 3.166841723793748e+01 2.873880600016313e+01 3.440189899557968e+01 3.246697944504235e+01 
				</DataArray>
			</PointData>
			<CellData>
			</CellData>
		</Piece>
	</UnstructuredGrid>
</VTKFile>