<?xml version="1.0"?>
<VTKFile type="UnstructuredGrid" byte_order="LittleEndian">
	<UnstructuredGrid>
		<Piece NumberOfPoints="256" NumberOfCells="64">
			<Points>
				<DataArray type="Float64" NumberOfComponents="3" format="ascii">
					-1.000000000000000e+00 1.000000000000000e+00 0.000000000000000e+00
					-9.135224194504830e-01 9.135224194504830e-01 0.000000000000000e+00
					-7.500000000000000e-01 1.218750000000000e+00 0.000000000000000e+00
					-6.851418145878623e-01 1.081050739762983e+00 0.000000000000000e+00
					-9.135224194504830e-01 9.135224194504830e-01 0.000000000000000e+00
					-8.338955762008280e-01 8.338955762008280e-01 0.000000000000000e+00
					-6.851418145878623e-01 1.081050739762983e+00 0.000000000000000e+00
					-6.254216821506210e-01 9.570244824508283e-01 0.000000000000000e+00
					-8.338955762008280e-01 8.338955762008280e-01 0.000000000000000e+00
					-7.611194702510350e-01 7.611194702510350e-01 0.000000000000000e+00
					-6.254216821506210e-01 9.570244824508283e-01 0.000000000000000e+00
					-5.708396026882763e-01 8.466712280635351e-01 0.000000000000000e+00
					-7.611194702510350e-01 7.611194702510350e-01 0.000000000000000e+00
					-6.951941016011041e-01 6.951941016011041e-01 0.000000000000000e+00
					-5.708396026882763e-01 8.466712280635351e-01 0.000000000000000e+00
					-5.213955762008280e-01 7.499909766011041e-01 0.000000000000000e+00
					-6.951941016011041e-01 6.951941016011041e-01 0.000000000000000e+00
					-6.361194702510350e-01 6.361194702510350e-01 0.000000000000000e+00
					-5.213955762008280e-01 7.499909766011041e-01 0.000000000000000e+00
					-4.770896026882763e-01 6.669837280635351e-01 0.000000000000000e+00
					-6.361194702510350e-01 6.361194702510350e-01 0.000000000000000e+00
					-5.838955762008280e-01 5.838955762008280e-01 0.000000000000000e+00
					-4.770896026882763e-01 6.669837280635351e-01 0.000000000000000e+00
					-4.379216821506210e-01 5.976494824508281e-01 0.000000000000000e+00
					-5.838955762008280e-01 5.838955762008280e-01 0.000000000000000e+00
					-5.385224194504830e-01 5.385224194504830e-01 0.000000000000000e+00
					-4.379216821506210e-01 5.976494824508281e-01 0.000000000000000e+00
					-4.038918145878622e-01 5.419882397629829e-01 0.000000000000000e+00
					-5.385224194504830e-01 5.385224194504830e-01 0.000000000000000e+00
					-5.000000000000000e-01 5.000000000000000e-01 0.000000000000000e+00
					-4.038918145878622e-01 5.419882397629829e-01 0.000000000000000e+00
					-3.750000000000000e-01 5.000000000000000e-01 0.000000000000000e+00
					-7.500000000000000e-01 1.218750000000000e+00 0.000000000000000e+00
					-6.851418145878623e-01 1.081050739762983e+00 0.000000000000000e+00
					-5.000000000000000e-01 1.375000000000000e+00 0.000000000000000e+00
					-4.567612097252415e-01 1.200713825700483e+00 0.000000000000000e+00
					-6.851418145878623e-01 1.081050739762983e+00 0.000000000000000e+00
					-6.254216821506210e-01 9.570244824508283e-01 0.000000000000000e+00
					-4.567612097252415e-01 1.200713825700483e+00 0.000000000000000e+00
					-4.169477881004140e-01 1.044973701200828e+00 0.000000000000000e+00
					-6.254216821506210e-01 9.570244824508283e-01 0.000000000000000e+00
					-5.708396026882763e-01 8.466712280635351e-01 0.000000000000000e+00
					-4.169477881004140e-01 1.044973701200828e+00 0.000000000000000e+00
					-3.805597351255176e-01 9.077796265010354e-01 0.000000000000000e+00
					-5.708396026882763e-01 8.466712280635351e-01 0.000000000000000e+00
					-5.213955762008280e-01 7.499909766011041e-01 0.000000000000000e+00
					-3.805597351255176e-01 9.077796265010354e-01 0.000000000000000e+00
					-3.475970508005520e-01 7.891316016011042e-01 0.000000000000000e+00
					-5.213955762008280e-01 7.499909766011041e-01 0.000000000000000e+00
					-4.770896026882763e-01 6.669837280635351e-01 0.000000000000000e+00
					-3.475970508005520e-01 7.891316016011042e-01 0.000000000000000e+00
					-3.180597351255176e-01 6.890296265010352e-01 0.000000000000000e+00
					-4.770896026882763e-01 6.669837280635351e-01 0.000000000000000e+00
					-4.379216821506210e-01 5.976494824508281e-01 0.000000000000000e+00
					-3.180597351255176e-01 6.890296265010352e-01 0.000000000000000e+00
					-2.919477881004140e-01 6.074737012008281e-01 0.000000000000000e+00
					-4.379216821506210e-01 5.976494824508281e-01 0.000000000000000e+00
					-4.038918145878622e-01 5.419882397629829e-01 0.000000000000000e+00
					-2.919477881004140e-01 6.074737012008281e-01 0.000000000000000e+00
					-2.692612097252415e-01 5.444638257004830e-01 0.000000000000000e+00
					-4.038918145878622e-01 5.419882397629829e-01 0.000000000000000e+00
					-3.750000000000000e-01 5.000000000000000e-01 0.000000000000000e+00
					-2.692612097252415e-01 5.444638257004830e-01 0.000000000000000e+00
					-2.500000000000000e-01 5.000000000000000e-01 0.000000000000000e+00
					-5.000000000000000e-01 1.375000000000000e+00 0.000000000000000e+00
					-4.567612097252415e-01 1.200713825700483e+00 0.000000000000000e+00
					-2.499999999999999e-01 1.468750000000000e+00 0.000000000000000e+00
					-2.283806048626207e-01 1.272511677262983e+00 0.000000000000000e+00
					-4.567612097252415e-01 1.200713825700483e+00 0.000000000000000e+00
					-4.169477881004140e-01 1.044973701200828e+00 0.000000000000000e+00
					-2.283806048626207e-01 1.272511677262983e+00 0.000000000000000e+00
					-2.084738940502069e-01 1.097743232450828e+00 0.000000000000000e+00
					-4.169477881004140e-01 1.044973701200828e+00 0.000000000000000e+00
					-3.805597351255176e-01 9.077796265010354e-01 0.000000000000000e+00
					-2.084738940502069e-01 1.097743232450828e+00 0.000000000000000e+00
					-1.902798675627587e-01 9.444446655635353e-01 0.000000000000000e+00
					-3.805597351255176e-01 9.077796265010354e-01 0.000000000000000e+00
					-3.475970508005520e-01 7.891316016011042e-01 0.000000000000000e+00
					-1.902798675627587e-01 9.444446655635353e-01 0.000000000000000e+00
					-1.737985254002760e-01 8.126159766011043e-01 0.000000000000000e+00
					-3.475970508005520e-01 7.891316016011042e-01 0.000000000000000e+00
					-3.180597351255176e-01 6.890296265010352e-01 0.000000000000000e+00
					-1.737985254002760e-01 8.126159766011043e-01 0.000000000000000e+00
					-1.590298675627587e-01 7.022571655635351e-01 0.000000000000000e+00
					-3.180597351255176e-01 6.890296265010352e-01 0.000000000000000e+00
					-2.919477881004140e-01 6.074737012008281e-01 0.000000000000000e+00
					-1.590298675627587e-01 7.022571655635351e-01 0.000000000000000e+00
					-1.459738940502070e-01 6.133682324508281e-01 0.000000000000000e+00
					-2.919477881004140e-01 6.074737012008281e-01 0.000000000000000e+00
					-2.692612097252415e-01 5.444638257004830e-01 0.000000000000000e+00
					-1.459738940502070e-01 6.133682324508281e-01 0.000000000000000e+00
					-1.346306048626207e-01 5.459491772629830e-01 0.000000000000000e+00
					-2.692612097252415e-01 5.444638257004830e-01 0.000000000000000e+00
					-2.500000000000000e-01 5.000000000000000e-01 0.000000000000000e+00
					-1.346306048626207e-01 5.459491772629830e-01 0.000000000000000e+00
					-1.250000000000000e-01 5.000000000000000e-01 0.000000000000000e+00
					-2.499999999999999e-01 1.468750000000000e+00 0.000000000000000e+00
					-2.283806048626207e-01 1.272511677262983e+00 0.000000000000000e+00
					6.938893903907228e-17 1.500000000000000e+00 0.000000000000000e+00
					1.249000902703301e-16 1.296444294450483e+00 0.000000000000000e+00
					-2.283806048626207e-01 1.272511677262983e+00 0.000000000000000e+00
					-2.084738940502069e-01 1.097743232450828e+00 0.000000000000000e+00
					1.249000902703301e-16 1.296444294450483e+00 0.000000000000000e+00
					5.551115123125783e-17 1.115333076200828e+00 0.000000000000000e+00
					-2.084738940502069e-01 1.097743232450828e+00 0.000000000000000e+00
					-1.902798675627587e-01 9.444446655635353e-01 0.000000000000000e+00
					5.551115123125783e-17 1.115333076200828e+00 0.000000000000000e+00
					5.551115123125783e-17 9.566663452510353e-01 0.000000000000000e+00
					-1.902798675627587e-01 9.444446655635353e-01 0.000000000000000e+00
					-1.737985254002760e-01 8.126159766011043e-01 0.000000000000000e+00
					5.551115123125783e-17 9.566663452510353e-01 0.000000000000000e+00
					1.387778780781446e-17 8.204441016011044e-01 0.000000000000000e+00
					-1.737985254002760e-01 8.126159766011043e-01 0.000000000000000e+00
					-1.590298675627587e-01 7.022571655635351e-01 0.000000000000000e+00
					1.387778780781446e-17 8.204441016011044e-01 0.000000000000000e+00
					4.163336342344337e-17 7.066663452510351e-01 0.000000000000000e+00
					-1.590298675627587e-01 7.022571655635351e-01 0.000000000000000e+00
					-1.459738940502070e-01 6.133682324508281e-01 0.000000000000000e+00
					4.163336342344337e-17 7.066663452510351e-01 0.000000000000000e+00
					4.857225732735060e-17 6.153330762008280e-01 0.000000000000000e+00
					-1.459738940502070e-01 6.133682324508281e-01 0.000000000000000e+00
					-1.346306048626207e-01 5.459491772629830e-01 0.000000000000000e+00
					4.857225732735060e-17 6.153330762008280e-01 0.000000000000000e+00
					3.469446951953614e-17 5.464442944504830e-01 0.000000000000000e+00
					-1.346306048626207e-01 5.459491772629830e-01 0.000000000000000e+00
					-1.250000000000000e-01 5.000000000000000e-01 0.000000000000000e+00
					3.469446951953614e-17 5.464442944504830e-01 0.000000000000000e+00
					3.469446951953614e-17 5.000000000000000e-01 0.000000000000000e+00
					6.938893903907228e-17 1.500000000000000e+00 0.000000000000000e+00
					1.249000902703301e-16 1.296444294450483e+00 0.000000000000000e+00
					2.500000000000001e-01 1.468750000000000e+00 0.000000000000000e+00
					2.283806048626209e-01 1.272511677262983e+00 0.000000000000000e+00
					1.249000902703301e-16 1.296444294450483e+00 0.000000000000000e+00
					5.551115123125783e-17 1.115333076200828e+00 0.000000000000000e+00
					2.283806048626209e-01 1.272511677262983e+00 0.000000000000000e+00
					2.084738940502071e-01 1.097743232450828e+00 0.000000000000000e+00
					5.551115123125783e-17 1.115333076200828e+00 0.000000000000000e+00
					5.551115123125783e-17 9.566663452510353e-01 0.000000000000000e+00
					2.084738940502071e-01 1.097743232450828e+00 0.000000000000000e+00
					1.902798675627588e-01 9.444446655635351e-01 0.000000000000000e+00
					5.551115123125783e-17 9.566663452510353e-01 0.000000000000000e+00
					1.387778780781446e-17 8.204441016011044e-01 0.000000000000000e+00
					1.902798675627588e-01 9.444446655635351e-01 0.000000000000000e+00
					1.737985254002760e-01 8.126159766011042e-01 0.000000000000000e+00
					1.387778780781446e-17 8.204441016011044e-01 0.000000000000000e+00
					4.163336342344337e-17 7.066663452510351e-01 0.000000000000000e+00
					1.737985254002760e-01 8.126159766011042e-01 0.000000000000000e+00
					1.590298675627588e-01 7.022571655635350e-01 0.000000000000000e+00
					4.163336342344337e-17 7.066663452510351e-01 0.000000000000000e+00
					4.857225732735060e-17 6.153330762008280e-01 0.000000000000000e+00
					1.590298675627588e-01 7.022571655635350e-01 0.000000000000000e+00
					1.459738940502071e-01 6.133682324508278e-01 0.000000000000000e+00
					4.857225732735060e-17 6.153330762008280e-01 0.000000000000000e+00
					3.469446951953614e-17 5.464442944504830e-01 0.000000000000000e+00
					1.459738940502071e-01 6.133682324508278e-01 0.000000000000000e+00
					1.346306048626208e-01 5.459491772629830e-01 0.000000000000000e+00
					3.469446951953614e-17 5.464442944504830e-01 0.000000000000000e+00
					3.469446951953614e-17 5.000000000000000e-01 0.000000000000000e+00
					1.346306048626208e-01 5.459491772629830e-01 0.000000000000000e+00
					1.250000000000001e-01 5.000000000000000e-01 0.000000000000000e+00
					2.500000000000001e-01 1.468750000000000e+00 0.000000000000000e+00
					2.283806048626209e-01 1.272511677262983e+00 0.000000000000000e+00
					5.000000000000001e-01 1.375000000000000e+00 0.000000000000000e+00
					4.567612097252416e-01 1.200713825700483e+00 0.000000000000000e+00
					2.283806048626209e-01 1.272511677262983e+00 0.000000000000000e+00
					2.084738940502071e-01 1.097743232450828e+00 0.000000000000000e+00
					4.567612097252416e-01 1.200713825700483e+00 0.000000000000000e+00
					4.169477881004141e-01 1.044973701200828e+00 0.000000000000000e+00
					2.084738940502071e-01 1.097743232450828e+00 0.000000000000000e+00
					1.902798675627588e-01 9.444446655635351e-01 0.000000000000000e+00
					4.169477881004141e-01 1.044973701200828e+00 0.000000000000000e+00
					3.805597351255176e-01 9.077796265010351e-01 0.000000000000000e+00
					1.902798675627588e-01 9.444446655635351e-01 0.000000000000000e+00
					1.737985254002760e-01 8.126159766011042e-01 0.000000000000000e+00
					3.805597351255176e-01 9.077796265010351e-01 0.000000000000000e+00
					3.475970508005520e-01 7.891316016011042e-01 0.000000000000000e+00
					1.737985254002760e-01 8.126159766011042e-01 0.000000000000000e+00
					1.590298675627588e-01 7.022571655635350e-01 0.000000000000000e+00
					3.475970508005520e-01 7.891316016011042e-01 0.000000000000000e+00
					3.180597351255176e-01 6.890296265010351e-01 0.000000000000000e+00
					1.590298675627588e-01 7.022571655635350e-01 0.000000000000000e+00
					1.459738940502071e-01 6.133682324508278e-01 0.000000000000000e+00
					3.180597351255176e-01 6.890296265010351e-01 0.000000000000000e+00
					2.919477881004141e-01 6.074737012008279e-01 0.000000000000000e+00
					1.459738940502071e-01 6.133682324508278e-01 0.000000000000000e+00
					1.346306048626208e-01 5.459491772629830e-01 0.000000000000000e+00
					2.919477881004141e-01 6.074737012008279e-01 0.000000000000000e+00
					2.692612097252415e-01 5.444638257004829e-01 0.000000000000000e+00
					1.346306048626208e-01 5.459491772629830e-01 0.000000000000000e+00
					1.250000000000001e-01 5.000000000000000e-01 0.000000000000000e+00
					2.692612097252415e-01 5.444638257004829e-01 0.000000000000000e+00
					2.500000000000001e-01 5.000000000000000e-01 0.000000000000000e+00
					5.000000000000001e-01 1.375000000000000e+00 0.000000000000000e+00
					4.567612097252416e-01 1.200713825700483e+00 0.000000000000000e+00
					7.500000000000000e-01 1.218750000000000e+00 0.000000000000000e+00
					6.851418145878623e-01 1.081050739762983e+00 0.000000000000000e+00
					4.567612097252416e-01 1.200713825700483e+00 0.000000000000000e+00
					4.169477881004141e-01 1.044973701200828e+00 0.000000000000000e+00
					6.851418145878623e-01 1.081050739762983e+00 0.000000000000000e+00
					6.254216821506210e-01 9.570244824508279e-01 0.000000000000000e+00
					4.169477881004141e-01 1.044973701200828e+00 0.000000000000000e+00
					3.805597351255176e-01 9.077796265010351e-01 0.000000000000000e+00
					6.254216821506210e-01 9.570244824508279e-01 0.000000000000000e+00
					5.708396026882763e-01 8.466712280635349e-01 0.000000000000000e+00
					3.805597351255176e-01 9.077796265010351e-01 0.000000000000000e+00
					3.475970508005520e-01 7.891316016011042e-01 0.000000000000000e+00
					5.708396026882763e-01 8.466712280635349e-01 0.000000000000000e+00
					5.213955762008280e-01 7.499909766011040e-01 0.000000000000000e+00
					3.475970508005520e-01 7.891316016011042e-01 0.000000000000000e+00
					3.180597351255176e-01 6.890296265010351e-01 0.000000000000000e+00
					5.213955762008280e-01 7.499909766011040e-01 0.000000000000000e+00
					4.770896026882762e-01 6.669837280635349e-01 0.000000000000000e+00
					3.180597351255176e-01 6.890296265010351e-01 0.000000000000000e+00
					2.919477881004141e-01 6.074737012008279e-01 0.000000000000000e+00
					4.770896026882762e-01 6.669837280635349e-01 0.000000000000000e+00
					4.379216821506210e-01 5.976494824508279e-01 0.000000000000000e+00
					2.919477881004141e-01 6.074737012008279e-01 0.000000000000000e+00
					2.692612097252415e-01 5.444638257004829e-01 0.000000000000000e+00
					4.379216821506210e-01 5.976494824508279e-01 0.000000000000000e+00
					4.038918145878622e-01 5.419882397629829e-01 0.000000000000000e+00
					2.692612097252415e-01 5.444638257004829e-01 0.000000000000000e+00
					2.500000000000001e-01 5.000000000000000e-01 0.000000000000000e+00
					4.038918145878622e-01 5.419882397629829e-01 0.000000000000000e+00
					3.750000000000000e-01 5.000000000000000e-01 0.000000000000000e+00
					7.500000000000000e-01 1.218750000000000e+00 0.000000000000000e+00
					6.851418145878623e-01 1.081050739762983e+00 0.000000000000000e+00
					1.000000000000000e+00 1.000000000000000e+00 0.000000000000000e+00
					9.135224194504830e-01 9.135224194504830e-01 0.000000000000000e+00
					6.851418145878623e-01 1.081050739762983e+00 0.000000000000000e+00
					6.254216821506210e-01 9.570244824508279e-01 0.000000000000000e+00
					9.135224194504830e-01 9.135224194504830e-01 0.000000000000000e+00
					8.338955762008280e-01 8.338955762008280e-01 0.000000000000000e+00
					6.254216821506210e-01 9.570244824508279e-01 0.000000000000000e+00
					5.708396026882763e-01 8.466712280635349e-01 0.000000000000000e+00
					8.338955762008280e-01 8.338955762008280e-01 0.000000000000000e+00
					7.611194702510350e-01 7.611194702510350e-01 0.000000000000000e+00
					5.708396026882763e-01 8.466712280635349e-01 0.000000000000000e+00
					5.213955762008280e-01 7.499909766011040e-01 0.000000000000000e+00
					7.611194702510350e-01 7.611194702510350e-01 0.000000000000000e+00
					6.951941016011041e-01 6.951941016011041e-01 0.000000000000000e+00
					5.213955762008280e-01 7.499909766011040e-01 0.000000000000000e+00
					4.770896026882762e-01 6.669837280635349e-01 0.000000000000000e+00
					6.951941016011041e-01 6.951941016011041e-01 0.000000000000000e+00
					6.361194702510350e-01 6.361194702510350e-01 0.000000000000000e+00
					4.770896026882762e-01 6.669837280635349e-01 0.000000000000000e+00
					4.379216821506210e-01 5.976494824508279e-01 0.000000000000000e+00
					6.361194702510350e-01 6.361194702510350e-01 0.000000000000000e+00
					5.838955762008280e-01 5.838955762008280e-01 0.000000000000000e+00
					4.379216821506210e-01 5.976494824508279e-01 0.000000000000000e+00
					4.038918145878622e-01 5.419882397629829e-01 0.000000000000000e+00
					5.838955762008280e-01 5.838955762008280e-01 0.000000000000000e+00
					5.385224194504830e-01 5.385224194504830e-01 0.000000000000000e+00
					4.038918145878622e-01 5.419882397629829e-01 0.000000000000000e+00
					3.750000000000000e-01 5.000000000000000e-01 0.000000000000000e+00
					5.385224194504830e-01 5.385224194504830e-01 0.000000000000000e+00
					5.000000000000000e-01 5.000000000000000e-01 0.000000000000000e+00
				</DataArray>
			</Points>
			<Cells>
				<DataArray Name="connectivity" type="UInt32" format="ascii">
					0 1 3 2 4 5 7 6 8 9 11 10 12 13 15 14 16 17 19 18 20 21 23 22 24 25 27 26 28 29 31 30 32 33 35 34 36 37 39 38 40 41 43 42 44 45 47 46 48 49 51 50 52 53 55 54 56 57 59 58 60 61 63 62 64 65 67 66 68 69 71 70 72 73 75 74 76 77 79 78 80 81 83 82 84 85 87 86 88 89 91 90 92 93 95 94 96 97 99 98 100 101 103 102 104 105 107 106 108 109 111 110 112 113 115 114 116 117 119 118 120 121 123 122 124 125 127 126 128 129 131 130 132 133 135 134 136 137 139 138 140 141 143 142 144 145 147 146 148 149 151 150 152 153 155 154 156 157 159 158 160 161 163 162 164 165 167 166 168 169 171 170 172 173 175 174 176 177 179 178 180 181 183 182 184 185 187 186 188 189 191 190 192 193 195 194 196 197 199 198 200 201 203 202 204 205 207 206 208 209 211 210 212 213 215 214 216 217 219 218 220 221 223 222 224 225 227 226 228 229 231 230 232 233 235 234 236 237 239 238 240 241 243 242 244 245 247 246 248 249 251 250 252 253 255 254 
				</DataArray>
				<DataArray Name="offsets" type="UInt32" format="ascii">
					4 8 12 16 20 24 28 32 36 40 44 48 52 56 60 64 68 72 76 80 84 88 92 96 100 104 108 112 116 120 124 128 132 136 140 144 148 152 156 160 164 168 172 176 180 184 188 192 196 200 204 208 212 216 220 224 228 232 236 240 244 248 252 256 
				</DataArray>
				<DataArray Name="types" type="UInt8" format="ascii">
					9 9 9 9 9 9 9 9 9 9 9 9 9 9 9 9 9 9 9 9 9 9 9 9 9 9 9 9 9 9 9 9 9 9 9 9 9 9 9 9 9 9 9 9 9 9 9 9 9 9 9 9 9 9 9 9 9 9 9 9 9 9 9 9 
				</DataArray>
			</Cells>
			<PointData Vectors="solution ">
				<DataArray Name="solution" type="Float64" NumberOfComponents="1" format="ascii">
					0.000000000000000e+00 3.236307145058272e-02 0.000000000000000e+00 1.118060268293290e-01 3.236307145058272e-02 3.683848206837748e-01 1.118060268293290e-01 1.081130155849576e+00 3.683848206837748e-01 1.316998200570814e+00 1.081130155849576e+00 3.365975502866146e+00 1.316998200570814e+00 2.935730097248796e+00 3.365975502866146e+00 6.603302992034786e+00 2.935730097248796e+00 5.060076524229396e+00 6.603302992034786e+00 1.013346895642853e+01 5.060076524229396e+00 7.429019451192238e+00 1.013346895642853e+01 1.342723035490257e+01 7.429019451192238e+00 9.788245288407705e+00 1.342723035490257e+01 1.621009168422228e+01 9.788245288407705e+00 1.194410961190939e+01 1.621009168422228e+01 1.841320138410262e+01 0.000000000000000e+00 1.118060268293290e-01 0.000000000000000e+00 2.842033522029822e-01 1.118060268293290e-01 1.081130155849576e+00 2.842033522029822e-01 2.365847523700135e+00 1.081130155849576e+00 3.365975502866146e+00 2.365847523700135e+00 6.680241872400545e+00 3.365975502866146e+00 6.603302992034786e+00 6.680241872400545e+00 1.201112861438891e+01 6.603302992034786e+00 1.013346895642853e+01 1.201112861438891e+01 1.701213043236988e+01 1.013346895642853e+01 1.342723035490257e+01 1.701213043236988e+01 2.098147334183592e+01 1.342723035490257e+01 1.621009168422228e+01 2.098147334183592e+01 2.381959850715130e+01 1.621009168422228e+01 1.841320138410262e+01 2.381959850715130e+01 2.573482595829721e+01 0.000000000000000e+00 2.842033522029822e-01 0.000000000000000e+00 5.582775674860271e-01 2.842033522029822e-01 2.365847523700135e+00 5.582775674860271e-01 4.071841850115964e+00 2.365847523700135e+00 6.680241872400545e+00 4.071841850115964e+00 1.074019700658211e+01 6.680241872400545e+00 1.201112861438891e+01 1.074019700658211e+01 1.824367939762695e+01 1.201112861438891e+01 1.701213043236988e+01 1.824367939762695e+01 2.453451294923119e+01 1.701213043236988e+01 2.098147334183592e+01 2.453451294923119e+01 2.888464323607608e+01 2.098147334183592e+01 2.381959850715130e+01 2.888464323607608e+01 3.150739049131106e+01 2.381959850715130e+01 2.573482595829721e+01 3.150739049131106e+01 3.294942066147053e+01 0.000000000000000e+00 5.582775674860271e-01 0.000000000000000e+00 8.190816793344131e-01 5.582775674860271e-01 4.071841850115964e+00 8.190816793344131e-01 5.601442487578582e+00 4.071841850115964e+00 1.074019700658211e+01 5.601442487578582e+00 1.425798429628935e+01 1.074019700658211e+01 1.824367939762695e+01 1.425798429628935e+01 2.350984739955689e+01 1.824367939762695e+01 2.453451294923119e+01 2.350984739955689e+01 3.078019174476000e+01 2.453451294923119e+01 2.888464323607608e+01 3.078019174476000e+01 3.538087593466886e+01 2.888464323607608e+01 3.150739049131106e+01 3.538087593466886e+01 3.780483830383889e+01 3.150739049131106e+01 3.294942066147053e+01 3.780483830383889e+01 3.886498891374075e+01 0.000000000000000e+00 8.190816793344131e-01 0.000000000000000e+00 8.814899203909863e-01 8.190816793344131e-01 5.601442487578582e+00 8.814899203909863e-01 6.178778055525289e+00 5.601442487578582e+00 1.425798429628935e+01 6.178778055525289e+00 1.571500540125936e+01 1.425798429628935e+01 2.350984739955689e+01 1.571500540125936e+01 2.582806007853466e+01 2.350984739955689e+01 3.078019174476000e+01 2.582806007853466e+01 3.372270235646759e+01 3.078019174476000e+01 3.538087593466886e+01 3.372270235646759e+01 3.867843180195944e+01 3.538087593466886e+01 3.780483830383889e+01 3.867843180195944e+01 4.124439565561920e+01 3.780483830383889e+01 3.886498891374075e+01 4.124439565561920e+01 4.230830658942648e+01 0.000000000000000e+00 8.814899203909863e-01 0.000000000000000e+00 7.077611149932850e-01 8.814899203909863e-01 6.178778055525289e+00 7.077611149932850e-01 5.447460502142635e+00 6.178778055525289e+00 1.571500540125936e+01 5.447460502142635e+00 1.430216589679265e+01 1.571500540125936e+01 2.582806007853466e+01 1.430216589679265e+01 2.407379853679702e+01 2.582806007853466e+01 3.372270235646759e+01 2.407379853679702e+01 3.214002525362843e+01 3.372270235646759e+01 3.867843180195944e+01 3.214002525362843e+01 3.762103561858335e+01 3.867843180195944e+01 4.124439565561920e+01 3.762103561858335e+01 4.081442665206676e+01 4.124439565561920e+01 4.230830658942648e+01 4.081442665206676e+01 4.243012079026749e+01 0.000000000000000e+00 7.077611149932850e-01 0.000000000000000e+00 4.389677816094392e-01 7.077611149932850e-01 5.447460502142635e+00 4.389677816094392e-01 3.777103170841619e+00 5.447460502142635e+00 1.430216589679265e+01 3.777103170841619e+00 1.054453800312947e+01 1.430216589679265e+01 2.407379853679702e+01 1.054453800312947e+01 1.873726613291202e+01 2.407379853679702e+01 3.214002525362843e+01 1.873726613291202e+01 2.631415144650628e+01 3.214002525362843e+01 3.762103561858335e+01 2.631415144650628e+01 3.223854173080215e+01 3.762103561858335e+01 4.081442665206676e+01 3.223854173080215e+01 3.635823298099925e+01 4.081442665206676e+01 4.243012079026749e+01 3.635823298099925e+01 3.898177717412554e+01 0.000000000000000e+00 4.389677816094392e-01 0.000000000000000e+00 2.008580214873289e-01 4.389677816094392e-01 3.777103170841619e+00 2.008580214873289e-01 1.953759882235440e+00 3.777103170841619e+00 1.054453800312947e+01 1.953759882235440e+00 6.037801752596195e+00 1.054453800312947e+01 1.873726613291202e+01 6.037801752596195e+00 1.179444058194434e+01 1.873726613291202e+01 2.631415144650628e+01 1.179444058194434e+01 1.806141707308911e+01 2.631415144650628e+01 3.223854173080215e+01 1.806141707308911e+01 2.388495534855918e+01 3.223854173080215e+01 3.635823298099925e+01 2.388495534855918e+01 2.873880600016313e+01 3.635823298099925e+01 3.898177717412554e+01 2.873880600016313e+01 3.246697944504235e+01 
				</DataArray>
			</PointData>
			<CellData>
			</CellData>
		</Piece>
	</UnstructuredGrid>
</VTKFile>