<?xml version="1.0"?>
<VTKFile type="UnstructuredGrid" byte_order="LittleEndian">
	<UnstructuredGrid>
		<Piece NumberOfPoints="64" NumberOfCells="16">
			<Points>
				<DataArray type="Float64" NumberOfComponents="3" format="ascii">
					-5.000000000000000e-01 -5.000000000000000e-01 0.000000000000000e+00
					-2.500000000000000e-01 -5.000000000000000e-01 0.000000000000000e+00
					-5.000000000000000e-01 -2.500000000000000e-01 0.000000000000000e+00
					-2.500000000000000e-01 -2.500000000000000e-01 0.000000000000000e+00
					-2.500000000000000e-01 -5.000000000000000e-01 0.000000000000000e+00
					2.775557561562891e-17 -5.000000000000000e-01 0.000000000000000e+00
					-2.500000000000000e-01 -2.500000000000000e-01 0.000000000000000e+00
					2.775557561562891e-17 -2.500000000000000e-01 0.000000000000000e+00
					2.775557561562891e-17 -5.000000000000000e-01 0.000000000000000e+00
					2.500000000000000e-01 -5.000000000000000e-01 0.000000000000000e+00
					2.775557561562891e-17 -2.500000000000000e-01 0.000000000000000e+00
					2.500000000000000e-01 -2.500000000000000e-01 0.000000000000000e+00
					2.500000000000000e-01 -5.000000000000000e-01 0.000000000000000e+00
					5.000000000000000e-01 -5.000000000000000e-01 0.000000000000000e+00
					2.500000000000000e-01 -2.500000000000000e-01 0.000000000000000e+00
					5.000000000000000e-01 -2.500000000000000e-01 0.000000000000000e+00
					-5.000000000000000e-01 -2.500000000000000e-01 0.000000000000000e+00
					-2.500000000000000e-01 -2.500000000000000e-01 0.000000000000000e+00
					-5.000000000000000e-01 2.775557561562891e-17 0.000000000000000e+00
					-2.500000000000000e-01 2.775557561562891e-17 0.000000000000000e+00
					-2.500000000000000e-01 -2.500000000000000e-01 0.000000000000000e+00
					2.775557561562891e-17 -2.500000000000000e-01 0.000000000000000e+00
					-2.500000000000000e-01 2.775557561562891e-17 0.000000000000000e+00
					2.775557561562891e-17 2.775557561562891e-17 0.000000000000000e+00
					2.775557561562891e-17 -2.500000000000000e-01 0.000000000000000e+00
					2.500000000000000e-01 -2.500000000000000e-01 0.000000000000000e+00
					2.775557561562891e-17 2.775557561562891e-17 0.000000000000000e+00
					2.500000000000000e-01 2.775557561562891e-17 0.000000000000000e+00
					2.500000000000000e-01 -2.500000000000000e-01 0.000000000000000e+00
					5.000000000000000e-01 -2.500000000000000e-01 0.000000000000000e+00
					2.500000000000000e-01 2.775557561562891e-17 0.000000000000000e+00
					5.000000000000000e-01 2.775557561562891e-17 0.000000000000000e+00
					-5.000000000000000e-01 2.775557561562891e-17 0.000000000000000e+00
					-2.500000000000000e-01 2.775557561562891e-17 0.000000000000000e+00
					-5.000000000000000e-01 2.500000000000000e-01 0.000000000000000e+00
					-2.500000000000000e-01 2.500000000000000e-01 0.000000000000000e+00
					-2.500000000000000e-01 2.775557561562891e-17 0.000000000000000e+00
					2.775557561562891e-17 2.775557561562891e-17 0.000000000000000e+00
					-2.500000000000000e-01 2.500000000000000e-01 0.000000000000000e+00
					2.775557561562891e-17 2.500000000000000e-01 0.000000000000000e+00
					2.775557561562891e-17 2.775557561562891e-17 0.000000000000000e+00
					2.500000000000000e-01 2.775557561562891e-17 0.000000000000000e+00
					2.775557561562891e-17 2.500000000000000e-01 0.000000000000000e+00
					2.500000000000000e-01 2.500000000000000e-01 0.000000000000000e+00
					2.500000000000000e-01 2.775557561562891e-17 0.000000000000000e+00
					5.000000000000000e-01 2.775557561562891e-17 0.000000000000000e+00
					2.500000000000000e-01 2.500000000000000e-01 0.000000000000000e+00
					5.000000000000000e-01 2.500000000000000e-01 0.000000000000000e+00
					-5.000000000000000e-01 2.500000000000000e-01 0.000000000000000e+00
					-2.500000000000000e-01 2.500000000000000e-01 0.000000000000000e+00
					-5.000000000000000e-01 5.000000000000000e-01 0.000000000000000e+00
					-2.500000000000000e-01 5.000000000000000e-01 0.000000000000000e+00
					-2.500000000000000e-01 2.500000000000000e-01 0.000000000000000e+00
					2.775557561562891e-17 2.500000000000000e-01 0.000000000000000e+00
					-2.500000000000000e-01 5.000000000000000e-01 0.000000000000000e+00
					2.775557561562891e-17 5.000000000000000e-01 0.000000000000000e+00
					2.775557561562891e-17 2.500000000000000e-01 0.000000000000000e+00
					2.500000000000000e-01 2.500000000000000e-01 0.000000000000000e+00
					2.775557561562891e-17 5.000000000000000e-01 0.000000000000000e+00
					2.500000000000000e-01 5.000000000000000e-01 0.000000000000000e+00
					2.500000000000000e-01 2.500000000000000e-01 0.000000000000000e+00
					5.000000000000000e-01 2.500000000000000e-01 0.000000000000000e+00
					2.500000000000000e-01 5.000000000000000e-01 0.000000000000000e+00
					5.000000000000000e-01 5.000000000000000e-01 0.000000000000000e+00
				</DataArray>
			</Points>
			<Cells>
				<DataArray Name="connectivity" type="UInt32" format="ascii">
					0 1 3 2 4 5 7 6 8 9 11 10 12 13 15 14 16 17 19 18 20 21 23 22 24 25 27 26 28 29 31 30 32 33 35 34 36 37 39 38 40 41 43 42 44 45 47 46 48 49 51 50 52 53 55 54 56 57 59 58 60 61 63 62 
				</DataArray>
				<DataArray Name="offsets" type="UInt32" format="ascii">
					4 8 12 16 20 24 28 32 36 40 44 48 52 56 60 64 
				</DataArray>
				<DataArray Name="types" type="UInt8" format="ascii">
					9 9 9 9 9 9 9 9 9 9 9 9 9 9 9 9 
				</DataArray>
			</Cells>
			<PointData Vectors="solution ">
				<DataArray Name="solution" type="Float64" NumberOfComponents="1" format="ascii">
					1.572074787996590e+00 3.435499499196198e+00 4.484407859100481e+00 8.904307511227717e+00 3.435499499196198e+00 5.201512904351102e+00 8.904307511227717e+00 1.311790732260432e+01 5.201512904351102e+00 5.731052357250256e+00 1.311790732260432e+01 1.481998789408420e+01 5.731052357250256e+00 4.380235073645569e+00 1.481998789408420e+01 1.222833623854027e+01 4.484407859100481e+00 8.904307511227717e+00 8.658898894966566e+00 1.703022203803983e+01 8.904307511227717e+00 1.311790732260432e+01 1.703022203803983e+01 2.518796682978183e+01 1.311790732260432e+01 1.481998789408420e+01 2.518796682978183e+01 2.829377517864334e+01 1.481998789408420e+01 1.222833623854027e+01 2.829377517864334e+01 2.367013684917130e+01 8.658898894966566e+00 1.703022203803983e+01 1.221361026384933e+01 2.454167359574128e+01 1.703022203803983e+01 2.518796682978183e+01 2.454167359574128e+01 3.636533312080893e+01 2.518796682978183e+01 2.829377517864334e+01 3.636533312080893e+01 4.066132150793682e+01 2.829377517864334e+01 2.367013684917130e+01 4.066132150793682e+01 3.329054481648159e+01 1.221361026384933e+01 2.454167359574128e+01 1.197283322905046e+01 2.577698832666781e+01 2.454167359574128e+01 3.636533312080893e+01 2.577698832666781e+01 3.894774586756660e+01 3.636533312080893e+01 4.066132150793682e+01 3.894774586756660e+01 4.264524865727800e+01 4.066132150793682e+01 3.329054481648159e+01 4.264524865727800e+01 3.275820124302930e+01 
				</DataArray>
			</PointData>
			<CellData>
			</CellData>
		</Piece>
	</UnstructuredGrid>
</VTKFile>