1 0
2 0
3 0
4 0
5 0
6 0
7 0
8 0
9 0
10 0
11 0
12 0
13 0
14 0
15 0
16 0
17 0
18 0
19 0
20 0
21 0
22 0
23 0
24 0
25 0
26 0
27 0
28 0
29 0
30 0
31 0
32 0
33 0
34 0
35 0
36 0
37 0
38 0
39 0
40 0
41 0
42 0
43 0
44 0
45 0
46 0
47 0
48 0
49 0
50 0
51 0
52 0
53 0
54 0
55 0
56 0
57 0
58 0
59 0
60 0
61 0
62 0
63 0
64 0
65 0
66 0
67 0
68 0
69 0
70 0
71 0
72 0
73 0
74 0
75 0
76 0
77 0
78 0
79 0
80 0
81 0
82 0
83 0
84 0
85 0
86 0
87 0
88 0
89 0
90 0
91 0
92 0
93 0
94 0
95 0
96 0
97 0
98 0
99 0
100 0
101 0
102 0
103 0
104 0
105 0
106 0
107 0
108 0
109 0
110 0
111 0
112 0
113 0
114 0
115 0
116 0
117 0
118 0
119 0
120 0
121 0
122 0
123 0
124 0
125 0
126 0
127 0
128 0
129 0
130 0
131 0
132 0
133 0
134 0
135 0
136 0
137 0
138 0
139 0
140 0
141 0
142 0
143 0
144 0
145 0
146 0
147 0
148 0
149 0
150 0
151 0
152 0
153 0
154 0
155 0
156 0
157 0
158 0
159 0
160 0
161 0
162 0
163 0
164 0
165 0
166 0
167 0
168 0
169 0
170 0
171 0
172 0
173 0
174 0
175 0
176 0
177 0
178 0
179 0
180 0
181 0
182 0
183 0
184 0
185 0
186 0
187 0
188 0
189 0
190 0
191 0
192 0
193 0
194 0
195 0
196 0
197 0
198 0
199 0
200 0
201 0
202 0
203 0
204 0
205 0
206 0
207 0
208 0
209 0
210 0
211 0
212 0
213 0
214 0
215 0
216 0
217 0
218 0
219 0
220 0
221 0
222 0
223 0
224 0
225 0
226 0
227 0
228 0
229 0
230 0
231 0
232 0
233 0
234 0
235 0
236 0
237 0
238 0
239 0
240 0
241 0
242 0
243 0
244 0
245 0
246 0
247 0
248 0
249 0
250 0
251 0
252 0
253 0
254 0
255 0
256 0
257 0
258 0
259 0
260 0
261 0
262 0
263 0
264 0
265 0
266 0
267 0
268 0
269 0
270 0
271 0
272 0
273 0
274 0
275 0
276 0
277 0
278 0
279 0
280 0
281 0
282 0
283 0
284 0
285 0
286 0
287 0
288 0
289 0
290 0
291 0
292 0
293 0
294 0
295 0
296 0
297 0
298 0
299 0
300 0
301 0
302 0
303 0
304 0
305 0
306 0
307 0
308 0
309 0
310 0
311 0
312 0
313 0
314 0
315 0
316 0
317 0
318 0
319 0
320 0
321 0
322 0
323 0
324 0
325 0
326 0
327 0
328 0
329 0
330 0
331 0
332 0
333 0
334 0
335 0
336 0
337 0
338 0
339 0
340 0
341 0
342 0
343 0
344 0
345 0
346 0
347 0
348 0
349 0
350 0
351 0
352 0
353 0
354 0
355 0
356 0
357 0
358 0
359 0
360 0
361 0
362 0
363 0
364 0
365 0
366 0
367 0
368 0
369 0
370 0
371 0
372 0
373 0
374 0
375 0
376 0
377 0
378 0
379 0
380 0
381 0
382 0
383 0
384 0
385 0
386 0
387 0
388 0
389 0
390 0
391 0
392 0
393 0
394 0
395 0
396 0
397 0
398 0
399 0
400 0
401 0
402 0
403 0
404 0
405 0
406 0
407 0
408 0
409 0
410 0
411 0
412 0
413 0
414 0
415 0
416 0
417 0
418 0
419 0
420 0
421 0
422 0
423 0
424 0
425 0
426 0
427 0
428 0
429 0
430 0
431 0
432 0
433 0
434 0
435 0
436 0
437 0
438 0
439 0
440 0
441 0
442 0
443 0
444 0
445 0
446 0
447 0
448 0
449 0
450 0
451 0
452 0
453 0
454 0
455 0
456 0
457 0
458 0
459 0
460 0
461 0
462 0
463 0
464 0
465 0
466 0
467 0
468 0
469 0
470 0
471 0
472 0
473 0
474 0
475 0
476 0
477 0
478 0
479 0
480 0
481 0
482 0
483 0
484 0
485 0
486 0
487 0
488 0
489 0
490 0
491 0
492 0
493 0
494 0
495 0
496 0
497 0
498 0
499 0
500 0
501 0
502 0
503 0
504 0
505 0
506 0
507 0
508 0
509 0
510 0
511 0
512 0
513 1.000000e-15
514 1.000000e-15
515 1.000000e-15
516 1.000000e-15
517 1.000000e-15
518 2.000000e-15
519 5.000000e-15
520 1.000000e-14
521 3.300000e-14
522 3.300000e-14
523 3.800000e-14
524 4.600000e-14
525 3.470000e-13
526 3.970000e-13
527 3.990000e-13
528 5.170000e-13
529 5.950000e-13
530 6.930000e-13
531 6.950000e-13
532 7.330000e-13
533 3.160000e-12
534 3.355000e-12
535 3.365000e-12
536 3.510000e-12
537 8.670000e-12
538 9.059000e-12
539 9.067000e-12
540 9.537000e-12
541 1.112400e-11
542 1.136100e-11
543 1.138700e-11
544 1.158400e-11
545 2.682800e-11
546 2.691000e-11
547 2.691200e-11
548 2.700100e-11
549 1.230500e-10
550 1.237690e-10
551 1.237700e-10
552 1.244430e-10
553 4.382680e-10
554 4.511720e-10
555 4.511730e-10
556 4.643330e-10
557 8.217930e-10
558 8.252270e-10
559 8.252270e-10
560 8.286920e-10
561 1.880733e-09
562 1.893318e-09
563 1.893318e-09
564 1.921416e-09
565 1.958072e-09
566 2.001179e-09
567 2.001179e-09
568 2.028555e-09
569 5.231565e-09
570 5.233648e-09
571 5.233649e-09
572 5.235752e-09
573 5.264610e-09
574 5.264992e-09
575 5.264992e-09
576 5.265361e-09
577 9.763399e-09
578 9.765918e-09
579 9.765918e-09
580 9.768433e-09
581 2.319715e-08
582 2.319839e-08
583 2.319839e-08
584 2.319963e-08
585 4.186722e-04
586 4.186723e-04
587 4.186723e-04
588 4.186723e-04
589 6.783902e-04
590 6.806143e-04
591 6.806143e-04
592 6.829795e-04
593 7.683476e-04
594 7.712311e-04
595 7.712311e-04
596 7.739738e-04
597 2.052965e-03
598 2.052991e-03
599 2.052991e-03
600 2.053018e-03
601 2.997443e-03
602 3.012465e-03
603 3.012465e-03
604 3.031000e-03
605 3.192360e-03
606 3.215417e-03
607 3.215417e-03
608 3.234979e-03
609 4.933776e-03
610 4.934763e-03
611 4.934763e-03
612 4.935740e-03
613 7.701243e-03
614 7.705336e-03
615 7.705336e-03
616 7.709409e-03
617 1.104030e-02
618 1.111144e-02
619 1.111144e-02
620 1.124962e-02
621 1.134569e-02
622 1.149021e-02
623 1.149021e-02
624 1.156782e-02
625 1.301173e-02
626 1.301610e-02
627 1.301610e-02
628 1.302033e-02
629 2.275141e-02
630 2.275144e-02
631 2.275144e-02
632 2.275147e-02
633 3.986870e-02
634 3.986870e-02
635 3.986870e-02
636 3.986870e-02
637 6.553094e-02
638 6.553094e-02
639 6.553094e-02
640 6.553094e-02
641 8.601388e-02
642 8.601388e-02
643 8.601388e-02
644 8.601388e-02
645 8.719658e-02
646 8.720732e-02
647 8.720732e-02
648 8.721812e-02
649 9.739007e-02
650 9.740882e-02
651 9.740882e-02
652 9.742416e-02
653 9.797856e-02
654 9.803440e-02
655 9.803440e-02
656 9.808080e-02
657 9.819979e-02
658 9.821777e-02
659 9.821777e-02
660 9.825168e-02
661 1.063934e-01
662 1.067323e-01
663 1.067323e-01
664 1.067323e-01
665 1.067323e-01
666 1.069152e-01
667 1.069152e-01
668 1.081948e-01
669 1.082556e-01
670 1.098839e-01
671 1.098839e-01
672 1.114264e-01
673 1.114264e-01
674 1.114265e-01
675 1.114265e-01
676 1.114265e-01
677 1.117887e-01
678 1.131451e-01
679 1.131451e-01
680 1.131451e-01
681 1.131451e-01
682 1.132189e-01
683 1.132189e-01
684 1.144845e-01
685 1.147903e-01
686 1.153100e-01
687 1.153100e-01
688 1.153101e-01
689 1.153103e-01
690 1.157995e-01
691 1.157995e-01
692 1.160443e-01
693 1.160455e-01
694 1.160464e-01
695 1.160464e-01
696 1.163950e-01
697 1.176149e-01
698 1.178814e-01
699 1.178814e-01
700 1.178818e-01
701 1.178820e-01
702 1.179530e-01
703 1.179530e-01
704 1.182113e-01
705 1.190063e-01
706 1.190065e-01
707 1.190065e-01
708 1.190069e-01
709 1.195586e-01
710 1.196599e-01
711 1.196599e-01
712 1.197445e-01
713 1.198961e-01
714 1.198962e-01
715 1.198962e-01
716 1.198962e-01
717 1.204621e-01
718 1.205006e-01
719 1.205006e-01
720 1.205669e-01
721 1.207745e-01
722 1.208268e-01
723 1.208268e-01
724 1.208359e-01
725 1.208612e-01
726 1.209027e-01
727 1.209027e-01
728 1.209613e-01
729 1.212250e-01
730 1.212251e-01
731 1.212251e-01
732 1.212253e-01
733 1.219595e-01
734 1.219995e-01
735 1.219995e-01
736 1.220666e-01
737 1.220970e-01
738 1.220975e-01
739 1.220975e-01
740 1.220975e-01
741 1.221058e-01
742 1.221596e-01
743 1.221596e-01
744 1.221860e-01
745 1.229781e-01
746 1.229792e-01
747 1.229792e-01
748 1.229802e-01
749 1.233228e-01
750 1.233231e-01
751 1.233231e-01
752 1.233234e-01
753 1.235756e-01
754 1.235757e-01
755 1.235757e-01
756 1.235758e-01
757 1.237404e-01
758 1.237404e-01
759 1.237404e-01
760 1.237404e-01
761 1.238324e-01
762 1.238324e-01
763 1.238324e-01
764 1.238324e-01
