<?xml version="1.0"?>
<VTKFile type="UnstructuredGrid" byte_order="LittleEndian">
	<UnstructuredGrid>
		<Piece NumberOfPoints="256" NumberOfCells="64">
			<Points>
				<DataArray type="Float64" NumberOfComponents="3" format="ascii">
					-1.000000000000000e+00 -1.000000000000000e+00 0.000000000000000e+00
					-9.135224194504830e-01 -9.135224194504830e-01 0.000000000000000e+00
					-1.218750000000000e+00 -7.500000000000000e-01 0.000000000000000e+00
					-1.081002892985639e+00 -6.851418145878622e-01 0.000000000000000e+00
					-9.135224194504830e-01 -9.135224194504830e-01 0.000000000000000e+00
					-8.338955762008279e-01 -8.338955762008279e-01 0.000000000000000e+00
					-1.081002892985639e+00 -6.851418145878622e-01 0.000000000000000e+00
					-9.569424594039529e-01 -6.254216821506209e-01 0.000000000000000e+00
					-8.338955762008279e-01 -8.338955762008279e-01 0.000000000000000e+00
					-7.611194702510349e-01 -7.611194702510349e-01 0.000000000000000e+00
					-9.569424594039529e-01 -6.254216821506209e-01 0.000000000000000e+00
					-8.465686992549413e-01 -5.708396026882762e-01 0.000000000000000e+00
					-7.611194702510349e-01 -7.611194702510349e-01 0.000000000000000e+00
					-6.951941016011038e-01 -6.951941016011038e-01 0.000000000000000e+00
					-8.465686992549413e-01 -5.708396026882762e-01 0.000000000000000e+00
					-7.498816125386041e-01 -5.213955762008279e-01 0.000000000000000e+00
					-6.951941016011038e-01 -6.951941016011038e-01 0.000000000000000e+00
					-6.361194702510349e-01 -6.361194702510349e-01 0.000000000000000e+00
					-7.498816125386041e-01 -5.213955762008279e-01 0.000000000000000e+00
					-6.668811992549410e-01 -4.770896026882761e-01 0.000000000000000e+00
					-6.361194702510349e-01 -6.361194702510349e-01 0.000000000000000e+00
					-5.838955762008278e-01 -5.838955762008278e-01 0.000000000000000e+00
					-6.668811992549410e-01 -4.770896026882761e-01 0.000000000000000e+00
					-5.975674594039528e-01 -4.379216821506209e-01 0.000000000000000e+00
					-5.838955762008278e-01 -5.838955762008278e-01 0.000000000000000e+00
					-5.385224194504830e-01 -5.385224194504830e-01 0.000000000000000e+00
					-5.975674594039528e-01 -4.379216821506209e-01 0.000000000000000e+00
					-5.419403929856392e-01 -4.038918145878622e-01 0.000000000000000e+00
					-5.385224194504830e-01 -5.385224194504830e-01 0.000000000000000e+00
					-5.000000000000000e-01 -5.000000000000000e-01 0.000000000000000e+00
					-5.419403929856392e-01 -4.038918145878622e-01 0.000000000000000e+00
					-5.000000000000000e-01 -3.750000000000000e-01 0.000000000000000e+00
					-1.218750000000000e+00 -7.500000000000000e-01 0.000000000000000e+00
					-1.081002892985639e+00 -6.851418145878622e-01 0.000000000000000e+00
					-1.375000000000000e+00 -5.000000000000000e-01 0.000000000000000e+00
					-1.200631802653608e+00 -4.567612097252415e-01 0.000000000000000e+00
					-1.081002892985639e+00 -6.851418145878622e-01 0.000000000000000e+00
					-9.569424594039529e-01 -6.254216821506209e-01 0.000000000000000e+00
					-1.200631802653608e+00 -4.567612097252415e-01 0.000000000000000e+00
					-1.044833090263328e+00 -4.169477881004140e-01 0.000000000000000e+00
					-9.569424594039529e-01 -6.254216821506209e-01 0.000000000000000e+00
					-8.465686992549413e-01 -5.708396026882762e-01 0.000000000000000e+00
					-1.044833090263328e+00 -4.169477881004140e-01 0.000000000000000e+00
					-9.076038628291601e-01 -3.805597351255174e-01 0.000000000000000e+00
					-8.465686992549413e-01 -5.708396026882762e-01 0.000000000000000e+00
					-7.498816125386041e-01 -5.213955762008279e-01 0.000000000000000e+00
					-9.076038628291601e-01 -3.805597351255174e-01 0.000000000000000e+00
					-7.889441203511040e-01 -3.475970508005519e-01 0.000000000000000e+00
					-7.498816125386041e-01 -5.213955762008279e-01 0.000000000000000e+00
					-6.668811992549410e-01 -4.770896026882761e-01 0.000000000000000e+00
					-7.889441203511040e-01 -3.475970508005519e-01 0.000000000000000e+00
					-6.888538628291599e-01 -3.180597351255174e-01 0.000000000000000e+00
					-6.668811992549410e-01 -4.770896026882761e-01 0.000000000000000e+00
					-5.975674594039528e-01 -4.379216821506209e-01 0.000000000000000e+00
					-6.888538628291599e-01 -3.180597351255174e-01 0.000000000000000e+00
					-6.073330902633278e-01 -2.919477881004139e-01 0.000000000000000e+00
					-5.975674594039528e-01 -4.379216821506209e-01 0.000000000000000e+00
					-5.419403929856392e-01 -4.038918145878622e-01 0.000000000000000e+00
					-6.073330902633278e-01 -2.919477881004139e-01 0.000000000000000e+00
					-5.443818026536079e-01 -2.692612097252414e-01 0.000000000000000e+00
					-5.419403929856392e-01 -4.038918145878622e-01 0.000000000000000e+00
					-5.000000000000000e-01 -3.750000000000000e-01 0.000000000000000e+00
					-5.443818026536079e-01 -2.692612097252414e-01 0.000000000000000e+00
					-5.000000000000000e-01 -2.500000000000000e-01 0.000000000000000e+00
					-1.375000000000000e+00 -5.000000000000000e-01 0.000000000000000e+00
					-1.200631802653608e+00 -4.567612097252415e-01 0.000000000000000e+00
					-1.468750000000000e+00 -2.500000000000000e-01 0.000000000000000e+00
					-1.272409148454389e+00 -2.283806048626207e-01 0.000000000000000e+00
					-1.200631802653608e+00 -4.567612097252415e-01 0.000000000000000e+00
					-1.044833090263328e+00 -4.169477881004140e-01 0.000000000000000e+00
					-1.272409148454389e+00 -2.283806048626207e-01 0.000000000000000e+00
					-1.097567468778953e+00 -2.084738940502069e-01 0.000000000000000e+00
					-1.044833090263328e+00 -4.169477881004140e-01 0.000000000000000e+00
					-9.076038628291601e-01 -3.805597351255174e-01 0.000000000000000e+00
					-1.097567468778953e+00 -2.084738940502069e-01 0.000000000000000e+00
					-9.442249609736912e-01 -1.902798675627587e-01 0.000000000000000e+00
					-9.076038628291601e-01 -3.805597351255174e-01 0.000000000000000e+00
					-7.889441203511040e-01 -3.475970508005519e-01 0.000000000000000e+00
					-9.442249609736912e-01 -1.902798675627587e-01 0.000000000000000e+00
					-8.123816250386040e-01 -1.737985254002759e-01 0.000000000000000e+00
					-7.889441203511040e-01 -3.475970508005519e-01 0.000000000000000e+00
					-6.888538628291599e-01 -3.180597351255174e-01 0.000000000000000e+00
					-8.123816250386040e-01 -1.737985254002759e-01 0.000000000000000e+00
					-7.020374609736912e-01 -1.590298675627587e-01 0.000000000000000e+00
					-6.888538628291599e-01 -3.180597351255174e-01 0.000000000000000e+00
					-6.073330902633278e-01 -2.919477881004139e-01 0.000000000000000e+00
					-7.020374609736912e-01 -1.590298675627587e-01 0.000000000000000e+00
					-6.131924687789529e-01 -1.459738940502069e-01 0.000000000000000e+00
					-6.073330902633278e-01 -2.919477881004139e-01 0.000000000000000e+00
					-5.443818026536079e-01 -2.692612097252414e-01 0.000000000000000e+00
					-6.131924687789529e-01 -1.459738940502069e-01 0.000000000000000e+00
					-5.458466484543891e-01 -1.346306048626207e-01 0.000000000000000e+00
					-5.443818026536079e-01 -2.692612097252414e-01 0.000000000000000e+00
					-5.000000000000000e-01 -2.500000000000000e-01 0.000000000000000e+00
					-5.458466484543891e-01 -1.346306048626207e-01 0.000000000000000e+00
					-5.000000000000000e-01 -1.250000000000000e-01 0.000000000000000e+00
					-1.468750000000000e+00 -2.500000000000000e-01 0.000000000000000e+00
					-1.272409148454389e+00 -2.283806048626207e-01 0.000000000000000e+00
					-1.500000000000000e+00 0.000000000000000e+00 0.000000000000000e+00
					-1.296334930387983e+00 4.857225732735060e-17 0.000000000000000e+00
					-1.272409148454389e+00 -2.283806048626207e-01 0.000000000000000e+00
					-1.097567468778953e+00 -2.084738940502069e-01 0.000000000000000e+00
					-1.296334930387983e+00 4.857225732735060e-17 0.000000000000000e+00
					-1.115145594950828e+00 3.469446951953614e-17 0.000000000000000e+00
					-1.097567468778953e+00 -2.084738940502069e-01 0.000000000000000e+00
					-9.442249609736912e-01 -1.902798675627587e-01 0.000000000000000e+00
					-1.115145594950828e+00 3.469446951953614e-17 0.000000000000000e+00
					-9.564319936885350e-01 4.163336342344337e-17 0.000000000000000e+00
					-9.442249609736912e-01 -1.902798675627587e-01 0.000000000000000e+00
					-8.123816250386040e-01 -1.737985254002759e-01 0.000000000000000e+00
					-9.564319936885350e-01 4.163336342344337e-17 0.000000000000000e+00
					-8.201941266011039e-01 4.163336342344337e-17 0.000000000000000e+00
					-8.123816250386040e-01 -1.737985254002759e-01 0.000000000000000e+00
					-7.020374609736912e-01 -1.590298675627587e-01 0.000000000000000e+00
					-8.201941266011039e-01 4.163336342344337e-17 0.000000000000000e+00
					-7.064319936885349e-01 3.816391647148976e-17 0.000000000000000e+00
					-7.020374609736912e-01 -1.590298675627587e-01 0.000000000000000e+00
					-6.131924687789529e-01 -1.459738940502069e-01 0.000000000000000e+00
					-7.064319936885349e-01 3.816391647148976e-17 0.000000000000000e+00
					-6.151455949508279e-01 2.428612866367530e-17 0.000000000000000e+00
					-6.131924687789529e-01 -1.459738940502069e-01 0.000000000000000e+00
					-5.458466484543891e-01 -1.346306048626207e-01 0.000000000000000e+00
					-6.151455949508279e-01 2.428612866367530e-17 0.000000000000000e+00
					-5.463349303879830e-01 2.428612866367530e-17 0.000000000000000e+00
					-5.458466484543891e-01 -1.346306048626207e-01 0.000000000000000e+00
					-5.000000000000000e-01 -1.250000000000000e-01 0.000000000000000e+00
					-5.463349303879830e-01 2.428612866367530e-17 0.000000000000000e+00
					-5.000000000000000e-01 0.000000000000000e+00 0.000000000000000e+00
					-1.500000000000000e+00 0.000000000000000e+00 0.000000000000000e+00
					-1.296334930387983e+00 4.857225732735060e-17 0.000000000000000e+00
					-1.468750000000000e+00 2.500000000000000e-01 0.000000000000000e+00
					-1.272409148454389e+00 2.283806048626208e-01 0.000000000000000e+00
					-1.296334930387983e+00 4.857225732735060e-17 0.000000000000000e+00
					-1.115145594950828e+00 3.469446951953614e-17 0.000000000000000e+00
					-1.272409148454389e+00 2.283806048626208e-01 0.000000000000000e+00
					-1.097567468778953e+00 2.084738940502070e-01 0.000000000000000e+00
					-1.115145594950828e+00 3.469446951953614e-17 0.000000000000000e+00
					-9.564319936885350e-01 4.163336342344337e-17 0.000000000000000e+00
					-1.097567468778953e+00 2.084738940502070e-01 0.000000000000000e+00
					-9.442249609736912e-01 1.902798675627588e-01 0.000000000000000e+00
					-9.564319936885350e-01 4.163336342344337e-17 0.000000000000000e+00
					-8.201941266011039e-01 4.163336342344337e-17 0.000000000000000e+00
					-9.442249609736912e-01 1.902798675627588e-01 0.000000000000000e+00
					-8.123816250386039e-01 1.737985254002760e-01 0.000000000000000e+00
					-8.201941266011039e-01 4.163336342344337e-17 0.000000000000000e+00
					-7.064319936885349e-01 3.816391647148976e-17 0.000000000000000e+00
					-8.123816250386039e-01 1.737985254002760e-01 0.000000000000000e+00
					-7.020374609736911e-01 1.590298675627588e-01 0.000000000000000e+00
					-7.064319936885349e-01 3.816391647148976e-17 0.000000000000000e+00
					-6.151455949508279e-01 2.428612866367530e-17 0.000000000000000e+00
					-7.020374609736911e-01 1.590298675627588e-01 0.000000000000000e+00
					-6.131924687789528e-01 1.459738940502070e-01 0.000000000000000e+00
					-6.151455949508279e-01 2.428612866367530e-17 0.000000000000000e+00
					-5.463349303879830e-01 2.428612866367530e-17 0.000000000000000e+00
					-6.131924687789528e-01 1.459738940502070e-01 0.000000000000000e+00
					-5.458466484543891e-01 1.346306048626208e-01 0.000000000000000e+00
					-5.463349303879830e-01 2.428612866367530e-17 0.000000000000000e+00
					-5.000000000000000e-01 0.000000000000000e+00 0.000000000000000e+00
					-5.458466484543891e-01 1.346306048626208e-01 0.000000000000000e+00
					-5.000000000000000e-01 1.250000000000000e-01 0.000000000000000e+00
					-1.468750000000000e+00 2.500000000000000e-01 0.000000000000000e+00
					-1.272409148454389e+00 2.283806048626208e-01 0.000000000000000e+00
					-1.375000000000000e+00 5.000000000000000e-01 0.000000000000000e+00
					-1.200631802653608e+00 4.567612097252415e-01 0.000000000000000e+00
					-1.272409148454389e+00 2.283806048626208e-01 0.000000000000000e+00
					-1.097567468778953e+00 2.084738940502070e-01 0.000000000000000e+00
					-1.200631802653608e+00 4.567612097252415e-01 0.000000000000000e+00
					-1.044833090263328e+00 4.169477881004139e-01 0.000000000000000e+00
					-1.097567468778953e+00 2.084738940502070e-01 0.000000000000000e+00
					-9.442249609736912e-01 1.902798675627588e-01 0.000000000000000e+00
					-1.044833090263328e+00 4.169477881004139e-01 0.000000000000000e+00
					-9.076038628291599e-01 3.805597351255174e-01 0.000000000000000e+00
					-9.442249609736912e-01 1.902798675627588e-01 0.000000000000000e+00
					-8.123816250386039e-01 1.737985254002760e-01 0.000000000000000e+00
					-9.076038628291599e-01 3.805597351255174e-01 0.000000000000000e+00
					-7.889441203511038e-01 3.475970508005520e-01 0.000000000000000e+00
					-8.123816250386039e-01 1.737985254002760e-01 0.000000000000000e+00
					-7.020374609736911e-01 1.590298675627588e-01 0.000000000000000e+00
					-7.889441203511038e-01 3.475970508005520e-01 0.000000000000000e+00
					-6.888538628291598e-01 3.180597351255175e-01 0.000000000000000e+00
					-7.020374609736911e-01 1.590298675627588e-01 0.000000000000000e+00
					-6.131924687789528e-01 1.459738940502070e-01 0.000000000000000e+00
					-6.888538628291598e-01 3.180597351255175e-01 0.000000000000000e+00
					-6.073330902633278e-01 2.919477881004140e-01 0.000000000000000e+00
					-6.131924687789528e-01 1.459738940502070e-01 0.000000000000000e+00
					-5.458466484543891e-01 1.346306048626208e-01 0.000000000000000e+00
					-6.073330902633278e-01 2.919477881004140e-01 0.000000000000000e+00
					-5.443818026536079e-01 2.692612097252415e-01 0.000000000000000e+00
					-5.458466484543891e-01 1.346306048626208e-01 0.000000000000000e+00
					-5.000000000000000e-01 1.250000000000000e-01 0.000000000000000e+00
					-5.443818026536079e-01 2.692612097252415e-01 0.000000000000000e+00
					-5.000000000000000e-01 2.500000000000000e-01 0.000000000000000e+00
					-1.375000000000000e+00 5.000000000000000e-01 0.000000000000000e+00
					-1.200631802653608e+00 4.567612097252415e-01 0.000000000000000e+00
					-1.218750000000000e+00 7.500000000000000e-01 0.000000000000000e+00
					-1.081002892985639e+00 6.851418145878622e-01 0.000000000000000e+00
					-1.200631802653608e+00 4.567612097252415e-01 0.000000000000000e+00
					-1.044833090263328e+00 4.169477881004139e-01 0.000000000000000e+00
					-1.081002892985639e+00 6.851418145878622e-01 0.000000000000000e+00
					-9.569424594039531e-01 6.254216821506209e-01 0.000000000000000e+00
					-1.044833090263328e+00 4.169477881004139e-01 0.000000000000000e+00
					-9.076038628291599e-01 3.805597351255174e-01 0.000000000000000e+00
					-9.569424594039531e-01 6.254216821506209e-01 0.000000000000000e+00
					-8.465686992549413e-01 5.708396026882763e-01 0.000000000000000e+00
					-9.076038628291599e-01 3.805597351255174e-01 0.000000000000000e+00
					-7.889441203511038e-01 3.475970508005520e-01 0.000000000000000e+00
					-8.465686992549413e-01 5.708396026882763e-01 0.000000000000000e+00
					-7.498816125386039e-01 5.213955762008280e-01 0.000000000000000e+00
					-7.889441203511038e-01 3.475970508005520e-01 0.000000000000000e+00
					-6.888538628291598e-01 3.180597351255175e-01 0.000000000000000e+00
					-7.498816125386039e-01 5.213955762008280e-01 0.000000000000000e+00
					-6.668811992549412e-01 4.770896026882762e-01 0.000000000000000e+00
					-6.888538628291598e-01 3.180597351255175e-01 0.000000000000000e+00
					-6.073330902633278e-01 2.919477881004140e-01 0.000000000000000e+00
					-6.668811992549412e-01 4.770896026882762e-01 0.000000000000000e+00
					-5.975674594039528e-01 4.379216821506209e-01 0.000000000000000e+00
					-6.073330902633278e-01 2.919477881004140e-01 0.000000000000000e+00
					-5.443818026536079e-01 2.692612097252415e-01 0.000000000000000e+00
					-5.975674594039528e-01 4.379216821506209e-01 0.000000000000000e+00
					-5.419403929856391e-01 4.038918145878622e-01 0.000000000000000e+00
					-5.443818026536079e-01 2.692612097252415e-01 0.000000000000000e+00
					-5.000000000000000e-01 2.500000000000000e-01 0.000000000000000e+00
					-5.419403929856391e-01 4.038918145878622e-01 0.000000000000000e+00
					-5.000000000000000e-01 3.750000000000000e-01 0.000000000000000e+00
					-1.218750000000000e+00 7.500000000000000e-01 0.000000000000000e+00
					-1.081002892985639e+00 6.851418145878622e-01 0.000000000000000e+00
					-1.000000000000000e+00 1.000000000000000e+00 0.000000000000000e+00
					-9.135224194504830e-01 9.135224194504830e-01 0.000000000000000e+00
					-1.081002892985639e+00 6.851418145878622e-01 0.000000000000000e+00
					-9.569424594039531e-01 6.254216821506209e-01 0.000000000000000e+00
					-9.135224194504830e-01 9.135224194504830e-01 0.000000000000000e+00
					-8.338955762008279e-01 8.338955762008279e-01 0.000000000000000e+00
					-9.569424594039531e-01 6.254216821506209e-01 0.000000000000000e+00
					-8.465686992549413e-01 5.708396026882763e-01 0.000000000000000e+00
					-8.338955762008279e-01 8.338955762008279e-01 0.000000000000000e+00
					-7.611194702510349e-01 7.611194702510349e-01 0.000000000000000e+00
					-8.465686992549413e-01 5.708396026882763e-01 0.000000000000000e+00
					-7.498816125386039e-01 5.213955762008280e-01 0.000000000000000e+00
					-7.611194702510349e-01 7.611194702510349e-01 0.000000000000000e+00
					-6.951941016011038e-01 6.951941016011038e-01 0.000000000000000e+00
					-7.498816125386039e-01 5.213955762008280e-01 0.000000000000000e+00
					-6.668811992549412e-01 4.770896026882762e-01 0.000000000000000e+00
					-6.951941016011038e-01 6.951941016011038e-01 0.000000000000000e+00
					-6.361194702510349e-01 6.361194702510349e-01 0.000000000000000e+00
					-6.668811992549412e-01 4.770896026882762e-01 0.000000000000000e+00
					-5.975674594039528e-01 4.379216821506209e-01 0.000000000000000e+00
					-6.361194702510349e-01 6.361194702510349e-01 0.000000000000000e+00
					-5.838955762008278e-01 5.838955762008278e-01 0.000000000000000e+00
					-5.975674594039528e-01 4.379216821506209e-01 0.000000000000000e+00
					-5.419403929856391e-01 4.038918145878622e-01 0.000000000000000e+00
					-5.838955762008278e-01 5.838955762008278e-01 0.000000000000000e+00
					-5.385224194504830e-01 5.385224194504830e-01 0.000000000000000e+00
					-5.419403929856391e-01 4.038918145878622e-01 0.000000000000000e+00
					-5.000000000000000e-01 3.750000000000000e-01 0.000000000000000e+00
					-5.385224194504830e-01 5.385224194504830e-01 0.000000000000000e+00
					-5.000000000000000e-01 5.000000000000000e-01 0.000000000000000e+00
				</DataArray>
			</Points>
			<Cells>
				<DataArray Name="connectivity" type="UInt32" format="ascii">
					0 1 3 2 4 5 7 6 8 9 11 10 12 13 15 14 16 17 19 18 20 21 23 22 24 25 27 26 28 29 31 30 32 33 35 34 36 37 39 38 40 41 43 42 44 45 47 46 48 49 51 50 52 53 55 54 56 57 59 58 60 61 63 62 64 65 67 66 68 69 71 70 72 73 75 74 76 77 79 78 80 81 83 82 84 85 87 86 88 89 91 90 92 93 95 94 96 97 99 98 100 101 103 102 104 105 107 106 108 109 111 110 112 113 115 114 116 117 119 118 120 121 123 122 124 125 127 126 128 129 131 130 132 133 135 134 136 137 139 138 140 141 143 142 144 145 147 146 148 149 151 150 152 153 155 154 156 157 159 158 160 161 163 162 164 165 167 166 168 169 171 170 172 173 175 174 176 177 179 178 180 181 183 182 184 185 187 186 188 189 191 190 192 193 195 194 196 197 199 198 200 201 203 202 204 205 207 206 208 209 211 210 212 213 215 214 216 217 219 218 220 221 223 222 224 225 227 226 228 229 231 230 232 233 235 234 236 237 239 238 240 241 243 242 244 245 247 246 248 249 251 250 252 253 255 254 
				</DataArray>
				<DataArray Name="offsets" type="UInt32" format="ascii">
					4 8 12 16 20 24 28 32 36 40 44 48 52 56 60 64 68 72 76 80 84 88 92 96 100 104 108 112 116 120 124 128 132 136 140 144 148 152 156 160 164 168 172 176 180 184 188 192 196 200 204 208 212 216 220 224 228 232 236 240 244 248 252 256 
				</DataArray>
				<DataArray Name="types" type="UInt8" format="ascii">
					9 9 9 9 9 9 9 9 9 9 9 9 9 9 9 9 9 9 9 9 9 9 9 9 9 9 9 9 9 9 9 9 9 9 9 9 9 9 9 9 9 9 9 9 9 9 9 9 9 9 9 9 9 9 9 9 9 9 9 9 9 9 9 9 
				</DataArray>
			</Cells>
			<PointData Vectors="solution ">
				<DataArray Name="solution" type="Float64" NumberOfComponents="1" format="ascii">
					0.000000000000000e+00 2.623898639848499e-02 0.000000000000000e+00 3.817368116140286e-02 2.623898639848499e-02 1.066423898438762e-01 3.817368116140287e-02 1.499246302705872e-01 1.066423898438763e-01 2.437400957195068e-01 1.499246302705872e-01 3.567415982606518e-01 2.437400957195068e-01 4.400622141354598e-01 3.567415982606518e-01 6.844665206705948e-01 4.400622141354599e-01 6.981389888149792e-01 6.844665206705949e-01 1.145436511936577e+00 6.981389888149793e-01 1.020500729834115e+00 1.145436511936577e+00 1.736029317042320e+00 1.020500729834115e+00 1.409677774605103e+00 1.736029317042320e+00 2.431399206422051e+00 1.409677774605103e+00 1.868200469782023e+00 2.431399206422051e+00 3.160817966383123e+00 0.000000000000000e+00 3.817368116140287e-02 0.000000000000000e+00 4.200734723189035e-02 3.817368116140288e-02 1.499246302705872e-01 4.200734723189035e-02 1.906977898752562e-01 1.499246302705872e-01 3.567415982606518e-01 1.906977898752562e-01 5.180049097341392e-01 3.567415982606518e-01 6.844665206705949e-01 5.180049097341393e-01 1.091717120504556e+00 6.844665206705949e-01 1.145436511936577e+00 1.091717120504556e+00 1.920046841714537e+00 1.145436511936577e+00 1.736029317042320e+00 1.920046841714537e+00 2.935937000519875e+00 1.736029317042320e+00 2.431399206422051e+00 2.935937000519875e+00 4.003862305811951e+00 2.431399206422052e+00 3.160817966383124e+00 4.003862305811952e+00 4.954231179324081e+00 0.000000000000000e+00 4.200734723189035e-02 0.000000000000000e+00 5.059528438633253e-02 4.200734723189035e-02 1.906977898752562e-01 5.059528438633253e-02 2.589726005828465e-01 1.906977898752562e-01 5.180049097341393e-01 2.589726005828466e-01 7.678694618404802e-01 5.180049097341393e-01 1.091717120504556e+00 7.678694618404802e-01 1.682517765078184e+00 1.091717120504557e+00 1.920046841714537e+00 1.682517765078184e+00 2.968645796484307e+00 1.920046841714537e+00 2.935937000519875e+00 2.968645796484307e+00 4.450093062135889e+00 2.935937000519876e+00 4.003862305811952e+00 4.450093062135889e+00 5.880552014630338e+00 4.003862305811952e+00 4.954231179324081e+00 5.880552014630338e+00 7.032713715457671e+00 0.000000000000000e+00 5.059528438633253e-02 0.000000000000000e+00 6.692836834460474e-02 5.059528438633253e-02 2.589726005828466e-01 6.692836834460475e-02 3.640814201523400e-01 2.589726005828466e-01 7.678694618404802e-01 3.640814201523401e-01 1.098070475933187e+00 7.678694618404803e-01 1.682517765078184e+00 1.098070475933187e+00 2.388016033160158e+00 1.682517765078184e+00 2.968645796484307e+00 2.388016033160158e+00 4.135630218659708e+00 2.968645796484308e+00 4.450093062135890e+00 4.135630218659708e+00 6.063179562397994e+00 4.450093062135890e+00 5.880552014630338e+00 6.063179562397995e+00 7.837319961071013e+00 5.880552014630339e+00 7.032713715457672e+00 7.837319961071014e+00 9.180539110649647e+00 0.000000000000000e+00 6.692836834460475e-02 0.000000000000000e+00 9.836116162982454e-02 6.692836834460475e-02 3.640814201523401e-01 9.836116162982456e-02 5.224515373624936e-01 3.640814201523402e-01 1.098070475933187e+00 5.224515373624936e-01 1.509655276610932e+00 1.098070475933187e+00 2.388016033160158e+00 1.509655276610932e+00 3.151266981619507e+00 2.388016033160159e+00 4.135630218659708e+00 3.151266981619507e+00 5.285939992896762e+00 4.135630218659708e+00 6.063179562397994e+00 5.285939992896762e+00 7.571552112738064e+00 6.063179562397995e+00 7.837319961071015e+00 7.571552112738065e+00 9.631687248020706e+00 7.837319961071016e+00 9.180539110649649e+00 9.631687248020706e+00 1.115822213160453e+01 0.000000000000000e+00 9.836116162982456e-02 0.000000000000000e+00 1.590020710249807e-01 9.836116162982456e-02 5.224515373624936e-01 1.590020710249807e-01 7.639450290557718e-01 5.224515373624937e-01 1.509655276610932e+00 7.639450290557718e-01 1.996513250940174e+00 1.509655276610932e+00 3.151266981619507e+00 1.996513250940175e+00 3.879099436352493e+00 3.151266981619508e+00 5.285939992896762e+00 3.879099436352493e+00 6.223102532143569e+00 5.285939992896763e+00 7.571552112738065e+00 6.223102532143571e+00 8.695844196834074e+00 7.571552112738066e+00 9.631687248020706e+00 8.695844196834074e+00 1.092847758678189e+01 9.631687248020707e+00 1.115822213160453e+01 1.092847758678189e+01 1.263124277367744e+01 0.000000000000000e+00 1.590020710249807e-01 0.000000000000000e+00 2.767204259081203e-01 1.590020710249807e-01 7.639450290557718e-01 2.767204259081203e-01 1.101061746379493e+00 7.639450290557718e-01 1.996513250940175e+00 1.101061746379493e+00 2.498168546245952e+00 1.996513250940175e+00 3.879099436352493e+00 2.498168546245952e+00 4.402845822021300e+00 3.879099436352493e+00 6.223102532143571e+00 4.402845822021302e+00 6.667224180235516e+00 6.223102532143573e+00 8.695844196834074e+00 6.667224180235518e+00 9.076631316800640e+00 8.695844196834075e+00 1.092847758678189e+01 9.076631316800643e+00 1.135966705149966e+01 1.092847758678189e+01 1.263124277367744e+01 1.135966705149966e+01 1.324132223555632e+01 0.000000000000000e+00 2.767204259081203e-01 0.000000000000000e+00 3.293073955910698e-01 2.767204259081204e-01 1.101061746379493e+00 3.293073955910698e-01 1.241823619579375e+00 1.101061746379493e+00 2.498168546245952e+00 1.241823619579375e+00 2.624439516444281e+00 2.498168546245952e+00 4.402845822021302e+00 2.624439516444281e+00 4.364045695826915e+00 4.402845822021303e+00 6.667224180235518e+00 4.364045695826915e+00 6.347532618519027e+00 6.667224180235518e+00 9.076631316800642e+00 6.347532618519027e+00 8.461790673767787e+00 9.076631316800643e+00 1.135966705149966e+01 8.461790673767789e+00 1.059371022534641e+01 1.135966705149966e+01 1.324132223555632e+01 1.059371022534641e+01 1.263018163167478e+01 
				</DataArray>
			</PointData>
			<CellData>
			</CellData>
		</Piece>
	</UnstructuredGrid>
</VTKFile>