<?xml version="1.0"?>
<VTKFile type="UnstructuredGrid" byte_order="LittleEndian">
	<UnstructuredGrid>
		<Piece NumberOfPoints="256" NumberOfCells="64">
			<Points>
				<DataArray type="Float64" NumberOfComponents="3" format="ascii">
					-1.000000000000000e+00 -1.000000000000000e+00 0.000000000000000e+00
					-7.500000000000000e-01 -1.218750000000000e+00 0.000000000000000e+00
					-9.135224194504830e-01 -9.135224194504830e-01 0.000000000000000e+00
					-6.851418145878622e-01 -1.081002892985639e+00 0.000000000000000e+00
					-7.500000000000000e-01 -1.218750000000000e+00 0.000000000000000e+00
					-5.000000000000000e-01 -1.375000000000000e+00 0.000000000000000e+00
					-6.851418145878622e-01 -1.081002892985639e+00 0.000000000000000e+00
					-4.567612097252415e-01 -1.200631802653608e+00 0.000000000000000e+00
					-5.000000000000000e-01 -1.375000000000000e+00 0.000000000000000e+00
					-2.500000000000000e-01 -1.468750000000000e+00 0.000000000000000e+00
					-4.567612097252415e-01 -1.200631802653608e+00 0.000000000000000e+00
					-2.283806048626207e-01 -1.272409148454389e+00 0.000000000000000e+00
					-2.500000000000000e-01 -1.468750000000000e+00 0.000000000000000e+00
					0.000000000000000e+00 -1.500000000000000e+00 0.000000000000000e+00
					-2.283806048626207e-01 -1.272409148454389e+00 0.000000000000000e+00
					1.040834085586084e-17 -1.296334930387983e+00 0.000000000000000e+00
					0.000000000000000e+00 -1.500000000000000e+00 0.000000000000000e+00
					2.500000000000000e-01 -1.468750000000000e+00 0.000000000000000e+00
					1.040834085586084e-17 -1.296334930387983e+00 0.000000000000000e+00
					2.283806048626208e-01 -1.272409148454389e+00 0.000000000000000e+00
					2.500000000000000e-01 -1.468750000000000e+00 0.000000000000000e+00
					5.000000000000000e-01 -1.375000000000000e+00 0.000000000000000e+00
					2.283806048626208e-01 -1.272409148454389e+00 0.000000000000000e+00
					4.567612097252415e-01 -1.200631802653608e+00 0.000000000000000e+00
					5.000000000000000e-01 -1.375000000000000e+00 0.000000000000000e+00
					7.500000000000000e-01 -1.218750000000000e+00 0.000000000000000e+00
					4.567612097252415e-01 -1.200631802653608e+00 0.000000000000000e+00
					6.851418145878623e-01 -1.081002892985639e+00 0.000000000000000e+00
					7.500000000000000e-01 -1.218750000000000e+00 0.000000000000000e+00
					1.000000000000000e+00 -1.000000000000000e+00 0.000000000000000e+00
					6.851418145878623e-01 -1.081002892985639e+00 0.000000000000000e+00
					9.135224194504830e-01 -9.135224194504830e-01 0.000000000000000e+00
					-9.135224194504830e-01 -9.135224194504830e-01 0.000000000000000e+00
					-6.851418145878622e-01 -1.081002892985639e+00 0.000000000000000e+00
					-8.338955762008279e-01 -8.338955762008279e-01 0.000000000000000e+00
					-6.254216821506209e-01 -9.569424594039528e-01 0.000000000000000e+00
					-6.851418145878622e-01 -1.081002892985639e+00 0.000000000000000e+00
					-4.567612097252415e-01 -1.200631802653608e+00 0.000000000000000e+00
					-6.254216821506209e-01 -9.569424594039528e-01 0.000000000000000e+00
					-4.169477881004140e-01 -1.044833090263328e+00 0.000000000000000e+00
					-4.567612097252415e-01 -1.200631802653608e+00 0.000000000000000e+00
					-2.283806048626207e-01 -1.272409148454389e+00 0.000000000000000e+00
					-4.169477881004140e-01 -1.044833090263328e+00 0.000000000000000e+00
					-2.084738940502070e-01 -1.097567468778953e+00 0.000000000000000e+00
					-2.283806048626207e-01 -1.272409148454389e+00 0.000000000000000e+00
					1.040834085586084e-17 -1.296334930387983e+00 0.000000000000000e+00
					-2.084738940502070e-01 -1.097567468778953e+00 0.000000000000000e+00
					1.734723475976807e-17 -1.115145594950828e+00 0.000000000000000e+00
					1.040834085586084e-17 -1.296334930387983e+00 0.000000000000000e+00
					2.283806048626208e-01 -1.272409148454389e+00 0.000000000000000e+00
					1.734723475976807e-17 -1.115145594950828e+00 0.000000000000000e+00
					2.084738940502070e-01 -1.097567468778953e+00 0.000000000000000e+00
					2.283806048626208e-01 -1.272409148454389e+00 0.000000000000000e+00
					4.567612097252415e-01 -1.200631802653608e+00 0.000000000000000e+00
					2.084738940502070e-01 -1.097567468778953e+00 0.000000000000000e+00
					4.169477881004140e-01 -1.044833090263328e+00 0.000000000000000e+00
					4.567612097252415e-01 -1.200631802653608e+00 0.000000000000000e+00
					6.851418145878623e-01 -1.081002892985639e+00 0.000000000000000e+00
					4.169477881004140e-01 -1.044833090263328e+00 0.000000000000000e+00
					6.254216821506209e-01 -9.569424594039529e-01 0.000000000000000e+00
					6.851418145878623e-01 -1.081002892985639e+00 0.000000000000000e+00
					9.135224194504830e-01 -9.135224194504830e-01 0.000000000000000e+00
					6.254216821506209e-01 -9.569424594039529e-01 0.000000000000000e+00
					8.338955762008279e-01 -8.338955762008279e-01 0.000000000000000e+00
					-8.338955762008279e-01 -8.338955762008279e-01 0.000000000000000e+00
					-6.254216821506209e-01 -9.569424594039528e-01 0.000000000000000e+00
					-7.611194702510349e-01 -7.611194702510349e-01 0.000000000000000e+00
					-5.708396026882762e-01 -8.465686992549410e-01 0.000000000000000e+00
					-6.254216821506209e-01 -9.569424594039528e-01 0.000000000000000e+00
					-4.169477881004140e-01 -1.044833090263328e+00 0.000000000000000e+00
					-5.708396026882762e-01 -8.465686992549410e-01 0.000000000000000e+00
					-3.805597351255174e-01 -9.076038628291598e-01 0.000000000000000e+00
					-4.169477881004140e-01 -1.044833090263328e+00 0.000000000000000e+00
					-2.084738940502070e-01 -1.097567468778953e+00 0.000000000000000e+00
					-3.805597351255174e-01 -9.076038628291598e-01 0.000000000000000e+00
					-1.902798675627587e-01 -9.442249609736911e-01 0.000000000000000e+00
					-2.084738940502070e-01 -1.097567468778953e+00 0.000000000000000e+00
					1.734723475976807e-17 -1.115145594950828e+00 0.000000000000000e+00
					-1.902798675627587e-01 -9.442249609736911e-01 0.000000000000000e+00
					2.428612866367530e-17 -9.564319936885348e-01 0.000000000000000e+00
					1.734723475976807e-17 -1.115145594950828e+00 0.000000000000000e+00
					2.084738940502070e-01 -1.097567468778953e+00 0.000000000000000e+00
					2.428612866367530e-17 -9.564319936885348e-01 0.000000000000000e+00
					1.902798675627587e-01 -9.442249609736911e-01 0.000000000000000e+00
					2.084738940502070e-01 -1.097567468778953e+00 0.000000000000000e+00
					4.169477881004140e-01 -1.044833090263328e+00 0.000000000000000e+00
					1.902798675627587e-01 -9.442249609736911e-01 0.000000000000000e+00
					3.805597351255174e-01 -9.076038628291599e-01 0.000000000000000e+00
					4.169477881004140e-01 -1.044833090263328e+00 0.000000000000000e+00
					6.254216821506209e-01 -9.569424594039529e-01 0.000000000000000e+00
					3.805597351255174e-01 -9.076038628291599e-01 0.000000000000000e+00
					5.708396026882762e-01 -8.465686992549410e-01 0.000000000000000e+00
					6.254216821506209e-01 -9.569424594039529e-01 0.000000000000000e+00
					8.338955762008279e-01 -8.338955762008279e-01 0.000000000000000e+00
					5.708396026882762e-01 -8.465686992549410e-01 0.000000000000000e+00
					7.611194702510349e-01 -7.611194702510349e-01 0.000000000000000e+00
					-7.611194702510349e-01 -7.611194702510349e-01 0.000000000000000e+00
					-5.708396026882762e-01 -8.465686992549410e-01 0.000000000000000e+00
					-6.951941016011038e-01 -6.951941016011038e-01 0.000000000000000e+00
					-5.213955762008279e-01 -7.498816125386039e-01 0.000000000000000e+00
					-5.708396026882762e-01 -8.465686992549410e-01 0.000000000000000e+00
					-3.805597351255174e-01 -9.076038628291598e-01 0.000000000000000e+00
					-5.213955762008279e-01 -7.498816125386039e-01 0.000000000000000e+00
					-3.475970508005519e-01 -7.889441203511038e-01 0.000000000000000e+00
					-3.805597351255174e-01 -9.076038628291598e-01 0.000000000000000e+00
					-1.902798675627587e-01 -9.442249609736911e-01 0.000000000000000e+00
					-3.475970508005519e-01 -7.889441203511038e-01 0.000000000000000e+00
					-1.737985254002760e-01 -8.123816250386038e-01 0.000000000000000e+00
					-1.902798675627587e-01 -9.442249609736911e-01 0.000000000000000e+00
					2.428612866367530e-17 -9.564319936885348e-01 0.000000000000000e+00
					-1.737985254002760e-01 -8.123816250386038e-01 0.000000000000000e+00
					2.428612866367530e-17 -8.201941266011038e-01 0.000000000000000e+00
					2.428612866367530e-17 -9.564319936885348e-01 0.000000000000000e+00
					1.902798675627587e-01 -9.442249609736911e-01 0.000000000000000e+00
					2.428612866367530e-17 -8.201941266011038e-01 0.000000000000000e+00
					1.737985254002760e-01 -8.123816250386038e-01 0.000000000000000e+00
					1.902798675627587e-01 -9.442249609736911e-01 0.000000000000000e+00
					3.805597351255174e-01 -9.076038628291599e-01 0.000000000000000e+00
					1.737985254002760e-01 -8.123816250386038e-01 0.000000000000000e+00
					3.475970508005519e-01 -7.889441203511038e-01 0.000000000000000e+00
					3.805597351255174e-01 -9.076038628291599e-01 0.000000000000000e+00
					5.708396026882762e-01 -8.465686992549410e-01 0.000000000000000e+00
					3.475970508005519e-01 -7.889441203511038e-01 0.000000000000000e+00
					5.213955762008279e-01 -7.498816125386039e-01 0.000000000000000e+00
					5.708396026882762e-01 -8.465686992549410e-01 0.000000000000000e+00
					7.611194702510349e-01 -7.611194702510349e-01 0.000000000000000e+00
					5.213955762008279e-01 -7.498816125386039e-01 0.000000000000000e+00
					6.951941016011038e-01 -6.951941016011038e-01 0.000000000000000e+00
					-6.951941016011038e-01 -6.951941016011038e-01 0.000000000000000e+00
					-5.213955762008279e-01 -7.498816125386039e-01 0.000000000000000e+00
					-6.361194702510349e-01 -6.361194702510349e-01 0.000000000000000e+00
					-4.770896026882762e-01 -6.668811992549410e-01 0.000000000000000e+00
					-5.213955762008279e-01 -7.498816125386039e-01 0.000000000000000e+00
					-3.475970508005519e-01 -7.889441203511038e-01 0.000000000000000e+00
					-4.770896026882762e-01 -6.668811992549410e-01 0.000000000000000e+00
					-3.180597351255174e-01 -6.888538628291598e-01 0.000000000000000e+00
					-3.475970508005519e-01 -7.889441203511038e-01 0.000000000000000e+00
					-1.737985254002760e-01 -8.123816250386038e-01 0.000000000000000e+00
					-3.180597351255174e-01 -6.888538628291598e-01 0.000000000000000e+00
					-1.590298675627587e-01 -7.020374609736910e-01 0.000000000000000e+00
					-1.737985254002760e-01 -8.123816250386038e-01 0.000000000000000e+00
					2.428612866367530e-17 -8.201941266011038e-01 0.000000000000000e+00
					-1.590298675627587e-01 -7.020374609736910e-01 0.000000000000000e+00
					1.734723475976807e-17 -7.064319936885348e-01 0.000000000000000e+00
					2.428612866367530e-17 -8.201941266011038e-01 0.000000000000000e+00
					1.737985254002760e-01 -8.123816250386038e-01 0.000000000000000e+00
					1.734723475976807e-17 -7.064319936885348e-01 0.000000000000000e+00
					1.590298675627587e-01 -7.020374609736910e-01 0.000000000000000e+00
					1.737985254002760e-01 -8.123816250386038e-01 0.000000000000000e+00
					3.475970508005519e-01 -7.889441203511038e-01 0.000000000000000e+00
					1.590298675627587e-01 -7.020374609736910e-01 0.000000000000000e+00
					3.180597351255174e-01 -6.888538628291598e-01 0.000000000000000e+00
					3.475970508005519e-01 -7.889441203511038e-01 0.000000000000000e+00
					5.213955762008279e-01 -7.498816125386039e-01 0.000000000000000e+00
					3.180597351255174e-01 -6.888538628291598e-01 0.000000000000000e+00
					4.770896026882762e-01 -6.668811992549412e-01 0.000000000000000e+00
					5.213955762008279e-01 -7.498816125386039e-01 0.000000000000000e+00
					6.951941016011038e-01 -6.951941016011038e-01 0.000000000000000e+00
					4.770896026882762e-01 -6.668811992549412e-01 0.000000000000000e+00
					6.361194702510349e-01 -6.361194702510349e-01 0.000000000000000e+00
					-6.361194702510349e-01 -6.361194702510349e-01 0.000000000000000e+00
					-4.770896026882762e-01 -6.668811992549410e-01 0.000000000000000e+00
					-5.838955762008278e-01 -5.838955762008278e-01 0.000000000000000e+00
					-4.379216821506209e-01 -5.975674594039528e-01 0.000000000000000e+00
					-4.770896026882762e-01 -6.668811992549410e-01 0.000000000000000e+00
					-3.180597351255174e-01 -6.888538628291598e-01 0.000000000000000e+00
					-4.379216821506209e-01 -5.975674594039528e-01 0.000000000000000e+00
					-2.919477881004139e-01 -6.073330902633278e-01 0.000000000000000e+00
					-3.180597351255174e-01 -6.888538628291598e-01 0.000000000000000e+00
					-1.590298675627587e-01 -7.020374609736910e-01 0.000000000000000e+00
					-2.919477881004139e-01 -6.073330902633278e-01 0.000000000000000e+00
					-1.459738940502069e-01 -6.131924687789527e-01 0.000000000000000e+00
					-1.590298675627587e-01 -7.020374609736910e-01 0.000000000000000e+00
					1.734723475976807e-17 -7.064319936885348e-01 0.000000000000000e+00
					-1.459738940502069e-01 -6.131924687789527e-01 0.000000000000000e+00
					1.040834085586084e-17 -6.151455949508278e-01 0.000000000000000e+00
					1.734723475976807e-17 -7.064319936885348e-01 0.000000000000000e+00
					1.590298675627587e-01 -7.020374609736910e-01 0.000000000000000e+00
					1.040834085586084e-17 -6.151455949508278e-01 0.000000000000000e+00
					1.459738940502070e-01 -6.131924687789527e-01 0.000000000000000e+00
					1.590298675627587e-01 -7.020374609736910e-01 0.000000000000000e+00
					3.180597351255174e-01 -6.888538628291598e-01 0.000000000000000e+00
					1.459738940502070e-01 -6.131924687789527e-01 0.000000000000000e+00
					2.919477881004139e-01 -6.073330902633278e-01 0.000000000000000e+00
					3.180597351255174e-01 -6.888538628291598e-01 0.000000000000000e+00
					4.770896026882762e-01 -6.668811992549412e-01 0.000000000000000e+00
					2.919477881004139e-01 -6.073330902633278e-01 0.000000000000000e+00
					4.379216821506209e-01 -5.975674594039528e-01 0.000000000000000e+00
					4.770896026882762e-01 -6.668811992549412e-01 0.000000000000000e+00
					6.361194702510349e-01 -6.361194702510349e-01 0.000000000000000e+00
					4.379216821506209e-01 -5.975674594039528e-01 0.000000000000000e+00
					5.838955762008278e-01 -5.838955762008278e-01 0.000000000000000e+00
					-5.838955762008278e-01 -5.838955762008278e-01 0.000000000000000e+00
					-4.379216821506209e-01 -5.975674594039528e-01 0.000000000000000e+00
					-5.385224194504830e-01 -5.385224194504830e-01 0.000000000000000e+00
					-4.038918145878622e-01 -5.419403929856392e-01 0.000000000000000e+00
					-4.379216821506209e-01 -5.975674594039528e-01 0.000000000000000e+00
					-2.919477881004139e-01 -6.073330902633278e-01 0.000000000000000e+00
					-4.038918145878622e-01 -5.419403929856392e-01 0.000000000000000e+00
					-2.692612097252414e-01 -5.443818026536078e-01 0.000000000000000e+00
					-2.919477881004139e-01 -6.073330902633278e-01 0.000000000000000e+00
					-1.459738940502069e-01 -6.131924687789527e-01 0.000000000000000e+00
					-2.692612097252414e-01 -5.443818026536078e-01 0.000000000000000e+00
					-1.346306048626207e-01 -5.458466484543891e-01 0.000000000000000e+00
					-1.459738940502069e-01 -6.131924687789527e-01 0.000000000000000e+00
					1.040834085586084e-17 -6.151455949508278e-01 0.000000000000000e+00
					-1.346306048626207e-01 -5.458466484543891e-01 0.000000000000000e+00
					3.469446951953614e-18 -5.463349303879829e-01 0.000000000000000e+00
					1.040834085586084e-17 -6.151455949508278e-01 0.000000000000000e+00
					1.459738940502070e-01 -6.131924687789527e-01 0.000000000000000e+00
					3.469446951953614e-18 -5.463349303879829e-01 0.000000000000000e+00
					1.346306048626207e-01 -5.458466484543891e-01 0.000000000000000e+00
					1.459738940502070e-01 -6.131924687789527e-01 0.000000000000000e+00
					2.919477881004139e-01 -6.073330902633278e-01 0.000000000000000e+00
					1.346306048626207e-01 -5.458466484543891e-01 0.000000000000000e+00
					2.692612097252414e-01 -5.443818026536079e-01 0.000000000000000e+00
					2.919477881004139e-01 -6.073330902633278e-01 0.000000000000000e+00
					4.379216821506209e-01 -5.975674594039528e-01 0.000000000000000e+00
					2.692612097252414e-01 -5.443818026536079e-01 0.000000000000000e+00
					4.038918145878622e-01 -5.419403929856392e-01 0.000000000000000e+00
					4.379216821506209e-01 -5.975674594039528e-01 0.000000000000000e+00
					5.838955762008278e-01 -5.838955762008278e-01 0.000000000000000e+00
					4.038918145878622e-01 -5.419403929856392e-01 0.000000000000000e+00
					5.385224194504830e-01 -5.385224194504830e-01 0.000000000000000e+00
					-5.385224194504830e-01 -5.385224194504830e-01 0.000000000000000e+00
					-4.038918145878622e-01 -5.419403929856392e-01 0.000000000000000e+00
					-5.000000000000000e-01 -5.000000000000000e-01 0.000000000000000e+00
					-3.750000000000000e-01 -5.000000000000000e-01 0.000000000000000e+00
					-4.038918145878622e-01 -5.419403929856392e-01 0.000000000000000e+00
					-2.692612097252414e-01 -5.443818026536078e-01 0.000000000000000e+00
					-3.750000000000000e-01 -5.000000000000000e-01 0.000000000000000e+00
					-2.500000000000000e-01 -5.000000000000000e-01 0.000000000000000e+00
					-2.692612097252414e-01 -5.443818026536078e-01 0.000000000000000e+00
					-1.346306048626207e-01 -5.458466484543891e-01 0.000000000000000e+00
					-2.500000000000000e-01 -5.000000000000000e-01 0.000000000000000e+00
					-1.250000000000000e-01 -5.000000000000000e-01 0.000000000000000e+00
					-1.346306048626207e-01 -5.458466484543891e-01 0.000000000000000e+00
					3.469446951953614e-18 -5.463349303879829e-01 0.000000000000000e+00
					-1.250000000000000e-01 -5.000000000000000e-01 0.000000000000000e+00
					0.000000000000000e+00 -5.000000000000000e-01 0.000000000000000e+00
					3.469446951953614e-18 -5.463349303879829e-01 0.000000000000000e+00
					1.346306048626207e-01 -5.458466484543891e-01 0.000000000000000e+00
					0.000000000000000e+00 -5.000000000000000e-01 0.000000000000000e+00
					1.250000000000000e-01 -5.000000000000000e-01 0.000000000000000e+00
					1.346306048626207e-01 -5.458466484543891e-01 0.000000000000000e+00
					2.692612097252414e-01 -5.443818026536079e-01 0.000000000000000e+00
					1.250000000000000e-01 -5.000000000000000e-01 0.000000000000000e+00
					2.500000000000000e-01 -5.000000000000000e-01 0.000000000000000e+00
					2.692612097252414e-01 -5.443818026536079e-01 0.000000000000000e+00
					4.038918145878622e-01 -5.419403929856392e-01 0.000000000000000e+00
					2.500000000000000e-01 -5.000000000000000e-01 0.000000000000000e+00
					3.750000000000000e-01 -5.000000000000000e-01 0.000000000000000e+00
					4.038918145878622e-01 -5.419403929856392e-01 0.000000000000000e+00
					5.385224194504830e-01 -5.385224194504830e-01 0.000000000000000e+00
					3.750000000000000e-01 -5.000000000000000e-01 0.000000000000000e+00
					5.000000000000000e-01 -5.000000000000000e-01 0.000000000000000e+00
				</DataArray>
			</Points>
			<Cells>
				<DataArray Name="connectivity" type="UInt32" format="ascii">
					0 1 3 2 4 5 7 6 8 9 11 10 12 13 15 14 16 17 19 18 20 21 23 22 24 25 27 26 28 29 31 30 32 33 35 34 36 37 39 38 40 41 43 42 44 45 47 46 48 49 51 50 52 53 55 54 56 57 59 58 60 61 63 62 64 65 67 66 68 69 71 70 72 73 75 74 76 77 79 78 80 81 83 82 84 85 87 86 88 89 91 90 92 93 95 94 96 97 99 98 100 101 103 102 104 105 107 106 108 109 111 110 112 113 115 114 116 117 119 118 120 121 123 122 124 125 127 126 128 129 131 130 132 133 135 134 136 137 139 138 140 141 143 142 144 145 147 146 148 149 151 150 152 153 155 154 156 157 159 158 160 161 163 162 164 165 167 166 168 169 171 170 172 173 175 174 176 177 179 178 180 181 183 182 184 185 187 186 188 189 191 190 192 193 195 194 196 197 199 198 200 201 203 202 204 205 207 206 208 209 211 210 212 213 215 214 216 217 219 218 220 221 223 222 224 225 227 226 228 229 231 230 232 233 235 234 236 237 239 238 240 241 243 242 244 245 247 246 248 249 251 250 252 253 255 254 
				</DataArray>
				<DataArray Name="offsets" type="UInt32" format="ascii">
					4 8 12 16 20 24 28 32 36 40 44 48 52 56 60 64 68 72 76 80 84 88 92 96 100 104 108 112 116 120 124 128 132 136 140 144 148 152 156 160 164 168 172 176 180 184 188 192 196 200 204 208 212 216 220 224 228 232 236 240 244 248 252 256 
				</DataArray>
				<DataArray Name="types" type="UInt8" format="ascii">
					9 9 9 9 9 9 9 9 9 9 9 9 9 9 9 9 9 9 9 9 9 9 9 9 9 9 9 9 9 9 9 9 9 9 9 9 9 9 9 9 9 9 9 9 9 9 9 9 9 9 9 9 9 9 9 9 9 9 9 9 9 9 9 9 
				</DataArray>
			</Cells>
			<PointData Vectors="solution ">
				<DataArray Name="solution" type="Float64" NumberOfComponents="1" format="ascii">
					0.000000000000000e+00 0.000000000000000e+00 2.623898639848499e-02 3.523852133611362e-02 0.000000000000000e+00 0.000000000000000e+00 3.523852133611363e-02 3.256842831722940e-02 0.000000000000000e+00 0.000000000000000e+00 3.256842831722940e-02 3.194750939834094e-02 0.000000000000000e+00 0.000000000000000e+00 3.194750939834094e-02 3.506038242154293e-02 0.000000000000000e+00 0.000000000000000e+00 3.506038242154293e-02 4.476334484924219e-02 0.000000000000000e+00 0.000000000000000e+00 4.476334484924220e-02 6.551626453056497e-02 0.000000000000000e+00 0.000000000000000e+00 6.551626453056499e-02 9.990846602874821e-02 0.000000000000000e+00 0.000000000000000e+00 9.990846602874823e-02 9.461753600310935e-02 2.623898639848499e-02 3.523852133611363e-02 1.066423898438762e-01 1.337943762300455e-01 3.523852133611364e-02 3.256842831722940e-02 1.337943762300455e-01 1.370334726806387e-01 3.256842831722941e-02 3.194750939834094e-02 1.370334726806387e-01 1.464422267206574e-01 3.194750939834095e-02 3.506038242154293e-02 1.464422267206574e-01 1.670335313077485e-01 3.506038242154293e-02 4.476334484924220e-02 1.670335313077485e-01 2.053825429114590e-01 4.476334484924221e-02 6.551626453056499e-02 2.053825429114590e-01 2.755945579000334e-01 6.551626453056500e-02 9.990846602874823e-02 2.755945579000334e-01 3.705147165218259e-01 9.990846602874823e-02 9.461753600310938e-02 3.705147165218259e-01 3.669119185165561e-01 1.066423898438763e-01 1.337943762300455e-01 2.437400957195068e-01 3.089654749291583e-01 1.337943762300455e-01 1.370334726806387e-01 3.089654749291583e-01 3.556235859041140e-01 1.370334726806387e-01 1.464422267206574e-01 3.556235859041140e-01 4.199656098848848e-01 1.464422267206574e-01 1.670335313077485e-01 4.199656098848848e-01 4.929050521141484e-01 1.670335313077485e-01 2.053825429114590e-01 4.929050521141485e-01 5.768742507265641e-01 2.053825429114590e-01 2.755945579000334e-01 5.768742507265643e-01 6.903479471724259e-01 2.755945579000334e-01 3.705147165218259e-01 6.903479471724259e-01 8.206717660288010e-01 3.705147165218259e-01 3.669119185165561e-01 8.206717660288012e-01 7.995458950053043e-01 2.437400957195068e-01 3.089654749291584e-01 4.400622141354598e-01 5.851811624295343e-01 3.089654749291584e-01 3.556235859041140e-01 5.851811624295343e-01 7.511188478973820e-01 3.556235859041140e-01 4.199656098848848e-01 7.511188478973821e-01 9.518520232579939e-01 4.199656098848848e-01 4.929050521141485e-01 9.518520232579941e-01 1.132883901101047e+00 4.929050521141485e-01 5.768742507265643e-01 1.132883901101047e+00 1.272802690620761e+00 5.768742507265643e-01 6.903479471724259e-01 1.272802690620761e+00 1.388050036608871e+00 6.903479471724260e-01 8.206717660288014e-01 1.388050036608871e+00 1.473379292682341e+00 8.206717660288014e-01 7.995458950053044e-01 1.473379292682341e+00 1.375182271942155e+00 4.400622141354599e-01 5.851811624295344e-01 6.981389888149792e-01 9.819960859000467e-01 5.851811624295346e-01 7.511188478973821e-01 9.819960859000468e-01 1.360555907869894e+00 7.511188478973823e-01 9.518520232579941e-01 1.360555907869894e+00 1.782365956753807e+00 9.518520232579941e-01 1.132883901101047e+00 1.782365956753808e+00 2.125128263955373e+00 1.132883901101048e+00 1.272802690620761e+00 2.125128263955373e+00 2.326137190112807e+00 1.272802690620761e+00 1.388050036608871e+00 2.326137190112807e+00 2.393025430986411e+00 1.388050036608871e+00 1.473379292682341e+00 2.393025430986411e+00 2.335356274450184e+00 1.473379292682341e+00 1.375182271942155e+00 2.335356274450184e+00 2.076483868043734e+00 6.981389888149793e-01 9.819960859000468e-01 1.020500729834115e+00 1.504516361925891e+00 9.819960859000471e-01 1.360555907869894e+00 1.504516361925891e+00 2.158587778052329e+00 1.360555907869894e+00 1.782365956753808e+00 2.158587778052329e+00 2.836992473330537e+00 1.782365956753809e+00 2.125128263955373e+00 2.836992473330537e+00 3.364604232576643e+00 2.125128263955373e+00 2.326137190112807e+00 3.364604232576643e+00 3.629916329103812e+00 2.326137190112807e+00 2.393025430986411e+00 3.629916329103812e+00 3.630224812746755e+00 2.393025430986412e+00 2.335356274450185e+00 3.630224812746757e+00 3.378677104068229e+00 2.335356274450185e+00 2.076483868043734e+00 3.378677104068229e+00 2.886113501132988e+00 1.020500729834115e+00 1.504516361925891e+00 1.409677774605103e+00 2.130819298446409e+00 1.504516361925891e+00 2.158587778052329e+00 2.130819298446410e+00 3.042079067754723e+00 2.158587778052330e+00 2.836992473330537e+00 3.042079067754724e+00 3.938216876311070e+00 2.836992473330537e+00 3.364604232576643e+00 3.938216876311071e+00 4.628253672772891e+00 3.364604232576645e+00 3.629916329103812e+00 4.628253672772892e+00 4.961327449174670e+00 3.629916329103812e+00 3.630224812746757e+00 4.961327449174671e+00 4.921879502747156e+00 3.630224812746757e+00 3.378677104068229e+00 4.921879502747156e+00 4.520108136122470e+00 3.378677104068229e+00 2.886113501132988e+00 4.520108136122471e+00 3.786733988260375e+00 1.409677774605103e+00 2.130819298446410e+00 1.868200469782023e+00 2.790087160551431e+00 2.130819298446410e+00 3.042079067754724e+00 2.790087160551431e+00 3.853113622463702e+00 3.042079067754724e+00 3.938216876311071e+00 3.853113622463703e+00 4.871034526003443e+00 3.938216876311071e+00 4.628253672772891e+00 4.871034526003443e+00 5.657604557936818e+00 4.628253672772892e+00 4.961327449174670e+00 5.657604557936818e+00 6.057758715214617e+00 4.961327449174671e+00 4.921879502747156e+00 6.057758715214618e+00 6.041153147117499e+00 4.921879502747156e+00 4.520108136122471e+00 6.041153147117500e+00 5.608624204325123e+00 4.520108136122471e+00 3.786733988260376e+00 5.608624204325124e+00 4.761008147119989e+00 
				</DataArray>
			</PointData>
			<CellData>
			</CellData>
		</Piece>
	</UnstructuredGrid>
</VTKFile>