1 0
2 0
3 0
4 0
5 0
6 0
7 0
8 0
9 0
10 0
11 0
12 0
13 2.455492e-01
14 2.691458e-01
15 2.691458e-01
16 2.714546e-01
17 2.986139e-01
18 3.432918e-01
19 3.432918e-01
20 4.194481e-01
21 6.329482e-01
22 6.398049e-01
23 6.463343e-01
24 6.463343e-01
25 7.195464e-01
26 7.253181e-01
27 7.253181e-01
28 7.326082e-01
