<?xml version="1.0"?>
<VTKFile type="UnstructuredGrid" byte_order="LittleEndian">
	<UnstructuredGrid>
		<Piece NumberOfPoints="64" NumberOfCells="16">
			<Points>
				<DataArray type="Float64" NumberOfComponents="3" format="ascii">
					-1.000000000000000e+00 -1.000000000000000e+00 0.000000000000000e+00
					-8.338955762008279e-01 -8.338955762008279e-01 0.000000000000000e+00
					-1.375000000000000e+00 -5.000000000000000e-01 0.000000000000000e+00
					-1.046239326200828e+00 -4.169477881004139e-01 0.000000000000000e+00
					-8.338955762008279e-01 -8.338955762008279e-01 0.000000000000000e+00
					-6.951941016011038e-01 -6.951941016011038e-01 0.000000000000000e+00
					-1.046239326200828e+00 -4.169477881004139e-01 0.000000000000000e+00
					-7.908191016011038e-01 -3.475970508005519e-01 0.000000000000000e+00
					-6.951941016011038e-01 -6.951941016011038e-01 0.000000000000000e+00
					-5.838955762008279e-01 -5.838955762008279e-01 0.000000000000000e+00
					-7.908191016011038e-01 -3.475970508005519e-01 0.000000000000000e+00
					-6.087393262008278e-01 -2.919477881004139e-01 0.000000000000000e+00
					-5.838955762008279e-01 -5.838955762008279e-01 0.000000000000000e+00
					-5.000000000000000e-01 -5.000000000000000e-01 0.000000000000000e+00
					-6.087393262008278e-01 -2.919477881004139e-01 0.000000000000000e+00
					-5.000000000000000e-01 -2.500000000000000e-01 0.000000000000000e+00
					-1.375000000000000e+00 -5.000000000000000e-01 0.000000000000000e+00
					-1.046239326200828e+00 -4.169477881004139e-01 0.000000000000000e+00
					-1.500000000000000e+00 1.387778780781446e-17 0.000000000000000e+00
					-1.117020576200828e+00 2.081668171172169e-17 0.000000000000000e+00
					-1.046239326200828e+00 -4.169477881004139e-01 0.000000000000000e+00
					-7.908191016011038e-01 -3.475970508005519e-01 0.000000000000000e+00
					-1.117020576200828e+00 2.081668171172169e-17 0.000000000000000e+00
					-8.226941016011038e-01 0.000000000000000e+00 0.000000000000000e+00
					-7.908191016011038e-01 -3.475970508005519e-01 0.000000000000000e+00
					-6.087393262008278e-01 -2.919477881004139e-01 0.000000000000000e+00
					-8.226941016011038e-01 0.000000000000000e+00 0.000000000000000e+00
					-6.170205762008278e-01 1.387778780781446e-17 0.000000000000000e+00
					-6.087393262008278e-01 -2.919477881004139e-01 0.000000000000000e+00
					-5.000000000000000e-01 -2.500000000000000e-01 0.000000000000000e+00
					-6.170205762008278e-01 1.387778780781446e-17 0.000000000000000e+00
					-5.000000000000000e-01 6.938893903907228e-18 0.000000000000000e+00
					-1.500000000000000e+00 1.387778780781446e-17 0.000000000000000e+00
					-1.117020576200828e+00 2.081668171172169e-17 0.000000000000000e+00
					-1.375000000000000e+00 5.000000000000000e-01 0.000000000000000e+00
					-1.046239326200828e+00 4.169477881004140e-01 0.000000000000000e+00
					-1.117020576200828e+00 2.081668171172169e-17 0.000000000000000e+00
					-8.226941016011038e-01 0.000000000000000e+00 0.000000000000000e+00
					-1.046239326200828e+00 4.169477881004140e-01 0.000000000000000e+00
					-7.908191016011039e-01 3.475970508005519e-01 0.000000000000000e+00
					-8.226941016011038e-01 0.000000000000000e+00 0.000000000000000e+00
					-6.170205762008278e-01 1.387778780781446e-17 0.000000000000000e+00
					-7.908191016011039e-01 3.475970508005519e-01 0.000000000000000e+00
					-6.087393262008278e-01 2.919477881004139e-01 0.000000000000000e+00
					-6.170205762008278e-01 1.387778780781446e-17 0.000000000000000e+00
					-5.000000000000000e-01 6.938893903907228e-18 0.000000000000000e+00
					-6.087393262008278e-01 2.919477881004139e-01 0.000000000000000e+00
					-5.000000000000000e-01 2.500000000000000e-01 0.000000000000000e+00
					-1.375000000000000e+00 5.000000000000000e-01 0.000000000000000e+00
					-1.046239326200828e+00 4.169477881004140e-01 0.000000000000000e+00
					-1.000000000000000e+00 1.000000000000000e+00 0.000000000000000e+00
					-8.338955762008279e-01 8.338955762008279e-01 0.000000000000000e+00
					-1.046239326200828e+00 4.169477881004140e-01 0.000000000000000e+00
					-7.908191016011039e-01 3.475970508005519e-01 0.000000000000000e+00
					-8.338955762008279e-01 8.338955762008279e-01 0.000000000000000e+00
					-6.951941016011038e-01 6.951941016011038e-01 0.000000000000000e+00
					-7.908191016011039e-01 3.475970508005519e-01 0.000000000000000e+00
					-6.087393262008278e-01 2.919477881004139e-01 0.000000000000000e+00
					-6.951941016011038e-01 6.951941016011038e-01 0.000000000000000e+00
					-5.838955762008279e-01 5.838955762008279e-01 0.000000000000000e+00
					-6.087393262008278e-01 2.919477881004139e-01 0.000000000000000e+00
					-5.000000000000000e-01 2.500000000000000e-01 0.000000000000000e+00
					-5.838955762008279e-01 5.838955762008279e-01 0.000000000000000e+00
					-5.000000000000000e-01 5.000000000000000e-01 0.000000000000000e+00
				</DataArray>
			</Points>
			<Cells>
				<DataArray Name="connectivity" type="UInt32" format="ascii">
					0 1 3 2 4 5 7 6 8 9 11 10 12 13 15 14 16 17 19 18 20 21 23 22 24 25 27 26 28 29 31 30 32 33 35 34 36 37 39 38 40 41 43 42 44 45 47 46 48 49 51 50 52 53 55 54 56 57 59 58 60 61 63 62 
				</DataArray>
				<DataArray Name="offsets" type="UInt32" format="ascii">
					4 8 12 16 20 24 28 32 36 40 44 48 52 56 60 64 
				</DataArray>
				<DataArray Name="types" type="UInt8" format="ascii">
					9 9 9 9 9 9 9 9 9 9 9 9 9 9 9 9 
				</DataArray>
			</Cells>
			<PointData Vectors="solution ">
				<DataArray Name="solution" type="Float64" NumberOfComponents="1" format="ascii">
					0.000000000000000e+00 -1.441233632629798e-02 0.000000000000000e+00 5.159817740188830e-02 -1.441233632629798e-02 9.375923551171994e-02 5.159817740188831e-02 7.429895584380531e-01 9.375923551171995e-02 5.719349147577147e-01 7.429895584380534e-01 2.447114005296686e+00 5.719349147577149e-01 1.421724719183548e+00 2.447114005296687e+00 4.381180023814469e+00 0.000000000000000e+00 5.159817740188831e-02 0.000000000000000e+00 1.887358450200525e-01 5.159817740188831e-02 7.429895584380534e-01 1.887358450200526e-01 2.018702993894118e+00 7.429895584380535e-01 2.447114005296687e+00 2.018702993894118e+00 5.631766276144678e+00 2.447114005296687e+00 4.381180023814470e+00 5.631766276144679e+00 8.776559052104282e+00 0.000000000000000e+00 1.887358450200526e-01 0.000000000000000e+00 3.616213609168853e-01 1.887358450200526e-01 2.018702993894118e+00 3.616213609168853e-01 3.265720810881898e+00 2.018702993894119e+00 5.631766276144679e+00 3.265720810881898e+00 8.337554060614563e+00 5.631766276144679e+00 8.776559052104284e+00 8.337554060614563e+00 1.249040405441817e+01 0.000000000000000e+00 3.616213609168853e-01 0.000000000000000e+00 2.870987258079063e-01 3.616213609168855e-01 3.265720810881898e+00 2.870987258079063e-01 2.916976318795857e+00 3.265720810881898e+00 8.337554060614563e+00 2.916976318795858e+00 7.589263257819438e+00 8.337554060614565e+00 1.249040405441818e+01 7.589263257819438e+00 1.232759676527319e+01 
				</DataArray>
			</PointData>
			<CellData>
			</CellData>
		</Piece>
	</UnstructuredGrid>
</VTKFile>