<?xml version="1.0"?>
<VTKFile type="UnstructuredGrid" byte_order="LittleEndian">
	<UnstructuredGrid>
		<Piece NumberOfPoints="256" NumberOfCells="64">
			<Points>
				<DataArray type="Float64" NumberOfComponents="3" format="ascii">
					-1.000000000000000e+00 -1.000000000000000e+00 0.000000000000000e+00
					-7.500000000000000e-01 -1.218750000000000e+00 0.000000000000000e+00
					-9.135224194504830e-01 -9.135224194504830e-01 0.000000000000000e+00
					-6.851418145878622e-01 -1.081481403825483e+00 0.000000000000000e+00
					-7.500000000000000e-01 -1.218750000000000e+00 0.000000000000000e+00
					-5.000000000000000e-01 -1.375000000000000e+00 0.000000000000000e+00
					-6.851418145878622e-01 -1.081481403825483e+00 0.000000000000000e+00
					-4.567612097252415e-01 -1.201452106950483e+00 0.000000000000000e+00
					-5.000000000000000e-01 -1.375000000000000e+00 0.000000000000000e+00
					-2.500000000000000e-01 -1.468750000000000e+00 0.000000000000000e+00
					-4.567612097252415e-01 -1.201452106950483e+00 0.000000000000000e+00
					-2.283806048626207e-01 -1.273434528825483e+00 0.000000000000000e+00
					-2.500000000000000e-01 -1.468750000000000e+00 0.000000000000000e+00
					0.000000000000000e+00 -1.500000000000000e+00 0.000000000000000e+00
					-2.283806048626207e-01 -1.273434528825483e+00 0.000000000000000e+00
					1.040834085586084e-17 -1.297428669450483e+00 0.000000000000000e+00
					0.000000000000000e+00 -1.500000000000000e+00 0.000000000000000e+00
					2.500000000000000e-01 -1.468750000000000e+00 0.000000000000000e+00
					1.040834085586084e-17 -1.297428669450483e+00 0.000000000000000e+00
					2.283806048626208e-01 -1.273434528825483e+00 0.000000000000000e+00
					2.500000000000000e-01 -1.468750000000000e+00 0.000000000000000e+00
					5.000000000000000e-01 -1.375000000000000e+00 0.000000000000000e+00
					2.283806048626208e-01 -1.273434528825483e+00 0.000000000000000e+00
					4.567612097252415e-01 -1.201452106950483e+00 0.000000000000000e+00
					5.000000000000000e-01 -1.375000000000000e+00 0.000000000000000e+00
					7.500000000000000e-01 -1.218750000000000e+00 0.000000000000000e+00
					4.567612097252415e-01 -1.201452106950483e+00 0.000000000000000e+00
					6.851418145878623e-01 -1.081481403825483e+00 0.000000000000000e+00
					7.500000000000000e-01 -1.218750000000000e+00 0.000000000000000e+00
					1.000000000000000e+00 -1.000000000000000e+00 0.000000000000000e+00
					6.851418145878623e-01 -1.081481403825483e+00 0.000000000000000e+00
					9.135224194504830e-01 -9.135224194504830e-01 0.000000000000000e+00
					-9.135224194504830e-01 -9.135224194504830e-01 0.000000000000000e+00
					-6.851418145878622e-01 -1.081481403825483e+00 0.000000000000000e+00
					-8.338955762008279e-01 -8.338955762008279e-01 0.000000000000000e+00
					-6.254216821506209e-01 -9.577627637008280e-01 0.000000000000000e+00
					-6.851418145878622e-01 -1.081481403825483e+00 0.000000000000000e+00
					-4.567612097252415e-01 -1.201452106950483e+00 0.000000000000000e+00
					-6.254216821506209e-01 -9.577627637008280e-01 0.000000000000000e+00
					-4.169477881004140e-01 -1.046239326200828e+00 0.000000000000000e+00
					-4.567612097252415e-01 -1.201452106950483e+00 0.000000000000000e+00
					-2.283806048626207e-01 -1.273434528825483e+00 0.000000000000000e+00
					-4.169477881004140e-01 -1.046239326200828e+00 0.000000000000000e+00
					-2.084738940502070e-01 -1.099325263700828e+00 0.000000000000000e+00
					-2.283806048626207e-01 -1.273434528825483e+00 0.000000000000000e+00
					1.040834085586084e-17 -1.297428669450483e+00 0.000000000000000e+00
					-2.084738940502070e-01 -1.099325263700828e+00 0.000000000000000e+00
					1.734723475976807e-17 -1.117020576200828e+00 0.000000000000000e+00
					1.040834085586084e-17 -1.297428669450483e+00 0.000000000000000e+00
					2.283806048626208e-01 -1.273434528825483e+00 0.000000000000000e+00
					1.734723475976807e-17 -1.117020576200828e+00 0.000000000000000e+00
					2.084738940502070e-01 -1.099325263700828e+00 0.000000000000000e+00
					2.283806048626208e-01 -1.273434528825483e+00 0.000000000000000e+00
					4.567612097252415e-01 -1.201452106950483e+00 0.000000000000000e+00
					2.084738940502070e-01 -1.099325263700828e+00 0.000000000000000e+00
					4.169477881004140e-01 -1.046239326200828e+00 0.000000000000000e+00
					4.567612097252415e-01 -1.201452106950483e+00 0.000000000000000e+00
					6.851418145878623e-01 -1.081481403825483e+00 0.000000000000000e+00
					4.169477881004140e-01 -1.046239326200828e+00 0.000000000000000e+00
					6.254216821506209e-01 -9.577627637008279e-01 0.000000000000000e+00
					6.851418145878623e-01 -1.081481403825483e+00 0.000000000000000e+00
					9.135224194504830e-01 -9.135224194504830e-01 0.000000000000000e+00
					6.254216821506209e-01 -9.577627637008279e-01 0.000000000000000e+00
					8.338955762008279e-01 -8.338955762008279e-01 0.000000000000000e+00
					-8.338955762008279e-01 -8.338955762008279e-01 0.000000000000000e+00
					-6.254216821506209e-01 -9.577627637008280e-01 0.000000000000000e+00
					-7.611194702510349e-01 -7.611194702510349e-01 0.000000000000000e+00
					-5.708396026882762e-01 -8.475940796260348e-01 0.000000000000000e+00
					-6.254216821506209e-01 -9.577627637008280e-01 0.000000000000000e+00
					-4.169477881004140e-01 -1.046239326200828e+00 0.000000000000000e+00
					-5.708396026882762e-01 -8.475940796260348e-01 0.000000000000000e+00
					-3.805597351255174e-01 -9.093616577510351e-01 0.000000000000000e+00
					-4.169477881004140e-01 -1.046239326200828e+00 0.000000000000000e+00
					-2.084738940502070e-01 -1.099325263700828e+00 0.000000000000000e+00
					-3.805597351255174e-01 -9.093616577510351e-01 0.000000000000000e+00
					-1.902798675627587e-01 -9.464222046260349e-01 0.000000000000000e+00
					-2.084738940502070e-01 -1.099325263700828e+00 0.000000000000000e+00
					1.734723475976807e-17 -1.117020576200828e+00 0.000000000000000e+00
					-1.902798675627587e-01 -9.464222046260349e-01 0.000000000000000e+00
					2.428612866367530e-17 -9.587757202510350e-01 0.000000000000000e+00
					1.734723475976807e-17 -1.117020576200828e+00 0.000000000000000e+00
					2.084738940502070e-01 -1.099325263700828e+00 0.000000000000000e+00
					2.428612866367530e-17 -9.587757202510350e-01 0.000000000000000e+00
					1.902798675627587e-01 -9.464222046260351e-01 0.000000000000000e+00
					2.084738940502070e-01 -1.099325263700828e+00 0.000000000000000e+00
					4.169477881004140e-01 -1.046239326200828e+00 0.000000000000000e+00
					1.902798675627587e-01 -9.464222046260351e-01 0.000000000000000e+00
					3.805597351255174e-01 -9.093616577510348e-01 0.000000000000000e+00
					4.169477881004140e-01 -1.046239326200828e+00 0.000000000000000e+00
					6.254216821506209e-01 -9.577627637008279e-01 0.000000000000000e+00
					3.805597351255174e-01 -9.093616577510348e-01 0.000000000000000e+00
					5.708396026882762e-01 -8.475940796260348e-01 0.000000000000000e+00
					6.254216821506209e-01 -9.577627637008279e-01 0.000000000000000e+00
					8.338955762008279e-01 -8.338955762008279e-01 0.000000000000000e+00
					5.708396026882762e-01 -8.475940796260348e-01 0.000000000000000e+00
					7.611194702510349e-01 -7.611194702510349e-01 0.000000000000000e+00
					-7.611194702510349e-01 -7.611194702510349e-01 0.000000000000000e+00
					-5.708396026882762e-01 -8.475940796260348e-01 0.000000000000000e+00
					-6.951941016011038e-01 -6.951941016011038e-01 0.000000000000000e+00
					-5.213955762008279e-01 -7.509753516011040e-01 0.000000000000000e+00
					-5.708396026882762e-01 -8.475940796260348e-01 0.000000000000000e+00
					-3.805597351255174e-01 -9.093616577510351e-01 0.000000000000000e+00
					-5.213955762008279e-01 -7.509753516011040e-01 0.000000000000000e+00
					-3.475970508005519e-01 -7.908191016011039e-01 0.000000000000000e+00
					-3.805597351255174e-01 -9.093616577510351e-01 0.000000000000000e+00
					-1.902798675627587e-01 -9.464222046260349e-01 0.000000000000000e+00
					-3.475970508005519e-01 -7.908191016011039e-01 0.000000000000000e+00
					-1.737985254002760e-01 -8.147253516011039e-01 0.000000000000000e+00
					-1.902798675627587e-01 -9.464222046260349e-01 0.000000000000000e+00
					2.428612866367530e-17 -9.587757202510350e-01 0.000000000000000e+00
					-1.737985254002760e-01 -8.147253516011039e-01 0.000000000000000e+00
					2.428612866367530e-17 -8.226941016011039e-01 0.000000000000000e+00
					2.428612866367530e-17 -9.587757202510350e-01 0.000000000000000e+00
					1.902798675627587e-01 -9.464222046260351e-01 0.000000000000000e+00
					2.428612866367530e-17 -8.226941016011039e-01 0.000000000000000e+00
					1.737985254002760e-01 -8.147253516011039e-01 0.000000000000000e+00
					1.902798675627587e-01 -9.464222046260351e-01 0.000000000000000e+00
					3.805597351255174e-01 -9.093616577510348e-01 0.000000000000000e+00
					1.737985254002760e-01 -8.147253516011039e-01 0.000000000000000e+00
					3.475970508005519e-01 -7.908191016011039e-01 0.000000000000000e+00
					3.805597351255174e-01 -9.093616577510348e-01 0.000000000000000e+00
					5.708396026882762e-01 -8.475940796260348e-01 0.000000000000000e+00
					3.475970508005519e-01 -7.908191016011039e-01 0.000000000000000e+00
					5.213955762008279e-01 -7.509753516011038e-01 0.000000000000000e+00
					5.708396026882762e-01 -8.475940796260348e-01 0.000000000000000e+00
					7.611194702510349e-01 -7.611194702510349e-01 0.000000000000000e+00
					5.213955762008279e-01 -7.509753516011038e-01 0.000000000000000e+00
					6.951941016011038e-01 -6.951941016011038e-01 0.000000000000000e+00
					-6.951941016011038e-01 -6.951941016011038e-01 0.000000000000000e+00
					-5.213955762008279e-01 -7.509753516011040e-01 0.000000000000000e+00
					-6.361194702510349e-01 -6.361194702510349e-01 0.000000000000000e+00
					-4.770896026882762e-01 -6.679065796260348e-01 0.000000000000000e+00
					-5.213955762008279e-01 -7.509753516011040e-01 0.000000000000000e+00
					-3.475970508005519e-01 -7.908191016011039e-01 0.000000000000000e+00
					-4.770896026882762e-01 -6.679065796260348e-01 0.000000000000000e+00
					-3.180597351255174e-01 -6.906116577510349e-01 0.000000000000000e+00
					-3.475970508005519e-01 -7.908191016011039e-01 0.000000000000000e+00
					-1.737985254002760e-01 -8.147253516011039e-01 0.000000000000000e+00
					-3.180597351255174e-01 -6.906116577510349e-01 0.000000000000000e+00
					-1.590298675627587e-01 -7.042347046260349e-01 0.000000000000000e+00
					-1.737985254002760e-01 -8.147253516011039e-01 0.000000000000000e+00
					2.428612866367530e-17 -8.226941016011039e-01 0.000000000000000e+00
					-1.590298675627587e-01 -7.042347046260349e-01 0.000000000000000e+00
					1.734723475976807e-17 -7.087757202510350e-01 0.000000000000000e+00
					2.428612866367530e-17 -8.226941016011039e-01 0.000000000000000e+00
					1.737985254002760e-01 -8.147253516011039e-01 0.000000000000000e+00
					1.734723475976807e-17 -7.087757202510350e-01 0.000000000000000e+00
					1.590298675627587e-01 -7.042347046260350e-01 0.000000000000000e+00
					1.737985254002760e-01 -8.147253516011039e-01 0.000000000000000e+00
					3.475970508005519e-01 -7.908191016011039e-01 0.000000000000000e+00
					1.590298675627587e-01 -7.042347046260350e-01 0.000000000000000e+00
					3.180597351255174e-01 -6.906116577510348e-01 0.000000000000000e+00
					3.475970508005519e-01 -7.908191016011039e-01 0.000000000000000e+00
					5.213955762008279e-01 -7.509753516011038e-01 0.000000000000000e+00
					3.180597351255174e-01 -6.906116577510348e-01 0.000000000000000e+00
					4.770896026882762e-01 -6.679065796260348e-01 0.000000000000000e+00
					5.213955762008279e-01 -7.509753516011038e-01 0.000000000000000e+00
					6.951941016011038e-01 -6.951941016011038e-01 0.000000000000000e+00
					4.770896026882762e-01 -6.679065796260348e-01 0.000000000000000e+00
					6.361194702510349e-01 -6.361194702510349e-01 0.000000000000000e+00
					-6.361194702510349e-01 -6.361194702510349e-01 0.000000000000000e+00
					-4.770896026882762e-01 -6.679065796260348e-01 0.000000000000000e+00
					-5.838955762008278e-01 -5.838955762008278e-01 0.000000000000000e+00
					-4.379216821506209e-01 -5.983877637008279e-01 0.000000000000000e+00
					-4.770896026882762e-01 -6.679065796260348e-01 0.000000000000000e+00
					-3.180597351255174e-01 -6.906116577510349e-01 0.000000000000000e+00
					-4.379216821506209e-01 -5.983877637008279e-01 0.000000000000000e+00
					-2.919477881004139e-01 -6.087393262008278e-01 0.000000000000000e+00
					-3.180597351255174e-01 -6.906116577510349e-01 0.000000000000000e+00
					-1.590298675627587e-01 -7.042347046260349e-01 0.000000000000000e+00
					-2.919477881004139e-01 -6.087393262008278e-01 0.000000000000000e+00
					-1.459738940502069e-01 -6.149502637008278e-01 0.000000000000000e+00
					-1.590298675627587e-01 -7.042347046260349e-01 0.000000000000000e+00
					1.734723475976807e-17 -7.087757202510350e-01 0.000000000000000e+00
					-1.459738940502069e-01 -6.149502637008278e-01 0.000000000000000e+00
					1.040834085586084e-17 -6.170205762008280e-01 0.000000000000000e+00
					1.734723475976807e-17 -7.087757202510350e-01 0.000000000000000e+00
					1.590298675627587e-01 -7.042347046260350e-01 0.000000000000000e+00
					1.040834085586084e-17 -6.170205762008280e-01 0.000000000000000e+00
					1.459738940502070e-01 -6.149502637008279e-01 0.000000000000000e+00
					1.590298675627587e-01 -7.042347046260350e-01 0.000000000000000e+00
					3.180597351255174e-01 -6.906116577510348e-01 0.000000000000000e+00
					1.459738940502070e-01 -6.149502637008279e-01 0.000000000000000e+00
					2.919477881004139e-01 -6.087393262008278e-01 0.000000000000000e+00
					3.180597351255174e-01 -6.906116577510348e-01 0.000000000000000e+00
					4.770896026882762e-01 -6.679065796260348e-01 0.000000000000000e+00
					2.919477881004139e-01 -6.087393262008278e-01 0.000000000000000e+00
					4.379216821506209e-01 -5.983877637008278e-01 0.000000000000000e+00
					4.770896026882762e-01 -6.679065796260348e-01 0.000000000000000e+00
					6.361194702510349e-01 -6.361194702510349e-01 0.000000000000000e+00
					4.379216821506209e-01 -5.983877637008278e-01 0.000000000000000e+00
					5.838955762008278e-01 -5.838955762008278e-01 0.000000000000000e+00
					-5.838955762008278e-01 -5.838955762008278e-01 0.000000000000000e+00
					-4.379216821506209e-01 -5.983877637008279e-01 0.000000000000000e+00
					-5.385224194504830e-01 -5.385224194504830e-01 0.000000000000000e+00
					-4.038918145878622e-01 -5.424189038254830e-01 0.000000000000000e+00
					-4.379216821506209e-01 -5.983877637008279e-01 0.000000000000000e+00
					-2.919477881004139e-01 -6.087393262008278e-01 0.000000000000000e+00
					-4.038918145878622e-01 -5.424189038254830e-01 0.000000000000000e+00
					-2.692612097252414e-01 -5.452021069504829e-01 0.000000000000000e+00
					-2.919477881004139e-01 -6.087393262008278e-01 0.000000000000000e+00
					-1.459738940502069e-01 -6.149502637008278e-01 0.000000000000000e+00
					-2.692612097252414e-01 -5.452021069504829e-01 0.000000000000000e+00
					-1.346306048626207e-01 -5.468720288254829e-01 0.000000000000000e+00
					-1.459738940502069e-01 -6.149502637008278e-01 0.000000000000000e+00
					1.040834085586084e-17 -6.170205762008280e-01 0.000000000000000e+00
					-1.346306048626207e-01 -5.468720288254829e-01 0.000000000000000e+00
					3.469446951953614e-18 -5.474286694504829e-01 0.000000000000000e+00
					1.040834085586084e-17 -6.170205762008280e-01 0.000000000000000e+00
					1.459738940502070e-01 -6.149502637008279e-01 0.000000000000000e+00
					3.469446951953614e-18 -5.474286694504829e-01 0.000000000000000e+00
					1.346306048626207e-01 -5.468720288254829e-01 0.000000000000000e+00
					1.459738940502070e-01 -6.149502637008279e-01 0.000000000000000e+00
					2.919477881004139e-01 -6.087393262008278e-01 0.000000000000000e+00
					1.346306048626207e-01 -5.468720288254829e-01 0.000000000000000e+00
					2.692612097252414e-01 -5.452021069504829e-01 0.000000000000000e+00
					2.919477881004139e-01 -6.087393262008278e-01 0.000000000000000e+00
					4.379216821506209e-01 -5.983877637008278e-01 0.000000000000000e+00
					2.692612097252414e-01 -5.452021069504829e-01 0.000000000000000e+00
					4.038918145878622e-01 -5.424189038254830e-01 0.000000000000000e+00
					4.379216821506209e-01 -5.983877637008278e-01 0.000000000000000e+00
					5.838955762008278e-01 -5.838955762008278e-01 0.000000000000000e+00
					4.038918145878622e-01 -5.424189038254830e-01 0.000000000000000e+00
					5.385224194504830e-01 -5.385224194504830e-01 0.000000000000000e+00
					-5.385224194504830e-01 -5.385224194504830e-01 0.000000000000000e+00
					-4.038918145878622e-01 -5.424189038254830e-01 0.000000000000000e+00
					-5.000000000000000e-01 -5.000000000000000e-01 0.000000000000000e+00
					-3.750000000000000e-01 -5.000000000000000e-01 0.000000000000000e+00
					-4.038918145878622e-01 -5.424189038254830e-01 0.000000000000000e+00
					-2.692612097252414e-01 -5.452021069504829e-01 0.000000000000000e+00
					-3.750000000000000e-01 -5.000000000000000e-01 0.000000000000000e+00
					-2.500000000000000e-01 -5.000000000000000e-01 0.000000000000000e+00
					-2.692612097252414e-01 -5.452021069504829e-01 0.000000000000000e+00
					-1.346306048626207e-01 -5.468720288254829e-01 0.000000000000000e+00
					-2.500000000000000e-01 -5.000000000000000e-01 0.000000000000000e+00
					-1.250000000000000e-01 -5.000000000000000e-01 0.000000000000000e+00
					-1.346306048626207e-01 -5.468720288254829e-01 0.000000000000000e+00
					3.469446951953614e-18 -5.474286694504829e-01 0.000000000000000e+00
					-1.250000000000000e-01 -5.000000000000000e-01 0.000000000000000e+00
					0.000000000000000e+00 -5.000000000000000e-01 0.000000000000000e+00
					3.469446951953614e-18 -5.474286694504829e-01 0.000000000000000e+00
					1.346306048626207e-01 -5.468720288254829e-01 0.000000000000000e+00
					0.000000000000000e+00 -5.000000000000000e-01 0.000000000000000e+00
					1.250000000000000e-01 -5.000000000000000e-01 0.000000000000000e+00
					1.346306048626207e-01 -5.468720288254829e-01 0.000000000000000e+00
					2.692612097252414e-01 -5.452021069504829e-01 0.000000000000000e+00
					1.250000000000000e-01 -5.000000000000000e-01 0.000000000000000e+00
					2.500000000000000e-01 -5.000000000000000e-01 0.000000000000000e+00
					2.692612097252414e-01 -5.452021069504829e-01 0.000000000000000e+00
					4.038918145878622e-01 -5.424189038254830e-01 0.000000000000000e+00
					2.500000000000000e-01 -5.000000000000000e-01 0.000000000000000e+00
					3.750000000000000e-01 -5.000000000000000e-01 0.000000000000000e+00
					4.038918145878622e-01 -5.424189038254830e-01 0.000000000000000e+00
					5.385224194504830e-01 -5.385224194504830e-01 0.000000000000000e+00
					3.750000000000000e-01 -5.000000000000000e-01 0.000000000000000e+00
					5.000000000000000e-01 -5.000000000000000e-01 0.000000000000000e+00
				</DataArray>
			</Points>
			<Cells>
				<DataArray Name="connectivity" type="UInt32" format="ascii">
					0 1 3 2 4 5 7 6 8 9 11 10 12 13 15 14 16 17 19 18 20 21 23 22 24 25 27 26 28 29 31 30 32 33 35 34 36 37 39 38 40 41 43 42 44 45 47 46 48 49 51 50 52 53 55 54 56 57 59 58 60 61 63 62 64 65 67 66 68 69 71 70 72 73 75 74 76 77 79 78 80 81 83 82 84 85 87 86 88 89 91 90 92 93 95 94 96 97 99 98 100 101 103 102 104 105 107 106 108 109 111 110 112 113 115 114 116 117 119 118 120 121 123 122 124 125 127 126 128 129 131 130 132 133 135 134 136 137 139 138 140 141 143 142 144 145 147 146 148 149 151 150 152 153 155 154 156 157 159 158 160 161 163 162 164 165 167 166 168 169 171 170 172 173 175 174 176 177 179 178 180 181 183 182 184 185 187 186 188 189 191 190 192 193 195 194 196 197 199 198 200 201 203 202 204 205 207 206 208 209 211 210 212 213 215 214 216 217 219 218 220 221 223 222 224 225 227 226 228 229 231 230 232 233 235 234 236 237 239 238 240 241 243 242 244 245 247 246 248 249 251 250 252 253 255 254 
				</DataArray>
				<DataArray Name="offsets" type="UInt32" format="ascii">
					4 8 12 16 20 24 28 32 36 40 44 48 52 56 60 64 68 72 76 80 84 88 92 96 100 104 108 112 116 120 124 128 132 136 140 144 148 152 156 160 164 168 172 176 180 184 188 192 196 200 204 208 212 216 220 224 228 232 236 240 244 248 252 256 
				</DataArray>
				<DataArray Name="types" type="UInt8" format="ascii">
					9 9 9 9 9 9 9 9 9 9 9 9 9 9 9 9 9 9 9 9 9 9 9 9 9 9 9 9 9 9 9 9 9 9 9 9 9 9 9 9 9 9 9 9 9 9 9 9 9 9 9 9 9 9 9 9 9 9 9 9 9 9 9 9 
				</DataArray>
			</Cells>
			<PointData Vectors="solution ">
				<DataArray Name="solution" type="Float64" NumberOfComponents="1" format="ascii">
					0.000000000000000e+00 0.000000000000000e+00 2.389514624134363e-02 3.131269189019877e-02 0.000000000000000e+00 0.000000000000000e+00 3.131269189019877e-02 2.732438093631756e-02 0.000000000000000e+00 0.000000000000000e+00 2.732438093631756e-02 2.898148926110292e-02 0.000000000000000e+00 0.000000000000000e+00 2.898148926110293e-02 3.741734435830590e-02 0.000000000000000e+00 0.000000000000000e+00 3.741734435830590e-02 5.387661237721366e-02 0.000000000000000e+00 0.000000000000000e+00 5.387661237721367e-02 8.030182370646276e-02 0.000000000000000e+00 0.000000000000000e+00 8.030182370646277e-02 1.152424926733605e-01 0.000000000000000e+00 0.000000000000000e+00 1.152424926733605e-01 1.026061383846706e-01 2.389514624134364e-02 3.131269189019877e-02 9.819827938395756e-02 1.206679634518081e-01 3.131269189019877e-02 2.732438093631756e-02 1.206679634518082e-01 1.196871326943686e-01 2.732438093631756e-02 2.898148926110293e-02 1.196871326943686e-01 1.353771931631178e-01 2.898148926110293e-02 3.741734435830590e-02 1.353771931631178e-01 1.728424113594780e-01 3.741734435830590e-02 5.387661237721367e-02 1.728424113594780e-01 2.330695687599202e-01 5.387661237721367e-02 8.030182370646277e-02 2.330695687599202e-01 3.210238337898152e-01 8.030182370646277e-02 1.152424926733605e-01 3.210238337898152e-01 4.175173876235148e-01 1.152424926733605e-01 1.026061383846706e-01 4.175173876235148e-01 3.947703635164411e-01 9.819827938395759e-02 1.206679634518082e-01 2.268378758554815e-01 2.838861155049529e-01 1.206679634518082e-01 1.196871326943686e-01 2.838861155049529e-01 3.224139098993298e-01 1.196871326943686e-01 1.353771931631178e-01 3.224139098993299e-01 3.954818276408665e-01 1.353771931631179e-01 1.728424113594780e-01 3.954818276408666e-01 4.965201460774356e-01 1.728424113594781e-01 2.330695687599202e-01 4.965201460774357e-01 6.186494119501963e-01 2.330695687599202e-01 3.210238337898152e-01 6.186494119501963e-01 7.640244790317091e-01 3.210238337898153e-01 4.175173876235148e-01 7.640244790317091e-01 9.006514069537879e-01 4.175173876235149e-01 3.947703635164411e-01 9.006514069537879e-01 8.529812074284612e-01 2.268378758554816e-01 2.838861155049529e-01 4.137495667660679e-01 5.475970507591880e-01 2.838861155049529e-01 3.224139098993299e-01 5.475970507591880e-01 7.015315713647243e-01 3.224139098993299e-01 3.954818276408666e-01 7.015315713647244e-01 9.105320110949294e-01 3.954818276408666e-01 4.965201460774357e-01 9.105320110949295e-01 1.125589686794410e+00 4.965201460774358e-01 6.186494119501964e-01 1.125589686794410e+00 1.314388209354418e+00 6.186494119501964e-01 7.640244790317091e-01 1.314388209354418e+00 1.474070771025873e+00 7.640244790317093e-01 9.006514069537880e-01 1.474070771025873e+00 1.576575260014843e+00 9.006514069537881e-01 8.529812074284613e-01 1.576575260014843e+00 1.453697394159686e+00 4.137495667660680e-01 5.475970507591880e-01 6.628828622800461e-01 9.341705521303741e-01 5.475970507591881e-01 7.015315713647244e-01 9.341705521303744e-01 1.299824378390810e+00 7.015315713647244e-01 9.105320110949295e-01 1.299824378390810e+00 1.727987793112870e+00 9.105320110949296e-01 1.125589686794410e+00 1.727987793112871e+00 2.103341326957199e+00 1.125589686794410e+00 1.314388209354418e+00 2.103341326957199e+00 2.352615536582358e+00 1.314388209354418e+00 1.474070771025873e+00 2.352615536582359e+00 2.468476935706109e+00 1.474070771025873e+00 1.576575260014843e+00 2.468476935706109e+00 2.442956250816868e+00 1.576575260014843e+00 1.453697394159686e+00 2.442956250816869e+00 2.173364446982257e+00 6.628828622800462e-01 9.341705521303744e-01 9.782093390622383e-01 1.452485499786216e+00 9.341705521303745e-01 1.299824378390810e+00 1.452485499786216e+00 2.099390682538390e+00 1.299824378390810e+00 1.727987793112871e+00 2.099390682538391e+00 2.783702744754658e+00 1.727987793112871e+00 2.103341326957199e+00 2.783702744754659e+00 3.336133975972748e+00 2.103341326957199e+00 2.352615536582359e+00 3.336133975972748e+00 3.635845277298755e+00 2.352615536582359e+00 2.468476935706109e+00 3.635845277298755e+00 3.674977871460336e+00 2.468476935706109e+00 2.442956250816869e+00 3.674977871460337e+00 3.466463235947217e+00 2.442956250816869e+00 2.173364446982257e+00 3.466463235947217e+00 2.988431120314221e+00 9.782093390622384e-01 1.452485499786216e+00 1.363731312185650e+00 2.084878787862923e+00 1.452485499786216e+00 2.099390682538391e+00 2.084878787862924e+00 3.002044962476813e+00 2.099390682538391e+00 2.783702744754659e+00 3.002044962476813e+00 3.907088084996668e+00 2.783702744754659e+00 3.336133975972748e+00 3.907088084996668e+00 4.610965522092989e+00 3.336133975972749e+00 3.635845277298755e+00 4.610965522092989e+00 4.955427682247395e+00 3.635845277298755e+00 3.674977871460337e+00 4.955427682247395e+00 4.930791543497061e+00 3.674977871460338e+00 3.466463235947217e+00 4.930791543497062e+00 4.566248311652661e+00 3.466463235947217e+00 2.988431120314222e+00 4.566248311652662e+00 3.875363424704494e+00 1.363731312185650e+00 2.084878787862924e+00 1.823483439406428e+00 2.762724311878539e+00 2.084878787862924e+00 3.002044962476813e+00 2.762724311878540e+00 3.846953903659688e+00 3.002044962476813e+00 3.907088084996668e+00 3.846953903659688e+00 4.881377781867173e+00 3.907088084996669e+00 4.610965522092989e+00 4.881377781867174e+00 5.671052098687612e+00 4.610965522092990e+00 4.955427682247395e+00 5.671052098687614e+00 6.058558933885278e+00 4.955427682247396e+00 4.930791543497062e+00 6.058558933885279e+00 6.029929397187202e+00 4.930791543497062e+00 4.566248311652662e+00 6.029929397187203e+00 5.606445161765953e+00 4.566248311652663e+00 3.875363424704494e+00 5.606445161765953e+00 4.810651145274840e+00 
				</DataArray>
			</PointData>
			<CellData>
			</CellData>
		</Piece>
	</UnstructuredGrid>
</VTKFile>