<?xml version="1.0"?>
<VTKFile type="UnstructuredGrid" byte_order="LittleEndian">
	<UnstructuredGrid>
		<Piece NumberOfPoints="64" NumberOfCells="16">
			<Points>
				<DataArray type="Float64" NumberOfComponents="3" format="ascii">
					-1.000000000000000e+00 1.000000000000000e+00 0.000000000000000e+00
					-8.338955762008279e-01 8.338955762008279e-01 0.000000000000000e+00
					-5.000000000000000e-01 1.375000000000000e+00 0.000000000000000e+00
					-4.169477881004139e-01 1.046239326200828e+00 0.000000000000000e+00
					-8.338955762008279e-01 8.338955762008279e-01 0.000000000000000e+00
					-6.951941016011038e-01 6.951941016011038e-01 0.000000000000000e+00
					-4.169477881004139e-01 1.046239326200828e+00 0.000000000000000e+00
					-3.475970508005519e-01 7.908191016011038e-01 0.000000000000000e+00
					-6.951941016011038e-01 6.951941016011038e-01 0.000000000000000e+00
					-5.838955762008279e-01 5.838955762008279e-01 0.000000000000000e+00
					-3.475970508005519e-01 7.908191016011038e-01 0.000000000000000e+00
					-2.919477881004139e-01 6.087393262008278e-01 0.000000000000000e+00
					-5.838955762008279e-01 5.838955762008279e-01 0.000000000000000e+00
					-5.000000000000000e-01 5.000000000000000e-01 0.000000000000000e+00
					-2.919477881004139e-01 6.087393262008278e-01 0.000000000000000e+00
					-2.500000000000000e-01 5.000000000000000e-01 0.000000000000000e+00
					-5.000000000000000e-01 1.375000000000000e+00 0.000000000000000e+00
					-4.169477881004139e-01 1.046239326200828e+00 0.000000000000000e+00
					1.387778780781446e-17 1.500000000000000e+00 0.000000000000000e+00
					2.081668171172169e-17 1.117020576200828e+00 0.000000000000000e+00
					-4.169477881004139e-01 1.046239326200828e+00 0.000000000000000e+00
					-3.475970508005519e-01 7.908191016011038e-01 0.000000000000000e+00
					2.081668171172169e-17 1.117020576200828e+00 0.000000000000000e+00
					0.000000000000000e+00 8.226941016011038e-01 0.000000000000000e+00
					-3.475970508005519e-01 7.908191016011038e-01 0.000000000000000e+00
					-2.919477881004139e-01 6.087393262008278e-01 0.000000000000000e+00
					0.000000000000000e+00 8.226941016011038e-01 0.000000000000000e+00
					1.387778780781446e-17 6.170205762008278e-01 0.000000000000000e+00
					-2.919477881004139e-01 6.087393262008278e-01 0.000000000000000e+00
					-2.500000000000000e-01 5.000000000000000e-01 0.000000000000000e+00
					1.387778780781446e-17 6.170205762008278e-01 0.000000000000000e+00
					6.938893903907228e-18 5.000000000000000e-01 0.000000000000000e+00
					1.387778780781446e-17 1.500000000000000e+00 0.000000000000000e+00
					2.081668171172169e-17 1.117020576200828e+00 0.000000000000000e+00
					5.000000000000000e-01 1.375000000000000e+00 0.000000000000000e+00
					4.169477881004140e-01 1.046239326200828e+00 0.000000000000000e+00
					2.081668171172169e-17 1.117020576200828e+00 0.000000000000000e+00
					0.000000000000000e+00 8.226941016011038e-01 0.000000000000000e+00
					4.169477881004140e-01 1.046239326200828e+00 0.000000000000000e+00
					3.475970508005519e-01 7.908191016011039e-01 0.000000000000000e+00
					0.000000000000000e+00 8.226941016011038e-01 0.000000000000000e+00
					1.387778780781446e-17 6.170205762008278e-01 0.000000000000000e+00
					3.475970508005519e-01 7.908191016011039e-01 0.000000000000000e+00
					2.919477881004139e-01 6.087393262008278e-01 0.000000000000000e+00
					1.387778780781446e-17 6.170205762008278e-01 0.000000000000000e+00
					6.938893903907228e-18 5.000000000000000e-01 0.000000000000000e+00
					2.919477881004139e-01 6.087393262008278e-01 0.000000000000000e+00
					2.500000000000000e-01 5.000000000000000e-01 0.000000000000000e+00
					5.000000000000000e-01 1.375000000000000e+00 0.000000000000000e+00
					4.169477881004140e-01 1.046239326200828e+00 0.000000000000000e+00
					1.000000000000000e+00 1.000000000000000e+00 0.000000000000000e+00
					8.338955762008279e-01 8.338955762008279e-01 0.000000000000000e+00
					4.169477881004140e-01 1.046239326200828e+00 0.000000000000000e+00
					3.475970508005519e-01 7.908191016011039e-01 0.000000000000000e+00
					8.338955762008279e-01 8.338955762008279e-01 0.000000000000000e+00
					6.951941016011038e-01 6.951941016011038e-01 0.000000000000000e+00
					3.475970508005519e-01 7.908191016011039e-01 0.000000000000000e+00
					2.919477881004139e-01 6.087393262008278e-01 0.000000000000000e+00
					6.951941016011038e-01 6.951941016011038e-01 0.000000000000000e+00
					5.838955762008279e-01 5.838955762008279e-01 0.000000000000000e+00
					2.919477881004139e-01 6.087393262008278e-01 0.000000000000000e+00
					2.500000000000000e-01 5.000000000000000e-01 0.000000000000000e+00
					5.838955762008279e-01 5.838955762008279e-01 0.000000000000000e+00
					5.000000000000000e-01 5.000000000000000e-01 0.000000000000000e+00
				</DataArray>
			</Points>
			<Cells>
				<DataArray Name="connectivity" type="UInt32" format="ascii">
					0 1 3 2 4 5 7 6 8 9 11 10 12 13 15 14 16 17 19 18 20 21 23 22 24 25 27 26 28 29 31 30 32 33 35 34 36 37 39 38 40 41 43 42 44 45 47 46 48 49 51 50 52 53 55 54 56 57 59 58 60 61 63 62 
				</DataArray>
				<DataArray Name="offsets" type="UInt32" format="ascii">
					4 8 12 16 20 24 28 32 36 40 44 48 52 56 60 64 
				</DataArray>
				<DataArray Name="types" type="UInt8" format="ascii">
					9 9 9 9 9 9 9 9 9 9 9 9 9 9 9 9 
				</DataArray>
			</Cells>
			<PointData Vectors="solution ">
				<DataArray Name="solution" type="Float64" NumberOfComponents="1" format="ascii">
					0.000000000000000e+00 1.202767032657964e+00 0.000000000000000e+00 2.784126878630645e+00 1.202767032657964e+00 4.316737095505877e+00 2.784126878630645e+00 1.274821102419961e+01 4.316737095505878e+00 8.460285117332363e+00 1.274821102419962e+01 2.176913385280777e+01 8.460285117332365e+00 1.263518615351052e+01 2.176913385280778e+01 2.657560586408817e+01 0.000000000000000e+00 2.784126878630645e+00 0.000000000000000e+00 5.902945345499177e+00 2.784126878630645e+00 1.274821102419962e+01 5.902945345499178e+00 2.374759518765699e+01 1.274821102419962e+01 2.176913385280778e+01 2.374759518765699e+01 3.562004893577205e+01 2.176913385280778e+01 2.657560586408817e+01 3.562004893577206e+01 3.927385642281200e+01 0.000000000000000e+00 5.902945345499178e+00 0.000000000000000e+00 5.765103861732419e+00 5.902945345499178e+00 2.374759518765699e+01 5.765103861732419e+00 2.403105640269331e+01 2.374759518765700e+01 3.562004893577206e+01 2.403105640269331e+01 3.747295332450085e+01 3.562004893577206e+01 3.927385642281201e+01 3.747295332450086e+01 4.222481047352112e+01 0.000000000000000e+00 5.765103861732419e+00 0.000000000000000e+00 3.820366471600577e+00 5.765103861732420e+00 2.403105640269331e+01 3.820366471600578e+00 1.293574499420224e+01 2.403105640269331e+01 3.747295332450086e+01 1.293574499420224e+01 2.375983987582126e+01 3.747295332450086e+01 4.222481047352112e+01 2.375983987582126e+01 3.268181418624642e+01 
				</DataArray>
			</PointData>
			<CellData>
			</CellData>
		</Piece>
	</UnstructuredGrid>
</VTKFile>