<?xml version="1.0"?>
<VTKFile type="UnstructuredGrid" byte_order="LittleEndian">
	<UnstructuredGrid>
		<Piece NumberOfPoints="64" NumberOfCells="16">
			<Points>
				<DataArray type="Float64" NumberOfComponents="3" format="ascii">
					-5.000000000000000e-01 -5.000000000000000e-01 0.000000000000000e+00
					-2.500000000000000e-01 -5.000000000000000e-01 0.000000000000000e+00
					-5.000000000000000e-01 -2.500000000000000e-01 0.000000000000000e+00
					-2.500000000000000e-01 -2.500000000000000e-01 0.000000000000000e+00
					-2.500000000000000e-01 -5.000000000000000e-01 0.000000000000000e+00
					6.938893903907228e-18 -5.000000000000000e-01 0.000000000000000e+00
					-2.500000000000000e-01 -2.500000000000000e-01 0.000000000000000e+00
					1.040834085586084e-17 -2.500000000000000e-01 0.000000000000000e+00
					6.938893903907228e-18 -5.000000000000000e-01 0.000000000000000e+00
					2.500000000000000e-01 -5.000000000000000e-01 0.000000000000000e+00
					1.040834085586084e-17 -2.500000000000000e-01 0.000000000000000e+00
					2.500000000000000e-01 -2.500000000000000e-01 0.000000000000000e+00
					2.500000000000000e-01 -5.000000000000000e-01 0.000000000000000e+00
					5.000000000000000e-01 -5.000000000000000e-01 0.000000000000000e+00
					2.500000000000000e-01 -2.500000000000000e-01 0.000000000000000e+00
					5.000000000000000e-01 -2.500000000000000e-01 0.000000000000000e+00
					-5.000000000000000e-01 -2.500000000000000e-01 0.000000000000000e+00
					-2.500000000000000e-01 -2.500000000000000e-01 0.000000000000000e+00
					-5.000000000000000e-01 6.938893903907228e-18 0.000000000000000e+00
					-2.500000000000000e-01 6.938893903907228e-18 0.000000000000000e+00
					-2.500000000000000e-01 -2.500000000000000e-01 0.000000000000000e+00
					1.040834085586084e-17 -2.500000000000000e-01 0.000000000000000e+00
					-2.500000000000000e-01 6.938893903907228e-18 0.000000000000000e+00
					1.040834085586084e-17 6.938893903907228e-18 0.000000000000000e+00
					1.040834085586084e-17 -2.500000000000000e-01 0.000000000000000e+00
					2.500000000000000e-01 -2.500000000000000e-01 0.000000000000000e+00
					1.040834085586084e-17 6.938893903907228e-18 0.000000000000000e+00
					2.500000000000000e-01 6.938893903907228e-18 0.000000000000000e+00
					2.500000000000000e-01 -2.500000000000000e-01 0.000000000000000e+00
					5.000000000000000e-01 -2.500000000000000e-01 0.000000000000000e+00
					2.500000000000000e-01 6.938893903907228e-18 0.000000000000000e+00
					5.000000000000000e-01 6.938893903907228e-18 0.000000000000000e+00
					-5.000000000000000e-01 6.938893903907228e-18 0.000000000000000e+00
					-2.500000000000000e-01 6.938893903907228e-18 0.000000000000000e+00
					-5.000000000000000e-01 2.500000000000000e-01 0.000000000000000e+00
					-2.500000000000000e-01 2.500000000000000e-01 0.000000000000000e+00
					-2.500000000000000e-01 6.938893903907228e-18 0.000000000000000e+00
					1.040834085586084e-17 6.938893903907228e-18 0.000000000000000e+00
					-2.500000000000000e-01 2.500000000000000e-01 0.000000000000000e+00
					6.938893903907228e-18 2.500000000000000e-01 0.000000000000000e+00
					1.040834085586084e-17 6.938893903907228e-18 0.000000000000000e+00
					2.500000000000000e-01 6.938893903907228e-18 0.000000000000000e+00
					6.938893903907228e-18 2.500000000000000e-01 0.000000000000000e+00
					2.500000000000000e-01 2.500000000000000e-01 0.000000000000000e+00
					2.500000000000000e-01 6.938893903907228e-18 0.000000000000000e+00
					5.000000000000000e-01 6.938893903907228e-18 0.000000000000000e+00
					2.500000000000000e-01 2.500000000000000e-01 0.000000000000000e+00
					5.000000000000000e-01 2.500000000000000e-01 0.000000000000000e+00
					-5.000000000000000e-01 2.500000000000000e-01 0.000000000000000e+00
					-2.500000000000000e-01 2.500000000000000e-01 0.000000000000000e+00
					-5.000000000000000e-01 5.000000000000000e-01 0.000000000000000e+00
					-2.500000000000000e-01 5.000000000000000e-01 0.000000000000000e+00
					-2.500000000000000e-01 2.500000000000000e-01 0.000000000000000e+00
					6.938893903907228e-18 2.500000000000000e-01 0.000000000000000e+00
					-2.500000000000000e-01 5.000000000000000e-01 0.000000000000000e+00
					6.938893903907228e-18 5.000000000000000e-01 0.000000000000000e+00
					6.938893903907228e-18 2.500000000000000e-01 0.000000000000000e+00
					2.500000000000000e-01 2.500000000000000e-01 0.000000000000000e+00
					6.938893903907228e-18 5.000000000000000e-01 0.000000000000000e+00
					2.500000000000000e-01 5.000000000000000e-01 0.000000000000000e+00
					2.500000000000000e-01 2.500000000000000e-01 0.000000000000000e+00
					5.000000000000000e-01 2.500000000000000e-01 0.000000000000000e+00
					2.500000000000000e-01 5.000000000000000e-01 0.000000000000000e+00
					5.000000000000000e-01 5.000000000000000e-01 0.000000000000000e+00
				</DataArray>
			</Points>
			<Cells>
				<DataArray Name="connectivity" type="UInt32" format="ascii">
					0 1 3 2 4 5 7 6 8 9 11 10 12 13 15 14 16 17 19 18 20 21 23 22 24 25 27 26 28 29 31 30 32 33 35 34 36 37 39 38 40 41 43 42 44 45 47 46 48 49 51 50 52 53 55 54 56 57 59 58 60 61 63 62 
				</DataArray>
				<DataArray Name="offsets" type="UInt32" format="ascii">
					4 8 12 16 20 24 28 32 36 40 44 48 52 56 60 64 
				</DataArray>
				<DataArray Name="types" type="UInt8" format="ascii">
					9 9 9 9 9 9 9 9 9 9 9 9 9 9 9 9 
				</DataArray>
			</Cells>
			<PointData Vectors="solution ">
				<DataArray Name="solution" type="Float64" NumberOfComponents="1" format="ascii">
					1.918918534185875e+00 3.996643787811704e+00 5.063891735666123e+00 9.867737978494134e+00 3.996643787811704e+00 5.824789421314498e+00 9.867737978494135e+00 1.413776481517102e+01 5.824789421314499e+00 6.162428742956793e+00 1.413776481517103e+01 1.551250681818115e+01 6.162428742956793e+00 4.913394873451489e+00 1.551250681818115e+01 1.278745093920151e+01 5.063891735666124e+00 9.867737978494135e+00 9.276311716446816e+00 1.792805310754345e+01 9.867737978494135e+00 1.413776481517103e+01 1.792805310754346e+01 2.604146379545430e+01 1.413776481517103e+01 1.551250681818115e+01 2.604146379545431e+01 2.882544492571600e+01 1.551250681818115e+01 1.278745093920152e+01 2.882544492571600e+01 2.379554555909613e+01 9.276311716446818e+00 1.792805310754346e+01 1.266718472165427e+01 2.513858104461402e+01 1.792805310754346e+01 2.604146379545431e+01 2.513858104461402e+01 3.691033678670442e+01 2.604146379545431e+01 2.882544492571601e+01 3.691033678670443e+01 4.060473671920190e+01 2.882544492571601e+01 2.379554555909613e+01 4.060473671920191e+01 3.299234155517762e+01 1.266718472165427e+01 2.513858104461402e+01 1.282614781541764e+01 2.655784118287785e+01 2.513858104461403e+01 3.691033678670442e+01 2.655784118287785e+01 3.920485982201947e+01 3.691033678670443e+01 4.060473671920191e+01 3.920485982201947e+01 4.209774410581682e+01 4.060473671920192e+01 3.299234155517763e+01 4.209774410581682e+01 3.262663399504516e+01 
				</DataArray>
			</PointData>
			<CellData>
			</CellData>
		</Piece>
	</UnstructuredGrid>
</VTKFile>