<?xml version="1.0"?>
<VTKFile type="UnstructuredGrid" byte_order="LittleEndian">
	<UnstructuredGrid>
		<Piece NumberOfPoints="256" NumberOfCells="64">
			<Points>
				<DataArray type="Float64" NumberOfComponents="3" format="ascii">
					-1.000000000000000e+00 1.000000000000000e+00 0.000000000000000e+00
					-9.135224194504830e-01 9.135224194504830e-01 0.000000000000000e+00
					-7.500000000000000e-01 1.218750000000000e+00 0.000000000000000e+00
					-6.851418145878622e-01 1.081481403825483e+00 0.000000000000000e+00
					-9.135224194504830e-01 9.135224194504830e-01 0.000000000000000e+00
					-8.338955762008279e-01 8.338955762008279e-01 0.000000000000000e+00
					-6.851418145878622e-01 1.081481403825483e+00 0.000000000000000e+00
					-6.254216821506209e-01 9.577627637008279e-01 0.000000000000000e+00
					-8.338955762008279e-01 8.338955762008279e-01 0.000000000000000e+00
					-7.611194702510349e-01 7.611194702510349e-01 0.000000000000000e+00
					-6.254216821506209e-01 9.577627637008279e-01 0.000000000000000e+00
					-5.708396026882762e-01 8.475940796260348e-01 0.000000000000000e+00
					-7.611194702510349e-01 7.611194702510349e-01 0.000000000000000e+00
					-6.951941016011038e-01 6.951941016011038e-01 0.000000000000000e+00
					-5.708396026882762e-01 8.475940796260348e-01 0.000000000000000e+00
					-5.213955762008279e-01 7.509753516011038e-01 0.000000000000000e+00
					-6.951941016011038e-01 6.951941016011038e-01 0.000000000000000e+00
					-6.361194702510349e-01 6.361194702510349e-01 0.000000000000000e+00
					-5.213955762008279e-01 7.509753516011038e-01 0.000000000000000e+00
					-4.770896026882761e-01 6.679065796260349e-01 0.000000000000000e+00
					-6.361194702510349e-01 6.361194702510349e-01 0.000000000000000e+00
					-5.838955762008278e-01 5.838955762008278e-01 0.000000000000000e+00
					-4.770896026882761e-01 6.679065796260349e-01 0.000000000000000e+00
					-4.379216821506209e-01 5.983877637008279e-01 0.000000000000000e+00
					-5.838955762008278e-01 5.838955762008278e-01 0.000000000000000e+00
					-5.385224194504830e-01 5.385224194504830e-01 0.000000000000000e+00
					-4.379216821506209e-01 5.983877637008279e-01 0.000000000000000e+00
					-4.038918145878622e-01 5.424189038254830e-01 0.000000000000000e+00
					-5.385224194504830e-01 5.385224194504830e-01 0.000000000000000e+00
					-5.000000000000000e-01 5.000000000000000e-01 0.000000000000000e+00
					-4.038918145878622e-01 5.424189038254830e-01 0.000000000000000e+00
					-3.750000000000000e-01 5.000000000000000e-01 0.000000000000000e+00
					-7.500000000000000e-01 1.218750000000000e+00 0.000000000000000e+00
					-6.851418145878622e-01 1.081481403825483e+00 0.000000000000000e+00
					-5.000000000000000e-01 1.375000000000000e+00 0.000000000000000e+00
					-4.567612097252415e-01 1.201452106950483e+00 0.000000000000000e+00
					-6.851418145878622e-01 1.081481403825483e+00 0.000000000000000e+00
					-6.254216821506209e-01 9.577627637008279e-01 0.000000000000000e+00
					-4.567612097252415e-01 1.201452106950483e+00 0.000000000000000e+00
					-4.169477881004140e-01 1.046239326200828e+00 0.000000000000000e+00
					-6.254216821506209e-01 9.577627637008279e-01 0.000000000000000e+00
					-5.708396026882762e-01 8.475940796260348e-01 0.000000000000000e+00
					-4.169477881004140e-01 1.046239326200828e+00 0.000000000000000e+00
					-3.805597351255174e-01 9.093616577510348e-01 0.000000000000000e+00
					-5.708396026882762e-01 8.475940796260348e-01 0.000000000000000e+00
					-5.213955762008279e-01 7.509753516011038e-01 0.000000000000000e+00
					-3.805597351255174e-01 9.093616577510348e-01 0.000000000000000e+00
					-3.475970508005519e-01 7.908191016011039e-01 0.000000000000000e+00
					-5.213955762008279e-01 7.509753516011038e-01 0.000000000000000e+00
					-4.770896026882761e-01 6.679065796260349e-01 0.000000000000000e+00
					-3.475970508005519e-01 7.908191016011039e-01 0.000000000000000e+00
					-3.180597351255174e-01 6.906116577510349e-01 0.000000000000000e+00
					-4.770896026882761e-01 6.679065796260349e-01 0.000000000000000e+00
					-4.379216821506209e-01 5.983877637008279e-01 0.000000000000000e+00
					-3.180597351255174e-01 6.906116577510349e-01 0.000000000000000e+00
					-2.919477881004139e-01 6.087393262008278e-01 0.000000000000000e+00
					-4.379216821506209e-01 5.983877637008279e-01 0.000000000000000e+00
					-4.038918145878622e-01 5.424189038254830e-01 0.000000000000000e+00
					-2.919477881004139e-01 6.087393262008278e-01 0.000000000000000e+00
					-2.692612097252414e-01 5.452021069504830e-01 0.000000000000000e+00
					-4.038918145878622e-01 5.424189038254830e-01 0.000000000000000e+00
					-3.750000000000000e-01 5.000000000000000e-01 0.000000000000000e+00
					-2.692612097252414e-01 5.452021069504830e-01 0.000000000000000e+00
					-2.500000000000000e-01 5.000000000000000e-01 0.000000000000000e+00
					-5.000000000000000e-01 1.375000000000000e+00 0.000000000000000e+00
					-4.567612097252415e-01 1.201452106950483e+00 0.000000000000000e+00
					-2.500000000000000e-01 1.468750000000000e+00 0.000000000000000e+00
					-2.283806048626207e-01 1.273434528825483e+00 0.000000000000000e+00
					-4.567612097252415e-01 1.201452106950483e+00 0.000000000000000e+00
					-4.169477881004140e-01 1.046239326200828e+00 0.000000000000000e+00
					-2.283806048626207e-01 1.273434528825483e+00 0.000000000000000e+00
					-2.084738940502069e-01 1.099325263700828e+00 0.000000000000000e+00
					-4.169477881004140e-01 1.046239326200828e+00 0.000000000000000e+00
					-3.805597351255174e-01 9.093616577510348e-01 0.000000000000000e+00
					-2.084738940502069e-01 1.099325263700828e+00 0.000000000000000e+00
					-1.902798675627587e-01 9.464222046260349e-01 0.000000000000000e+00
					-3.805597351255174e-01 9.093616577510348e-01 0.000000000000000e+00
					-3.475970508005519e-01 7.908191016011039e-01 0.000000000000000e+00
					-1.902798675627587e-01 9.464222046260349e-01 0.000000000000000e+00
					-1.737985254002759e-01 8.147253516011038e-01 0.000000000000000e+00
					-3.475970508005519e-01 7.908191016011039e-01 0.000000000000000e+00
					-3.180597351255174e-01 6.906116577510349e-01 0.000000000000000e+00
					-1.737985254002759e-01 8.147253516011038e-01 0.000000000000000e+00
					-1.590298675627587e-01 7.042347046260348e-01 0.000000000000000e+00
					-3.180597351255174e-01 6.906116577510349e-01 0.000000000000000e+00
					-2.919477881004139e-01 6.087393262008278e-01 0.000000000000000e+00
					-1.590298675627587e-01 7.042347046260348e-01 0.000000000000000e+00
					-1.459738940502069e-01 6.149502637008278e-01 0.000000000000000e+00
					-2.919477881004139e-01 6.087393262008278e-01 0.000000000000000e+00
					-2.692612097252414e-01 5.452021069504830e-01 0.000000000000000e+00
					-1.459738940502069e-01 6.149502637008278e-01 0.000000000000000e+00
					-1.346306048626207e-01 5.468720288254830e-01 0.000000000000000e+00
					-2.692612097252414e-01 5.452021069504830e-01 0.000000000000000e+00
					-2.500000000000000e-01 5.000000000000000e-01 0.000000000000000e+00
					-1.346306048626207e-01 5.468720288254830e-01 0.000000000000000e+00
					-1.250000000000000e-01 5.000000000000000e-01 0.000000000000000e+00
					-2.500000000000000e-01 1.468750000000000e+00 0.000000000000000e+00
					-2.283806048626207e-01 1.273434528825483e+00 0.000000000000000e+00
					0.000000000000000e+00 1.500000000000000e+00 0.000000000000000e+00
					4.857225732735060e-17 1.297428669450483e+00 0.000000000000000e+00
					-2.283806048626207e-01 1.273434528825483e+00 0.000000000000000e+00
					-2.084738940502069e-01 1.099325263700828e+00 0.000000000000000e+00
					4.857225732735060e-17 1.297428669450483e+00 0.000000000000000e+00
					3.469446951953614e-17 1.117020576200828e+00 0.000000000000000e+00
					-2.084738940502069e-01 1.099325263700828e+00 0.000000000000000e+00
					-1.902798675627587e-01 9.464222046260349e-01 0.000000000000000e+00
					3.469446951953614e-17 1.117020576200828e+00 0.000000000000000e+00
					4.163336342344337e-17 9.587757202510350e-01 0.000000000000000e+00
					-1.902798675627587e-01 9.464222046260349e-01 0.000000000000000e+00
					-1.737985254002759e-01 8.147253516011038e-01 0.000000000000000e+00
					4.163336342344337e-17 9.587757202510350e-01 0.000000000000000e+00
					4.163336342344337e-17 8.226941016011039e-01 0.000000000000000e+00
					-1.737985254002759e-01 8.147253516011038e-01 0.000000000000000e+00
					-1.590298675627587e-01 7.042347046260348e-01 0.000000000000000e+00
					4.163336342344337e-17 8.226941016011039e-01 0.000000000000000e+00
					3.816391647148976e-17 7.087757202510349e-01 0.000000000000000e+00
					-1.590298675627587e-01 7.042347046260348e-01 0.000000000000000e+00
					-1.459738940502069e-01 6.149502637008278e-01 0.000000000000000e+00
					3.816391647148976e-17 7.087757202510349e-01 0.000000000000000e+00
					2.428612866367530e-17 6.170205762008278e-01 0.000000000000000e+00
					-1.459738940502069e-01 6.149502637008278e-01 0.000000000000000e+00
					-1.346306048626207e-01 5.468720288254830e-01 0.000000000000000e+00
					2.428612866367530e-17 6.170205762008278e-01 0.000000000000000e+00
					2.428612866367530e-17 5.474286694504830e-01 0.000000000000000e+00
					-1.346306048626207e-01 5.468720288254830e-01 0.000000000000000e+00
					-1.250000000000000e-01 5.000000000000000e-01 0.000000000000000e+00
					2.428612866367530e-17 5.474286694504830e-01 0.000000000000000e+00
					0.000000000000000e+00 5.000000000000000e-01 0.000000000000000e+00
					0.000000000000000e+00 1.500000000000000e+00 0.000000000000000e+00
					4.857225732735060e-17 1.297428669450483e+00 0.000000000000000e+00
					2.500000000000000e-01 1.468750000000000e+00 0.000000000000000e+00
					2.283806048626208e-01 1.273434528825483e+00 0.000000000000000e+00
					4.857225732735060e-17 1.297428669450483e+00 0.000000000000000e+00
					3.469446951953614e-17 1.117020576200828e+00 0.000000000000000e+00
					2.283806048626208e-01 1.273434528825483e+00 0.000000000000000e+00
					2.084738940502070e-01 1.099325263700828e+00 0.000000000000000e+00
					3.469446951953614e-17 1.117020576200828e+00 0.000000000000000e+00
					4.163336342344337e-17 9.587757202510350e-01 0.000000000000000e+00
					2.084738940502070e-01 1.099325263700828e+00 0.000000000000000e+00
					1.902798675627588e-01 9.464222046260349e-01 0.000000000000000e+00
					4.163336342344337e-17 9.587757202510350e-01 0.000000000000000e+00
					4.163336342344337e-17 8.226941016011039e-01 0.000000000000000e+00
					1.902798675627588e-01 9.464222046260349e-01 0.000000000000000e+00
					1.737985254002760e-01 8.147253516011039e-01 0.000000000000000e+00
					4.163336342344337e-17 8.226941016011039e-01 0.000000000000000e+00
					3.816391647148976e-17 7.087757202510349e-01 0.000000000000000e+00
					1.737985254002760e-01 8.147253516011039e-01 0.000000000000000e+00
					1.590298675627588e-01 7.042347046260349e-01 0.000000000000000e+00
					3.816391647148976e-17 7.087757202510349e-01 0.000000000000000e+00
					2.428612866367530e-17 6.170205762008278e-01 0.000000000000000e+00
					1.590298675627588e-01 7.042347046260349e-01 0.000000000000000e+00
					1.459738940502070e-01 6.149502637008278e-01 0.000000000000000e+00
					2.428612866367530e-17 6.170205762008278e-01 0.000000000000000e+00
					2.428612866367530e-17 5.474286694504830e-01 0.000000000000000e+00
					1.459738940502070e-01 6.149502637008278e-01 0.000000000000000e+00
					1.346306048626208e-01 5.468720288254829e-01 0.000000000000000e+00
					2.428612866367530e-17 5.474286694504830e-01 0.000000000000000e+00
					0.000000000000000e+00 5.000000000000000e-01 0.000000000000000e+00
					1.346306048626208e-01 5.468720288254829e-01 0.000000000000000e+00
					1.250000000000000e-01 5.000000000000000e-01 0.000000000000000e+00
					2.500000000000000e-01 1.468750000000000e+00 0.000000000000000e+00
					2.283806048626208e-01 1.273434528825483e+00 0.000000000000000e+00
					5.000000000000000e-01 1.375000000000000e+00 0.000000000000000e+00
					4.567612097252415e-01 1.201452106950483e+00 0.000000000000000e+00
					2.283806048626208e-01 1.273434528825483e+00 0.000000000000000e+00
					2.084738940502070e-01 1.099325263700828e+00 0.000000000000000e+00
					4.567612097252415e-01 1.201452106950483e+00 0.000000000000000e+00
					4.169477881004139e-01 1.046239326200828e+00 0.000000000000000e+00
					2.084738940502070e-01 1.099325263700828e+00 0.000000000000000e+00
					1.902798675627588e-01 9.464222046260349e-01 0.000000000000000e+00
					4.169477881004139e-01 1.046239326200828e+00 0.000000000000000e+00
					3.805597351255174e-01 9.093616577510348e-01 0.000000000000000e+00
					1.902798675627588e-01 9.464222046260349e-01 0.000000000000000e+00
					1.737985254002760e-01 8.147253516011039e-01 0.000000000000000e+00
					3.805597351255174e-01 9.093616577510348e-01 0.000000000000000e+00
					3.475970508005520e-01 7.908191016011039e-01 0.000000000000000e+00
					1.737985254002760e-01 8.147253516011039e-01 0.000000000000000e+00
					1.590298675627588e-01 7.042347046260349e-01 0.000000000000000e+00
					3.475970508005520e-01 7.908191016011039e-01 0.000000000000000e+00
					3.180597351255175e-01 6.906116577510348e-01 0.000000000000000e+00
					1.590298675627588e-01 7.042347046260349e-01 0.000000000000000e+00
					1.459738940502070e-01 6.149502637008278e-01 0.000000000000000e+00
					3.180597351255175e-01 6.906116577510348e-01 0.000000000000000e+00
					2.919477881004140e-01 6.087393262008278e-01 0.000000000000000e+00
					1.459738940502070e-01 6.149502637008278e-01 0.000000000000000e+00
					1.346306048626208e-01 5.468720288254829e-01 0.000000000000000e+00
					2.919477881004140e-01 6.087393262008278e-01 0.000000000000000e+00
					2.692612097252415e-01 5.452021069504829e-01 0.000000000000000e+00
					1.346306048626208e-01 5.468720288254829e-01 0.000000000000000e+00
					1.250000000000000e-01 5.000000000000000e-01 0.000000000000000e+00
					2.692612097252415e-01 5.452021069504829e-01 0.000000000000000e+00
					2.500000000000000e-01 5.000000000000000e-01 0.000000000000000e+00
					5.000000000000000e-01 1.375000000000000e+00 0.000000000000000e+00
					4.567612097252415e-01 1.201452106950483e+00 0.000000000000000e+00
					7.500000000000000e-01 1.218750000000000e+00 0.000000000000000e+00
					6.851418145878622e-01 1.081481403825483e+00 0.000000000000000e+00
					4.567612097252415e-01 1.201452106950483e+00 0.000000000000000e+00
					4.169477881004139e-01 1.046239326200828e+00 0.000000000000000e+00
					6.851418145878622e-01 1.081481403825483e+00 0.000000000000000e+00
					6.254216821506209e-01 9.577627637008279e-01 0.000000000000000e+00
					4.169477881004139e-01 1.046239326200828e+00 0.000000000000000e+00
					3.805597351255174e-01 9.093616577510348e-01 0.000000000000000e+00
					6.254216821506209e-01 9.577627637008279e-01 0.000000000000000e+00
					5.708396026882763e-01 8.475940796260351e-01 0.000000000000000e+00
					3.805597351255174e-01 9.093616577510348e-01 0.000000000000000e+00
					3.475970508005520e-01 7.908191016011039e-01 0.000000000000000e+00
					5.708396026882763e-01 8.475940796260351e-01 0.000000000000000e+00
					5.213955762008280e-01 7.509753516011040e-01 0.000000000000000e+00
					3.475970508005520e-01 7.908191016011039e-01 0.000000000000000e+00
					3.180597351255175e-01 6.906116577510348e-01 0.000000000000000e+00
					5.213955762008280e-01 7.509753516011040e-01 0.000000000000000e+00
					4.770896026882762e-01 6.679065796260348e-01 0.000000000000000e+00
					3.180597351255175e-01 6.906116577510348e-01 0.000000000000000e+00
					2.919477881004140e-01 6.087393262008278e-01 0.000000000000000e+00
					4.770896026882762e-01 6.679065796260348e-01 0.000000000000000e+00
					4.379216821506209e-01 5.983877637008279e-01 0.000000000000000e+00
					2.919477881004140e-01 6.087393262008278e-01 0.000000000000000e+00
					2.692612097252415e-01 5.452021069504829e-01 0.000000000000000e+00
					4.379216821506209e-01 5.983877637008279e-01 0.000000000000000e+00
					4.038918145878622e-01 5.424189038254830e-01 0.000000000000000e+00
					2.692612097252415e-01 5.452021069504829e-01 0.000000000000000e+00
					2.500000000000000e-01 5.000000000000000e-01 0.000000000000000e+00
					4.038918145878622e-01 5.424189038254830e-01 0.000000000000000e+00
					3.750000000000000e-01 5.000000000000000e-01 0.000000000000000e+00
					7.500000000000000e-01 1.218750000000000e+00 0.000000000000000e+00
					6.851418145878622e-01 1.081481403825483e+00 0.000000000000000e+00
					1.000000000000000e+00 1.000000000000000e+00 0.000000000000000e+00
					9.135224194504830e-01 9.135224194504830e-01 0.000000000000000e+00
					6.851418145878622e-01 1.081481403825483e+00 0.000000000000000e+00
					6.254216821506209e-01 9.577627637008279e-01 0.000000000000000e+00
					9.135224194504830e-01 9.135224194504830e-01 0.000000000000000e+00
					8.338955762008279e-01 8.338955762008279e-01 0.000000000000000e+00
					6.254216821506209e-01 9.577627637008279e-01 0.000000000000000e+00
					5.708396026882763e-01 8.475940796260351e-01 0.000000000000000e+00
					8.338955762008279e-01 8.338955762008279e-01 0.000000000000000e+00
					7.611194702510349e-01 7.611194702510349e-01 0.000000000000000e+00
					5.708396026882763e-01 8.475940796260351e-01 0.000000000000000e+00
					5.213955762008280e-01 7.509753516011040e-01 0.000000000000000e+00
					7.611194702510349e-01 7.611194702510349e-01 0.000000000000000e+00
					6.951941016011038e-01 6.951941016011038e-01 0.000000000000000e+00
					5.213955762008280e-01 7.509753516011040e-01 0.000000000000000e+00
					4.770896026882762e-01 6.679065796260348e-01 0.000000000000000e+00
					6.951941016011038e-01 6.951941016011038e-01 0.000000000000000e+00
					6.361194702510349e-01 6.361194702510349e-01 0.000000000000000e+00
					4.770896026882762e-01 6.679065796260348e-01 0.000000000000000e+00
					4.379216821506209e-01 5.983877637008279e-01 0.000000000000000e+00
					6.361194702510349e-01 6.361194702510349e-01 0.000000000000000e+00
					5.838955762008278e-01 5.838955762008278e-01 0.000000000000000e+00
					4.379216821506209e-01 5.983877637008279e-01 0.000000000000000e+00
					4.038918145878622e-01 5.424189038254830e-01 0.000000000000000e+00
					5.838955762008278e-01 5.838955762008278e-01 0.000000000000000e+00
					5.385224194504830e-01 5.385224194504830e-01 0.000000000000000e+00
					4.038918145878622e-01 5.424189038254830e-01 0.000000000000000e+00
					3.750000000000000e-01 5.000000000000000e-01 0.000000000000000e+00
					5.385224194504830e-01 5.385224194504830e-01 0.000000000000000e+00
					5.000000000000000e-01 5.000000000000000e-01 0.000000000000000e+00
				</DataArray>
			</Points>
			<Cells>
				<DataArray Name="connectivity" type="UInt32" format="ascii">
					0 1 3 2 4 5 7 6 8 9 11 10 12 13 15 14 16 17 19 18 20 21 23 22 24 25 27 26 28 29 31 30 32 33 35 34 36 37 39 38 40 41 43 42 44 45 47 46 48 49 51 50 52 53 55 54 56 57 59 58 60 61 63 62 64 65 67 66 68 69 71 70 72 73 75 74 76 77 79 78 80 81 83 82 84 85 87 86 88 89 91 90 92 93 95 94 96 97 99 98 100 101 103 102 104 105 107 106 108 109 111 110 112 113 115 114 116 117 119 118 120 121 123 122 124 125 127 126 128 129 131 130 132 133 135 134 136 137 139 138 140 141 143 142 144 145 147 146 148 149 151 150 152 153 155 154 156 157 159 158 160 161 163 162 164 165 167 166 168 169 171 170 172 173 175 174 176 177 179 178 180 181 183 182 184 185 187 186 188 189 191 190 192 193 195 194 196 197 199 198 200 201 203 202 204 205 207 206 208 209 211 210 212 213 215 214 216 217 219 218 220 221 223 222 224 225 227 226 228 229 231 230 232 233 235 234 236 237 239 238 240 241 243 242 244 245 247 246 248 249 251 250 252 253 255 254 
				</DataArray>
				<DataArray Name="offsets" type="UInt32" format="ascii">
					4 8 12 16 20 24 28 32 36 40 44 48 52 56 60 64 68 72 76 80 84 88 92 96 100 104 108 112 116 120 124 128 132 136 140 144 148 152 156 160 164 168 172 176 180 184 188 192 196 200 204 208 212 216 220 224 228 232 236 240 244 248 252 256 
				</DataArray>
				<DataArray Name="types" type="UInt8" format="ascii">
					9 9 9 9 9 9 9 9 9 9 9 9 9 9 9 9 9 9 9 9 9 9 9 9 9 9 9 9 9 9 9 9 9 9 9 9 9 9 9 9 9 9 9 9 9 9 9 9 9 9 9 9 9 9 9 9 9 9 9 9 9 9 9 9 
				</DataArray>
			</Cells>
			<PointData Vectors="solution ">
				<DataArray Name="solution" type="Float64" NumberOfComponents="1" format="ascii">
					0.000000000000000e+00 2.437488703967226e-01 0.000000000000000e+00 2.855663623266678e-01 2.437488703967227e-01 1.001851961857807e+00 2.855663623266679e-01 1.574954308002632e+00 1.001851961857807e+00 2.259178955579819e+00 1.574954308002632e+00 4.071644260683428e+00 2.259178955579820e+00 3.940633517807239e+00 4.071644260683429e+00 7.317285684568854e+00 3.940633517807240e+00 5.932665342827728e+00 7.317285684568857e+00 1.072983817935283e+01 5.932665342827729e+00 8.100700425842843e+00 1.072983817935283e+01 1.391437434185876e+01 8.100700425842845e+00 1.029998077062784e+01 1.391437434185877e+01 1.667070264730761e+01 1.029998077062785e+01 1.238134832653934e+01 1.667070264730761e+01 1.890865154559106e+01 0.000000000000000e+00 2.855663623266678e-01 0.000000000000000e+00 3.770214337844921e-01 2.855663623266679e-01 1.574954308002632e+00 3.770214337844922e-01 2.648121889113488e+00 1.574954308002632e+00 4.071644260683429e+00 2.648121889113488e+00 7.109891584842858e+00 4.071644260683430e+00 7.317285684568857e+00 7.109891584842859e+00 1.250684099278603e+01 7.317285684568857e+00 1.072983817935283e+01 1.250684099278603e+01 1.753721838005860e+01 1.072983817935283e+01 1.391437434185877e+01 1.753721838005860e+01 2.155113441978150e+01 1.391437434185877e+01 1.667070264730761e+01 2.155113441978150e+01 2.444268462545674e+01 1.667070264730762e+01 1.890865154559106e+01 2.444268462545674e+01 2.638534134114203e+01 0.000000000000000e+00 3.770214337844922e-01 0.000000000000000e+00 6.061283492126474e-01 3.770214337844923e-01 2.648121889113488e+00 6.061283492126475e-01 4.217347183611230e+00 2.648121889113489e+00 7.109891584842859e+00 4.217347183611230e+00 1.097763760419214e+01 7.109891584842859e+00 1.250684099278603e+01 1.097763760419214e+01 1.857497551090567e+01 1.250684099278603e+01 1.753721838005860e+01 1.857497551090567e+01 2.497163819083020e+01 1.753721838005861e+01 2.155113441978150e+01 2.497163819083020e+01 2.942585344177608e+01 2.155113441978150e+01 2.444268462545674e+01 2.942585344177609e+01 3.211749981890223e+01 2.444268462545674e+01 2.638534134114204e+01 3.211749981890223e+01 3.357836669088690e+01 0.000000000000000e+00 6.061283492126475e-01 0.000000000000000e+00 8.391152186299241e-01 6.061283492126475e-01 4.217347183611230e+00 8.391152186299241e-01 5.656413500903362e+00 4.217347183611230e+00 1.097763760419214e+01 5.656413500903362e+00 1.433457394256938e+01 1.097763760419214e+01 1.857497551090567e+01 1.433457394256938e+01 2.363107576155658e+01 1.857497551090568e+01 2.497163819083020e+01 2.363107576155658e+01 3.097381138052238e+01 2.497163819083021e+01 2.942585344177609e+01 3.097381138052238e+01 3.565744328609856e+01 2.942585344177609e+01 3.211749981890223e+01 3.565744328609856e+01 3.814763383874221e+01 3.211749981890223e+01 3.357836669088691e+01 3.814763383874221e+01 3.924505055760314e+01 0.000000000000000e+00 8.391152186299241e-01 0.000000000000000e+00 9.010475841912702e-01 8.391152186299242e-01 5.656413500903362e+00 9.010475841912704e-01 6.224957777177728e+00 5.656413500903363e+00 1.433457394256938e+01 6.224957777177729e+00 1.573981711702010e+01 1.433457394256938e+01 2.363107576155658e+01 1.573981711702010e+01 2.582113514576506e+01 2.363107576155658e+01 3.097381138052239e+01 2.582113514576507e+01 3.369537252168889e+01 3.097381138052239e+01 3.565744328609856e+01 3.369537252168889e+01 3.863943149734428e+01 3.565744328609856e+01 3.814763383874221e+01 3.863943149734429e+01 4.121605790891870e+01 3.814763383874222e+01 3.924505055760314e+01 4.121605790891871e+01 4.230911792708832e+01 0.000000000000000e+00 9.010475841912704e-01 0.000000000000000e+00 7.969795141197331e-01 9.010475841912704e-01 6.224957777177729e+00 7.969795141197332e-01 5.672389981363831e+00 6.224957777177729e+00 1.573981711702010e+01 5.672389981363833e+00 1.451461688751875e+01 1.573981711702010e+01 2.582113514576507e+01 1.451461688751875e+01 2.418559650165624e+01 2.582113514576507e+01 3.369537252168889e+01 2.418559650165624e+01 3.219906366708339e+01 3.369537252168889e+01 3.863943149734429e+01 3.219906366708339e+01 3.766068456821091e+01 3.863943149734430e+01 4.121605790891871e+01 3.766068456821092e+01 4.080509258635603e+01 4.121605790891871e+01 4.230911792708832e+01 4.080509258635604e+01 4.240188835452898e+01 0.000000000000000e+00 7.969795141197332e-01 0.000000000000000e+00 7.892092793978599e-01 7.969795141197332e-01 5.672389981363832e+00 7.892092793978600e-01 4.606379416856256e+00 5.672389981363833e+00 1.451461688751875e+01 4.606379416856256e+00 1.134707216031466e+01 1.451461688751875e+01 2.418559650165624e+01 1.134707216031466e+01 1.915980858280906e+01 2.418559650165624e+01 3.219906366708339e+01 1.915980858280906e+01 2.650248520261160e+01 3.219906366708339e+01 3.766068456821092e+01 2.650248520261161e+01 3.250901976173933e+01 3.766068456821092e+01 4.080509258635604e+01 3.250901976173933e+01 3.676426379861199e+01 4.080509258635604e+01 4.240188835452899e+01 3.676426379861199e+01 3.934610507083933e+01 0.000000000000000e+00 7.892092793978600e-01 0.000000000000000e+00 9.674259610332859e-01 7.892092793978602e-01 4.606379416856256e+00 9.674259610332860e-01 3.689097019704953e+00 4.606379416856256e+00 1.134707216031466e+01 3.689097019704954e+00 7.806257634452482e+00 1.134707216031466e+01 1.915980858280906e+01 7.806257634452483e+00 1.287734910912162e+01 1.915980858280907e+01 2.650248520261161e+01 1.287734910912162e+01 1.842183761914984e+01 2.650248520261161e+01 3.250901976173933e+01 1.842183761914985e+01 2.394799094294297e+01 3.250901976173933e+01 3.676426379861199e+01 2.394799094294297e+01 2.896432774818861e+01 3.676426379861199e+01 3.934610507083933e+01 2.896432774818861e+01 3.298206594890554e+01 
				</DataArray>
			</PointData>
			<CellData>
			</CellData>
		</Piece>
	</UnstructuredGrid>
</VTKFile>