<?xml version="1.0"?>
<VTKFile type="UnstructuredGrid" byte_order="LittleEndian">
	<UnstructuredGrid>
		<Piece NumberOfPoints="256" NumberOfCells="64">
			<Points>
				<DataArray type="Float64" NumberOfComponents="3" format="ascii">
					-1.000000000000000e+00 -1.000000000000000e+00 0.000000000000000e+00
					-9.135224194504830e-01 -9.135224194504830e-01 0.000000000000000e+00
					-1.218750000000000e+00 -7.500000000000000e-01 0.000000000000000e+00
					-1.081481403825483e+00 -6.851418145878622e-01 0.000000000000000e+00
					-9.135224194504830e-01 -9.135224194504830e-01 0.000000000000000e+00
					-8.338955762008279e-01 -8.338955762008279e-01 0.000000000000000e+00
					-1.081481403825483e+00 -6.851418145878622e-01 0.000000000000000e+00
					-9.577627637008279e-01 -6.254216821506209e-01 0.000000000000000e+00
					-8.338955762008279e-01 -8.338955762008279e-01 0.000000000000000e+00
					-7.611194702510349e-01 -7.611194702510349e-01 0.000000000000000e+00
					-9.577627637008279e-01 -6.254216821506209e-01 0.000000000000000e+00
					-8.475940796260348e-01 -5.708396026882762e-01 0.000000000000000e+00
					-7.611194702510349e-01 -7.611194702510349e-01 0.000000000000000e+00
					-6.951941016011038e-01 -6.951941016011038e-01 0.000000000000000e+00
					-8.475940796260348e-01 -5.708396026882762e-01 0.000000000000000e+00
					-7.509753516011038e-01 -5.213955762008279e-01 0.000000000000000e+00
					-6.951941016011038e-01 -6.951941016011038e-01 0.000000000000000e+00
					-6.361194702510349e-01 -6.361194702510349e-01 0.000000000000000e+00
					-7.509753516011038e-01 -5.213955762008279e-01 0.000000000000000e+00
					-6.679065796260349e-01 -4.770896026882761e-01 0.000000000000000e+00
					-6.361194702510349e-01 -6.361194702510349e-01 0.000000000000000e+00
					-5.838955762008278e-01 -5.838955762008278e-01 0.000000000000000e+00
					-6.679065796260349e-01 -4.770896026882761e-01 0.000000000000000e+00
					-5.983877637008279e-01 -4.379216821506209e-01 0.000000000000000e+00
					-5.838955762008278e-01 -5.838955762008278e-01 0.000000000000000e+00
					-5.385224194504830e-01 -5.385224194504830e-01 0.000000000000000e+00
					-5.983877637008279e-01 -4.379216821506209e-01 0.000000000000000e+00
					-5.424189038254830e-01 -4.038918145878622e-01 0.000000000000000e+00
					-5.385224194504830e-01 -5.385224194504830e-01 0.000000000000000e+00
					-5.000000000000000e-01 -5.000000000000000e-01 0.000000000000000e+00
					-5.424189038254830e-01 -4.038918145878622e-01 0.000000000000000e+00
					-5.000000000000000e-01 -3.750000000000000e-01 0.000000000000000e+00
					-1.218750000000000e+00 -7.500000000000000e-01 0.000000000000000e+00
					-1.081481403825483e+00 -6.851418145878622e-01 0.000000000000000e+00
					-1.375000000000000e+00 -5.000000000000000e-01 0.000000000000000e+00
					-1.201452106950483e+00 -4.567612097252415e-01 0.000000000000000e+00
					-1.081481403825483e+00 -6.851418145878622e-01 0.000000000000000e+00
					-9.577627637008279e-01 -6.254216821506209e-01 0.000000000000000e+00
					-1.201452106950483e+00 -4.567612097252415e-01 0.000000000000000e+00
					-1.046239326200828e+00 -4.169477881004140e-01 0.000000000000000e+00
					-9.577627637008279e-01 -6.254216821506209e-01 0.000000000000000e+00
					-8.475940796260348e-01 -5.708396026882762e-01 0.000000000000000e+00
					-1.046239326200828e+00 -4.169477881004140e-01 0.000000000000000e+00
					-9.093616577510348e-01 -3.805597351255174e-01 0.000000000000000e+00
					-8.475940796260348e-01 -5.708396026882762e-01 0.000000000000000e+00
					-7.509753516011038e-01 -5.213955762008279e-01 0.000000000000000e+00
					-9.093616577510348e-01 -3.805597351255174e-01 0.000000000000000e+00
					-7.908191016011039e-01 -3.475970508005519e-01 0.000000000000000e+00
					-7.509753516011038e-01 -5.213955762008279e-01 0.000000000000000e+00
					-6.679065796260349e-01 -4.770896026882761e-01 0.000000000000000e+00
					-7.908191016011039e-01 -3.475970508005519e-01 0.000000000000000e+00
					-6.906116577510349e-01 -3.180597351255174e-01 0.000000000000000e+00
					-6.679065796260349e-01 -4.770896026882761e-01 0.000000000000000e+00
					-5.983877637008279e-01 -4.379216821506209e-01 0.000000000000000e+00
					-6.906116577510349e-01 -3.180597351255174e-01 0.000000000000000e+00
					-6.087393262008278e-01 -2.919477881004139e-01 0.000000000000000e+00
					-5.983877637008279e-01 -4.379216821506209e-01 0.000000000000000e+00
					-5.424189038254830e-01 -4.038918145878622e-01 0.000000000000000e+00
					-6.087393262008278e-01 -2.919477881004139e-01 0.000000000000000e+00
					-5.452021069504830e-01 -2.692612097252414e-01 0.000000000000000e+00
					-5.424189038254830e-01 -4.038918145878622e-01 0.000000000000000e+00
					-5.000000000000000e-01 -3.750000000000000e-01 0.000000000000000e+00
					-5.452021069504830e-01 -2.692612097252414e-01 0.000000000000000e+00
					-5.000000000000000e-01 -2.500000000000000e-01 0.000000000000000e+00
					-1.375000000000000e+00 -5.000000000000000e-01 0.000000000000000e+00
					-1.201452106950483e+00 -4.567612097252415e-01 0.000000000000000e+00
					-1.468750000000000e+00 -2.500000000000000e-01 0.000000000000000e+00
					-1.273434528825483e+00 -2.283806048626207e-01 0.000000000000000e+00
					-1.201452106950483e+00 -4.567612097252415e-01 0.000000000000000e+00
					-1.046239326200828e+00 -4.169477881004140e-01 0.000000000000000e+00
					-1.273434528825483e+00 -2.283806048626207e-01 0.000000000000000e+00
					-1.099325263700828e+00 -2.084738940502069e-01 0.000000000000000e+00
					-1.046239326200828e+00 -4.169477881004140e-01 0.000000000000000e+00
					-9.093616577510348e-01 -3.805597351255174e-01 0.000000000000000e+00
					-1.099325263700828e+00 -2.084738940502069e-01 0.000000000000000e+00
					-9.464222046260349e-01 -1.902798675627587e-01 0.000000000000000e+00
					-9.093616577510348e-01 -3.805597351255174e-01 0.000000000000000e+00
					-7.908191016011039e-01 -3.475970508005519e-01 0.000000000000000e+00
					-9.464222046260349e-01 -1.902798675627587e-01 0.000000000000000e+00
					-8.147253516011038e-01 -1.737985254002759e-01 0.000000000000000e+00
					-7.908191016011039e-01 -3.475970508005519e-01 0.000000000000000e+00
					-6.906116577510349e-01 -3.180597351255174e-01 0.000000000000000e+00
					-8.147253516011038e-01 -1.737985254002759e-01 0.000000000000000e+00
					-7.042347046260348e-01 -1.590298675627587e-01 0.000000000000000e+00
					-6.906116577510349e-01 -3.180597351255174e-01 0.000000000000000e+00
					-6.087393262008278e-01 -2.919477881004139e-01 0.000000000000000e+00
					-7.042347046260348e-01 -1.590298675627587e-01 0.000000000000000e+00
					-6.149502637008278e-01 -1.459738940502069e-01 0.000000000000000e+00
					-6.087393262008278e-01 -2.919477881004139e-01 0.000000000000000e+00
					-5.452021069504830e-01 -2.692612097252414e-01 0.000000000000000e+00
					-6.149502637008278e-01 -1.459738940502069e-01 0.000000000000000e+00
					-5.468720288254830e-01 -1.346306048626207e-01 0.000000000000000e+00
					-5.452021069504830e-01 -2.692612097252414e-01 0.000000000000000e+00
					-5.000000000000000e-01 -2.500000000000000e-01 0.000000000000000e+00
					-5.468720288254830e-01 -1.346306048626207e-01 0.000000000000000e+00
					-5.000000000000000e-01 -1.250000000000000e-01 0.000000000000000e+00
					-1.468750000000000e+00 -2.500000000000000e-01 0.000000000000000e+00
					-1.273434528825483e+00 -2.283806048626207e-01 0.000000000000000e+00
					-1.500000000000000e+00 0.000000000000000e+00 0.000000000000000e+00
					-1.297428669450483e+00 4.857225732735060e-17 0.000000000000000e+00
					-1.273434528825483e+00 -2.283806048626207e-01 0.000000000000000e+00
					-1.099325263700828e+00 -2.084738940502069e-01 0.000000000000000e+00
					-1.297428669450483e+00 4.857225732735060e-17 0.000000000000000e+00
					-1.117020576200828e+00 3.469446951953614e-17 0.000000000000000e+00
					-1.099325263700828e+00 -2.084738940502069e-01 0.000000000000000e+00
					-9.464222046260349e-01 -1.902798675627587e-01 0.000000000000000e+00
					-1.117020576200828e+00 3.469446951953614e-17 0.000000000000000e+00
					-9.587757202510350e-01 4.163336342344337e-17 0.000000000000000e+00
					-9.464222046260349e-01 -1.902798675627587e-01 0.000000000000000e+00
					-8.147253516011038e-01 -1.737985254002759e-01 0.000000000000000e+00
					-9.587757202510350e-01 4.163336342344337e-17 0.000000000000000e+00
					-8.226941016011039e-01 4.163336342344337e-17 0.000000000000000e+00
					-8.147253516011038e-01 -1.737985254002759e-01 0.000000000000000e+00
					-7.042347046260348e-01 -1.590298675627587e-01 0.000000000000000e+00
					-8.226941016011039e-01 4.163336342344337e-17 0.000000000000000e+00
					-7.087757202510349e-01 3.816391647148976e-17 0.000000000000000e+00
					-7.042347046260348e-01 -1.590298675627587e-01 0.000000000000000e+00
					-6.149502637008278e-01 -1.459738940502069e-01 0.000000000000000e+00
					-7.087757202510349e-01 3.816391647148976e-17 0.000000000000000e+00
					-6.170205762008278e-01 2.428612866367530e-17 0.000000000000000e+00
					-6.149502637008278e-01 -1.459738940502069e-01 0.000000000000000e+00
					-5.468720288254830e-01 -1.346306048626207e-01 0.000000000000000e+00
					-6.170205762008278e-01 2.428612866367530e-17 0.000000000000000e+00
					-5.474286694504830e-01 2.428612866367530e-17 0.000000000000000e+00
					-5.468720288254830e-01 -1.346306048626207e-01 0.000000000000000e+00
					-5.000000000000000e-01 -1.250000000000000e-01 0.000000000000000e+00
					-5.474286694504830e-01 2.428612866367530e-17 0.000000000000000e+00
					-5.000000000000000e-01 0.000000000000000e+00 0.000000000000000e+00
					-1.500000000000000e+00 0.000000000000000e+00 0.000000000000000e+00
					-1.297428669450483e+00 4.857225732735060e-17 0.000000000000000e+00
					-1.468750000000000e+00 2.500000000000000e-01 0.000000000000000e+00
					-1.273434528825483e+00 2.283806048626208e-01 0.000000000000000e+00
					-1.297428669450483e+00 4.857225732735060e-17 0.000000000000000e+00
					-1.117020576200828e+00 3.469446951953614e-17 0.000000000000000e+00
					-1.273434528825483e+00 2.283806048626208e-01 0.000000000000000e+00
					-1.099325263700828e+00 2.084738940502070e-01 0.000000000000000e+00
					-1.117020576200828e+00 3.469446951953614e-17 0.000000000000000e+00
					-9.587757202510350e-01 4.163336342344337e-17 0.000000000000000e+00
					-1.099325263700828e+00 2.084738940502070e-01 0.000000000000000e+00
					-9.464222046260349e-01 1.902798675627588e-01 0.000000000000000e+00
					-9.587757202510350e-01 4.163336342344337e-17 0.000000000000000e+00
					-8.226941016011039e-01 4.163336342344337e-17 0.000000000000000e+00
					-9.464222046260349e-01 1.902798675627588e-01 0.000000000000000e+00
					-8.147253516011039e-01 1.737985254002760e-01 0.000000000000000e+00
					-8.226941016011039e-01 4.163336342344337e-17 0.000000000000000e+00
					-7.087757202510349e-01 3.816391647148976e-17 0.000000000000000e+00
					-8.147253516011039e-01 1.737985254002760e-01 0.000000000000000e+00
					-7.042347046260349e-01 1.590298675627588e-01 0.000000000000000e+00
					-7.087757202510349e-01 3.816391647148976e-17 0.000000000000000e+00
					-6.170205762008278e-01 2.428612866367530e-17 0.000000000000000e+00
					-7.042347046260349e-01 1.590298675627588e-01 0.000000000000000e+00
					-6.149502637008278e-01 1.459738940502070e-01 0.000000000000000e+00
					-6.170205762008278e-01 2.428612866367530e-17 0.000000000000000e+00
					-5.474286694504830e-01 2.428612866367530e-17 0.000000000000000e+00
					-6.149502637008278e-01 1.459738940502070e-01 0.000000000000000e+00
					-5.468720288254829e-01 1.346306048626208e-01 0.000000000000000e+00
					-5.474286694504830e-01 2.428612866367530e-17 0.000000000000000e+00
					-5.000000000000000e-01 0.000000000000000e+00 0.000000000000000e+00
					-5.468720288254829e-01 1.346306048626208e-01 0.000000000000000e+00
					-5.000000000000000e-01 1.250000000000000e-01 0.000000000000000e+00
					-1.468750000000000e+00 2.500000000000000e-01 0.000000000000000e+00
					-1.273434528825483e+00 2.283806048626208e-01 0.000000000000000e+00
					-1.375000000000000e+00 5.000000000000000e-01 0.000000000000000e+00
					-1.201452106950483e+00 4.567612097252415e-01 0.000000000000000e+00
					-1.273434528825483e+00 2.283806048626208e-01 0.000000000000000e+00
					-1.099325263700828e+00 2.084738940502070e-01 0.000000000000000e+00
					-1.201452106950483e+00 4.567612097252415e-01 0.000000000000000e+00
					-1.046239326200828e+00 4.169477881004139e-01 0.000000000000000e+00
					-1.099325263700828e+00 2.084738940502070e-01 0.000000000000000e+00
					-9.464222046260349e-01 1.902798675627588e-01 0.000000000000000e+00
					-1.046239326200828e+00 4.169477881004139e-01 0.000000000000000e+00
					-9.093616577510348e-01 3.805597351255174e-01 0.000000000000000e+00
					-9.464222046260349e-01 1.902798675627588e-01 0.000000000000000e+00
					-8.147253516011039e-01 1.737985254002760e-01 0.000000000000000e+00
					-9.093616577510348e-01 3.805597351255174e-01 0.000000000000000e+00
					-7.908191016011039e-01 3.475970508005520e-01 0.000000000000000e+00
					-8.147253516011039e-01 1.737985254002760e-01 0.000000000000000e+00
					-7.042347046260349e-01 1.590298675627588e-01 0.000000000000000e+00
					-7.908191016011039e-01 3.475970508005520e-01 0.000000000000000e+00
					-6.906116577510348e-01 3.180597351255175e-01 0.000000000000000e+00
					-7.042347046260349e-01 1.590298675627588e-01 0.000000000000000e+00
					-6.149502637008278e-01 1.459738940502070e-01 0.000000000000000e+00
					-6.906116577510348e-01 3.180597351255175e-01 0.000000000000000e+00
					-6.087393262008278e-01 2.919477881004140e-01 0.000000000000000e+00
					-6.149502637008278e-01 1.459738940502070e-01 0.000000000000000e+00
					-5.468720288254829e-01 1.346306048626208e-01 0.000000000000000e+00
					-6.087393262008278e-01 2.919477881004140e-01 0.000000000000000e+00
					-5.452021069504829e-01 2.692612097252415e-01 0.000000000000000e+00
					-5.468720288254829e-01 1.346306048626208e-01 0.000000000000000e+00
					-5.000000000000000e-01 1.250000000000000e-01 0.000000000000000e+00
					-5.452021069504829e-01 2.692612097252415e-01 0.000000000000000e+00
					-5.000000000000000e-01 2.500000000000000e-01 0.000000000000000e+00
					-1.375000000000000e+00 5.000000000000000e-01 0.000000000000000e+00
					-1.201452106950483e+00 4.567612097252415e-01 0.000000000000000e+00
					-1.218750000000000e+00 7.500000000000000e-01 0.000000000000000e+00
					-1.081481403825483e+00 6.851418145878622e-01 0.000000000000000e+00
					-1.201452106950483e+00 4.567612097252415e-01 0.000000000000000e+00
					-1.046239326200828e+00 4.169477881004139e-01 0.000000000000000e+00
					-1.081481403825483e+00 6.851418145878622e-01 0.000000000000000e+00
					-9.577627637008279e-01 6.254216821506209e-01 0.000000000000000e+00
					-1.046239326200828e+00 4.169477881004139e-01 0.000000000000000e+00
					-9.093616577510348e-01 3.805597351255174e-01 0.000000000000000e+00
					-9.577627637008279e-01 6.254216821506209e-01 0.000000000000000e+00
					-8.475940796260351e-01 5.708396026882763e-01 0.000000000000000e+00
					-9.093616577510348e-01 3.805597351255174e-01 0.000000000000000e+00
					-7.908191016011039e-01 3.475970508005520e-01 0.000000000000000e+00
					-8.475940796260351e-01 5.708396026882763e-01 0.000000000000000e+00
					-7.509753516011040e-01 5.213955762008280e-01 0.000000000000000e+00
					-7.908191016011039e-01 3.475970508005520e-01 0.000000000000000e+00
					-6.906116577510348e-01 3.180597351255175e-01 0.000000000000000e+00
					-7.509753516011040e-01 5.213955762008280e-01 0.000000000000000e+00
					-6.679065796260348e-01 4.770896026882762e-01 0.000000000000000e+00
					-6.906116577510348e-01 3.180597351255175e-01 0.000000000000000e+00
					-6.087393262008278e-01 2.919477881004140e-01 0.000000000000000e+00
					-6.679065796260348e-01 4.770896026882762e-01 0.000000000000000e+00
					-5.983877637008279e-01 4.379216821506209e-01 0.000000000000000e+00
					-6.087393262008278e-01 2.919477881004140e-01 0.000000000000000e+00
					-5.452021069504829e-01 2.692612097252415e-01 0.000000000000000e+00
					-5.983877637008279e-01 4.379216821506209e-01 0.000000000000000e+00
					-5.424189038254830e-01 4.038918145878622e-01 0.000000000000000e+00
					-5.452021069504829e-01 2.692612097252415e-01 0.000000000000000e+00
					-5.000000000000000e-01 2.500000000000000e-01 0.000000000000000e+00
					-5.424189038254830e-01 4.038918145878622e-01 0.000000000000000e+00
					-5.000000000000000e-01 3.750000000000000e-01 0.000000000000000e+00
					-1.218750000000000e+00 7.500000000000000e-01 0.000000000000000e+00
					-1.081481403825483e+00 6.851418145878622e-01 0.000000000000000e+00
					-1.000000000000000e+00 1.000000000000000e+00 0.000000000000000e+00
					-9.135224194504830e-01 9.135224194504830e-01 0.000000000000000e+00
					-1.081481403825483e+00 6.851418145878622e-01 0.000000000000000e+00
					-9.577627637008279e-01 6.254216821506209e-01 0.000000000000000e+00
					-9.135224194504830e-01 9.135224194504830e-01 0.000000000000000e+00
					-8.338955762008279e-01 8.338955762008279e-01 0.000000000000000e+00
					-9.577627637008279e-01 6.254216821506209e-01 0.000000000000000e+00
					-8.475940796260351e-01 5.708396026882763e-01 0.000000000000000e+00
					-8.338955762008279e-01 8.338955762008279e-01 0.000000000000000e+00
					-7.611194702510349e-01 7.611194702510349e-01 0.000000000000000e+00
					-8.475940796260351e-01 5.708396026882763e-01 0.000000000000000e+00
					-7.509753516011040e-01 5.213955762008280e-01 0.000000000000000e+00
					-7.611194702510349e-01 7.611194702510349e-01 0.000000000000000e+00
					-6.951941016011038e-01 6.951941016011038e-01 0.000000000000000e+00
					-7.509753516011040e-01 5.213955762008280e-01 0.000000000000000e+00
					-6.679065796260348e-01 4.770896026882762e-01 0.000000000000000e+00
					-6.951941016011038e-01 6.951941016011038e-01 0.000000000000000e+00
					-6.361194702510349e-01 6.361194702510349e-01 0.000000000000000e+00
					-6.679065796260348e-01 4.770896026882762e-01 0.000000000000000e+00
					-5.983877637008279e-01 4.379216821506209e-01 0.000000000000000e+00
					-6.361194702510349e-01 6.361194702510349e-01 0.000000000000000e+00
					-5.838955762008278e-01 5.838955762008278e-01 0.000000000000000e+00
					-5.983877637008279e-01 4.379216821506209e-01 0.000000000000000e+00
					-5.424189038254830e-01 4.038918145878622e-01 0.000000000000000e+00
					-5.838955762008278e-01 5.838955762008278e-01 0.000000000000000e+00
					-5.385224194504830e-01 5.385224194504830e-01 0.000000000000000e+00
					-5.424189038254830e-01 4.038918145878622e-01 0.000000000000000e+00
					-5.000000000000000e-01 3.750000000000000e-01 0.000000000000000e+00
					-5.385224194504830e-01 5.385224194504830e-01 0.000000000000000e+00
					-5.000000000000000e-01 5.000000000000000e-01 0.000000000000000e+00
				</DataArray>
			</Points>
			<Cells>
				<DataArray Name="connectivity" type="UInt32" format="ascii">
					0 1 3 2 4 5 7 6 8 9 11 10 12 13 15 14 16 17 19 18 20 21 23 22 24 25 27 26 28 29 31 30 32 33 35 34 36 37 39 38 40 41 43 42 44 45 47 46 48 49 51 50 52 53 55 54 56 57 59 58 60 61 63 62 64 65 67 66 68 69 71 70 72 73 75 74 76 77 79 78 80 81 83 82 84 85 87 86 88 89 91 90 92 93 95 94 96 97 99 98 100 101 103 102 104 105 107 106 108 109 111 110 112 113 115 114 116 117 119 118 120 121 123 122 124 125 127 126 128 129 131 130 132 133 135 134 136 137 139 138 140 141 143 142 144 145 147 146 148 149 151 150 152 153 155 154 156 157 159 158 160 161 163 162 164 165 167 166 168 169 171 170 172 173 175 174 176 177 179 178 180 181 183 182 184 185 187 186 188 189 191 190 192 193 195 194 196 197 199 198 200 201 203 202 204 205 207 206 208 209 211 210 212 213 215 214 216 217 219 218 220 221 223 222 224 225 227 226 228 229 231 230 232 233 235 234 236 237 239 238 240 241 243 242 244 245 247 246 248 249 251 250 252 253 255 254 
				</DataArray>
				<DataArray Name="offsets" type="UInt32" format="ascii">
					4 8 12 16 20 24 28 32 36 40 44 48 52 56 60 64 68 72 76 80 84 88 92 96 100 104 108 112 116 120 124 128 132 136 140 144 148 152 156 160 164 168 172 176 180 184 188 192 196 200 204 208 212 216 220 224 228 232 236 240 244 248 252 256 
				</DataArray>
				<DataArray Name="types" type="UInt8" format="ascii">
					9 9 9 9 9 9 9 9 9 9 9 9 9 9 9 9 9 9 9 9 9 9 9 9 9 9 9 9 9 9 9 9 9 9 9 9 9 9 9 9 9 9 9 9 9 9 9 9 9 9 9 9 9 9 9 9 9 9 9 9 9 9 9 9 
				</DataArray>
			</Cells>
			<PointData Vectors="solution ">
				<DataArray Name="solution" type="Float64" NumberOfComponents="1" format="ascii">
					0.000000000000000e+00 -2.508298240696527e-03 0.000000000000000e+00 1.052880908812901e-03 -2.508298240696528e-03 5.095441169955903e-03 1.052880908812901e-03 3.049913143691338e-02 5.095441169955904e-03 5.536022424268852e-02 3.049913143691339e-02 1.496248119757221e-01 5.536022424268854e-02 1.816444720477032e-01 1.496248119757221e-01 4.162946496923375e-01 1.816444720477033e-01 4.048814173757802e-01 4.162946496923376e-01 8.537021210471050e-01 4.048814173757803e-01 7.281875330209584e-01 8.537021210471052e-01 1.442566801450239e+00 7.281875330209585e-01 1.138553681313730e+00 1.442566801450239e+00 2.129242008068884e+00 1.138553681313730e+00 1.611565253604224e+00 2.129242008068884e+00 2.832424637114375e+00 0.000000000000000e+00 1.052880908812901e-03 0.000000000000000e+00 5.501527483890158e-03 1.052880908812901e-03 3.049913143691339e-02 5.501527483890160e-03 6.945268553796127e-02 3.049913143691339e-02 1.496248119757221e-01 6.945268553796129e-02 3.021427280567217e-01 1.496248119757221e-01 4.162946496923376e-01 3.021427280567217e-01 7.974802554962344e-01 4.162946496923378e-01 8.537021210471051e-01 7.974802554962344e-01 1.568677463634888e+00 8.537021210471053e-01 1.442566801450239e+00 1.568677463634888e+00 2.538734779267346e+00 1.442566801450239e+00 2.129242008068884e+00 2.538734779267346e+00 3.569033856005147e+00 2.129242008068885e+00 2.832424637114375e+00 3.569033856005147e+00 4.500851731729634e+00 0.000000000000000e+00 5.501527483890160e-03 0.000000000000000e+00 1.042310400206349e-02 5.501527483890160e-03 6.945268553796129e-02 1.042310400206349e-02 1.234832168019211e-01 6.945268553796129e-02 3.021427280567217e-01 1.234832168019211e-01 5.204469668804117e-01 3.021427280567218e-01 7.974802554962344e-01 5.204469668804118e-01 1.332962699541267e+00 7.974802554962345e-01 1.568677463634888e+00 1.332962699541267e+00 2.536373927594521e+00 1.568677463634889e+00 2.538734779267346e+00 2.536373927594521e+00 3.958220643548110e+00 2.538734779267346e+00 3.569033856005147e+00 3.958220643548110e+00 5.358660148907958e+00 3.569033856005148e+00 4.500851731729635e+00 5.358660148907958e+00 6.511668529526156e+00 0.000000000000000e+00 1.042310400206349e-02 0.000000000000000e+00 1.663089864058402e-02 1.042310400206349e-02 1.234832168019211e-01 1.663089864058402e-02 1.948425954597774e-01 1.234832168019211e-01 5.204469668804117e-01 1.948425954597774e-01 7.969986652554336e-01 5.204469668804118e-01 1.332962699541267e+00 7.969986652554337e-01 1.980846498900238e+00 1.332962699541267e+00 2.536373927594521e+00 1.980846498900238e+00 3.658688732298498e+00 2.536373927594521e+00 3.958220643548110e+00 3.658688732298498e+00 5.548801207161409e+00 3.958220643548111e+00 5.358660148907958e+00 5.548801207161410e+00 7.313872017327862e+00 5.358660148907960e+00 6.511668529526156e+00 7.313872017327864e+00 8.674883890988877e+00 0.000000000000000e+00 1.663089864058402e-02 0.000000000000000e+00 2.466121006671792e-02 1.663089864058402e-02 1.948425954597774e-01 2.466121006671792e-02 2.787905251809543e-01 1.948425954597774e-01 7.969986652554336e-01 2.787905251809543e-01 1.099945442611391e+00 7.969986652554337e-01 1.980846498900238e+00 1.099945442611391e+00 2.643523488578983e+00 1.980846498900239e+00 3.658688732298498e+00 2.643523488578983e+00 4.748739055443992e+00 3.658688732298499e+00 5.548801207161410e+00 4.748739055443993e+00 7.044045522414336e+00 5.548801207161411e+00 7.313872017327863e+00 7.044045522414338e+00 9.128517469961471e+00 7.313872017327864e+00 8.674883890988879e+00 9.128517469961471e+00 1.068638257667013e+01 0.000000000000000e+00 2.466121006671792e-02 0.000000000000000e+00 3.224606862591873e-02 2.466121006671792e-02 2.787905251809543e-01 3.224606862591874e-02 3.637034755555404e-01 2.787905251809543e-01 1.099945442611391e+00 3.637034755555405e-01 1.364324614518668e+00 1.099945442611391e+00 2.643523488578983e+00 1.364324614518669e+00 3.157222437952975e+00 2.643523488578984e+00 4.748739055443993e+00 3.157222437952975e+00 5.528933965655471e+00 4.748739055443993e+00 7.044045522414338e+00 5.528933965655471e+00 8.070754418747127e+00 7.044045522414338e+00 9.128517469961471e+00 8.070754418747127e+00 1.036871218564897e+01 9.128517469961473e+00 1.068638257667014e+01 1.036871218564897e+01 1.212582141677614e+01 0.000000000000000e+00 3.224606862591874e-02 0.000000000000000e+00 4.335097690865414e-02 3.224606862591874e-02 3.637034755555405e-01 4.335097690865417e-02 4.248789810536572e-01 3.637034755555405e-01 1.364324614518669e+00 4.248789810536572e-01 1.497566828909312e+00 1.364324614518669e+00 3.157222437952975e+00 1.497566828909312e+00 3.322764219909111e+00 3.157222437952976e+00 5.528933965655471e+00 3.322764219909111e+00 5.694033185464130e+00 5.528933965655472e+00 8.070754418747127e+00 5.694033185464130e+00 8.266918267603476e+00 8.070754418747127e+00 1.036871218564897e+01 8.266918267603478e+00 1.067347504335677e+01 1.036871218564897e+01 1.212582141677614e+01 1.067347504335677e+01 1.262857222645272e+01 0.000000000000000e+00 4.335097690865416e-02 0.000000000000000e+00 2.137898290208619e-02 4.335097690865417e-02 4.248789810536572e-01 2.137898290208619e-02 3.984953603452027e-01 4.248789810536573e-01 1.497566828909312e+00 3.984953603452028e-01 1.388976043635009e+00 1.497566828909312e+00 3.322764219909111e+00 1.388976043635009e+00 2.999432134650760e+00 3.322764219909111e+00 5.694033185464130e+00 2.999432134650761e+00 5.075721790924980e+00 5.694033185464130e+00 8.266918267603478e+00 5.075721790924980e+00 7.399358508211677e+00 8.266918267603478e+00 1.067347504335677e+01 7.399358508211678e+00 9.748412452441297e+00 1.067347504335677e+01 1.262857222645273e+01 9.748412452441301e+00 1.192011372757193e+01 
				</DataArray>
			</PointData>
			<CellData>
			</CellData>
		</Piece>
	</UnstructuredGrid>
</VTKFile>