<?xml version="1.0"?>
<VTKFile type="UnstructuredGrid" byte_order="LittleEndian">
	<UnstructuredGrid>
		<Piece NumberOfPoints="256" NumberOfCells="64">
			<Points>
				<DataArray type="Float64" NumberOfComponents="3" format="ascii">
					-1.000000000000000e+00 1.000000000000000e+00 0.000000000000000e+00
					-9.135224194504830e-01 9.135224194504830e-01 0.000000000000000e+00
					-7.500000000000000e-01 1.218750000000000e+00 0.000000000000000e+00
					-6.851418145878622e-01 1.081481403825483e+00 0.000000000000000e+00
					-9.135224194504830e-01 9.135224194504830e-01 0.000000000000000e+00
					-8.338955762008279e-01 8.338955762008279e-01 0.000000000000000e+00
					-6.851418145878622e-01 1.081481403825483e+00 0.000000000000000e+00
					-6.254216821506209e-01 9.577627637008279e-01 0.000000000000000e+00
					-8.338955762008279e-01 8.338955762008279e-01 0.000000000000000e+00
					-7.611194702510349e-01 7.611194702510349e-01 0.000000000000000e+00
					-6.254216821506209e-01 9.577627637008279e-01 0.000000000000000e+00
					-5.708396026882762e-01 8.475940796260348e-01 0.000000000000000e+00
					-7.611194702510349e-01 7.611194702510349e-01 0.000000000000000e+00
					-6.951941016011038e-01 6.951941016011038e-01 0.000000000000000e+00
					-5.708396026882762e-01 8.475940796260348e-01 0.000000000000000e+00
					-5.213955762008279e-01 7.509753516011038e-01 0.000000000000000e+00
					-6.951941016011038e-01 6.951941016011038e-01 0.000000000000000e+00
					-6.361194702510349e-01 6.361194702510349e-01 0.000000000000000e+00
					-5.213955762008279e-01 7.509753516011038e-01 0.000000000000000e+00
					-4.770896026882761e-01 6.679065796260349e-01 0.000000000000000e+00
					-6.361194702510349e-01 6.361194702510349e-01 0.000000000000000e+00
					-5.838955762008278e-01 5.838955762008278e-01 0.000000000000000e+00
					-4.770896026882761e-01 6.679065796260349e-01 0.000000000000000e+00
					-4.379216821506209e-01 5.983877637008279e-01 0.000000000000000e+00
					-5.838955762008278e-01 5.838955762008278e-01 0.000000000000000e+00
					-5.385224194504830e-01 5.385224194504830e-01 0.000000000000000e+00
					-4.379216821506209e-01 5.983877637008279e-01 0.000000000000000e+00
					-4.038918145878622e-01 5.424189038254830e-01 0.000000000000000e+00
					-5.385224194504830e-01 5.385224194504830e-01 0.000000000000000e+00
					-5.000000000000000e-01 5.000000000000000e-01 0.000000000000000e+00
					-4.038918145878622e-01 5.424189038254830e-01 0.000000000000000e+00
					-3.750000000000000e-01 5.000000000000000e-01 0.000000000000000e+00
					-7.500000000000000e-01 1.218750000000000e+00 0.000000000000000e+00
					-6.851418145878622e-01 1.081481403825483e+00 0.000000000000000e+00
					-5.000000000000000e-01 1.375000000000000e+00 0.000000000000000e+00
					-4.567612097252415e-01 1.201452106950483e+00 0.000000000000000e+00
					-6.851418145878622e-01 1.081481403825483e+00 0.000000000000000e+00
					-6.254216821506209e-01 9.577627637008279e-01 0.000000000000000e+00
					-4.567612097252415e-01 1.201452106950483e+00 0.000000000000000e+00
					-4.169477881004140e-01 1.046239326200828e+00 0.000000000000000e+00
					-6.254216821506209e-01 9.577627637008279e-01 0.000000000000000e+00
					-5.708396026882762e-01 8.475940796260348e-01 0.000000000000000e+00
					-4.169477881004140e-01 1.046239326200828e+00 0.000000000000000e+00
					-3.805597351255174e-01 9.093616577510348e-01 0.000000000000000e+00
					-5.708396026882762e-01 8.475940796260348e-01 0.000000000000000e+00
					-5.213955762008279e-01 7.509753516011038e-01 0.000000000000000e+00
					-3.805597351255174e-01 9.093616577510348e-01 0.000000000000000e+00
					-3.475970508005519e-01 7.908191016011039e-01 0.000000000000000e+00
					-5.213955762008279e-01 7.509753516011038e-01 0.000000000000000e+00
					-4.770896026882761e-01 6.679065796260349e-01 0.000000000000000e+00
					-3.475970508005519e-01 7.908191016011039e-01 0.000000000000000e+00
					-3.180597351255174e-01 6.906116577510349e-01 0.000000000000000e+00
					-4.770896026882761e-01 6.679065796260349e-01 0.000000000000000e+00
					-4.379216821506209e-01 5.983877637008279e-01 0.000000000000000e+00
					-3.180597351255174e-01 6.906116577510349e-01 0.000000000000000e+00
					-2.919477881004139e-01 6.087393262008278e-01 0.000000000000000e+00
					-4.379216821506209e-01 5.983877637008279e-01 0.000000000000000e+00
					-4.038918145878622e-01 5.424189038254830e-01 0.000000000000000e+00
					-2.919477881004139e-01 6.087393262008278e-01 0.000000000000000e+00
					-2.692612097252414e-01 5.452021069504830e-01 0.000000000000000e+00
					-4.038918145878622e-01 5.424189038254830e-01 0.000000000000000e+00
					-3.750000000000000e-01 5.000000000000000e-01 0.000000000000000e+00
					-2.692612097252414e-01 5.452021069504830e-01 0.000000000000000e+00
					-2.500000000000000e-01 5.000000000000000e-01 0.000000000000000e+00
					-5.000000000000000e-01 1.375000000000000e+00 0.000000000000000e+00
					-4.567612097252415e-01 1.201452106950483e+00 0.000000000000000e+00
					-2.500000000000000e-01 1.468750000000000e+00 0.000000000000000e+00
					-2.283806048626207e-01 1.273434528825483e+00 0.000000000000000e+00
					-4.567612097252415e-01 1.201452106950483e+00 0.000000000000000e+00
					-4.169477881004140e-01 1.046239326200828e+00 0.000000000000000e+00
					-2.283806048626207e-01 1.273434528825483e+00 0.000000000000000e+00
					-2.084738940502069e-01 1.099325263700828e+00 0.000000000000000e+00
					-4.169477881004140e-01 1.046239326200828e+00 0.000000000000000e+00
					-3.805597351255174e-01 9.093616577510348e-01 0.000000000000000e+00
					-2.084738940502069e-01 1.099325263700828e+00 0.000000000000000e+00
					-1.902798675627587e-01 9.464222046260349e-01 0.000000000000000e+00
					-3.805597351255174e-01 9.093616577510348e-01 0.000000000000000e+00
					-3.475970508005519e-01 7.908191016011039e-01 0.000000000000000e+00
					-1.902798675627587e-01 9.464222046260349e-01 0.000000000000000e+00
					-1.737985254002759e-01 8.147253516011038e-01 0.000000000000000e+00
					-3.475970508005519e-01 7.908191016011039e-01 0.000000000000000e+00
					-3.180597351255174e-01 6.906116577510349e-01 0.000000000000000e+00
					-1.737985254002759e-01 8.147253516011038e-01 0.000000000000000e+00
					-1.590298675627587e-01 7.042347046260348e-01 0.000000000000000e+00
					-3.180597351255174e-01 6.906116577510349e-01 0.000000000000000e+00
					-2.919477881004139e-01 6.087393262008278e-01 0.000000000000000e+00
					-1.590298675627587e-01 7.042347046260348e-01 0.000000000000000e+00
					-1.459738940502069e-01 6.149502637008278e-01 0.000000000000000e+00
					-2.919477881004139e-01 6.087393262008278e-01 0.000000000000000e+00
					-2.692612097252414e-01 5.452021069504830e-01 0.000000000000000e+00
					-1.459738940502069e-01 6.149502637008278e-01 0.000000000000000e+00
					-1.346306048626207e-01 5.468720288254830e-01 0.000000000000000e+00
					-2.692612097252414e-01 5.452021069504830e-01 0.000000000000000e+00
					-2.500000000000000e-01 5.000000000000000e-01 0.000000000000000e+00
					-1.346306048626207e-01 5.468720288254830e-01 0.000000000000000e+00
					-1.250000000000000e-01 5.000000000000000e-01 0.000000000000000e+00
					-2.500000000000000e-01 1.468750000000000e+00 0.000000000000000e+00
					-2.283806048626207e-01 1.273434528825483e+00 0.000000000000000e+00
					0.000000000000000e+00 1.500000000000000e+00 0.000000000000000e+00
					4.857225732735060e-17 1.297428669450483e+00 0.000000000000000e+00
					-2.283806048626207e-01 1.273434528825483e+00 0.000000000000000e+00
					-2.084738940502069e-01 1.099325263700828e+00 0.000000000000000e+00
					4.857225732735060e-17 1.297428669450483e+00 0.000000000000000e+00
					3.469446951953614e-17 1.117020576200828e+00 0.000000000000000e+00
					-2.084738940502069e-01 1.099325263700828e+00 0.000000000000000e+00
					-1.902798675627587e-01 9.464222046260349e-01 0.000000000000000e+00
					3.469446951953614e-17 1.117020576200828e+00 0.000000000000000e+00
					4.163336342344337e-17 9.587757202510350e-01 0.000000000000000e+00
					-1.902798675627587e-01 9.464222046260349e-01 0.000000000000000e+00
					-1.737985254002759e-01 8.147253516011038e-01 0.000000000000000e+00
					4.163336342344337e-17 9.587757202510350e-01 0.000000000000000e+00
					4.163336342344337e-17 8.226941016011039e-01 0.000000000000000e+00
					-1.737985254002759e-01 8.147253516011038e-01 0.000000000000000e+00
					-1.590298675627587e-01 7.042347046260348e-01 0.000000000000000e+00
					4.163336342344337e-17 8.226941016011039e-01 0.000000000000000e+00
					3.816391647148976e-17 7.087757202510349e-01 0.000000000000000e+00
					-1.590298675627587e-01 7.042347046260348e-01 0.000000000000000e+00
					-1.459738940502069e-01 6.149502637008278e-01 0.000000000000000e+00
					3.816391647148976e-17 7.087757202510349e-01 0.000000000000000e+00
					2.428612866367530e-17 6.170205762008278e-01 0.000000000000000e+00
					-1.459738940502069e-01 6.149502637008278e-01 0.000000000000000e+00
					-1.346306048626207e-01 5.468720288254830e-01 0.000000000000000e+00
					2.428612866367530e-17 6.170205762008278e-01 0.000000000000000e+00
					2.428612866367530e-17 5.474286694504830e-01 0.000000000000000e+00
					-1.346306048626207e-01 5.468720288254830e-01 0.000000000000000e+00
					-1.250000000000000e-01 5.000000000000000e-01 0.000000000000000e+00
					2.428612866367530e-17 5.474286694504830e-01 0.000000000000000e+00
					0.000000000000000e+00 5.000000000000000e-01 0.000000000000000e+00
					0.000000000000000e+00 1.500000000000000e+00 0.000000000000000e+00
					4.857225732735060e-17 1.297428669450483e+00 0.000000000000000e+00
					2.500000000000000e-01 1.468750000000000e+00 0.000000000000000e+00
					2.283806048626208e-01 1.273434528825483e+00 0.000000000000000e+00
					4.857225732735060e-17 1.297428669450483e+00 0.000000000000000e+00
					3.469446951953614e-17 1.117020576200828e+00 0.000000000000000e+00
					2.283806048626208e-01 1.273434528825483e+00 0.000000000000000e+00
					2.084738940502070e-01 1.099325263700828e+00 0.000000000000000e+00
					3.469446951953614e-17 1.117020576200828e+00 0.000000000000000e+00
					4.163336342344337e-17 9.587757202510350e-01 0.000000000000000e+00
					2.084738940502070e-01 1.099325263700828e+00 0.000000000000000e+00
					1.902798675627588e-01 9.464222046260349e-01 0.000000000000000e+00
					4.163336342344337e-17 9.587757202510350e-01 0.000000000000000e+00
					4.163336342344337e-17 8.226941016011039e-01 0.000000000000000e+00
					1.902798675627588e-01 9.464222046260349e-01 0.000000000000000e+00
					1.737985254002760e-01 8.147253516011039e-01 0.000000000000000e+00
					4.163336342344337e-17 8.226941016011039e-01 0.000000000000000e+00
					3.816391647148976e-17 7.087757202510349e-01 0.000000000000000e+00
					1.737985254002760e-01 8.147253516011039e-01 0.000000000000000e+00
					1.590298675627588e-01 7.042347046260349e-01 0.000000000000000e+00
					3.816391647148976e-17 7.087757202510349e-01 0.000000000000000e+00
					2.428612866367530e-17 6.170205762008278e-01 0.000000000000000e+00
					1.590298675627588e-01 7.042347046260349e-01 0.000000000000000e+00
					1.459738940502070e-01 6.149502637008278e-01 0.000000000000000e+00
					2.428612866367530e-17 6.170205762008278e-01 0.000000000000000e+00
					2.428612866367530e-17 5.474286694504830e-01 0.000000000000000e+00
					1.459738940502070e-01 6.149502637008278e-01 0.000000000000000e+00
					1.346306048626208e-01 5.468720288254829e-01 0.000000000000000e+00
					2.428612866367530e-17 5.474286694504830e-01 0.000000000000000e+00
					0.000000000000000e+00 5.000000000000000e-01 0.000000000000000e+00
					1.346306048626208e-01 5.468720288254829e-01 0.000000000000000e+00
					1.250000000000000e-01 5.000000000000000e-01 0.000000000000000e+00
					2.500000000000000e-01 1.468750000000000e+00 0.000000000000000e+00
					2.283806048626208e-01 1.273434528825483e+00 0.000000000000000e+00
					5.000000000000000e-01 1.375000000000000e+00 0.000000000000000e+00
					4.567612097252415e-01 1.201452106950483e+00 0.000000000000000e+00
					2.283806048626208e-01 1.273434528825483e+00 0.000000000000000e+00
					2.084738940502070e-01 1.099325263700828e+00 0.000000000000000e+00
					4.567612097252415e-01 1.201452106950483e+00 0.000000000000000e+00
					4.169477881004139e-01 1.046239326200828e+00 0.000000000000000e+00
					2.084738940502070e-01 1.099325263700828e+00 0.000000000000000e+00
					1.902798675627588e-01 9.464222046260349e-01 0.000000000000000e+00
					4.169477881004139e-01 1.046239326200828e+00 0.000000000000000e+00
					3.805597351255174e-01 9.093616577510348e-01 0.000000000000000e+00
					1.902798675627588e-01 9.464222046260349e-01 0.000000000000000e+00
					1.737985254002760e-01 8.147253516011039e-01 0.000000000000000e+00
					3.805597351255174e-01 9.093616577510348e-01 0.000000000000000e+00
					3.475970508005520e-01 7.908191016011039e-01 0.000000000000000e+00
					1.737985254002760e-01 8.147253516011039e-01 0.000000000000000e+00
					1.590298675627588e-01 7.042347046260349e-01 0.000000000000000e+00
					3.475970508005520e-01 7.908191016011039e-01 0.000000000000000e+00
					3.180597351255175e-01 6.906116577510348e-01 0.000000000000000e+00
					1.590298675627588e-01 7.042347046260349e-01 0.000000000000000e+00
					1.459738940502070e-01 6.149502637008278e-01 0.000000000000000e+00
					3.180597351255175e-01 6.906116577510348e-01 0.000000000000000e+00
					2.919477881004140e-01 6.087393262008278e-01 0.000000000000000e+00
					1.459738940502070e-01 6.149502637008278e-01 0.000000000000000e+00
					1.346306048626208e-01 5.468720288254829e-01 0.000000000000000e+00
					2.919477881004140e-01 6.087393262008278e-01 0.000000000000000e+00
					2.692612097252415e-01 5.452021069504829e-01 0.000000000000000e+00
					1.346306048626208e-01 5.468720288254829e-01 0.000000000000000e+00
					1.250000000000000e-01 5.000000000000000e-01 0.000000000000000e+00
					2.692612097252415e-01 5.452021069504829e-01 0.000000000000000e+00
					2.500000000000000e-01 5.000000000000000e-01 0.000000000000000e+00
					5.000000000000000e-01 1.375000000000000e+00 0.000000000000000e+00
					4.567612097252415e-01 1.201452106950483e+00 0.000000000000000e+00
					7.500000000000000e-01 1.218750000000000e+00 0.000000000000000e+00
					6.851418145878622e-01 1.081481403825483e+00 0.000000000000000e+00
					4.567612097252415e-01 1.201452106950483e+00 0.000000000000000e+00
					4.169477881004139e-01 1.046239326200828e+00 0.000000000000000e+00
					6.851418145878622e-01 1.081481403825483e+00 0.000000000000000e+00
					6.254216821506209e-01 9.577627637008279e-01 0.000000000000000e+00
					4.169477881004139e-01 1.046239326200828e+00 0.000000000000000e+00
					3.805597351255174e-01 9.093616577510348e-01 0.000000000000000e+00
					6.254216821506209e-01 9.577627637008279e-01 0.000000000000000e+00
					5.708396026882763e-01 8.475940796260351e-01 0.000000000000000e+00
					3.805597351255174e-01 9.093616577510348e-01 0.000000000000000e+00
					3.475970508005520e-01 7.908191016011039e-01 0.000000000000000e+00
					5.708396026882763e-01 8.475940796260351e-01 0.000000000000000e+00
					5.213955762008280e-01 7.509753516011040e-01 0.000000000000000e+00
					3.475970508005520e-01 7.908191016011039e-01 0.000000000000000e+00
					3.180597351255175e-01 6.906116577510348e-01 0.000000000000000e+00
					5.213955762008280e-01 7.509753516011040e-01 0.000000000000000e+00
					4.770896026882762e-01 6.679065796260348e-01 0.000000000000000e+00
					3.180597351255175e-01 6.906116577510348e-01 0.000000000000000e+00
					2.919477881004140e-01 6.087393262008278e-01 0.000000000000000e+00
					4.770896026882762e-01 6.679065796260348e-01 0.000000000000000e+00
					4.379216821506209e-01 5.983877637008279e-01 0.000000000000000e+00
					2.919477881004140e-01 6.087393262008278e-01 0.000000000000000e+00
					2.692612097252415e-01 5.452021069504829e-01 0.000000000000000e+00
					4.379216821506209e-01 5.983877637008279e-01 0.000000000000000e+00
					4.038918145878622e-01 5.424189038254830e-01 0.000000000000000e+00
					2.692612097252415e-01 5.452021069504829e-01 0.000000000000000e+00
					2.500000000000000e-01 5.000000000000000e-01 0.000000000000000e+00
					4.038918145878622e-01 5.424189038254830e-01 0.000000000000000e+00
					3.750000000000000e-01 5.000000000000000e-01 0.000000000000000e+00
					7.500000000000000e-01 1.218750000000000e+00 0.000000000000000e+00
					6.851418145878622e-01 1.081481403825483e+00 0.000000000000000e+00
					1.000000000000000e+00 1.000000000000000e+00 0.000000000000000e+00
					9.135224194504830e-01 9.135224194504830e-01 0.000000000000000e+00
					6.851418145878622e-01 1.081481403825483e+00 0.000000000000000e+00
					6.254216821506209e-01 9.577627637008279e-01 0.000000000000000e+00
					9.135224194504830e-01 9.135224194504830e-01 0.000000000000000e+00
					8.338955762008279e-01 8.338955762008279e-01 0.000000000000000e+00
					6.254216821506209e-01 9.577627637008279e-01 0.000000000000000e+00
					5.708396026882763e-01 8.475940796260351e-01 0.000000000000000e+00
					8.338955762008279e-01 8.338955762008279e-01 0.000000000000000e+00
					7.611194702510349e-01 7.611194702510349e-01 0.000000000000000e+00
					5.708396026882763e-01 8.475940796260351e-01 0.000000000000000e+00
					5.213955762008280e-01 7.509753516011040e-01 0.000000000000000e+00
					7.611194702510349e-01 7.611194702510349e-01 0.000000000000000e+00
					6.951941016011038e-01 6.951941016011038e-01 0.000000000000000e+00
					5.213955762008280e-01 7.509753516011040e-01 0.000000000000000e+00
					4.770896026882762e-01 6.679065796260348e-01 0.000000000000000e+00
					6.951941016011038e-01 6.951941016011038e-01 0.000000000000000e+00
					6.361194702510349e-01 6.361194702510349e-01 0.000000000000000e+00
					4.770896026882762e-01 6.679065796260348e-01 0.000000000000000e+00
					4.379216821506209e-01 5.983877637008279e-01 0.000000000000000e+00
					6.361194702510349e-01 6.361194702510349e-01 0.000000000000000e+00
					5.838955762008278e-01 5.838955762008278e-01 0.000000000000000e+00
					4.379216821506209e-01 5.983877637008279e-01 0.000000000000000e+00
					4.038918145878622e-01 5.424189038254830e-01 0.000000000000000e+00
					5.838955762008278e-01 5.838955762008278e-01 0.000000000000000e+00
					5.385224194504830e-01 5.385224194504830e-01 0.000000000000000e+00
					4.038918145878622e-01 5.424189038254830e-01 0.000000000000000e+00
					3.750000000000000e-01 5.000000000000000e-01 0.000000000000000e+00
					5.385224194504830e-01 5.385224194504830e-01 0.000000000000000e+00
					5.000000000000000e-01 5.000000000000000e-01 0.000000000000000e+00
				</DataArray>
			</Points>
			<Cells>
				<DataArray Name="connectivity" type="UInt32" format="ascii">
					0 1 3 2 4 5 7 6 8 9 11 10 12 13 15 14 16 17 19 18 20 21 23 22 24 25 27 26 28 29 31 30 32 33 35 34 36 37 39 38 40 41 43 42 44 45 47 46 48 49 51 50 52 53 55 54 56 57 59 58 60 61 63 62 64 65 67 66 68 69 71 70 72 73 75 74 76 77 79 78 80 81 83 82 84 85 87 86 88 89 91 90 92 93 95 94 96 97 99 98 100 101 103 102 104 105 107 106 108 109 111 110 112 113 115 114 116 117 119 118 120 121 123 122 124 125 127 126 128 129 131 130 132 133 135 134 136 137 139 138 140 141 143 142 144 145 147 146 148 149 151 150 152 153 155 154 156 157 159 158 160 161 163 162 164 165 167 166 168 169 171 170 172 173 175 174 176 177 179 178 180 181 183 182 184 185 187 186 188 189 191 190 192 193 195 194 196 197 199 198 200 201 203 202 204 205 207 206 208 209 211 210 212 213 215 214 216 217 219 218 220 221 223 222 224 225 227 226 228 229 231 230 232 233 235 234 236 237 239 238 240 241 243 242 244 245 247 246 248 249 251 250 252 253 255 254 
				</DataArray>
				<DataArray Name="offsets" type="UInt32" format="ascii">
					4 8 12 16 20 24 28 32 36 40 44 48 52 56 60 64 68 72 76 80 84 88 92 96 100 104 108 112 116 120 124 128 132 136 140 144 148 152 156 160 164 168 172 176 180 184 188 192 196 200 204 208 212 216 220 224 228 232 236 240 244 248 252 256 
				</DataArray>
				<DataArray Name="types" type="UInt8" format="ascii">
					9 9 9 9 9 9 9 9 9 9 9 9 9 9 9 9 9 9 9 9 9 9 9 9 9 9 9 9 9 9 9 9 9 9 9 9 9 9 9 9 9 9 9 9 9 9 9 9 9 9 9 9 9 9 9 9 9 9 9 9 9 9 9 9 
				</DataArray>
			</Cells>
			<PointData Vectors="solution ">
				<DataArray Name="solution" type="Float64" NumberOfComponents="1" format="ascii">
					0.000000000000000e+00 3.096305723183378e-02 0.000000000000000e+00 1.123578531301425e-01 3.096305723183378e-02 3.659242197188196e-01 1.123578531301425e-01 1.078424730444049e+00 3.659242197188197e-01 1.314089138007204e+00 1.078424730444049e+00 3.357807721132720e+00 1.314089138007204e+00 2.935371390353051e+00 3.357807721132720e+00 6.594744500848269e+00 2.935371390353052e+00 5.063977182162966e+00 6.594744500848270e+00 1.013222392976886e+01 5.063977182162967e+00 7.438383142054288e+00 1.013222392976886e+01 1.343917363267090e+01 7.438383142054290e+00 9.803659222649543e+00 1.343917363267090e+01 1.623697880317678e+01 9.803659222649545e+00 1.196521069040974e+01 1.623697880317678e+01 1.845451607680004e+01 0.000000000000000e+00 1.123578531301425e-01 0.000000000000000e+00 2.826092477026832e-01 1.123578531301426e-01 1.078424730444049e+00 2.826092477026833e-01 2.350681702440705e+00 1.078424730444049e+00 3.357807721132720e+00 2.350681702440706e+00 6.645589010488787e+00 3.357807721132721e+00 6.594744500848270e+00 6.645589010488787e+00 1.197373269616753e+01 6.594744500848271e+00 1.013222392976886e+01 1.197373269616753e+01 1.699269103123700e+01 1.013222392976886e+01 1.343917363267090e+01 1.699269103123701e+01 2.099168645511802e+01 1.343917363267090e+01 1.623697880317678e+01 2.099168645511803e+01 2.385951286548017e+01 1.623697880317678e+01 1.845451607680004e+01 2.385951286548017e+01 2.579836749437038e+01 0.000000000000000e+00 2.826092477026833e-01 0.000000000000000e+00 5.509647051072026e-01 2.826092477026833e-01 2.350681702440706e+00 5.509647051072026e-01 4.035218477778860e+00 2.350681702440706e+00 6.645589010488787e+00 4.035218477778860e+00 1.066565126281466e+01 6.645589010488788e+00 1.197373269616753e+01 1.066565126281466e+01 1.816660015844919e+01 1.197373269616754e+01 1.699269103123701e+01 1.816660015844920e+01 2.449235783962123e+01 1.699269103123701e+01 2.099168645511803e+01 2.449235783962124e+01 2.889374232427442e+01 2.099168645511803e+01 2.385951286548017e+01 2.889374232427442e+01 3.156331540853648e+01 2.385951286548017e+01 2.579836749437038e+01 3.156331540853648e+01 3.303790487334957e+01 0.000000000000000e+00 5.509647051072026e-01 0.000000000000000e+00 8.062328209336209e-01 5.509647051072027e-01 4.035218477778860e+00 8.062328209336211e-01 5.546208099578509e+00 4.035218477778860e+00 1.066565126281466e+01 5.546208099578510e+00 1.415067622433593e+01 1.066565126281466e+01 1.816660015844920e+01 1.415067622433593e+01 2.340229079461978e+01 1.816660015844920e+01 2.449235783962124e+01 2.340229079461979e+01 3.072267378614987e+01 2.449235783962125e+01 2.889374232427442e+01 3.072267378614987e+01 3.539220138751750e+01 2.889374232427442e+01 3.156331540853648e+01 3.539220138751751e+01 3.787579111299335e+01 3.156331540853648e+01 3.303790487334958e+01 3.787579111299336e+01 3.897577282733533e+01 0.000000000000000e+00 8.062328209336211e-01 0.000000000000000e+00 8.686584593166495e-01 8.062328209336211e-01 5.546208099578510e+00 8.686584593166495e-01 6.122121721018180e+00 5.546208099578512e+00 1.415067622433593e+01 6.122121721018182e+00 1.560548220133640e+01 1.415067622433593e+01 2.340229079461979e+01 1.560548220133641e+01 2.572045298818037e+01 2.340229079461979e+01 3.072267378614987e+01 2.572045298818037e+01 3.366926673039266e+01 3.072267378614988e+01 3.539220138751751e+01 3.366926673039266e+01 3.869850421291243e+01 3.539220138751752e+01 3.787579111299336e+01 3.869850421291243e+01 4.132830437791056e+01 3.787579111299336e+01 3.897577282733534e+01 4.132830437791056e+01 4.243577338654986e+01 0.000000000000000e+00 8.686584593166495e-01 0.000000000000000e+00 7.010172337582926e-01 8.686584593166498e-01 6.122121721018182e+00 7.010172337582925e-01 5.410737861745574e+00 6.122121721018183e+00 1.560548220133641e+01 5.410737861745574e+00 1.422844160882833e+01 1.560548220133641e+01 2.572045298818037e+01 1.422844160882833e+01 2.400401047832048e+01 2.572045298818037e+01 3.366926673039266e+01 2.400401047832048e+01 3.211492878036125e+01 3.366926673039267e+01 3.869850421291243e+01 3.211492878036125e+01 3.765821092030360e+01 3.869850421291244e+01 4.132830437791056e+01 3.765821092030360e+01 4.090873832642745e+01 4.132830437791056e+01 4.243577338654987e+01 4.090873832642746e+01 4.256516245897967e+01 0.000000000000000e+00 7.010172337582925e-01 0.000000000000000e+00 4.391425667705448e-01 7.010172337582926e-01 5.410737861745574e+00 4.391425667705449e-01 3.768373809774100e+00 5.410737861745575e+00 1.422844160882833e+01 3.768373809774101e+00 1.052525745506189e+01 1.422844160882833e+01 2.400401047832048e+01 1.052525745506189e+01 1.872685293353262e+01 2.400401047832048e+01 3.211492878036125e+01 1.872685293353262e+01 2.633367566580188e+01 3.211492878036126e+01 3.765821092030360e+01 2.633367566580189e+01 3.229928918042309e+01 3.765821092030360e+01 4.090873832642747e+01 3.229928918042309e+01 3.645927750650872e+01 4.090873832642747e+01 4.256516245897968e+01 3.645927750650872e+01 3.911519245442410e+01 0.000000000000000e+00 4.391425667705449e-01 0.000000000000000e+00 1.970019279845187e-01 4.391425667705449e-01 3.768373809774101e+00 1.970019279845188e-01 1.954558298802357e+00 3.768373809774101e+00 1.052525745506189e+01 1.954558298802358e+00 6.046175478215771e+00 1.052525745506189e+01 1.872685293353262e+01 6.046175478215772e+00 1.182577132609049e+01 1.872685293353262e+01 2.633367566580189e+01 1.182577132609049e+01 1.811818068148676e+01 2.633367566580189e+01 3.229928918042309e+01 1.811818068148676e+01 2.396695109438625e+01 3.229928918042309e+01 3.645927750650872e+01 2.396695109438625e+01 2.884355917749608e+01 3.645927750650873e+01 3.911519245442411e+01 2.884355917749608e+01 3.259186749444910e+01 
				</DataArray>
			</PointData>
			<CellData>
			</CellData>
		</Piece>
	</UnstructuredGrid>
</VTKFile>