<?xml version="1.0"?>
<VTKFile type="UnstructuredGrid" byte_order="LittleEndian">
	<UnstructuredGrid>
		<Piece NumberOfPoints="64" NumberOfCells="16">
			<Points>
				<DataArray type="Float64" NumberOfComponents="3" format="ascii">
					-1.000000000000000e+00 -1.000000000000000e+00 0.000000000000000e+00
					-5.000000000000000e-01 -1.375000000000000e+00 0.000000000000000e+00
					-8.338955762008279e-01 -8.338955762008279e-01 0.000000000000000e+00
					-4.169477881004139e-01 -1.046239326200828e+00 0.000000000000000e+00
					-5.000000000000000e-01 -1.375000000000000e+00 0.000000000000000e+00
					1.387778780781446e-17 -1.500000000000000e+00 0.000000000000000e+00
					-4.169477881004139e-01 -1.046239326200828e+00 0.000000000000000e+00
					6.938893903907228e-18 -1.117020576200828e+00 0.000000000000000e+00
					1.387778780781446e-17 -1.500000000000000e+00 0.000000000000000e+00
					5.000000000000000e-01 -1.375000000000000e+00 0.000000000000000e+00
					6.938893903907228e-18 -1.117020576200828e+00 0.000000000000000e+00
					4.169477881004139e-01 -1.046239326200828e+00 0.000000000000000e+00
					5.000000000000000e-01 -1.375000000000000e+00 0.000000000000000e+00
					1.000000000000000e+00 -1.000000000000000e+00 0.000000000000000e+00
					4.169477881004139e-01 -1.046239326200828e+00 0.000000000000000e+00
					8.338955762008279e-01 -8.338955762008279e-01 0.000000000000000e+00
					-8.338955762008279e-01 -8.338955762008279e-01 0.000000000000000e+00
					-4.169477881004139e-01 -1.046239326200828e+00 0.000000000000000e+00
					-6.951941016011038e-01 -6.951941016011038e-01 0.000000000000000e+00
					-3.475970508005519e-01 -7.908191016011038e-01 0.000000000000000e+00
					-4.169477881004139e-01 -1.046239326200828e+00 0.000000000000000e+00
					6.938893903907228e-18 -1.117020576200828e+00 0.000000000000000e+00
					-3.475970508005519e-01 -7.908191016011038e-01 0.000000000000000e+00
					0.000000000000000e+00 -8.226941016011038e-01 0.000000000000000e+00
					6.938893903907228e-18 -1.117020576200828e+00 0.000000000000000e+00
					4.169477881004139e-01 -1.046239326200828e+00 0.000000000000000e+00
					0.000000000000000e+00 -8.226941016011038e-01 0.000000000000000e+00
					3.475970508005519e-01 -7.908191016011039e-01 0.000000000000000e+00
					4.169477881004139e-01 -1.046239326200828e+00 0.000000000000000e+00
					8.338955762008279e-01 -8.338955762008279e-01 0.000000000000000e+00
					3.475970508005519e-01 -7.908191016011039e-01 0.000000000000000e+00
					6.951941016011038e-01 -6.951941016011038e-01 0.000000000000000e+00
					-6.951941016011038e-01 -6.951941016011038e-01 0.000000000000000e+00
					-3.475970508005519e-01 -7.908191016011038e-01 0.000000000000000e+00
					-5.838955762008279e-01 -5.838955762008279e-01 0.000000000000000e+00
					-2.919477881004139e-01 -6.087393262008278e-01 0.000000000000000e+00
					-3.475970508005519e-01 -7.908191016011038e-01 0.000000000000000e+00
					0.000000000000000e+00 -8.226941016011038e-01 0.000000000000000e+00
					-2.919477881004139e-01 -6.087393262008278e-01 0.000000000000000e+00
					6.938893903907228e-18 -6.170205762008278e-01 0.000000000000000e+00
					0.000000000000000e+00 -8.226941016011038e-01 0.000000000000000e+00
					3.475970508005519e-01 -7.908191016011039e-01 0.000000000000000e+00
					6.938893903907228e-18 -6.170205762008278e-01 0.000000000000000e+00
					2.919477881004139e-01 -6.087393262008278e-01 0.000000000000000e+00
					3.475970508005519e-01 -7.908191016011039e-01 0.000000000000000e+00
					6.951941016011038e-01 -6.951941016011038e-01 0.000000000000000e+00
					2.919477881004139e-01 -6.087393262008278e-01 0.000000000000000e+00
					5.838955762008279e-01 -5.838955762008279e-01 0.000000000000000e+00
					-5.838955762008279e-01 -5.838955762008279e-01 0.000000000000000e+00
					-2.919477881004139e-01 -6.087393262008278e-01 0.000000000000000e+00
					-5.000000000000000e-01 -5.000000000000000e-01 0.000000000000000e+00
					-2.500000000000000e-01 -5.000000000000000e-01 0.000000000000000e+00
					-2.919477881004139e-01 -6.087393262008278e-01 0.000000000000000e+00
					6.938893903907228e-18 -6.170205762008278e-01 0.000000000000000e+00
					-2.500000000000000e-01 -5.000000000000000e-01 0.000000000000000e+00
					6.938893903907228e-18 -5.000000000000000e-01 0.000000000000000e+00
					6.938893903907228e-18 -6.170205762008278e-01 0.000000000000000e+00
					2.919477881004139e-01 -6.087393262008278e-01 0.000000000000000e+00
					6.938893903907228e-18 -5.000000000000000e-01 0.000000000000000e+00
					2.500000000000000e-01 -5.000000000000000e-01 0.000000000000000e+00
					2.919477881004139e-01 -6.087393262008278e-01 0.000000000000000e+00
					5.838955762008279e-01 -5.838955762008279e-01 0.000000000000000e+00
					2.500000000000000e-01 -5.000000000000000e-01 0.000000000000000e+00
					5.000000000000000e-01 -5.000000000000000e-01 0.000000000000000e+00
				</DataArray>
			</Points>
			<Cells>
				<DataArray Name="connectivity" type="UInt32" format="ascii">
					0 1 3 2 4 5 7 6 8 9 11 10 12 13 15 14 16 17 19 18 20 21 23 22 24 25 27 26 28 29 31 30 32 33 35 34 36 37 39 38 40 41 43 42 44 45 47 46 48 49 51 50 52 53 55 54 56 57 59 58 60 61 63 62 
				</DataArray>
				<DataArray Name="offsets" type="UInt32" format="ascii">
					4 8 12 16 20 24 28 32 36 40 44 48 52 56 60 64 
				</DataArray>
				<DataArray Name="types" type="UInt8" format="ascii">
					9 9 9 9 9 9 9 9 9 9 9 9 9 9 9 9 
				</DataArray>
			</Cells>
			<PointData Vectors="solution ">
				<DataArray Name="solution" type="Float64" NumberOfComponents="1" format="ascii">
					0.000000000000000e+00 0.000000000000000e+00 1.152379116925384e-01 1.510041119718285e-01 0.000000000000000e+00 0.000000000000000e+00 1.510041119718285e-01 1.831931274415971e-01 0.000000000000000e+00 0.000000000000000e+00 1.831931274415971e-01 3.161314430507514e-01 0.000000000000000e+00 0.000000000000000e+00 3.161314430507515e-01 3.944227526065248e-01 1.152379116925384e-01 1.510041119718285e-01 4.690762673186263e-01 7.826145492397814e-01 1.510041119718286e-01 1.831931274415971e-01 7.826145492397814e-01 1.157954743041497e+00 1.831931274415971e-01 3.161314430507515e-01 1.157954743041498e+00 1.464686269645127e+00 3.161314430507515e-01 3.944227526065249e-01 1.464686269645127e+00 1.459971145280295e+00 4.690762673186264e-01 7.826145492397815e-01 1.071833951385554e+00 2.189937702656450e+00 7.826145492397815e-01 1.157954743041498e+00 2.189937702656451e+00 3.411498228231601e+00 1.157954743041498e+00 1.464686269645127e+00 3.411498228231602e+00 3.660401670670922e+00 1.464686269645127e+00 1.459971145280295e+00 3.660401670670922e+00 3.012914820078858e+00 1.071833951385554e+00 2.189937702656451e+00 1.932165609040974e+00 3.922187184227847e+00 2.189937702656451e+00 3.411498228231602e+00 3.922187184227848e+00 5.720383627876296e+00 3.411498228231602e+00 3.660401670670922e+00 5.720383627876297e+00 6.062110152034394e+00 3.660401670670923e+00 3.012914820078858e+00 6.062110152034395e+00 4.863685141309305e+00 
				</DataArray>
			</PointData>
			<CellData>
			</CellData>
		</Piece>
	</UnstructuredGrid>
</VTKFile>