<?xml version="1.0"?>
<VTKFile type="UnstructuredGrid" byte_order="LittleEndian">
	<UnstructuredGrid>
		<Piece NumberOfPoints="256" NumberOfCells="64">
			<Points>
				<DataArray type="Float64" NumberOfComponents="3" format="ascii">
					-1.000000000000000e+00 -1.000000000000000e+00 0.000000000000000e+00
					-9.135224194504830e-01 -9.135224194504830e-01 0.000000000000000e+00
					-1.218750000000000e+00 -7.500000000000000e-01 0.000000000000000e+00
					-1.081481403825483e+00 -6.851418145878622e-01 0.000000000000000e+00
					-9.135224194504830e-01 -9.135224194504830e-01 0.000000000000000e+00
					-8.338955762008279e-01 -8.338955762008279e-01 0.000000000000000e+00
					-1.081481403825483e+00 -6.851418145878622e-01 0.000000000000000e+00
					-9.577627637008279e-01 -6.254216821506209e-01 0.000000000000000e+00
					-8.338955762008279e-01 -8.338955762008279e-01 0.000000000000000e+00
					-7.611194702510349e-01 -7.611194702510349e-01 0.000000000000000e+00
					-9.577627637008279e-01 -6.254216821506209e-01 0.000000000000000e+00
					-8.475940796260348e-01 -5.708396026882762e-01 0.000000000000000e+00
					-7.611194702510349e-01 -7.611194702510349e-01 0.000000000000000e+00
					-6.951941016011038e-01 -6.951941016011038e-01 0.000000000000000e+00
					-8.475940796260348e-01 -5.708396026882762e-01 0.000000000000000e+00
					-7.509753516011038e-01 -5.213955762008279e-01 0.000000000000000e+00
					-6.951941016011038e-01 -6.951941016011038e-01 0.000000000000000e+00
					-6.361194702510349e-01 -6.361194702510349e-01 0.000000000000000e+00
					-7.509753516011038e-01 -5.213955762008279e-01 0.000000000000000e+00
					-6.679065796260349e-01 -4.770896026882761e-01 0.000000000000000e+00
					-6.361194702510349e-01 -6.361194702510349e-01 0.000000000000000e+00
					-5.838955762008278e-01 -5.838955762008278e-01 0.000000000000000e+00
					-6.679065796260349e-01 -4.770896026882761e-01 0.000000000000000e+00
					-5.983877637008279e-01 -4.379216821506209e-01 0.000000000000000e+00
					-5.838955762008278e-01 -5.838955762008278e-01 0.000000000000000e+00
					-5.385224194504830e-01 -5.385224194504830e-01 0.000000000000000e+00
					-5.983877637008279e-01 -4.379216821506209e-01 0.000000000000000e+00
					-5.424189038254830e-01 -4.038918145878622e-01 0.000000000000000e+00
					-5.385224194504830e-01 -5.385224194504830e-01 0.000000000000000e+00
					-5.000000000000000e-01 -5.000000000000000e-01 0.000000000000000e+00
					-5.424189038254830e-01 -4.038918145878622e-01 0.000000000000000e+00
					-5.000000000000000e-01 -3.750000000000000e-01 0.000000000000000e+00
					-1.218750000000000e+00 -7.500000000000000e-01 0.000000000000000e+00
					-1.081481403825483e+00 -6.851418145878622e-01 0.000000000000000e+00
					-1.375000000000000e+00 -5.000000000000000e-01 0.000000000000000e+00
					-1.201452106950483e+00 -4.567612097252415e-01 0.000000000000000e+00
					-1.081481403825483e+00 -6.851418145878622e-01 0.000000000000000e+00
					-9.577627637008279e-01 -6.254216821506209e-01 0.000000000000000e+00
					-1.201452106950483e+00 -4.567612097252415e-01 0.000000000000000e+00
					-1.046239326200828e+00 -4.169477881004140e-01 0.000000000000000e+00
					-9.577627637008279e-01 -6.254216821506209e-01 0.000000000000000e+00
					-8.475940796260348e-01 -5.708396026882762e-01 0.000000000000000e+00
					-1.046239326200828e+00 -4.169477881004140e-01 0.000000000000000e+00
					-9.093616577510348e-01 -3.805597351255174e-01 0.000000000000000e+00
					-8.475940796260348e-01 -5.708396026882762e-01 0.000000000000000e+00
					-7.509753516011038e-01 -5.213955762008279e-01 0.000000000000000e+00
					-9.093616577510348e-01 -3.805597351255174e-01 0.000000000000000e+00
					-7.908191016011039e-01 -3.475970508005519e-01 0.000000000000000e+00
					-7.509753516011038e-01 -5.213955762008279e-01 0.000000000000000e+00
					-6.679065796260349e-01 -4.770896026882761e-01 0.000000000000000e+00
					-7.908191016011039e-01 -3.475970508005519e-01 0.000000000000000e+00
					-6.906116577510349e-01 -3.180597351255174e-01 0.000000000000000e+00
					-6.679065796260349e-01 -4.770896026882761e-01 0.000000000000000e+00
					-5.983877637008279e-01 -4.379216821506209e-01 0.000000000000000e+00
					-6.906116577510349e-01 -3.180597351255174e-01 0.000000000000000e+00
					-6.087393262008278e-01 -2.919477881004139e-01 0.000000000000000e+00
					-5.983877637008279e-01 -4.379216821506209e-01 0.000000000000000e+00
					-5.424189038254830e-01 -4.038918145878622e-01 0.000000000000000e+00
					-6.087393262008278e-01 -2.919477881004139e-01 0.000000000000000e+00
					-5.452021069504830e-01 -2.692612097252414e-01 0.000000000000000e+00
					-5.424189038254830e-01 -4.038918145878622e-01 0.000000000000000e+00
					-5.000000000000000e-01 -3.750000000000000e-01 0.000000000000000e+00
					-5.452021069504830e-01 -2.692612097252414e-01 0.000000000000000e+00
					-5.000000000000000e-01 -2.500000000000000e-01 0.000000000000000e+00
					-1.375000000000000e+00 -5.000000000000000e-01 0.000000000000000e+00
					-1.201452106950483e+00 -4.567612097252415e-01 0.000000000000000e+00
					-1.468750000000000e+00 -2.500000000000000e-01 0.000000000000000e+00
					-1.273434528825483e+00 -2.283806048626207e-01 0.000000000000000e+00
					-1.201452106950483e+00 -4.567612097252415e-01 0.000000000000000e+00
					-1.046239326200828e+00 -4.169477881004140e-01 0.000000000000000e+00
					-1.273434528825483e+00 -2.283806048626207e-01 0.000000000000000e+00
					-1.099325263700828e+00 -2.084738940502069e-01 0.000000000000000e+00
					-1.046239326200828e+00 -4.169477881004140e-01 0.000000000000000e+00
					-9.093616577510348e-01 -3.805597351255174e-01 0.000000000000000e+00
					-1.099325263700828e+00 -2.084738940502069e-01 0.000000000000000e+00
					-9.464222046260349e-01 -1.902798675627587e-01 0.000000000000000e+00
					-9.093616577510348e-01 -3.805597351255174e-01 0.000000000000000e+00
					-7.908191016011039e-01 -3.475970508005519e-01 0.000000000000000e+00
					-9.464222046260349e-01 -1.902798675627587e-01 0.000000000000000e+00
					-8.147253516011038e-01 -1.737985254002759e-01 0.000000000000000e+00
					-7.908191016011039e-01 -3.475970508005519e-01 0.000000000000000e+00
					-6.906116577510349e-01 -3.180597351255174e-01 0.000000000000000e+00
					-8.147253516011038e-01 -1.737985254002759e-01 0.000000000000000e+00
					-7.042347046260348e-01 -1.590298675627587e-01 0.000000000000000e+00
					-6.906116577510349e-01 -3.180597351255174e-01 0.000000000000000e+00
					-6.087393262008278e-01 -2.919477881004139e-01 0.000000000000000e+00
					-7.042347046260348e-01 -1.590298675627587e-01 0.000000000000000e+00
					-6.149502637008278e-01 -1.459738940502069e-01 0.000000000000000e+00
					-6.087393262008278e-01 -2.919477881004139e-01 0.000000000000000e+00
					-5.452021069504830e-01 -2.692612097252414e-01 0.000000000000000e+00
					-6.149502637008278e-01 -1.459738940502069e-01 0.000000000000000e+00
					-5.468720288254830e-01 -1.346306048626207e-01 0.000000000000000e+00
					-5.452021069504830e-01 -2.692612097252414e-01 0.000000000000000e+00
					-5.000000000000000e-01 -2.500000000000000e-01 0.000000000000000e+00
					-5.468720288254830e-01 -1.346306048626207e-01 0.000000000000000e+00
					-5.000000000000000e-01 -1.250000000000000e-01 0.000000000000000e+00
					-1.468750000000000e+00 -2.500000000000000e-01 0.000000000000000e+00
					-1.273434528825483e+00 -2.283806048626207e-01 0.000000000000000e+00
					-1.500000000000000e+00 0.000000000000000e+00 0.000000000000000e+00
					-1.297428669450483e+00 4.857225732735060e-17 0.000000000000000e+00
					-1.273434528825483e+00 -2.283806048626207e-01 0.000000000000000e+00
					-1.099325263700828e+00 -2.084738940502069e-01 0.000000000000000e+00
					-1.297428669450483e+00 4.857225732735060e-17 0.000000000000000e+00
					-1.117020576200828e+00 3.469446951953614e-17 0.000000000000000e+00
					-1.099325263700828e+00 -2.084738940502069e-01 0.000000000000000e+00
					-9.464222046260349e-01 -1.902798675627587e-01 0.000000000000000e+00
					-1.117020576200828e+00 3.469446951953614e-17 0.000000000000000e+00
					-9.587757202510350e-01 4.163336342344337e-17 0.000000000000000e+00
					-9.464222046260349e-01 -1.902798675627587e-01 0.000000000000000e+00
					-8.147253516011038e-01 -1.737985254002759e-01 0.000000000000000e+00
					-9.587757202510350e-01 4.163336342344337e-17 0.000000000000000e+00
					-8.226941016011039e-01 4.163336342344337e-17 0.000000000000000e+00
					-8.147253516011038e-01 -1.737985254002759e-01 0.000000000000000e+00
					-7.042347046260348e-01 -1.590298675627587e-01 0.000000000000000e+00
					-8.226941016011039e-01 4.163336342344337e-17 0.000000000000000e+00
					-7.087757202510349e-01 3.816391647148976e-17 0.000000000000000e+00
					-7.042347046260348e-01 -1.590298675627587e-01 0.000000000000000e+00
					-6.149502637008278e-01 -1.459738940502069e-01 0.000000000000000e+00
					-7.087757202510349e-01 3.816391647148976e-17 0.000000000000000e+00
					-6.170205762008278e-01 2.428612866367530e-17 0.000000000000000e+00
					-6.149502637008278e-01 -1.459738940502069e-01 0.000000000000000e+00
					-5.468720288254830e-01 -1.346306048626207e-01 0.000000000000000e+00
					-6.170205762008278e-01 2.428612866367530e-17 0.000000000000000e+00
					-5.474286694504830e-01 2.428612866367530e-17 0.000000000000000e+00
					-5.468720288254830e-01 -1.346306048626207e-01 0.000000000000000e+00
					-5.000000000000000e-01 -1.250000000000000e-01 0.000000000000000e+00
					-5.474286694504830e-01 2.428612866367530e-17 0.000000000000000e+00
					-5.000000000000000e-01 0.000000000000000e+00 0.000000000000000e+00
					-1.500000000000000e+00 0.000000000000000e+00 0.000000000000000e+00
					-1.297428669450483e+00 4.857225732735060e-17 0.000000000000000e+00
					-1.468750000000000e+00 2.500000000000000e-01 0.000000000000000e+00
					-1.273434528825483e+00 2.283806048626208e-01 0.000000000000000e+00
					-1.297428669450483e+00 4.857225732735060e-17 0.000000000000000e+00
					-1.117020576200828e+00 3.469446951953614e-17 0.000000000000000e+00
					-1.273434528825483e+00 2.283806048626208e-01 0.000000000000000e+00
					-1.099325263700828e+00 2.084738940502070e-01 0.000000000000000e+00
					-1.117020576200828e+00 3.469446951953614e-17 0.000000000000000e+00
					-9.587757202510350e-01 4.163336342344337e-17 0.000000000000000e+00
					-1.099325263700828e+00 2.084738940502070e-01 0.000000000000000e+00
					-9.464222046260349e-01 1.902798675627588e-01 0.000000000000000e+00
					-9.587757202510350e-01 4.163336342344337e-17 0.000000000000000e+00
					-8.226941016011039e-01 4.163336342344337e-17 0.000000000000000e+00
					-9.464222046260349e-01 1.902798675627588e-01 0.000000000000000e+00
					-8.147253516011039e-01 1.737985254002760e-01 0.000000000000000e+00
					-8.226941016011039e-01 4.163336342344337e-17 0.000000000000000e+00
					-7.087757202510349e-01 3.816391647148976e-17 0.000000000000000e+00
					-8.147253516011039e-01 1.737985254002760e-01 0.000000000000000e+00
					-7.042347046260349e-01 1.590298675627588e-01 0.000000000000000e+00
					-7.087757202510349e-01 3.816391647148976e-17 0.000000000000000e+00
					-6.170205762008278e-01 2.428612866367530e-17 0.000000000000000e+00
					-7.042347046260349e-01 1.590298675627588e-01 0.000000000000000e+00
					-6.149502637008278e-01 1.459738940502070e-01 0.000000000000000e+00
					-6.170205762008278e-01 2.428612866367530e-17 0.000000000000000e+00
					-5.474286694504830e-01 2.428612866367530e-17 0.000000000000000e+00
					-6.149502637008278e-01 1.459738940502070e-01 0.000000000000000e+00
					-5.468720288254829e-01 1.346306048626208e-01 0.000000000000000e+00
					-5.474286694504830e-01 2.428612866367530e-17 0.000000000000000e+00
					-5.000000000000000e-01 0.000000000000000e+00 0.000000000000000e+00
					-5.468720288254829e-01 1.346306048626208e-01 0.000000000000000e+00
					-5.000000000000000e-01 1.250000000000000e-01 0.000000000000000e+00
					-1.468750000000000e+00 2.500000000000000e-01 0.000000000000000e+00
					-1.273434528825483e+00 2.283806048626208e-01 0.000000000000000e+00
					-1.375000000000000e+00 5.000000000000000e-01 0.000000000000000e+00
					-1.201452106950483e+00 4.567612097252415e-01 0.000000000000000e+00
					-1.273434528825483e+00 2.283806048626208e-01 0.000000000000000e+00
					-1.099325263700828e+00 2.084738940502070e-01 0.000000000000000e+00
					-1.201452106950483e+00 4.567612097252415e-01 0.000000000000000e+00
					-1.046239326200828e+00 4.169477881004139e-01 0.000000000000000e+00
					-1.099325263700828e+00 2.084738940502070e-01 0.000000000000000e+00
					-9.464222046260349e-01 1.902798675627588e-01 0.000000000000000e+00
					-1.046239326200828e+00 4.169477881004139e-01 0.000000000000000e+00
					-9.093616577510348e-01 3.805597351255174e-01 0.000000000000000e+00
					-9.464222046260349e-01 1.902798675627588e-01 0.000000000000000e+00
					-8.147253516011039e-01 1.737985254002760e-01 0.000000000000000e+00
					-9.093616577510348e-01 3.805597351255174e-01 0.000000000000000e+00
					-7.908191016011039e-01 3.475970508005520e-01 0.000000000000000e+00
					-8.147253516011039e-01 1.737985254002760e-01 0.000000000000000e+00
					-7.042347046260349e-01 1.590298675627588e-01 0.000000000000000e+00
					-7.908191016011039e-01 3.475970508005520e-01 0.000000000000000e+00
					-6.906116577510348e-01 3.180597351255175e-01 0.000000000000000e+00
					-7.042347046260349e-01 1.590298675627588e-01 0.000000000000000e+00
					-6.149502637008278e-01 1.459738940502070e-01 0.000000000000000e+00
					-6.906116577510348e-01 3.180597351255175e-01 0.000000000000000e+00
					-6.087393262008278e-01 2.919477881004140e-01 0.000000000000000e+00
					-6.149502637008278e-01 1.459738940502070e-01 0.000000000000000e+00
					-5.468720288254829e-01 1.346306048626208e-01 0.000000000000000e+00
					-6.087393262008278e-01 2.919477881004140e-01 0.000000000000000e+00
					-5.452021069504829e-01 2.692612097252415e-01 0.000000000000000e+00
					-5.468720288254829e-01 1.346306048626208e-01 0.000000000000000e+00
					-5.000000000000000e-01 1.250000000000000e-01 0.000000000000000e+00
					-5.452021069504829e-01 2.692612097252415e-01 0.000000000000000e+00
					-5.000000000000000e-01 2.500000000000000e-01 0.000000000000000e+00
					-1.375000000000000e+00 5.000000000000000e-01 0.000000000000000e+00
					-1.201452106950483e+00 4.567612097252415e-01 0.000000000000000e+00
					-1.218750000000000e+00 7.500000000000000e-01 0.000000000000000e+00
					-1.081481403825483e+00 6.851418145878622e-01 0.000000000000000e+00
					-1.201452106950483e+00 4.567612097252415e-01 0.000000000000000e+00
					-1.046239326200828e+00 4.169477881004139e-01 0.000000000000000e+00
					-1.081481403825483e+00 6.851418145878622e-01 0.000000000000000e+00
					-9.577627637008279e-01 6.254216821506209e-01 0.000000000000000e+00
					-1.046239326200828e+00 4.169477881004139e-01 0.000000000000000e+00
					-9.093616577510348e-01 3.805597351255174e-01 0.000000000000000e+00
					-9.577627637008279e-01 6.254216821506209e-01 0.000000000000000e+00
					-8.475940796260351e-01 5.708396026882763e-01 0.000000000000000e+00
					-9.093616577510348e-01 3.805597351255174e-01 0.000000000000000e+00
					-7.908191016011039e-01 3.475970508005520e-01 0.000000000000000e+00
					-8.475940796260351e-01 5.708396026882763e-01 0.000000000000000e+00
					-7.509753516011040e-01 5.213955762008280e-01 0.000000000000000e+00
					-7.908191016011039e-01 3.475970508005520e-01 0.000000000000000e+00
					-6.906116577510348e-01 3.180597351255175e-01 0.000000000000000e+00
					-7.509753516011040e-01 5.213955762008280e-01 0.000000000000000e+00
					-6.679065796260348e-01 4.770896026882762e-01 0.000000000000000e+00
					-6.906116577510348e-01 3.180597351255175e-01 0.000000000000000e+00
					-6.087393262008278e-01 2.919477881004140e-01 0.000000000000000e+00
					-6.679065796260348e-01 4.770896026882762e-01 0.000000000000000e+00
					-5.983877637008279e-01 4.379216821506209e-01 0.000000000000000e+00
					-6.087393262008278e-01 2.919477881004140e-01 0.000000000000000e+00
					-5.452021069504829e-01 2.692612097252415e-01 0.000000000000000e+00
					-5.983877637008279e-01 4.379216821506209e-01 0.000000000000000e+00
					-5.424189038254830e-01 4.038918145878622e-01 0.000000000000000e+00
					-5.452021069504829e-01 2.692612097252415e-01 0.000000000000000e+00
					-5.000000000000000e-01 2.500000000000000e-01 0.000000000000000e+00
					-5.424189038254830e-01 4.038918145878622e-01 0.000000000000000e+00
					-5.000000000000000e-01 3.750000000000000e-01 0.000000000000000e+00
					-1.218750000000000e+00 7.500000000000000e-01 0.000000000000000e+00
					-1.081481403825483e+00 6.851418145878622e-01 0.000000000000000e+00
					-1.000000000000000e+00 1.000000000000000e+00 0.000000000000000e+00
					-9.135224194504830e-01 9.135224194504830e-01 0.000000000000000e+00
					-1.081481403825483e+00 6.851418145878622e-01 0.000000000000000e+00
					-9.577627637008279e-01 6.254216821506209e-01 0.000000000000000e+00
					-9.135224194504830e-01 9.135224194504830e-01 0.000000000000000e+00
					-8.338955762008279e-01 8.338955762008279e-01 0.000000000000000e+00
					-9.577627637008279e-01 6.254216821506209e-01 0.000000000000000e+00
					-8.475940796260351e-01 5.708396026882763e-01 0.000000000000000e+00
					-8.338955762008279e-01 8.338955762008279e-01 0.000000000000000e+00
					-7.611194702510349e-01 7.611194702510349e-01 0.000000000000000e+00
					-8.475940796260351e-01 5.708396026882763e-01 0.000000000000000e+00
					-7.509753516011040e-01 5.213955762008280e-01 0.000000000000000e+00
					-7.611194702510349e-01 7.611194702510349e-01 0.000000000000000e+00
					-6.951941016011038e-01 6.951941016011038e-01 0.000000000000000e+00
					-7.509753516011040e-01 5.213955762008280e-01 0.000000000000000e+00
					-6.679065796260348e-01 4.770896026882762e-01 0.000000000000000e+00
					-6.951941016011038e-01 6.951941016011038e-01 0.000000000000000e+00
					-6.361194702510349e-01 6.361194702510349e-01 0.000000000000000e+00
					-6.679065796260348e-01 4.770896026882762e-01 0.000000000000000e+00
					-5.983877637008279e-01 4.379216821506209e-01 0.000000000000000e+00
					-6.361194702510349e-01 6.361194702510349e-01 0.000000000000000e+00
					-5.838955762008278e-01 5.838955762008278e-01 0.000000000000000e+00
					-5.983877637008279e-01 4.379216821506209e-01 0.000000000000000e+00
					-5.424189038254830e-01 4.038918145878622e-01 0.000000000000000e+00
					-5.838955762008278e-01 5.838955762008278e-01 0.000000000000000e+00
					-5.385224194504830e-01 5.385224194504830e-01 0.000000000000000e+00
					-5.424189038254830e-01 4.038918145878622e-01 0.000000000000000e+00
					-5.000000000000000e-01 3.750000000000000e-01 0.000000000000000e+00
					-5.385224194504830e-01 5.385224194504830e-01 0.000000000000000e+00
					-5.000000000000000e-01 5.000000000000000e-01 0.000000000000000e+00
				</DataArray>
			</Points>
			<Cells>
				<DataArray Name="connectivity" type="UInt32" format="ascii">
					0 1 3 2 4 5 7 6 8 9 11 10 12 13 15 14 16 17 19 18 20 21 23 22 24 25 27 26 28 29 31 30 32 33 35 34 36 37 39 38 40 41 43 42 44 45 47 46 48 49 51 50 52 53 55 54 56 57 59 58 60 61 63 62 64 65 67 66 68 69 71 70 72 73 75 74 76 77 79 78 80 81 83 82 84 85 87 86 88 89 91 90 92 93 95 94 96 97 99 98 100 101 103 102 104 105 107 106 108 109 111 110 112 113 115 114 116 117 119 118 120 121 123 122 124 125 127 126 128 129 131 130 132 133 135 134 136 137 139 138 140 141 143 142 144 145 147 146 148 149 151 150 152 153 155 154 156 157 159 158 160 161 163 162 164 165 167 166 168 169 171 170 172 173 175 174 176 177 179 178 180 181 183 182 184 185 187 186 188 189 191 190 192 193 195 194 196 197 199 198 200 201 203 202 204 205 207 206 208 209 211 210 212 213 215 214 216 217 219 218 220 221 223 222 224 225 227 226 228 229 231 230 232 233 235 234 236 237 239 238 240 241 243 242 244 245 247 246 248 249 251 250 252 253 255 254 
				</DataArray>
				<DataArray Name="offsets" type="UInt32" format="ascii">
					4 8 12 16 20 24 28 32 36 40 44 48 52 56 60 64 68 72 76 80 84 88 92 96 100 104 108 112 116 120 124 128 132 136 140 144 148 152 156 160 164 168 172 176 180 184 188 192 196 200 204 208 212 216 220 224 228 232 236 240 244 248 252 256 
				</DataArray>
				<DataArray Name="types" type="UInt8" format="ascii">
					9 9 9 9 9 9 9 9 9 9 9 9 9 9 9 9 9 9 9 9 9 9 9 9 9 9 9 9 9 9 9 9 9 9 9 9 9 9 9 9 9 9 9 9 9 9 9 9 9 9 9 9 9 9 9 9 9 9 9 9 9 9 9 9 
				</DataArray>
			</Cells>
			<PointData Vectors="solution ">
				<DataArray Name="solution" type="Float64" NumberOfComponents="1" format="ascii">
					0.000000000000000e+00 2.477031295655199e-02 0.000000000000000e+00 3.682551059196527e-02 2.477031295655199e-02 1.024775444188650e-01 3.682551059196527e-02 1.456959371924653e-01 1.024775444188650e-01 2.373295287167163e-01 1.456959371924654e-01 3.495032832110804e-01 2.373295287167163e-01 4.325265962706044e-01 3.495032832110804e-01 6.748835976693867e-01 4.325265962706044e-01 6.905648748088633e-01 6.748835976693868e-01 1.134381561202646e+00 6.905648748088634e-01 1.013515091717542e+00 1.134381561202646e+00 1.724386282081358e+00 1.013515091717542e+00 1.403226463789813e+00 1.724386282081358e+00 2.420863511778554e+00 1.403226463789813e+00 1.861453403954584e+00 2.420863511778555e+00 3.155684597089235e+00 0.000000000000000e+00 3.682551059196527e-02 0.000000000000000e+00 4.117090066807184e-02 3.682551059196528e-02 1.456959371924654e-01 4.117090066807184e-02 1.872817054039231e-01 1.456959371924654e-01 3.495032832110804e-01 1.872817054039231e-01 5.102682719076882e-01 3.495032832110804e-01 6.748835976693868e-01 5.102682719076883e-01 1.078668300002172e+00 6.748835976693869e-01 1.134381561202646e+00 1.078668300002172e+00 1.902479511053984e+00 1.134381561202646e+00 1.724386282081358e+00 1.902479511053984e+00 2.917296975601401e+00 1.724386282081358e+00 2.420863511778555e+00 2.917296975601401e+00 3.990601980147450e+00 2.420863511778555e+00 3.155684597089235e+00 3.990601980147451e+00 4.953443754992096e+00 0.000000000000000e+00 4.117090066807184e-02 0.000000000000000e+00 5.006284171042542e-02 4.117090066807185e-02 1.872817054039231e-01 5.006284171042542e-02 2.556014407404668e-01 1.872817054039231e-01 5.102682719076883e-01 2.556014407404668e-01 7.577060724711598e-01 5.102682719076884e-01 1.078668300002172e+00 7.577060724711600e-01 1.662759928691704e+00 1.078668300002172e+00 1.902479511053984e+00 1.662759928691704e+00 2.941043469940436e+00 1.902479511053984e+00 2.917296975601401e+00 2.941043469940436e+00 4.421926094523639e+00 2.917296975601402e+00 3.990601980147451e+00 4.421926094523640e+00 5.862333220874460e+00 3.990601980147451e+00 4.953443754992096e+00 5.862333220874460e+00 7.035419854747940e+00 0.000000000000000e+00 5.006284171042542e-02 0.000000000000000e+00 6.638947163395810e-02 5.006284171042542e-02 2.556014407404668e-01 6.638947163395811e-02 3.596416930261023e-01 2.556014407404668e-01 7.577060724711600e-01 3.596416930261024e-01 1.083281302619966e+00 7.577060724711602e-01 1.662759928691704e+00 1.083281302619966e+00 2.358226314891950e+00 1.662759928691705e+00 2.941043469940436e+00 2.358226314891951e+00 4.093543352368787e+00 2.941043469940436e+00 4.421926094523640e+00 4.093543352368789e+00 6.019716918444953e+00 4.421926094523640e+00 5.862333220874460e+00 6.019716918444953e+00 7.807808378903936e+00 5.862333220874461e+00 7.035419854747941e+00 7.807808378903936e+00 9.180663023300509e+00 0.000000000000000e+00 6.638947163395811e-02 0.000000000000000e+00 9.757708866022854e-02 6.638947163395811e-02 3.596416930261024e-01 9.757708866022857e-02 5.164476927612119e-01 3.596416930261024e-01 1.083281302619966e+00 5.164476927612119e-01 1.490735450664219e+00 1.083281302619966e+00 2.358226314891951e+00 1.490735450664219e+00 3.113501975683632e+00 2.358226314891951e+00 4.093543352368789e+00 3.113501975683632e+00 5.231018300289347e+00 4.093543352368789e+00 6.019716918444953e+00 5.231018300289348e+00 7.511819636531940e+00 6.019716918444954e+00 7.807808378903937e+00 7.511819636531941e+00 9.586760747932514e+00 7.807808378903938e+00 9.180663023300511e+00 9.586760747932514e+00 1.114735659510172e+01 0.000000000000000e+00 9.757708866022857e-02 0.000000000000000e+00 1.574632449057757e-01 9.757708866022859e-02 5.164476927612119e-01 1.574632449057758e-01 7.564045163803990e-01 5.164476927612122e-01 1.490735450664219e+00 7.564045163803991e-01 1.978365810275804e+00 1.490735450664219e+00 3.113501975683632e+00 1.978365810275805e+00 3.847261141795121e+00 3.113501975683632e+00 5.231018300289348e+00 3.847261141795121e+00 6.176659808424541e+00 5.231018300289349e+00 7.511819636531941e+00 6.176659808424541e+00 8.639649033703520e+00 7.511819636531942e+00 9.586760747932514e+00 8.639649033703520e+00 1.087885785219614e+01 9.586760747932514e+00 1.114735659510172e+01 1.087885785219614e+01 1.261214651091747e+01 0.000000000000000e+00 1.574632449057758e-01 0.000000000000000e+00 2.726809048304760e-01 1.574632449057758e-01 7.564045163803991e-01 2.726809048304760e-01 1.089533205569416e+00 7.564045163803992e-01 1.978365810275805e+00 1.089533205569416e+00 2.482804157759139e+00 1.978365810275805e+00 3.847261141795121e+00 2.482804157759139e+00 4.389321729547035e+00 3.847261141795122e+00 6.176659808424541e+00 4.389321729547035e+00 6.657187781836797e+00 6.176659808424543e+00 8.639649033703520e+00 6.657187781836797e+00 9.066068340272469e+00 8.639649033703522e+00 1.087885785219614e+01 9.066068340272471e+00 1.134429900207602e+01 1.087885785219614e+01 1.261214651091747e+01 1.134429900207602e+01 1.322909350197179e+01 0.000000000000000e+00 2.726809048304760e-01 0.000000000000000e+00 3.226730549861627e-01 2.726809048304760e-01 1.089533205569416e+00 3.226730549861628e-01 1.227170235226716e+00 1.089533205569416e+00 2.482804157759139e+00 1.227170235226717e+00 2.610384965273299e+00 2.482804157759139e+00 4.389321729547035e+00 2.610384965273300e+00 4.360695876304726e+00 4.389321729547036e+00 6.657187781836797e+00 4.360695876304727e+00 6.360946616273002e+00 6.657187781836798e+00 9.066068340272469e+00 6.360946616273004e+00 8.490880958476369e+00 9.066068340272473e+00 1.134429900207602e+01 8.490880958476371e+00 1.062868962070535e+01 1.134429900207602e+01 1.322909350197179e+01 1.062868962070535e+01 1.265189531282400e+01 
				</DataArray>
			</PointData>
			<CellData>
			</CellData>
		</Piece>
	</UnstructuredGrid>
</VTKFile>