<?xml version="1.0"?>
<VTKFile type="UnstructuredGrid" byte_order="LittleEndian">
	<UnstructuredGrid>
		<Piece NumberOfPoints="256" NumberOfCells="64">
			<Points>
				<DataArray type="Float64" NumberOfComponents="3" format="ascii">
					-1.000000000000000e+00 1.000000000000000e+00 0.000000000000000e+00
					-9.135224194504830e-01 9.135224194504830e-01 0.000000000000000e+00
					-7.500000000000000e-01 1.218750000000000e+00 0.000000000000000e+00
					-6.851418145878622e-01 1.081481403825483e+00 0.000000000000000e+00
					-9.135224194504830e-01 9.135224194504830e-01 0.000000000000000e+00
					-8.338955762008279e-01 8.338955762008279e-01 0.000000000000000e+00
					-6.851418145878622e-01 1.081481403825483e+00 0.000000000000000e+00
					-6.254216821506209e-01 9.577627637008279e-01 0.000000000000000e+00
					-8.338955762008279e-01 8.338955762008279e-01 0.000000000000000e+00
					-7.611194702510349e-01 7.611194702510349e-01 0.000000000000000e+00
					-6.254216821506209e-01 9.577627637008279e-01 0.000000000000000e+00
					-5.708396026882762e-01 8.475940796260348e-01 0.000000000000000e+00
					-7.611194702510349e-01 7.611194702510349e-01 0.000000000000000e+00
					-6.951941016011038e-01 6.951941016011038e-01 0.000000000000000e+00
					-5.708396026882762e-01 8.475940796260348e-01 0.000000000000000e+00
					-5.213955762008279e-01 7.509753516011038e-01 0.000000000000000e+00
					-6.951941016011038e-01 6.951941016011038e-01 0.000000000000000e+00
					-6.361194702510349e-01 6.361194702510349e-01 0.000000000000000e+00
					-5.213955762008279e-01 7.509753516011038e-01 0.000000000000000e+00
					-4.770896026882761e-01 6.679065796260349e-01 0.000000000000000e+00
					-6.361194702510349e-01 6.361194702510349e-01 0.000000000000000e+00
					-5.838955762008278e-01 5.838955762008278e-01 0.000000000000000e+00
					-4.770896026882761e-01 6.679065796260349e-01 0.000000000000000e+00
					-4.379216821506209e-01 5.983877637008279e-01 0.000000000000000e+00
					-5.838955762008278e-01 5.838955762008278e-01 0.000000000000000e+00
					-5.385224194504830e-01 5.385224194504830e-01 0.000000000000000e+00
					-4.379216821506209e-01 5.983877637008279e-01 0.000000000000000e+00
					-4.038918145878622e-01 5.424189038254830e-01 0.000000000000000e+00
					-5.385224194504830e-01 5.385224194504830e-01 0.000000000000000e+00
					-5.000000000000000e-01 5.000000000000000e-01 0.000000000000000e+00
					-4.038918145878622e-01 5.424189038254830e-01 0.000000000000000e+00
					-3.750000000000000e-01 5.000000000000000e-01 0.000000000000000e+00
					-7.500000000000000e-01 1.218750000000000e+00 0.000000000000000e+00
					-6.851418145878622e-01 1.081481403825483e+00 0.000000000000000e+00
					-5.000000000000000e-01 1.375000000000000e+00 0.000000000000000e+00
					-4.567612097252415e-01 1.201452106950483e+00 0.000000000000000e+00
					-6.851418145878622e-01 1.081481403825483e+00 0.000000000000000e+00
					-6.254216821506209e-01 9.577627637008279e-01 0.000000000000000e+00
					-4.567612097252415e-01 1.201452106950483e+00 0.000000000000000e+00
					-4.169477881004140e-01 1.046239326200828e+00 0.000000000000000e+00
					-6.254216821506209e-01 9.577627637008279e-01 0.000000000000000e+00
					-5.708396026882762e-01 8.475940796260348e-01 0.000000000000000e+00
					-4.169477881004140e-01 1.046239326200828e+00 0.000000000000000e+00
					-3.805597351255174e-01 9.093616577510348e-01 0.000000000000000e+00
					-5.708396026882762e-01 8.475940796260348e-01 0.000000000000000e+00
					-5.213955762008279e-01 7.509753516011038e-01 0.000000000000000e+00
					-3.805597351255174e-01 9.093616577510348e-01 0.000000000000000e+00
					-3.475970508005519e-01 7.908191016011039e-01 0.000000000000000e+00
					-5.213955762008279e-01 7.509753516011038e-01 0.000000000000000e+00
					-4.770896026882761e-01 6.679065796260349e-01 0.000000000000000e+00
					-3.475970508005519e-01 7.908191016011039e-01 0.000000000000000e+00
					-3.180597351255174e-01 6.906116577510349e-01 0.000000000000000e+00
					-4.770896026882761e-01 6.679065796260349e-01 0.000000000000000e+00
					-4.379216821506209e-01 5.983877637008279e-01 0.000000000000000e+00
					-3.180597351255174e-01 6.906116577510349e-01 0.000000000000000e+00
					-2.919477881004139e-01 6.087393262008278e-01 0.000000000000000e+00
					-4.379216821506209e-01 5.983877637008279e-01 0.000000000000000e+00
					-4.038918145878622e-01 5.424189038254830e-01 0.000000000000000e+00
					-2.919477881004139e-01 6.087393262008278e-01 0.000000000000000e+00
					-2.692612097252414e-01 5.452021069504830e-01 0.000000000000000e+00
					-4.038918145878622e-01 5.424189038254830e-01 0.000000000000000e+00
					-3.750000000000000e-01 5.000000000000000e-01 0.000000000000000e+00
					-2.692612097252414e-01 5.452021069504830e-01 0.000000000000000e+00
					-2.500000000000000e-01 5.000000000000000e-01 0.000000000000000e+00
					-5.000000000000000e-01 1.375000000000000e+00 0.000000000000000e+00
					-4.567612097252415e-01 1.201452106950483e+00 0.000000000000000e+00
					-2.500000000000000e-01 1.468750000000000e+00 0.000000000000000e+00
					-2.283806048626207e-01 1.273434528825483e+00 0.000000000000000e+00
					-4.567612097252415e-01 1.201452106950483e+00 0.000000000000000e+00
					-4.169477881004140e-01 1.046239326200828e+00 0.000000000000000e+00
					-2.283806048626207e-01 1.273434528825483e+00 0.000000000000000e+00
					-2.084738940502069e-01 1.099325263700828e+00 0.000000000000000e+00
					-4.169477881004140e-01 1.046239326200828e+00 0.000000000000000e+00
					-3.805597351255174e-01 9.093616577510348e-01 0.000000000000000e+00
					-2.084738940502069e-01 1.099325263700828e+00 0.000000000000000e+00
					-1.902798675627587e-01 9.464222046260349e-01 0.000000000000000e+00
					-3.805597351255174e-01 9.093616577510348e-01 0.000000000000000e+00
					-3.475970508005519e-01 7.908191016011039e-01 0.000000000000000e+00
					-1.902798675627587e-01 9.464222046260349e-01 0.000000000000000e+00
					-1.737985254002759e-01 8.147253516011038e-01 0.000000000000000e+00
					-3.475970508005519e-01 7.908191016011039e-01 0.000000000000000e+00
					-3.180597351255174e-01 6.906116577510349e-01 0.000000000000000e+00
					-1.737985254002759e-01 8.147253516011038e-01 0.000000000000000e+00
					-1.590298675627587e-01 7.042347046260348e-01 0.000000000000000e+00
					-3.180597351255174e-01 6.906116577510349e-01 0.000000000000000e+00
					-2.919477881004139e-01 6.087393262008278e-01 0.000000000000000e+00
					-1.590298675627587e-01 7.042347046260348e-01 0.000000000000000e+00
					-1.459738940502069e-01 6.149502637008278e-01 0.000000000000000e+00
					-2.919477881004139e-01 6.087393262008278e-01 0.000000000000000e+00
					-2.692612097252414e-01 5.452021069504830e-01 0.000000000000000e+00
					-1.459738940502069e-01 6.149502637008278e-01 0.000000000000000e+00
					-1.346306048626207e-01 5.468720288254830e-01 0.000000000000000e+00
					-2.692612097252414e-01 5.452021069504830e-01 0.000000000000000e+00
					-2.500000000000000e-01 5.000000000000000e-01 0.000000000000000e+00
					-1.346306048626207e-01 5.468720288254830e-01 0.000000000000000e+00
					-1.250000000000000e-01 5.000000000000000e-01 0.000000000000000e+00
					-2.500000000000000e-01 1.468750000000000e+00 0.000000000000000e+00
					-2.283806048626207e-01 1.273434528825483e+00 0.000000000000000e+00
					0.000000000000000e+00 1.500000000000000e+00 0.000000000000000e+00
					4.857225732735060e-17 1.297428669450483e+00 0.000000000000000e+00
					-2.283806048626207e-01 1.273434528825483e+00 0.000000000000000e+00
					-2.084738940502069e-01 1.099325263700828e+00 0.000000000000000e+00
					4.857225732735060e-17 1.297428669450483e+00 0.000000000000000e+00
					3.469446951953614e-17 1.117020576200828e+00 0.000000000000000e+00
					-2.084738940502069e-01 1.099325263700828e+00 0.000000000000000e+00
					-1.902798675627587e-01 9.464222046260349e-01 0.000000000000000e+00
					3.469446951953614e-17 1.117020576200828e+00 0.000000000000000e+00
					4.163336342344337e-17 9.587757202510350e-01 0.000000000000000e+00
					-1.902798675627587e-01 9.464222046260349e-01 0.000000000000000e+00
					-1.737985254002759e-01 8.147253516011038e-01 0.000000000000000e+00
					4.163336342344337e-17 9.587757202510350e-01 0.000000000000000e+00
					4.163336342344337e-17 8.226941016011039e-01 0.000000000000000e+00
					-1.737985254002759e-01 8.147253516011038e-01 0.000000000000000e+00
					-1.590298675627587e-01 7.042347046260348e-01 0.000000000000000e+00
					4.163336342344337e-17 8.226941016011039e-01 0.000000000000000e+00
					3.816391647148976e-17 7.087757202510349e-01 0.000000000000000e+00
					-1.590298675627587e-01 7.042347046260348e-01 0.000000000000000e+00
					-1.459738940502069e-01 6.149502637008278e-01 0.000000000000000e+00
					3.816391647148976e-17 7.087757202510349e-01 0.000000000000000e+00
					2.428612866367530e-17 6.170205762008278e-01 0.000000000000000e+00
					-1.459738940502069e-01 6.149502637008278e-01 0.000000000000000e+00
					-1.346306048626207e-01 5.468720288254830e-01 0.000000000000000e+00
					2.428612866367530e-17 6.170205762008278e-01 0.000000000000000e+00
					2.428612866367530e-17 5.474286694504830e-01 0.000000000000000e+00
					-1.346306048626207e-01 5.468720288254830e-01 0.000000000000000e+00
					-1.250000000000000e-01 5.000000000000000e-01 0.000000000000000e+00
					2.428612866367530e-17 5.474286694504830e-01 0.000000000000000e+00
					0.000000000000000e+00 5.000000000000000e-01 0.000000000000000e+00
					0.000000000000000e+00 1.500000000000000e+00 0.000000000000000e+00
					4.857225732735060e-17 1.297428669450483e+00 0.000000000000000e+00
					2.500000000000000e-01 1.468750000000000e+00 0.000000000000000e+00
					2.283806048626208e-01 1.273434528825483e+00 0.000000000000000e+00
					4.857225732735060e-17 1.297428669450483e+00 0.000000000000000e+00
					3.469446951953614e-17 1.117020576200828e+00 0.000000000000000e+00
					2.283806048626208e-01 1.273434528825483e+00 0.000000000000000e+00
					2.084738940502070e-01 1.099325263700828e+00 0.000000000000000e+00
					3.469446951953614e-17 1.117020576200828e+00 0.000000000000000e+00
					4.163336342344337e-17 9.587757202510350e-01 0.000000000000000e+00
					2.084738940502070e-01 1.099325263700828e+00 0.000000000000000e+00
					1.902798675627588e-01 9.464222046260349e-01 0.000000000000000e+00
					4.163336342344337e-17 9.587757202510350e-01 0.000000000000000e+00
					4.163336342344337e-17 8.226941016011039e-01 0.000000000000000e+00
					1.902798675627588e-01 9.464222046260349e-01 0.000000000000000e+00
					1.737985254002760e-01 8.147253516011039e-01 0.000000000000000e+00
					4.163336342344337e-17 8.226941016011039e-01 0.000000000000000e+00
					3.816391647148976e-17 7.087757202510349e-01 0.000000000000000e+00
					1.737985254002760e-01 8.147253516011039e-01 0.000000000000000e+00
					1.590298675627588e-01 7.042347046260349e-01 0.000000000000000e+00
					3.816391647148976e-17 7.087757202510349e-01 0.000000000000000e+00
					2.428612866367530e-17 6.170205762008278e-01 0.000000000000000e+00
					1.590298675627588e-01 7.042347046260349e-01 0.000000000000000e+00
					1.459738940502070e-01 6.149502637008278e-01 0.000000000000000e+00
					2.428612866367530e-17 6.170205762008278e-01 0.000000000000000e+00
					2.428612866367530e-17 5.474286694504830e-01 0.000000000000000e+00
					1.459738940502070e-01 6.149502637008278e-01 0.000000000000000e+00
					1.346306048626208e-01 5.468720288254829e-01 0.000000000000000e+00
					2.428612866367530e-17 5.474286694504830e-01 0.000000000000000e+00
					0.000000000000000e+00 5.000000000000000e-01 0.000000000000000e+00
					1.346306048626208e-01 5.468720288254829e-01 0.000000000000000e+00
					1.250000000000000e-01 5.000000000000000e-01 0.000000000000000e+00
					2.500000000000000e-01 1.468750000000000e+00 0.000000000000000e+00
					2.283806048626208e-01 1.273434528825483e+00 0.000000000000000e+00
					5.000000000000000e-01 1.375000000000000e+00 0.000000000000000e+00
					4.567612097252415e-01 1.201452106950483e+00 0.000000000000000e+00
					2.283806048626208e-01 1.273434528825483e+00 0.000000000000000e+00
					2.084738940502070e-01 1.099325263700828e+00 0.000000000000000e+00
					4.567612097252415e-01 1.201452106950483e+00 0.000000000000000e+00
					4.169477881004139e-01 1.046239326200828e+00 0.000000000000000e+00
					2.084738940502070e-01 1.099325263700828e+00 0.000000000000000e+00
					1.902798675627588e-01 9.464222046260349e-01 0.000000000000000e+00
					4.169477881004139e-01 1.046239326200828e+00 0.000000000000000e+00
					3.805597351255174e-01 9.093616577510348e-01 0.000000000000000e+00
					1.902798675627588e-01 9.464222046260349e-01 0.000000000000000e+00
					1.737985254002760e-01 8.147253516011039e-01 0.000000000000000e+00
					3.805597351255174e-01 9.093616577510348e-01 0.000000000000000e+00
					3.475970508005520e-01 7.908191016011039e-01 0.000000000000000e+00
					1.737985254002760e-01 8.147253516011039e-01 0.000000000000000e+00
					1.590298675627588e-01 7.042347046260349e-01 0.000000000000000e+00
					3.475970508005520e-01 7.908191016011039e-01 0.000000000000000e+00
					3.180597351255175e-01 6.906116577510348e-01 0.000000000000000e+00
					1.590298675627588e-01 7.042347046260349e-01 0.000000000000000e+00
					1.459738940502070e-01 6.149502637008278e-01 0.000000000000000e+00
					3.180597351255175e-01 6.906116577510348e-01 0.000000000000000e+00
					2.919477881004140e-01 6.087393262008278e-01 0.000000000000000e+00
					1.459738940502070e-01 6.149502637008278e-01 0.000000000000000e+00
					1.346306048626208e-01 5.468720288254829e-01 0.000000000000000e+00
					2.919477881004140e-01 6.087393262008278e-01 0.000000000000000e+00
					2.692612097252415e-01 5.452021069504829e-01 0.000000000000000e+00
					1.346306048626208e-01 5.468720288254829e-01 0.000000000000000e+00
					1.250000000000000e-01 5.000000000000000e-01 0.000000000000000e+00
					2.692612097252415e-01 5.452021069504829e-01 0.000000000000000e+00
					2.500000000000000e-01 5.000000000000000e-01 0.000000000000000e+00
					5.000000000000000e-01 1.375000000000000e+00 0.000000000000000e+00
					4.567612097252415e-01 1.201452106950483e+00 0.000000000000000e+00
					7.500000000000000e-01 1.218750000000000e+00 0.000000000000000e+00
					6.851418145878622e-01 1.081481403825483e+00 0.000000000000000e+00
					4.567612097252415e-01 1.201452106950483e+00 0.000000000000000e+00
					4.169477881004139e-01 1.046239326200828e+00 0.000000000000000e+00
					6.851418145878622e-01 1.081481403825483e+00 0.000000000000000e+00
					6.254216821506209e-01 9.577627637008279e-01 0.000000000000000e+00
					4.169477881004139e-01 1.046239326200828e+00 0.000000000000000e+00
					3.805597351255174e-01 9.093616577510348e-01 0.000000000000000e+00
					6.254216821506209e-01 9.577627637008279e-01 0.000000000000000e+00
					5.708396026882763e-01 8.475940796260351e-01 0.000000000000000e+00
					3.805597351255174e-01 9.093616577510348e-01 0.000000000000000e+00
					3.475970508005520e-01 7.908191016011039e-01 0.000000000000000e+00
					5.708396026882763e-01 8.475940796260351e-01 0.000000000000000e+00
					5.213955762008280e-01 7.509753516011040e-01 0.000000000000000e+00
					3.475970508005520e-01 7.908191016011039e-01 0.000000000000000e+00
					3.180597351255175e-01 6.906116577510348e-01 0.000000000000000e+00
					5.213955762008280e-01 7.509753516011040e-01 0.000000000000000e+00
					4.770896026882762e-01 6.679065796260348e-01 0.000000000000000e+00
					3.180597351255175e-01 6.906116577510348e-01 0.000000000000000e+00
					2.919477881004140e-01 6.087393262008278e-01 0.000000000000000e+00
					4.770896026882762e-01 6.679065796260348e-01 0.000000000000000e+00
					4.379216821506209e-01 5.983877637008279e-01 0.000000000000000e+00
					2.919477881004140e-01 6.087393262008278e-01 0.000000000000000e+00
					2.692612097252415e-01 5.452021069504829e-01 0.000000000000000e+00
					4.379216821506209e-01 5.983877637008279e-01 0.000000000000000e+00
					4.038918145878622e-01 5.424189038254830e-01 0.000000000000000e+00
					2.692612097252415e-01 5.452021069504829e-01 0.000000000000000e+00
					2.500000000000000e-01 5.000000000000000e-01 0.000000000000000e+00
					4.038918145878622e-01 5.424189038254830e-01 0.000000000000000e+00
					3.750000000000000e-01 5.000000000000000e-01 0.000000000000000e+00
					7.500000000000000e-01 1.218750000000000e+00 0.000000000000000e+00
					6.851418145878622e-01 1.081481403825483e+00 0.000000000000000e+00
					1.000000000000000e+00 1.000000000000000e+00 0.000000000000000e+00
					9.135224194504830e-01 9.135224194504830e-01 0.000000000000000e+00
					6.851418145878622e-01 1.081481403825483e+00 0.000000000000000e+00
					6.254216821506209e-01 9.577627637008279e-01 0.000000000000000e+00
					9.135224194504830e-01 9.135224194504830e-01 0.000000000000000e+00
					8.338955762008279e-01 8.338955762008279e-01 0.000000000000000e+00
					6.254216821506209e-01 9.577627637008279e-01 0.000000000000000e+00
					5.708396026882763e-01 8.475940796260351e-01 0.000000000000000e+00
					8.338955762008279e-01 8.338955762008279e-01 0.000000000000000e+00
					7.611194702510349e-01 7.611194702510349e-01 0.000000000000000e+00
					5.708396026882763e-01 8.475940796260351e-01 0.000000000000000e+00
					5.213955762008280e-01 7.509753516011040e-01 0.000000000000000e+00
					7.611194702510349e-01 7.611194702510349e-01 0.000000000000000e+00
					6.951941016011038e-01 6.951941016011038e-01 0.000000000000000e+00
					5.213955762008280e-01 7.509753516011040e-01 0.000000000000000e+00
					4.770896026882762e-01 6.679065796260348e-01 0.000000000000000e+00
					6.951941016011038e-01 6.951941016011038e-01 0.000000000000000e+00
					6.361194702510349e-01 6.361194702510349e-01 0.000000000000000e+00
					4.770896026882762e-01 6.679065796260348e-01 0.000000000000000e+00
					4.379216821506209e-01 5.983877637008279e-01 0.000000000000000e+00
					6.361194702510349e-01 6.361194702510349e-01 0.000000000000000e+00
					5.838955762008278e-01 5.838955762008278e-01 0.000000000000000e+00
					4.379216821506209e-01 5.983877637008279e-01 0.000000000000000e+00
					4.038918145878622e-01 5.424189038254830e-01 0.000000000000000e+00
					5.838955762008278e-01 5.838955762008278e-01 0.000000000000000e+00
					5.385224194504830e-01 5.385224194504830e-01 0.000000000000000e+00
					4.038918145878622e-01 5.424189038254830e-01 0.000000000000000e+00
					3.750000000000000e-01 5.000000000000000e-01 0.000000000000000e+00
					5.385224194504830e-01 5.385224194504830e-01 0.000000000000000e+00
					5.000000000000000e-01 5.000000000000000e-01 0.000000000000000e+00
				</DataArray>
			</Points>
			<Cells>
				<DataArray Name="connectivity" type="UInt32" format="ascii">
					0 1 3 2 4 5 7 6 8 9 11 10 12 13 15 14 16 17 19 18 20 21 23 22 24 25 27 26 28 29 31 30 32 33 35 34 36 37 39 38 40 41 43 42 44 45 47 46 48 49 51 50 52 53 55 54 56 57 59 58 60 61 63 62 64 65 67 66 68 69 71 70 72 73 75 74 76 77 79 78 80 81 83 82 84 85 87 86 88 89 91 90 92 93 95 94 96 97 99 98 100 101 103 102 104 105 107 106 108 109 111 110 112 113 115 114 116 117 119 118 120 121 123 122 124 125 127 126 128 129 131 130 132 133 135 134 136 137 139 138 140 141 143 142 144 145 147 146 148 149 151 150 152 153 155 154 156 157 159 158 160 161 163 162 164 165 167 166 168 169 171 170 172 173 175 174 176 177 179 178 180 181 183 182 184 185 187 186 188 189 191 190 192 193 195 194 196 197 199 198 200 201 203 202 204 205 207 206 208 209 211 210 212 213 215 214 216 217 219 218 220 221 223 222 224 225 227 226 228 229 231 230 232 233 235 234 236 237 239 238 240 241 243 242 244 245 247 246 248 249 251 250 252 253 255 254 
				</DataArray>
				<DataArray Name="offsets" type="UInt32" format="ascii">
					4 8 12 16 20 24 28 32 36 40 44 48 52 56 60 64 68 72 76 80 84 88 92 96 100 104 108 112 116 120 124 128 132 136 140 144 148 152 156 160 164 168 172 176 180 184 188 192 196 200 204 208 212 216 220 224 228 232 236 240 244 248 252 256 
				</DataArray>
				<DataArray Name="types" type="UInt8" format="ascii">
					9 9 9 9 9 9 9 9 9 9 9 9 9 9 9 9 9 9 9 9 9 9 9 9 9 9 9 9 9 9 9 9 9 9 9 9 9 9 9 9 9 9 9 9 9 9 9 9 9 9 9 9 9 9 9 9 9 9 9 9 9 9 9 9 
				</DataArray>
			</Cells>
			<PointData Vectors="solution ">
				<DataArray Name="solution" type="Float64" NumberOfComponents="1" format="ascii">
					0.000000000000000e+00 3.226730549861627e-01 0.000000000000000e+00 3.517081258535715e-01 3.226730549861628e-01 1.227170235226716e+00 3.517081258535716e-01 1.772071026402344e+00 1.227170235226717e+00 2.610384965273299e+00 1.772071026402344e+00 4.378271392722284e+00 2.610384965273300e+00 4.360695876304726e+00 4.378271392722285e+00 7.669709919483591e+00 4.360695876304727e+00 6.360946616273002e+00 7.669709919483592e+00 1.106583869181632e+01 6.360946616273004e+00 8.490880958476369e+00 1.106583869181632e+01 1.420057620798427e+01 8.490880958476371e+00 1.062868962070535e+01 1.420057620798427e+01 1.691033333715755e+01 1.062868962070535e+01 1.265189531282400e+01 1.691033333715756e+01 1.912708725975898e+01 0.000000000000000e+00 3.517081258535716e-01 0.000000000000000e+00 4.179698358827963e-01 3.517081258535716e-01 1.772071026402344e+00 4.179698358827963e-01 2.778239158916060e+00 1.772071026402344e+00 4.378271392722285e+00 2.778239158916061e+00 7.320179036605970e+00 4.378271392722285e+00 7.669709919483592e+00 7.320179036605972e+00 1.275404144279138e+01 7.669709919483592e+00 1.106583869181632e+01 1.275404144279138e+01 1.778049775138572e+01 1.106583869181632e+01 1.420057620798427e+01 1.778049775138572e+01 2.177470942047842e+01 1.420057620798427e+01 1.691033333715756e+01 2.177470942047842e+01 2.465190782124902e+01 1.691033333715756e+01 1.912708725975899e+01 2.465190782124902e+01 2.658648109053054e+01 0.000000000000000e+00 4.179698358827963e-01 0.000000000000000e+00 6.334520572413531e-01 4.179698358827964e-01 2.778239158916060e+00 6.334520572413531e-01 4.306728389897062e+00 2.778239158916061e+00 7.320179036605972e+00 4.306728389897062e+00 1.112786039294030e+01 7.320179036605973e+00 1.275404144279138e+01 1.112786039294030e+01 1.876225957715726e+01 1.275404144279138e+01 1.778049775138572e+01 1.876225957715726e+01 2.517245097744820e+01 1.778049775138572e+01 2.177470942047842e+01 2.517245097744820e+01 2.962828896533346e+01 2.177470942047842e+01 2.465190782124902e+01 2.962828896533346e+01 3.231740272336492e+01 2.465190782124902e+01 2.658648109053055e+01 3.231740272336492e+01 3.377515838532453e+01 0.000000000000000e+00 6.334520572413531e-01 0.000000000000000e+00 8.610056759437394e-01 6.334520572413532e-01 4.306728389897062e+00 8.610056759437394e-01 5.728337725439406e+00 4.306728389897062e+00 1.112786039294030e+01 5.728337725439406e+00 1.445820123484328e+01 1.112786039294030e+01 1.876225957715726e+01 1.445820123484329e+01 2.379122296733966e+01 1.876225957715726e+01 2.517245097744820e+01 2.379122296733966e+01 3.115350878780353e+01 2.517245097744821e+01 2.962828896533346e+01 3.115350878780353e+01 3.584560754150398e+01 2.962828896533347e+01 3.231740272336492e+01 3.584560754150398e+01 3.833882088209027e+01 3.231740272336492e+01 3.377515838532453e+01 3.833882088209027e+01 3.943565983781469e+01 0.000000000000000e+00 8.610056759437394e-01 0.000000000000000e+00 9.231601506446457e-01 8.610056759437396e-01 5.728337725439406e+00 9.231601506446457e-01 6.297385352002959e+00 5.728337725439407e+00 1.445820123484329e+01 6.297385352002959e+00 1.586209327429621e+01 1.445820123484329e+01 2.379122296733966e+01 1.586209327429621e+01 2.597639793996635e+01 2.379122296733967e+01 3.115350878780353e+01 2.597639793996635e+01 3.386697013835868e+01 3.115350878780353e+01 3.584560754150398e+01 3.386697013835869e+01 3.881676219952166e+01 3.584560754150399e+01 3.833882088209027e+01 3.881676219952166e+01 4.139424801187538e+01 3.833882088209027e+01 3.943565983781470e+01 4.139424801187538e+01 4.248880336193240e+01 0.000000000000000e+00 9.231601506446457e-01 0.000000000000000e+00 8.273622034391889e-01 9.231601506446458e-01 6.297385352002959e+00 8.273622034391889e-01 5.767083326852299e+00 6.297385352002959e+00 1.586209327429621e+01 5.767083326852300e+00 1.466389243380706e+01 1.586209327429621e+01 2.597639793996635e+01 1.466389243380706e+01 2.435951120223832e+01 2.597639793996636e+01 3.386697013835869e+01 2.435951120223832e+01 3.237711418384909e+01 3.386697013835869e+01 3.881676219952166e+01 3.237711418384909e+01 3.783909075928945e+01 3.881676219952167e+01 4.139424801187538e+01 3.783909075928945e+01 4.098298921388656e+01 4.139424801187538e+01 4.248880336193241e+01 4.098298921388657e+01 4.257609670806249e+01 0.000000000000000e+00 8.273622034391889e-01 0.000000000000000e+00 8.425161517118681e-01 8.273622034391890e-01 5.767083326852300e+00 8.425161517118682e-01 4.757817743884544e+00 5.767083326852300e+00 1.466389243380706e+01 4.757817743884546e+00 1.156414970168503e+01 1.466389243380706e+01 2.435951120223832e+01 1.156414970168503e+01 1.938756733248228e+01 2.435951120223833e+01 3.237711418384909e+01 1.938756733248228e+01 2.670628799489269e+01 3.237711418384909e+01 3.783909075928945e+01 2.670628799489269e+01 3.268723000954040e+01 3.783909075928946e+01 4.098298921388657e+01 3.268723000954040e+01 3.693604393326785e+01 4.098298921388658e+01 4.257609670806250e+01 3.693604393326786e+01 3.952053783435748e+01 0.000000000000000e+00 8.425161517118682e-01 0.000000000000000e+00 1.045219572000444e+00 8.425161517118684e-01 4.757817743884546e+00 1.045219572000444e+00 3.889129189661982e+00 4.757817743884546e+00 1.156414970168503e+01 3.889129189661982e+00 8.083616208185655e+00 1.156414970168503e+01 1.938756733248228e+01 8.083616208185656e+00 1.317042006287551e+01 1.938756733248228e+01 2.670628799489269e+01 1.317042006287552e+01 1.868611606352576e+01 2.670628799489270e+01 3.268723000954040e+01 1.868611606352576e+01 2.416533187612017e+01 3.268723000954041e+01 3.693604393326787e+01 2.416533187612017e+01 2.914211243676471e+01 3.693604393326787e+01 3.952053783435748e+01 2.914211243676472e+01 3.315027044895018e+01 
				</DataArray>
			</PointData>
			<CellData>
			</CellData>
		</Piece>
	</UnstructuredGrid>
</VTKFile>