<?xml version="1.0"?>
<VTKFile type="UnstructuredGrid" byte_order="LittleEndian">
	<UnstructuredGrid>
		<Piece NumberOfPoints="256" NumberOfCells="64">
			<Points>
				<DataArray type="Float64" NumberOfComponents="3" format="ascii">
					1.000000000000000e+00 -1.000000000000000e+00 0.000000000000000e+00
					1.218750000000000e+00 -7.500000000000000e-01 0.000000000000000e+00
					9.135224194504830e-01 -9.135224194504830e-01 0.000000000000000e+00
					1.081481403825483e+00 -6.851418145878622e-01 0.000000000000000e+00
					1.218750000000000e+00 -7.500000000000000e-01 0.000000000000000e+00
					1.375000000000000e+00 -5.000000000000000e-01 0.000000000000000e+00
					1.081481403825483e+00 -6.851418145878622e-01 0.000000000000000e+00
					1.201452106950483e+00 -4.567612097252415e-01 0.000000000000000e+00
					1.375000000000000e+00 -5.000000000000000e-01 0.000000000000000e+00
					1.468750000000000e+00 -2.500000000000000e-01 0.000000000000000e+00
					1.201452106950483e+00 -4.567612097252415e-01 0.000000000000000e+00
					1.273434528825483e+00 -2.283806048626207e-01 0.000000000000000e+00
					1.468750000000000e+00 -2.500000000000000e-01 0.000000000000000e+00
					1.500000000000000e+00 0.000000000000000e+00 0.000000000000000e+00
					1.273434528825483e+00 -2.283806048626207e-01 0.000000000000000e+00
					1.297428669450483e+00 1.040834085586084e-17 0.000000000000000e+00
					1.500000000000000e+00 0.000000000000000e+00 0.000000000000000e+00
					1.468750000000000e+00 2.500000000000000e-01 0.000000000000000e+00
					1.297428669450483e+00 1.040834085586084e-17 0.000000000000000e+00
					1.273434528825483e+00 2.283806048626208e-01 0.000000000000000e+00
					1.468750000000000e+00 2.500000000000000e-01 0.000000000000000e+00
					1.375000000000000e+00 5.000000000000000e-01 0.000000000000000e+00
					1.273434528825483e+00 2.283806048626208e-01 0.000000000000000e+00
					1.201452106950483e+00 4.567612097252415e-01 0.000000000000000e+00
					1.375000000000000e+00 5.000000000000000e-01 0.000000000000000e+00
					1.218750000000000e+00 7.500000000000000e-01 0.000000000000000e+00
					1.201452106950483e+00 4.567612097252415e-01 0.000000000000000e+00
					1.081481403825483e+00 6.851418145878623e-01 0.000000000000000e+00
					1.218750000000000e+00 7.500000000000000e-01 0.000000000000000e+00
					1.000000000000000e+00 1.000000000000000e+00 0.000000000000000e+00
					1.081481403825483e+00 6.851418145878623e-01 0.000000000000000e+00
					9.135224194504830e-01 9.135224194504830e-01 0.000000000000000e+00
					9.135224194504830e-01 -9.135224194504830e-01 0.000000000000000e+00
					1.081481403825483e+00 -6.851418145878622e-01 0.000000000000000e+00
					8.338955762008279e-01 -8.338955762008279e-01 0.000000000000000e+00
					9.577627637008280e-01 -6.254216821506209e-01 0.000000000000000e+00
					1.081481403825483e+00 -6.851418145878622e-01 0.000000000000000e+00
					1.201452106950483e+00 -4.567612097252415e-01 0.000000000000000e+00
					9.577627637008280e-01 -6.254216821506209e-01 0.000000000000000e+00
					1.046239326200828e+00 -4.169477881004140e-01 0.000000000000000e+00
					1.201452106950483e+00 -4.567612097252415e-01 0.000000000000000e+00
					1.273434528825483e+00 -2.283806048626207e-01 0.000000000000000e+00
					1.046239326200828e+00 -4.169477881004140e-01 0.000000000000000e+00
					1.099325263700828e+00 -2.084738940502070e-01 0.000000000000000e+00
					1.273434528825483e+00 -2.283806048626207e-01 0.000000000000000e+00
					1.297428669450483e+00 1.040834085586084e-17 0.000000000000000e+00
					1.099325263700828e+00 -2.084738940502070e-01 0.000000000000000e+00
					1.117020576200828e+00 1.734723475976807e-17 0.000000000000000e+00
					1.297428669450483e+00 1.040834085586084e-17 0.000000000000000e+00
					1.273434528825483e+00 2.283806048626208e-01 0.000000000000000e+00
					1.117020576200828e+00 1.734723475976807e-17 0.000000000000000e+00
					1.099325263700828e+00 2.084738940502070e-01 0.000000000000000e+00
					1.273434528825483e+00 2.283806048626208e-01 0.000000000000000e+00
					1.201452106950483e+00 4.567612097252415e-01 0.000000000000000e+00
					1.099325263700828e+00 2.084738940502070e-01 0.000000000000000e+00
					1.046239326200828e+00 4.169477881004140e-01 0.000000000000000e+00
					1.201452106950483e+00 4.567612097252415e-01 0.000000000000000e+00
					1.081481403825483e+00 6.851418145878623e-01 0.000000000000000e+00
					1.046239326200828e+00 4.169477881004140e-01 0.000000000000000e+00
					9.577627637008279e-01 6.254216821506209e-01 0.000000000000000e+00
					1.081481403825483e+00 6.851418145878623e-01 0.000000000000000e+00
					9.135224194504830e-01 9.135224194504830e-01 0.000000000000000e+00
					9.577627637008279e-01 6.254216821506209e-01 0.000000000000000e+00
					8.338955762008279e-01 8.338955762008279e-01 0.000000000000000e+00
					8.338955762008279e-01 -8.338955762008279e-01 0.000000000000000e+00
					9.577627637008280e-01 -6.254216821506209e-01 0.000000000000000e+00
					7.611194702510349e-01 -7.611194702510349e-01 0.000000000000000e+00
					8.475940796260348e-01 -5.708396026882762e-01 0.000000000000000e+00
					9.577627637008280e-01 -6.254216821506209e-01 0.000000000000000e+00
					1.046239326200828e+00 -4.169477881004140e-01 0.000000000000000e+00
					8.475940796260348e-01 -5.708396026882762e-01 0.000000000000000e+00
					9.093616577510351e-01 -3.805597351255174e-01 0.000000000000000e+00
					1.046239326200828e+00 -4.169477881004140e-01 0.000000000000000e+00
					1.099325263700828e+00 -2.084738940502070e-01 0.000000000000000e+00
					9.093616577510351e-01 -3.805597351255174e-01 0.000000000000000e+00
					9.464222046260349e-01 -1.902798675627587e-01 0.000000000000000e+00
					1.099325263700828e+00 -2.084738940502070e-01 0.000000000000000e+00
					1.117020576200828e+00 1.734723475976807e-17 0.000000000000000e+00
					9.464222046260349e-01 -1.902798675627587e-01 0.000000000000000e+00
					9.587757202510350e-01 2.428612866367530e-17 0.000000000000000e+00
					1.117020576200828e+00 1.734723475976807e-17 0.000000000000000e+00
					1.099325263700828e+00 2.084738940502070e-01 0.000000000000000e+00
					9.587757202510350e-01 2.428612866367530e-17 0.000000000000000e+00
					9.464222046260351e-01 1.902798675627587e-01 0.000000000000000e+00
					1.099325263700828e+00 2.084738940502070e-01 0.000000000000000e+00
					1.046239326200828e+00 4.169477881004140e-01 0.000000000000000e+00
					9.464222046260351e-01 1.902798675627587e-01 0.000000000000000e+00
					9.093616577510348e-01 3.805597351255174e-01 0.000000000000000e+00
					1.046239326200828e+00 4.169477881004140e-01 0.000000000000000e+00
					9.577627637008279e-01 6.254216821506209e-01 0.000000000000000e+00
					9.093616577510348e-01 3.805597351255174e-01 0.000000000000000e+00
					8.475940796260348e-01 5.708396026882762e-01 0.000000000000000e+00
					9.577627637008279e-01 6.254216821506209e-01 0.000000000000000e+00
					8.338955762008279e-01 8.338955762008279e-01 0.000000000000000e+00
					8.475940796260348e-01 5.708396026882762e-01 0.000000000000000e+00
					7.611194702510349e-01 7.611194702510349e-01 0.000000000000000e+00
					7.611194702510349e-01 -7.611194702510349e-01 0.000000000000000e+00
					8.475940796260348e-01 -5.708396026882762e-01 0.000000000000000e+00
					6.951941016011038e-01 -6.951941016011038e-01 0.000000000000000e+00
					7.509753516011040e-01 -5.213955762008279e-01 0.000000000000000e+00
					8.475940796260348e-01 -5.708396026882762e-01 0.000000000000000e+00
					9.093616577510351e-01 -3.805597351255174e-01 0.000000000000000e+00
					7.509753516011040e-01 -5.213955762008279e-01 0.000000000000000e+00
					7.908191016011039e-01 -3.475970508005519e-01 0.000000000000000e+00
					9.093616577510351e-01 -3.805597351255174e-01 0.000000000000000e+00
					9.464222046260349e-01 -1.902798675627587e-01 0.000000000000000e+00
					7.908191016011039e-01 -3.475970508005519e-01 0.000000000000000e+00
					8.147253516011039e-01 -1.737985254002760e-01 0.000000000000000e+00
					9.464222046260349e-01 -1.902798675627587e-01 0.000000000000000e+00
					9.587757202510350e-01 2.428612866367530e-17 0.000000000000000e+00
					8.147253516011039e-01 -1.737985254002760e-01 0.000000000000000e+00
					8.226941016011039e-01 2.428612866367530e-17 0.000000000000000e+00
					9.587757202510350e-01 2.428612866367530e-17 0.000000000000000e+00
					9.464222046260351e-01 1.902798675627587e-01 0.000000000000000e+00
					8.226941016011039e-01 2.428612866367530e-17 0.000000000000000e+00
					8.147253516011039e-01 1.737985254002760e-01 0.000000000000000e+00
					9.464222046260351e-01 1.902798675627587e-01 0.000000000000000e+00
					9.093616577510348e-01 3.805597351255174e-01 0.000000000000000e+00
					8.147253516011039e-01 1.737985254002760e-01 0.000000000000000e+00
					7.908191016011039e-01 3.475970508005519e-01 0.000000000000000e+00
					9.093616577510348e-01 3.805597351255174e-01 0.000000000000000e+00
					8.475940796260348e-01 5.708396026882762e-01 0.000000000000000e+00
					7.908191016011039e-01 3.475970508005519e-01 0.000000000000000e+00
					7.509753516011038e-01 5.213955762008279e-01 0.000000000000000e+00
					8.475940796260348e-01 5.708396026882762e-01 0.000000000000000e+00
					7.611194702510349e-01 7.611194702510349e-01 0.000000000000000e+00
					7.509753516011038e-01 5.213955762008279e-01 0.000000000000000e+00
					6.951941016011038e-01 6.951941016011038e-01 0.000000000000000e+00
					6.951941016011038e-01 -6.951941016011038e-01 0.000000000000000e+00
					7.509753516011040e-01 -5.213955762008279e-01 0.000000000000000e+00
					6.361194702510349e-01 -6.361194702510349e-01 0.000000000000000e+00
					6.679065796260348e-01 -4.770896026882762e-01 0.000000000000000e+00
					7.509753516011040e-01 -5.213955762008279e-01 0.000000000000000e+00
					7.908191016011039e-01 -3.475970508005519e-01 0.000000000000000e+00
					6.679065796260348e-01 -4.770896026882762e-01 0.000000000000000e+00
					6.906116577510349e-01 -3.180597351255174e-01 0.000000000000000e+00
					7.908191016011039e-01 -3.475970508005519e-01 0.000000000000000e+00
					8.147253516011039e-01 -1.737985254002760e-01 0.000000000000000e+00
					6.906116577510349e-01 -3.180597351255174e-01 0.000000000000000e+00
					7.042347046260349e-01 -1.590298675627587e-01 0.000000000000000e+00
					8.147253516011039e-01 -1.737985254002760e-01 0.000000000000000e+00
					8.226941016011039e-01 2.428612866367530e-17 0.000000000000000e+00
					7.042347046260349e-01 -1.590298675627587e-01 0.000000000000000e+00
					7.087757202510350e-01 1.734723475976807e-17 0.000000000000000e+00
					8.226941016011039e-01 2.428612866367530e-17 0.000000000000000e+00
					8.147253516011039e-01 1.737985254002760e-01 0.000000000000000e+00
					7.087757202510350e-01 1.734723475976807e-17 0.000000000000000e+00
					7.042347046260350e-01 1.590298675627587e-01 0.000000000000000e+00
					8.147253516011039e-01 1.737985254002760e-01 0.000000000000000e+00
					7.908191016011039e-01 3.475970508005519e-01 0.000000000000000e+00
					7.042347046260350e-01 1.590298675627587e-01 0.000000000000000e+00
					6.906116577510348e-01 3.180597351255174e-01 0.000000000000000e+00
					7.908191016011039e-01 3.475970508005519e-01 0.000000000000000e+00
					7.509753516011038e-01 5.213955762008279e-01 0.000000000000000e+00
					6.906116577510348e-01 3.180597351255174e-01 0.000000000000000e+00
					6.679065796260348e-01 4.770896026882762e-01 0.000000000000000e+00
					7.509753516011038e-01 5.213955762008279e-01 0.000000000000000e+00
					6.951941016011038e-01 6.951941016011038e-01 0.000000000000000e+00
					6.679065796260348e-01 4.770896026882762e-01 0.000000000000000e+00
					6.361194702510349e-01 6.361194702510349e-01 0.000000000000000e+00
					6.361194702510349e-01 -6.361194702510349e-01 0.000000000000000e+00
					6.679065796260348e-01 -4.770896026882762e-01 0.000000000000000e+00
					5.838955762008278e-01 -5.838955762008278e-01 0.000000000000000e+00
					5.983877637008279e-01 -4.379216821506209e-01 0.000000000000000e+00
					6.679065796260348e-01 -4.770896026882762e-01 0.000000000000000e+00
					6.906116577510349e-01 -3.180597351255174e-01 0.000000000000000e+00
					5.983877637008279e-01 -4.379216821506209e-01 0.000000000000000e+00
					6.087393262008278e-01 -2.919477881004139e-01 0.000000000000000e+00
					6.906116577510349e-01 -3.180597351255174e-01 0.000000000000000e+00
					7.042347046260349e-01 -1.590298675627587e-01 0.000000000000000e+00
					6.087393262008278e-01 -2.919477881004139e-01 0.000000000000000e+00
					6.149502637008278e-01 -1.459738940502069e-01 0.000000000000000e+00
					7.042347046260349e-01 -1.590298675627587e-01 0.000000000000000e+00
					7.087757202510350e-01 1.734723475976807e-17 0.000000000000000e+00
					6.149502637008278e-01 -1.459738940502069e-01 0.000000000000000e+00
					6.170205762008280e-01 1.040834085586084e-17 0.000000000000000e+00
					7.087757202510350e-01 1.734723475976807e-17 0.000000000000000e+00
					7.042347046260350e-01 1.590298675627587e-01 0.000000000000000e+00
					6.170205762008280e-01 1.040834085586084e-17 0.000000000000000e+00
					6.149502637008279e-01 1.459738940502070e-01 0.000000000000000e+00
					7.042347046260350e-01 1.590298675627587e-01 0.000000000000000e+00
					6.906116577510348e-01 3.180597351255174e-01 0.000000000000000e+00
					6.149502637008279e-01 1.459738940502070e-01 0.000000000000000e+00
					6.087393262008278e-01 2.919477881004139e-01 0.000000000000000e+00
					6.906116577510348e-01 3.180597351255174e-01 0.000000000000000e+00
					6.679065796260348e-01 4.770896026882762e-01 0.000000000000000e+00
					6.087393262008278e-01 2.919477881004139e-01 0.000000000000000e+00
					5.983877637008278e-01 4.379216821506209e-01 0.000000000000000e+00
					6.679065796260348e-01 4.770896026882762e-01 0.000000000000000e+00
					6.361194702510349e-01 6.361194702510349e-01 0.000000000000000e+00
					5.983877637008278e-01 4.379216821506209e-01 0.000000000000000e+00
					5.838955762008278e-01 5.838955762008278e-01 0.000000000000000e+00
					5.838955762008278e-01 -5.838955762008278e-01 0.000000000000000e+00
					5.983877637008279e-01 -4.379216821506209e-01 0.000000000000000e+00
					5.385224194504830e-01 -5.385224194504830e-01 0.000000000000000e+00
					5.424189038254830e-01 -4.038918145878622e-01 0.000000000000000e+00
					5.983877637008279e-01 -4.379216821506209e-01 0.000000000000000e+00
					6.087393262008278e-01 -2.919477881004139e-01 0.000000000000000e+00
					5.424189038254830e-01 -4.038918145878622e-01 0.000000000000000e+00
					5.452021069504829e-01 -2.692612097252414e-01 0.000000000000000e+00
					6.087393262008278e-01 -2.919477881004139e-01 0.000000000000000e+00
					6.149502637008278e-01 -1.459738940502069e-01 0.000000000000000e+00
					5.452021069504829e-01 -2.692612097252414e-01 0.000000000000000e+00
					5.468720288254829e-01 -1.346306048626207e-01 0.000000000000000e+00
					6.149502637008278e-01 -1.459738940502069e-01 0.000000000000000e+00
					6.170205762008280e-01 1.040834085586084e-17 0.000000000000000e+00
					5.468720288254829e-01 -1.346306048626207e-01 0.000000000000000e+00
					5.474286694504829e-01 3.469446951953614e-18 0.000000000000000e+00
					6.170205762008280e-01 1.040834085586084e-17 0.000000000000000e+00
					6.149502637008279e-01 1.459738940502070e-01 0.000000000000000e+00
					5.474286694504829e-01 3.469446951953614e-18 0.000000000000000e+00
					5.468720288254829e-01 1.346306048626207e-01 0.000000000000000e+00
					6.149502637008279e-01 1.459738940502070e-01 0.000000000000000e+00
					6.087393262008278e-01 2.919477881004139e-01 0.000000000000000e+00
					5.468720288254829e-01 1.346306048626207e-01 0.000000000000000e+00
					5.452021069504829e-01 2.692612097252414e-01 0.000000000000000e+00
					6.087393262008278e-01 2.919477881004139e-01 0.000000000000000e+00
					5.983877637008278e-01 4.379216821506209e-01 0.000000000000000e+00
					5.452021069504829e-01 2.692612097252414e-01 0.000000000000000e+00
					5.424189038254830e-01 4.038918145878622e-01 0.000000000000000e+00
					5.983877637008278e-01 4.379216821506209e-01 0.000000000000000e+00
					5.838955762008278e-01 5.838955762008278e-01 0.000000000000000e+00
					5.424189038254830e-01 4.038918145878622e-01 0.000000000000000e+00
					5.385224194504830e-01 5.385224194504830e-01 0.000000000000000e+00
					5.385224194504830e-01 -5.385224194504830e-01 0.000000000000000e+00
					5.424189038254830e-01 -4.038918145878622e-01 0.000000000000000e+00
					5.000000000000000e-01 -5.000000000000000e-01 0.000000000000000e+00
					5.000000000000000e-01 -3.750000000000000e-01 0.000000000000000e+00
					5.424189038254830e-01 -4.038918145878622e-01 0.000000000000000e+00
					5.452021069504829e-01 -2.692612097252414e-01 0.000000000000000e+00
					5.000000000000000e-01 -3.750000000000000e-01 0.000000000000000e+00
					5.000000000000000e-01 -2.500000000000000e-01 0.000000000000000e+00
					5.452021069504829e-01 -2.692612097252414e-01 0.000000000000000e+00
					5.468720288254829e-01 -1.346306048626207e-01 0.000000000000000e+00
					5.000000000000000e-01 -2.500000000000000e-01 0.000000000000000e+00
					5.000000000000000e-01 -1.250000000000000e-01 0.000000000000000e+00
					5.468720288254829e-01 -1.346306048626207e-01 0.000000000000000e+00
					5.474286694504829e-01 3.469446951953614e-18 0.000000000000000e+00
					5.000000000000000e-01 -1.250000000000000e-01 0.000000000000000e+00
					5.000000000000000e-01 0.000000000000000e+00 0.000000000000000e+00
					5.474286694504829e-01 3.469446951953614e-18 0.000000000000000e+00
					5.468720288254829e-01 1.346306048626207e-01 0.000000000000000e+00
					5.000000000000000e-01 0.000000000000000e+00 0.000000000000000e+00
					5.000000000000000e-01 1.250000000000000e-01 0.000000000000000e+00
					5.468720288254829e-01 1.346306048626207e-01 0.000000000000000e+00
					5.452021069504829e-01 2.692612097252414e-01 0.000000000000000e+00
					5.000000000000000e-01 1.250000000000000e-01 0.000000000000000e+00
					5.000000000000000e-01 2.500000000000000e-01 0.000000000000000e+00
					5.452021069504829e-01 2.692612097252414e-01 0.000000000000000e+00
					5.424189038254830e-01 4.038918145878622e-01 0.000000000000000e+00
					5.000000000000000e-01 2.500000000000000e-01 0.000000000000000e+00
					5.000000000000000e-01 3.750000000000000e-01 0.000000000000000e+00
					5.424189038254830e-01 4.038918145878622e-01 0.000000000000000e+00
					5.385224194504830e-01 5.385224194504830e-01 0.000000000000000e+00
					5.000000000000000e-01 3.750000000000000e-01 0.000000000000000e+00
					5.000000000000000e-01 5.000000000000000e-01 0.000000000000000e+00
				</DataArray>
			</Points>
			<Cells>
				<DataArray Name="connectivity" type="UInt32" format="ascii">
					0 1 3 2 4 5 7 6 8 9 11 10 12 13 15 14 16 17 19 18 20 21 23 22 24 25 27 26 28 29 31 30 32 33 35 34 36 37 39 38 40 41 43 42 44 45 47 46 48 49 51 50 52 53 55 54 56 57 59 58 60 61 63 62 64 65 67 66 68 69 71 70 72 73 75 74 76 77 79 78 80 81 83 82 84 85 87 86 88 89 91 90 92 93 95 94 96 97 99 98 100 101 103 102 104 105 107 106 108 109 111 110 112 113 115 114 116 117 119 118 120 121 123 122 124 125 127 126 128 129 131 130 132 133 135 134 136 137 139 138 140 141 143 142 144 145 147 146 148 149 151 150 152 153 155 154 156 157 159 158 160 161 163 162 164 165 167 166 168 169 171 170 172 173 175 174 176 177 179 178 180 181 183 182 184 185 187 186 188 189 191 190 192 193 195 194 196 197 199 198 200 201 203 202 204 205 207 206 208 209 211 210 212 213 215 214 216 217 219 218 220 221 223 222 224 225 227 226 228 229 231 230 232 233 235 234 236 237 239 238 240 241 243 242 244 245 247 246 248 249 251 250 252 253 255 254 
				</DataArray>
				<DataArray Name="offsets" type="UInt32" format="ascii">
					4 8 12 16 20 24 28 32 36 40 44 48 52 56 60 64 68 72 76 80 84 88 92 96 100 104 108 112 116 120 124 128 132 136 140 144 148 152 156 160 164 168 172 176 180 184 188 192 196 200 204 208 212 216 220 224 228 232 236 240 244 248 252 256 
				</DataArray>
				<DataArray Name="types" type="UInt8" format="ascii">
					9 9 9 9 9 9 9 9 9 9 9 9 9 9 9 9 9 9 9 9 9 9 9 9 9 9 9 9 9 9 9 9 9 9 9 9 9 9 9 9 9 9 9 9 9 9 9 9 9 9 9 9 9 9 9 9 9 9 9 9 9 9 9 9 
				</DataArray>
			</Cells>
			<PointData Vectors="solution ">
				<DataArray Name="solution" type="Float64" NumberOfComponents="1" format="ascii">
					0.000000000000000e+00 0.000000000000000e+00 3.447940683745018e-03 1.890849983068878e-02 0.000000000000000e+00 0.000000000000000e+00 1.890849983068878e-02 5.362342976039568e-02 0.000000000000000e+00 0.000000000000000e+00 5.362342976039569e-02 1.219048566148047e-01 0.000000000000000e+00 0.000000000000000e+00 1.219048566148047e-01 2.176807447176727e-01 0.000000000000000e+00 0.000000000000000e+00 2.176807447176727e-01 3.024807498561433e-01 0.000000000000000e+00 0.000000000000000e+00 3.024807498561434e-01 3.291684236214076e-01 0.000000000000000e+00 0.000000000000000e+00 3.291684236214076e-01 3.022512981599861e-01 0.000000000000000e+00 0.000000000000000e+00 3.022512981599861e-01 1.905925470076601e-01 3.447940683745019e-03 1.890849983068878e-02 6.732482085970401e-02 2.204604471438367e-01 1.890849983068878e-02 5.362342976039569e-02 2.204604471438367e-01 5.428888179760650e-01 5.362342976039569e-02 1.219048566148047e-01 5.428888179760650e-01 1.087518708555926e+00 1.219048566148048e-01 2.176807447176727e-01 1.087518708555926e+00 1.808096618258722e+00 2.176807447176728e-01 3.024807498561434e-01 1.808096618258722e+00 2.501587361277982e+00 3.024807498561434e-01 3.291684236214076e-01 2.501587361277982e+00 2.877052601728602e+00 3.291684236214076e-01 3.022512981599861e-01 2.877052601728602e+00 2.713295856983442e+00 3.022512981599861e-01 1.905925470076602e-01 2.713295856983442e+00 2.008993407621231e+00 6.732482085970404e-02 2.204604471438367e-01 2.865448336561526e-01 8.116737875416470e-01 2.204604471438367e-01 5.428888179760650e-01 8.116737875416472e-01 1.826311049914507e+00 5.428888179760650e-01 1.087518708555926e+00 1.826311049914507e+00 3.414871643480946e+00 1.087518708555926e+00 1.808096618258722e+00 3.414871643480946e+00 5.411081358558854e+00 1.808096618258722e+00 2.501587361277982e+00 5.411081358558854e+00 7.306034831133246e+00 2.501587361277982e+00 2.877052601728602e+00 7.306034831133247e+00 8.361886815229022e+00 2.877052601728602e+00 2.713295856983442e+00 8.361886815229024e+00 7.972710156073351e+00 2.713295856983442e+00 2.008993407621232e+00 7.972710156073351e+00 6.097233394345853e+00 2.865448336561527e-01 8.116737875416472e-01 7.321974634633501e-01 1.845035709587999e+00 8.116737875416472e-01 1.826311049914507e+00 1.845035709587999e+00 3.829460822831973e+00 1.826311049914507e+00 3.414871643480946e+00 3.829460822831973e+00 6.746866920606443e+00 3.414871643480946e+00 5.411081358558854e+00 6.746866920606445e+00 1.025614015449019e+01 5.411081358558854e+00 7.306034831133247e+00 1.025614015449019e+01 1.351503122649420e+01 7.306034831133247e+00 8.361886815229024e+00 1.351503122649420e+01 1.536339643263039e+01 8.361886815229024e+00 7.972710156073353e+00 1.536339643263040e+01 1.483725739986404e+01 7.972710156073354e+00 6.097233394345855e+00 1.483725739986404e+01 1.181282679436216e+01 7.321974634633502e-01 1.845035709587999e+00 1.419714973590613e+00 3.218177521212149e+00 1.845035709587999e+00 3.829460822831973e+00 3.218177521212149e+00 6.187950653327252e+00 3.829460822831974e+00 6.746866920606445e+00 6.187950653327252e+00 1.030906539206442e+01 6.746866920606445e+00 1.025614015449019e+01 1.030906539206442e+01 1.508816884740583e+01 1.025614015449020e+01 1.351503122649420e+01 1.508816884740583e+01 1.946931668943752e+01 1.351503122649421e+01 1.536339643263040e+01 1.946931668943753e+01 2.205727108905634e+01 1.536339643263040e+01 1.483725739986404e+01 2.205727108905634e+01 2.167880138039204e+01 1.483725739986404e+01 1.181282679436216e+01 2.167880138039204e+01 1.804276206649053e+01 1.419714973590613e+00 3.218177521212149e+00 2.310321882237946e+00 4.757470572723586e+00 3.218177521212150e+00 6.187950653327253e+00 4.757470572723586e+00 8.516334626807215e+00 6.187950653327253e+00 1.030906539206442e+01 8.516334626807215e+00 1.346859744786555e+01 1.030906539206442e+01 1.508816884740583e+01 1.346859744786555e+01 1.904696715963930e+01 1.508816884740583e+01 1.946931668943753e+01 1.904696715963930e+01 2.414941488682672e+01 1.946931668943753e+01 2.205727108905634e+01 2.414941488682672e+01 2.734146371030799e+01 2.205727108905634e+01 2.167880138039204e+01 2.734146371030799e+01 2.741503194738845e+01 2.167880138039204e+01 1.804276206649053e+01 2.741503194738845e+01 2.385885996878023e+01 2.310321882237946e+00 4.757470572723586e+00 3.330063466452144e+00 6.290856094597097e+00 4.757470572723586e+00 8.516334626807215e+00 6.290856094597097e+00 1.055052438461076e+01 8.516334626807216e+00 1.346859744786555e+01 1.055052438461076e+01 1.592386699939761e+01 1.346859744786556e+01 1.904696715963930e+01 1.592386699939761e+01 2.184487181944878e+01 1.904696715963930e+01 2.414941488682672e+01 2.184487181944878e+01 2.729452611557305e+01 2.414941488682673e+01 2.734146371030799e+01 2.729452611557305e+01 3.093160720671640e+01 2.734146371030799e+01 2.741503194738846e+01 3.093160720671640e+01 3.162956633996343e+01 2.741503194738846e+01 2.385885996878023e+01 3.162956633996343e+01 2.873479463958726e+01 3.330063466452145e+00 6.290856094597097e+00 4.389112370576332e+00 7.680692886895073e+00 6.290856094597099e+00 1.055052438461076e+01 7.680692886895075e+00 1.216383685590614e+01 1.055052438461076e+01 1.592386699939761e+01 1.216383685590614e+01 1.763164076279794e+01 1.592386699939761e+01 2.184487181944878e+01 1.763164076279794e+01 2.356482666975257e+01 2.184487181944878e+01 2.729452611557305e+01 2.356482666975258e+01 2.908309874010118e+01 2.729452611557306e+01 3.093160720671640e+01 2.908309874010119e+01 3.302671232337326e+01 3.093160720671641e+01 3.162956633996343e+01 3.302671232337327e+01 3.437976364280805e+01 3.162956633996343e+01 2.873479463958726e+01 3.437976364280806e+01 3.248518124155524e+01 
				</DataArray>
			</PointData>
			<CellData>
			</CellData>
		</Piece>
	</UnstructuredGrid>
</VTKFile>