<?xml version="1.0"?>
<VTKFile type="UnstructuredGrid" byte_order="LittleEndian">
	<UnstructuredGrid>
		<Piece NumberOfPoints="64" NumberOfCells="16">
			<Points>
				<DataArray type="Float64" NumberOfComponents="3" format="ascii">
					-1.000000000000000e+00 1.000000000000000e+00 0.000000000000000e+00
					-8.338955762008279e-01 8.338955762008279e-01 0.000000000000000e+00
					-5.000000000000000e-01 1.375000000000000e+00 0.000000000000000e+00
					-4.169477881004139e-01 1.046239326200828e+00 0.000000000000000e+00
					-8.338955762008279e-01 8.338955762008279e-01 0.000000000000000e+00
					-6.951941016011038e-01 6.951941016011038e-01 0.000000000000000e+00
					-4.169477881004139e-01 1.046239326200828e+00 0.000000000000000e+00
					-3.475970508005519e-01 7.908191016011038e-01 0.000000000000000e+00
					-6.951941016011038e-01 6.951941016011038e-01 0.000000000000000e+00
					-5.838955762008279e-01 5.838955762008279e-01 0.000000000000000e+00
					-3.475970508005519e-01 7.908191016011038e-01 0.000000000000000e+00
					-2.919477881004139e-01 6.087393262008278e-01 0.000000000000000e+00
					-5.838955762008279e-01 5.838955762008279e-01 0.000000000000000e+00
					-5.000000000000000e-01 5.000000000000000e-01 0.000000000000000e+00
					-2.919477881004139e-01 6.087393262008278e-01 0.000000000000000e+00
					-2.500000000000000e-01 5.000000000000000e-01 0.000000000000000e+00
					-5.000000000000000e-01 1.375000000000000e+00 0.000000000000000e+00
					-4.169477881004139e-01 1.046239326200828e+00 0.000000000000000e+00
					1.387778780781446e-17 1.500000000000000e+00 0.000000000000000e+00
					2.081668171172169e-17 1.117020576200828e+00 0.000000000000000e+00
					-4.169477881004139e-01 1.046239326200828e+00 0.000000000000000e+00
					-3.475970508005519e-01 7.908191016011038e-01 0.000000000000000e+00
					2.081668171172169e-17 1.117020576200828e+00 0.000000000000000e+00
					0.000000000000000e+00 8.226941016011038e-01 0.000000000000000e+00
					-3.475970508005519e-01 7.908191016011038e-01 0.000000000000000e+00
					-2.919477881004139e-01 6.087393262008278e-01 0.000000000000000e+00
					0.000000000000000e+00 8.226941016011038e-01 0.000000000000000e+00
					1.387778780781446e-17 6.170205762008278e-01 0.000000000000000e+00
					-2.919477881004139e-01 6.087393262008278e-01 0.000000000000000e+00
					-2.500000000000000e-01 5.000000000000000e-01 0.000000000000000e+00
					1.387778780781446e-17 6.170205762008278e-01 0.000000000000000e+00
					6.938893903907228e-18 5.000000000000000e-01 0.000000000000000e+00
					1.387778780781446e-17 1.500000000000000e+00 0.000000000000000e+00
					2.081668171172169e-17 1.117020576200828e+00 0.000000000000000e+00
					5.000000000000000e-01 1.375000000000000e+00 0.000000000000000e+00
					4.169477881004140e-01 1.046239326200828e+00 0.000000000000000e+00
					2.081668171172169e-17 1.117020576200828e+00 0.000000000000000e+00
					0.000000000000000e+00 8.226941016011038e-01 0.000000000000000e+00
					4.169477881004140e-01 1.046239326200828e+00 0.000000000000000e+00
					3.475970508005519e-01 7.908191016011039e-01 0.000000000000000e+00
					0.000000000000000e+00 8.226941016011038e-01 0.000000000000000e+00
					1.387778780781446e-17 6.170205762008278e-01 0.000000000000000e+00
					3.475970508005519e-01 7.908191016011039e-01 0.000000000000000e+00
					2.919477881004139e-01 6.087393262008278e-01 0.000000000000000e+00
					1.387778780781446e-17 6.170205762008278e-01 0.000000000000000e+00
					6.938893903907228e-18 5.000000000000000e-01 0.000000000000000e+00
					2.919477881004139e-01 6.087393262008278e-01 0.000000000000000e+00
					2.500000000000000e-01 5.000000000000000e-01 0.000000000000000e+00
					5.000000000000000e-01 1.375000000000000e+00 0.000000000000000e+00
					4.169477881004140e-01 1.046239326200828e+00 0.000000000000000e+00
					1.000000000000000e+00 1.000000000000000e+00 0.000000000000000e+00
					8.338955762008279e-01 8.338955762008279e-01 0.000000000000000e+00
					4.169477881004140e-01 1.046239326200828e+00 0.000000000000000e+00
					3.475970508005519e-01 7.908191016011039e-01 0.000000000000000e+00
					8.338955762008279e-01 8.338955762008279e-01 0.000000000000000e+00
					6.951941016011038e-01 6.951941016011038e-01 0.000000000000000e+00
					3.475970508005519e-01 7.908191016011039e-01 0.000000000000000e+00
					2.919477881004139e-01 6.087393262008278e-01 0.000000000000000e+00
					6.951941016011038e-01 6.951941016011038e-01 0.000000000000000e+00
					5.838955762008279e-01 5.838955762008279e-01 0.000000000000000e+00
					2.919477881004139e-01 6.087393262008278e-01 0.000000000000000e+00
					2.500000000000000e-01 5.000000000000000e-01 0.000000000000000e+00
					5.838955762008279e-01 5.838955762008279e-01 0.000000000000000e+00
					5.000000000000000e-01 5.000000000000000e-01 0.000000000000000e+00
				</DataArray>
			</Points>
			<Cells>
				<DataArray Name="connectivity" type="UInt32" format="ascii">
					0 1 3 2 4 5 7 6 8 9 11 10 12 13 15 14 16 17 19 18 20 21 23 22 24 25 27 26 28 29 31 30 32 33 35 34 36 37 39 38 40 41 43 42 44 45 47 46 48 49 51 50 52 53 55 54 56 57 59 58 60 61 63 62 
				</DataArray>
				<DataArray Name="offsets" type="UInt32" format="ascii">
					4 8 12 16 20 24 28 32 36 40 44 48 52 56 60 64 
				</DataArray>
				<DataArray Name="types" type="UInt8" format="ascii">
					9 9 9 9 9 9 9 9 9 9 9 9 9 9 9 9 
				</DataArray>
			</Cells>
			<PointData Vectors="solution ">
				<DataArray Name="solution" type="Float64" NumberOfComponents="1" format="ascii">
					0.000000000000000e+00 3.878513211242243e-01 0.000000000000000e+00 2.378064009881144e+00 3.878513211242243e-01 2.985974087798810e+00 2.378064009881144e+00 1.198455130581557e+01 2.985974087798810e+00 7.393402788675282e+00 1.198455130581558e+01 2.097416949186114e+01 7.393402788675283e+00 1.190315523421606e+01 2.097416949186114e+01 2.580802139605113e+01 0.000000000000000e+00 2.378064009881144e+00 0.000000000000000e+00 5.737195273551829e+00 2.378064009881145e+00 1.198455130581558e+01 5.737195273551829e+00 2.343347840814900e+01 1.198455130581558e+01 2.097416949186114e+01 2.343347840814900e+01 3.529050245289772e+01 2.097416949186115e+01 2.580802139605113e+01 3.529050245289773e+01 3.888865694076556e+01 0.000000000000000e+00 5.737195273551829e+00 0.000000000000000e+00 5.558887649596153e+00 5.737195273551831e+00 2.343347840814900e+01 5.558887649596155e+00 2.399320035169616e+01 2.343347840814900e+01 3.529050245289773e+01 2.399320035169617e+01 3.748078261258523e+01 3.529050245289773e+01 3.888865694076556e+01 3.748078261258523e+01 4.233396704832830e+01 0.000000000000000e+00 5.558887649596155e+00 0.000000000000000e+00 2.329293424959640e+00 5.558887649596155e+00 2.399320035169616e+01 2.329293424959640e+00 1.192047608975368e+01 2.399320035169617e+01 3.748078261258523e+01 1.192047608975368e+01 2.383201426236490e+01 3.748078261258524e+01 4.233396704832832e+01 2.383201426236490e+01 3.250262145226674e+01 
				</DataArray>
			</PointData>
			<CellData>
			</CellData>
		</Piece>
	</UnstructuredGrid>
</VTKFile>