<?xml version="1.0"?>
<VTKFile type="UnstructuredGrid" byte_order="LittleEndian">
	<UnstructuredGrid>
		<Piece NumberOfPoints="64" NumberOfCells="16">
			<Points>
				<DataArray type="Float64" NumberOfComponents="3" format="ascii">
					-1.000000000000000e+00 -1.000000000000000e+00 0.000000000000000e+00
					-8.338955762008279e-01 -8.338955762008279e-01 0.000000000000000e+00
					-1.375000000000000e+00 -5.000000000000000e-01 0.000000000000000e+00
					-1.046239326200828e+00 -4.169477881004139e-01 0.000000000000000e+00
					-8.338955762008279e-01 -8.338955762008279e-01 0.000000000000000e+00
					-6.951941016011038e-01 -6.951941016011038e-01 0.000000000000000e+00
					-1.046239326200828e+00 -4.169477881004139e-01 0.000000000000000e+00
					-7.908191016011038e-01 -3.475970508005519e-01 0.000000000000000e+00
					-6.951941016011038e-01 -6.951941016011038e-01 0.000000000000000e+00
					-5.838955762008279e-01 -5.838955762008279e-01 0.000000000000000e+00
					-7.908191016011038e-01 -3.475970508005519e-01 0.000000000000000e+00
					-6.087393262008278e-01 -2.919477881004139e-01 0.000000000000000e+00
					-5.838955762008279e-01 -5.838955762008279e-01 0.000000000000000e+00
					-5.000000000000000e-01 -5.000000000000000e-01 0.000000000000000e+00
					-6.087393262008278e-01 -2.919477881004139e-01 0.000000000000000e+00
					-5.000000000000000e-01 -2.500000000000000e-01 0.000000000000000e+00
					-1.375000000000000e+00 -5.000000000000000e-01 0.000000000000000e+00
					-1.046239326200828e+00 -4.169477881004139e-01 0.000000000000000e+00
					-1.500000000000000e+00 1.387778780781446e-17 0.000000000000000e+00
					-1.117020576200828e+00 2.081668171172169e-17 0.000000000000000e+00
					-1.046239326200828e+00 -4.169477881004139e-01 0.000000000000000e+00
					-7.908191016011038e-01 -3.475970508005519e-01 0.000000000000000e+00
					-1.117020576200828e+00 2.081668171172169e-17 0.000000000000000e+00
					-8.226941016011038e-01 0.000000000000000e+00 0.000000000000000e+00
					-7.908191016011038e-01 -3.475970508005519e-01 0.000000000000000e+00
					-6.087393262008278e-01 -2.919477881004139e-01 0.000000000000000e+00
					-8.226941016011038e-01 0.000000000000000e+00 0.000000000000000e+00
					-6.170205762008278e-01 1.387778780781446e-17 0.000000000000000e+00
					-6.087393262008278e-01 -2.919477881004139e-01 0.000000000000000e+00
					-5.000000000000000e-01 -2.500000000000000e-01 0.000000000000000e+00
					-6.170205762008278e-01 1.387778780781446e-17 0.000000000000000e+00
					-5.000000000000000e-01 6.938893903907228e-18 0.000000000000000e+00
					-1.500000000000000e+00 1.387778780781446e-17 0.000000000000000e+00
					-1.117020576200828e+00 2.081668171172169e-17 0.000000000000000e+00
					-1.375000000000000e+00 5.000000000000000e-01 0.000000000000000e+00
					-1.046239326200828e+00 4.169477881004140e-01 0.000000000000000e+00
					-1.117020576200828e+00 2.081668171172169e-17 0.000000000000000e+00
					-8.226941016011038e-01 0.000000000000000e+00 0.000000000000000e+00
					-1.046239326200828e+00 4.169477881004140e-01 0.000000000000000e+00
					-7.908191016011039e-01 3.475970508005519e-01 0.000000000000000e+00
					-8.226941016011038e-01 0.000000000000000e+00 0.000000000000000e+00
					-6.170205762008278e-01 1.387778780781446e-17 0.000000000000000e+00
					-7.908191016011039e-01 3.475970508005519e-01 0.000000000000000e+00
					-6.087393262008278e-01 2.919477881004139e-01 0.000000000000000e+00
					-6.170205762008278e-01 1.387778780781446e-17 0.000000000000000e+00
					-5.000000000000000e-01 6.938893903907228e-18 0.000000000000000e+00
					-6.087393262008278e-01 2.919477881004139e-01 0.000000000000000e+00
					-5.000000000000000e-01 2.500000000000000e-01 0.000000000000000e+00
					-1.375000000000000e+00 5.000000000000000e-01 0.000000000000000e+00
					-1.046239326200828e+00 4.169477881004140e-01 0.000000000000000e+00
					-1.000000000000000e+00 1.000000000000000e+00 0.000000000000000e+00
					-8.338955762008279e-01 8.338955762008279e-01 0.000000000000000e+00
					-1.046239326200828e+00 4.169477881004140e-01 0.000000000000000e+00
					-7.908191016011039e-01 3.475970508005519e-01 0.000000000000000e+00
					-8.338955762008279e-01 8.338955762008279e-01 0.000000000000000e+00
					-6.951941016011038e-01 6.951941016011038e-01 0.000000000000000e+00
					-7.908191016011039e-01 3.475970508005519e-01 0.000000000000000e+00
					-6.087393262008278e-01 2.919477881004139e-01 0.000000000000000e+00
					-6.951941016011038e-01 6.951941016011038e-01 0.000000000000000e+00
					-5.838955762008279e-01 5.838955762008279e-01 0.000000000000000e+00
					-6.087393262008278e-01 2.919477881004139e-01 0.000000000000000e+00
					-5.000000000000000e-01 2.500000000000000e-01 0.000000000000000e+00
					-5.838955762008279e-01 5.838955762008279e-01 0.000000000000000e+00
					-5.000000000000000e-01 5.000000000000000e-01 0.000000000000000e+00
				</DataArray>
			</Points>
			<Cells>
				<DataArray Name="connectivity" type="UInt32" format="ascii">
					0 1 3 2 4 5 7 6 8 9 11 10 12 13 15 14 16 17 19 18 20 21 23 22 24 25 27 26 28 29 31 30 32 33 35 34 36 37 39 38 40 41 43 42 44 45 47 46 48 49 51 50 52 53 55 54 56 57 59 58 60 61 63 62 
				</DataArray>
				<DataArray Name="offsets" type="UInt32" format="ascii">
					4 8 12 16 20 24 28 32 36 40 44 48 52 56 60 64 
				</DataArray>
				<DataArray Name="types" type="UInt8" format="ascii">
					9 9 9 9 9 9 9 9 9 9 9 9 9 9 9 9 
				</DataArray>
			</Cells>
			<PointData Vectors="solution ">
				<DataArray Name="solution" type="Float64" NumberOfComponents="1" format="ascii">
					0.000000000000000e+00 -5.489067641280449e-03 0.000000000000000e+00 7.941659004150158e-02 -5.489067641280453e-03 1.854945324580476e-01 7.941659004150159e-02 8.390347840708342e-01 1.854945324580476e-01 7.393216570093684e-01 8.390347840708343e-01 2.619084107908643e+00 7.393216570093686e-01 1.623209402637847e+00 2.619084107908643e+00 4.601789834276148e+00 0.000000000000000e+00 7.941659004150159e-02 0.000000000000000e+00 1.901433767056313e-01 7.941659004150159e-02 8.390347840708343e-01 1.901433767056313e-01 2.003345147393329e+00 8.390347840708345e-01 2.619084107908643e+00 2.003345147393329e+00 5.584681534510325e+00 2.619084107908643e+00 4.601789834276149e+00 5.584681534510325e+00 8.721952528526684e+00 0.000000000000000e+00 1.901433767056313e-01 0.000000000000000e+00 3.832266044479746e-01 1.901433767056313e-01 2.003345147393329e+00 3.832266044479746e-01 3.160817026842543e+00 2.003345147393330e+00 5.584681534510325e+00 3.160817026842544e+00 8.037919424505477e+00 5.584681534510326e+00 8.721952528526685e+00 8.037919424505477e+00 1.207060420144141e+01 0.000000000000000e+00 3.832266044479746e-01 0.000000000000000e+00 5.646372970688545e-01 3.832266044479746e-01 3.160817026842544e+00 5.646372970688545e-01 3.148429114068481e+00 3.160817026842544e+00 8.037919424505477e+00 3.148429114068481e+00 7.399361951941430e+00 8.037919424505478e+00 1.207060420144141e+01 7.399361951941431e+00 1.188818705996179e+01 
				</DataArray>
			</PointData>
			<CellData>
			</CellData>
		</Piece>
	</UnstructuredGrid>
</VTKFile>