<?xml version="1.0"?>
<VTKFile type="UnstructuredGrid" byte_order="LittleEndian">
	<UnstructuredGrid>
		<Piece NumberOfPoints="64" NumberOfCells="16">
			<Points>
				<DataArray type="Float64" NumberOfComponents="3" format="ascii">
					-1.000000000000000e+00 -1.000000000000000e+00 0.000000000000000e+00
					-8.338955762008279e-01 -8.338955762008279e-01 0.000000000000000e+00
					-1.375000000000000e+00 -5.000000000000000e-01 0.000000000000000e+00
					-1.046239326200828e+00 -4.169477881004139e-01 0.000000000000000e+00
					-8.338955762008279e-01 -8.338955762008279e-01 0.000000000000000e+00
					-6.951941016011038e-01 -6.951941016011038e-01 0.000000000000000e+00
					-1.046239326200828e+00 -4.169477881004139e-01 0.000000000000000e+00
					-7.908191016011038e-01 -3.475970508005519e-01 0.000000000000000e+00
					-6.951941016011038e-01 -6.951941016011038e-01 0.000000000000000e+00
					-5.838955762008279e-01 -5.838955762008279e-01 0.000000000000000e+00
					-7.908191016011038e-01 -3.475970508005519e-01 0.000000000000000e+00
					-6.087393262008278e-01 -2.919477881004139e-01 0.000000000000000e+00
					-5.838955762008279e-01 -5.838955762008279e-01 0.000000000000000e+00
					-5.000000000000000e-01 -5.000000000000000e-01 0.000000000000000e+00
					-6.087393262008278e-01 -2.919477881004139e-01 0.000000000000000e+00
					-5.000000000000000e-01 -2.500000000000000e-01 0.000000000000000e+00
					-1.375000000000000e+00 -5.000000000000000e-01 0.000000000000000e+00
					-1.046239326200828e+00 -4.169477881004139e-01 0.000000000000000e+00
					-1.500000000000000e+00 1.387778780781446e-17 0.000000000000000e+00
					-1.117020576200828e+00 2.081668171172169e-17 0.000000000000000e+00
					-1.046239326200828e+00 -4.169477881004139e-01 0.000000000000000e+00
					-7.908191016011038e-01 -3.475970508005519e-01 0.000000000000000e+00
					-1.117020576200828e+00 2.081668171172169e-17 0.000000000000000e+00
					-8.226941016011038e-01 0.000000000000000e+00 0.000000000000000e+00
					-7.908191016011038e-01 -3.475970508005519e-01 0.000000000000000e+00
					-6.087393262008278e-01 -2.919477881004139e-01 0.000000000000000e+00
					-8.226941016011038e-01 0.000000000000000e+00 0.000000000000000e+00
					-6.170205762008278e-01 1.387778780781446e-17 0.000000000000000e+00
					-6.087393262008278e-01 -2.919477881004139e-01 0.000000000000000e+00
					-5.000000000000000e-01 -2.500000000000000e-01 0.000000000000000e+00
					-6.170205762008278e-01 1.387778780781446e-17 0.000000000000000e+00
					-5.000000000000000e-01 6.938893903907228e-18 0.000000000000000e+00
					-1.500000000000000e+00 1.387778780781446e-17 0.000000000000000e+00
					-1.117020576200828e+00 2.081668171172169e-17 0.000000000000000e+00
					-1.375000000000000e+00 5.000000000000000e-01 0.000000000000000e+00
					-1.046239326200828e+00 4.169477881004140e-01 0.000000000000000e+00
					-1.117020576200828e+00 2.081668171172169e-17 0.000000000000000e+00
					-8.226941016011038e-01 0.000000000000000e+00 0.000000000000000e+00
					-1.046239326200828e+00 4.169477881004140e-01 0.000000000000000e+00
					-7.908191016011039e-01 3.475970508005519e-01 0.000000000000000e+00
					-8.226941016011038e-01 0.000000000000000e+00 0.000000000000000e+00
					-6.170205762008278e-01 1.387778780781446e-17 0.000000000000000e+00
					-7.908191016011039e-01 3.475970508005519e-01 0.000000000000000e+00
					-6.087393262008278e-01 2.919477881004139e-01 0.000000000000000e+00
					-6.170205762008278e-01 1.387778780781446e-17 0.000000000000000e+00
					-5.000000000000000e-01 6.938893903907228e-18 0.000000000000000e+00
					-6.087393262008278e-01 2.919477881004139e-01 0.000000000000000e+00
					-5.000000000000000e-01 2.500000000000000e-01 0.000000000000000e+00
					-1.375000000000000e+00 5.000000000000000e-01 0.000000000000000e+00
					-1.046239326200828e+00 4.169477881004140e-01 0.000000000000000e+00
					-1.000000000000000e+00 1.000000000000000e+00 0.000000000000000e+00
					-8.338955762008279e-01 8.338955762008279e-01 0.000000000000000e+00
					-1.046239326200828e+00 4.169477881004140e-01 0.000000000000000e+00
					-7.908191016011039e-01 3.475970508005519e-01 0.000000000000000e+00
					-8.338955762008279e-01 8.338955762008279e-01 0.000000000000000e+00
					-6.951941016011038e-01 6.951941016011038e-01 0.000000000000000e+00
					-7.908191016011039e-01 3.475970508005519e-01 0.000000000000000e+00
					-6.087393262008278e-01 2.919477881004139e-01 0.000000000000000e+00
					-6.951941016011038e-01 6.951941016011038e-01 0.000000000000000e+00
					-5.838955762008279e-01 5.838955762008279e-01 0.000000000000000e+00
					-6.087393262008278e-01 2.919477881004139e-01 0.000000000000000e+00
					-5.000000000000000e-01 2.500000000000000e-01 0.000000000000000e+00
					-5.838955762008279e-01 5.838955762008279e-01 0.000000000000000e+00
					-5.000000000000000e-01 5.000000000000000e-01 0.000000000000000e+00
				</DataArray>
			</Points>
			<Cells>
				<DataArray Name="connectivity" type="UInt32" format="ascii">
					0 1 3 2 4 5 7 6 8 9 11 10 12 13 15 14 16 17 19 18 20 21 23 22 24 25 27 26 28 29 31 30 32 33 35 34 36 37 39 38 40 41 43 42 44 45 47 46 48 49 51 50 52 53 55 54 56 57 59 58 60 61 63 62 
				</DataArray>
				<DataArray Name="offsets" type="UInt32" format="ascii">
					4 8 12 16 20 24 28 32 36 40 44 48 52 56 60 64 
				</DataArray>
				<DataArray Name="types" type="UInt8" format="ascii">
					9 9 9 9 9 9 9 9 9 9 9 9 9 9 9 9 
				</DataArray>
			</Cells>
			<PointData Vectors="solution ">
				<DataArray Name="solution" type="Float64" NumberOfComponents="1" format="ascii">
					0.000000000000000e+00 6.200939265496369e-03 0.000000000000000e+00 6.806230031955206e-02 6.200939265496370e-03 1.807792721206686e-01 6.806230031955207e-02 7.977398969065830e-01 1.807792721206686e-01 7.211630788119814e-01 7.977398969065830e-01 2.545455708619107e+00 7.211630788119815e-01 1.615149126398822e+00 2.545455708619107e+00 4.502788425909388e+00 0.000000000000000e+00 6.806230031955207e-02 0.000000000000000e+00 1.782869558357709e-01 6.806230031955207e-02 7.977398969065830e-01 1.782869558357709e-01 1.980099877900357e+00 7.977398969065831e-01 2.545455708619107e+00 1.980099877900357e+00 5.551381218712242e+00 2.545455708619107e+00 4.502788425909388e+00 5.551381218712242e+00 8.673232805928020e+00 0.000000000000000e+00 1.782869558357709e-01 0.000000000000000e+00 3.449369200687894e-01 1.782869558357709e-01 1.980099877900357e+00 3.449369200687894e-01 3.143686256190364e+00 1.980099877900358e+00 5.551381218712243e+00 3.143686256190364e+00 8.065224344692197e+00 5.551381218712243e+00 8.673232805928020e+00 8.065224344692197e+00 1.211252365935148e+01 0.000000000000000e+00 3.449369200687894e-01 0.000000000000000e+00 3.880150901983798e-01 3.449369200687894e-01 3.143686256190364e+00 3.880150901983799e-01 2.984340021254689e+00 3.143686256190364e+00 8.065224344692199e+00 2.984340021254690e+00 7.389682973037322e+00 8.065224344692201e+00 1.211252365935149e+01 7.389682973037322e+00 1.189712021439643e+01 
				</DataArray>
			</PointData>
			<CellData>
			</CellData>
		</Piece>
	</UnstructuredGrid>
</VTKFile>