<?xml version="1.0"?>
<VTKFile type="UnstructuredGrid" byte_order="LittleEndian">
	<UnstructuredGrid>
		<Piece NumberOfPoints="256" NumberOfCells="64">
			<Points>
				<DataArray type="Float64" NumberOfComponents="3" format="ascii">
					-1.000000000000000e+00 1.000000000000000e+00 0.000000000000000e+00
					-9.135224194504830e-01 9.135224194504830e-01 0.000000000000000e+00
					-7.500000000000000e-01 1.218750000000000e+00 0.000000000000000e+00
					-6.851418145878622e-01 1.081481403825483e+00 0.000000000000000e+00
					-9.135224194504830e-01 9.135224194504830e-01 0.000000000000000e+00
					-8.338955762008279e-01 8.338955762008279e-01 0.000000000000000e+00
					-6.851418145878622e-01 1.081481403825483e+00 0.000000000000000e+00
					-6.254216821506209e-01 9.577627637008279e-01 0.000000000000000e+00
					-8.338955762008279e-01 8.338955762008279e-01 0.000000000000000e+00
					-7.611194702510349e-01 7.611194702510349e-01 0.000000000000000e+00
					-6.254216821506209e-01 9.577627637008279e-01 0.000000000000000e+00
					-5.708396026882762e-01 8.475940796260348e-01 0.000000000000000e+00
					-7.611194702510349e-01 7.611194702510349e-01 0.000000000000000e+00
					-6.951941016011038e-01 6.951941016011038e-01 0.000000000000000e+00
					-5.708396026882762e-01 8.475940796260348e-01 0.000000000000000e+00
					-5.213955762008279e-01 7.509753516011038e-01 0.000000000000000e+00
					-6.951941016011038e-01 6.951941016011038e-01 0.000000000000000e+00
					-6.361194702510349e-01 6.361194702510349e-01 0.000000000000000e+00
					-5.213955762008279e-01 7.509753516011038e-01 0.000000000000000e+00
					-4.770896026882761e-01 6.679065796260349e-01 0.000000000000000e+00
					-6.361194702510349e-01 6.361194702510349e-01 0.000000000000000e+00
					-5.838955762008278e-01 5.838955762008278e-01 0.000000000000000e+00
					-4.770896026882761e-01 6.679065796260349e-01 0.000000000000000e+00
					-4.379216821506209e-01 5.983877637008279e-01 0.000000000000000e+00
					-5.838955762008278e-01 5.838955762008278e-01 0.000000000000000e+00
					-5.385224194504830e-01 5.385224194504830e-01 0.000000000000000e+00
					-4.379216821506209e-01 5.983877637008279e-01 0.000000000000000e+00
					-4.038918145878622e-01 5.424189038254830e-01 0.000000000000000e+00
					-5.385224194504830e-01 5.385224194504830e-01 0.000000000000000e+00
					-5.000000000000000e-01 5.000000000000000e-01 0.000000000000000e+00
					-4.038918145878622e-01 5.424189038254830e-01 0.000000000000000e+00
					-3.750000000000000e-01 5.000000000000000e-01 0.000000000000000e+00
					-7.500000000000000e-01 1.218750000000000e+00 0.000000000000000e+00
					-6.851418145878622e-01 1.081481403825483e+00 0.000000000000000e+00
					-5.000000000000000e-01 1.375000000000000e+00 0.000000000000000e+00
					-4.567612097252415e-01 1.201452106950483e+00 0.000000000000000e+00
					-6.851418145878622e-01 1.081481403825483e+00 0.000000000000000e+00
					-6.254216821506209e-01 9.577627637008279e-01 0.000000000000000e+00
					-4.567612097252415e-01 1.201452106950483e+00 0.000000000000000e+00
					-4.169477881004140e-01 1.046239326200828e+00 0.000000000000000e+00
					-6.254216821506209e-01 9.577627637008279e-01 0.000000000000000e+00
					-5.708396026882762e-01 8.475940796260348e-01 0.000000000000000e+00
					-4.169477881004140e-01 1.046239326200828e+00 0.000000000000000e+00
					-3.805597351255174e-01 9.093616577510348e-01 0.000000000000000e+00
					-5.708396026882762e-01 8.475940796260348e-01 0.000000000000000e+00
					-5.213955762008279e-01 7.509753516011038e-01 0.000000000000000e+00
					-3.805597351255174e-01 9.093616577510348e-01 0.000000000000000e+00
					-3.475970508005519e-01 7.908191016011039e-01 0.000000000000000e+00
					-5.213955762008279e-01 7.509753516011038e-01 0.000000000000000e+00
					-4.770896026882761e-01 6.679065796260349e-01 0.000000000000000e+00
					-3.475970508005519e-01 7.908191016011039e-01 0.000000000000000e+00
					-3.180597351255174e-01 6.906116577510349e-01 0.000000000000000e+00
					-4.770896026882761e-01 6.679065796260349e-01 0.000000000000000e+00
					-4.379216821506209e-01 5.983877637008279e-01 0.000000000000000e+00
					-3.180597351255174e-01 6.906116577510349e-01 0.000000000000000e+00
					-2.919477881004139e-01 6.087393262008278e-01 0.000000000000000e+00
					-4.379216821506209e-01 5.983877637008279e-01 0.000000000000000e+00
					-4.038918145878622e-01 5.424189038254830e-01 0.000000000000000e+00
					-2.919477881004139e-01 6.087393262008278e-01 0.000000000000000e+00
					-2.692612097252414e-01 5.452021069504830e-01 0.000000000000000e+00
					-4.038918145878622e-01 5.424189038254830e-01 0.000000000000000e+00
					-3.750000000000000e-01 5.000000000000000e-01 0.000000000000000e+00
					-2.692612097252414e-01 5.452021069504830e-01 0.000000000000000e+00
					-2.500000000000000e-01 5.000000000000000e-01 0.000000000000000e+00
					-5.000000000000000e-01 1.375000000000000e+00 0.000000000000000e+00
					-4.567612097252415e-01 1.201452106950483e+00 0.000000000000000e+00
					-2.500000000000000e-01 1.468750000000000e+00 0.000000000000000e+00
					-2.283806048626207e-01 1.273434528825483e+00 0.000000000000000e+00
					-4.567612097252415e-01 1.201452106950483e+00 0.000000000000000e+00
					-4.169477881004140e-01 1.046239326200828e+00 0.000000000000000e+00
					-2.283806048626207e-01 1.273434528825483e+00 0.000000000000000e+00
					-2.084738940502069e-01 1.099325263700828e+00 0.000000000000000e+00
					-4.169477881004140e-01 1.046239326200828e+00 0.000000000000000e+00
					-3.805597351255174e-01 9.093616577510348e-01 0.000000000000000e+00
					-2.084738940502069e-01 1.099325263700828e+00 0.000000000000000e+00
					-1.902798675627587e-01 9.464222046260349e-01 0.000000000000000e+00
					-3.805597351255174e-01 9.093616577510348e-01 0.000000000000000e+00
					-3.475970508005519e-01 7.908191016011039e-01 0.000000000000000e+00
					-1.902798675627587e-01 9.464222046260349e-01 0.000000000000000e+00
					-1.737985254002759e-01 8.147253516011038e-01 0.000000000000000e+00
					-3.475970508005519e-01 7.908191016011039e-01 0.000000000000000e+00
					-3.180597351255174e-01 6.906116577510349e-01 0.000000000000000e+00
					-1.737985254002759e-01 8.147253516011038e-01 0.000000000000000e+00
					-1.590298675627587e-01 7.042347046260348e-01 0.000000000000000e+00
					-3.180597351255174e-01 6.906116577510349e-01 0.000000000000000e+00
					-2.919477881004139e-01 6.087393262008278e-01 0.000000000000000e+00
					-1.590298675627587e-01 7.042347046260348e-01 0.000000000000000e+00
					-1.459738940502069e-01 6.149502637008278e-01 0.000000000000000e+00
					-2.919477881004139e-01 6.087393262008278e-01 0.000000000000000e+00
					-2.692612097252414e-01 5.452021069504830e-01 0.000000000000000e+00
					-1.459738940502069e-01 6.149502637008278e-01 0.000000000000000e+00
					-1.346306048626207e-01 5.468720288254830e-01 0.000000000000000e+00
					-2.692612097252414e-01 5.452021069504830e-01 0.000000000000000e+00
					-2.500000000000000e-01 5.000000000000000e-01 0.000000000000000e+00
					-1.346306048626207e-01 5.468720288254830e-01 0.000000000000000e+00
					-1.250000000000000e-01 5.000000000000000e-01 0.000000000000000e+00
					-2.500000000000000e-01 1.468750000000000e+00 0.000000000000000e+00
					-2.283806048626207e-01 1.273434528825483e+00 0.000000000000000e+00
					0.000000000000000e+00 1.500000000000000e+00 0.000000000000000e+00
					4.857225732735060e-17 1.297428669450483e+00 0.000000000000000e+00
					-2.283806048626207e-01 1.273434528825483e+00 0.000000000000000e+00
					-2.084738940502069e-01 1.099325263700828e+00 0.000000000000000e+00
					4.857225732735060e-17 1.297428669450483e+00 0.000000000000000e+00
					3.469446951953614e-17 1.117020576200828e+00 0.000000000000000e+00
					-2.084738940502069e-01 1.099325263700828e+00 0.000000000000000e+00
					-1.902798675627587e-01 9.464222046260349e-01 0.000000000000000e+00
					3.469446951953614e-17 1.117020576200828e+00 0.000000000000000e+00
					4.163336342344337e-17 9.587757202510350e-01 0.000000000000000e+00
					-1.902798675627587e-01 9.464222046260349e-01 0.000000000000000e+00
					-1.737985254002759e-01 8.147253516011038e-01 0.000000000000000e+00
					4.163336342344337e-17 9.587757202510350e-01 0.000000000000000e+00
					4.163336342344337e-17 8.226941016011039e-01 0.000000000000000e+00
					-1.737985254002759e-01 8.147253516011038e-01 0.000000000000000e+00
					-1.590298675627587e-01 7.042347046260348e-01 0.000000000000000e+00
					4.163336342344337e-17 8.226941016011039e-01 0.000000000000000e+00
					3.816391647148976e-17 7.087757202510349e-01 0.000000000000000e+00
					-1.590298675627587e-01 7.042347046260348e-01 0.000000000000000e+00
					-1.459738940502069e-01 6.149502637008278e-01 0.000000000000000e+00
					3.816391647148976e-17 7.087757202510349e-01 0.000000000000000e+00
					2.428612866367530e-17 6.170205762008278e-01 0.000000000000000e+00
					-1.459738940502069e-01 6.149502637008278e-01 0.000000000000000e+00
					-1.346306048626207e-01 5.468720288254830e-01 0.000000000000000e+00
					2.428612866367530e-17 6.170205762008278e-01 0.000000000000000e+00
					2.428612866367530e-17 5.474286694504830e-01 0.000000000000000e+00
					-1.346306048626207e-01 5.468720288254830e-01 0.000000000000000e+00
					-1.250000000000000e-01 5.000000000000000e-01 0.000000000000000e+00
					2.428612866367530e-17 5.474286694504830e-01 0.000000000000000e+00
					0.000000000000000e+00 5.000000000000000e-01 0.000000000000000e+00
					0.000000000000000e+00 1.500000000000000e+00 0.000000000000000e+00
					4.857225732735060e-17 1.297428669450483e+00 0.000000000000000e+00
					2.500000000000000e-01 1.468750000000000e+00 0.000000000000000e+00
					2.283806048626208e-01 1.273434528825483e+00 0.000000000000000e+00
					4.857225732735060e-17 1.297428669450483e+00 0.000000000000000e+00
					3.469446951953614e-17 1.117020576200828e+00 0.000000000000000e+00
					2.283806048626208e-01 1.273434528825483e+00 0.000000000000000e+00
					2.084738940502070e-01 1.099325263700828e+00 0.000000000000000e+00
					3.469446951953614e-17 1.117020576200828e+00 0.000000000000000e+00
					4.163336342344337e-17 9.587757202510350e-01 0.000000000000000e+00
					2.084738940502070e-01 1.099325263700828e+00 0.000000000000000e+00
					1.902798675627588e-01 9.464222046260349e-01 0.000000000000000e+00
					4.163336342344337e-17 9.587757202510350e-01 0.000000000000000e+00
					4.163336342344337e-17 8.226941016011039e-01 0.000000000000000e+00
					1.902798675627588e-01 9.464222046260349e-01 0.000000000000000e+00
					1.737985254002760e-01 8.147253516011039e-01 0.000000000000000e+00
					4.163336342344337e-17 8.226941016011039e-01 0.000000000000000e+00
					3.816391647148976e-17 7.087757202510349e-01 0.000000000000000e+00
					1.737985254002760e-01 8.147253516011039e-01 0.000000000000000e+00
					1.590298675627588e-01 7.042347046260349e-01 0.000000000000000e+00
					3.816391647148976e-17 7.087757202510349e-01 0.000000000000000e+00
					2.428612866367530e-17 6.170205762008278e-01 0.000000000000000e+00
					1.590298675627588e-01 7.042347046260349e-01 0.000000000000000e+00
					1.459738940502070e-01 6.149502637008278e-01 0.000000000000000e+00
					2.428612866367530e-17 6.170205762008278e-01 0.000000000000000e+00
					2.428612866367530e-17 5.474286694504830e-01 0.000000000000000e+00
					1.459738940502070e-01 6.149502637008278e-01 0.000000000000000e+00
					1.346306048626208e-01 5.468720288254829e-01 0.000000000000000e+00
					2.428612866367530e-17 5.474286694504830e-01 0.000000000000000e+00
					0.000000000000000e+00 5.000000000000000e-01 0.000000000000000e+00
					1.346306048626208e-01 5.468720288254829e-01 0.000000000000000e+00
					1.250000000000000e-01 5.000000000000000e-01 0.000000000000000e+00
					2.500000000000000e-01 1.468750000000000e+00 0.000000000000000e+00
					2.283806048626208e-01 1.273434528825483e+00 0.000000000000000e+00
					5.000000000000000e-01 1.375000000000000e+00 0.000000000000000e+00
					4.567612097252415e-01 1.201452106950483e+00 0.000000000000000e+00
					2.283806048626208e-01 1.273434528825483e+00 0.000000000000000e+00
					2.084738940502070e-01 1.099325263700828e+00 0.000000000000000e+00
					4.567612097252415e-01 1.201452106950483e+00 0.000000000000000e+00
					4.169477881004139e-01 1.046239326200828e+00 0.000000000000000e+00
					2.084738940502070e-01 1.099325263700828e+00 0.000000000000000e+00
					1.902798675627588e-01 9.464222046260349e-01 0.000000000000000e+00
					4.169477881004139e-01 1.046239326200828e+00 0.000000000000000e+00
					3.805597351255174e-01 9.093616577510348e-01 0.000000000000000e+00
					1.902798675627588e-01 9.464222046260349e-01 0.000000000000000e+00
					1.737985254002760e-01 8.147253516011039e-01 0.000000000000000e+00
					3.805597351255174e-01 9.093616577510348e-01 0.000000000000000e+00
					3.475970508005520e-01 7.908191016011039e-01 0.000000000000000e+00
					1.737985254002760e-01 8.147253516011039e-01 0.000000000000000e+00
					1.590298675627588e-01 7.042347046260349e-01 0.000000000000000e+00
					3.475970508005520e-01 7.908191016011039e-01 0.000000000000000e+00
					3.180597351255175e-01 6.906116577510348e-01 0.000000000000000e+00
					1.590298675627588e-01 7.042347046260349e-01 0.000000000000000e+00
					1.459738940502070e-01 6.149502637008278e-01 0.000000000000000e+00
					3.180597351255175e-01 6.906116577510348e-01 0.000000000000000e+00
					2.919477881004140e-01 6.087393262008278e-01 0.000000000000000e+00
					1.459738940502070e-01 6.149502637008278e-01 0.000000000000000e+00
					1.346306048626208e-01 5.468720288254829e-01 0.000000000000000e+00
					2.919477881004140e-01 6.087393262008278e-01 0.000000000000000e+00
					2.692612097252415e-01 5.452021069504829e-01 0.000000000000000e+00
					1.346306048626208e-01 5.468720288254829e-01 0.000000000000000e+00
					1.250000000000000e-01 5.000000000000000e-01 0.000000000000000e+00
					2.692612097252415e-01 5.452021069504829e-01 0.000000000000000e+00
					2.500000000000000e-01 5.000000000000000e-01 0.000000000000000e+00
					5.000000000000000e-01 1.375000000000000e+00 0.000000000000000e+00
					4.567612097252415e-01 1.201452106950483e+00 0.000000000000000e+00
					7.500000000000000e-01 1.218750000000000e+00 0.000000000000000e+00
					6.851418145878622e-01 1.081481403825483e+00 0.000000000000000e+00
					4.567612097252415e-01 1.201452106950483e+00 0.000000000000000e+00
					4.169477881004139e-01 1.046239326200828e+00 0.000000000000000e+00
					6.851418145878622e-01 1.081481403825483e+00 0.000000000000000e+00
					6.254216821506209e-01 9.577627637008279e-01 0.000000000000000e+00
					4.169477881004139e-01 1.046239326200828e+00 0.000000000000000e+00
					3.805597351255174e-01 9.093616577510348e-01 0.000000000000000e+00
					6.254216821506209e-01 9.577627637008279e-01 0.000000000000000e+00
					5.708396026882763e-01 8.475940796260351e-01 0.000000000000000e+00
					3.805597351255174e-01 9.093616577510348e-01 0.000000000000000e+00
					3.475970508005520e-01 7.908191016011039e-01 0.000000000000000e+00
					5.708396026882763e-01 8.475940796260351e-01 0.000000000000000e+00
					5.213955762008280e-01 7.509753516011040e-01 0.000000000000000e+00
					3.475970508005520e-01 7.908191016011039e-01 0.000000000000000e+00
					3.180597351255175e-01 6.906116577510348e-01 0.000000000000000e+00
					5.213955762008280e-01 7.509753516011040e-01 0.000000000000000e+00
					4.770896026882762e-01 6.679065796260348e-01 0.000000000000000e+00
					3.180597351255175e-01 6.906116577510348e-01 0.000000000000000e+00
					2.919477881004140e-01 6.087393262008278e-01 0.000000000000000e+00
					4.770896026882762e-01 6.679065796260348e-01 0.000000000000000e+00
					4.379216821506209e-01 5.983877637008279e-01 0.000000000000000e+00
					2.919477881004140e-01 6.087393262008278e-01 0.000000000000000e+00
					2.692612097252415e-01 5.452021069504829e-01 0.000000000000000e+00
					4.379216821506209e-01 5.983877637008279e-01 0.000000000000000e+00
					4.038918145878622e-01 5.424189038254830e-01 0.000000000000000e+00
					2.692612097252415e-01 5.452021069504829e-01 0.000000000000000e+00
					2.500000000000000e-01 5.000000000000000e-01 0.000000000000000e+00
					4.038918145878622e-01 5.424189038254830e-01 0.000000000000000e+00
					3.750000000000000e-01 5.000000000000000e-01 0.000000000000000e+00
					7.500000000000000e-01 1.218750000000000e+00 0.000000000000000e+00
					6.851418145878622e-01 1.081481403825483e+00 0.000000000000000e+00
					1.000000000000000e+00 1.000000000000000e+00 0.000000000000000e+00
					9.135224194504830e-01 9.135224194504830e-01 0.000000000000000e+00
					6.851418145878622e-01 1.081481403825483e+00 0.000000000000000e+00
					6.254216821506209e-01 9.577627637008279e-01 0.000000000000000e+00
					9.135224194504830e-01 9.135224194504830e-01 0.000000000000000e+00
					8.338955762008279e-01 8.338955762008279e-01 0.000000000000000e+00
					6.254216821506209e-01 9.577627637008279e-01 0.000000000000000e+00
					5.708396026882763e-01 8.475940796260351e-01 0.000000000000000e+00
					8.338955762008279e-01 8.338955762008279e-01 0.000000000000000e+00
					7.611194702510349e-01 7.611194702510349e-01 0.000000000000000e+00
					5.708396026882763e-01 8.475940796260351e-01 0.000000000000000e+00
					5.213955762008280e-01 7.509753516011040e-01 0.000000000000000e+00
					7.611194702510349e-01 7.611194702510349e-01 0.000000000000000e+00
					6.951941016011038e-01 6.951941016011038e-01 0.000000000000000e+00
					5.213955762008280e-01 7.509753516011040e-01 0.000000000000000e+00
					4.770896026882762e-01 6.679065796260348e-01 0.000000000000000e+00
					6.951941016011038e-01 6.951941016011038e-01 0.000000000000000e+00
					6.361194702510349e-01 6.361194702510349e-01 0.000000000000000e+00
					4.770896026882762e-01 6.679065796260348e-01 0.000000000000000e+00
					4.379216821506209e-01 5.983877637008279e-01 0.000000000000000e+00
					6.361194702510349e-01 6.361194702510349e-01 0.000000000000000e+00
					5.838955762008278e-01 5.838955762008278e-01 0.000000000000000e+00
					4.379216821506209e-01 5.983877637008279e-01 0.000000000000000e+00
					4.038918145878622e-01 5.424189038254830e-01 0.000000000000000e+00
					5.838955762008278e-01 5.838955762008278e-01 0.000000000000000e+00
					5.385224194504830e-01 5.385224194504830e-01 0.000000000000000e+00
					4.038918145878622e-01 5.424189038254830e-01 0.000000000000000e+00
					3.750000000000000e-01 5.000000000000000e-01 0.000000000000000e+00
					5.385224194504830e-01 5.385224194504830e-01 0.000000000000000e+00
					5.000000000000000e-01 5.000000000000000e-01 0.000000000000000e+00
				</DataArray>
			</Points>
			<Cells>
				<DataArray Name="connectivity" type="UInt32" format="ascii">
					0 1 3 2 4 5 7 6 8 9 11 10 12 13 15 14 16 17 19 18 20 21 23 22 24 25 27 26 28 29 31 30 32 33 35 34 36 37 39 38 40 41 43 42 44 45 47 46 48 49 51 50 52 53 55 54 56 57 59 58 60 61 63 62 64 65 67 66 68 69 71 70 72 73 75 74 76 77 79 78 80 81 83 82 84 85 87 86 88 89 91 90 92 93 95 94 96 97 99 98 100 101 103 102 104 105 107 106 108 109 111 110 112 113 115 114 116 117 119 118 120 121 123 122 124 125 127 126 128 129 131 130 132 133 135 134 136 137 139 138 140 141 143 142 144 145 147 146 148 149 151 150 152 153 155 154 156 157 159 158 160 161 163 162 164 165 167 166 168 169 171 170 172 173 175 174 176 177 179 178 180 181 183 182 184 185 187 186 188 189 191 190 192 193 195 194 196 197 199 198 200 201 203 202 204 205 207 206 208 209 211 210 212 213 215 214 216 217 219 218 220 221 223 222 224 225 227 226 228 229 231 230 232 233 235 234 236 237 239 238 240 241 243 242 244 245 247 246 248 249 251 250 252 253 255 254 
				</DataArray>
				<DataArray Name="offsets" type="UInt32" format="ascii">
					4 8 12 16 20 24 28 32 36 40 44 48 52 56 60 64 68 72 76 80 84 88 92 96 100 104 108 112 116 120 124 128 132 136 140 144 148 152 156 160 164 168 172 176 180 184 188 192 196 200 204 208 212 216 220 224 228 232 236 240 244 248 252 256 
				</DataArray>
				<DataArray Name="types" type="UInt8" format="ascii">
					9 9 9 9 9 9 9 9 9 9 9 9 9 9 9 9 9 9 9 9 9 9 9 9 9 9 9 9 9 9 9 9 9 9 9 9 9 9 9 9 9 9 9 9 9 9 9 9 9 9 9 9 9 9 9 9 9 9 9 9 9 9 9 9 
				</DataArray>
			</Cells>
			<PointData Vectors="solution ">
				<DataArray Name="solution" type="Float64" NumberOfComponents="1" format="ascii">
					0.000000000000000e+00 3.440601491516095e-01 0.000000000000000e+00 3.717898035126284e-01 3.440601491516095e-01 1.293292361486446e+00 3.717898035126284e-01 1.833605542545689e+00 1.293292361486447e+00 2.723171519392278e+00 1.833605542545689e+00 4.478976540767865e+00 2.723171519392278e+00 4.509053464152570e+00 4.478976540767866e+00 7.791052985246874e+00 4.509053464152570e+00 6.526204077109908e+00 7.791052985246874e+00 1.117982092750068e+01 6.526204077109909e+00 8.649820391446454e+00 1.117982092750068e+01 1.427564692647257e+01 8.649820391446454e+00 1.075504041154268e+01 1.427564692647258e+01 1.691912603485697e+01 1.075504041154268e+01 1.271695347032447e+01 1.691912603485697e+01 1.905945414084383e+01 0.000000000000000e+00 3.717898035126284e-01 0.000000000000000e+00 4.310369578379081e-01 3.717898035126284e-01 1.833605542545689e+00 4.310369578379081e-01 2.817889290964357e+00 1.833605542545690e+00 4.478976540767866e+00 2.817889290964358e+00 7.380717654383889e+00 4.478976540767866e+00 7.791052985246874e+00 7.380717654383890e+00 1.281483217185210e+01 7.791052985246876e+00 1.117982092750068e+01 1.281483217185211e+01 1.781343640678387e+01 1.117982092750068e+01 1.427564692647258e+01 1.781343640678387e+01 2.175408173148274e+01 1.427564692647258e+01 1.691912603485697e+01 2.175408173148274e+01 2.456575306247247e+01 1.691912603485697e+01 1.905945414084383e+01 2.456575306247247e+01 2.644148986615361e+01 0.000000000000000e+00 4.310369578379081e-01 0.000000000000000e+00 6.375063883383776e-01 4.310369578379082e-01 2.817889290964358e+00 6.375063883383776e-01 4.316607496353315e+00 2.817889290964358e+00 7.380717654383890e+00 4.316607496353316e+00 1.113479716714379e+01 7.380717654383892e+00 1.281483217185211e+01 1.113479716714379e+01 1.874943758498350e+01 1.281483217185211e+01 1.781343640678387e+01 1.874943758498350e+01 2.512128512239245e+01 1.781343640678388e+01 2.175408173148274e+01 2.512128512239245e+01 2.952668564950050e+01 2.175408173148274e+01 2.456575306247247e+01 2.952668564950050e+01 3.216509989872802e+01 2.456575306247248e+01 2.644148986615361e+01 3.216509989872802e+01 3.358245258895352e+01 0.000000000000000e+00 6.375063883383776e-01 0.000000000000000e+00 8.556779042329610e-01 6.375063883383778e-01 4.316607496353316e+00 8.556779042329611e-01 5.706597069294084e+00 4.316607496353317e+00 1.113479716714379e+01 5.706597069294085e+00 1.440915476710409e+01 1.113479716714379e+01 1.874943758498350e+01 1.440915476710410e+01 2.370557900472629e+01 1.874943758498351e+01 2.512128512239245e+01 2.370557900472630e+01 3.102509484316488e+01 2.512128512239245e+01 2.952668564950050e+01 3.102509484316489e+01 3.567310522230303e+01 2.952668564950050e+01 3.216509989872802e+01 3.567310522230304e+01 3.812880068634932e+01 3.216509989872802e+01 3.358245258895352e+01 3.812880068634933e+01 3.920182387272651e+01 0.000000000000000e+00 8.556779042329611e-01 0.000000000000000e+00 9.089854986852679e-01 8.556779042329612e-01 5.706597069294084e+00 9.089854986852681e-01 6.246373727076227e+00 5.706597069294085e+00 1.440915476710410e+01 6.246373727076228e+00 1.576143105735997e+01 1.440915476710410e+01 2.370557900472630e+01 1.576143105735997e+01 2.582441021606714e+01 2.370557900472630e+01 3.102509484316489e+01 2.582441021606714e+01 3.367128477113123e+01 3.102509484316490e+01 3.567310522230304e+01 3.367128477113123e+01 3.858685185156404e+01 3.567310522230305e+01 3.812880068634933e+01 3.858685185156405e+01 4.113484308445844e+01 3.812880068634933e+01 3.920182387272652e+01 4.113484308445844e+01 4.220618930773506e+01 0.000000000000000e+00 9.089854986852681e-01 0.000000000000000e+00 8.072439933297334e-01 9.089854986852682e-01 6.246373727076228e+00 8.072439933297336e-01 5.697172611821438e+00 6.246373727076229e+00 1.576143105735997e+01 5.697172611821439e+00 1.452789597838298e+01 1.576143105735997e+01 2.582441021606714e+01 1.452789597838298e+01 2.415526328339746e+01 2.582441021606714e+01 3.367128477113123e+01 2.415526328339746e+01 3.211843871263667e+01 3.367128477113123e+01 3.858685185156405e+01 3.211843871263667e+01 3.754957806110670e+01 3.858685185156406e+01 4.113484308445844e+01 3.754957806110671e+01 4.067843095397285e+01 4.113484308445845e+01 4.220618930773507e+01 4.067843095397286e+01 4.225274609914111e+01 0.000000000000000e+00 8.072439933297336e-01 0.000000000000000e+00 8.254742862244487e-01 8.072439933297337e-01 5.697172611821439e+00 8.254742862244488e-01 4.697176190213394e+00 5.697172611821439e+00 1.452789597838298e+01 4.697176190213395e+00 1.143913339402902e+01 1.452789597838299e+01 2.415526328339746e+01 1.143913339402902e+01 1.918690392175804e+01 2.415526328339747e+01 3.211843871263667e+01 1.918690392175805e+01 2.643392413775763e+01 3.211843871263668e+01 3.754957806110671e+01 2.643392413775764e+01 3.236425518773068e+01 3.754957806110671e+01 4.067843095397286e+01 3.236425518773068e+01 3.659532320939824e+01 4.067843095397286e+01 4.225274609914111e+01 3.659532320939824e+01 3.918692531391643e+01 0.000000000000000e+00 8.254742862244487e-01 0.000000000000000e+00 1.042060821450468e+00 8.254742862244488e-01 4.697176190213395e+00 1.042060821450468e+00 3.866394157378867e+00 4.697176190213395e+00 1.143913339402902e+01 3.866394157378868e+00 8.020020277691691e+00 1.143913339402902e+01 1.918690392175805e+01 8.020020277691692e+00 1.304969318506565e+01 1.918690392175805e+01 2.643392413775764e+01 1.304969318506565e+01 1.850191028240588e+01 2.643392413775764e+01 3.236425518773068e+01 1.850191028240588e+01 2.392288619809602e+01 3.236425518773069e+01 3.659532320939824e+01 2.392288619809602e+01 2.885849432277626e+01 3.659532320939825e+01 3.918692531391643e+01 2.885849432277626e+01 3.285425785272509e+01 
				</DataArray>
			</PointData>
			<CellData>
			</CellData>
		</Piece>
	</UnstructuredGrid>
</VTKFile>