<?xml version="1.0"?>
<VTKFile type="UnstructuredGrid" byte_order="LittleEndian">
	<UnstructuredGrid>
		<Piece NumberOfPoints="64" NumberOfCells="16">
			<Points>
				<DataArray type="Float64" NumberOfComponents="3" format="ascii">
					-5.000000000000000e-01 -5.000000000000000e-01 0.000000000000000e+00
					-2.500000000000000e-01 -5.000000000000000e-01 0.000000000000000e+00
					-5.000000000000000e-01 -2.500000000000000e-01 0.000000000000000e+00
					-2.500000000000000e-01 -2.500000000000000e-01 0.000000000000000e+00
					-2.500000000000000e-01 -5.000000000000000e-01 0.000000000000000e+00
					6.938893903907228e-18 -5.000000000000000e-01 0.000000000000000e+00
					-2.500000000000000e-01 -2.500000000000000e-01 0.000000000000000e+00
					1.040834085586084e-17 -2.500000000000000e-01 0.000000000000000e+00
					6.938893903907228e-18 -5.000000000000000e-01 0.000000000000000e+00
					2.500000000000000e-01 -5.000000000000000e-01 0.000000000000000e+00
					1.040834085586084e-17 -2.500000000000000e-01 0.000000000000000e+00
					2.500000000000000e-01 -2.500000000000000e-01 0.000000000000000e+00
					2.500000000000000e-01 -5.000000000000000e-01 0.000000000000000e+00
					5.000000000000000e-01 -5.000000000000000e-01 0.000000000000000e+00
					2.500000000000000e-01 -2.500000000000000e-01 0.000000000000000e+00
					5.000000000000000e-01 -2.500000000000000e-01 0.000000000000000e+00
					-5.000000000000000e-01 -2.500000000000000e-01 0.000000000000000e+00
					-2.500000000000000e-01 -2.500000000000000e-01 0.000000000000000e+00
					-5.000000000000000e-01 6.938893903907228e-18 0.000000000000000e+00
					-2.500000000000000e-01 6.938893903907228e-18 0.000000000000000e+00
					-2.500000000000000e-01 -2.500000000000000e-01 0.000000000000000e+00
					1.040834085586084e-17 -2.500000000000000e-01 0.000000000000000e+00
					-2.500000000000000e-01 6.938893903907228e-18 0.000000000000000e+00
					1.040834085586084e-17 6.938893903907228e-18 0.000000000000000e+00
					1.040834085586084e-17 -2.500000000000000e-01 0.000000000000000e+00
					2.500000000000000e-01 -2.500000000000000e-01 0.000000000000000e+00
					1.040834085586084e-17 6.938893903907228e-18 0.000000000000000e+00
					2.500000000000000e-01 6.938893903907228e-18 0.000000000000000e+00
					2.500000000000000e-01 -2.500000000000000e-01 0.000000000000000e+00
					5.000000000000000e-01 -2.500000000000000e-01 0.000000000000000e+00
					2.500000000000000e-01 6.938893903907228e-18 0.000000000000000e+00
					5.000000000000000e-01 6.938893903907228e-18 0.000000000000000e+00
					-5.000000000000000e-01 6.938893903907228e-18 0.000000000000000e+00
					-2.500000000000000e-01 6.938893903907228e-18 0.000000000000000e+00
					-5.000000000000000e-01 2.500000000000000e-01 0.000000000000000e+00
					-2.500000000000000e-01 2.500000000000000e-01 0.000000000000000e+00
					-2.500000000000000e-01 6.938893903907228e-18 0.000000000000000e+00
					1.040834085586084e-17 6.938893903907228e-18 0.000000000000000e+00
					-2.500000000000000e-01 2.500000000000000e-01 0.000000000000000e+00
					6.938893903907228e-18 2.500000000000000e-01 0.000000000000000e+00
					1.040834085586084e-17 6.938893903907228e-18 0.000000000000000e+00
					2.500000000000000e-01 6.938893903907228e-18 0.000000000000000e+00
					6.938893903907228e-18 2.500000000000000e-01 0.000000000000000e+00
					2.500000000000000e-01 2.500000000000000e-01 0.000000000000000e+00
					2.500000000000000e-01 6.938893903907228e-18 0.000000000000000e+00
					5.000000000000000e-01 6.938893903907228e-18 0.000000000000000e+00
					2.500000000000000e-01 2.500000000000000e-01 0.000000000000000e+00
					5.000000000000000e-01 2.500000000000000e-01 0.000000000000000e+00
					-5.000000000000000e-01 2.500000000000000e-01 0.000000000000000e+00
					-2.500000000000000e-01 2.500000000000000e-01 0.000000000000000e+00
					-5.000000000000000e-01 5.000000000000000e-01 0.000000000000000e+00
					-2.500000000000000e-01 5.000000000000000e-01 0.000000000000000e+00
					-2.500000000000000e-01 2.500000000000000e-01 0.000000000000000e+00
					6.938893903907228e-18 2.500000000000000e-01 0.000000000000000e+00
					-2.500000000000000e-01 5.000000000000000e-01 0.000000000000000e+00
					6.938893903907228e-18 5.000000000000000e-01 0.000000000000000e+00
					6.938893903907228e-18 2.500000000000000e-01 0.000000000000000e+00
					2.500000000000000e-01 2.500000000000000e-01 0.000000000000000e+00
					6.938893903907228e-18 5.000000000000000e-01 0.000000000000000e+00
					2.500000000000000e-01 5.000000000000000e-01 0.000000000000000e+00
					2.500000000000000e-01 2.500000000000000e-01 0.000000000000000e+00
					5.000000000000000e-01 2.500000000000000e-01 0.000000000000000e+00
					2.500000000000000e-01 5.000000000000000e-01 0.000000000000000e+00
					5.000000000000000e-01 5.000000000000000e-01 0.000000000000000e+00
				</DataArray>
			</Points>
			<Cells>
				<DataArray Name="connectivity" type="UInt32" format="ascii">
					0 1 3 2 4 5 7 6 8 9 11 10 12 13 15 14 16 17 19 18 20 21 23 22 24 25 27 26 28 29 31 30 32 33 35 34 36 37 39 38 40 41 43 42 44 45 47 46 48 49 51 50 52 53 55 54 56 57 59 58 60 61 63 62 
				</DataArray>
				<DataArray Name="offsets" type="UInt32" format="ascii">
					4 8 12 16 20 24 28 32 36 40 44 48 52 56 60 64 
				</DataArray>
				<DataArray Name="types" type="UInt8" format="ascii">
					9 9 9 9 9 9 9 9 9 9 9 9 9 9 9 9 
				</DataArray>
			</Cells>
			<PointData Vectors="solution ">
				<DataArray Name="solution" type="Float64" NumberOfComponents="1" format="ascii">
					3.166253593300581e+00 5.609924216119605e+00 5.806759649681993e+00 1.069111348857185e+01 5.609924216119606e+00 7.276199641075359e+00 1.069111348857185e+01 1.450869821588161e+01 7.276199641075360e+00 7.457106204705802e+00 1.450869821588161e+01 1.514462907295577e+01 7.457106204705804e+00 5.128907559515081e+00 1.514462907295577e+01 1.152943912803374e+01 5.806759649681995e+00 1.069111348857185e+01 9.248961418797929e+00 1.716409389390256e+01 1.069111348857185e+01 1.450869821588161e+01 1.716409389390256e+01 2.426545341928228e+01 1.450869821588161e+01 1.514462907295577e+01 2.426545341928228e+01 2.626532632569972e+01 1.514462907295577e+01 1.152943912803374e+01 2.626532632569972e+01 2.125027884934816e+01 9.248961418797931e+00 1.716409389390256e+01 1.185786350585097e+01 2.271265780457174e+01 1.716409389390256e+01 2.426545341928228e+01 2.271265780457174e+01 3.310961415349187e+01 2.426545341928228e+01 2.626532632569972e+01 3.310961415349187e+01 3.567841452089466e+01 2.626532632569972e+01 2.125027884934816e+01 3.567841452089467e+01 2.849644357575549e+01 1.185786350585097e+01 2.271265780457174e+01 1.114303542152289e+01 2.344306955852468e+01 2.271265780457174e+01 3.310961415349187e+01 2.344306955852469e+01 3.513072736423159e+01 3.310961415349188e+01 3.567841452089467e+01 3.513072736423160e+01 3.629837525303237e+01 3.567841452089468e+01 2.849644357575549e+01 3.629837525303238e+01 2.722173978855275e+01 
				</DataArray>
			</PointData>
			<CellData>
			</CellData>
		</Piece>
	</UnstructuredGrid>
</VTKFile>