<?xml version="1.0"?>
<VTKFile type="UnstructuredGrid" byte_order="LittleEndian">
	<UnstructuredGrid>
		<Piece NumberOfPoints="256" NumberOfCells="64">
			<Points>
				<DataArray type="Float64" NumberOfComponents="3" format="ascii">
					-5.000000000000000e-01 -5.000000000000000e-01 0.000000000000000e+00
					-3.750000000000000e-01 -5.000000000000000e-01 0.000000000000000e+00
					-5.000000000000000e-01 -3.750000000000000e-01 0.000000000000000e+00
					-3.750000000000000e-01 -3.750000000000000e-01 0.000000000000000e+00
					-3.750000000000000e-01 -5.000000000000000e-01 0.000000000000000e+00
					-2.500000000000000e-01 -5.000000000000000e-01 0.000000000000000e+00
					-3.750000000000000e-01 -3.750000000000000e-01 0.000000000000000e+00
					-2.500000000000000e-01 -3.750000000000000e-01 0.000000000000000e+00
					-2.500000000000000e-01 -5.000000000000000e-01 0.000000000000000e+00
					-1.250000000000000e-01 -5.000000000000000e-01 0.000000000000000e+00
					-2.500000000000000e-01 -3.750000000000000e-01 0.000000000000000e+00
					-1.250000000000000e-01 -3.750000000000000e-01 0.000000000000000e+00
					-1.250000000000000e-01 -5.000000000000000e-01 0.000000000000000e+00
					0.000000000000000e+00 -5.000000000000000e-01 0.000000000000000e+00
					-1.250000000000000e-01 -3.750000000000000e-01 0.000000000000000e+00
					0.000000000000000e+00 -3.750000000000000e-01 0.000000000000000e+00
					0.000000000000000e+00 -5.000000000000000e-01 0.000000000000000e+00
					1.250000000000000e-01 -5.000000000000000e-01 0.000000000000000e+00
					0.000000000000000e+00 -3.750000000000000e-01 0.000000000000000e+00
					1.250000000000000e-01 -3.750000000000000e-01 0.000000000000000e+00
					1.250000000000000e-01 -5.000000000000000e-01 0.000000000000000e+00
					2.500000000000000e-01 -5.000000000000000e-01 0.000000000000000e+00
					1.250000000000000e-01 -3.750000000000000e-01 0.000000000000000e+00
					2.500000000000000e-01 -3.750000000000000e-01 0.000000000000000e+00
					2.500000000000000e-01 -5.000000000000000e-01 0.000000000000000e+00
					3.750000000000000e-01 -5.000000000000000e-01 0.000000000000000e+00
					2.500000000000000e-01 -3.750000000000000e-01 0.000000000000000e+00
					3.750000000000000e-01 -3.750000000000000e-01 0.000000000000000e+00
					3.750000000000000e-01 -5.000000000000000e-01 0.000000000000000e+00
					5.000000000000000e-01 -5.000000000000000e-01 0.000000000000000e+00
					3.750000000000000e-01 -3.750000000000000e-01 0.000000000000000e+00
					5.000000000000000e-01 -3.750000000000000e-01 0.000000000000000e+00
					-5.000000000000000e-01 -3.750000000000000e-01 0.000000000000000e+00
					-3.750000000000000e-01 -3.750000000000000e-01 0.000000000000000e+00
					-5.000000000000000e-01 -2.500000000000000e-01 0.000000000000000e+00
					-3.750000000000001e-01 -2.500000000000000e-01 0.000000000000000e+00
					-3.750000000000000e-01 -3.750000000000000e-01 0.000000000000000e+00
					-2.500000000000000e-01 -3.750000000000000e-01 0.000000000000000e+00
					-3.750000000000001e-01 -2.500000000000000e-01 0.000000000000000e+00
					-2.500000000000000e-01 -2.500000000000000e-01 0.000000000000000e+00
					-2.500000000000000e-01 -3.750000000000000e-01 0.000000000000000e+00
					-1.250000000000000e-01 -3.750000000000000e-01 0.000000000000000e+00
					-2.500000000000000e-01 -2.500000000000000e-01 0.000000000000000e+00
					-1.250000000000000e-01 -2.500000000000000e-01 0.000000000000000e+00
					-1.250000000000000e-01 -3.750000000000000e-01 0.000000000000000e+00
					0.000000000000000e+00 -3.750000000000000e-01 0.000000000000000e+00
					-1.250000000000000e-01 -2.500000000000000e-01 0.000000000000000e+00
					0.000000000000000e+00 -2.500000000000000e-01 0.000000000000000e+00
					0.000000000000000e+00 -3.750000000000000e-01 0.000000000000000e+00
					1.250000000000000e-01 -3.750000000000000e-01 0.000000000000000e+00
					0.000000000000000e+00 -2.500000000000000e-01 0.000000000000000e+00
					1.250000000000000e-01 -2.500000000000000e-01 0.000000000000000e+00
					1.250000000000000e-01 -3.750000000000000e-01 0.000000000000000e+00
					2.500000000000000e-01 -3.750000000000000e-01 0.000000000000000e+00
					1.250000000000000e-01 -2.500000000000000e-01 0.000000000000000e+00
					2.500000000000000e-01 -2.500000000000000e-01 0.000000000000000e+00
					2.500000000000000e-01 -3.750000000000000e-01 0.000000000000000e+00
					3.750000000000000e-01 -3.750000000000000e-01 0.000000000000000e+00
					2.500000000000000e-01 -2.500000000000000e-01 0.000000000000000e+00
					3.750000000000001e-01 -2.500000000000000e-01 0.000000000000000e+00
					3.750000000000000e-01 -3.750000000000000e-01 0.000000000000000e+00
					5.000000000000000e-01 -3.750000000000000e-01 0.000000000000000e+00
					3.750000000000001e-01 -2.500000000000000e-01 0.000000000000000e+00
					5.000000000000000e-01 -2.500000000000000e-01 0.000000000000000e+00
					-5.000000000000000e-01 -2.500000000000000e-01 0.000000000000000e+00
					-3.750000000000001e-01 -2.500000000000000e-01 0.000000000000000e+00
					-5.000000000000000e-01 -1.250000000000000e-01 0.000000000000000e+00
					-3.750000000000001e-01 -1.250000000000000e-01 0.000000000000000e+00
					-3.750000000000001e-01 -2.500000000000000e-01 0.000000000000000e+00
					-2.500000000000000e-01 -2.500000000000000e-01 0.000000000000000e+00
					-3.750000000000001e-01 -1.250000000000000e-01 0.000000000000000e+00
					-2.500000000000000e-01 -1.250000000000000e-01 0.000000000000000e+00
					-2.500000000000000e-01 -2.500000000000000e-01 0.000000000000000e+00
					-1.250000000000000e-01 -2.500000000000000e-01 0.000000000000000e+00
					-2.500000000000000e-01 -1.250000000000000e-01 0.000000000000000e+00
					-1.250000000000000e-01 -1.250000000000000e-01 0.000000000000000e+00
					-1.250000000000000e-01 -2.500000000000000e-01 0.000000000000000e+00
					0.000000000000000e+00 -2.500000000000000e-01 0.000000000000000e+00
					-1.250000000000000e-01 -1.250000000000000e-01 0.000000000000000e+00
					0.000000000000000e+00 -1.250000000000000e-01 0.000000000000000e+00
					0.000000000000000e+00 -2.500000000000000e-01 0.000000000000000e+00
					1.250000000000000e-01 -2.500000000000000e-01 0.000000000000000e+00
					0.000000000000000e+00 -1.250000000000000e-01 0.000000000000000e+00
					1.250000000000000e-01 -1.250000000000000e-01 0.000000000000000e+00
					1.250000000000000e-01 -2.500000000000000e-01 0.000000000000000e+00
					2.500000000000000e-01 -2.500000000000000e-01 0.000000000000000e+00
					1.250000000000000e-01 -1.250000000000000e-01 0.000000000000000e+00
					2.500000000000000e-01 -1.250000000000000e-01 0.000000000000000e+00
					2.500000000000000e-01 -2.500000000000000e-01 0.000000000000000e+00
					3.750000000000001e-01 -2.500000000000000e-01 0.000000000000000e+00
					2.500000000000000e-01 -1.250000000000000e-01 0.000000000000000e+00
					3.750000000000001e-01 -1.250000000000000e-01 0.000000000000000e+00
					3.750000000000001e-01 -2.500000000000000e-01 0.000000000000000e+00
					5.000000000000000e-01 -2.500000000000000e-01 0.000000000000000e+00
					3.750000000000001e-01 -1.250000000000000e-01 0.000000000000000e+00
					5.000000000000000e-01 -1.250000000000000e-01 0.000000000000000e+00
					-5.000000000000000e-01 -1.250000000000000e-01 0.000000000000000e+00
					-3.750000000000001e-01 -1.250000000000000e-01 0.000000000000000e+00
					-5.000000000000000e-01 0.000000000000000e+00 0.000000000000000e+00
					-3.750000000000000e-01 0.000000000000000e+00 0.000000000000000e+00
					-3.750000000000001e-01 -1.250000000000000e-01 0.000000000000000e+00
					-2.500000000000000e-01 -1.250000000000000e-01 0.000000000000000e+00
					-3.750000000000000e-01 0.000000000000000e+00 0.000000000000000e+00
					-2.500000000000000e-01 0.000000000000000e+00 0.000000000000000e+00
					-2.500000000000000e-01 -1.250000000000000e-01 0.000000000000000e+00
					-1.250000000000000e-01 -1.250000000000000e-01 0.000000000000000e+00
					-2.500000000000000e-01 0.000000000000000e+00 0.000000000000000e+00
					-1.250000000000000e-01 0.000000000000000e+00 0.000000000000000e+00
					-1.250000000000000e-01 -1.250000000000000e-01 0.000000000000000e+00
					0.000000000000000e+00 -1.250000000000000e-01 0.000000000000000e+00
					-1.250000000000000e-01 0.000000000000000e+00 0.000000000000000e+00
					0.000000000000000e+00 0.000000000000000e+00 0.000000000000000e+00
					0.000000000000000e+00 -1.250000000000000e-01 0.000000000000000e+00
					1.250000000000000e-01 -1.250000000000000e-01 0.000000000000000e+00
					0.000000000000000e+00 0.000000000000000e+00 0.000000000000000e+00
					1.250000000000000e-01 0.000000000000000e+00 0.000000000000000e+00
					1.250000000000000e-01 -1.250000000000000e-01 0.000000000000000e+00
					2.500000000000000e-01 -1.250000000000000e-01 0.000000000000000e+00
					1.250000000000000e-01 0.000000000000000e+00 0.000000000000000e+00
					2.500000000000000e-01 0.000000000000000e+00 0.000000000000000e+00
					2.500000000000000e-01 -1.250000000000000e-01 0.000000000000000e+00
					3.750000000000001e-01 -1.250000000000000e-01 0.000000000000000e+00
					2.500000000000000e-01 0.000000000000000e+00 0.000000000000000e+00
					3.750000000000001e-01 0.000000000000000e+00 0.000000000000000e+00
					3.750000000000001e-01 -1.250000000000000e-01 0.000000000000000e+00
					5.000000000000000e-01 -1.250000000000000e-01 0.000000000000000e+00
					3.750000000000001e-01 0.000000000000000e+00 0.000000000000000e+00
					5.000000000000000e-01 0.000000000000000e+00 0.000000000000000e+00
					-5.000000000000000e-01 0.000000000000000e+00 0.000000000000000e+00
					-3.750000000000000e-01 0.000000000000000e+00 0.000000000000000e+00
					-5.000000000000000e-01 1.250000000000000e-01 0.000000000000000e+00
					-3.750000000000000e-01 1.250000000000000e-01 0.000000000000000e+00
					-3.750000000000000e-01 0.000000000000000e+00 0.000000000000000e+00
					-2.500000000000000e-01 0.000000000000000e+00 0.000000000000000e+00
					-3.750000000000000e-01 1.250000000000000e-01 0.000000000000000e+00
					-2.500000000000000e-01 1.250000000000000e-01 0.000000000000000e+00
					-2.500000000000000e-01 0.000000000000000e+00 0.000000000000000e+00
					-1.250000000000000e-01 0.000000000000000e+00 0.000000000000000e+00
					-2.500000000000000e-01 1.250000000000000e-01 0.000000000000000e+00
					-1.250000000000000e-01 1.250000000000000e-01 0.000000000000000e+00
					-1.250000000000000e-01 0.000000000000000e+00 0.000000000000000e+00
					0.000000000000000e+00 0.000000000000000e+00 0.000000000000000e+00
					-1.250000000000000e-01 1.250000000000000e-01 0.000000000000000e+00
					0.000000000000000e+00 1.250000000000000e-01 0.000000000000000e+00
					0.000000000000000e+00 0.000000000000000e+00 0.000000000000000e+00
					1.250000000000000e-01 0.000000000000000e+00 0.000000000000000e+00
					0.000000000000000e+00 1.250000000000000e-01 0.000000000000000e+00
					1.250000000000000e-01 1.250000000000000e-01 0.000000000000000e+00
					1.250000000000000e-01 0.000000000000000e+00 0.000000000000000e+00
					2.500000000000000e-01 0.000000000000000e+00 0.000000000000000e+00
					1.250000000000000e-01 1.250000000000000e-01 0.000000000000000e+00
					2.500000000000000e-01 1.250000000000000e-01 0.000000000000000e+00
					2.500000000000000e-01 0.000000000000000e+00 0.000000000000000e+00
					3.750000000000001e-01 0.000000000000000e+00 0.000000000000000e+00
					2.500000000000000e-01 1.250000000000000e-01 0.000000000000000e+00
					3.750000000000000e-01 1.250000000000000e-01 0.000000000000000e+00
					3.750000000000001e-01 0.000000000000000e+00 0.000000000000000e+00
					5.000000000000000e-01 0.000000000000000e+00 0.000000000000000e+00
					3.750000000000000e-01 1.250000000000000e-01 0.000000000000000e+00
					5.000000000000000e-01 1.250000000000000e-01 0.000000000000000e+00
					-5.000000000000000e-01 1.250000000000000e-01 0.000000000000000e+00
					-3.750000000000000e-01 1.250000000000000e-01 0.000000000000000e+00
					-5.000000000000000e-01 2.500000000000000e-01 0.000000000000000e+00
					-3.750000000000000e-01 2.500000000000000e-01 0.000000000000000e+00
					-3.750000000000000e-01 1.250000000000000e-01 0.000000000000000e+00
					-2.500000000000000e-01 1.250000000000000e-01 0.000000000000000e+00
					-3.750000000000000e-01 2.500000000000000e-01 0.000000000000000e+00
					-2.500000000000000e-01 2.500000000000000e-01 0.000000000000000e+00
					-2.500000000000000e-01 1.250000000000000e-01 0.000000000000000e+00
					-1.250000000000000e-01 1.250000000000000e-01 0.000000000000000e+00
					-2.500000000000000e-01 2.500000000000000e-01 0.000000000000000e+00
					-1.250000000000000e-01 2.500000000000000e-01 0.000000000000000e+00
					-1.250000000000000e-01 1.250000000000000e-01 0.000000000000000e+00
					0.000000000000000e+00 1.250000000000000e-01 0.000000000000000e+00
					-1.250000000000000e-01 2.500000000000000e-01 0.000000000000000e+00
					0.000000000000000e+00 2.500000000000000e-01 0.000000000000000e+00
					0.000000000000000e+00 1.250000000000000e-01 0.000000000000000e+00
					1.250000000000000e-01 1.250000000000000e-01 0.000000000000000e+00
					0.000000000000000e+00 2.500000000000000e-01 0.000000000000000e+00
					1.250000000000000e-01 2.500000000000000e-01 0.000000000000000e+00
					1.250000000000000e-01 1.250000000000000e-01 0.000000000000000e+00
					2.500000000000000e-01 1.250000000000000e-01 0.000000000000000e+00
					1.250000000000000e-01 2.500000000000000e-01 0.000000000000000e+00
					2.500000000000000e-01 2.500000000000000e-01 0.000000000000000e+00
					2.500000000000000e-01 1.250000000000000e-01 0.000000000000000e+00
					3.750000000000000e-01 1.250000000000000e-01 0.000000000000000e+00
					2.500000000000000e-01 2.500000000000000e-01 0.000000000000000e+00
					3.750000000000000e-01 2.500000000000000e-01 0.000000000000000e+00
					3.750000000000000e-01 1.250000000000000e-01 0.000000000000000e+00
					5.000000000000000e-01 1.250000000000000e-01 0.000000000000000e+00
					3.750000000000000e-01 2.500000000000000e-01 0.000000000000000e+00
					5.000000000000000e-01 2.500000000000000e-01 0.000000000000000e+00
					-5.000000000000000e-01 2.500000000000000e-01 0.000000000000000e+00
					-3.750000000000000e-01 2.500000000000000e-01 0.000000000000000e+00
					-5.000000000000000e-01 3.750000000000000e-01 0.000000000000000e+00
					-3.750000000000000e-01 3.750000000000000e-01 0.000000000000000e+00
					-3.750000000000000e-01 2.500000000000000e-01 0.000000000000000e+00
					-2.500000000000000e-01 2.500000000000000e-01 0.000000000000000e+00
					-3.750000000000000e-01 3.750000000000000e-01 0.000000000000000e+00
					-2.500000000000000e-01 3.750000000000000e-01 0.000000000000000e+00
					-2.500000000000000e-01 2.500000000000000e-01 0.000000000000000e+00
					-1.250000000000000e-01 2.500000000000000e-01 0.000000000000000e+00
					-2.500000000000000e-01 3.750000000000000e-01 0.000000000000000e+00
					-1.250000000000000e-01 3.750000000000000e-01 0.000000000000000e+00
					-1.250000000000000e-01 2.500000000000000e-01 0.000000000000000e+00
					0.000000000000000e+00 2.500000000000000e-01 0.000000000000000e+00
					-1.250000000000000e-01 3.750000000000000e-01 0.000000000000000e+00
					0.000000000000000e+00 3.750000000000000e-01 0.000000000000000e+00
					0.000000000000000e+00 2.500000000000000e-01 0.000000000000000e+00
					1.250000000000000e-01 2.500000000000000e-01 0.000000000000000e+00
					0.000000000000000e+00 3.750000000000000e-01 0.000000000000000e+00
					1.250000000000000e-01 3.750000000000000e-01 0.000000000000000e+00
					1.250000000000000e-01 2.500000000000000e-01 0.000000000000000e+00
					2.500000000000000e-01 2.500000000000000e-01 0.000000000000000e+00
					1.250000000000000e-01 3.750000000000000e-01 0.000000000000000e+00
					2.500000000000000e-01 3.750000000000000e-01 0.000000000000000e+00
					2.500000000000000e-01 2.500000000000000e-01 0.000000000000000e+00
					3.750000000000000e-01 2.500000000000000e-01 0.000000000000000e+00
					2.500000000000000e-01 3.750000000000000e-01 0.000000000000000e+00
					3.750000000000000e-01 3.750000000000000e-01 0.000000000000000e+00
					3.750000000000000e-01 2.500000000000000e-01 0.000000000000000e+00
					5.000000000000000e-01 2.500000000000000e-01 0.000000000000000e+00
					3.750000000000000e-01 3.750000000000000e-01 0.000000000000000e+00
					5.000000000000000e-01 3.750000000000000e-01 0.000000000000000e+00
					-5.000000000000000e-01 3.750000000000000e-01 0.000000000000000e+00
					-3.750000000000000e-01 3.750000000000000e-01 0.000000000000000e+00
					-5.000000000000000e-01 5.000000000000000e-01 0.000000000000000e+00
					-3.750000000000000e-01 5.000000000000000e-01 0.000000000000000e+00
					-3.750000000000000e-01 3.750000000000000e-01 0.000000000000000e+00
					-2.500000000000000e-01 3.750000000000000e-01 0.000000000000000e+00
					-3.750000000000000e-01 5.000000000000000e-01 0.000000000000000e+00
					-2.500000000000000e-01 5.000000000000000e-01 0.000000000000000e+00
					-2.500000000000000e-01 3.750000000000000e-01 0.000000000000000e+00
					-1.250000000000000e-01 3.750000000000000e-01 0.000000000000000e+00
					-2.500000000000000e-01 5.000000000000000e-01 0.000000000000000e+00
					-1.250000000000000e-01 5.000000000000000e-01 0.000000000000000e+00
					-1.250000000000000e-01 3.750000000000000e-01 0.000000000000000e+00
					0.000000000000000e+00 3.750000000000000e-01 0.000000000000000e+00
					-1.250000000000000e-01 5.000000000000000e-01 0.000000000000000e+00
					0.000000000000000e+00 5.000000000000000e-01 0.000000000000000e+00
					0.000000000000000e+00 3.750000000000000e-01 0.000000000000000e+00
					1.250000000000000e-01 3.750000000000000e-01 0.000000000000000e+00
					0.000000000000000e+00 5.000000000000000e-01 0.000000000000000e+00
					1.250000000000000e-01 5.000000000000000e-01 0.000000000000000e+00
					1.250000000000000e-01 3.750000000000000e-01 0.000000000000000e+00
					2.500000000000000e-01 3.750000000000000e-01 0.000000000000000e+00
					1.250000000000000e-01 5.000000000000000e-01 0.000000000000000e+00
					2.500000000000000e-01 5.000000000000000e-01 0.000000000000000e+00
					2.500000000000000e-01 3.750000000000000e-01 0.000000000000000e+00
					3.750000000000000e-01 3.750000000000000e-01 0.000000000000000e+00
					2.500000000000000e-01 5.000000000000000e-01 0.000000000000000e+00
					3.750000000000000e-01 5.000000000000000e-01 0.000000000000000e+00
					3.750000000000000e-01 3.750000000000000e-01 0.000000000000000e+00
					5.000000000000000e-01 3.750000000000000e-01 0.000000000000000e+00
					3.750000000000000e-01 5.000000000000000e-01 0.000000000000000e+00
					5.000000000000000e-01 5.000000000000000e-01 0.000000000000000e+00
				</DataArray>
			</Points>
			<Cells>
				<DataArray Name="connectivity" type="UInt32" format="ascii">
					0 1 3 2 4 5 7 6 8 9 11 10 12 13 15 14 16 17 19 18 20 21 23 22 24 25 27 26 28 29 31 30 32 33 35 34 36 37 39 38 40 41 43 42 44 45 47 46 48 49 51 50 52 53 55 54 56 57 59 58 60 61 63 62 64 65 67 66 68 69 71 70 72 73 75 74 76 77 79 78 80 81 83 82 84 85 87 86 88 89 91 90 92 93 95 94 96 97 99 98 100 101 103 102 104 105 107 106 108 109 111 110 112 113 115 114 116 117 119 118 120 121 123 122 124 125 127 126 128 129 131 130 132 133 135 134 136 137 139 138 140 141 143 142 144 145 147 146 148 149 151 150 152 153 155 154 156 157 159 158 160 161 163 162 164 165 167 166 168 169 171 170 172 173 175 174 176 177 179 178 180 181 183 182 184 185 187 186 188 189 191 190 192 193 195 194 196 197 199 198 200 201 203 202 204 205 207 206 208 209 211 210 212 213 215 214 216 217 219 218 220 221 223 222 224 225 227 226 228 229 231 230 232 233 235 234 236 237 239 238 240 241 243 242 244 245 247 246 248 249 251 250 252 253 255 254 
				</DataArray>
				<DataArray Name="offsets" type="UInt32" format="ascii">
					4 8 12 16 20 24 28 32 36 40 44 48 52 56 60 64 68 72 76 80 84 88 92 96 100 104 108 112 116 120 124 128 132 136 140 144 148 152 156 160 164 168 172 176 180 184 188 192 196 200 204 208 212 216 220 224 228 232 236 240 244 248 252 256 
				</DataArray>
				<DataArray Name="types" type="UInt8" format="ascii">
					9 9 9 9 9 9 9 9 9 9 9 9 9 9 9 9 9 9 9 9 9 9 9 9 9 9 9 9 9 9 9 9 9 9 9 9 9 9 9 9 9 9 9 9 9 9 9 9 9 9 9 9 9 9 9 9 9 9 9 9 9 9 9 9 
				</DataArray>
			</Cells>
			<PointData Vectors="solution ">
				<DataArray Name="solution" type="Float64" NumberOfComponents="1" format="ascii">
					1.855895515553224e+00 2.800517892882712e+00 3.159010533144063e+00 4.702161273901639e+00 2.800517892882713e+00 3.887924949686307e+00 4.702161273901639e+00 6.387549040199707e+00 3.887924949686308e+00 4.923108480771198e+00 6.387549040199707e+00 7.999505539468691e+00 4.923108480771199e+00 5.710912059642190e+00 7.999505539468692e+00 9.267969272846951e+00 5.710912059642191e+00 6.093919523094157e+00 9.267969272846953e+00 9.973606814147805e+00 6.093919523094158e+00 6.059023774475235e+00 9.973606814147807e+00 1.001672758051196e+01 6.059023774475236e+00 5.628586670084644e+00 1.001672758051196e+01 9.378408387622585e+00 5.628586670084645e+00 4.826233643239568e+00 9.378408387622587e+00 8.087668651158346e+00 3.159010533144064e+00 4.702161273901639e+00 4.961015488397521e+00 7.226034899875304e+00 4.702161273901640e+00 6.387549040199708e+00 7.226034899875305e+00 9.666520162726357e+00 6.387549040199708e+00 7.999505539468692e+00 9.666520162726359e+00 1.203623906029733e+01 7.999505539468694e+00 9.267969272846951e+00 1.203623906029733e+01 1.397905983238968e+01 9.267969272846953e+00 9.973606814147807e+00 1.397905983238968e+01 1.516543729027368e+01 9.973606814147809e+00 1.001672758051196e+01 1.516543729027368e+01 1.537952248590246e+01 1.001672758051196e+01 9.378408387622589e+00 1.537952248590246e+01 1.454513600265349e+01 9.378408387622589e+00 8.087668651158348e+00 1.454513600265349e+01 1.268526525354549e+01 4.961015488397521e+00 7.226034899875305e+00 7.040258973436737e+00 1.017906961803466e+01 7.226034899875307e+00 9.666520162726359e+00 1.017906961803466e+01 1.358296438101517e+01 9.666520162726359e+00 1.203623906029733e+01 1.358296438101517e+01 1.691495792844697e+01 1.203623906029734e+01 1.397905983238968e+01 1.691495792844697e+01 1.969192639557117e+01 1.397905983238968e+01 1.516543729027368e+01 1.969192639557117e+01 2.144262044831969e+01 1.516543729027368e+01 1.537952248590246e+01 2.144262044831969e+01 2.182245925686765e+01 1.537952248590246e+01 1.454513600265349e+01 2.182245925686765e+01 2.068547038640727e+01 1.454513600265349e+01 1.268526525354549e+01 2.068547038640728e+01 1.809131991520777e+01 7.040258973436739e+00 1.017906961803466e+01 9.174075404936294e+00 1.327875137071042e+01 1.017906961803466e+01 1.358296438101517e+01 1.327875137071043e+01 1.780919061367607e+01 1.358296438101518e+01 1.691495792844697e+01 1.780919061367607e+01 2.224872665076303e+01 1.691495792844697e+01 1.969192639557117e+01 2.224872665076304e+01 2.595216454782510e+01 1.969192639557117e+01 2.144262044831969e+01 2.595216454782511e+01 2.829339964168317e+01 2.144262044831969e+01 2.182245925686765e+01 2.829339964168317e+01 2.879709742457264e+01 2.182245925686765e+01 2.068547038640728e+01 2.879709742457264e+01 2.724544575882148e+01 2.068547038640728e+01 1.809131991520778e+01 2.724544575882148e+01 2.377724408221944e+01 9.174075404936296e+00 1.327875137071043e+01 1.112481549612379e+01 1.618322508955741e+01 1.327875137071043e+01 1.780919061367607e+01 1.618322508955741e+01 2.185593350425123e+01 1.780919061367607e+01 2.224872665076304e+01 2.185593350425123e+01 2.741087740075048e+01 2.224872665076304e+01 2.595216454782511e+01 2.741087740075048e+01 3.201562400137134e+01 2.595216454782511e+01 2.829339964168317e+01 3.201562400137135e+01 3.489560814691772e+01 2.829339964168318e+01 2.879709742457264e+01 3.489560814691772e+01 3.547475178699690e+01 2.879709742457265e+01 2.724544575882148e+01 3.547475178699690e+01 3.348485757764378e+01 2.724544575882148e+01 2.377724408221945e+01 3.348485757764379e+01 2.912347407695051e+01 1.112481549612379e+01 1.618322508955741e+01 1.258400083759387e+01 1.843509784533003e+01 1.618322508955742e+01 2.185593350425123e+01 1.843509784533003e+01 2.508888408038399e+01 2.185593350425123e+01 2.741087740075048e+01 2.508888408038399e+01 3.158732217587203e+01 2.741087740075049e+01 3.201562400137135e+01 3.158732217587204e+01 3.690765094705405e+01 3.201562400137135e+01 3.489560814691772e+01 3.690765094705406e+01 4.015340992876050e+01 3.489560814691774e+01 3.547475178699690e+01 4.015340992876050e+01 4.072386618541043e+01 3.547475178699690e+01 3.348485757764379e+01 4.072386618541044e+01 3.833563449273407e+01 3.348485757764379e+01 2.912347407695052e+01 3.833563449273407e+01 3.314067495636383e+01 1.258400083759387e+01 1.843509784533003e+01 1.322348246426327e+01 1.953390634929882e+01 1.843509784533003e+01 2.508888408038399e+01 1.953390634929882e+01 2.681748965270655e+01 2.508888408038399e+01 3.158732217587204e+01 2.681748965270656e+01 3.390131083766042e+01 3.158732217587204e+01 3.690765094705406e+01 3.390131083766042e+01 3.958729363471723e+01 3.690765094705407e+01 4.015340992876050e+01 3.958729363471723e+01 4.288258194282317e+01 4.015340992876050e+01 4.072386618541044e+01 4.288258194282317e+01 4.328477604453467e+01 4.072386618541044e+01 3.833563449273407e+01 4.328477604453467e+01 4.057624020031267e+01 3.833563449273408e+01 3.314067495636384e+01 4.057624020031267e+01 3.474520125493515e+01 1.322348246426328e+01 1.953390634929882e+01 1.271695347032447e+01 1.905945414084383e+01 1.953390634929883e+01 2.681748965270655e+01 1.905945414084383e+01 2.644148986615361e+01 2.681748965270656e+01 3.390131083766042e+01 2.644148986615361e+01 3.358245258895352e+01 3.390131083766042e+01 3.958729363471723e+01 3.358245258895352e+01 3.920182387272651e+01 3.958729363471724e+01 4.288258194282317e+01 3.920182387272652e+01 4.220618930773506e+01 4.288258194282317e+01 4.328477604453467e+01 4.220618930773507e+01 4.225274609914111e+01 4.328477604453467e+01 4.057624020031267e+01 4.225274609914111e+01 3.918692531391643e+01 4.057624020031268e+01 3.474520125493515e+01 3.918692531391643e+01 3.285425785272509e+01 
				</DataArray>
			</PointData>
			<CellData>
			</CellData>
		</Piece>
	</UnstructuredGrid>
</VTKFile>