<?xml version="1.0"?>
<VTKFile type="UnstructuredGrid" byte_order="LittleEndian">
	<UnstructuredGrid>
		<Piece NumberOfPoints="256" NumberOfCells="64">
			<Points>
				<DataArray type="Float64" NumberOfComponents="3" format="ascii">
					-1.000000000000000e+00 -1.000000000000000e+00 0.000000000000000e+00
					-7.500000000000000e-01 -1.218750000000000e+00 0.000000000000000e+00
					-9.135224194504830e-01 -9.135224194504830e-01 0.000000000000000e+00
					-6.851418145878622e-01 -1.081481403825483e+00 0.000000000000000e+00
					-7.500000000000000e-01 -1.218750000000000e+00 0.000000000000000e+00
					-5.000000000000000e-01 -1.375000000000000e+00 0.000000000000000e+00
					-6.851418145878622e-01 -1.081481403825483e+00 0.000000000000000e+00
					-4.567612097252415e-01 -1.201452106950483e+00 0.000000000000000e+00
					-5.000000000000000e-01 -1.375000000000000e+00 0.000000000000000e+00
					-2.500000000000000e-01 -1.468750000000000e+00 0.000000000000000e+00
					-4.567612097252415e-01 -1.201452106950483e+00 0.000000000000000e+00
					-2.283806048626207e-01 -1.273434528825483e+00 0.000000000000000e+00
					-2.500000000000000e-01 -1.468750000000000e+00 0.000000000000000e+00
					0.000000000000000e+00 -1.500000000000000e+00 0.000000000000000e+00
					-2.283806048626207e-01 -1.273434528825483e+00 0.000000000000000e+00
					1.040834085586084e-17 -1.297428669450483e+00 0.000000000000000e+00
					0.000000000000000e+00 -1.500000000000000e+00 0.000000000000000e+00
					2.500000000000000e-01 -1.468750000000000e+00 0.000000000000000e+00
					1.040834085586084e-17 -1.297428669450483e+00 0.000000000000000e+00
					2.283806048626208e-01 -1.273434528825483e+00 0.000000000000000e+00
					2.500000000000000e-01 -1.468750000000000e+00 0.000000000000000e+00
					5.000000000000000e-01 -1.375000000000000e+00 0.000000000000000e+00
					2.283806048626208e-01 -1.273434528825483e+00 0.000000000000000e+00
					4.567612097252415e-01 -1.201452106950483e+00 0.000000000000000e+00
					5.000000000000000e-01 -1.375000000000000e+00 0.000000000000000e+00
					7.500000000000000e-01 -1.218750000000000e+00 0.000000000000000e+00
					4.567612097252415e-01 -1.201452106950483e+00 0.000000000000000e+00
					6.851418145878623e-01 -1.081481403825483e+00 0.000000000000000e+00
					7.500000000000000e-01 -1.218750000000000e+00 0.000000000000000e+00
					1.000000000000000e+00 -1.000000000000000e+00 0.000000000000000e+00
					6.851418145878623e-01 -1.081481403825483e+00 0.000000000000000e+00
					9.135224194504830e-01 -9.135224194504830e-01 0.000000000000000e+00
					-9.135224194504830e-01 -9.135224194504830e-01 0.000000000000000e+00
					-6.851418145878622e-01 -1.081481403825483e+00 0.000000000000000e+00
					-8.338955762008279e-01 -8.338955762008279e-01 0.000000000000000e+00
					-6.254216821506209e-01 -9.577627637008280e-01 0.000000000000000e+00
					-6.851418145878622e-01 -1.081481403825483e+00 0.000000000000000e+00
					-4.567612097252415e-01 -1.201452106950483e+00 0.000000000000000e+00
					-6.254216821506209e-01 -9.577627637008280e-01 0.000000000000000e+00
					-4.169477881004140e-01 -1.046239326200828e+00 0.000000000000000e+00
					-4.567612097252415e-01 -1.201452106950483e+00 0.000000000000000e+00
					-2.283806048626207e-01 -1.273434528825483e+00 0.000000000000000e+00
					-4.169477881004140e-01 -1.046239326200828e+00 0.000000000000000e+00
					-2.084738940502070e-01 -1.099325263700828e+00 0.000000000000000e+00
					-2.283806048626207e-01 -1.273434528825483e+00 0.000000000000000e+00
					1.040834085586084e-17 -1.297428669450483e+00 0.000000000000000e+00
					-2.084738940502070e-01 -1.099325263700828e+00 0.000000000000000e+00
					1.734723475976807e-17 -1.117020576200828e+00 0.000000000000000e+00
					1.040834085586084e-17 -1.297428669450483e+00 0.000000000000000e+00
					2.283806048626208e-01 -1.273434528825483e+00 0.000000000000000e+00
					1.734723475976807e-17 -1.117020576200828e+00 0.000000000000000e+00
					2.084738940502070e-01 -1.099325263700828e+00 0.000000000000000e+00
					2.283806048626208e-01 -1.273434528825483e+00 0.000000000000000e+00
					4.567612097252415e-01 -1.201452106950483e+00 0.000000000000000e+00
					2.084738940502070e-01 -1.099325263700828e+00 0.000000000000000e+00
					4.169477881004140e-01 -1.046239326200828e+00 0.000000000000000e+00
					4.567612097252415e-01 -1.201452106950483e+00 0.000000000000000e+00
					6.851418145878623e-01 -1.081481403825483e+00 0.000000000000000e+00
					4.169477881004140e-01 -1.046239326200828e+00 0.000000000000000e+00
					6.254216821506209e-01 -9.577627637008279e-01 0.000000000000000e+00
					6.851418145878623e-01 -1.081481403825483e+00 0.000000000000000e+00
					9.135224194504830e-01 -9.135224194504830e-01 0.000000000000000e+00
					6.254216821506209e-01 -9.577627637008279e-01 0.000000000000000e+00
					8.338955762008279e-01 -8.338955762008279e-01 0.000000000000000e+00
					-8.338955762008279e-01 -8.338955762008279e-01 0.000000000000000e+00
					-6.254216821506209e-01 -9.577627637008280e-01 0.000000000000000e+00
					-7.611194702510349e-01 -7.611194702510349e-01 0.000000000000000e+00
					-5.708396026882762e-01 -8.475940796260348e-01 0.000000000000000e+00
					-6.254216821506209e-01 -9.577627637008280e-01 0.000000000000000e+00
					-4.169477881004140e-01 -1.046239326200828e+00 0.000000000000000e+00
					-5.708396026882762e-01 -8.475940796260348e-01 0.000000000000000e+00
					-3.805597351255174e-01 -9.093616577510351e-01 0.000000000000000e+00
					-4.169477881004140e-01 -1.046239326200828e+00 0.000000000000000e+00
					-2.084738940502070e-01 -1.099325263700828e+00 0.000000000000000e+00
					-3.805597351255174e-01 -9.093616577510351e-01 0.000000000000000e+00
					-1.902798675627587e-01 -9.464222046260349e-01 0.000000000000000e+00
					-2.084738940502070e-01 -1.099325263700828e+00 0.000000000000000e+00
					1.734723475976807e-17 -1.117020576200828e+00 0.000000000000000e+00
					-1.902798675627587e-01 -9.464222046260349e-01 0.000000000000000e+00
					2.428612866367530e-17 -9.587757202510350e-01 0.000000000000000e+00
					1.734723475976807e-17 -1.117020576200828e+00 0.000000000000000e+00
					2.084738940502070e-01 -1.099325263700828e+00 0.000000000000000e+00
					2.428612866367530e-17 -9.587757202510350e-01 0.000000000000000e+00
					1.902798675627587e-01 -9.464222046260351e-01 0.000000000000000e+00
					2.084738940502070e-01 -1.099325263700828e+00 0.000000000000000e+00
					4.169477881004140e-01 -1.046239326200828e+00 0.000000000000000e+00
					1.902798675627587e-01 -9.464222046260351e-01 0.000000000000000e+00
					3.805597351255174e-01 -9.093616577510348e-01 0.000000000000000e+00
					4.169477881004140e-01 -1.046239326200828e+00 0.000000000000000e+00
					6.254216821506209e-01 -9.577627637008279e-01 0.000000000000000e+00
					3.805597351255174e-01 -9.093616577510348e-01 0.000000000000000e+00
					5.708396026882762e-01 -8.475940796260348e-01 0.000000000000000e+00
					6.254216821506209e-01 -9.577627637008279e-01 0.000000000000000e+00
					8.338955762008279e-01 -8.338955762008279e-01 0.000000000000000e+00
					5.708396026882762e-01 -8.475940796260348e-01 0.000000000000000e+00
					7.611194702510349e-01 -7.611194702510349e-01 0.000000000000000e+00
					-7.611194702510349e-01 -7.611194702510349e-01 0.000000000000000e+00
					-5.708396026882762e-01 -8.475940796260348e-01 0.000000000000000e+00
					-6.951941016011038e-01 -6.951941016011038e-01 0.000000000000000e+00
					-5.213955762008279e-01 -7.509753516011040e-01 0.000000000000000e+00
					-5.708396026882762e-01 -8.475940796260348e-01 0.000000000000000e+00
					-3.805597351255174e-01 -9.093616577510351e-01 0.000000000000000e+00
					-5.213955762008279e-01 -7.509753516011040e-01 0.000000000000000e+00
					-3.475970508005519e-01 -7.908191016011039e-01 0.000000000000000e+00
					-3.805597351255174e-01 -9.093616577510351e-01 0.000000000000000e+00
					-1.902798675627587e-01 -9.464222046260349e-01 0.000000000000000e+00
					-3.475970508005519e-01 -7.908191016011039e-01 0.000000000000000e+00
					-1.737985254002760e-01 -8.147253516011039e-01 0.000000000000000e+00
					-1.902798675627587e-01 -9.464222046260349e-01 0.000000000000000e+00
					2.428612866367530e-17 -9.587757202510350e-01 0.000000000000000e+00
					-1.737985254002760e-01 -8.147253516011039e-01 0.000000000000000e+00
					2.428612866367530e-17 -8.226941016011039e-01 0.000000000000000e+00
					2.428612866367530e-17 -9.587757202510350e-01 0.000000000000000e+00
					1.902798675627587e-01 -9.464222046260351e-01 0.000000000000000e+00
					2.428612866367530e-17 -8.226941016011039e-01 0.000000000000000e+00
					1.737985254002760e-01 -8.147253516011039e-01 0.000000000000000e+00
					1.902798675627587e-01 -9.464222046260351e-01 0.000000000000000e+00
					3.805597351255174e-01 -9.093616577510348e-01 0.000000000000000e+00
					1.737985254002760e-01 -8.147253516011039e-01 0.000000000000000e+00
					3.475970508005519e-01 -7.908191016011039e-01 0.000000000000000e+00
					3.805597351255174e-01 -9.093616577510348e-01 0.000000000000000e+00
					5.708396026882762e-01 -8.475940796260348e-01 0.000000000000000e+00
					3.475970508005519e-01 -7.908191016011039e-01 0.000000000000000e+00
					5.213955762008279e-01 -7.509753516011038e-01 0.000000000000000e+00
					5.708396026882762e-01 -8.475940796260348e-01 0.000000000000000e+00
					7.611194702510349e-01 -7.611194702510349e-01 0.000000000000000e+00
					5.213955762008279e-01 -7.509753516011038e-01 0.000000000000000e+00
					6.951941016011038e-01 -6.951941016011038e-01 0.000000000000000e+00
					-6.951941016011038e-01 -6.951941016011038e-01 0.000000000000000e+00
					-5.213955762008279e-01 -7.509753516011040e-01 0.000000000000000e+00
					-6.361194702510349e-01 -6.361194702510349e-01 0.000000000000000e+00
					-4.770896026882762e-01 -6.679065796260348e-01 0.000000000000000e+00
					-5.213955762008279e-01 -7.509753516011040e-01 0.000000000000000e+00
					-3.475970508005519e-01 -7.908191016011039e-01 0.000000000000000e+00
					-4.770896026882762e-01 -6.679065796260348e-01 0.000000000000000e+00
					-3.180597351255174e-01 -6.906116577510349e-01 0.000000000000000e+00
					-3.475970508005519e-01 -7.908191016011039e-01 0.000000000000000e+00
					-1.737985254002760e-01 -8.147253516011039e-01 0.000000000000000e+00
					-3.180597351255174e-01 -6.906116577510349e-01 0.000000000000000e+00
					-1.590298675627587e-01 -7.042347046260349e-01 0.000000000000000e+00
					-1.737985254002760e-01 -8.147253516011039e-01 0.000000000000000e+00
					2.428612866367530e-17 -8.226941016011039e-01 0.000000000000000e+00
					-1.590298675627587e-01 -7.042347046260349e-01 0.000000000000000e+00
					1.734723475976807e-17 -7.087757202510350e-01 0.000000000000000e+00
					2.428612866367530e-17 -8.226941016011039e-01 0.000000000000000e+00
					1.737985254002760e-01 -8.147253516011039e-01 0.000000000000000e+00
					1.734723475976807e-17 -7.087757202510350e-01 0.000000000000000e+00
					1.590298675627587e-01 -7.042347046260350e-01 0.000000000000000e+00
					1.737985254002760e-01 -8.147253516011039e-01 0.000000000000000e+00
					3.475970508005519e-01 -7.908191016011039e-01 0.000000000000000e+00
					1.590298675627587e-01 -7.042347046260350e-01 0.000000000000000e+00
					3.180597351255174e-01 -6.906116577510348e-01 0.000000000000000e+00
					3.475970508005519e-01 -7.908191016011039e-01 0.000000000000000e+00
					5.213955762008279e-01 -7.509753516011038e-01 0.000000000000000e+00
					3.180597351255174e-01 -6.906116577510348e-01 0.000000000000000e+00
					4.770896026882762e-01 -6.679065796260348e-01 0.000000000000000e+00
					5.213955762008279e-01 -7.509753516011038e-01 0.000000000000000e+00
					6.951941016011038e-01 -6.951941016011038e-01 0.000000000000000e+00
					4.770896026882762e-01 -6.679065796260348e-01 0.000000000000000e+00
					6.361194702510349e-01 -6.361194702510349e-01 0.000000000000000e+00
					-6.361194702510349e-01 -6.361194702510349e-01 0.000000000000000e+00
					-4.770896026882762e-01 -6.679065796260348e-01 0.000000000000000e+00
					-5.838955762008278e-01 -5.838955762008278e-01 0.000000000000000e+00
					-4.379216821506209e-01 -5.983877637008279e-01 0.000000000000000e+00
					-4.770896026882762e-01 -6.679065796260348e-01 0.000000000000000e+00
					-3.180597351255174e-01 -6.906116577510349e-01 0.000000000000000e+00
					-4.379216821506209e-01 -5.983877637008279e-01 0.000000000000000e+00
					-2.919477881004139e-01 -6.087393262008278e-01 0.000000000000000e+00
					-3.180597351255174e-01 -6.906116577510349e-01 0.000000000000000e+00
					-1.590298675627587e-01 -7.042347046260349e-01 0.000000000000000e+00
					-2.919477881004139e-01 -6.087393262008278e-01 0.000000000000000e+00
					-1.459738940502069e-01 -6.149502637008278e-01 0.000000000000000e+00
					-1.590298675627587e-01 -7.042347046260349e-01 0.000000000000000e+00
					1.734723475976807e-17 -7.087757202510350e-01 0.000000000000000e+00
					-1.459738940502069e-01 -6.149502637008278e-01 0.000000000000000e+00
					1.040834085586084e-17 -6.170205762008280e-01 0.000000000000000e+00
					1.734723475976807e-17 -7.087757202510350e-01 0.000000000000000e+00
					1.590298675627587e-01 -7.042347046260350e-01 0.000000000000000e+00
					1.040834085586084e-17 -6.170205762008280e-01 0.000000000000000e+00
					1.459738940502070e-01 -6.149502637008279e-01 0.000000000000000e+00
					1.590298675627587e-01 -7.042347046260350e-01 0.000000000000000e+00
					3.180597351255174e-01 -6.906116577510348e-01 0.000000000000000e+00
					1.459738940502070e-01 -6.149502637008279e-01 0.000000000000000e+00
					2.919477881004139e-01 -6.087393262008278e-01 0.000000000000000e+00
					3.180597351255174e-01 -6.906116577510348e-01 0.000000000000000e+00
					4.770896026882762e-01 -6.679065796260348e-01 0.000000000000000e+00
					2.919477881004139e-01 -6.087393262008278e-01 0.000000000000000e+00
					4.379216821506209e-01 -5.983877637008278e-01 0.000000000000000e+00
					4.770896026882762e-01 -6.679065796260348e-01 0.000000000000000e+00
					6.361194702510349e-01 -6.361194702510349e-01 0.000000000000000e+00
					4.379216821506209e-01 -5.983877637008278e-01 0.000000000000000e+00
					5.838955762008278e-01 -5.838955762008278e-01 0.000000000000000e+00
					-5.838955762008278e-01 -5.838955762008278e-01 0.000000000000000e+00
					-4.379216821506209e-01 -5.983877637008279e-01 0.000000000000000e+00
					-5.385224194504830e-01 -5.385224194504830e-01 0.000000000000000e+00
					-4.038918145878622e-01 -5.424189038254830e-01 0.000000000000000e+00
					-4.379216821506209e-01 -5.983877637008279e-01 0.000000000000000e+00
					-2.919477881004139e-01 -6.087393262008278e-01 0.000000000000000e+00
					-4.038918145878622e-01 -5.424189038254830e-01 0.000000000000000e+00
					-2.692612097252414e-01 -5.452021069504829e-01 0.000000000000000e+00
					-2.919477881004139e-01 -6.087393262008278e-01 0.000000000000000e+00
					-1.459738940502069e-01 -6.149502637008278e-01 0.000000000000000e+00
					-2.692612097252414e-01 -5.452021069504829e-01 0.000000000000000e+00
					-1.346306048626207e-01 -5.468720288254829e-01 0.000000000000000e+00
					-1.459738940502069e-01 -6.149502637008278e-01 0.000000000000000e+00
					1.040834085586084e-17 -6.170205762008280e-01 0.000000000000000e+00
					-1.346306048626207e-01 -5.468720288254829e-01 0.000000000000000e+00
					3.469446951953614e-18 -5.474286694504829e-01 0.000000000000000e+00
					1.040834085586084e-17 -6.170205762008280e-01 0.000000000000000e+00
					1.459738940502070e-01 -6.149502637008279e-01 0.000000000000000e+00
					3.469446951953614e-18 -5.474286694504829e-01 0.000000000000000e+00
					1.346306048626207e-01 -5.468720288254829e-01 0.000000000000000e+00
					1.459738940502070e-01 -6.149502637008279e-01 0.000000000000000e+00
					2.919477881004139e-01 -6.087393262008278e-01 0.000000000000000e+00
					1.346306048626207e-01 -5.468720288254829e-01 0.000000000000000e+00
					2.692612097252414e-01 -5.452021069504829e-01 0.000000000000000e+00
					2.919477881004139e-01 -6.087393262008278e-01 0.000000000000000e+00
					4.379216821506209e-01 -5.983877637008278e-01 0.000000000000000e+00
					2.692612097252414e-01 -5.452021069504829e-01 0.000000000000000e+00
					4.038918145878622e-01 -5.424189038254830e-01 0.000000000000000e+00
					4.379216821506209e-01 -5.983877637008278e-01 0.000000000000000e+00
					5.838955762008278e-01 -5.838955762008278e-01 0.000000000000000e+00
					4.038918145878622e-01 -5.424189038254830e-01 0.000000000000000e+00
					5.385224194504830e-01 -5.385224194504830e-01 0.000000000000000e+00
					-5.385224194504830e-01 -5.385224194504830e-01 0.000000000000000e+00
					-4.038918145878622e-01 -5.424189038254830e-01 0.000000000000000e+00
					-5.000000000000000e-01 -5.000000000000000e-01 0.000000000000000e+00
					-3.750000000000000e-01 -5.000000000000000e-01 0.000000000000000e+00
					-4.038918145878622e-01 -5.424189038254830e-01 0.000000000000000e+00
					-2.692612097252414e-01 -5.452021069504829e-01 0.000000000000000e+00
					-3.750000000000000e-01 -5.000000000000000e-01 0.000000000000000e+00
					-2.500000000000000e-01 -5.000000000000000e-01 0.000000000000000e+00
					-2.692612097252414e-01 -5.452021069504829e-01 0.000000000000000e+00
					-1.346306048626207e-01 -5.468720288254829e-01 0.000000000000000e+00
					-2.500000000000000e-01 -5.000000000000000e-01 0.000000000000000e+00
					-1.250000000000000e-01 -5.000000000000000e-01 0.000000000000000e+00
					-1.346306048626207e-01 -5.468720288254829e-01 0.000000000000000e+00
					3.469446951953614e-18 -5.474286694504829e-01 0.000000000000000e+00
					-1.250000000000000e-01 -5.000000000000000e-01 0.000000000000000e+00
					0.000000000000000e+00 -5.000000000000000e-01 0.000000000000000e+00
					3.469446951953614e-18 -5.474286694504829e-01 0.000000000000000e+00
					1.346306048626207e-01 -5.468720288254829e-01 0.000000000000000e+00
					0.000000000000000e+00 -5.000000000000000e-01 0.000000000000000e+00
					1.250000000000000e-01 -5.000000000000000e-01 0.000000000000000e+00
					1.346306048626207e-01 -5.468720288254829e-01 0.000000000000000e+00
					2.692612097252414e-01 -5.452021069504829e-01 0.000000000000000e+00
					1.250000000000000e-01 -5.000000000000000e-01 0.000000000000000e+00
					2.500000000000000e-01 -5.000000000000000e-01 0.000000000000000e+00
					2.692612097252414e-01 -5.452021069504829e-01 0.000000000000000e+00
					4.038918145878622e-01 -5.424189038254830e-01 0.000000000000000e+00
					2.500000000000000e-01 -5.000000000000000e-01 0.000000000000000e+00
					3.750000000000000e-01 -5.000000000000000e-01 0.000000000000000e+00
					4.038918145878622e-01 -5.424189038254830e-01 0.000000000000000e+00
					5.385224194504830e-01 -5.385224194504830e-01 0.000000000000000e+00
					3.750000000000000e-01 -5.000000000000000e-01 0.000000000000000e+00
					5.000000000000000e-01 -5.000000000000000e-01 0.000000000000000e+00
				</DataArray>
			</Points>
			<Cells>
				<DataArray Name="connectivity" type="UInt32" format="ascii">
					0 1 3 2 4 5 7 6 8 9 11 10 12 13 15 14 16 17 19 18 20 21 23 22 24 25 27 26 28 29 31 30 32 33 35 34 36 37 39 38 40 41 43 42 44 45 47 46 48 49 51 50 52 53 55 54 56 57 59 58 60 61 63 62 64 65 67 66 68 69 71 70 72 73 75 74 76 77 79 78 80 81 83 82 84 85 87 86 88 89 91 90 92 93 95 94 96 97 99 98 100 101 103 102 104 105 107 106 108 109 111 110 112 113 115 114 116 117 119 118 120 121 123 122 124 125 127 126 128 129 131 130 132 133 135 134 136 137 139 138 140 141 143 142 144 145 147 146 148 149 151 150 152 153 155 154 156 157 159 158 160 161 163 162 164 165 167 166 168 169 171 170 172 173 175 174 176 177 179 178 180 181 183 182 184 185 187 186 188 189 191 190 192 193 195 194 196 197 199 198 200 201 203 202 204 205 207 206 208 209 211 210 212 213 215 214 216 217 219 218 220 221 223 222 224 225 227 226 228 229 231 230 232 233 235 234 236 237 239 238 240 241 243 242 244 245 247 246 248 249 251 250 252 253 255 254 
				</DataArray>
				<DataArray Name="offsets" type="UInt32" format="ascii">
					4 8 12 16 20 24 28 32 36 40 44 48 52 56 60 64 68 72 76 80 84 88 92 96 100 104 108 112 116 120 124 128 132 136 140 144 148 152 156 160 164 168 172 176 180 184 188 192 196 200 204 208 212 216 220 224 228 232 236 240 244 248 252 256 
				</DataArray>
				<DataArray Name="types" type="UInt8" format="ascii">
					9 9 9 9 9 9 9 9 9 9 9 9 9 9 9 9 9 9 9 9 9 9 9 9 9 9 9 9 9 9 9 9 9 9 9 9 9 9 9 9 9 9 9 9 9 9 9 9 9 9 9 9 9 9 9 9 9 9 9 9 9 9 9 9 
				</DataArray>
			</Cells>
			<PointData Vectors="solution ">
				<DataArray Name="solution" type="Float64" NumberOfComponents="1" format="ascii">
					0.000000000000000e+00 0.000000000000000e+00 2.640369503171317e-02 3.521760519084710e-02 0.000000000000000e+00 0.000000000000000e+00 3.521760519084711e-02 3.288614920613041e-02 0.000000000000000e+00 0.000000000000000e+00 3.288614920613041e-02 3.325054279914412e-02 0.000000000000000e+00 0.000000000000000e+00 3.325054279914412e-02 3.779465102593690e-02 0.000000000000000e+00 0.000000000000000e+00 3.779465102593690e-02 4.941444100515253e-02 0.000000000000000e+00 0.000000000000000e+00 4.941444100515253e-02 7.250934263472031e-02 0.000000000000000e+00 0.000000000000000e+00 7.250934263472034e-02 1.084899246589058e-01 0.000000000000000e+00 0.000000000000000e+00 1.084899246589059e-01 1.010422159376954e-01 2.640369503171318e-02 3.521760519084711e-02 1.073521846701839e-01 1.338492829675510e-01 3.521760519084711e-02 3.288614920613041e-02 1.338492829675510e-01 1.378737516397086e-01 3.288614920613041e-02 3.325054279914412e-02 1.378737516397087e-01 1.500574327589122e-01 3.325054279914413e-02 3.779465102593690e-02 1.500574327589122e-01 1.750041731407649e-01 3.779465102593690e-02 4.941444100515253e-02 1.750041731407649e-01 2.194539164222580e-01 4.941444100515254e-02 7.250934263472034e-02 2.194539164222580e-01 2.975454860314142e-01 7.250934263472035e-02 1.084899246589059e-01 2.975454860314142e-01 3.981291449282810e-01 1.084899246589059e-01 1.010422159376954e-01 3.981291449282810e-01 3.899129571245553e-01 1.073521846701839e-01 1.338492829675510e-01 2.453699022130243e-01 3.090177716385856e-01 1.338492829675510e-01 1.378737516397087e-01 3.090177716385856e-01 3.561374452778688e-01 1.378737516397087e-01 1.500574327589122e-01 3.561374452778688e-01 4.240238926895222e-01 1.500574327589122e-01 1.750041731407649e-01 4.240238926895222e-01 5.031320450245085e-01 1.750041731407649e-01 2.194539164222580e-01 5.031320450245086e-01 5.967816290875285e-01 2.194539164222580e-01 2.975454860314142e-01 5.967816290875285e-01 7.252431200755955e-01 2.975454860314143e-01 3.981291449282811e-01 7.252431200755957e-01 8.695284227442389e-01 3.981291449282811e-01 3.899129571245553e-01 8.695284227442389e-01 8.448772559527050e-01 2.453699022130243e-01 3.090177716385856e-01 4.428928535012168e-01 5.849720492774269e-01 3.090177716385857e-01 3.561374452778688e-01 5.849720492774269e-01 7.500011331507193e-01 3.561374452778689e-01 4.240238926895222e-01 7.500011331507194e-01 9.532248760244844e-01 4.240238926895223e-01 5.031320450245087e-01 9.532248760244844e-01 1.139528547645887e+00 5.031320450245087e-01 5.967816290875285e-01 1.139528547645887e+00 1.289134301435603e+00 5.967816290875286e-01 7.252431200755957e-01 1.289134301435604e+00 1.425593880028931e+00 7.252431200755957e-01 8.695284227442390e-01 1.425593880028931e+00 1.538255922055585e+00 8.695284227442390e-01 8.448772559527051e-01 1.538255922055585e+00 1.443810557156449e+00 4.428928535012169e-01 5.849720492774269e-01 7.023029829288679e-01 9.814528602437916e-01 5.849720492774271e-01 7.500011331507194e-01 9.814528602437916e-01 1.357840260679899e+00 7.500011331507195e-01 9.532248760244844e-01 1.357840260679899e+00 1.780378810063768e+00 9.532248760244844e-01 1.139528547645887e+00 1.780378810063768e+00 2.125701296121115e+00 1.139528547645887e+00 1.289134301435604e+00 2.125701296121115e+00 2.331244468549617e+00 1.289134301435604e+00 1.425593880028931e+00 2.331244468549617e+00 2.419872100705682e+00 1.425593880028931e+00 1.538255922055585e+00 2.419872100705682e+00 2.404437563150553e+00 1.538255922055585e+00 1.443810557156449e+00 2.404437563150553e+00 2.164328599967120e+00 7.023029829288681e-01 9.814528602437917e-01 1.025961348136162e+00 1.504445594465033e+00 9.814528602437919e-01 1.357840260679899e+00 1.504445594465033e+00 2.157445707257663e+00 1.357840260679899e+00 1.780378810063768e+00 2.157445707257663e+00 2.836352389069238e+00 1.780378810063769e+00 2.125701296121116e+00 2.836352389069239e+00 3.364398146938331e+00 2.125701296121116e+00 2.331244468549617e+00 3.364398146938332e+00 3.625901283140065e+00 2.331244468549617e+00 2.419872100705682e+00 3.625901283140065e+00 3.638790155920131e+00 2.419872100705682e+00 2.404437563150553e+00 3.638790155920132e+00 3.436778230773309e+00 2.404437563150553e+00 2.164328599967120e+00 3.436778230773309e+00 2.983903347099988e+00 1.025961348136162e+00 1.504445594465033e+00 1.416234550533068e+00 2.133825263228437e+00 1.504445594465033e+00 2.157445707257663e+00 2.133825263228437e+00 3.049167827535834e+00 2.157445707257664e+00 2.836352389069239e+00 3.049167827535835e+00 3.948899171656981e+00 2.836352389069240e+00 3.364398146938332e+00 3.948899171656981e+00 4.639036163317902e+00 3.364398146938333e+00 3.625901283140065e+00 4.639036163317903e+00 4.961196010297305e+00 3.625901283140065e+00 3.638790155920132e+00 4.961196010297306e+00 4.919410631832570e+00 3.638790155920132e+00 3.436778230773309e+00 4.919410631832571e+00 4.555912518038379e+00 3.436778230773309e+00 2.983903347099988e+00 4.555912518038379e+00 3.879946697799257e+00 1.416234550533069e+00 2.133825263228437e+00 1.875507784064571e+00 2.800871974542413e+00 2.133825263228438e+00 3.049167827535834e+00 2.800871974542413e+00 3.876358208182193e+00 3.049167827535835e+00 3.948899171656981e+00 3.876358208182194e+00 4.905784798965264e+00 3.948899171656982e+00 4.639036163317902e+00 4.905784798965265e+00 5.692725831410677e+00 4.639036163317903e+00 4.961196010297306e+00 5.692725831410677e+00 6.078369030224483e+00 4.961196010297307e+00 4.919410631832570e+00 6.078369030224484e+00 6.048718449515857e+00 4.919410631832571e+00 4.555912518038379e+00 6.048718449515859e+00 5.625002639583711e+00 4.555912518038380e+00 3.879946697799257e+00 5.625002639583711e+00 4.829862607747119e+00 
				</DataArray>
			</PointData>
			<CellData>
			</CellData>
		</Piece>
	</UnstructuredGrid>
</VTKFile>