<?xml version="1.0"?>
<VTKFile type="UnstructuredGrid" byte_order="LittleEndian">
	<UnstructuredGrid>
		<Piece NumberOfPoints="64" NumberOfCells="16">
			<Points>
				<DataArray type="Float64" NumberOfComponents="3" format="ascii">
					-1.000000000000000e+00 -1.000000000000000e+00 0.000000000000000e+00
					-8.338955762008279e-01 -8.338955762008279e-01 0.000000000000000e+00
					-1.375000000000000e+00 -5.000000000000000e-01 0.000000000000000e+00
					-1.046239326200828e+00 -4.169477881004139e-01 0.000000000000000e+00
					-8.338955762008279e-01 -8.338955762008279e-01 0.000000000000000e+00
					-6.951941016011038e-01 -6.951941016011038e-01 0.000000000000000e+00
					-1.046239326200828e+00 -4.169477881004139e-01 0.000000000000000e+00
					-7.908191016011038e-01 -3.475970508005519e-01 0.000000000000000e+00
					-6.951941016011038e-01 -6.951941016011038e-01 0.000000000000000e+00
					-5.838955762008279e-01 -5.838955762008279e-01 0.000000000000000e+00
					-7.908191016011038e-01 -3.475970508005519e-01 0.000000000000000e+00
					-6.087393262008278e-01 -2.919477881004139e-01 0.000000000000000e+00
					-5.838955762008279e-01 -5.838955762008279e-01 0.000000000000000e+00
					-5.000000000000000e-01 -5.000000000000000e-01 0.000000000000000e+00
					-6.087393262008278e-01 -2.919477881004139e-01 0.000000000000000e+00
					-5.000000000000000e-01 -2.500000000000000e-01 0.000000000000000e+00
					-1.375000000000000e+00 -5.000000000000000e-01 0.000000000000000e+00
					-1.046239326200828e+00 -4.169477881004139e-01 0.000000000000000e+00
					-1.500000000000000e+00 1.387778780781446e-17 0.000000000000000e+00
					-1.117020576200828e+00 2.081668171172169e-17 0.000000000000000e+00
					-1.046239326200828e+00 -4.169477881004139e-01 0.000000000000000e+00
					-7.908191016011038e-01 -3.475970508005519e-01 0.000000000000000e+00
					-1.117020576200828e+00 2.081668171172169e-17 0.000000000000000e+00
					-8.226941016011038e-01 0.000000000000000e+00 0.000000000000000e+00
					-7.908191016011038e-01 -3.475970508005519e-01 0.000000000000000e+00
					-6.087393262008278e-01 -2.919477881004139e-01 0.000000000000000e+00
					-8.226941016011038e-01 0.000000000000000e+00 0.000000000000000e+00
					-6.170205762008278e-01 1.387778780781446e-17 0.000000000000000e+00
					-6.087393262008278e-01 -2.919477881004139e-01 0.000000000000000e+00
					-5.000000000000000e-01 -2.500000000000000e-01 0.000000000000000e+00
					-6.170205762008278e-01 1.387778780781446e-17 0.000000000000000e+00
					-5.000000000000000e-01 6.938893903907228e-18 0.000000000000000e+00
					-1.500000000000000e+00 1.387778780781446e-17 0.000000000000000e+00
					-1.117020576200828e+00 2.081668171172169e-17 0.000000000000000e+00
					-1.375000000000000e+00 5.000000000000000e-01 0.000000000000000e+00
					-1.046239326200828e+00 4.169477881004140e-01 0.000000000000000e+00
					-1.117020576200828e+00 2.081668171172169e-17 0.000000000000000e+00
					-8.226941016011038e-01 0.000000000000000e+00 0.000000000000000e+00
					-1.046239326200828e+00 4.169477881004140e-01 0.000000000000000e+00
					-7.908191016011039e-01 3.475970508005519e-01 0.000000000000000e+00
					-8.226941016011038e-01 0.000000000000000e+00 0.000000000000000e+00
					-6.170205762008278e-01 1.387778780781446e-17 0.000000000000000e+00
					-7.908191016011039e-01 3.475970508005519e-01 0.000000000000000e+00
					-6.087393262008278e-01 2.919477881004139e-01 0.000000000000000e+00
					-6.170205762008278e-01 1.387778780781446e-17 0.000000000000000e+00
					-5.000000000000000e-01 6.938893903907228e-18 0.000000000000000e+00
					-6.087393262008278e-01 2.919477881004139e-01 0.000000000000000e+00
					-5.000000000000000e-01 2.500000000000000e-01 0.000000000000000e+00
					-1.375000000000000e+00 5.000000000000000e-01 0.000000000000000e+00
					-1.046239326200828e+00 4.169477881004140e-01 0.000000000000000e+00
					-1.000000000000000e+00 1.000000000000000e+00 0.000000000000000e+00
					-8.338955762008279e-01 8.338955762008279e-01 0.000000000000000e+00
					-1.046239326200828e+00 4.169477881004140e-01 0.000000000000000e+00
					-7.908191016011039e-01 3.475970508005519e-01 0.000000000000000e+00
					-8.338955762008279e-01 8.338955762008279e-01 0.000000000000000e+00
					-6.951941016011038e-01 6.951941016011038e-01 0.000000000000000e+00
					-7.908191016011039e-01 3.475970508005519e-01 0.000000000000000e+00
					-6.087393262008278e-01 2.919477881004139e-01 0.000000000000000e+00
					-6.951941016011038e-01 6.951941016011038e-01 0.000000000000000e+00
					-5.838955762008279e-01 5.838955762008279e-01 0.000000000000000e+00
					-6.087393262008278e-01 2.919477881004139e-01 0.000000000000000e+00
					-5.000000000000000e-01 2.500000000000000e-01 0.000000000000000e+00
					-5.838955762008279e-01 5.838955762008279e-01 0.000000000000000e+00
					-5.000000000000000e-01 5.000000000000000e-01 0.000000000000000e+00
				</DataArray>
			</Points>
			<Cells>
				<DataArray Name="connectivity" type="UInt32" format="ascii">
					0 1 3 2 4 5 7 6 8 9 11 10 12 13 15 14 16 17 19 18 20 21 23 22 24 25 27 26 28 29 31 30 32 33 35 34 36 37 39 38 40 41 43 42 44 45 47 46 48 49 51 50 52 53 55 54 56 57 59 58 60 61 63 62 
				</DataArray>
				<DataArray Name="offsets" type="UInt32" format="ascii">
					4 8 12 16 20 24 28 32 36 40 44 48 52 56 60 64 
				</DataArray>
				<DataArray Name="types" type="UInt8" format="ascii">
					9 9 9 9 9 9 9 9 9 9 9 9 9 9 9 9 
				</DataArray>
			</Cells>
			<PointData Vectors="solution ">
				<DataArray Name="solution" type="Float64" NumberOfComponents="1" format="ascii">
					0.000000000000000e+00 1.247955135877652e-02 0.000000000000000e+00 6.551533364251173e-02 1.247955135877652e-02 1.829106127349736e-01 6.551533364251172e-02 7.889156657355298e-01 1.829106127349736e-01 7.220160833775002e-01 7.889156657355300e-01 2.525234164990528e+00 7.220160833775002e-01 1.618611144344029e+00 2.525234164990529e+00 4.474699107924121e+00 0.000000000000000e+00 6.551533364251172e-02 0.000000000000000e+00 1.783179189910318e-01 6.551533364251175e-02 7.889156657355298e-01 1.783179189910318e-01 1.977802545903762e+00 7.889156657355301e-01 2.525234164990529e+00 1.977802545903762e+00 5.548146373568886e+00 2.525234164990529e+00 4.474699107924121e+00 5.548146373568887e+00 8.664095911147268e+00 0.000000000000000e+00 1.783179189910318e-01 0.000000000000000e+00 3.369839157707301e-01 1.783179189910319e-01 1.977802545903762e+00 3.369839157707301e-01 3.152428770284230e+00 1.977802545903763e+00 5.548146373568887e+00 3.152428770284231e+00 8.088416169371708e+00 5.548146373568888e+00 8.664095911147268e+00 8.088416169371710e+00 1.214041284732415e+01 0.000000000000000e+00 3.369839157707302e-01 0.000000000000000e+00 3.575833514308869e-01 3.369839157707301e-01 3.152428770284231e+00 3.575833514308869e-01 2.941606016874570e+00 3.152428770284231e+00 8.088416169371710e+00 2.941606016874570e+00 7.404467660516982e+00 8.088416169371712e+00 1.214041284732415e+01 7.404467660516982e+00 1.191834228607112e+01 
				</DataArray>
			</PointData>
			<CellData>
			</CellData>
		</Piece>
	</UnstructuredGrid>
</VTKFile>