<?xml version="1.0"?>
<VTKFile type="UnstructuredGrid" byte_order="LittleEndian">
	<UnstructuredGrid>
		<Piece NumberOfPoints="256" NumberOfCells="64">
			<Points>
				<DataArray type="Float64" NumberOfComponents="3" format="ascii">
					-1.000000000000000e+00 1.000000000000000e+00 0.000000000000000e+00
					-9.135224194504830e-01 9.135224194504830e-01 0.000000000000000e+00
					-7.500000000000000e-01 1.218750000000000e+00 0.000000000000000e+00
					-6.851418145878622e-01 1.081481403825483e+00 0.000000000000000e+00
					-9.135224194504830e-01 9.135224194504830e-01 0.000000000000000e+00
					-8.338955762008279e-01 8.338955762008279e-01 0.000000000000000e+00
					-6.851418145878622e-01 1.081481403825483e+00 0.000000000000000e+00
					-6.254216821506209e-01 9.577627637008279e-01 0.000000000000000e+00
					-8.338955762008279e-01 8.338955762008279e-01 0.000000000000000e+00
					-7.611194702510349e-01 7.611194702510349e-01 0.000000000000000e+00
					-6.254216821506209e-01 9.577627637008279e-01 0.000000000000000e+00
					-5.708396026882762e-01 8.475940796260348e-01 0.000000000000000e+00
					-7.611194702510349e-01 7.611194702510349e-01 0.000000000000000e+00
					-6.951941016011038e-01 6.951941016011038e-01 0.000000000000000e+00
					-5.708396026882762e-01 8.475940796260348e-01 0.000000000000000e+00
					-5.213955762008279e-01 7.509753516011038e-01 0.000000000000000e+00
					-6.951941016011038e-01 6.951941016011038e-01 0.000000000000000e+00
					-6.361194702510349e-01 6.361194702510349e-01 0.000000000000000e+00
					-5.213955762008279e-01 7.509753516011038e-01 0.000000000000000e+00
					-4.770896026882761e-01 6.679065796260349e-01 0.000000000000000e+00
					-6.361194702510349e-01 6.361194702510349e-01 0.000000000000000e+00
					-5.838955762008278e-01 5.838955762008278e-01 0.000000000000000e+00
					-4.770896026882761e-01 6.679065796260349e-01 0.000000000000000e+00
					-4.379216821506209e-01 5.983877637008279e-01 0.000000000000000e+00
					-5.838955762008278e-01 5.838955762008278e-01 0.000000000000000e+00
					-5.385224194504830e-01 5.385224194504830e-01 0.000000000000000e+00
					-4.379216821506209e-01 5.983877637008279e-01 0.000000000000000e+00
					-4.038918145878622e-01 5.424189038254830e-01 0.000000000000000e+00
					-5.385224194504830e-01 5.385224194504830e-01 0.000000000000000e+00
					-5.000000000000000e-01 5.000000000000000e-01 0.000000000000000e+00
					-4.038918145878622e-01 5.424189038254830e-01 0.000000000000000e+00
					-3.750000000000000e-01 5.000000000000000e-01 0.000000000000000e+00
					-7.500000000000000e-01 1.218750000000000e+00 0.000000000000000e+00
					-6.851418145878622e-01 1.081481403825483e+00 0.000000000000000e+00
					-5.000000000000000e-01 1.375000000000000e+00 0.000000000000000e+00
					-4.567612097252415e-01 1.201452106950483e+00 0.000000000000000e+00
					-6.851418145878622e-01 1.081481403825483e+00 0.000000000000000e+00
					-6.254216821506209e-01 9.577627637008279e-01 0.000000000000000e+00
					-4.567612097252415e-01 1.201452106950483e+00 0.000000000000000e+00
					-4.169477881004140e-01 1.046239326200828e+00 0.000000000000000e+00
					-6.254216821506209e-01 9.577627637008279e-01 0.000000000000000e+00
					-5.708396026882762e-01 8.475940796260348e-01 0.000000000000000e+00
					-4.169477881004140e-01 1.046239326200828e+00 0.000000000000000e+00
					-3.805597351255174e-01 9.093616577510348e-01 0.000000000000000e+00
					-5.708396026882762e-01 8.475940796260348e-01 0.000000000000000e+00
					-5.213955762008279e-01 7.509753516011038e-01 0.000000000000000e+00
					-3.805597351255174e-01 9.093616577510348e-01 0.000000000000000e+00
					-3.475970508005519e-01 7.908191016011039e-01 0.000000000000000e+00
					-5.213955762008279e-01 7.509753516011038e-01 0.000000000000000e+00
					-4.770896026882761e-01 6.679065796260349e-01 0.000000000000000e+00
					-3.475970508005519e-01 7.908191016011039e-01 0.000000000000000e+00
					-3.180597351255174e-01 6.906116577510349e-01 0.000000000000000e+00
					-4.770896026882761e-01 6.679065796260349e-01 0.000000000000000e+00
					-4.379216821506209e-01 5.983877637008279e-01 0.000000000000000e+00
					-3.180597351255174e-01 6.906116577510349e-01 0.000000000000000e+00
					-2.919477881004139e-01 6.087393262008278e-01 0.000000000000000e+00
					-4.379216821506209e-01 5.983877637008279e-01 0.000000000000000e+00
					-4.038918145878622e-01 5.424189038254830e-01 0.000000000000000e+00
					-2.919477881004139e-01 6.087393262008278e-01 0.000000000000000e+00
					-2.692612097252414e-01 5.452021069504830e-01 0.000000000000000e+00
					-4.038918145878622e-01 5.424189038254830e-01 0.000000000000000e+00
					-3.750000000000000e-01 5.000000000000000e-01 0.000000000000000e+00
					-2.692612097252414e-01 5.452021069504830e-01 0.000000000000000e+00
					-2.500000000000000e-01 5.000000000000000e-01 0.000000000000000e+00
					-5.000000000000000e-01 1.375000000000000e+00 0.000000000000000e+00
					-4.567612097252415e-01 1.201452106950483e+00 0.000000000000000e+00
					-2.500000000000000e-01 1.468750000000000e+00 0.000000000000000e+00
					-2.283806048626207e-01 1.273434528825483e+00 0.000000000000000e+00
					-4.567612097252415e-01 1.201452106950483e+00 0.000000000000000e+00
					-4.169477881004140e-01 1.046239326200828e+00 0.000000000000000e+00
					-2.283806048626207e-01 1.273434528825483e+00 0.000000000000000e+00
					-2.084738940502069e-01 1.099325263700828e+00 0.000000000000000e+00
					-4.169477881004140e-01 1.046239326200828e+00 0.000000000000000e+00
					-3.805597351255174e-01 9.093616577510348e-01 0.000000000000000e+00
					-2.084738940502069e-01 1.099325263700828e+00 0.000000000000000e+00
					-1.902798675627587e-01 9.464222046260349e-01 0.000000000000000e+00
					-3.805597351255174e-01 9.093616577510348e-01 0.000000000000000e+00
					-3.475970508005519e-01 7.908191016011039e-01 0.000000000000000e+00
					-1.902798675627587e-01 9.464222046260349e-01 0.000000000000000e+00
					-1.737985254002759e-01 8.147253516011038e-01 0.000000000000000e+00
					-3.475970508005519e-01 7.908191016011039e-01 0.000000000000000e+00
					-3.180597351255174e-01 6.906116577510349e-01 0.000000000000000e+00
					-1.737985254002759e-01 8.147253516011038e-01 0.000000000000000e+00
					-1.590298675627587e-01 7.042347046260348e-01 0.000000000000000e+00
					-3.180597351255174e-01 6.906116577510349e-01 0.000000000000000e+00
					-2.919477881004139e-01 6.087393262008278e-01 0.000000000000000e+00
					-1.590298675627587e-01 7.042347046260348e-01 0.000000000000000e+00
					-1.459738940502069e-01 6.149502637008278e-01 0.000000000000000e+00
					-2.919477881004139e-01 6.087393262008278e-01 0.000000000000000e+00
					-2.692612097252414e-01 5.452021069504830e-01 0.000000000000000e+00
					-1.459738940502069e-01 6.149502637008278e-01 0.000000000000000e+00
					-1.346306048626207e-01 5.468720288254830e-01 0.000000000000000e+00
					-2.692612097252414e-01 5.452021069504830e-01 0.000000000000000e+00
					-2.500000000000000e-01 5.000000000000000e-01 0.000000000000000e+00
					-1.346306048626207e-01 5.468720288254830e-01 0.000000000000000e+00
					-1.250000000000000e-01 5.000000000000000e-01 0.000000000000000e+00
					-2.500000000000000e-01 1.468750000000000e+00 0.000000000000000e+00
					-2.283806048626207e-01 1.273434528825483e+00 0.000000000000000e+00
					0.000000000000000e+00 1.500000000000000e+00 0.000000000000000e+00
					4.857225732735060e-17 1.297428669450483e+00 0.000000000000000e+00
					-2.283806048626207e-01 1.273434528825483e+00 0.000000000000000e+00
					-2.084738940502069e-01 1.099325263700828e+00 0.000000000000000e+00
					4.857225732735060e-17 1.297428669450483e+00 0.000000000000000e+00
					3.469446951953614e-17 1.117020576200828e+00 0.000000000000000e+00
					-2.084738940502069e-01 1.099325263700828e+00 0.000000000000000e+00
					-1.902798675627587e-01 9.464222046260349e-01 0.000000000000000e+00
					3.469446951953614e-17 1.117020576200828e+00 0.000000000000000e+00
					4.163336342344337e-17 9.587757202510350e-01 0.000000000000000e+00
					-1.902798675627587e-01 9.464222046260349e-01 0.000000000000000e+00
					-1.737985254002759e-01 8.147253516011038e-01 0.000000000000000e+00
					4.163336342344337e-17 9.587757202510350e-01 0.000000000000000e+00
					4.163336342344337e-17 8.226941016011039e-01 0.000000000000000e+00
					-1.737985254002759e-01 8.147253516011038e-01 0.000000000000000e+00
					-1.590298675627587e-01 7.042347046260348e-01 0.000000000000000e+00
					4.163336342344337e-17 8.226941016011039e-01 0.000000000000000e+00
					3.816391647148976e-17 7.087757202510349e-01 0.000000000000000e+00
					-1.590298675627587e-01 7.042347046260348e-01 0.000000000000000e+00
					-1.459738940502069e-01 6.149502637008278e-01 0.000000000000000e+00
					3.816391647148976e-17 7.087757202510349e-01 0.000000000000000e+00
					2.428612866367530e-17 6.170205762008278e-01 0.000000000000000e+00
					-1.459738940502069e-01 6.149502637008278e-01 0.000000000000000e+00
					-1.346306048626207e-01 5.468720288254830e-01 0.000000000000000e+00
					2.428612866367530e-17 6.170205762008278e-01 0.000000000000000e+00
					2.428612866367530e-17 5.474286694504830e-01 0.000000000000000e+00
					-1.346306048626207e-01 5.468720288254830e-01 0.000000000000000e+00
					-1.250000000000000e-01 5.000000000000000e-01 0.000000000000000e+00
					2.428612866367530e-17 5.474286694504830e-01 0.000000000000000e+00
					0.000000000000000e+00 5.000000000000000e-01 0.000000000000000e+00
					0.000000000000000e+00 1.500000000000000e+00 0.000000000000000e+00
					4.857225732735060e-17 1.297428669450483e+00 0.000000000000000e+00
					2.500000000000000e-01 1.468750000000000e+00 0.000000000000000e+00
					2.283806048626208e-01 1.273434528825483e+00 0.000000000000000e+00
					4.857225732735060e-17 1.297428669450483e+00 0.000000000000000e+00
					3.469446951953614e-17 1.117020576200828e+00 0.000000000000000e+00
					2.283806048626208e-01 1.273434528825483e+00 0.000000000000000e+00
					2.084738940502070e-01 1.099325263700828e+00 0.000000000000000e+00
					3.469446951953614e-17 1.117020576200828e+00 0.000000000000000e+00
					4.163336342344337e-17 9.587757202510350e-01 0.000000000000000e+00
					2.084738940502070e-01 1.099325263700828e+00 0.000000000000000e+00
					1.902798675627588e-01 9.464222046260349e-01 0.000000000000000e+00
					4.163336342344337e-17 9.587757202510350e-01 0.000000000000000e+00
					4.163336342344337e-17 8.226941016011039e-01 0.000000000000000e+00
					1.902798675627588e-01 9.464222046260349e-01 0.000000000000000e+00
					1.737985254002760e-01 8.147253516011039e-01 0.000000000000000e+00
					4.163336342344337e-17 8.226941016011039e-01 0.000000000000000e+00
					3.816391647148976e-17 7.087757202510349e-01 0.000000000000000e+00
					1.737985254002760e-01 8.147253516011039e-01 0.000000000000000e+00
					1.590298675627588e-01 7.042347046260349e-01 0.000000000000000e+00
					3.816391647148976e-17 7.087757202510349e-01 0.000000000000000e+00
					2.428612866367530e-17 6.170205762008278e-01 0.000000000000000e+00
					1.590298675627588e-01 7.042347046260349e-01 0.000000000000000e+00
					1.459738940502070e-01 6.149502637008278e-01 0.000000000000000e+00
					2.428612866367530e-17 6.170205762008278e-01 0.000000000000000e+00
					2.428612866367530e-17 5.474286694504830e-01 0.000000000000000e+00
					1.459738940502070e-01 6.149502637008278e-01 0.000000000000000e+00
					1.346306048626208e-01 5.468720288254829e-01 0.000000000000000e+00
					2.428612866367530e-17 5.474286694504830e-01 0.000000000000000e+00
					0.000000000000000e+00 5.000000000000000e-01 0.000000000000000e+00
					1.346306048626208e-01 5.468720288254829e-01 0.000000000000000e+00
					1.250000000000000e-01 5.000000000000000e-01 0.000000000000000e+00
					2.500000000000000e-01 1.468750000000000e+00 0.000000000000000e+00
					2.283806048626208e-01 1.273434528825483e+00 0.000000000000000e+00
					5.000000000000000e-01 1.375000000000000e+00 0.000000000000000e+00
					4.567612097252415e-01 1.201452106950483e+00 0.000000000000000e+00
					2.283806048626208e-01 1.273434528825483e+00 0.000000000000000e+00
					2.084738940502070e-01 1.099325263700828e+00 0.000000000000000e+00
					4.567612097252415e-01 1.201452106950483e+00 0.000000000000000e+00
					4.169477881004139e-01 1.046239326200828e+00 0.000000000000000e+00
					2.084738940502070e-01 1.099325263700828e+00 0.000000000000000e+00
					1.902798675627588e-01 9.464222046260349e-01 0.000000000000000e+00
					4.169477881004139e-01 1.046239326200828e+00 0.000000000000000e+00
					3.805597351255174e-01 9.093616577510348e-01 0.000000000000000e+00
					1.902798675627588e-01 9.464222046260349e-01 0.000000000000000e+00
					1.737985254002760e-01 8.147253516011039e-01 0.000000000000000e+00
					3.805597351255174e-01 9.093616577510348e-01 0.000000000000000e+00
					3.475970508005520e-01 7.908191016011039e-01 0.000000000000000e+00
					1.737985254002760e-01 8.147253516011039e-01 0.000000000000000e+00
					1.590298675627588e-01 7.042347046260349e-01 0.000000000000000e+00
					3.475970508005520e-01 7.908191016011039e-01 0.000000000000000e+00
					3.180597351255175e-01 6.906116577510348e-01 0.000000000000000e+00
					1.590298675627588e-01 7.042347046260349e-01 0.000000000000000e+00
					1.459738940502070e-01 6.149502637008278e-01 0.000000000000000e+00
					3.180597351255175e-01 6.906116577510348e-01 0.000000000000000e+00
					2.919477881004140e-01 6.087393262008278e-01 0.000000000000000e+00
					1.459738940502070e-01 6.149502637008278e-01 0.000000000000000e+00
					1.346306048626208e-01 5.468720288254829e-01 0.000000000000000e+00
					2.919477881004140e-01 6.087393262008278e-01 0.000000000000000e+00
					2.692612097252415e-01 5.452021069504829e-01 0.000000000000000e+00
					1.346306048626208e-01 5.468720288254829e-01 0.000000000000000e+00
					1.250000000000000e-01 5.000000000000000e-01 0.000000000000000e+00
					2.692612097252415e-01 5.452021069504829e-01 0.000000000000000e+00
					2.500000000000000e-01 5.000000000000000e-01 0.000000000000000e+00
					5.000000000000000e-01 1.375000000000000e+00 0.000000000000000e+00
					4.567612097252415e-01 1.201452106950483e+00 0.000000000000000e+00
					7.500000000000000e-01 1.218750000000000e+00 0.000000000000000e+00
					6.851418145878622e-01 1.081481403825483e+00 0.000000000000000e+00
					4.567612097252415e-01 1.201452106950483e+00 0.000000000000000e+00
					4.169477881004139e-01 1.046239326200828e+00 0.000000000000000e+00
					6.851418145878622e-01 1.081481403825483e+00 0.000000000000000e+00
					6.254216821506209e-01 9.577627637008279e-01 0.000000000000000e+00
					4.169477881004139e-01 1.046239326200828e+00 0.000000000000000e+00
					3.805597351255174e-01 9.093616577510348e-01 0.000000000000000e+00
					6.254216821506209e-01 9.577627637008279e-01 0.000000000000000e+00
					5.708396026882763e-01 8.475940796260351e-01 0.000000000000000e+00
					3.805597351255174e-01 9.093616577510348e-01 0.000000000000000e+00
					3.475970508005520e-01 7.908191016011039e-01 0.000000000000000e+00
					5.708396026882763e-01 8.475940796260351e-01 0.000000000000000e+00
					5.213955762008280e-01 7.509753516011040e-01 0.000000000000000e+00
					3.475970508005520e-01 7.908191016011039e-01 0.000000000000000e+00
					3.180597351255175e-01 6.906116577510348e-01 0.000000000000000e+00
					5.213955762008280e-01 7.509753516011040e-01 0.000000000000000e+00
					4.770896026882762e-01 6.679065796260348e-01 0.000000000000000e+00
					3.180597351255175e-01 6.906116577510348e-01 0.000000000000000e+00
					2.919477881004140e-01 6.087393262008278e-01 0.000000000000000e+00
					4.770896026882762e-01 6.679065796260348e-01 0.000000000000000e+00
					4.379216821506209e-01 5.983877637008279e-01 0.000000000000000e+00
					2.919477881004140e-01 6.087393262008278e-01 0.000000000000000e+00
					2.692612097252415e-01 5.452021069504829e-01 0.000000000000000e+00
					4.379216821506209e-01 5.983877637008279e-01 0.000000000000000e+00
					4.038918145878622e-01 5.424189038254830e-01 0.000000000000000e+00
					2.692612097252415e-01 5.452021069504829e-01 0.000000000000000e+00
					2.500000000000000e-01 5.000000000000000e-01 0.000000000000000e+00
					4.038918145878622e-01 5.424189038254830e-01 0.000000000000000e+00
					3.750000000000000e-01 5.000000000000000e-01 0.000000000000000e+00
					7.500000000000000e-01 1.218750000000000e+00 0.000000000000000e+00
					6.851418145878622e-01 1.081481403825483e+00 0.000000000000000e+00
					1.000000000000000e+00 1.000000000000000e+00 0.000000000000000e+00
					9.135224194504830e-01 9.135224194504830e-01 0.000000000000000e+00
					6.851418145878622e-01 1.081481403825483e+00 0.000000000000000e+00
					6.254216821506209e-01 9.577627637008279e-01 0.000000000000000e+00
					9.135224194504830e-01 9.135224194504830e-01 0.000000000000000e+00
					8.338955762008279e-01 8.338955762008279e-01 0.000000000000000e+00
					6.254216821506209e-01 9.577627637008279e-01 0.000000000000000e+00
					5.708396026882763e-01 8.475940796260351e-01 0.000000000000000e+00
					8.338955762008279e-01 8.338955762008279e-01 0.000000000000000e+00
					7.611194702510349e-01 7.611194702510349e-01 0.000000000000000e+00
					5.708396026882763e-01 8.475940796260351e-01 0.000000000000000e+00
					5.213955762008280e-01 7.509753516011040e-01 0.000000000000000e+00
					7.611194702510349e-01 7.611194702510349e-01 0.000000000000000e+00
					6.951941016011038e-01 6.951941016011038e-01 0.000000000000000e+00
					5.213955762008280e-01 7.509753516011040e-01 0.000000000000000e+00
					4.770896026882762e-01 6.679065796260348e-01 0.000000000000000e+00
					6.951941016011038e-01 6.951941016011038e-01 0.000000000000000e+00
					6.361194702510349e-01 6.361194702510349e-01 0.000000000000000e+00
					4.770896026882762e-01 6.679065796260348e-01 0.000000000000000e+00
					4.379216821506209e-01 5.983877637008279e-01 0.000000000000000e+00
					6.361194702510349e-01 6.361194702510349e-01 0.000000000000000e+00
					5.838955762008278e-01 5.838955762008278e-01 0.000000000000000e+00
					4.379216821506209e-01 5.983877637008279e-01 0.000000000000000e+00
					4.038918145878622e-01 5.424189038254830e-01 0.000000000000000e+00
					5.838955762008278e-01 5.838955762008278e-01 0.000000000000000e+00
					5.385224194504830e-01 5.385224194504830e-01 0.000000000000000e+00
					4.038918145878622e-01 5.424189038254830e-01 0.000000000000000e+00
					3.750000000000000e-01 5.000000000000000e-01 0.000000000000000e+00
					5.385224194504830e-01 5.385224194504830e-01 0.000000000000000e+00
					5.000000000000000e-01 5.000000000000000e-01 0.000000000000000e+00
				</DataArray>
			</Points>
			<Cells>
				<DataArray Name="connectivity" type="UInt32" format="ascii">
					0 1 3 2 4 5 7 6 8 9 11 10 12 13 15 14 16 17 19 18 20 21 23 22 24 25 27 26 28 29 31 30 32 33 35 34 36 37 39 38 40 41 43 42 44 45 47 46 48 49 51 50 52 53 55 54 56 57 59 58 60 61 63 62 64 65 67 66 68 69 71 70 72 73 75 74 76 77 79 78 80 81 83 82 84 85 87 86 88 89 91 90 92 93 95 94 96 97 99 98 100 101 103 102 104 105 107 106 108 109 111 110 112 113 115 114 116 117 119 118 120 121 123 122 124 125 127 126 128 129 131 130 132 133 135 134 136 137 139 138 140 141 143 142 144 145 147 146 148 149 151 150 152 153 155 154 156 157 159 158 160 161 163 162 164 165 167 166 168 169 171 170 172 173 175 174 176 177 179 178 180 181 183 182 184 185 187 186 188 189 191 190 192 193 195 194 196 197 199 198 200 201 203 202 204 205 207 206 208 209 211 210 212 213 215 214 216 217 219 218 220 221 223 222 224 225 227 226 228 229 231 230 232 233 235 234 236 237 239 238 240 241 243 242 244 245 247 246 248 249 251 250 252 253 255 254 
				</DataArray>
				<DataArray Name="offsets" type="UInt32" format="ascii">
					4 8 12 16 20 24 28 32 36 40 44 48 52 56 60 64 68 72 76 80 84 88 92 96 100 104 108 112 116 120 124 128 132 136 140 144 148 152 156 160 164 168 172 176 180 184 188 192 196 200 204 208 212 216 220 224 228 232 236 240 244 248 252 256 
				</DataArray>
				<DataArray Name="types" type="UInt8" format="ascii">
					9 9 9 9 9 9 9 9 9 9 9 9 9 9 9 9 9 9 9 9 9 9 9 9 9 9 9 9 9 9 9 9 9 9 9 9 9 9 9 9 9 9 9 9 9 9 9 9 9 9 9 9 9 9 9 9 9 9 9 9 9 9 9 9 
				</DataArray>
			</Cells>
			<PointData Vectors="solution ">
				<DataArray Name="solution" type="Float64" NumberOfComponents="1" format="ascii">
					0.000000000000000e+00 9.190780716148654e-02 0.000000000000000e+00 1.674835275669271e-01 9.190780716148655e-02 5.838884722786760e-01 1.674835275669272e-01 1.229965121186745e+00 5.838884722786761e-01 1.635734722066976e+00 1.229965121186746e+00 3.553257831819759e+00 1.635734722066977e+00 3.231570609924250e+00 3.553257831819759e+00 6.746583300598095e+00 3.231570609924251e+00 5.248158836960497e+00 6.746583300598096e+00 1.020719286525460e+01 5.248158836960499e+00 7.509762670889464e+00 1.020719286525460e+01 1.347449846637616e+01 7.509762670889465e+00 9.820280769127020e+00 1.347449846637616e+01 1.628454298540465e+01 9.820280769127020e+00 1.197795214537531e+01 1.628454298540465e+01 1.853299569318876e+01 0.000000000000000e+00 1.674835275669272e-01 0.000000000000000e+00 3.064575647054606e-01 1.674835275669272e-01 1.229965121186746e+00 3.064575647054607e-01 2.425599855808648e+00 1.229965121186746e+00 3.553257831819759e+00 2.425599855808649e+00 6.753688878576414e+00 3.553257831819760e+00 6.746583300598096e+00 6.753688878576415e+00 1.208859353357910e+01 6.746583300598097e+00 1.020719286525460e+01 1.208859353357911e+01 1.711492873252743e+01 1.020719286525461e+01 1.347449846637616e+01 1.711492873252743e+01 2.113943536060743e+01 1.347449846637616e+01 1.628454298540465e+01 2.113943536060743e+01 2.403463127488238e+01 1.628454298540465e+01 1.853299569318877e+01 2.403463127488238e+01 2.598208229627044e+01 0.000000000000000e+00 3.064575647054607e-01 0.000000000000000e+00 5.590850450201104e-01 3.064575647054607e-01 2.425599855808649e+00 5.590850450201104e-01 4.062523732365360e+00 2.425599855808649e+00 6.753688878576415e+00 4.062523732365360e+00 1.071492739506001e+01 6.753688878576415e+00 1.208859353357911e+01 1.071492739506001e+01 1.823984441919542e+01 1.208859353357911e+01 1.711492873252743e+01 1.823984441919542e+01 2.459789160602968e+01 1.711492873252743e+01 2.113943536060743e+01 2.459789160602969e+01 2.903268137708613e+01 2.113943536060743e+01 2.403463127488239e+01 2.903268137708614e+01 3.171778011335577e+01 2.403463127488239e+01 2.598208229627045e+01 3.171778011335578e+01 3.318096391683569e+01 0.000000000000000e+00 5.590850450201104e-01 0.000000000000000e+00 8.008676061275426e-01 5.590850450201105e-01 4.062523732365360e+00 8.008676061275426e-01 5.530470844772255e+00 4.062523732365362e+00 1.071492739506001e+01 5.530470844772255e+00 1.411808952290116e+01 1.071492739506001e+01 1.823984441919542e+01 1.411808952290117e+01 2.335099318004551e+01 1.823984441919542e+01 2.459789160602969e+01 2.335099318004551e+01 3.065952801463470e+01 2.459789160602969e+01 2.903268137708614e+01 3.065952801463470e+01 3.532792915659116e+01 2.903268137708614e+01 3.171778011335578e+01 3.532792915659116e+01 3.781276404946439e+01 3.171778011335578e+01 3.318096391683569e+01 3.781276404946439e+01 3.891071211286392e+01 0.000000000000000e+00 8.008676061275426e-01 0.000000000000000e+00 8.603561253494334e-01 8.008676061275428e-01 5.530470844772255e+00 8.603561253494335e-01 6.090876028223922e+00 5.530470844772256e+00 1.411808952290116e+01 6.090876028223922e+00 1.551938792791742e+01 1.411808952290117e+01 2.335099318004551e+01 1.551938792791742e+01 2.555305469434791e+01 2.335099318004551e+01 3.065952801463470e+01 2.555305469434791e+01 3.341500413189396e+01 3.065952801463470e+01 3.532792915659116e+01 3.341500413189396e+01 3.836567252463015e+01 3.532792915659117e+01 3.781276404946439e+01 3.836567252463015e+01 4.095082187133558e+01 3.781276404946440e+01 3.891071211286392e+01 4.095082187133558e+01 4.204543064605624e+01 0.000000000000000e+00 8.603561253494335e-01 0.000000000000000e+00 7.301450254250241e-01 8.603561253494335e-01 6.090876028223922e+00 7.301450254250241e-01 5.470645182610386e+00 6.090876028223922e+00 1.551938792791742e+01 5.470645182610386e+00 1.421219010021033e+01 1.551938792791742e+01 2.555305469434791e+01 1.421219010021033e+01 2.385263285986596e+01 2.555305469434791e+01 3.341500413189396e+01 2.385263285986596e+01 3.187515172968200e+01 3.341500413189397e+01 3.836567252463015e+01 3.187515172968201e+01 3.735565221861383e+01 3.836567252463016e+01 4.095082187133559e+01 3.735565221861383e+01 4.052115797489513e+01 4.095082187133560e+01 4.204543064605625e+01 4.052115797489514e+01 4.213237351073273e+01 0.000000000000000e+00 7.301450254250241e-01 0.000000000000000e+00 6.460226694660340e-01 7.301450254250242e-01 5.470645182610386e+00 6.460226694660340e-01 4.221470451009377e+00 5.470645182610387e+00 1.421219010021033e+01 4.221470451009377e+00 1.084556772813804e+01 1.421219010021033e+01 2.385263285986596e+01 1.084556772813804e+01 1.868092804514653e+01 2.385263285986596e+01 3.187515172968201e+01 1.868092804514654e+01 2.608932137326167e+01 3.187515172968201e+01 3.735565221861383e+01 2.608932137326167e+01 3.213529965767765e+01 3.735565221861383e+01 4.052115797489514e+01 3.213529965767766e+01 3.640344312040229e+01 4.052115797489514e+01 4.213237351073274e+01 3.640344312040229e+01 3.900213999607822e+01 0.000000000000000e+00 6.460226694660340e-01 0.000000000000000e+00 7.076518984571749e-01 6.460226694660340e-01 4.221470451009377e+00 7.076518984571750e-01 3.090500634015626e+00 4.221470451009377e+00 1.084556772813804e+01 3.090500634015627e+00 7.080490373886649e+00 1.084556772813804e+01 1.868092804514654e+01 7.080490373886651e+00 1.221343752269424e+01 1.868092804514654e+01 2.608932137326167e+01 1.221343752269424e+01 1.788925651613233e+01 2.608932137326167e+01 3.213529965767766e+01 1.788925651613233e+01 2.352166312652653e+01 3.213529965767766e+01 3.640344312040230e+01 2.352166312652653e+01 2.858342431578627e+01 3.640344312040230e+01 3.900213999607822e+01 2.858342431578627e+01 3.259976479758327e+01 
				</DataArray>
			</PointData>
			<CellData>
			</CellData>
		</Piece>
	</UnstructuredGrid>
</VTKFile>