<?xml version="1.0"?>
<VTKFile type="UnstructuredGrid" byte_order="LittleEndian">
	<UnstructuredGrid>
		<Piece NumberOfPoints="64" NumberOfCells="16">
			<Points>
				<DataArray type="Float64" NumberOfComponents="3" format="ascii">
					0.000000000000000e+00 0.000000000000000e+00 0.000000000000000e+00
					0.000000000000000e+00 -2.499999999892188e-01 0.000000000000000e+00
					2.499999999765626e-01 2.499999999892188e-01 0.000000000000000e+00
					2.499999999765626e-01 -1.445312499937672e-01 0.000000000000000e+00
					0.000000000000000e+00 -2.499999999892188e-01 0.000000000000000e+00
					0.000000000000000e+00 -4.999999999737501e-01 0.000000000000000e+00
					2.499999999765626e-01 -1.445312499937672e-01 0.000000000000000e+00
					2.499999999765626e-01 -4.687499999750978e-01 0.000000000000000e+00
					0.000000000000000e+00 -4.999999999737501e-01 0.000000000000000e+00
					0.000000000000000e+00 -7.499999999714062e-01 0.000000000000000e+00
					2.499999999765626e-01 -4.687499999750978e-01 0.000000000000000e+00
					2.499999999765626e-01 -7.460937499715747e-01 0.000000000000000e+00
					0.000000000000000e+00 -7.499999999714062e-01 0.000000000000000e+00
					0.000000000000000e+00 -1.000000000000000e+00 0.000000000000000e+00
					2.499999999765626e-01 -7.460937499715747e-01 0.000000000000000e+00
					2.499999999765626e-01 -1.000000000000000e+00 0.000000000000000e+00
					2.499999999765626e-01 2.499999999892188e-01 0.000000000000000e+00
					2.499999999765626e-01 -1.445312499937672e-01 0.000000000000000e+00
					4.999999999625001e-01 4.999999999737501e-01 0.000000000000000e+00
					4.999999999625001e-01 -3.906250000029304e-02 0.000000000000000e+00
					2.499999999765626e-01 -1.445312499937672e-01 0.000000000000000e+00
					2.499999999765626e-01 -4.687499999750978e-01 0.000000000000000e+00
					4.999999999625001e-01 -3.906250000029304e-02 0.000000000000000e+00
					4.999999999625001e-01 -4.374999999770314e-01 0.000000000000000e+00
					2.499999999765626e-01 -4.687499999750978e-01 0.000000000000000e+00
					2.499999999765626e-01 -7.460937499715747e-01 0.000000000000000e+00
					4.999999999625001e-01 -4.374999999770314e-01 0.000000000000000e+00
					4.999999999625001e-01 -7.421874999718165e-01 0.000000000000000e+00
					2.499999999765626e-01 -7.460937499715747e-01 0.000000000000000e+00
					2.499999999765626e-01 -1.000000000000000e+00 0.000000000000000e+00
					4.999999999625001e-01 -7.421874999718165e-01 0.000000000000000e+00
					4.999999999625001e-01 -1.000000000000000e+00 0.000000000000000e+00
					4.999999999625001e-01 4.999999999737501e-01 0.000000000000000e+00
					4.999999999625001e-01 -3.906250000029304e-02 0.000000000000000e+00
					7.499999999671876e-01 7.499999999714062e-01 0.000000000000000e+00
					7.499999999671876e-01 6.640624999871819e-02 0.000000000000000e+00
					4.999999999625001e-01 -3.906250000029304e-02 0.000000000000000e+00
					4.999999999625001e-01 -4.374999999770314e-01 0.000000000000000e+00
					7.499999999671876e-01 6.640624999871819e-02 0.000000000000000e+00
					7.499999999671876e-01 -4.062499999773244e-01 0.000000000000000e+00
					4.999999999625001e-01 -4.374999999770314e-01 0.000000000000000e+00
					4.999999999625001e-01 -7.421874999718165e-01 0.000000000000000e+00
					7.499999999671876e-01 -4.062499999773244e-01 0.000000000000000e+00
					7.499999999671876e-01 -7.382812499718530e-01 0.000000000000000e+00
					4.999999999625001e-01 -7.421874999718165e-01 0.000000000000000e+00
					4.999999999625001e-01 -1.000000000000000e+00 0.000000000000000e+00
					7.499999999671876e-01 -7.382812499718530e-01 0.000000000000000e+00
					7.499999999671876e-01 -1.000000000000000e+00 0.000000000000000e+00
					7.499999999671876e-01 7.499999999714062e-01 0.000000000000000e+00
					7.499999999671876e-01 6.640624999871819e-02 0.000000000000000e+00
					1.000000000000000e+00 1.000000000000000e+00 0.000000000000000e+00
					1.000000000000000e+00 1.718750000107812e-01 0.000000000000000e+00
					7.499999999671876e-01 6.640624999871819e-02 0.000000000000000e+00
					7.499999999671876e-01 -4.062499999773244e-01 0.000000000000000e+00
					1.000000000000000e+00 1.718750000107812e-01 0.000000000000000e+00
					1.000000000000000e+00 -3.749999999737501e-01 0.000000000000000e+00
					7.499999999671876e-01 -4.062499999773244e-01 0.000000000000000e+00
					7.499999999671876e-01 -7.382812499718530e-01 0.000000000000000e+00
					1.000000000000000e+00 -3.749999999737501e-01 0.000000000000000e+00
					1.000000000000000e+00 -7.343749999714062e-01 0.000000000000000e+00
					7.499999999671876e-01 -7.382812499718530e-01 0.000000000000000e+00
					7.499999999671876e-01 -1.000000000000000e+00 0.000000000000000e+00
					1.000000000000000e+00 -7.343749999714062e-01 0.000000000000000e+00
					1.000000000000000e+00 -1.000000000000000e+00 0.000000000000000e+00
				</DataArray>
			</Points>
			<Cells>
				<DataArray Name="connectivity" type="UInt32" format="ascii">
					0 1 3 2 4 5 7 6 8 9 11 10 12 13 15 14 16 17 19 18 20 21 23 22 24 25 27 26 28 29 31 30 32 33 35 34 36 37 39 38 40 41 43 42 44 45 47 46 48 49 51 50 52 53 55 54 56 57 59 58 60 61 63 62 
				</DataArray>
				<DataArray Name="offsets" type="UInt32" format="ascii">
					4 8 12 16 20 24 28 32 36 40 44 48 52 56 60 64 
				</DataArray>
				<DataArray Name="types" type="UInt8" format="ascii">
					9 9 9 9 9 9 9 9 9 9 9 9 9 9 9 9 
				</DataArray>
			</Cells>
			<PointData Vectors="solution ">
				<DataArray Name="solution" type="Float64" NumberOfComponents="1" format="ascii">
					0.000000000000000e+00 0.000000000000000e+00 3.839341452105430e-02 1.234992939444950e-02 0.000000000000000e+00 0.000000000000000e+00 1.234992939444950e-02 7.365981573293995e-02 0.000000000000000e+00 0.000000000000000e+00 7.365981573293995e-02 6.011387241130180e-02 0.000000000000000e+00 0.000000000000000e+00 6.011387241130180e-02 0.000000000000000e+00 3.839341452105430e-02 1.234992939444950e-02 1.934700416109720e-01 4.510939598938952e-03 1.234992939444950e-02 7.365981573293995e-02 4.510939598938952e-03 1.764537692289282e-01 7.365981573293995e-02 6.011387241130180e-02 1.764537692289282e-01 1.562822597873520e-01 6.011387241130180e-02 0.000000000000000e+00 1.562822597873520e-01 0.000000000000000e+00 1.934700416109720e-01 4.510939598938952e-03 1.187999720799558e-01 4.151599310652425e-03 4.510939598938952e-03 1.764537692289282e-01 4.151599310652425e-03 1.241081018042592e-01 1.764537692289282e-01 1.562822597873520e-01 1.241081018042592e-01 1.214222492970273e-01 1.562822597873520e-01 0.000000000000000e+00 1.214222492970273e-01 0.000000000000000e+00 1.187999720799558e-01 4.151599310652425e-03 0.000000000000000e+00 0.000000000000000e+00 4.151599310652425e-03 1.241081018042592e-01 0.000000000000000e+00 0.000000000000000e+00 1.241081018042592e-01 1.214222492970273e-01 0.000000000000000e+00 0.000000000000000e+00 1.214222492970273e-01 0.000000000000000e+00 0.000000000000000e+00 0.000000000000000e+00 
				</DataArray>
			</PointData>
			<CellData>
			</CellData>
		</Piece>
	</UnstructuredGrid>
</VTKFile>