<?xml version="1.0"?>
<VTKFile type="UnstructuredGrid" byte_order="LittleEndian">
	<UnstructuredGrid>
		<Piece NumberOfPoints="64" NumberOfCells="16">
			<Points>
				<DataArray type="Float64" NumberOfComponents="3" format="ascii">
					-1.000000000000000e+00 0.000000000000000e+00 0.000000000000000e+00
					-7.499999999671876e-01 0.000000000000000e+00 0.000000000000000e+00
					-1.000000000000000e+00 2.499999999765626e-01 0.000000000000000e+00
					-7.460937499675537e-01 2.499999999765626e-01 0.000000000000000e+00
					-7.499999999671876e-01 0.000000000000000e+00 0.000000000000000e+00
					-4.999999999625000e-01 0.000000000000000e+00 0.000000000000000e+00
					-7.460937499675537e-01 2.499999999765626e-01 0.000000000000000e+00
					-4.687499999654298e-01 2.499999999765626e-01 0.000000000000000e+00
					-4.999999999625000e-01 0.000000000000000e+00 0.000000000000000e+00
					-2.499999999765625e-01 0.000000000000000e+00 0.000000000000000e+00
					-4.687499999654298e-01 2.499999999765626e-01 0.000000000000000e+00
					-1.445312499864502e-01 2.499999999765626e-01 0.000000000000000e+00
					-2.499999999765625e-01 0.000000000000000e+00 0.000000000000000e+00
					0.000000000000000e+00 0.000000000000000e+00 0.000000000000000e+00
					-1.445312499864502e-01 2.499999999765626e-01 0.000000000000000e+00
					2.499999999765626e-01 2.499999999765626e-01 0.000000000000000e+00
					-1.000000000000000e+00 2.499999999765626e-01 0.000000000000000e+00
					-7.460937499675537e-01 2.499999999765626e-01 0.000000000000000e+00
					-1.000000000000000e+00 4.999999999625001e-01 0.000000000000000e+00
					-7.421874999677737e-01 4.999999999625001e-01 0.000000000000000e+00
					-7.460937499675537e-01 2.499999999765626e-01 0.000000000000000e+00
					-4.687499999654298e-01 2.499999999765626e-01 0.000000000000000e+00
					-7.421874999677737e-01 4.999999999625001e-01 0.000000000000000e+00
					-4.374999999671876e-01 4.999999999625001e-01 0.000000000000000e+00
					-4.687499999654298e-01 2.499999999765626e-01 0.000000000000000e+00
					-1.445312499864502e-01 2.499999999765626e-01 0.000000000000000e+00
					-4.374999999671876e-01 4.999999999625001e-01 0.000000000000000e+00
					-3.906249999238282e-02 4.999999999625001e-01 0.000000000000000e+00
					-1.445312499864502e-01 2.499999999765626e-01 0.000000000000000e+00
					2.499999999765626e-01 2.499999999765626e-01 0.000000000000000e+00
					-3.906249999238282e-02 4.999999999625001e-01 0.000000000000000e+00
					4.999999999625001e-01 4.999999999625001e-01 0.000000000000000e+00
					-1.000000000000000e+00 4.999999999625001e-01 0.000000000000000e+00
					-7.421874999677737e-01 4.999999999625001e-01 0.000000000000000e+00
					-1.000000000000000e+00 7.499999999671876e-01 0.000000000000000e+00
					-7.382812499677003e-01 7.499999999671876e-01 0.000000000000000e+00
					-7.421874999677737e-01 4.999999999625001e-01 0.000000000000000e+00
					-4.374999999671876e-01 4.999999999625001e-01 0.000000000000000e+00
					-7.382812499677003e-01 7.499999999671876e-01 0.000000000000000e+00
					-4.062499999666016e-01 7.499999999671876e-01 0.000000000000000e+00
					-4.374999999671876e-01 4.999999999625001e-01 0.000000000000000e+00
					-3.906249999238282e-02 4.999999999625001e-01 0.000000000000000e+00
					-4.062499999666016e-01 7.499999999671876e-01 0.000000000000000e+00
					6.640625000959474e-02 7.499999999671876e-01 0.000000000000000e+00
					-3.906249999238282e-02 4.999999999625001e-01 0.000000000000000e+00
					4.999999999625001e-01 4.999999999625001e-01 0.000000000000000e+00
					6.640625000959474e-02 7.499999999671876e-01 0.000000000000000e+00
					7.499999999671876e-01 7.499999999671876e-01 0.000000000000000e+00
					-1.000000000000000e+00 7.499999999671876e-01 0.000000000000000e+00
					-7.382812499677003e-01 7.499999999671876e-01 0.000000000000000e+00
					-1.000000000000000e+00 1.000000000000000e+00 0.000000000000000e+00
					-7.343749999671876e-01 1.000000000000000e+00 0.000000000000000e+00
					-7.382812499677003e-01 7.499999999671876e-01 0.000000000000000e+00
					-4.062499999666016e-01 7.499999999671876e-01 0.000000000000000e+00
					-7.343749999671876e-01 1.000000000000000e+00 0.000000000000000e+00
					-3.749999999625000e-01 1.000000000000000e+00 0.000000000000000e+00
					-4.062499999666016e-01 7.499999999671876e-01 0.000000000000000e+00
					6.640625000959474e-02 7.499999999671876e-01 0.000000000000000e+00
					-3.749999999625000e-01 1.000000000000000e+00 0.000000000000000e+00
					1.718750000234375e-01 1.000000000000000e+00 0.000000000000000e+00
					6.640625000959474e-02 7.499999999671876e-01 0.000000000000000e+00
					7.499999999671876e-01 7.499999999671876e-01 0.000000000000000e+00
					1.718750000234375e-01 1.000000000000000e+00 0.000000000000000e+00
					1.000000000000000e+00 1.000000000000000e+00 0.000000000000000e+00
				</DataArray>
			</Points>
			<Cells>
				<DataArray Name="connectivity" type="UInt32" format="ascii">
					0 1 3 2 4 5 7 6 8 9 11 10 12 13 15 14 16 17 19 18 20 21 23 22 24 25 27 26 28 29 31 30 32 33 35 34 36 37 39 38 40 41 43 42 44 45 47 46 48 49 51 50 52 53 55 54 56 57 59 58 60 61 63 62 
				</DataArray>
				<DataArray Name="offsets" type="UInt32" format="ascii">
					4 8 12 16 20 24 28 32 36 40 44 48 52 56 60 64 
				</DataArray>
				<DataArray Name="types" type="UInt8" format="ascii">
					9 9 9 9 9 9 9 9 9 9 9 9 9 9 9 9 
				</DataArray>
			</Cells>
			<PointData Vectors="solution ">
				<DataArray Name="solution" type="Float64" NumberOfComponents="1" format="ascii">
					0.000000000000000e+00 0.000000000000000e+00 0.000000000000000e+00 6.007265308535070e-02 0.000000000000000e+00 0.000000000000000e+00 6.007265308535070e-02 7.338781770199918e-02 0.000000000000000e+00 0.000000000000000e+00 7.338781770199918e-02 1.099690936940415e-02 0.000000000000000e+00 0.000000000000000e+00 1.099690936940415e-02 3.114798242363074e-02 0.000000000000000e+00 6.007265308535070e-02 0.000000000000000e+00 1.561894530747892e-01 6.007265308535070e-02 7.338781770199918e-02 1.561894530747892e-01 1.758324438619086e-01 7.338781770199918e-02 1.099690936940415e-02 1.758324438619086e-01 1.881522423996484e-03 1.099690936940415e-02 3.114798242363074e-02 1.881522423996484e-03 2.089675380631443e-01 0.000000000000000e+00 1.561894530747892e-01 0.000000000000000e+00 1.213807584267615e-01 1.561894530747892e-01 1.758324438619086e-01 1.213807584267615e-01 1.237864615717593e-01 1.758324438619086e-01 1.881522423996484e-03 1.237864615717593e-01 3.673660200342192e-03 1.881522423996484e-03 2.089675380631443e-01 3.673660200342192e-03 1.266160715058659e-01 0.000000000000000e+00 1.213807584267615e-01 0.000000000000000e+00 0.000000000000000e+00 1.213807584267615e-01 1.237864615717593e-01 0.000000000000000e+00 0.000000000000000e+00 1.237864615717593e-01 3.673660200342192e-03 0.000000000000000e+00 0.000000000000000e+00 3.673660200342192e-03 1.266160715058659e-01 0.000000000000000e+00 0.000000000000000e+00 
				</DataArray>
			</PointData>
			<CellData>
			</CellData>
		</Piece>
	</UnstructuredGrid>
</VTKFile>