<?xml version="1.0"?>
<VTKFile type="UnstructuredGrid" byte_order="LittleEndian">
	<UnstructuredGrid>
		<Piece NumberOfPoints="256" NumberOfCells="64">
			<Points>
				<DataArray type="Float64" NumberOfComponents="3" format="ascii">
					0.000000000000000e+00 0.000000000000000e+00 0.000000000000000e+00
					0.000000000000000e+00 -1.249999999963086e-01 0.000000000000000e+00
					1.249999999876953e-01 1.249999999963086e-01 0.000000000000000e+00
					1.249999999876954e-01 -4.125976562378157e-02 0.000000000000000e+00
					0.000000000000000e+00 -1.249999999963086e-01 0.000000000000000e+00
					0.000000000000000e+00 -2.499999999892188e-01 0.000000000000000e+00
					1.249999999876954e-01 -4.125976562378157e-02 0.000000000000000e+00
					1.249999999876954e-01 -1.972656249907761e-01 0.000000000000000e+00
					0.000000000000000e+00 -2.499999999892188e-01 0.000000000000000e+00
					0.000000000000000e+00 -3.749999999809571e-01 0.000000000000000e+00
					1.249999999876954e-01 -1.972656249907761e-01 0.000000000000000e+00
					1.249999999876954e-01 -3.444824218568583e-01 0.000000000000000e+00
					0.000000000000000e+00 -3.749999999809571e-01 0.000000000000000e+00
					0.000000000000000e+00 -4.999999999737501e-01 0.000000000000000e+00
					1.249999999876954e-01 -3.444824218568583e-01 0.000000000000000e+00
					1.249999999876954e-01 -4.843749999742116e-01 0.000000000000000e+00
					0.000000000000000e+00 -4.999999999737501e-01 0.000000000000000e+00
					0.000000000000000e+00 -6.249999999698244e-01 0.000000000000000e+00
					1.249999999876954e-01 -4.843749999742116e-01 0.000000000000000e+00
					1.249999999876954e-01 -6.184082030950191e-01 0.000000000000000e+00
					0.000000000000000e+00 -6.249999999698244e-01 0.000000000000000e+00
					0.000000000000000e+00 -7.499999999714063e-01 0.000000000000000e+00
					1.249999999876954e-01 -6.184082030950191e-01 0.000000000000000e+00
					1.249999999876953e-01 -7.480468749714642e-01 0.000000000000000e+00
					0.000000000000000e+00 -7.499999999714063e-01 0.000000000000000e+00
					0.000000000000000e+00 -8.749999999807226e-01 0.000000000000000e+00
					1.249999999876953e-01 -7.480468749714642e-01 0.000000000000000e+00
					1.249999999876953e-01 -8.747558593557299e-01 0.000000000000000e+00
					0.000000000000000e+00 -8.749999999807226e-01 0.000000000000000e+00
					0.000000000000000e+00 -1.000000000000000e+00 0.000000000000000e+00
					1.249999999876953e-01 -8.747558593557299e-01 0.000000000000000e+00
					1.249999999876953e-01 -1.000000000000000e+00 0.000000000000000e+00
					1.249999999876953e-01 1.249999999963086e-01 0.000000000000000e+00
					1.249999999876954e-01 -4.125976562378157e-02 0.000000000000000e+00
					2.499999999765626e-01 2.499999999892188e-01 0.000000000000000e+00
					2.499999999765626e-01 4.248046874646880e-02 0.000000000000000e+00
					1.249999999876954e-01 -4.125976562378157e-02 0.000000000000000e+00
					1.249999999876954e-01 -1.972656249907761e-01 0.000000000000000e+00
					2.499999999765626e-01 4.248046874646880e-02 0.000000000000000e+00
					2.499999999765626e-01 -1.445312499937672e-01 0.000000000000000e+00
					1.249999999876954e-01 -1.972656249907761e-01 0.000000000000000e+00
					1.249999999876954e-01 -3.444824218568583e-01 0.000000000000000e+00
					2.499999999765626e-01 -1.445312499937672e-01 0.000000000000000e+00
					2.499999999765626e-01 -3.139648437335893e-01 0.000000000000000e+00
					1.249999999876954e-01 -3.444824218568583e-01 0.000000000000000e+00
					1.249999999876954e-01 -4.843749999742116e-01 0.000000000000000e+00
					2.499999999765626e-01 -3.139648437335893e-01 0.000000000000000e+00
					2.499999999765626e-01 -4.687499999750979e-01 0.000000000000000e+00
					1.249999999876954e-01 -4.843749999742116e-01 0.000000000000000e+00
					1.249999999876954e-01 -6.184082030950191e-01 0.000000000000000e+00
					2.499999999765626e-01 -4.687499999750979e-01 0.000000000000000e+00
					2.499999999765626e-01 -6.118164062203930e-01 0.000000000000000e+00
					1.249999999876954e-01 -6.184082030950191e-01 0.000000000000000e+00
					1.249999999876953e-01 -7.480468749714642e-01 0.000000000000000e+00
					2.499999999765626e-01 -6.118164062203930e-01 0.000000000000000e+00
					2.499999999765625e-01 -7.460937499715750e-01 0.000000000000000e+00
					1.249999999876953e-01 -7.480468749714642e-01 0.000000000000000e+00
					1.249999999876953e-01 -8.747558593557299e-01 0.000000000000000e+00
					2.499999999765625e-01 -7.460937499715750e-01 0.000000000000000e+00
					2.499999999765625e-01 -8.745117187307437e-01 0.000000000000000e+00
					1.249999999876953e-01 -8.747558593557299e-01 0.000000000000000e+00
					1.249999999876953e-01 -1.000000000000000e+00 0.000000000000000e+00
					2.499999999765625e-01 -8.745117187307437e-01 0.000000000000000e+00
					2.499999999765626e-01 -1.000000000000000e+00 0.000000000000000e+00
					2.499999999765626e-01 2.499999999892188e-01 0.000000000000000e+00
					2.499999999765626e-01 4.248046874646880e-02 0.000000000000000e+00
					3.749999999677735e-01 3.749999999809571e-01 0.000000000000000e+00
					3.749999999677737e-01 1.262207031159341e-01 0.000000000000000e+00
					2.499999999765626e-01 4.248046874646880e-02 0.000000000000000e+00
					2.499999999765626e-01 -1.445312499937672e-01 0.000000000000000e+00
					3.749999999677737e-01 1.262207031159341e-01 0.000000000000000e+00
					3.749999999677737e-01 -9.179687499725256e-02 0.000000000000000e+00
					2.499999999765626e-01 -1.445312499937672e-01 0.000000000000000e+00
					2.499999999765626e-01 -3.139648437335893e-01 0.000000000000000e+00
					3.749999999677737e-01 -9.179687499725256e-02 0.000000000000000e+00
					3.749999999677737e-01 -2.834472656106062e-01 0.000000000000000e+00
					2.499999999765626e-01 -3.139648437335893e-01 0.000000000000000e+00
					2.499999999765626e-01 -4.687499999750979e-01 0.000000000000000e+00
					3.749999999677737e-01 -2.834472656106062e-01 0.000000000000000e+00
					3.749999999677737e-01 -4.531249999761305e-01 0.000000000000000e+00
					2.499999999765626e-01 -4.687499999750979e-01 0.000000000000000e+00
					2.499999999765626e-01 -6.118164062203930e-01 0.000000000000000e+00
					3.749999999677737e-01 -4.531249999761305e-01 0.000000000000000e+00
					3.749999999677737e-01 -6.052246093458287e-01 0.000000000000000e+00
					2.499999999765626e-01 -6.118164062203930e-01 0.000000000000000e+00
					2.499999999765625e-01 -7.460937499715750e-01 0.000000000000000e+00
					3.749999999677737e-01 -6.052246093458287e-01 0.000000000000000e+00
					3.749999999677735e-01 -7.441406249717041e-01 0.000000000000000e+00
					2.499999999765625e-01 -7.460937499715750e-01 0.000000000000000e+00
					2.499999999765625e-01 -8.745117187307437e-01 0.000000000000000e+00
					3.749999999677735e-01 -7.441406249717041e-01 0.000000000000000e+00
					3.749999999677735e-01 -8.742675781057599e-01 0.000000000000000e+00
					2.499999999765625e-01 -8.745117187307437e-01 0.000000000000000e+00
					2.499999999765626e-01 -1.000000000000000e+00 0.000000000000000e+00
					3.749999999677735e-01 -8.742675781057599e-01 0.000000000000000e+00
					3.749999999677735e-01 -1.000000000000000e+00 0.000000000000000e+00
					3.749999999677735e-01 3.749999999809571e-01 0.000000000000000e+00
					3.749999999677737e-01 1.262207031159341e-01 0.000000000000000e+00
					4.999999999625001e-01 4.999999999737501e-01 0.000000000000000e+00
					4.999999999625002e-01 2.099609374861059e-01 0.000000000000000e+00
					3.749999999677737e-01 1.262207031159341e-01 0.000000000000000e+00
					3.749999999677737e-01 -9.179687499725256e-02 0.000000000000000e+00
					4.999999999625002e-01 2.099609374861059e-01 0.000000000000000e+00
					4.999999999625003e-01 -3.906250000029302e-02 0.000000000000000e+00
					3.749999999677737e-01 -9.179687499725256e-02 0.000000000000000e+00
					3.749999999677737e-01 -2.834472656106062e-01 0.000000000000000e+00
					4.999999999625003e-01 -3.906250000029302e-02 0.000000000000000e+00
					4.999999999625002e-01 -2.529296874873658e-01 0.000000000000000e+00
					3.749999999677737e-01 -2.834472656106062e-01 0.000000000000000e+00
					3.749999999677737e-01 -4.531249999761305e-01 0.000000000000000e+00
					4.999999999625002e-01 -2.529296874873658e-01 0.000000000000000e+00
					4.999999999625002e-01 -4.374999999770314e-01 0.000000000000000e+00
					3.749999999677737e-01 -4.531249999761305e-01 0.000000000000000e+00
					3.749999999677737e-01 -6.052246093458287e-01 0.000000000000000e+00
					4.999999999625002e-01 -4.374999999770314e-01 0.000000000000000e+00
					4.999999999625002e-01 -5.986328124712088e-01 0.000000000000000e+00
					3.749999999677737e-01 -6.052246093458287e-01 0.000000000000000e+00
					3.749999999677735e-01 -7.441406249717041e-01 0.000000000000000e+00
					4.999999999625002e-01 -5.986328124712088e-01 0.000000000000000e+00
					4.999999999625001e-01 -7.421874999718167e-01 0.000000000000000e+00
					3.749999999677735e-01 -7.441406249717041e-01 0.000000000000000e+00
					3.749999999677735e-01 -8.742675781057599e-01 0.000000000000000e+00
					4.999999999625001e-01 -7.421874999718167e-01 0.000000000000000e+00
					4.999999999625001e-01 -8.740234374807740e-01 0.000000000000000e+00
					3.749999999677735e-01 -8.742675781057599e-01 0.000000000000000e+00
					3.749999999677735e-01 -1.000000000000000e+00 0.000000000000000e+00
					4.999999999625001e-01 -8.740234374807740e-01 0.000000000000000e+00
					4.999999999625001e-01 -1.000000000000000e+00 0.000000000000000e+00
					4.999999999625001e-01 4.999999999737501e-01 0.000000000000000e+00
					4.999999999625002e-01 2.099609374861059e-01 0.000000000000000e+00
					6.249999999619140e-01 6.249999999698244e-01 0.000000000000000e+00
					6.249999999619144e-01 2.937011718584760e-01 0.000000000000000e+00
					4.999999999625002e-01 2.099609374861059e-01 0.000000000000000e+00
					4.999999999625003e-01 -3.906250000029302e-02 0.000000000000000e+00
					6.249999999619144e-01 2.937011718584760e-01 0.000000000000000e+00
					6.249999999619145e-01 1.367187499805080e-02 0.000000000000000e+00
					4.999999999625003e-01 -3.906250000029302e-02 0.000000000000000e+00
					4.999999999625002e-01 -2.529296874873658e-01 0.000000000000000e+00
					6.249999999619145e-01 1.367187499805080e-02 0.000000000000000e+00
					6.249999999619145e-01 -2.224121093633242e-01 0.000000000000000e+00
					4.999999999625002e-01 -2.529296874873658e-01 0.000000000000000e+00
					4.999999999625002e-01 -4.374999999770314e-01 0.000000000000000e+00
					6.249999999619145e-01 -2.224121093633242e-01 0.000000000000000e+00
					6.249999999619142e-01 -4.218749999775221e-01 0.000000000000000e+00
					4.999999999625002e-01 -4.374999999770314e-01 0.000000000000000e+00
					4.999999999625002e-01 -5.986328124712088e-01 0.000000000000000e+00
					6.249999999619142e-01 -4.218749999775221e-01 0.000000000000000e+00
					6.249999999619141e-01 -5.920410155964158e-01 0.000000000000000e+00
					4.999999999625002e-01 -5.986328124712088e-01 0.000000000000000e+00
					4.999999999625001e-01 -7.421874999718167e-01 0.000000000000000e+00
					6.249999999619141e-01 -5.920410155964158e-01 0.000000000000000e+00
					6.249999999619140e-01 -7.402343749718779e-01 0.000000000000000e+00
					4.999999999625001e-01 -7.421874999718167e-01 0.000000000000000e+00
					4.999999999625001e-01 -8.740234374807740e-01 0.000000000000000e+00
					6.249999999619140e-01 -7.402343749718779e-01 0.000000000000000e+00
					6.249999999619140e-01 -8.737792968557816e-01 0.000000000000000e+00
					4.999999999625001e-01 -8.740234374807740e-01 0.000000000000000e+00
					4.999999999625001e-01 -1.000000000000000e+00 0.000000000000000e+00
					6.249999999619140e-01 -8.737792968557816e-01 0.000000000000000e+00
					6.249999999619140e-01 -1.000000000000000e+00 0.000000000000000e+00
					6.249999999619140e-01 6.249999999698244e-01 0.000000000000000e+00
					6.249999999619144e-01 2.937011718584760e-01 0.000000000000000e+00
					7.499999999671875e-01 7.499999999714063e-01 0.000000000000000e+00
					7.499999999671876e-01 3.774414062345358e-01 0.000000000000000e+00
					6.249999999619144e-01 2.937011718584760e-01 0.000000000000000e+00
					6.249999999619145e-01 1.367187499805080e-02 0.000000000000000e+00
					7.499999999671876e-01 3.774414062345358e-01 0.000000000000000e+00
					7.499999999671877e-01 6.640624999871822e-02 0.000000000000000e+00
					6.249999999619145e-01 1.367187499805080e-02 0.000000000000000e+00
					6.249999999619145e-01 -2.224121093633242e-01 0.000000000000000e+00
					7.499999999671877e-01 6.640624999871822e-02 0.000000000000000e+00
					7.499999999671877e-01 -1.918945312379380e-01 0.000000000000000e+00
					6.249999999619145e-01 -2.224121093633242e-01 0.000000000000000e+00
					6.249999999619142e-01 -4.218749999775221e-01 0.000000000000000e+00
					7.499999999671877e-01 -1.918945312379380e-01 0.000000000000000e+00
					7.499999999671876e-01 -4.062499999773244e-01 0.000000000000000e+00
					6.249999999619142e-01 -4.218749999775221e-01 0.000000000000000e+00
					6.249999999619141e-01 -5.920410155964158e-01 0.000000000000000e+00
					7.499999999671876e-01 -4.062499999773244e-01 0.000000000000000e+00
					7.499999999671876e-01 -5.854492187213323e-01 0.000000000000000e+00
					6.249999999619141e-01 -5.920410155964158e-01 0.000000000000000e+00
					6.249999999619140e-01 -7.402343749718779e-01 0.000000000000000e+00
					7.499999999671876e-01 -5.854492187213323e-01 0.000000000000000e+00
					7.499999999671874e-01 -7.382812499718532e-01 0.000000000000000e+00
					6.249999999619140e-01 -7.402343749718779e-01 0.000000000000000e+00
					6.249999999619140e-01 -8.737792968557816e-01 0.000000000000000e+00
					7.499999999671874e-01 -7.382812499718532e-01 0.000000000000000e+00
					7.499999999671874e-01 -8.735351562307784e-01 0.000000000000000e+00
					6.249999999619140e-01 -8.737792968557816e-01 0.000000000000000e+00
					6.249999999619140e-01 -1.000000000000000e+00 0.000000000000000e+00
					7.499999999671874e-01 -8.735351562307784e-01 0.000000000000000e+00
					7.499999999671875e-01 -1.000000000000000e+00 0.000000000000000e+00
					7.499999999671875e-01 7.499999999714063e-01 0.000000000000000e+00
					7.499999999671876e-01 3.774414062345358e-01 0.000000000000000e+00
					8.749999999794922e-01 8.749999999807226e-01 0.000000000000000e+00
					8.749999999794923e-01 4.611816406157772e-01 0.000000000000000e+00
					7.499999999671876e-01 3.774414062345358e-01 0.000000000000000e+00
					7.499999999671877e-01 6.640624999871822e-02 0.000000000000000e+00
					8.749999999794923e-01 4.611816406157772e-01 0.000000000000000e+00
					8.749999999794923e-01 1.191406250026486e-01 0.000000000000000e+00
					7.499999999671877e-01 6.640624999871822e-02 0.000000000000000e+00
					7.499999999671877e-01 -1.918945312379380e-01 0.000000000000000e+00
					8.749999999794923e-01 1.191406250026486e-01 0.000000000000000e+00
					8.749999999794923e-01 -1.613769531106635e-01 0.000000000000000e+00
					7.499999999671877e-01 -1.918945312379380e-01 0.000000000000000e+00
					7.499999999671876e-01 -4.062499999773244e-01 0.000000000000000e+00
					8.749999999794923e-01 -1.613769531106635e-01 0.000000000000000e+00
					8.749999999794922e-01 -3.906249999761598e-01 0.000000000000000e+00
					7.499999999671876e-01 -4.062499999773244e-01 0.000000000000000e+00
					7.499999999671876e-01 -5.854492187213323e-01 0.000000000000000e+00
					8.749999999794922e-01 -3.906249999761598e-01 0.000000000000000e+00
					8.749999999794922e-01 -5.788574218458410e-01 0.000000000000000e+00
					7.499999999671876e-01 -5.854492187213323e-01 0.000000000000000e+00
					7.499999999671874e-01 -7.382812499718532e-01 0.000000000000000e+00
					8.749999999794922e-01 -5.788574218458410e-01 0.000000000000000e+00
					8.749999999794922e-01 -7.363281249717075e-01 0.000000000000000e+00
					7.499999999671874e-01 -7.382812499718532e-01 0.000000000000000e+00
					7.499999999671874e-01 -8.735351562307784e-01 0.000000000000000e+00
					8.749999999794922e-01 -7.363281249717075e-01 0.000000000000000e+00
					8.749999999794922e-01 -8.732910156057602e-01 0.000000000000000e+00
					7.499999999671874e-01 -8.735351562307784e-01 0.000000000000000e+00
					7.499999999671875e-01 -1.000000000000000e+00 0.000000000000000e+00
					8.749999999794922e-01 -8.732910156057602e-01 0.000000000000000e+00
					8.749999999794922e-01 -1.000000000000000e+00 0.000000000000000e+00
					8.749999999794922e-01 8.749999999807226e-01 0.000000000000000e+00
					8.749999999794923e-01 4.611816406157772e-01 0.000000000000000e+00
					1.000000000000000e+00 1.000000000000000e+00 0.000000000000000e+00
					1.000000000000000e+00 5.449218750036915e-01 0.000000000000000e+00
					8.749999999794923e-01 4.611816406157772e-01 0.000000000000000e+00
					8.749999999794923e-01 1.191406250026486e-01 0.000000000000000e+00
					1.000000000000000e+00 5.449218750036915e-01 0.000000000000000e+00
					1.000000000000000e+00 1.718750000107812e-01 0.000000000000000e+00
					8.749999999794923e-01 1.191406250026486e-01 0.000000000000000e+00
					8.749999999794923e-01 -1.613769531106635e-01 0.000000000000000e+00
					1.000000000000000e+00 1.718750000107812e-01 0.000000000000000e+00
					1.000000000000000e+00 -1.308593749809571e-01 0.000000000000000e+00
					8.749999999794923e-01 -1.613769531106635e-01 0.000000000000000e+00
					8.749999999794922e-01 -3.906249999761598e-01 0.000000000000000e+00
					1.000000000000000e+00 -1.308593749809571e-01 0.000000000000000e+00
					1.000000000000000e+00 -3.749999999737502e-01 0.000000000000000e+00
					8.749999999794922e-01 -3.906249999761598e-01 0.000000000000000e+00
					8.749999999794922e-01 -5.788574218458410e-01 0.000000000000000e+00
					1.000000000000000e+00 -3.749999999737502e-01 0.000000000000000e+00
					1.000000000000000e+00 -5.722656249698244e-01 0.000000000000000e+00
					8.749999999794922e-01 -5.788574218458410e-01 0.000000000000000e+00
					8.749999999794922e-01 -7.363281249717075e-01 0.000000000000000e+00
					1.000000000000000e+00 -5.722656249698244e-01 0.000000000000000e+00
					1.000000000000000e+00 -7.343749999714064e-01 0.000000000000000e+00
					8.749999999794922e-01 -7.363281249717075e-01 0.000000000000000e+00
					8.749999999794922e-01 -8.732910156057602e-01 0.000000000000000e+00
					1.000000000000000e+00 -7.343749999714064e-01 0.000000000000000e+00
					1.000000000000000e+00 -8.730468749807226e-01 0.000000000000000e+00
					8.749999999794922e-01 -8.732910156057602e-01 0.000000000000000e+00
					8.749999999794922e-01 -1.000000000000000e+00 0.000000000000000e+00
					1.000000000000000e+00 -8.730468749807226e-01 0.000000000000000e+00
					1.000000000000000e+00 -1.000000000000000e+00 0.000000000000000e+00
				</DataArray>
			</Points>
			<Cells>
				<DataArray Name="connectivity" type="UInt32" format="ascii">
					0 1 3 2 4 5 7 6 8 9 11 10 12 13 15 14 16 17 19 18 20 21 23 22 24 25 27 26 28 29 31 30 32 33 35 34 36 37 39 38 40 41 43 42 44 45 47 46 48 49 51 50 52 53 55 54 56 57 59 58 60 61 63 62 64 65 67 66 68 69 71 70 72 73 75 74 76 77 79 78 80 81 83 82 84 85 87 86 88 89 91 90 92 93 95 94 96 97 99 98 100 101 103 102 104 105 107 106 108 109 111 110 112 113 115 114 116 117 119 118 120 121 123 122 124 125 127 126 128 129 131 130 132 133 135 134 136 137 139 138 140 141 143 142 144 145 147 146 148 149 151 150 152 153 155 154 156 157 159 158 160 161 163 162 164 165 167 166 168 169 171 170 172 173 175 174 176 177 179 178 180 181 183 182 184 185 187 186 188 189 191 190 192 193 195 194 196 197 199 198 200 201 203 202 204 205 207 206 208 209 211 210 212 213 215 214 216 217 219 218 220 221 223 222 224 225 227 226 228 229 231 230 232 233 235 234 236 237 239 238 240 241 243 242 244 245 247 246 248 249 251 250 252 253 255 254 
				</DataArray>
				<DataArray Name="offsets" type="UInt32" format="ascii">
					4 8 12 16 20 24 28 32 36 40 44 48 52 56 60 64 68 72 76 80 84 88 92 96 100 104 108 112 116 120 124 128 132 136 140 144 148 152 156 160 164 168 172 176 180 184 188 192 196 200 204 208 212 216 220 224 228 232 236 240 244 248 252 256 
				</DataArray>
				<DataArray Name="types" type="UInt8" format="ascii">
					9 9 9 9 9 9 9 9 9 9 9 9 9 9 9 9 9 9 9 9 9 9 9 9 9 9 9 9 9 9 9 9 9 9 9 9 9 9 9 9 9 9 9 9 9 9 9 9 9 9 9 9 9 9 9 9 9 9 9 9 9 9 9 9 
				</DataArray>
			</Cells>
			<PointData Vectors="solution ">
				<DataArray Name="solution" type="Float64" NumberOfComponents="1" format="ascii">
					0.000000000000000e+00 0.000000000000000e+00 2.091787672706522e-03 2.545780959896501e-04 0.000000000000000e+00 0.000000000000000e+00 2.545780959896501e-04 5.432576473263019e-03 0.000000000000000e+00 0.000000000000000e+00 5.432576473263019e-03 1.394275406187447e-02 0.000000000000000e+00 0.000000000000000e+00 1.394275406187447e-02 2.079911943447425e-02 0.000000000000000e+00 0.000000000000000e+00 2.079911943447425e-02 2.207712982968834e-02 0.000000000000000e+00 0.000000000000000e+00 2.207712982968834e-02 1.643123450368515e-02 0.000000000000000e+00 0.000000000000000e+00 1.643123450368515e-02 6.386753771787084e-03 0.000000000000000e+00 0.000000000000000e+00 6.386753771787084e-03 0.000000000000000e+00 2.091787672706522e-03 2.545780959896501e-04 3.060721741002145e-02 1.066619632428742e-03 2.545780959896501e-04 5.432576473263019e-03 1.066619632428742e-03 1.098653181365708e-02 5.432576473263019e-03 1.394275406187447e-02 1.098653181365708e-02 4.396060078389585e-02 1.394275406187447e-02 2.079911943447425e-02 4.396060078389585e-02 7.345259998072456e-02 2.079911943447425e-02 2.207712982968834e-02 7.345259998072456e-02 8.047516931221177e-02 2.207712982968834e-02 1.643123450368515e-02 8.047516931221177e-02 6.009283599138086e-02 1.643123450368515e-02 6.386753771787084e-03 6.009283599138086e-02 2.324290839325490e-02 6.386753771787084e-03 0.000000000000000e+00 2.324290839325490e-02 0.000000000000000e+00 3.060721741002145e-02 1.066619632428742e-03 1.112189414917510e-01 1.652579884530654e-02 1.066619632428742e-03 1.098653181365708e-02 1.652579884530654e-02 8.624713823945154e-03 1.098653181365708e-02 4.396060078389585e-02 8.624713823945154e-03 7.051008519556205e-02 4.396060078389585e-02 7.345259998072456e-02 7.051008519556205e-02 1.346082739979771e-01 7.345259998072456e-02 8.047516931221177e-02 1.346082739979771e-01 1.527345569114555e-01 8.047516931221177e-02 6.009283599138086e-02 1.527345569114555e-01 1.145096168505445e-01 6.009283599138086e-02 2.324290839325490e-02 1.145096168505445e-01 4.407869686253207e-02 2.324290839325490e-02 0.000000000000000e+00 4.407869686253207e-02 0.000000000000000e+00 1.112189414917510e-01 1.652579884530654e-02 2.050141108261812e-01 5.779351106184513e-02 1.652579884530654e-02 8.624713823945154e-03 5.779351106184513e-02 2.221171742122427e-03 8.624713823945154e-03 7.051008519556205e-02 2.221171742122427e-03 7.874900622902085e-02 7.051008519556205e-02 1.346082739979771e-01 7.874900622902085e-02 1.759209709354163e-01 1.346082739979771e-01 1.527345569114555e-01 1.759209709354163e-01 2.074342191206392e-01 1.527345569114555e-01 1.145096168505445e-01 2.074342191206392e-01 1.562545614495526e-01 1.145096168505445e-01 4.407869686253207e-02 1.562545614495526e-01 5.986802362528043e-02 4.407869686253207e-02 0.000000000000000e+00 5.986802362528043e-02 0.000000000000000e+00 2.050141108261812e-01 5.779351106184513e-02 2.184906926779175e-01 1.059955751498695e-01 5.779351106184513e-02 2.221171742122427e-03 1.059955751498695e-01 3.839864178821179e-04 2.221171742122427e-03 7.874900622902085e-02 3.839864178821179e-04 6.476079606525439e-02 7.874900622902085e-02 1.759209709354163e-01 6.476079606525439e-02 1.743856221574547e-01 1.759209709354163e-01 2.074342191206392e-01 1.743856221574547e-01 2.144372802597473e-01 2.074342191206392e-01 1.562545614495526e-01 2.144372802597473e-01 1.624046352374754e-01 1.562545614495526e-01 5.986802362528043e-02 1.624046352374754e-01 6.194276918243604e-02 5.986802362528043e-02 0.000000000000000e+00 6.194276918243604e-02 0.000000000000000e+00 2.184906926779175e-01 1.059955751498695e-01 1.201742085746624e-01 1.141092293478704e-01 1.059955751498695e-01 3.839864178821179e-04 1.141092293478704e-01 4.789131000871221e-03 3.839864178821179e-04 6.476079606525439e-02 4.789131000871221e-03 3.672529640520662e-02 6.476079606525439e-02 1.743856221574547e-01 3.672529640520662e-02 1.238377037539534e-01 1.743856221574547e-01 2.144372802597473e-01 1.238377037539534e-01 1.593870564029999e-01 2.144372802597473e-01 1.624046352374754e-01 1.593870564029999e-01 1.214479845966819e-01 1.624046352374754e-01 6.194276918243604e-02 1.214479845966819e-01 4.611757594451508e-02 6.194276918243604e-02 0.000000000000000e+00 4.611757594451508e-02 0.000000000000000e+00 1.201742085746624e-01 1.141092293478704e-01 1.827756212350757e-02 5.607765858114231e-02 1.141092293478704e-01 4.789131000871221e-03 5.607765858114231e-02 5.832384341038733e-03 4.789131000871221e-03 3.672529640520662e-02 5.832384341038733e-03 1.036490578768674e-02 3.672529640520662e-02 1.238377037539534e-01 1.036490578768674e-02 4.606931670540100e-02 1.238377037539534e-01 1.593870564029999e-01 4.606931670540100e-02 6.229774058861426e-02 1.593870564029999e-01 1.214479845966819e-01 6.229774058861426e-02 4.779006375414981e-02 1.214479845966819e-01 4.611757594451508e-02 4.779006375414981e-02 1.806979026912586e-02 4.611757594451508e-02 0.000000000000000e+00 1.806979026912586e-02 0.000000000000000e+00 1.827756212350757e-02 5.607765858114231e-02 0.000000000000000e+00 0.000000000000000e+00 5.607765858114231e-02 5.832384341038733e-03 0.000000000000000e+00 0.000000000000000e+00 5.832384341038733e-03 1.036490578768674e-02 0.000000000000000e+00 0.000000000000000e+00 1.036490578768674e-02 4.606931670540100e-02 0.000000000000000e+00 0.000000000000000e+00 4.606931670540100e-02 6.229774058861426e-02 0.000000000000000e+00 0.000000000000000e+00 6.229774058861426e-02 4.779006375414981e-02 0.000000000000000e+00 0.000000000000000e+00 4.779006375414981e-02 1.806979026912586e-02 0.000000000000000e+00 0.000000000000000e+00 1.806979026912586e-02 0.000000000000000e+00 0.000000000000000e+00 0.000000000000000e+00 
				</DataArray>
			</PointData>
			<CellData>
			</CellData>
		</Piece>
	</UnstructuredGrid>
</VTKFile>