1 0
2 0
3 0
4 0
5 0
6 0
7 0
8 0
9 0
10 0
11 0
12 0
13 0
14 0
15 0
16 0
17 0
18 0
19 0
20 0
21 0
22 4.206860e-09
23 4.314612e-09
24 4.314613e-09
25 5.328045e-09
26 6.947600e-08
27 2.405239e-07
28 2.405239e-07
29 3.159393e-07
30 3.757998e-07
31 5.500800e-07
32 5.500800e-07
33 7.225938e-07
34 1.152159e-01
35 1.408950e-01
36 1.408950e-01
37 1.531178e-01
38 1.658569e-01
39 1.761317e-01
40 1.761317e-01
41 2.148779e-01
42 3.881252e-01
43 3.931855e-01
44 3.931855e-01
45 3.940879e-01
46 4.872129e-01
47 5.350771e-01
48 5.350771e-01
49 5.727816e-01
50 7.061634e-01
51 7.142196e-01
52 7.142196e-01
53 7.183183e-01
54 7.624488e-01
55 7.695366e-01
56 7.695366e-01
57 7.777315e-01
