<?xml version="1.0"?>
<VTKFile type="UnstructuredGrid" byte_order="LittleEndian">
	<UnstructuredGrid>
		<Piece NumberOfPoints="64" NumberOfCells="16">
			<Points>
				<DataArray type="Float64" NumberOfComponents="3" format="ascii">
					-1.000000000000000e+00 -1.000000000000000e+00 0.000000000000000e+00
					-8.338955762008279e-01 -8.338955762008279e-01 0.000000000000000e+00
					-1.375000000000000e+00 -5.000000000000000e-01 0.000000000000000e+00
					-1.044833076200828e+00 -4.169477881004139e-01 0.000000000000000e+00
					-8.338955762008279e-01 -8.338955762008279e-01 0.000000000000000e+00
					-6.951941016011038e-01 -6.951941016011038e-01 0.000000000000000e+00
					-1.044833076200828e+00 -4.169477881004139e-01 0.000000000000000e+00
					-7.889441016011038e-01 -3.475970508005519e-01 0.000000000000000e+00
					-6.951941016011038e-01 -6.951941016011038e-01 0.000000000000000e+00
					-5.838955762008279e-01 -5.838955762008279e-01 0.000000000000000e+00
					-7.889441016011038e-01 -3.475970508005519e-01 0.000000000000000e+00
					-6.073330762008279e-01 -2.919477881004139e-01 0.000000000000000e+00
					-5.838955762008279e-01 -5.838955762008279e-01 0.000000000000000e+00
					-5.000000000000000e-01 -5.000000000000000e-01 0.000000000000000e+00
					-6.073330762008279e-01 -2.919477881004139e-01 0.000000000000000e+00
					-5.000000000000000e-01 -2.500000000000000e-01 0.000000000000000e+00
					-1.375000000000000e+00 -5.000000000000000e-01 0.000000000000000e+00
					-1.044833076200828e+00 -4.169477881004139e-01 0.000000000000000e+00
					-1.500000000000000e+00 1.387778780781446e-17 0.000000000000000e+00
					-1.115145576200828e+00 2.081668171172169e-17 0.000000000000000e+00
					-1.044833076200828e+00 -4.169477881004139e-01 0.000000000000000e+00
					-7.889441016011038e-01 -3.475970508005519e-01 0.000000000000000e+00
					-1.115145576200828e+00 2.081668171172169e-17 0.000000000000000e+00
					-8.201941016011038e-01 0.000000000000000e+00 0.000000000000000e+00
					-7.889441016011038e-01 -3.475970508005519e-01 0.000000000000000e+00
					-6.073330762008279e-01 -2.919477881004139e-01 0.000000000000000e+00
					-8.201941016011038e-01 0.000000000000000e+00 0.000000000000000e+00
					-6.151455762008279e-01 1.387778780781446e-17 0.000000000000000e+00
					-6.073330762008279e-01 -2.919477881004139e-01 0.000000000000000e+00
					-5.000000000000000e-01 -2.500000000000000e-01 0.000000000000000e+00
					-6.151455762008279e-01 1.387778780781446e-17 0.000000000000000e+00
					-5.000000000000000e-01 6.938893903907228e-18 0.000000000000000e+00
					-1.500000000000000e+00 1.387778780781446e-17 0.000000000000000e+00
					-1.115145576200828e+00 2.081668171172169e-17 0.000000000000000e+00
					-1.375000000000000e+00 5.000000000000000e-01 0.000000000000000e+00
					-1.044833076200828e+00 4.169477881004140e-01 0.000000000000000e+00
					-1.115145576200828e+00 2.081668171172169e-17 0.000000000000000e+00
					-8.201941016011038e-01 0.000000000000000e+00 0.000000000000000e+00
					-1.044833076200828e+00 4.169477881004140e-01 0.000000000000000e+00
					-7.889441016011038e-01 3.475970508005519e-01 0.000000000000000e+00
					-8.201941016011038e-01 0.000000000000000e+00 0.000000000000000e+00
					-6.151455762008279e-01 1.387778780781446e-17 0.000000000000000e+00
					-7.889441016011038e-01 3.475970508005519e-01 0.000000000000000e+00
					-6.073330762008279e-01 2.919477881004139e-01 0.000000000000000e+00
					-6.151455762008279e-01 1.387778780781446e-17 0.000000000000000e+00
					-5.000000000000000e-01 6.938893903907228e-18 0.000000000000000e+00
					-6.073330762008279e-01 2.919477881004139e-01 0.000000000000000e+00
					-5.000000000000000e-01 2.500000000000000e-01 0.000000000000000e+00
					-1.375000000000000e+00 5.000000000000000e-01 0.000000000000000e+00
					-1.044833076200828e+00 4.169477881004140e-01 0.000000000000000e+00
					-1.000000000000000e+00 1.000000000000000e+00 0.000000000000000e+00
					-8.338955762008279e-01 8.338955762008279e-01 0.000000000000000e+00
					-1.044833076200828e+00 4.169477881004140e-01 0.000000000000000e+00
					-7.889441016011038e-01 3.475970508005519e-01 0.000000000000000e+00
					-8.338955762008279e-01 8.338955762008279e-01 0.000000000000000e+00
					-6.951941016011038e-01 6.951941016011038e-01 0.000000000000000e+00
					-7.889441016011038e-01 3.475970508005519e-01 0.000000000000000e+00
					-6.073330762008279e-01 2.919477881004139e-01 0.000000000000000e+00
					-6.951941016011038e-01 6.951941016011038e-01 0.000000000000000e+00
					-5.838955762008279e-01 5.838955762008279e-01 0.000000000000000e+00
					-6.073330762008279e-01 2.919477881004139e-01 0.000000000000000e+00
					-5.000000000000000e-01 2.500000000000000e-01 0.000000000000000e+00
					-5.838955762008279e-01 5.838955762008279e-01 0.000000000000000e+00
					-5.000000000000000e-01 5.000000000000000e-01 0.000000000000000e+00
				</DataArray>
			</Points>
			<Cells>
				<DataArray Name="connectivity" type="UInt32" format="ascii">
					0 1 3 2 4 5 7 6 8 9 11 10 12 13 15 14 16 17 19 18 20 21 23 22 24 25 27 26 28 29 31 30 32 33 35 34 36 37 39 38 40 41 43 42 44 45 47 46 48 49 51 50 52 53 55 54 56 57 59 58 60 61 63 62 
				</DataArray>
				<DataArray Name="offsets" type="UInt32" format="ascii">
					4 8 12 16 20 24 28 32 36 40 44 48 52 56 60 64 
				</DataArray>
				<DataArray Name="types" type="UInt8" format="ascii">
					9 9 9 9 9 9 9 9 9 9 9 9 9 9 9 9 
				</DataArray>
			</Cells>
			<PointData Vectors="solution ">
				<DataArray Name="solution" type="Float64" NumberOfComponents="1" format="ascii">
					0.000000000000000e+00 1.065004983785894e-01 0.000000000000000e+00 2.029746756455210e-01 1.065004983785894e-01 4.525450915798527e-01 2.029746756455211e-01 1.133234371428063e+00 4.525450915798528e-01 1.055305848586829e+00 1.133234371428063e+00 2.982995553434992e+00 1.055305848586829e+00 1.911127546855995e+00 2.982995553434993e+00 4.995581124858660e+00 0.000000000000000e+00 2.029746756455210e-01 0.000000000000000e+00 3.616958522117741e-01 2.029746756455211e-01 1.133234371428063e+00 3.616958522117742e-01 2.397709524934098e+00 1.133234371428063e+00 2.982995553434993e+00 2.397709524934099e+00 6.079641393938635e+00 2.982995553434993e+00 4.995581124858661e+00 6.079641393938635e+00 9.179188299763059e+00 0.000000000000000e+00 3.616958522117742e-01 0.000000000000000e+00 7.525208630054812e-01 3.616958522117742e-01 2.397709524934099e+00 7.525208630054812e-01 3.857936175383495e+00 2.397709524934099e+00 6.079641393938635e+00 3.857936175383496e+00 8.636536566983455e+00 6.079641393938636e+00 9.179188299763059e+00 8.636536566983457e+00 1.254524832916012e+01 0.000000000000000e+00 7.525208630054812e-01 0.000000000000000e+00 1.203987892080611e+00 7.525208630054812e-01 3.857936175383496e+00 1.203987892080611e+00 4.317556483027521e+00 3.857936175383496e+00 8.636536566983457e+00 4.317556483027522e+00 8.458527610140610e+00 8.636536566983459e+00 1.254524832916012e+01 8.458527610140610e+00 1.263233992899015e+01 
				</DataArray>
			</PointData>
			<CellData>
			</CellData>
		</Piece>
	</UnstructuredGrid>
</VTKFile>