<?xml version="1.0"?>
<VTKFile type="UnstructuredGrid" byte_order="LittleEndian">
	<UnstructuredGrid>
		<Piece NumberOfPoints="256" NumberOfCells="64">
			<Points>
				<DataArray type="Float64" NumberOfComponents="3" format="ascii">
					-1.000000000000000e+00 1.000000000000000e+00 0.000000000000000e+00
					-9.135224194504830e-01 9.135224194504830e-01 0.000000000000000e+00
					-7.500000000000000e-01 1.218750000000000e+00 0.000000000000000e+00
					-6.851418145878622e-01 1.081002888200483e+00 0.000000000000000e+00
					-9.135224194504830e-01 9.135224194504830e-01 0.000000000000000e+00
					-8.338955762008279e-01 8.338955762008279e-01 0.000000000000000e+00
					-6.851418145878622e-01 1.081002888200483e+00 0.000000000000000e+00
					-6.254216821506209e-01 9.569424512008280e-01 0.000000000000000e+00
					-8.338955762008279e-01 8.338955762008279e-01 0.000000000000000e+00
					-7.611194702510349e-01 7.611194702510349e-01 0.000000000000000e+00
					-6.254216821506209e-01 9.569424512008280e-01 0.000000000000000e+00
					-5.708396026882762e-01 8.465686890010349e-01 0.000000000000000e+00
					-7.611194702510349e-01 7.611194702510349e-01 0.000000000000000e+00
					-6.951941016011038e-01 6.951941016011038e-01 0.000000000000000e+00
					-5.708396026882762e-01 8.465686890010349e-01 0.000000000000000e+00
					-5.213955762008279e-01 7.498816016011038e-01 0.000000000000000e+00
					-6.951941016011038e-01 6.951941016011038e-01 0.000000000000000e+00
					-6.361194702510349e-01 6.361194702510349e-01 0.000000000000000e+00
					-5.213955762008279e-01 7.498816016011038e-01 0.000000000000000e+00
					-4.770896026882761e-01 6.668811890010349e-01 0.000000000000000e+00
					-6.361194702510349e-01 6.361194702510349e-01 0.000000000000000e+00
					-5.838955762008278e-01 5.838955762008278e-01 0.000000000000000e+00
					-4.770896026882761e-01 6.668811890010349e-01 0.000000000000000e+00
					-4.379216821506209e-01 5.975674512008279e-01 0.000000000000000e+00
					-5.838955762008278e-01 5.838955762008278e-01 0.000000000000000e+00
					-5.385224194504830e-01 5.385224194504830e-01 0.000000000000000e+00
					-4.379216821506209e-01 5.975674512008279e-01 0.000000000000000e+00
					-4.038918145878622e-01 5.419403882004830e-01 0.000000000000000e+00
					-5.385224194504830e-01 5.385224194504830e-01 0.000000000000000e+00
					-5.000000000000000e-01 5.000000000000000e-01 0.000000000000000e+00
					-4.038918145878622e-01 5.419403882004830e-01 0.000000000000000e+00
					-3.750000000000000e-01 5.000000000000000e-01 0.000000000000000e+00
					-7.500000000000000e-01 1.218750000000000e+00 0.000000000000000e+00
					-6.851418145878622e-01 1.081002888200483e+00 0.000000000000000e+00
					-5.000000000000000e-01 1.375000000000000e+00 0.000000000000000e+00
					-4.567612097252415e-01 1.200631794450483e+00 0.000000000000000e+00
					-6.851418145878622e-01 1.081002888200483e+00 0.000000000000000e+00
					-6.254216821506209e-01 9.569424512008280e-01 0.000000000000000e+00
					-4.567612097252415e-01 1.200631794450483e+00 0.000000000000000e+00
					-4.169477881004140e-01 1.044833076200828e+00 0.000000000000000e+00
					-6.254216821506209e-01 9.569424512008280e-01 0.000000000000000e+00
					-5.708396026882762e-01 8.465686890010349e-01 0.000000000000000e+00
					-4.169477881004140e-01 1.044833076200828e+00 0.000000000000000e+00
					-3.805597351255174e-01 9.076038452510349e-01 0.000000000000000e+00
					-5.708396026882762e-01 8.465686890010349e-01 0.000000000000000e+00
					-5.213955762008279e-01 7.498816016011038e-01 0.000000000000000e+00
					-3.805597351255174e-01 9.076038452510349e-01 0.000000000000000e+00
					-3.475970508005519e-01 7.889441016011038e-01 0.000000000000000e+00
					-5.213955762008279e-01 7.498816016011038e-01 0.000000000000000e+00
					-4.770896026882761e-01 6.668811890010349e-01 0.000000000000000e+00
					-3.475970508005519e-01 7.889441016011038e-01 0.000000000000000e+00
					-3.180597351255174e-01 6.888538452510349e-01 0.000000000000000e+00
					-4.770896026882761e-01 6.668811890010349e-01 0.000000000000000e+00
					-4.379216821506209e-01 5.975674512008279e-01 0.000000000000000e+00
					-3.180597351255174e-01 6.888538452510349e-01 0.000000000000000e+00
					-2.919477881004139e-01 6.073330762008279e-01 0.000000000000000e+00
					-4.379216821506209e-01 5.975674512008279e-01 0.000000000000000e+00
					-4.038918145878622e-01 5.419403882004830e-01 0.000000000000000e+00
					-2.919477881004139e-01 6.073330762008279e-01 0.000000000000000e+00
					-2.692612097252414e-01 5.443817944504830e-01 0.000000000000000e+00
					-4.038918145878622e-01 5.419403882004830e-01 0.000000000000000e+00
					-3.750000000000000e-01 5.000000000000000e-01 0.000000000000000e+00
					-2.692612097252414e-01 5.443817944504830e-01 0.000000000000000e+00
					-2.500000000000000e-01 5.000000000000000e-01 0.000000000000000e+00
					-5.000000000000000e-01 1.375000000000000e+00 0.000000000000000e+00
					-4.567612097252415e-01 1.200631794450483e+00 0.000000000000000e+00
					-2.500000000000000e-01 1.468750000000000e+00 0.000000000000000e+00
					-2.283806048626207e-01 1.272409138200483e+00 0.000000000000000e+00
					-4.567612097252415e-01 1.200631794450483e+00 0.000000000000000e+00
					-4.169477881004140e-01 1.044833076200828e+00 0.000000000000000e+00
					-2.283806048626207e-01 1.272409138200483e+00 0.000000000000000e+00
					-2.084738940502069e-01 1.097567451200828e+00 0.000000000000000e+00
					-4.169477881004140e-01 1.044833076200828e+00 0.000000000000000e+00
					-3.805597351255174e-01 9.076038452510349e-01 0.000000000000000e+00
					-2.084738940502069e-01 1.097567451200828e+00 0.000000000000000e+00
					-1.902798675627587e-01 9.442249390010349e-01 0.000000000000000e+00
					-3.805597351255174e-01 9.076038452510349e-01 0.000000000000000e+00
					-3.475970508005519e-01 7.889441016011038e-01 0.000000000000000e+00
					-1.902798675627587e-01 9.442249390010349e-01 0.000000000000000e+00
					-1.737985254002759e-01 8.123816016011038e-01 0.000000000000000e+00
					-3.475970508005519e-01 7.889441016011038e-01 0.000000000000000e+00
					-3.180597351255174e-01 6.888538452510349e-01 0.000000000000000e+00
					-1.737985254002759e-01 8.123816016011038e-01 0.000000000000000e+00
					-1.590298675627587e-01 7.020374390010349e-01 0.000000000000000e+00
					-3.180597351255174e-01 6.888538452510349e-01 0.000000000000000e+00
					-2.919477881004139e-01 6.073330762008279e-01 0.000000000000000e+00
					-1.590298675627587e-01 7.020374390010349e-01 0.000000000000000e+00
					-1.459738940502069e-01 6.131924512008279e-01 0.000000000000000e+00
					-2.919477881004139e-01 6.073330762008279e-01 0.000000000000000e+00
					-2.692612097252414e-01 5.443817944504830e-01 0.000000000000000e+00
					-1.459738940502069e-01 6.131924512008279e-01 0.000000000000000e+00
					-1.346306048626207e-01 5.458466382004830e-01 0.000000000000000e+00
					-2.692612097252414e-01 5.443817944504830e-01 0.000000000000000e+00
					-2.500000000000000e-01 5.000000000000000e-01 0.000000000000000e+00
					-1.346306048626207e-01 5.458466382004830e-01 0.000000000000000e+00
					-1.250000000000000e-01 5.000000000000000e-01 0.000000000000000e+00
					-2.500000000000000e-01 1.468750000000000e+00 0.000000000000000e+00
					-2.283806048626207e-01 1.272409138200483e+00 0.000000000000000e+00
					0.000000000000000e+00 1.500000000000000e+00 0.000000000000000e+00
					4.857225732735060e-17 1.296334919450483e+00 0.000000000000000e+00
					-2.283806048626207e-01 1.272409138200483e+00 0.000000000000000e+00
					-2.084738940502069e-01 1.097567451200828e+00 0.000000000000000e+00
					4.857225732735060e-17 1.296334919450483e+00 0.000000000000000e+00
					3.469446951953614e-17 1.115145576200828e+00 0.000000000000000e+00
					-2.084738940502069e-01 1.097567451200828e+00 0.000000000000000e+00
					-1.902798675627587e-01 9.442249390010349e-01 0.000000000000000e+00
					3.469446951953614e-17 1.115145576200828e+00 0.000000000000000e+00
					4.163336342344337e-17 9.564319702510349e-01 0.000000000000000e+00
					-1.902798675627587e-01 9.442249390010349e-01 0.000000000000000e+00
					-1.737985254002759e-01 8.123816016011038e-01 0.000000000000000e+00
					4.163336342344337e-17 9.564319702510349e-01 0.000000000000000e+00
					4.163336342344337e-17 8.201941016011038e-01 0.000000000000000e+00
					-1.737985254002759e-01 8.123816016011038e-01 0.000000000000000e+00
					-1.590298675627587e-01 7.020374390010349e-01 0.000000000000000e+00
					4.163336342344337e-17 8.201941016011038e-01 0.000000000000000e+00
					3.816391647148976e-17 7.064319702510349e-01 0.000000000000000e+00
					-1.590298675627587e-01 7.020374390010349e-01 0.000000000000000e+00
					-1.459738940502069e-01 6.131924512008279e-01 0.000000000000000e+00
					3.816391647148976e-17 7.064319702510349e-01 0.000000000000000e+00
					2.428612866367530e-17 6.151455762008279e-01 0.000000000000000e+00
					-1.459738940502069e-01 6.131924512008279e-01 0.000000000000000e+00
					-1.346306048626207e-01 5.458466382004830e-01 0.000000000000000e+00
					2.428612866367530e-17 6.151455762008279e-01 0.000000000000000e+00
					2.428612866367530e-17 5.463349194504830e-01 0.000000000000000e+00
					-1.346306048626207e-01 5.458466382004830e-01 0.000000000000000e+00
					-1.250000000000000e-01 5.000000000000000e-01 0.000000000000000e+00
					2.428612866367530e-17 5.463349194504830e-01 0.000000000000000e+00
					0.000000000000000e+00 5.000000000000000e-01 0.000000000000000e+00
					0.000000000000000e+00 1.500000000000000e+00 0.000000000000000e+00
					4.857225732735060e-17 1.296334919450483e+00 0.000000000000000e+00
					2.500000000000000e-01 1.468750000000000e+00 0.000000000000000e+00
					2.283806048626208e-01 1.272409138200483e+00 0.000000000000000e+00
					4.857225732735060e-17 1.296334919450483e+00 0.000000000000000e+00
					3.469446951953614e-17 1.115145576200828e+00 0.000000000000000e+00
					2.283806048626208e-01 1.272409138200483e+00 0.000000000000000e+00
					2.084738940502070e-01 1.097567451200828e+00 0.000000000000000e+00
					3.469446951953614e-17 1.115145576200828e+00 0.000000000000000e+00
					4.163336342344337e-17 9.564319702510349e-01 0.000000000000000e+00
					2.084738940502070e-01 1.097567451200828e+00 0.000000000000000e+00
					1.902798675627588e-01 9.442249390010349e-01 0.000000000000000e+00
					4.163336342344337e-17 9.564319702510349e-01 0.000000000000000e+00
					4.163336342344337e-17 8.201941016011038e-01 0.000000000000000e+00
					1.902798675627588e-01 9.442249390010349e-01 0.000000000000000e+00
					1.737985254002760e-01 8.123816016011038e-01 0.000000000000000e+00
					4.163336342344337e-17 8.201941016011038e-01 0.000000000000000e+00
					3.816391647148976e-17 7.064319702510349e-01 0.000000000000000e+00
					1.737985254002760e-01 8.123816016011038e-01 0.000000000000000e+00
					1.590298675627588e-01 7.020374390010349e-01 0.000000000000000e+00
					3.816391647148976e-17 7.064319702510349e-01 0.000000000000000e+00
					2.428612866367530e-17 6.151455762008279e-01 0.000000000000000e+00
					1.590298675627588e-01 7.020374390010349e-01 0.000000000000000e+00
					1.459738940502070e-01 6.131924512008278e-01 0.000000000000000e+00
					2.428612866367530e-17 6.151455762008279e-01 0.000000000000000e+00
					2.428612866367530e-17 5.463349194504830e-01 0.000000000000000e+00
					1.459738940502070e-01 6.131924512008278e-01 0.000000000000000e+00
					1.346306048626208e-01 5.458466382004830e-01 0.000000000000000e+00
					2.428612866367530e-17 5.463349194504830e-01 0.000000000000000e+00
					0.000000000000000e+00 5.000000000000000e-01 0.000000000000000e+00
					1.346306048626208e-01 5.458466382004830e-01 0.000000000000000e+00
					1.250000000000000e-01 5.000000000000000e-01 0.000000000000000e+00
					2.500000000000000e-01 1.468750000000000e+00 0.000000000000000e+00
					2.283806048626208e-01 1.272409138200483e+00 0.000000000000000e+00
					5.000000000000000e-01 1.375000000000000e+00 0.000000000000000e+00
					4.567612097252415e-01 1.200631794450483e+00 0.000000000000000e+00
					2.283806048626208e-01 1.272409138200483e+00 0.000000000000000e+00
					2.084738940502070e-01 1.097567451200828e+00 0.000000000000000e+00
					4.567612097252415e-01 1.200631794450483e+00 0.000000000000000e+00
					4.169477881004139e-01 1.044833076200828e+00 0.000000000000000e+00
					2.084738940502070e-01 1.097567451200828e+00 0.000000000000000e+00
					1.902798675627588e-01 9.442249390010349e-01 0.000000000000000e+00
					4.169477881004139e-01 1.044833076200828e+00 0.000000000000000e+00
					3.805597351255174e-01 9.076038452510349e-01 0.000000000000000e+00
					1.902798675627588e-01 9.442249390010349e-01 0.000000000000000e+00
					1.737985254002760e-01 8.123816016011038e-01 0.000000000000000e+00
					3.805597351255174e-01 9.076038452510349e-01 0.000000000000000e+00
					3.475970508005520e-01 7.889441016011038e-01 0.000000000000000e+00
					1.737985254002760e-01 8.123816016011038e-01 0.000000000000000e+00
					1.590298675627588e-01 7.020374390010349e-01 0.000000000000000e+00
					3.475970508005520e-01 7.889441016011038e-01 0.000000000000000e+00
					3.180597351255175e-01 6.888538452510349e-01 0.000000000000000e+00
					1.590298675627588e-01 7.020374390010349e-01 0.000000000000000e+00
					1.459738940502070e-01 6.131924512008278e-01 0.000000000000000e+00
					3.180597351255175e-01 6.888538452510349e-01 0.000000000000000e+00
					2.919477881004140e-01 6.073330762008278e-01 0.000000000000000e+00
					1.459738940502070e-01 6.131924512008278e-01 0.000000000000000e+00
					1.346306048626208e-01 5.458466382004830e-01 0.000000000000000e+00
					2.919477881004140e-01 6.073330762008278e-01 0.000000000000000e+00
					2.692612097252415e-01 5.443817944504830e-01 0.000000000000000e+00
					1.346306048626208e-01 5.458466382004830e-01 0.000000000000000e+00
					1.250000000000000e-01 5.000000000000000e-01 0.000000000000000e+00
					2.692612097252415e-01 5.443817944504830e-01 0.000000000000000e+00
					2.500000000000000e-01 5.000000000000000e-01 0.000000000000000e+00
					5.000000000000000e-01 1.375000000000000e+00 0.000000000000000e+00
					4.567612097252415e-01 1.200631794450483e+00 0.000000000000000e+00
					7.500000000000000e-01 1.218750000000000e+00 0.000000000000000e+00
					6.851418145878622e-01 1.081002888200483e+00 0.000000000000000e+00
					4.567612097252415e-01 1.200631794450483e+00 0.000000000000000e+00
					4.169477881004139e-01 1.044833076200828e+00 0.000000000000000e+00
					6.851418145878622e-01 1.081002888200483e+00 0.000000000000000e+00
					6.254216821506209e-01 9.569424512008279e-01 0.000000000000000e+00
					4.169477881004139e-01 1.044833076200828e+00 0.000000000000000e+00
					3.805597351255174e-01 9.076038452510349e-01 0.000000000000000e+00
					6.254216821506209e-01 9.569424512008279e-01 0.000000000000000e+00
					5.708396026882763e-01 8.465686890010349e-01 0.000000000000000e+00
					3.805597351255174e-01 9.076038452510349e-01 0.000000000000000e+00
					3.475970508005520e-01 7.889441016011038e-01 0.000000000000000e+00
					5.708396026882763e-01 8.465686890010349e-01 0.000000000000000e+00
					5.213955762008280e-01 7.498816016011038e-01 0.000000000000000e+00
					3.475970508005520e-01 7.889441016011038e-01 0.000000000000000e+00
					3.180597351255175e-01 6.888538452510349e-01 0.000000000000000e+00
					5.213955762008280e-01 7.498816016011038e-01 0.000000000000000e+00
					4.770896026882762e-01 6.668811890010349e-01 0.000000000000000e+00
					3.180597351255175e-01 6.888538452510349e-01 0.000000000000000e+00
					2.919477881004140e-01 6.073330762008278e-01 0.000000000000000e+00
					4.770896026882762e-01 6.668811890010349e-01 0.000000000000000e+00
					4.379216821506209e-01 5.975674512008278e-01 0.000000000000000e+00
					2.919477881004140e-01 6.073330762008278e-01 0.000000000000000e+00
					2.692612097252415e-01 5.443817944504830e-01 0.000000000000000e+00
					4.379216821506209e-01 5.975674512008278e-01 0.000000000000000e+00
					4.038918145878622e-01 5.419403882004830e-01 0.000000000000000e+00
					2.692612097252415e-01 5.443817944504830e-01 0.000000000000000e+00
					2.500000000000000e-01 5.000000000000000e-01 0.000000000000000e+00
					4.038918145878622e-01 5.419403882004830e-01 0.000000000000000e+00
					3.750000000000000e-01 5.000000000000000e-01 0.000000000000000e+00
					7.500000000000000e-01 1.218750000000000e+00 0.000000000000000e+00
					6.851418145878622e-01 1.081002888200483e+00 0.000000000000000e+00
					1.000000000000000e+00 1.000000000000000e+00 0.000000000000000e+00
					9.135224194504830e-01 9.135224194504830e-01 0.000000000000000e+00
					6.851418145878622e-01 1.081002888200483e+00 0.000000000000000e+00
					6.254216821506209e-01 9.569424512008279e-01 0.000000000000000e+00
					9.135224194504830e-01 9.135224194504830e-01 0.000000000000000e+00
					8.338955762008279e-01 8.338955762008279e-01 0.000000000000000e+00
					6.254216821506209e-01 9.569424512008279e-01 0.000000000000000e+00
					5.708396026882763e-01 8.465686890010349e-01 0.000000000000000e+00
					8.338955762008279e-01 8.338955762008279e-01 0.000000000000000e+00
					7.611194702510349e-01 7.611194702510349e-01 0.000000000000000e+00
					5.708396026882763e-01 8.465686890010349e-01 0.000000000000000e+00
					5.213955762008280e-01 7.498816016011038e-01 0.000000000000000e+00
					7.611194702510349e-01 7.611194702510349e-01 0.000000000000000e+00
					6.951941016011038e-01 6.951941016011038e-01 0.000000000000000e+00
					5.213955762008280e-01 7.498816016011038e-01 0.000000000000000e+00
					4.770896026882762e-01 6.668811890010349e-01 0.000000000000000e+00
					6.951941016011038e-01 6.951941016011038e-01 0.000000000000000e+00
					6.361194702510349e-01 6.361194702510349e-01 0.000000000000000e+00
					4.770896026882762e-01 6.668811890010349e-01 0.000000000000000e+00
					4.379216821506209e-01 5.975674512008278e-01 0.000000000000000e+00
					6.361194702510349e-01 6.361194702510349e-01 0.000000000000000e+00
					5.838955762008278e-01 5.838955762008278e-01 0.000000000000000e+00
					4.379216821506209e-01 5.975674512008278e-01 0.000000000000000e+00
					4.038918145878622e-01 5.419403882004830e-01 0.000000000000000e+00
					5.838955762008278e-01 5.838955762008278e-01 0.000000000000000e+00
					5.385224194504830e-01 5.385224194504830e-01 0.000000000000000e+00
					4.038918145878622e-01 5.419403882004830e-01 0.000000000000000e+00
					3.750000000000000e-01 5.000000000000000e-01 0.000000000000000e+00
					5.385224194504830e-01 5.385224194504830e-01 0.000000000000000e+00
					5.000000000000000e-01 5.000000000000000e-01 0.000000000000000e+00
				</DataArray>
			</Points>
			<Cells>
				<DataArray Name="connectivity" type="UInt32" format="ascii">
					0 1 3 2 4 5 7 6 8 9 11 10 12 13 15 14 16 17 19 18 20 21 23 22 24 25 27 26 28 29 31 30 32 33 35 34 36 37 39 38 40 41 43 42 44 45 47 46 48 49 51 50 52 53 55 54 56 57 59 58 60 61 63 62 64 65 67 66 68 69 71 70 72 73 75 74 76 77 79 78 80 81 83 82 84 85 87 86 88 89 91 90 92 93 95 94 96 97 99 98 100 101 103 102 104 105 107 106 108 109 111 110 112 113 115 114 116 117 119 118 120 121 123 122 124 125 127 126 128 129 131 130 132 133 135 134 136 137 139 138 140 141 143 142 144 145 147 146 148 149 151 150 152 153 155 154 156 157 159 158 160 161 163 162 164 165 167 166 168 169 171 170 172 173 175 174 176 177 179 178 180 181 183 182 184 185 187 186 188 189 191 190 192 193 195 194 196 197 199 198 200 201 203 202 204 205 207 206 208 209 211 210 212 213 215 214 216 217 219 218 220 221 223 222 224 225 227 226 228 229 231 230 232 233 235 234 236 237 239 238 240 241 243 242 244 245 247 246 248 249 251 250 252 253 255 254 
				</DataArray>
				<DataArray Name="offsets" type="UInt32" format="ascii">
					4 8 12 16 20 24 28 32 36 40 44 48 52 56 60 64 68 72 76 80 84 88 92 96 100 104 108 112 116 120 124 128 132 136 140 144 148 152 156 160 164 168 172 176 180 184 188 192 196 200 204 208 212 216 220 224 228 232 236 240 244 248 252 256 
				</DataArray>
				<DataArray Name="types" type="UInt8" format="ascii">
					9 9 9 9 9 9 9 9 9 9 9 9 9 9 9 9 9 9 9 9 9 9 9 9 9 9 9 9 9 9 9 9 9 9 9 9 9 9 9 9 9 9 9 9 9 9 9 9 9 9 9 9 9 9 9 9 9 9 9 9 9 9 9 9 
				</DataArray>
			</Cells>
			<PointData Vectors="solution ">
				<DataArray Name="solution" type="Float64" NumberOfComponents="1" format="ascii">
					0.000000000000000e+00 3.123600628950418e-02 0.000000000000000e+00 1.125344717963514e-01 3.123600628950418e-02 3.699332410558676e-01 1.125344717963514e-01 1.082955690787606e+00 3.699332410558677e-01 1.318318072935705e+00 1.082955690787607e+00 3.368712468674434e+00 1.318318072935705e+00 2.936986810169823e+00 3.368712468674434e+00 6.606491232129626e+00 2.936986810169824e+00 5.060781775387552e+00 6.606491232129628e+00 1.013621161282507e+01 5.060781775387553e+00 7.428214645106520e+00 1.013621161282507e+01 1.342981617455565e+01 7.428214645106521e+00 9.786718133893258e+00 1.342981617455565e+01 1.621334558943082e+01 9.786718133893258e+00 1.194337789060552e+01 1.621334558943082e+01 1.841747907926822e+01 0.000000000000000e+00 1.125344717963514e-01 0.000000000000000e+00 2.843481734652120e-01 1.125344717963514e-01 1.082955690787607e+00 2.843481734652120e-01 2.369970256393206e+00 1.082955690787607e+00 3.368712468674434e+00 2.369970256393207e+00 6.686616534301197e+00 3.368712468674434e+00 6.606491232129628e+00 6.686616534301197e+00 1.201859362422478e+01 6.606491232129629e+00 1.013621161282507e+01 1.201859362422478e+01 1.701882926509876e+01 1.013621161282508e+01 1.342981617455565e+01 1.701882926509877e+01 2.098646844924301e+01 1.342981617455565e+01 1.621334558943082e+01 2.098646844924301e+01 2.382185924378729e+01 1.621334558943082e+01 1.841747907926823e+01 2.382185924378729e+01 2.573467786508731e+01 0.000000000000000e+00 2.843481734652120e-01 0.000000000000000e+00 5.568113598060096e-01 2.843481734652120e-01 2.369970256393207e+00 5.568113598060097e-01 4.078947695007487e+00 2.369970256393207e+00 6.686616534301197e+00 4.078947695007489e+00 1.075166784928108e+01 6.686616534301199e+00 1.201859362422478e+01 1.075166784928108e+01 1.825625682287628e+01 1.201859362422478e+01 1.701882926509877e+01 1.825625682287628e+01 2.454419412399216e+01 1.701882926509877e+01 2.098646844924301e+01 2.454419412399216e+01 2.888963206559609e+01 2.098646844924301e+01 2.382185924378729e+01 2.888963206559609e+01 3.150804656967501e+01 2.382185924378729e+01 2.573467786508731e+01 3.150804656967501e+01 3.294747289857661e+01 0.000000000000000e+00 5.568113598060097e-01 0.000000000000000e+00 8.157511546880940e-01 5.568113598060098e-01 4.078947695007489e+00 8.157511546880942e-01 5.611398149418582e+00 4.078947695007489e+00 1.075166784928108e+01 5.611398149418584e+00 1.427363022533790e+01 1.075166784928108e+01 1.825625682287628e+01 1.427363022533791e+01 2.352668428311405e+01 1.825625682287629e+01 2.454419412399216e+01 2.352668428311405e+01 3.079320382194600e+01 2.454419412399217e+01 2.888963206559609e+01 3.079320382194600e+01 3.538837293350838e+01 2.888963206559609e+01 3.150804656967501e+01 3.538837293350838e+01 3.780727708888318e+01 3.150804656967501e+01 3.294747289857661e+01 3.780727708888318e+01 3.886464234052879e+01 0.000000000000000e+00 8.157511546880942e-01 0.000000000000000e+00 8.784553614178147e-01 8.157511546880942e-01 5.611398149418584e+00 8.784553614178148e-01 6.189228244842738e+00 5.611398149418584e+00 1.427363022533791e+01 6.189228244842739e+00 1.573140988259390e+01 1.427363022533791e+01 2.352668428311405e+01 1.573140988259391e+01 2.584541964855155e+01 2.352668428311406e+01 3.079320382194600e+01 2.584541964855156e+01 3.373597535356688e+01 3.079320382194601e+01 3.538837293350838e+01 3.373597535356689e+01 3.868653821772335e+01 3.538837293350838e+01 3.780727708888318e+01 3.868653821772335e+01 4.124796609738638e+01 3.780727708888320e+01 3.886464234052879e+01 4.124796609738639e+01 4.230976046440762e+01 0.000000000000000e+00 8.784553614178148e-01 0.000000000000000e+00 7.060547742997435e-01 8.784553614178148e-01 6.189228244842739e+00 7.060547742997435e-01 5.456428988905019e+00 6.189228244842739e+00 1.573140988259391e+01 5.456428988905019e+00 1.431452998246306e+01 1.573140988259391e+01 2.584541964855156e+01 1.431452998246307e+01 2.408652927067903e+01 2.584541964855156e+01 3.373597535356689e+01 2.408652927067903e+01 3.214935192339716e+01 3.373597535356689e+01 3.868653821772335e+01 3.214935192339716e+01 3.762495249889157e+01 3.868653821772336e+01 4.124796609738639e+01 3.762495249889157e+01 4.081354076116587e+01 4.124796609738640e+01 4.230976046440763e+01 4.081354076116587e+01 4.242639655221764e+01 0.000000000000000e+00 7.060547742997435e-01 0.000000000000000e+00 4.406321583125872e-01 7.060547742997436e-01 5.456428988905019e+00 4.406321583125872e-01 3.783226934008457e+00 5.456428988905021e+00 1.431452998246306e+01 3.783226934008458e+00 1.055215937227474e+01 1.431452998246307e+01 2.408652927067903e+01 1.055215937227474e+01 1.874372468410432e+01 2.408652927067903e+01 3.214935192339716e+01 1.874372468410432e+01 2.631813412158906e+01 3.214935192339717e+01 3.762495249889157e+01 2.631813412158906e+01 3.224143075263289e+01 3.762495249889158e+01 4.081354076116587e+01 3.224143075263290e+01 3.635832584202607e+01 4.081354076116589e+01 4.242639655221765e+01 3.635832584202608e+01 3.897798659714056e+01 0.000000000000000e+00 4.406321583125872e-01 0.000000000000000e+00 1.972853892307060e-01 4.406321583125872e-01 3.783226934008458e+00 1.972853892307060e-01 1.966745264701365e+00 3.783226934008458e+00 1.055215937227474e+01 1.966745264701365e+00 6.042069395910476e+00 1.055215937227474e+01 1.874372468410432e+01 6.042069395910477e+00 1.179511076272536e+01 1.874372468410432e+01 2.631813412158906e+01 1.179511076272536e+01 1.806036515047071e+01 2.631813412158907e+01 3.224143075263290e+01 1.806036515047071e+01 2.388270330972330e+01 3.224143075263290e+01 3.635832584202608e+01 2.388270330972330e+01 2.874039060505524e+01 3.635832584202608e+01 3.897798659714057e+01 2.874039060505524e+01 3.247193986652916e+01 
				</DataArray>
			</PointData>
			<CellData>
			</CellData>
		</Piece>
	</UnstructuredGrid>
</VTKFile>