<?xml version="1.0"?>
<VTKFile type="UnstructuredGrid" byte_order="LittleEndian">
	<UnstructuredGrid>
		<Piece NumberOfPoints="256" NumberOfCells="64">
			<Points>
				<DataArray type="Float64" NumberOfComponents="3" format="ascii">
					-5.000000000000000e-01 -5.000000000000000e-01 0.000000000000000e+00
					-3.750000000000000e-01 -5.000000000000000e-01 0.000000000000000e+00
					-5.000000000000000e-01 -3.750000000000000e-01 0.000000000000000e+00
					-3.750000000000000e-01 -3.750000000000000e-01 0.000000000000000e+00
					-3.750000000000000e-01 -5.000000000000000e-01 0.000000000000000e+00
					-2.500000000000000e-01 -5.000000000000000e-01 0.000000000000000e+00
					-3.750000000000000e-01 -3.750000000000000e-01 0.000000000000000e+00
					-2.500000000000000e-01 -3.750000000000000e-01 0.000000000000000e+00
					-2.500000000000000e-01 -5.000000000000000e-01 0.000000000000000e+00
					-1.250000000000000e-01 -5.000000000000000e-01 0.000000000000000e+00
					-2.500000000000000e-01 -3.750000000000000e-01 0.000000000000000e+00
					-1.250000000000000e-01 -3.750000000000000e-01 0.000000000000000e+00
					-1.250000000000000e-01 -5.000000000000000e-01 0.000000000000000e+00
					0.000000000000000e+00 -5.000000000000000e-01 0.000000000000000e+00
					-1.250000000000000e-01 -3.750000000000000e-01 0.000000000000000e+00
					0.000000000000000e+00 -3.750000000000000e-01 0.000000000000000e+00
					0.000000000000000e+00 -5.000000000000000e-01 0.000000000000000e+00
					1.250000000000000e-01 -5.000000000000000e-01 0.000000000000000e+00
					0.000000000000000e+00 -3.750000000000000e-01 0.000000000000000e+00
					1.250000000000000e-01 -3.750000000000000e-01 0.000000000000000e+00
					1.250000000000000e-01 -5.000000000000000e-01 0.000000000000000e+00
					2.500000000000000e-01 -5.000000000000000e-01 0.000000000000000e+00
					1.250000000000000e-01 -3.750000000000000e-01 0.000000000000000e+00
					2.500000000000000e-01 -3.750000000000000e-01 0.000000000000000e+00
					2.500000000000000e-01 -5.000000000000000e-01 0.000000000000000e+00
					3.750000000000000e-01 -5.000000000000000e-01 0.000000000000000e+00
					2.500000000000000e-01 -3.750000000000000e-01 0.000000000000000e+00
					3.750000000000000e-01 -3.750000000000000e-01 0.000000000000000e+00
					3.750000000000000e-01 -5.000000000000000e-01 0.000000000000000e+00
					5.000000000000000e-01 -5.000000000000000e-01 0.000000000000000e+00
					3.750000000000000e-01 -3.750000000000000e-01 0.000000000000000e+00
					5.000000000000000e-01 -3.750000000000000e-01 0.000000000000000e+00
					-5.000000000000000e-01 -3.750000000000000e-01 0.000000000000000e+00
					-3.750000000000000e-01 -3.750000000000000e-01 0.000000000000000e+00
					-5.000000000000000e-01 -2.500000000000000e-01 0.000000000000000e+00
					-3.750000000000001e-01 -2.500000000000000e-01 0.000000000000000e+00
					-3.750000000000000e-01 -3.750000000000000e-01 0.000000000000000e+00
					-2.500000000000000e-01 -3.750000000000000e-01 0.000000000000000e+00
					-3.750000000000001e-01 -2.500000000000000e-01 0.000000000000000e+00
					-2.500000000000000e-01 -2.500000000000000e-01 0.000000000000000e+00
					-2.500000000000000e-01 -3.750000000000000e-01 0.000000000000000e+00
					-1.250000000000000e-01 -3.750000000000000e-01 0.000000000000000e+00
					-2.500000000000000e-01 -2.500000000000000e-01 0.000000000000000e+00
					-1.250000000000000e-01 -2.500000000000000e-01 0.000000000000000e+00
					-1.250000000000000e-01 -3.750000000000000e-01 0.000000000000000e+00
					0.000000000000000e+00 -3.750000000000000e-01 0.000000000000000e+00
					-1.250000000000000e-01 -2.500000000000000e-01 0.000000000000000e+00
					0.000000000000000e+00 -2.500000000000000e-01 0.000000000000000e+00
					0.000000000000000e+00 -3.750000000000000e-01 0.000000000000000e+00
					1.250000000000000e-01 -3.750000000000000e-01 0.000000000000000e+00
					0.000000000000000e+00 -2.500000000000000e-01 0.000000000000000e+00
					1.250000000000000e-01 -2.500000000000000e-01 0.000000000000000e+00
					1.250000000000000e-01 -3.750000000000000e-01 0.000000000000000e+00
					2.500000000000000e-01 -3.750000000000000e-01 0.000000000000000e+00
					1.250000000000000e-01 -2.500000000000000e-01 0.000000000000000e+00
					2.500000000000000e-01 -2.500000000000000e-01 0.000000000000000e+00
					2.500000000000000e-01 -3.750000000000000e-01 0.000000000000000e+00
					3.750000000000000e-01 -3.750000000000000e-01 0.000000000000000e+00
					2.500000000000000e-01 -2.500000000000000e-01 0.000000000000000e+00
					3.750000000000001e-01 -2.500000000000000e-01 0.000000000000000e+00
					3.750000000000000e-01 -3.750000000000000e-01 0.000000000000000e+00
					5.000000000000000e-01 -3.750000000000000e-01 0.000000000000000e+00
					3.750000000000001e-01 -2.500000000000000e-01 0.000000000000000e+00
					5.000000000000000e-01 -2.500000000000000e-01 0.000000000000000e+00
					-5.000000000000000e-01 -2.500000000000000e-01 0.000000000000000e+00
					-3.750000000000001e-01 -2.500000000000000e-01 0.000000000000000e+00
					-5.000000000000000e-01 -1.250000000000000e-01 0.000000000000000e+00
					-3.750000000000001e-01 -1.250000000000000e-01 0.000000000000000e+00
					-3.750000000000001e-01 -2.500000000000000e-01 0.000000000000000e+00
					-2.500000000000000e-01 -2.500000000000000e-01 0.000000000000000e+00
					-3.750000000000001e-01 -1.250000000000000e-01 0.000000000000000e+00
					-2.500000000000000e-01 -1.250000000000000e-01 0.000000000000000e+00
					-2.500000000000000e-01 -2.500000000000000e-01 0.000000000000000e+00
					-1.250000000000000e-01 -2.500000000000000e-01 0.000000000000000e+00
					-2.500000000000000e-01 -1.250000000000000e-01 0.000000000000000e+00
					-1.250000000000000e-01 -1.250000000000000e-01 0.000000000000000e+00
					-1.250000000000000e-01 -2.500000000000000e-01 0.000000000000000e+00
					0.000000000000000e+00 -2.500000000000000e-01 0.000000000000000e+00
					-1.250000000000000e-01 -1.250000000000000e-01 0.000000000000000e+00
					0.000000000000000e+00 -1.250000000000000e-01 0.000000000000000e+00
					0.000000000000000e+00 -2.500000000000000e-01 0.000000000000000e+00
					1.250000000000000e-01 -2.500000000000000e-01 0.000000000000000e+00
					0.000000000000000e+00 -1.250000000000000e-01 0.000000000000000e+00
					1.250000000000000e-01 -1.250000000000000e-01 0.000000000000000e+00
					1.250000000000000e-01 -2.500000000000000e-01 0.000000000000000e+00
					2.500000000000000e-01 -2.500000000000000e-01 0.000000000000000e+00
					1.250000000000000e-01 -1.250000000000000e-01 0.000000000000000e+00
					2.500000000000000e-01 -1.250000000000000e-01 0.000000000000000e+00
					2.500000000000000e-01 -2.500000000000000e-01 0.000000000000000e+00
					3.750000000000001e-01 -2.500000000000000e-01 0.000000000000000e+00
					2.500000000000000e-01 -1.250000000000000e-01 0.000000000000000e+00
					3.750000000000001e-01 -1.250000000000000e-01 0.000000000000000e+00
					3.750000000000001e-01 -2.500000000000000e-01 0.000000000000000e+00
					5.000000000000000e-01 -2.500000000000000e-01 0.000000000000000e+00
					3.750000000000001e-01 -1.250000000000000e-01 0.000000000000000e+00
					5.000000000000000e-01 -1.250000000000000e-01 0.000000000000000e+00
					-5.000000000000000e-01 -1.250000000000000e-01 0.000000000000000e+00
					-3.750000000000001e-01 -1.250000000000000e-01 0.000000000000000e+00
					-5.000000000000000e-01 0.000000000000000e+00 0.000000000000000e+00
					-3.750000000000000e-01 0.000000000000000e+00 0.000000000000000e+00
					-3.750000000000001e-01 -1.250000000000000e-01 0.000000000000000e+00
					-2.500000000000000e-01 -1.250000000000000e-01 0.000000000000000e+00
					-3.750000000000000e-01 0.000000000000000e+00 0.000000000000000e+00
					-2.500000000000000e-01 0.000000000000000e+00 0.000000000000000e+00
					-2.500000000000000e-01 -1.250000000000000e-01 0.000000000000000e+00
					-1.250000000000000e-01 -1.250000000000000e-01 0.000000000000000e+00
					-2.500000000000000e-01 0.000000000000000e+00 0.000000000000000e+00
					-1.250000000000000e-01 0.000000000000000e+00 0.000000000000000e+00
					-1.250000000000000e-01 -1.250000000000000e-01 0.000000000000000e+00
					0.000000000000000e+00 -1.250000000000000e-01 0.000000000000000e+00
					-1.250000000000000e-01 0.000000000000000e+00 0.000000000000000e+00
					0.000000000000000e+00 0.000000000000000e+00 0.000000000000000e+00
					0.000000000000000e+00 -1.250000000000000e-01 0.000000000000000e+00
					1.250000000000000e-01 -1.250000000000000e-01 0.000000000000000e+00
					0.000000000000000e+00 0.000000000000000e+00 0.000000000000000e+00
					1.250000000000000e-01 0.000000000000000e+00 0.000000000000000e+00
					1.250000000000000e-01 -1.250000000000000e-01 0.000000000000000e+00
					2.500000000000000e-01 -1.250000000000000e-01 0.000000000000000e+00
					1.250000000000000e-01 0.000000000000000e+00 0.000000000000000e+00
					2.500000000000000e-01 0.000000000000000e+00 0.000000000000000e+00
					2.500000000000000e-01 -1.250000000000000e-01 0.000000000000000e+00
					3.750000000000001e-01 -1.250000000000000e-01 0.000000000000000e+00
					2.500000000000000e-01 0.000000000000000e+00 0.000000000000000e+00
					3.750000000000001e-01 0.000000000000000e+00 0.000000000000000e+00
					3.750000000000001e-01 -1.250000000000000e-01 0.000000000000000e+00
					5.000000000000000e-01 -1.250000000000000e-01 0.000000000000000e+00
					3.750000000000001e-01 0.000000000000000e+00 0.000000000000000e+00
					5.000000000000000e-01 0.000000000000000e+00 0.000000000000000e+00
					-5.000000000000000e-01 0.000000000000000e+00 0.000000000000000e+00
					-3.750000000000000e-01 0.000000000000000e+00 0.000000000000000e+00
					-5.000000000000000e-01 1.250000000000000e-01 0.000000000000000e+00
					-3.750000000000000e-01 1.250000000000000e-01 0.000000000000000e+00
					-3.750000000000000e-01 0.000000000000000e+00 0.000000000000000e+00
					-2.500000000000000e-01 0.000000000000000e+00 0.000000000000000e+00
					-3.750000000000000e-01 1.250000000000000e-01 0.000000000000000e+00
					-2.500000000000000e-01 1.250000000000000e-01 0.000000000000000e+00
					-2.500000000000000e-01 0.000000000000000e+00 0.000000000000000e+00
					-1.250000000000000e-01 0.000000000000000e+00 0.000000000000000e+00
					-2.500000000000000e-01 1.250000000000000e-01 0.000000000000000e+00
					-1.250000000000000e-01 1.250000000000000e-01 0.000000000000000e+00
					-1.250000000000000e-01 0.000000000000000e+00 0.000000000000000e+00
					0.000000000000000e+00 0.000000000000000e+00 0.000000000000000e+00
					-1.250000000000000e-01 1.250000000000000e-01 0.000000000000000e+00
					0.000000000000000e+00 1.250000000000000e-01 0.000000000000000e+00
					0.000000000000000e+00 0.000000000000000e+00 0.000000000000000e+00
					1.250000000000000e-01 0.000000000000000e+00 0.000000000000000e+00
					0.000000000000000e+00 1.250000000000000e-01 0.000000000000000e+00
					1.250000000000000e-01 1.250000000000000e-01 0.000000000000000e+00
					1.250000000000000e-01 0.000000000000000e+00 0.000000000000000e+00
					2.500000000000000e-01 0.000000000000000e+00 0.000000000000000e+00
					1.250000000000000e-01 1.250000000000000e-01 0.000000000000000e+00
					2.500000000000000e-01 1.250000000000000e-01 0.000000000000000e+00
					2.500000000000000e-01 0.000000000000000e+00 0.000000000000000e+00
					3.750000000000001e-01 0.000000000000000e+00 0.000000000000000e+00
					2.500000000000000e-01 1.250000000000000e-01 0.000000000000000e+00
					3.750000000000000e-01 1.250000000000000e-01 0.000000000000000e+00
					3.750000000000001e-01 0.000000000000000e+00 0.000000000000000e+00
					5.000000000000000e-01 0.000000000000000e+00 0.000000000000000e+00
					3.750000000000000e-01 1.250000000000000e-01 0.000000000000000e+00
					5.000000000000000e-01 1.250000000000000e-01 0.000000000000000e+00
					-5.000000000000000e-01 1.250000000000000e-01 0.000000000000000e+00
					-3.750000000000000e-01 1.250000000000000e-01 0.000000000000000e+00
					-5.000000000000000e-01 2.500000000000000e-01 0.000000000000000e+00
					-3.750000000000000e-01 2.500000000000000e-01 0.000000000000000e+00
					-3.750000000000000e-01 1.250000000000000e-01 0.000000000000000e+00
					-2.500000000000000e-01 1.250000000000000e-01 0.000000000000000e+00
					-3.750000000000000e-01 2.500000000000000e-01 0.000000000000000e+00
					-2.500000000000000e-01 2.500000000000000e-01 0.000000000000000e+00
					-2.500000000000000e-01 1.250000000000000e-01 0.000000000000000e+00
					-1.250000000000000e-01 1.250000000000000e-01 0.000000000000000e+00
					-2.500000000000000e-01 2.500000000000000e-01 0.000000000000000e+00
					-1.250000000000000e-01 2.500000000000000e-01 0.000000000000000e+00
					-1.250000000000000e-01 1.250000000000000e-01 0.000000000000000e+00
					0.000000000000000e+00 1.250000000000000e-01 0.000000000000000e+00
					-1.250000000000000e-01 2.500000000000000e-01 0.000000000000000e+00
					0.000000000000000e+00 2.500000000000000e-01 0.000000000000000e+00
					0.000000000000000e+00 1.250000000000000e-01 0.000000000000000e+00
					1.250000000000000e-01 1.250000000000000e-01 0.000000000000000e+00
					0.000000000000000e+00 2.500000000000000e-01 0.000000000000000e+00
					1.250000000000000e-01 2.500000000000000e-01 0.000000000000000e+00
					1.250000000000000e-01 1.250000000000000e-01 0.000000000000000e+00
					2.500000000000000e-01 1.250000000000000e-01 0.000000000000000e+00
					1.250000000000000e-01 2.500000000000000e-01 0.000000000000000e+00
					2.500000000000000e-01 2.500000000000000e-01 0.000000000000000e+00
					2.500000000000000e-01 1.250000000000000e-01 0.000000000000000e+00
					3.750000000000000e-01 1.250000000000000e-01 0.000000000000000e+00
					2.500000000000000e-01 2.500000000000000e-01 0.000000000000000e+00
					3.750000000000000e-01 2.500000000000000e-01 0.000000000000000e+00
					3.750000000000000e-01 1.250000000000000e-01 0.000000000000000e+00
					5.000000000000000e-01 1.250000000000000e-01 0.000000000000000e+00
					3.750000000000000e-01 2.500000000000000e-01 0.000000000000000e+00
					5.000000000000000e-01 2.500000000000000e-01 0.000000000000000e+00
					-5.000000000000000e-01 2.500000000000000e-01 0.000000000000000e+00
					-3.750000000000000e-01 2.500000000000000e-01 0.000000000000000e+00
					-5.000000000000000e-01 3.750000000000000e-01 0.000000000000000e+00
					-3.750000000000000e-01 3.750000000000000e-01 0.000000000000000e+00
					-3.750000000000000e-01 2.500000000000000e-01 0.000000000000000e+00
					-2.500000000000000e-01 2.500000000000000e-01 0.000000000000000e+00
					-3.750000000000000e-01 3.750000000000000e-01 0.000000000000000e+00
					-2.500000000000000e-01 3.750000000000000e-01 0.000000000000000e+00
					-2.500000000000000e-01 2.500000000000000e-01 0.000000000000000e+00
					-1.250000000000000e-01 2.500000000000000e-01 0.000000000000000e+00
					-2.500000000000000e-01 3.750000000000000e-01 0.000000000000000e+00
					-1.250000000000000e-01 3.750000000000000e-01 0.000000000000000e+00
					-1.250000000000000e-01 2.500000000000000e-01 0.000000000000000e+00
					0.000000000000000e+00 2.500000000000000e-01 0.000000000000000e+00
					-1.250000000000000e-01 3.750000000000000e-01 0.000000000000000e+00
					0.000000000000000e+00 3.750000000000000e-01 0.000000000000000e+00
					0.000000000000000e+00 2.500000000000000e-01 0.000000000000000e+00
					1.250000000000000e-01 2.500000000000000e-01 0.000000000000000e+00
					0.000000000000000e+00 3.750000000000000e-01 0.000000000000000e+00
					1.250000000000000e-01 3.750000000000000e-01 0.000000000000000e+00
					1.250000000000000e-01 2.500000000000000e-01 0.000000000000000e+00
					2.500000000000000e-01 2.500000000000000e-01 0.000000000000000e+00
					1.250000000000000e-01 3.750000000000000e-01 0.000000000000000e+00
					2.500000000000000e-01 3.750000000000000e-01 0.000000000000000e+00
					2.500000000000000e-01 2.500000000000000e-01 0.000000000000000e+00
					3.750000000000000e-01 2.500000000000000e-01 0.000000000000000e+00
					2.500000000000000e-01 3.750000000000000e-01 0.000000000000000e+00
					3.750000000000000e-01 3.750000000000000e-01 0.000000000000000e+00
					3.750000000000000e-01 2.500000000000000e-01 0.000000000000000e+00
					5.000000000000000e-01 2.500000000000000e-01 0.000000000000000e+00
					3.750000000000000e-01 3.750000000000000e-01 0.000000000000000e+00
					5.000000000000000e-01 3.750000000000000e-01 0.000000000000000e+00
					-5.000000000000000e-01 3.750000000000000e-01 0.000000000000000e+00
					-3.750000000000000e-01 3.750000000000000e-01 0.000000000000000e+00
					-5.000000000000000e-01 5.000000000000000e-01 0.000000000000000e+00
					-3.750000000000000e-01 5.000000000000000e-01 0.000000000000000e+00
					-3.750000000000000e-01 3.750000000000000e-01 0.000000000000000e+00
					-2.500000000000000e-01 3.750000000000000e-01 0.000000000000000e+00
					-3.750000000000000e-01 5.000000000000000e-01 0.000000000000000e+00
					-2.500000000000000e-01 5.000000000000000e-01 0.000000000000000e+00
					-2.500000000000000e-01 3.750000000000000e-01 0.000000000000000e+00
					-1.250000000000000e-01 3.750000000000000e-01 0.000000000000000e+00
					-2.500000000000000e-01 5.000000000000000e-01 0.000000000000000e+00
					-1.250000000000000e-01 5.000000000000000e-01 0.000000000000000e+00
					-1.250000000000000e-01 3.750000000000000e-01 0.000000000000000e+00
					0.000000000000000e+00 3.750000000000000e-01 0.000000000000000e+00
					-1.250000000000000e-01 5.000000000000000e-01 0.000000000000000e+00
					0.000000000000000e+00 5.000000000000000e-01 0.000000000000000e+00
					0.000000000000000e+00 3.750000000000000e-01 0.000000000000000e+00
					1.250000000000000e-01 3.750000000000000e-01 0.000000000000000e+00
					0.000000000000000e+00 5.000000000000000e-01 0.000000000000000e+00
					1.250000000000000e-01 5.000000000000000e-01 0.000000000000000e+00
					1.250000000000000e-01 3.750000000000000e-01 0.000000000000000e+00
					2.500000000000000e-01 3.750000000000000e-01 0.000000000000000e+00
					1.250000000000000e-01 5.000000000000000e-01 0.000000000000000e+00
					2.500000000000000e-01 5.000000000000000e-01 0.000000000000000e+00
					2.500000000000000e-01 3.750000000000000e-01 0.000000000000000e+00
					3.750000000000000e-01 3.750000000000000e-01 0.000000000000000e+00
					2.500000000000000e-01 5.000000000000000e-01 0.000000000000000e+00
					3.750000000000000e-01 5.000000000000000e-01 0.000000000000000e+00
					3.750000000000000e-01 3.750000000000000e-01 0.000000000000000e+00
					5.000000000000000e-01 3.750000000000000e-01 0.000000000000000e+00
					3.750000000000000e-01 5.000000000000000e-01 0.000000000000000e+00
					5.000000000000000e-01 5.000000000000000e-01 0.000000000000000e+00
				</DataArray>
			</Points>
			<Cells>
				<DataArray Name="connectivity" type="UInt32" format="ascii">
					0 1 3 2 4 5 7 6 8 9 11 10 12 13 15 14 16 17 19 18 20 21 23 22 24 25 27 26 28 29 31 30 32 33 35 34 36 37 39 38 40 41 43 42 44 45 47 46 48 49 51 50 52 53 55 54 56 57 59 58 60 61 63 62 64 65 67 66 68 69 71 70 72 73 75 74 76 77 79 78 80 81 83 82 84 85 87 86 88 89 91 90 92 93 95 94 96 97 99 98 100 101 103 102 104 105 107 106 108 109 111 110 112 113 115 114 116 117 119 118 120 121 123 122 124 125 127 126 128 129 131 130 132 133 135 134 136 137 139 138 140 141 143 142 144 145 147 146 148 149 151 150 152 153 155 154 156 157 159 158 160 161 163 162 164 165 167 166 168 169 171 170 172 173 175 174 176 177 179 178 180 181 183 182 184 185 187 186 188 189 191 190 192 193 195 194 196 197 199 198 200 201 203 202 204 205 207 206 208 209 211 210 212 213 215 214 216 217 219 218 220 221 223 222 224 225 227 226 228 229 231 230 232 233 235 234 236 237 239 238 240 241 243 242 244 245 247 246 248 249 251 250 252 253 255 254 
				</DataArray>
				<DataArray Name="offsets" type="UInt32" format="ascii">
					4 8 12 16 20 24 28 32 36 40 44 48 52 56 60 64 68 72 76 80 84 88 92 96 100 104 108 112 116 120 124 128 132 136 140 144 148 152 156 160 164 168 172 176 180 184 188 192 196 200 204 208 212 216 220 224 228 232 236 240 244 248 252 256 
				</DataArray>
				<DataArray Name="types" type="UInt8" format="ascii">
					9 9 9 9 9 9 9 9 9 9 9 9 9 9 9 9 9 9 9 9 9 9 9 9 9 9 9 9 9 9 9 9 9 9 9 9 9 9 9 9 9 9 9 9 9 9 9 9 9 9 9 9 9 9 9 9 9 9 9 9 9 9 9 9 
				</DataArray>
			</Cells>
			<PointData Vectors="solution ">
				<DataArray Name="solution" type="Float64" NumberOfComponents="1" format="ascii">
					1.638939210334644e+00 2.538486673062400e+00 2.887954583585211e+00 4.343089634026066e+00 2.538486673062401e+00 3.567618245179765e+00 4.343089634026066e+00 5.977468373150992e+00 3.567618245179766e+00 4.559355591772783e+00 5.977468373150993e+00 7.570726618481299e+00 4.559355591772784e+00 5.338148578738807e+00 7.570726618481302e+00 8.866401568219658e+00 5.338148578738807e+00 5.745885510214640e+00 8.866401568219658e+00 9.630309025086266e+00 5.745885510214642e+00 5.726656907185695e+00 9.630309025086268e+00 9.717901860976431e+00 5.726656907185696e+00 5.271951094028655e+00 9.717901860976431e+00 9.074534068139267e+00 5.271951094028655e+00 4.394241140912470e+00 9.074534068139267e+00 7.743701704815511e+00 2.887954583585212e+00 4.343089634026066e+00 4.611761399435444e+00 6.788668774491612e+00 4.343089634026067e+00 5.977468373150992e+00 6.788668774491613e+00 9.216892659593219e+00 5.977468373150993e+00 7.570726618481300e+00 9.216892659593221e+00 1.160591918223007e+01 7.570726618481302e+00 8.866401568219658e+00 1.160591918223007e+01 1.359247442818610e+01 8.866401568219660e+00 9.630309025086268e+00 1.359247442818610e+01 1.483162778180102e+01 9.630309025086270e+00 9.717901860976431e+00 1.483162778180103e+01 1.507723910126124e+01 9.717901860976431e+00 9.074534068139268e+00 1.507723910126124e+01 1.423364780336084e+01 9.074534068139268e+00 7.743701704815512e+00 1.423364780336084e+01 1.236133859159381e+01 4.611761399435445e+00 6.788668774491613e+00 6.634562092848507e+00 9.720621382961680e+00 6.788668774491613e+00 9.216892659593221e+00 9.720621382961680e+00 1.314883708939352e+01 9.216892659593221e+00 1.160591918223007e+01 1.314883708939352e+01 1.652274179304753e+01 1.160591918223007e+01 1.359247442818610e+01 1.652274179304753e+01 1.934759981066493e+01 1.359247442818610e+01 1.483162778180103e+01 1.934759981066493e+01 2.114130607100989e+01 1.483162778180103e+01 1.507723910126124e+01 2.114130607100990e+01 2.154228795647504e+01 1.507723910126124e+01 1.423364780336084e+01 2.154228795647504e+01 2.039731824066164e+01 1.423364780336084e+01 1.236133859159382e+01 2.039731824066164e+01 1.779808715774956e+01 6.634562092848508e+00 9.720621382961680e+00 8.754754497612062e+00 1.287268480974674e+01 9.720621382961681e+00 1.314883708939352e+01 1.287268480974674e+01 1.744132370683605e+01 1.314883708939352e+01 1.652274179304753e+01 1.744132370683605e+01 2.192320056719415e+01 1.652274179304753e+01 1.934759981066493e+01 2.192320056719415e+01 2.566924895881316e+01 1.934759981066493e+01 2.114130607100990e+01 2.566924895881316e+01 2.804601689117058e+01 2.114130607100990e+01 2.154228795647504e+01 2.804601689117059e+01 2.856748611208031e+01 2.154228795647504e+01 2.039731824066164e+01 2.856748611208031e+01 2.701549067843121e+01 2.039731824066164e+01 1.779808715774956e+01 2.701549067843121e+01 2.353693393857612e+01 8.754754497612062e+00 1.287268480974674e+01 1.071627043262984e+01 1.585427973106412e+01 1.287268480974674e+01 1.744132370683605e+01 1.585427973106412e+01 2.156737282673567e+01 1.744132370683605e+01 2.192320056719415e+01 2.156737282673567e+01 2.715286143089121e+01 2.192320056719415e+01 2.566924895881316e+01 2.715286143089122e+01 3.179283436956991e+01 2.566924895881316e+01 2.804601689117059e+01 3.179283436956991e+01 3.470520392541206e+01 2.804601689117059e+01 2.856748611208031e+01 3.470520392541207e+01 3.529716693152131e+01 2.856748611208032e+01 2.701549067843121e+01 3.529716693152131e+01 3.329653123664210e+01 2.701549067843122e+01 2.353693393857612e+01 3.329653123664211e+01 2.890646359579256e+01 1.071627043262985e+01 1.585427973106412e+01 1.214958761325389e+01 1.814695129275981e+01 1.585427973106412e+01 2.156737282673567e+01 1.814695129275981e+01 2.483818288272071e+01 2.156737282673567e+01 2.715286143089122e+01 2.483818288272071e+01 3.135723481141664e+01 2.715286143089122e+01 3.179283436956991e+01 3.135723481141664e+01 3.671511281327424e+01 3.179283436956992e+01 3.470520392541206e+01 3.671511281327425e+01 4.000497573389483e+01 3.470520392541207e+01 3.529716693152131e+01 4.000497573389483e+01 4.058343358769738e+01 3.529716693152132e+01 3.329653123664211e+01 4.058343358769738e+01 3.815116670463276e+01 3.329653123664211e+01 2.890646359579256e+01 3.815116670463276e+01 3.289621541595019e+01 1.214958761325389e+01 1.814695129275981e+01 1.268552032902263e+01 1.919125410491917e+01 1.814695129275982e+01 2.483818288272071e+01 1.919125410491918e+01 2.651628672673592e+01 2.483818288272072e+01 3.135723481141664e+01 2.651628672673592e+01 3.362475863046986e+01 3.135723481141664e+01 3.671511281327425e+01 3.362475863046986e+01 3.937188130383149e+01 3.671511281327425e+01 4.000497573389483e+01 3.937188130383149e+01 4.274997028948019e+01 4.000497573389483e+01 4.058343358769738e+01 4.274997028948020e+01 4.317548839500076e+01 4.058343358769738e+01 3.815116670463277e+01 4.317548839500077e+01 4.037879743688215e+01 3.815116670463277e+01 3.289621541595020e+01 4.037879743688215e+01 3.446123896985933e+01 1.268552032902263e+01 1.919125410491918e+01 1.198331438074530e+01 1.853792780605562e+01 1.919125410491918e+01 2.651628672673592e+01 1.853792780605563e+01 2.598944076636773e+01 2.651628672673592e+01 3.362475863046986e+01 2.598944076636774e+01 3.318908422763719e+01 3.362475863046987e+01 3.937188130383149e+01 3.318908422763719e+01 3.891547583372421e+01 3.937188130383150e+01 4.274997028948019e+01 3.891547583372421e+01 4.204476560959434e+01 4.274997028948020e+01 4.317548839500078e+01 4.204476560959434e+01 4.213027742769698e+01 4.317548839500078e+01 4.037879743688215e+01 4.213027742769698e+01 3.900467421439133e+01 4.037879743688216e+01 3.446123896985933e+01 3.900467421439133e+01 3.260822217763747e+01 
				</DataArray>
			</PointData>
			<CellData>
			</CellData>
		</Piece>
	</UnstructuredGrid>
</VTKFile>