<?xml version="1.0"?>
<VTKFile type="UnstructuredGrid" byte_order="LittleEndian">
	<UnstructuredGrid>
		<Piece NumberOfPoints="64" NumberOfCells="16">
			<Points>
				<DataArray type="Float64" NumberOfComponents="3" format="ascii">
					-1.000000000000000e+00 -1.000000000000000e+00 0.000000000000000e+00
					-8.338955762008279e-01 -8.338955762008279e-01 0.000000000000000e+00
					-1.375000000000000e+00 -5.000000000000000e-01 0.000000000000000e+00
					-1.044833076200828e+00 -4.169477881004139e-01 0.000000000000000e+00
					-8.338955762008279e-01 -8.338955762008279e-01 0.000000000000000e+00
					-6.951941016011038e-01 -6.951941016011038e-01 0.000000000000000e+00
					-1.044833076200828e+00 -4.169477881004139e-01 0.000000000000000e+00
					-7.889441016011038e-01 -3.475970508005519e-01 0.000000000000000e+00
					-6.951941016011038e-01 -6.951941016011038e-01 0.000000000000000e+00
					-5.838955762008279e-01 -5.838955762008279e-01 0.000000000000000e+00
					-7.889441016011038e-01 -3.475970508005519e-01 0.000000000000000e+00
					-6.073330762008279e-01 -2.919477881004139e-01 0.000000000000000e+00
					-5.838955762008279e-01 -5.838955762008279e-01 0.000000000000000e+00
					-5.000000000000000e-01 -5.000000000000000e-01 0.000000000000000e+00
					-6.073330762008279e-01 -2.919477881004139e-01 0.000000000000000e+00
					-5.000000000000000e-01 -2.500000000000000e-01 0.000000000000000e+00
					-1.375000000000000e+00 -5.000000000000000e-01 0.000000000000000e+00
					-1.044833076200828e+00 -4.169477881004139e-01 0.000000000000000e+00
					-1.500000000000000e+00 1.387778780781446e-17 0.000000000000000e+00
					-1.115145576200828e+00 2.081668171172169e-17 0.000000000000000e+00
					-1.044833076200828e+00 -4.169477881004139e-01 0.000000000000000e+00
					-7.889441016011038e-01 -3.475970508005519e-01 0.000000000000000e+00
					-1.115145576200828e+00 2.081668171172169e-17 0.000000000000000e+00
					-8.201941016011038e-01 0.000000000000000e+00 0.000000000000000e+00
					-7.889441016011038e-01 -3.475970508005519e-01 0.000000000000000e+00
					-6.073330762008279e-01 -2.919477881004139e-01 0.000000000000000e+00
					-8.201941016011038e-01 0.000000000000000e+00 0.000000000000000e+00
					-6.151455762008279e-01 1.387778780781446e-17 0.000000000000000e+00
					-6.073330762008279e-01 -2.919477881004139e-01 0.000000000000000e+00
					-5.000000000000000e-01 -2.500000000000000e-01 0.000000000000000e+00
					-6.151455762008279e-01 1.387778780781446e-17 0.000000000000000e+00
					-5.000000000000000e-01 6.938893903907228e-18 0.000000000000000e+00
					-1.500000000000000e+00 1.387778780781446e-17 0.000000000000000e+00
					-1.115145576200828e+00 2.081668171172169e-17 0.000000000000000e+00
					-1.375000000000000e+00 5.000000000000000e-01 0.000000000000000e+00
					-1.044833076200828e+00 4.169477881004140e-01 0.000000000000000e+00
					-1.115145576200828e+00 2.081668171172169e-17 0.000000000000000e+00
					-8.201941016011038e-01 0.000000000000000e+00 0.000000000000000e+00
					-1.044833076200828e+00 4.169477881004140e-01 0.000000000000000e+00
					-7.889441016011038e-01 3.475970508005519e-01 0.000000000000000e+00
					-8.201941016011038e-01 0.000000000000000e+00 0.000000000000000e+00
					-6.151455762008279e-01 1.387778780781446e-17 0.000000000000000e+00
					-7.889441016011038e-01 3.475970508005519e-01 0.000000000000000e+00
					-6.073330762008279e-01 2.919477881004139e-01 0.000000000000000e+00
					-6.151455762008279e-01 1.387778780781446e-17 0.000000000000000e+00
					-5.000000000000000e-01 6.938893903907228e-18 0.000000000000000e+00
					-6.073330762008279e-01 2.919477881004139e-01 0.000000000000000e+00
					-5.000000000000000e-01 2.500000000000000e-01 0.000000000000000e+00
					-1.375000000000000e+00 5.000000000000000e-01 0.000000000000000e+00
					-1.044833076200828e+00 4.169477881004140e-01 0.000000000000000e+00
					-1.000000000000000e+00 1.000000000000000e+00 0.000000000000000e+00
					-8.338955762008279e-01 8.338955762008279e-01 0.000000000000000e+00
					-1.044833076200828e+00 4.169477881004140e-01 0.000000000000000e+00
					-7.889441016011038e-01 3.475970508005519e-01 0.000000000000000e+00
					-8.338955762008279e-01 8.338955762008279e-01 0.000000000000000e+00
					-6.951941016011038e-01 6.951941016011038e-01 0.000000000000000e+00
					-7.889441016011038e-01 3.475970508005519e-01 0.000000000000000e+00
					-6.073330762008279e-01 2.919477881004139e-01 0.000000000000000e+00
					-6.951941016011038e-01 6.951941016011038e-01 0.000000000000000e+00
					-5.838955762008279e-01 5.838955762008279e-01 0.000000000000000e+00
					-6.073330762008279e-01 2.919477881004139e-01 0.000000000000000e+00
					-5.000000000000000e-01 2.500000000000000e-01 0.000000000000000e+00
					-5.838955762008279e-01 5.838955762008279e-01 0.000000000000000e+00
					-5.000000000000000e-01 5.000000000000000e-01 0.000000000000000e+00
				</DataArray>
			</Points>
			<Cells>
				<DataArray Name="connectivity" type="UInt32" format="ascii">
					0 1 3 2 4 5 7 6 8 9 11 10 12 13 15 14 16 17 19 18 20 21 23 22 24 25 27 26 28 29 31 30 32 33 35 34 36 37 39 38 40 41 43 42 44 45 47 46 48 49 51 50 52 53 55 54 56 57 59 58 60 61 63 62 
				</DataArray>
				<DataArray Name="offsets" type="UInt32" format="ascii">
					4 8 12 16 20 24 28 32 36 40 44 48 52 56 60 64 
				</DataArray>
				<DataArray Name="types" type="UInt8" format="ascii">
					9 9 9 9 9 9 9 9 9 9 9 9 9 9 9 9 
				</DataArray>
			</Cells>
			<PointData Vectors="solution ">
				<DataArray Name="solution" type="Float64" NumberOfComponents="1" format="ascii">
					0.000000000000000e+00 1.208846990022777e-01 0.000000000000000e+00 2.177526727753666e-01 1.208846990022777e-01 4.846371840651335e-01 2.177526727753667e-01 1.167066447979578e+00 4.846371840651336e-01 1.092902540643908e+00 1.167066447979578e+00 3.024033286270306e+00 1.092902540643908e+00 1.947323568858394e+00 3.024033286270306e+00 5.041352800615380e+00 0.000000000000000e+00 2.177526727753667e-01 0.000000000000000e+00 3.831218947941556e-01 2.177526727753667e-01 1.167066447979578e+00 3.831218947941556e-01 2.444964827013808e+00 1.167066447979578e+00 3.024033286270306e+00 2.444964827013808e+00 6.138218709716170e+00 3.024033286270306e+00 5.041352800615381e+00 6.138218709716170e+00 9.238043620120543e+00 0.000000000000000e+00 3.831218947941556e-01 0.000000000000000e+00 7.977212785053476e-01 3.831218947941556e-01 2.444964827013808e+00 7.977212785053477e-01 3.944636595995591e+00 2.444964827013808e+00 6.138218709716170e+00 3.944636595995591e+00 8.713334612878407e+00 6.138218709716170e+00 9.238043620120544e+00 8.713334612878407e+00 1.261441885965917e+01 0.000000000000000e+00 7.977212785053477e-01 0.000000000000000e+00 1.274200133113027e+00 7.977212785053478e-01 3.944636595995591e+00 1.274200133113027e+00 4.458964227404255e+00 3.944636595995592e+00 8.713334612878407e+00 4.458964227404255e+00 8.597522940631055e+00 8.713334612878409e+00 1.261441885965917e+01 8.597522940631055e+00 1.273309444317379e+01 
				</DataArray>
			</PointData>
			<CellData>
			</CellData>
		</Piece>
	</UnstructuredGrid>
</VTKFile>