<?xml version="1.0"?>
<VTKFile type="UnstructuredGrid" byte_order="LittleEndian">
	<UnstructuredGrid>
		<Piece NumberOfPoints="64" NumberOfCells="16">
			<Points>
				<DataArray type="Float64" NumberOfComponents="3" format="ascii">
					1.000000000000000e+00 -1.000000000000000e+00 0.000000000000000e+00
					1.375000000000000e+00 -5.000000000000000e-01 0.000000000000000e+00
					8.338955762008279e-01 -8.338955762008279e-01 0.000000000000000e+00
					1.044833076200828e+00 -4.169477881004139e-01 0.000000000000000e+00
					1.375000000000000e+00 -5.000000000000000e-01 0.000000000000000e+00
					1.500000000000000e+00 1.387778780781446e-17 0.000000000000000e+00
					1.044833076200828e+00 -4.169477881004139e-01 0.000000000000000e+00
					1.115145576200828e+00 6.938893903907228e-18 0.000000000000000e+00
					1.500000000000000e+00 1.387778780781446e-17 0.000000000000000e+00
					1.375000000000000e+00 5.000000000000000e-01 0.000000000000000e+00
					1.115145576200828e+00 6.938893903907228e-18 0.000000000000000e+00
					1.044833076200828e+00 4.169477881004139e-01 0.000000000000000e+00
					1.375000000000000e+00 5.000000000000000e-01 0.000000000000000e+00
					1.000000000000000e+00 1.000000000000000e+00 0.000000000000000e+00
					1.044833076200828e+00 4.169477881004139e-01 0.000000000000000e+00
					8.338955762008279e-01 8.338955762008279e-01 0.000000000000000e+00
					8.338955762008279e-01 -8.338955762008279e-01 0.000000000000000e+00
					1.044833076200828e+00 -4.169477881004139e-01 0.000000000000000e+00
					6.951941016011038e-01 -6.951941016011038e-01 0.000000000000000e+00
					7.889441016011038e-01 -3.475970508005519e-01 0.000000000000000e+00
					1.044833076200828e+00 -4.169477881004139e-01 0.000000000000000e+00
					1.115145576200828e+00 6.938893903907228e-18 0.000000000000000e+00
					7.889441016011038e-01 -3.475970508005519e-01 0.000000000000000e+00
					8.201941016011038e-01 0.000000000000000e+00 0.000000000000000e+00
					1.115145576200828e+00 6.938893903907228e-18 0.000000000000000e+00
					1.044833076200828e+00 4.169477881004139e-01 0.000000000000000e+00
					8.201941016011038e-01 0.000000000000000e+00 0.000000000000000e+00
					7.889441016011038e-01 3.475970508005519e-01 0.000000000000000e+00
					1.044833076200828e+00 4.169477881004139e-01 0.000000000000000e+00
					8.338955762008279e-01 8.338955762008279e-01 0.000000000000000e+00
					7.889441016011038e-01 3.475970508005519e-01 0.000000000000000e+00
					6.951941016011038e-01 6.951941016011038e-01 0.000000000000000e+00
					6.951941016011038e-01 -6.951941016011038e-01 0.000000000000000e+00
					7.889441016011038e-01 -3.475970508005519e-01 0.000000000000000e+00
					5.838955762008279e-01 -5.838955762008279e-01 0.000000000000000e+00
					6.073330762008279e-01 -2.919477881004139e-01 0.000000000000000e+00
					7.889441016011038e-01 -3.475970508005519e-01 0.000000000000000e+00
					8.201941016011038e-01 0.000000000000000e+00 0.000000000000000e+00
					6.073330762008279e-01 -2.919477881004139e-01 0.000000000000000e+00
					6.151455762008279e-01 6.938893903907228e-18 0.000000000000000e+00
					8.201941016011038e-01 0.000000000000000e+00 0.000000000000000e+00
					7.889441016011038e-01 3.475970508005519e-01 0.000000000000000e+00
					6.151455762008279e-01 6.938893903907228e-18 0.000000000000000e+00
					6.073330762008279e-01 2.919477881004139e-01 0.000000000000000e+00
					7.889441016011038e-01 3.475970508005519e-01 0.000000000000000e+00
					6.951941016011038e-01 6.951941016011038e-01 0.000000000000000e+00
					6.073330762008279e-01 2.919477881004139e-01 0.000000000000000e+00
					5.838955762008279e-01 5.838955762008279e-01 0.000000000000000e+00
					5.838955762008279e-01 -5.838955762008279e-01 0.000000000000000e+00
					6.073330762008279e-01 -2.919477881004139e-01 0.000000000000000e+00
					5.000000000000000e-01 -5.000000000000000e-01 0.000000000000000e+00
					5.000000000000000e-01 -2.500000000000000e-01 0.000000000000000e+00
					6.073330762008279e-01 -2.919477881004139e-01 0.000000000000000e+00
					6.151455762008279e-01 6.938893903907228e-18 0.000000000000000e+00
					5.000000000000000e-01 -2.500000000000000e-01 0.000000000000000e+00
					5.000000000000000e-01 6.938893903907228e-18 0.000000000000000e+00
					6.151455762008279e-01 6.938893903907228e-18 0.000000000000000e+00
					6.073330762008279e-01 2.919477881004139e-01 0.000000000000000e+00
					5.000000000000000e-01 6.938893903907228e-18 0.000000000000000e+00
					5.000000000000000e-01 2.500000000000000e-01 0.000000000000000e+00
					6.073330762008279e-01 2.919477881004139e-01 0.000000000000000e+00
					5.838955762008279e-01 5.838955762008279e-01 0.000000000000000e+00
					5.000000000000000e-01 2.500000000000000e-01 0.000000000000000e+00
					5.000000000000000e-01 5.000000000000000e-01 0.000000000000000e+00
				</DataArray>
			</Points>
			<Cells>
				<DataArray Name="connectivity" type="UInt32" format="ascii">
					0 1 3 2 4 5 7 6 8 9 11 10 12 13 15 14 16 17 19 18 20 21 23 22 24 25 27 26 28 29 31 30 32 33 35 34 36 37 39 38 40 41 43 42 44 45 47 46 48 49 51 50 52 53 55 54 56 57 59 58 60 61 63 62 
				</DataArray>
				<DataArray Name="offsets" type="UInt32" format="ascii">
					4 8 12 16 20 24 28 32 36 40 44 48 52 56 60 64 
				</DataArray>
				<DataArray Name="types" type="UInt8" format="ascii">
					9 9 9 9 9 9 9 9 9 9 9 9 9 9 9 9 
				</DataArray>
			</Cells>
			<PointData Vectors="solution ">
				<DataArray Name="solution" type="Float64" NumberOfComponents="1" format="ascii">
					0.000000000000000e+00 0.000000000000000e+00 3.570942897507756e-01 7.535911042559809e-01 0.000000000000000e+00 0.000000000000000e+00 7.535911042559809e-01 1.961479406262093e+00 0.000000000000000e+00 0.000000000000000e+00 1.961479406262093e+00 3.157813404722355e+00 0.000000000000000e+00 0.000000000000000e+00 3.157813404722355e+00 3.818214100878554e+00 3.570942897507757e-01 7.535911042559809e-01 1.379881467014974e+00 4.340794858939172e+00 7.535911042559811e-01 1.961479406262093e+00 4.340794858939173e+00 1.059055989312809e+01 1.961479406262094e+00 3.157813404722355e+00 1.059055989312810e+01 1.556047862316101e+01 3.157813404722356e+00 3.818214100878555e+00 1.556047862316102e+01 1.292272308174747e+01 1.379881467014974e+00 4.340794858939173e+00 2.927277774092925e+00 9.101562455011020e+00 4.340794858939174e+00 1.059055989312810e+01 9.101562455011022e+00 1.928665839456625e+01 1.059055989312810e+01 1.556047862316102e+01 1.928665839456625e+01 2.746713012271169e+01 1.556047862316102e+01 1.292272308174747e+01 2.746713012271170e+01 2.373299245992506e+01 2.927277774092925e+00 9.101562455011020e+00 4.797305499202652e+00 1.276086042380816e+01 9.101562455011022e+00 1.928665839456625e+01 1.276086042380817e+01 2.378211560245399e+01 1.928665839456625e+01 2.746713012271169e+01 2.378211560245400e+01 3.299722725687415e+01 2.746713012271170e+01 2.373299245992507e+01 3.299722725687415e+01 3.265804053565172e+01 
				</DataArray>
			</PointData>
			<CellData>
			</CellData>
		</Piece>
	</UnstructuredGrid>
</VTKFile>