<?xml version="1.0"?>
<VTKFile type="UnstructuredGrid" byte_order="LittleEndian">
	<UnstructuredGrid>
		<Piece NumberOfPoints="256" NumberOfCells="64">
			<Points>
				<DataArray type="Float64" NumberOfComponents="3" format="ascii">
					-1.000000000000000e+00 -1.000000000000000e+00 0.000000000000000e+00
					-7.500000000000000e-01 -1.218750000000000e+00 0.000000000000000e+00
					-9.135224194504830e-01 -9.135224194504830e-01 0.000000000000000e+00
					-6.851418145878622e-01 -1.081002888200483e+00 0.000000000000000e+00
					-7.500000000000000e-01 -1.218750000000000e+00 0.000000000000000e+00
					-5.000000000000000e-01 -1.375000000000000e+00 0.000000000000000e+00
					-6.851418145878622e-01 -1.081002888200483e+00 0.000000000000000e+00
					-4.567612097252415e-01 -1.200631794450483e+00 0.000000000000000e+00
					-5.000000000000000e-01 -1.375000000000000e+00 0.000000000000000e+00
					-2.500000000000000e-01 -1.468750000000000e+00 0.000000000000000e+00
					-4.567612097252415e-01 -1.200631794450483e+00 0.000000000000000e+00
					-2.283806048626207e-01 -1.272409138200483e+00 0.000000000000000e+00
					-2.500000000000000e-01 -1.468750000000000e+00 0.000000000000000e+00
					0.000000000000000e+00 -1.500000000000000e+00 0.000000000000000e+00
					-2.283806048626207e-01 -1.272409138200483e+00 0.000000000000000e+00
					1.040834085586084e-17 -1.296334919450483e+00 0.000000000000000e+00
					0.000000000000000e+00 -1.500000000000000e+00 0.000000000000000e+00
					2.500000000000000e-01 -1.468750000000000e+00 0.000000000000000e+00
					1.040834085586084e-17 -1.296334919450483e+00 0.000000000000000e+00
					2.283806048626208e-01 -1.272409138200483e+00 0.000000000000000e+00
					2.500000000000000e-01 -1.468750000000000e+00 0.000000000000000e+00
					5.000000000000000e-01 -1.375000000000000e+00 0.000000000000000e+00
					2.283806048626208e-01 -1.272409138200483e+00 0.000000000000000e+00
					4.567612097252415e-01 -1.200631794450483e+00 0.000000000000000e+00
					5.000000000000000e-01 -1.375000000000000e+00 0.000000000000000e+00
					7.500000000000000e-01 -1.218750000000000e+00 0.000000000000000e+00
					4.567612097252415e-01 -1.200631794450483e+00 0.000000000000000e+00
					6.851418145878623e-01 -1.081002888200483e+00 0.000000000000000e+00
					7.500000000000000e-01 -1.218750000000000e+00 0.000000000000000e+00
					1.000000000000000e+00 -1.000000000000000e+00 0.000000000000000e+00
					6.851418145878623e-01 -1.081002888200483e+00 0.000000000000000e+00
					9.135224194504830e-01 -9.135224194504830e-01 0.000000000000000e+00
					-9.135224194504830e-01 -9.135224194504830e-01 0.000000000000000e+00
					-6.851418145878622e-01 -1.081002888200483e+00 0.000000000000000e+00
					-8.338955762008279e-01 -8.338955762008279e-01 0.000000000000000e+00
					-6.254216821506209e-01 -9.569424512008280e-01 0.000000000000000e+00
					-6.851418145878622e-01 -1.081002888200483e+00 0.000000000000000e+00
					-4.567612097252415e-01 -1.200631794450483e+00 0.000000000000000e+00
					-6.254216821506209e-01 -9.569424512008280e-01 0.000000000000000e+00
					-4.169477881004140e-01 -1.044833076200828e+00 0.000000000000000e+00
					-4.567612097252415e-01 -1.200631794450483e+00 0.000000000000000e+00
					-2.283806048626207e-01 -1.272409138200483e+00 0.000000000000000e+00
					-4.169477881004140e-01 -1.044833076200828e+00 0.000000000000000e+00
					-2.084738940502070e-01 -1.097567451200828e+00 0.000000000000000e+00
					-2.283806048626207e-01 -1.272409138200483e+00 0.000000000000000e+00
					1.040834085586084e-17 -1.296334919450483e+00 0.000000000000000e+00
					-2.084738940502070e-01 -1.097567451200828e+00 0.000000000000000e+00
					1.734723475976807e-17 -1.115145576200828e+00 0.000000000000000e+00
					1.040834085586084e-17 -1.296334919450483e+00 0.000000000000000e+00
					2.283806048626208e-01 -1.272409138200483e+00 0.000000000000000e+00
					1.734723475976807e-17 -1.115145576200828e+00 0.000000000000000e+00
					2.084738940502070e-01 -1.097567451200828e+00 0.000000000000000e+00
					2.283806048626208e-01 -1.272409138200483e+00 0.000000000000000e+00
					4.567612097252415e-01 -1.200631794450483e+00 0.000000000000000e+00
					2.084738940502070e-01 -1.097567451200828e+00 0.000000000000000e+00
					4.169477881004140e-01 -1.044833076200828e+00 0.000000000000000e+00
					4.567612097252415e-01 -1.200631794450483e+00 0.000000000000000e+00
					6.851418145878623e-01 -1.081002888200483e+00 0.000000000000000e+00
					4.169477881004140e-01 -1.044833076200828e+00 0.000000000000000e+00
					6.254216821506209e-01 -9.569424512008280e-01 0.000000000000000e+00
					6.851418145878623e-01 -1.081002888200483e+00 0.000000000000000e+00
					9.135224194504830e-01 -9.135224194504830e-01 0.000000000000000e+00
					6.254216821506209e-01 -9.569424512008280e-01 0.000000000000000e+00
					8.338955762008279e-01 -8.338955762008279e-01 0.000000000000000e+00
					-8.338955762008279e-01 -8.338955762008279e-01 0.000000000000000e+00
					-6.254216821506209e-01 -9.569424512008280e-01 0.000000000000000e+00
					-7.611194702510349e-01 -7.611194702510349e-01 0.000000000000000e+00
					-5.708396026882762e-01 -8.465686890010349e-01 0.000000000000000e+00
					-6.254216821506209e-01 -9.569424512008280e-01 0.000000000000000e+00
					-4.169477881004140e-01 -1.044833076200828e+00 0.000000000000000e+00
					-5.708396026882762e-01 -8.465686890010349e-01 0.000000000000000e+00
					-3.805597351255174e-01 -9.076038452510349e-01 0.000000000000000e+00
					-4.169477881004140e-01 -1.044833076200828e+00 0.000000000000000e+00
					-2.084738940502070e-01 -1.097567451200828e+00 0.000000000000000e+00
					-3.805597351255174e-01 -9.076038452510349e-01 0.000000000000000e+00
					-1.902798675627587e-01 -9.442249390010350e-01 0.000000000000000e+00
					-2.084738940502070e-01 -1.097567451200828e+00 0.000000000000000e+00
					1.734723475976807e-17 -1.115145576200828e+00 0.000000000000000e+00
					-1.902798675627587e-01 -9.442249390010350e-01 0.000000000000000e+00
					2.428612866367530e-17 -9.564319702510349e-01 0.000000000000000e+00
					1.734723475976807e-17 -1.115145576200828e+00 0.000000000000000e+00
					2.084738940502070e-01 -1.097567451200828e+00 0.000000000000000e+00
					2.428612866367530e-17 -9.564319702510349e-01 0.000000000000000e+00
					1.902798675627587e-01 -9.442249390010349e-01 0.000000000000000e+00
					2.084738940502070e-01 -1.097567451200828e+00 0.000000000000000e+00
					4.169477881004140e-01 -1.044833076200828e+00 0.000000000000000e+00
					1.902798675627587e-01 -9.442249390010349e-01 0.000000000000000e+00
					3.805597351255174e-01 -9.076038452510349e-01 0.000000000000000e+00
					4.169477881004140e-01 -1.044833076200828e+00 0.000000000000000e+00
					6.254216821506209e-01 -9.569424512008280e-01 0.000000000000000e+00
					3.805597351255174e-01 -9.076038452510349e-01 0.000000000000000e+00
					5.708396026882762e-01 -8.465686890010349e-01 0.000000000000000e+00
					6.254216821506209e-01 -9.569424512008280e-01 0.000000000000000e+00
					8.338955762008279e-01 -8.338955762008279e-01 0.000000000000000e+00
					5.708396026882762e-01 -8.465686890010349e-01 0.000000000000000e+00
					7.611194702510349e-01 -7.611194702510349e-01 0.000000000000000e+00
					-7.611194702510349e-01 -7.611194702510349e-01 0.000000000000000e+00
					-5.708396026882762e-01 -8.465686890010349e-01 0.000000000000000e+00
					-6.951941016011038e-01 -6.951941016011038e-01 0.000000000000000e+00
					-5.213955762008279e-01 -7.498816016011038e-01 0.000000000000000e+00
					-5.708396026882762e-01 -8.465686890010349e-01 0.000000000000000e+00
					-3.805597351255174e-01 -9.076038452510349e-01 0.000000000000000e+00
					-5.213955762008279e-01 -7.498816016011038e-01 0.000000000000000e+00
					-3.475970508005519e-01 -7.889441016011040e-01 0.000000000000000e+00
					-3.805597351255174e-01 -9.076038452510349e-01 0.000000000000000e+00
					-1.902798675627587e-01 -9.442249390010350e-01 0.000000000000000e+00
					-3.475970508005519e-01 -7.889441016011040e-01 0.000000000000000e+00
					-1.737985254002760e-01 -8.123816016011040e-01 0.000000000000000e+00
					-1.902798675627587e-01 -9.442249390010350e-01 0.000000000000000e+00
					2.428612866367530e-17 -9.564319702510349e-01 0.000000000000000e+00
					-1.737985254002760e-01 -8.123816016011040e-01 0.000000000000000e+00
					2.428612866367530e-17 -8.201941016011038e-01 0.000000000000000e+00
					2.428612866367530e-17 -9.564319702510349e-01 0.000000000000000e+00
					1.902798675627587e-01 -9.442249390010349e-01 0.000000000000000e+00
					2.428612866367530e-17 -8.201941016011038e-01 0.000000000000000e+00
					1.737985254002760e-01 -8.123816016011038e-01 0.000000000000000e+00
					1.902798675627587e-01 -9.442249390010349e-01 0.000000000000000e+00
					3.805597351255174e-01 -9.076038452510349e-01 0.000000000000000e+00
					1.737985254002760e-01 -8.123816016011038e-01 0.000000000000000e+00
					3.475970508005519e-01 -7.889441016011038e-01 0.000000000000000e+00
					3.805597351255174e-01 -9.076038452510349e-01 0.000000000000000e+00
					5.708396026882762e-01 -8.465686890010349e-01 0.000000000000000e+00
					3.475970508005519e-01 -7.889441016011038e-01 0.000000000000000e+00
					5.213955762008279e-01 -7.498816016011038e-01 0.000000000000000e+00
					5.708396026882762e-01 -8.465686890010349e-01 0.000000000000000e+00
					7.611194702510349e-01 -7.611194702510349e-01 0.000000000000000e+00
					5.213955762008279e-01 -7.498816016011038e-01 0.000000000000000e+00
					6.951941016011038e-01 -6.951941016011038e-01 0.000000000000000e+00
					-6.951941016011038e-01 -6.951941016011038e-01 0.000000000000000e+00
					-5.213955762008279e-01 -7.498816016011038e-01 0.000000000000000e+00
					-6.361194702510349e-01 -6.361194702510349e-01 0.000000000000000e+00
					-4.770896026882762e-01 -6.668811890010349e-01 0.000000000000000e+00
					-5.213955762008279e-01 -7.498816016011038e-01 0.000000000000000e+00
					-3.475970508005519e-01 -7.889441016011040e-01 0.000000000000000e+00
					-4.770896026882762e-01 -6.668811890010349e-01 0.000000000000000e+00
					-3.180597351255174e-01 -6.888538452510349e-01 0.000000000000000e+00
					-3.475970508005519e-01 -7.889441016011040e-01 0.000000000000000e+00
					-1.737985254002760e-01 -8.123816016011040e-01 0.000000000000000e+00
					-3.180597351255174e-01 -6.888538452510349e-01 0.000000000000000e+00
					-1.590298675627587e-01 -7.020374390010350e-01 0.000000000000000e+00
					-1.737985254002760e-01 -8.123816016011040e-01 0.000000000000000e+00
					2.428612866367530e-17 -8.201941016011038e-01 0.000000000000000e+00
					-1.590298675627587e-01 -7.020374390010350e-01 0.000000000000000e+00
					1.734723475976807e-17 -7.064319702510349e-01 0.000000000000000e+00
					2.428612866367530e-17 -8.201941016011038e-01 0.000000000000000e+00
					1.737985254002760e-01 -8.123816016011038e-01 0.000000000000000e+00
					1.734723475976807e-17 -7.064319702510349e-01 0.000000000000000e+00
					1.590298675627587e-01 -7.020374390010349e-01 0.000000000000000e+00
					1.737985254002760e-01 -8.123816016011038e-01 0.000000000000000e+00
					3.475970508005519e-01 -7.889441016011038e-01 0.000000000000000e+00
					1.590298675627587e-01 -7.020374390010349e-01 0.000000000000000e+00
					3.180597351255174e-01 -6.888538452510349e-01 0.000000000000000e+00
					3.475970508005519e-01 -7.889441016011038e-01 0.000000000000000e+00
					5.213955762008279e-01 -7.498816016011038e-01 0.000000000000000e+00
					3.180597351255174e-01 -6.888538452510349e-01 0.000000000000000e+00
					4.770896026882762e-01 -6.668811890010349e-01 0.000000000000000e+00
					5.213955762008279e-01 -7.498816016011038e-01 0.000000000000000e+00
					6.951941016011038e-01 -6.951941016011038e-01 0.000000000000000e+00
					4.770896026882762e-01 -6.668811890010349e-01 0.000000000000000e+00
					6.361194702510349e-01 -6.361194702510349e-01 0.000000000000000e+00
					-6.361194702510349e-01 -6.361194702510349e-01 0.000000000000000e+00
					-4.770896026882762e-01 -6.668811890010349e-01 0.000000000000000e+00
					-5.838955762008278e-01 -5.838955762008278e-01 0.000000000000000e+00
					-4.379216821506209e-01 -5.975674512008280e-01 0.000000000000000e+00
					-4.770896026882762e-01 -6.668811890010349e-01 0.000000000000000e+00
					-3.180597351255174e-01 -6.888538452510349e-01 0.000000000000000e+00
					-4.379216821506209e-01 -5.975674512008280e-01 0.000000000000000e+00
					-2.919477881004139e-01 -6.073330762008280e-01 0.000000000000000e+00
					-3.180597351255174e-01 -6.888538452510349e-01 0.000000000000000e+00
					-1.590298675627587e-01 -7.020374390010350e-01 0.000000000000000e+00
					-2.919477881004139e-01 -6.073330762008280e-01 0.000000000000000e+00
					-1.459738940502069e-01 -6.131924512008280e-01 0.000000000000000e+00
					-1.590298675627587e-01 -7.020374390010350e-01 0.000000000000000e+00
					1.734723475976807e-17 -7.064319702510349e-01 0.000000000000000e+00
					-1.459738940502069e-01 -6.131924512008280e-01 0.000000000000000e+00
					1.040834085586084e-17 -6.151455762008280e-01 0.000000000000000e+00
					1.734723475976807e-17 -7.064319702510349e-01 0.000000000000000e+00
					1.590298675627587e-01 -7.020374390010349e-01 0.000000000000000e+00
					1.040834085586084e-17 -6.151455762008280e-01 0.000000000000000e+00
					1.459738940502070e-01 -6.131924512008278e-01 0.000000000000000e+00
					1.590298675627587e-01 -7.020374390010349e-01 0.000000000000000e+00
					3.180597351255174e-01 -6.888538452510349e-01 0.000000000000000e+00
					1.459738940502070e-01 -6.131924512008278e-01 0.000000000000000e+00
					2.919477881004139e-01 -6.073330762008278e-01 0.000000000000000e+00
					3.180597351255174e-01 -6.888538452510349e-01 0.000000000000000e+00
					4.770896026882762e-01 -6.668811890010349e-01 0.000000000000000e+00
					2.919477881004139e-01 -6.073330762008278e-01 0.000000000000000e+00
					4.379216821506209e-01 -5.975674512008278e-01 0.000000000000000e+00
					4.770896026882762e-01 -6.668811890010349e-01 0.000000000000000e+00
					6.361194702510349e-01 -6.361194702510349e-01 0.000000000000000e+00
					4.379216821506209e-01 -5.975674512008278e-01 0.000000000000000e+00
					5.838955762008278e-01 -5.838955762008278e-01 0.000000000000000e+00
					-5.838955762008278e-01 -5.838955762008278e-01 0.000000000000000e+00
					-4.379216821506209e-01 -5.975674512008280e-01 0.000000000000000e+00
					-5.385224194504830e-01 -5.385224194504830e-01 0.000000000000000e+00
					-4.038918145878622e-01 -5.419403882004830e-01 0.000000000000000e+00
					-4.379216821506209e-01 -5.975674512008280e-01 0.000000000000000e+00
					-2.919477881004139e-01 -6.073330762008280e-01 0.000000000000000e+00
					-4.038918145878622e-01 -5.419403882004830e-01 0.000000000000000e+00
					-2.692612097252414e-01 -5.443817944504830e-01 0.000000000000000e+00
					-2.919477881004139e-01 -6.073330762008280e-01 0.000000000000000e+00
					-1.459738940502069e-01 -6.131924512008280e-01 0.000000000000000e+00
					-2.692612097252414e-01 -5.443817944504830e-01 0.000000000000000e+00
					-1.346306048626207e-01 -5.458466382004830e-01 0.000000000000000e+00
					-1.459738940502069e-01 -6.131924512008280e-01 0.000000000000000e+00
					1.040834085586084e-17 -6.151455762008280e-01 0.000000000000000e+00
					-1.346306048626207e-01 -5.458466382004830e-01 0.000000000000000e+00
					3.469446951953614e-18 -5.463349194504828e-01 0.000000000000000e+00
					1.040834085586084e-17 -6.151455762008280e-01 0.000000000000000e+00
					1.459738940502070e-01 -6.131924512008278e-01 0.000000000000000e+00
					3.469446951953614e-18 -5.463349194504828e-01 0.000000000000000e+00
					1.346306048626207e-01 -5.458466382004828e-01 0.000000000000000e+00
					1.459738940502070e-01 -6.131924512008278e-01 0.000000000000000e+00
					2.919477881004139e-01 -6.073330762008278e-01 0.000000000000000e+00
					1.346306048626207e-01 -5.458466382004828e-01 0.000000000000000e+00
					2.692612097252414e-01 -5.443817944504828e-01 0.000000000000000e+00
					2.919477881004139e-01 -6.073330762008278e-01 0.000000000000000e+00
					4.379216821506209e-01 -5.975674512008278e-01 0.000000000000000e+00
					2.692612097252414e-01 -5.443817944504828e-01 0.000000000000000e+00
					4.038918145878622e-01 -5.419403882004828e-01 0.000000000000000e+00
					4.379216821506209e-01 -5.975674512008278e-01 0.000000000000000e+00
					5.838955762008278e-01 -5.838955762008278e-01 0.000000000000000e+00
					4.038918145878622e-01 -5.419403882004828e-01 0.000000000000000e+00
					5.385224194504830e-01 -5.385224194504830e-01 0.000000000000000e+00
					-5.385224194504830e-01 -5.385224194504830e-01 0.000000000000000e+00
					-4.038918145878622e-01 -5.419403882004830e-01 0.000000000000000e+00
					-5.000000000000000e-01 -5.000000000000000e-01 0.000000000000000e+00
					-3.750000000000000e-01 -5.000000000000000e-01 0.000000000000000e+00
					-4.038918145878622e-01 -5.419403882004830e-01 0.000000000000000e+00
					-2.692612097252414e-01 -5.443817944504830e-01 0.000000000000000e+00
					-3.750000000000000e-01 -5.000000000000000e-01 0.000000000000000e+00
					-2.500000000000000e-01 -5.000000000000000e-01 0.000000000000000e+00
					-2.692612097252414e-01 -5.443817944504830e-01 0.000000000000000e+00
					-1.346306048626207e-01 -5.458466382004830e-01 0.000000000000000e+00
					-2.500000000000000e-01 -5.000000000000000e-01 0.000000000000000e+00
					-1.250000000000000e-01 -5.000000000000000e-01 0.000000000000000e+00
					-1.346306048626207e-01 -5.458466382004830e-01 0.000000000000000e+00
					3.469446951953614e-18 -5.463349194504828e-01 0.000000000000000e+00
					-1.250000000000000e-01 -5.000000000000000e-01 0.000000000000000e+00
					0.000000000000000e+00 -5.000000000000000e-01 0.000000000000000e+00
					3.469446951953614e-18 -5.463349194504828e-01 0.000000000000000e+00
					1.346306048626207e-01 -5.458466382004828e-01 0.000000000000000e+00
					0.000000000000000e+00 -5.000000000000000e-01 0.000000000000000e+00
					1.250000000000000e-01 -5.000000000000000e-01 0.000000000000000e+00
					1.346306048626207e-01 -5.458466382004828e-01 0.000000000000000e+00
					2.692612097252414e-01 -5.443817944504828e-01 0.000000000000000e+00
					1.250000000000000e-01 -5.000000000000000e-01 0.000000000000000e+00
					2.500000000000000e-01 -5.000000000000000e-01 0.000000000000000e+00
					2.692612097252414e-01 -5.443817944504828e-01 0.000000000000000e+00
					4.038918145878622e-01 -5.419403882004828e-01 0.000000000000000e+00
					2.500000000000000e-01 -5.000000000000000e-01 0.000000000000000e+00
					3.750000000000000e-01 -5.000000000000000e-01 0.000000000000000e+00
					4.038918145878622e-01 -5.419403882004828e-01 0.000000000000000e+00
					5.385224194504830e-01 -5.385224194504830e-01 0.000000000000000e+00
					3.750000000000000e-01 -5.000000000000000e-01 0.000000000000000e+00
					5.000000000000000e-01 -5.000000000000000e-01 0.000000000000000e+00
				</DataArray>
			</Points>
			<Cells>
				<DataArray Name="connectivity" type="UInt32" format="ascii">
					0 1 3 2 4 5 7 6 8 9 11 10 12 13 15 14 16 17 19 18 20 21 23 22 24 25 27 26 28 29 31 30 32 33 35 34 36 37 39 38 40 41 43 42 44 45 47 46 48 49 51 50 52 53 55 54 56 57 59 58 60 61 63 62 64 65 67 66 68 69 71 70 72 73 75 74 76 77 79 78 80 81 83 82 84 85 87 86 88 89 91 90 92 93 95 94 96 97 99 98 100 101 103 102 104 105 107 106 108 109 111 110 112 113 115 114 116 117 119 118 120 121 123 122 124 125 127 126 128 129 131 130 132 133 135 134 136 137 139 138 140 141 143 142 144 145 147 146 148 149 151 150 152 153 155 154 156 157 159 158 160 161 163 162 164 165 167 166 168 169 171 170 172 173 175 174 176 177 179 178 180 181 183 182 184 185 187 186 188 189 191 190 192 193 195 194 196 197 199 198 200 201 203 202 204 205 207 206 208 209 211 210 212 213 215 214 216 217 219 218 220 221 223 222 224 225 227 226 228 229 231 230 232 233 235 234 236 237 239 238 240 241 243 242 244 245 247 246 248 249 251 250 252 253 255 254 
				</DataArray>
				<DataArray Name="offsets" type="UInt32" format="ascii">
					4 8 12 16 20 24 28 32 36 40 44 48 52 56 60 64 68 72 76 80 84 88 92 96 100 104 108 112 116 120 124 128 132 136 140 144 148 152 156 160 164 168 172 176 180 184 188 192 196 200 204 208 212 216 220 224 228 232 236 240 244 248 252 256 
				</DataArray>
				<DataArray Name="types" type="UInt8" format="ascii">
					9 9 9 9 9 9 9 9 9 9 9 9 9 9 9 9 9 9 9 9 9 9 9 9 9 9 9 9 9 9 9 9 9 9 9 9 9 9 9 9 9 9 9 9 9 9 9 9 9 9 9 9 9 9 9 9 9 9 9 9 9 9 9 9 
				</DataArray>
			</Cells>
			<PointData Vectors="solution ">
				<DataArray Name="solution" type="Float64" NumberOfComponents="1" format="ascii">
					0.000000000000000e+00 0.000000000000000e+00 1.345240718382133e-02 2.363495918552219e-02 0.000000000000000e+00 0.000000000000000e+00 2.363495918552220e-02 2.366401908209075e-02 0.000000000000000e+00 0.000000000000000e+00 2.366401908209076e-02 2.369124665238318e-02 0.000000000000000e+00 0.000000000000000e+00 2.369124665238318e-02 2.575308924778164e-02 0.000000000000000e+00 0.000000000000000e+00 2.575308924778164e-02 3.242810552790219e-02 0.000000000000000e+00 0.000000000000000e+00 3.242810552790220e-02 4.661564096890591e-02 0.000000000000000e+00 0.000000000000000e+00 4.661564096890591e-02 6.888053143191881e-02 0.000000000000000e+00 0.000000000000000e+00 6.888053143191881e-02 5.735270656042471e-02 1.345240718382133e-02 2.363495918552220e-02 6.859171090988005e-02 9.783614258017766e-02 2.363495918552220e-02 2.366401908209076e-02 9.783614258017767e-02 1.075705893214011e-01 2.366401908209076e-02 2.369124665238318e-02 1.075705893214011e-01 1.184750205186582e-01 2.369124665238319e-02 2.575308924778164e-02 1.184750205186582e-01 1.355680509716226e-01 2.575308924778164e-02 3.242810552790220e-02 1.355680509716226e-01 1.643367407025503e-01 3.242810552790220e-02 4.661564096890591e-02 1.643367407025503e-01 2.150331521386825e-01 4.661564096890592e-02 6.888053143191881e-02 2.150331521386826e-01 2.779018438140614e-01 6.888053143191883e-02 5.735270656042472e-02 2.779018438140614e-01 2.599561480560210e-01 6.859171090988006e-02 9.783614258017767e-02 1.814762658837687e-01 2.495925620752223e-01 9.783614258017768e-02 1.075705893214011e-01 2.495925620752223e-01 3.041578626757187e-01 1.075705893214011e-01 1.184750205186582e-01 3.041578626757187e-01 3.694247339057324e-01 1.184750205186582e-01 1.355680509716227e-01 3.694247339057325e-01 4.364815789614788e-01 1.355680509716227e-01 1.643367407025503e-01 4.364815789614788e-01 5.061517762412158e-01 1.643367407025503e-01 2.150331521386826e-01 5.061517762412158e-01 5.914375119027085e-01 2.150331521386826e-01 2.779018438140615e-01 5.914375119027087e-01 6.765915810556178e-01 2.779018438140615e-01 2.599561480560210e-01 6.765915810556178e-01 6.324907411096494e-01 1.814762658837687e-01 2.495925620752223e-01 3.610684982297878e-01 5.105777471995845e-01 2.495925620752223e-01 3.041578626757187e-01 5.105777471995845e-01 6.826021049220730e-01 3.041578626757188e-01 3.694247339057325e-01 6.826021049220730e-01 8.816689902365171e-01 3.694247339057325e-01 4.364815789614789e-01 8.816689902365175e-01 1.055466226632512e+00 4.364815789614789e-01 5.061517762412158e-01 1.055466226632513e+00 1.181202154296826e+00 5.061517762412159e-01 5.914375119027087e-01 1.181202154296826e+00 1.269160900231199e+00 5.914375119027087e-01 6.765915810556178e-01 1.269160900231200e+00 1.307595827295639e+00 6.765915810556178e-01 6.324907411096495e-01 1.307595827295639e+00 1.175789983828758e+00 3.610684982297879e-01 5.105777471995845e-01 6.111862531381973e-01 9.005885171953936e-01 5.105777471995845e-01 6.826021049220730e-01 9.005885171953938e-01 1.280415827104924e+00 6.826021049220731e-01 8.816689902365175e-01 1.280415827104924e+00 1.696841041538079e+00 8.816689902365175e-01 1.055466226632513e+00 1.696841041538079e+00 2.032144002438166e+00 1.055466226632513e+00 1.181202154296826e+00 2.032144002438166e+00 2.222626368138154e+00 1.181202154296826e+00 1.269160900231200e+00 2.222626368138155e+00 2.270332801609029e+00 1.269160900231200e+00 1.307595827295639e+00 2.270332801609029e+00 2.175278073454768e+00 1.307595827295639e+00 1.175789983828758e+00 2.175278073454768e+00 1.874210257027632e+00 6.111862531381974e-01 9.005885171953938e-01 9.323610286066109e-01 1.420382815241538e+00 9.005885171953940e-01 1.280415827104924e+00 1.420382815241538e+00 2.069457293895110e+00 1.280415827104924e+00 1.696841041538079e+00 2.069457293895110e+00 2.739687251636517e+00 1.696841041538079e+00 2.032144002438166e+00 2.739687251636518e+00 3.260248316790826e+00 2.032144002438166e+00 2.222626368138155e+00 3.260248316790826e+00 3.519407412382845e+00 2.222626368138155e+00 2.270332801609029e+00 3.519407412382846e+00 3.508798879118412e+00 2.270332801609030e+00 2.175278073454768e+00 3.508798879118412e+00 3.235735983549052e+00 2.175278073454768e+00 1.874210257027633e+00 3.235735983549052e+00 2.702175200304929e+00 9.323610286066110e-01 1.420382815241538e+00 1.323227818260381e+00 2.042994035709782e+00 1.420382815241538e+00 2.069457293895110e+00 2.042994035709783e+00 2.945034799490817e+00 2.069457293895111e+00 2.739687251636518e+00 2.945034799490818e+00 3.832162828106882e+00 2.739687251636518e+00 3.260248316790826e+00 3.832162828106882e+00 4.515668611160090e+00 3.260248316790827e+00 3.519407412382846e+00 4.515668611160090e+00 4.845924326137132e+00 3.519407412382846e+00 3.508798879118412e+00 4.845924326137133e+00 4.800319734454392e+00 3.508798879118413e+00 3.235735983549053e+00 4.800319734454393e+00 4.388643786205447e+00 3.235735983549053e+00 2.702175200304929e+00 4.388643786205447e+00 3.628714015495556e+00 1.323227818260382e+00 2.042994035709782e+00 1.781424195938380e+00 2.696565298556993e+00 2.042994035709783e+00 2.945034799490817e+00 2.696565298556993e+00 3.749909447739855e+00 2.945034799490818e+00 3.832162828106882e+00 3.749909447739856e+00 4.758945314375053e+00 3.832162828106882e+00 4.515668611160090e+00 4.758945314375053e+00 5.540023101748163e+00 4.515668611160090e+00 4.845924326137133e+00 5.540023101748163e+00 5.938337289499525e+00 4.845924326137133e+00 4.800319734454393e+00 5.938337289499526e+00 5.918772888313520e+00 4.800319734454393e+00 4.388643786205447e+00 5.918772888313521e+00 5.479151986843262e+00 4.388643786205448e+00 3.628714015495556e+00 5.479151986843263e+00 4.620186549358007e+00 
				</DataArray>
			</PointData>
			<CellData>
			</CellData>
		</Piece>
	</UnstructuredGrid>
</VTKFile>