<?xml version="1.0"?>
<VTKFile type="UnstructuredGrid" byte_order="LittleEndian">
	<UnstructuredGrid>
		<Piece NumberOfPoints="256" NumberOfCells="64">
			<Points>
				<DataArray type="Float64" NumberOfComponents="3" format="ascii">
					-1.000000000000000e+00 -1.000000000000000e+00 0.000000000000000e+00
					-9.135224194504830e-01 -9.135224194504830e-01 0.000000000000000e+00
					-1.218750000000000e+00 -7.500000000000000e-01 0.000000000000000e+00
					-1.081002888200483e+00 -6.851418145878622e-01 0.000000000000000e+00
					-9.135224194504830e-01 -9.135224194504830e-01 0.000000000000000e+00
					-8.338955762008279e-01 -8.338955762008279e-01 0.000000000000000e+00
					-1.081002888200483e+00 -6.851418145878622e-01 0.000000000000000e+00
					-9.569424512008280e-01 -6.254216821506209e-01 0.000000000000000e+00
					-8.338955762008279e-01 -8.338955762008279e-01 0.000000000000000e+00
					-7.611194702510349e-01 -7.611194702510349e-01 0.000000000000000e+00
					-9.569424512008280e-01 -6.254216821506209e-01 0.000000000000000e+00
					-8.465686890010349e-01 -5.708396026882762e-01 0.000000000000000e+00
					-7.611194702510349e-01 -7.611194702510349e-01 0.000000000000000e+00
					-6.951941016011038e-01 -6.951941016011038e-01 0.000000000000000e+00
					-8.465686890010349e-01 -5.708396026882762e-01 0.000000000000000e+00
					-7.498816016011038e-01 -5.213955762008279e-01 0.000000000000000e+00
					-6.951941016011038e-01 -6.951941016011038e-01 0.000000000000000e+00
					-6.361194702510349e-01 -6.361194702510349e-01 0.000000000000000e+00
					-7.498816016011038e-01 -5.213955762008279e-01 0.000000000000000e+00
					-6.668811890010349e-01 -4.770896026882761e-01 0.000000000000000e+00
					-6.361194702510349e-01 -6.361194702510349e-01 0.000000000000000e+00
					-5.838955762008278e-01 -5.838955762008278e-01 0.000000000000000e+00
					-6.668811890010349e-01 -4.770896026882761e-01 0.000000000000000e+00
					-5.975674512008279e-01 -4.379216821506209e-01 0.000000000000000e+00
					-5.838955762008278e-01 -5.838955762008278e-01 0.000000000000000e+00
					-5.385224194504830e-01 -5.385224194504830e-01 0.000000000000000e+00
					-5.975674512008279e-01 -4.379216821506209e-01 0.000000000000000e+00
					-5.419403882004830e-01 -4.038918145878622e-01 0.000000000000000e+00
					-5.385224194504830e-01 -5.385224194504830e-01 0.000000000000000e+00
					-5.000000000000000e-01 -5.000000000000000e-01 0.000000000000000e+00
					-5.419403882004830e-01 -4.038918145878622e-01 0.000000000000000e+00
					-5.000000000000000e-01 -3.750000000000000e-01 0.000000000000000e+00
					-1.218750000000000e+00 -7.500000000000000e-01 0.000000000000000e+00
					-1.081002888200483e+00 -6.851418145878622e-01 0.000000000000000e+00
					-1.375000000000000e+00 -5.000000000000000e-01 0.000000000000000e+00
					-1.200631794450483e+00 -4.567612097252415e-01 0.000000000000000e+00
					-1.081002888200483e+00 -6.851418145878622e-01 0.000000000000000e+00
					-9.569424512008280e-01 -6.254216821506209e-01 0.000000000000000e+00
					-1.200631794450483e+00 -4.567612097252415e-01 0.000000000000000e+00
					-1.044833076200828e+00 -4.169477881004140e-01 0.000000000000000e+00
					-9.569424512008280e-01 -6.254216821506209e-01 0.000000000000000e+00
					-8.465686890010349e-01 -5.708396026882762e-01 0.000000000000000e+00
					-1.044833076200828e+00 -4.169477881004140e-01 0.000000000000000e+00
					-9.076038452510349e-01 -3.805597351255174e-01 0.000000000000000e+00
					-8.465686890010349e-01 -5.708396026882762e-01 0.000000000000000e+00
					-7.498816016011038e-01 -5.213955762008279e-01 0.000000000000000e+00
					-9.076038452510349e-01 -3.805597351255174e-01 0.000000000000000e+00
					-7.889441016011038e-01 -3.475970508005519e-01 0.000000000000000e+00
					-7.498816016011038e-01 -5.213955762008279e-01 0.000000000000000e+00
					-6.668811890010349e-01 -4.770896026882761e-01 0.000000000000000e+00
					-7.889441016011038e-01 -3.475970508005519e-01 0.000000000000000e+00
					-6.888538452510349e-01 -3.180597351255174e-01 0.000000000000000e+00
					-6.668811890010349e-01 -4.770896026882761e-01 0.000000000000000e+00
					-5.975674512008279e-01 -4.379216821506209e-01 0.000000000000000e+00
					-6.888538452510349e-01 -3.180597351255174e-01 0.000000000000000e+00
					-6.073330762008279e-01 -2.919477881004139e-01 0.000000000000000e+00
					-5.975674512008279e-01 -4.379216821506209e-01 0.000000000000000e+00
					-5.419403882004830e-01 -4.038918145878622e-01 0.000000000000000e+00
					-6.073330762008279e-01 -2.919477881004139e-01 0.000000000000000e+00
					-5.443817944504830e-01 -2.692612097252414e-01 0.000000000000000e+00
					-5.419403882004830e-01 -4.038918145878622e-01 0.000000000000000e+00
					-5.000000000000000e-01 -3.750000000000000e-01 0.000000000000000e+00
					-5.443817944504830e-01 -2.692612097252414e-01 0.000000000000000e+00
					-5.000000000000000e-01 -2.500000000000000e-01 0.000000000000000e+00
					-1.375000000000000e+00 -5.000000000000000e-01 0.000000000000000e+00
					-1.200631794450483e+00 -4.567612097252415e-01 0.000000000000000e+00
					-1.468750000000000e+00 -2.500000000000000e-01 0.000000000000000e+00
					-1.272409138200483e+00 -2.283806048626207e-01 0.000000000000000e+00
					-1.200631794450483e+00 -4.567612097252415e-01 0.000000000000000e+00
					-1.044833076200828e+00 -4.169477881004140e-01 0.000000000000000e+00
					-1.272409138200483e+00 -2.283806048626207e-01 0.000000000000000e+00
					-1.097567451200828e+00 -2.084738940502069e-01 0.000000000000000e+00
					-1.044833076200828e+00 -4.169477881004140e-01 0.000000000000000e+00
					-9.076038452510349e-01 -3.805597351255174e-01 0.000000000000000e+00
					-1.097567451200828e+00 -2.084738940502069e-01 0.000000000000000e+00
					-9.442249390010349e-01 -1.902798675627587e-01 0.000000000000000e+00
					-9.076038452510349e-01 -3.805597351255174e-01 0.000000000000000e+00
					-7.889441016011038e-01 -3.475970508005519e-01 0.000000000000000e+00
					-9.442249390010349e-01 -1.902798675627587e-01 0.000000000000000e+00
					-8.123816016011038e-01 -1.737985254002759e-01 0.000000000000000e+00
					-7.889441016011038e-01 -3.475970508005519e-01 0.000000000000000e+00
					-6.888538452510349e-01 -3.180597351255174e-01 0.000000000000000e+00
					-8.123816016011038e-01 -1.737985254002759e-01 0.000000000000000e+00
					-7.020374390010349e-01 -1.590298675627587e-01 0.000000000000000e+00
					-6.888538452510349e-01 -3.180597351255174e-01 0.000000000000000e+00
					-6.073330762008279e-01 -2.919477881004139e-01 0.000000000000000e+00
					-7.020374390010349e-01 -1.590298675627587e-01 0.000000000000000e+00
					-6.131924512008279e-01 -1.459738940502069e-01 0.000000000000000e+00
					-6.073330762008279e-01 -2.919477881004139e-01 0.000000000000000e+00
					-5.443817944504830e-01 -2.692612097252414e-01 0.000000000000000e+00
					-6.131924512008279e-01 -1.459738940502069e-01 0.000000000000000e+00
					-5.458466382004830e-01 -1.346306048626207e-01 0.000000000000000e+00
					-5.443817944504830e-01 -2.692612097252414e-01 0.000000000000000e+00
					-5.000000000000000e-01 -2.500000000000000e-01 0.000000000000000e+00
					-5.458466382004830e-01 -1.346306048626207e-01 0.000000000000000e+00
					-5.000000000000000e-01 -1.250000000000000e-01 0.000000000000000e+00
					-1.468750000000000e+00 -2.500000000000000e-01 0.000000000000000e+00
					-1.272409138200483e+00 -2.283806048626207e-01 0.000000000000000e+00
					-1.500000000000000e+00 0.000000000000000e+00 0.000000000000000e+00
					-1.296334919450483e+00 4.857225732735060e-17 0.000000000000000e+00
					-1.272409138200483e+00 -2.283806048626207e-01 0.000000000000000e+00
					-1.097567451200828e+00 -2.084738940502069e-01 0.000000000000000e+00
					-1.296334919450483e+00 4.857225732735060e-17 0.000000000000000e+00
					-1.115145576200828e+00 3.469446951953614e-17 0.000000000000000e+00
					-1.097567451200828e+00 -2.084738940502069e-01 0.000000000000000e+00
					-9.442249390010349e-01 -1.902798675627587e-01 0.000000000000000e+00
					-1.115145576200828e+00 3.469446951953614e-17 0.000000000000000e+00
					-9.564319702510349e-01 4.163336342344337e-17 0.000000000000000e+00
					-9.442249390010349e-01 -1.902798675627587e-01 0.000000000000000e+00
					-8.123816016011038e-01 -1.737985254002759e-01 0.000000000000000e+00
					-9.564319702510349e-01 4.163336342344337e-17 0.000000000000000e+00
					-8.201941016011038e-01 4.163336342344337e-17 0.000000000000000e+00
					-8.123816016011038e-01 -1.737985254002759e-01 0.000000000000000e+00
					-7.020374390010349e-01 -1.590298675627587e-01 0.000000000000000e+00
					-8.201941016011038e-01 4.163336342344337e-17 0.000000000000000e+00
					-7.064319702510349e-01 3.816391647148976e-17 0.000000000000000e+00
					-7.020374390010349e-01 -1.590298675627587e-01 0.000000000000000e+00
					-6.131924512008279e-01 -1.459738940502069e-01 0.000000000000000e+00
					-7.064319702510349e-01 3.816391647148976e-17 0.000000000000000e+00
					-6.151455762008279e-01 2.428612866367530e-17 0.000000000000000e+00
					-6.131924512008279e-01 -1.459738940502069e-01 0.000000000000000e+00
					-5.458466382004830e-01 -1.346306048626207e-01 0.000000000000000e+00
					-6.151455762008279e-01 2.428612866367530e-17 0.000000000000000e+00
					-5.463349194504830e-01 2.428612866367530e-17 0.000000000000000e+00
					-5.458466382004830e-01 -1.346306048626207e-01 0.000000000000000e+00
					-5.000000000000000e-01 -1.250000000000000e-01 0.000000000000000e+00
					-5.463349194504830e-01 2.428612866367530e-17 0.000000000000000e+00
					-5.000000000000000e-01 0.000000000000000e+00 0.000000000000000e+00
					-1.500000000000000e+00 0.000000000000000e+00 0.000000000000000e+00
					-1.296334919450483e+00 4.857225732735060e-17 0.000000000000000e+00
					-1.468750000000000e+00 2.500000000000000e-01 0.000000000000000e+00
					-1.272409138200483e+00 2.283806048626208e-01 0.000000000000000e+00
					-1.296334919450483e+00 4.857225732735060e-17 0.000000000000000e+00
					-1.115145576200828e+00 3.469446951953614e-17 0.000000000000000e+00
					-1.272409138200483e+00 2.283806048626208e-01 0.000000000000000e+00
					-1.097567451200828e+00 2.084738940502070e-01 0.000000000000000e+00
					-1.115145576200828e+00 3.469446951953614e-17 0.000000000000000e+00
					-9.564319702510349e-01 4.163336342344337e-17 0.000000000000000e+00
					-1.097567451200828e+00 2.084738940502070e-01 0.000000000000000e+00
					-9.442249390010349e-01 1.902798675627588e-01 0.000000000000000e+00
					-9.564319702510349e-01 4.163336342344337e-17 0.000000000000000e+00
					-8.201941016011038e-01 4.163336342344337e-17 0.000000000000000e+00
					-9.442249390010349e-01 1.902798675627588e-01 0.000000000000000e+00
					-8.123816016011038e-01 1.737985254002760e-01 0.000000000000000e+00
					-8.201941016011038e-01 4.163336342344337e-17 0.000000000000000e+00
					-7.064319702510349e-01 3.816391647148976e-17 0.000000000000000e+00
					-8.123816016011038e-01 1.737985254002760e-01 0.000000000000000e+00
					-7.020374390010349e-01 1.590298675627588e-01 0.000000000000000e+00
					-7.064319702510349e-01 3.816391647148976e-17 0.000000000000000e+00
					-6.151455762008279e-01 2.428612866367530e-17 0.000000000000000e+00
					-7.020374390010349e-01 1.590298675627588e-01 0.000000000000000e+00
					-6.131924512008278e-01 1.459738940502070e-01 0.000000000000000e+00
					-6.151455762008279e-01 2.428612866367530e-17 0.000000000000000e+00
					-5.463349194504830e-01 2.428612866367530e-17 0.000000000000000e+00
					-6.131924512008278e-01 1.459738940502070e-01 0.000000000000000e+00
					-5.458466382004830e-01 1.346306048626208e-01 0.000000000000000e+00
					-5.463349194504830e-01 2.428612866367530e-17 0.000000000000000e+00
					-5.000000000000000e-01 0.000000000000000e+00 0.000000000000000e+00
					-5.458466382004830e-01 1.346306048626208e-01 0.000000000000000e+00
					-5.000000000000000e-01 1.250000000000000e-01 0.000000000000000e+00
					-1.468750000000000e+00 2.500000000000000e-01 0.000000000000000e+00
					-1.272409138200483e+00 2.283806048626208e-01 0.000000000000000e+00
					-1.375000000000000e+00 5.000000000000000e-01 0.000000000000000e+00
					-1.200631794450483e+00 4.567612097252415e-01 0.000000000000000e+00
					-1.272409138200483e+00 2.283806048626208e-01 0.000000000000000e+00
					-1.097567451200828e+00 2.084738940502070e-01 0.000000000000000e+00
					-1.200631794450483e+00 4.567612097252415e-01 0.000000000000000e+00
					-1.044833076200828e+00 4.169477881004139e-01 0.000000000000000e+00
					-1.097567451200828e+00 2.084738940502070e-01 0.000000000000000e+00
					-9.442249390010349e-01 1.902798675627588e-01 0.000000000000000e+00
					-1.044833076200828e+00 4.169477881004139e-01 0.000000000000000e+00
					-9.076038452510349e-01 3.805597351255174e-01 0.000000000000000e+00
					-9.442249390010349e-01 1.902798675627588e-01 0.000000000000000e+00
					-8.123816016011038e-01 1.737985254002760e-01 0.000000000000000e+00
					-9.076038452510349e-01 3.805597351255174e-01 0.000000000000000e+00
					-7.889441016011038e-01 3.475970508005520e-01 0.000000000000000e+00
					-8.123816016011038e-01 1.737985254002760e-01 0.000000000000000e+00
					-7.020374390010349e-01 1.590298675627588e-01 0.000000000000000e+00
					-7.889441016011038e-01 3.475970508005520e-01 0.000000000000000e+00
					-6.888538452510349e-01 3.180597351255175e-01 0.000000000000000e+00
					-7.020374390010349e-01 1.590298675627588e-01 0.000000000000000e+00
					-6.131924512008278e-01 1.459738940502070e-01 0.000000000000000e+00
					-6.888538452510349e-01 3.180597351255175e-01 0.000000000000000e+00
					-6.073330762008278e-01 2.919477881004140e-01 0.000000000000000e+00
					-6.131924512008278e-01 1.459738940502070e-01 0.000000000000000e+00
					-5.458466382004830e-01 1.346306048626208e-01 0.000000000000000e+00
					-6.073330762008278e-01 2.919477881004140e-01 0.000000000000000e+00
					-5.443817944504830e-01 2.692612097252415e-01 0.000000000000000e+00
					-5.458466382004830e-01 1.346306048626208e-01 0.000000000000000e+00
					-5.000000000000000e-01 1.250000000000000e-01 0.000000000000000e+00
					-5.443817944504830e-01 2.692612097252415e-01 0.000000000000000e+00
					-5.000000000000000e-01 2.500000000000000e-01 0.000000000000000e+00
					-1.375000000000000e+00 5.000000000000000e-01 0.000000000000000e+00
					-1.200631794450483e+00 4.567612097252415e-01 0.000000000000000e+00
					-1.218750000000000e+00 7.500000000000000e-01 0.000000000000000e+00
					-1.081002888200483e+00 6.851418145878622e-01 0.000000000000000e+00
					-1.200631794450483e+00 4.567612097252415e-01 0.000000000000000e+00
					-1.044833076200828e+00 4.169477881004139e-01 0.000000000000000e+00
					-1.081002888200483e+00 6.851418145878622e-01 0.000000000000000e+00
					-9.569424512008279e-01 6.254216821506209e-01 0.000000000000000e+00
					-1.044833076200828e+00 4.169477881004139e-01 0.000000000000000e+00
					-9.076038452510349e-01 3.805597351255174e-01 0.000000000000000e+00
					-9.569424512008279e-01 6.254216821506209e-01 0.000000000000000e+00
					-8.465686890010349e-01 5.708396026882763e-01 0.000000000000000e+00
					-9.076038452510349e-01 3.805597351255174e-01 0.000000000000000e+00
					-7.889441016011038e-01 3.475970508005520e-01 0.000000000000000e+00
					-8.465686890010349e-01 5.708396026882763e-01 0.000000000000000e+00
					-7.498816016011038e-01 5.213955762008280e-01 0.000000000000000e+00
					-7.889441016011038e-01 3.475970508005520e-01 0.000000000000000e+00
					-6.888538452510349e-01 3.180597351255175e-01 0.000000000000000e+00
					-7.498816016011038e-01 5.213955762008280e-01 0.000000000000000e+00
					-6.668811890010349e-01 4.770896026882762e-01 0.000000000000000e+00
					-6.888538452510349e-01 3.180597351255175e-01 0.000000000000000e+00
					-6.073330762008278e-01 2.919477881004140e-01 0.000000000000000e+00
					-6.668811890010349e-01 4.770896026882762e-01 0.000000000000000e+00
					-5.975674512008278e-01 4.379216821506209e-01 0.000000000000000e+00
					-6.073330762008278e-01 2.919477881004140e-01 0.000000000000000e+00
					-5.443817944504830e-01 2.692612097252415e-01 0.000000000000000e+00
					-5.975674512008278e-01 4.379216821506209e-01 0.000000000000000e+00
					-5.419403882004830e-01 4.038918145878622e-01 0.000000000000000e+00
					-5.443817944504830e-01 2.692612097252415e-01 0.000000000000000e+00
					-5.000000000000000e-01 2.500000000000000e-01 0.000000000000000e+00
					-5.419403882004830e-01 4.038918145878622e-01 0.000000000000000e+00
					-5.000000000000000e-01 3.750000000000000e-01 0.000000000000000e+00
					-1.218750000000000e+00 7.500000000000000e-01 0.000000000000000e+00
					-1.081002888200483e+00 6.851418145878622e-01 0.000000000000000e+00
					-1.000000000000000e+00 1.000000000000000e+00 0.000000000000000e+00
					-9.135224194504830e-01 9.135224194504830e-01 0.000000000000000e+00
					-1.081002888200483e+00 6.851418145878622e-01 0.000000000000000e+00
					-9.569424512008279e-01 6.254216821506209e-01 0.000000000000000e+00
					-9.135224194504830e-01 9.135224194504830e-01 0.000000000000000e+00
					-8.338955762008279e-01 8.338955762008279e-01 0.000000000000000e+00
					-9.569424512008279e-01 6.254216821506209e-01 0.000000000000000e+00
					-8.465686890010349e-01 5.708396026882763e-01 0.000000000000000e+00
					-8.338955762008279e-01 8.338955762008279e-01 0.000000000000000e+00
					-7.611194702510349e-01 7.611194702510349e-01 0.000000000000000e+00
					-8.465686890010349e-01 5.708396026882763e-01 0.000000000000000e+00
					-7.498816016011038e-01 5.213955762008280e-01 0.000000000000000e+00
					-7.611194702510349e-01 7.611194702510349e-01 0.000000000000000e+00
					-6.951941016011038e-01 6.951941016011038e-01 0.000000000000000e+00
					-7.498816016011038e-01 5.213955762008280e-01 0.000000000000000e+00
					-6.668811890010349e-01 4.770896026882762e-01 0.000000000000000e+00
					-6.951941016011038e-01 6.951941016011038e-01 0.000000000000000e+00
					-6.361194702510349e-01 6.361194702510349e-01 0.000000000000000e+00
					-6.668811890010349e-01 4.770896026882762e-01 0.000000000000000e+00
					-5.975674512008278e-01 4.379216821506209e-01 0.000000000000000e+00
					-6.361194702510349e-01 6.361194702510349e-01 0.000000000000000e+00
					-5.838955762008278e-01 5.838955762008278e-01 0.000000000000000e+00
					-5.975674512008278e-01 4.379216821506209e-01 0.000000000000000e+00
					-5.419403882004830e-01 4.038918145878622e-01 0.000000000000000e+00
					-5.838955762008278e-01 5.838955762008278e-01 0.000000000000000e+00
					-5.385224194504830e-01 5.385224194504830e-01 0.000000000000000e+00
					-5.419403882004830e-01 4.038918145878622e-01 0.000000000000000e+00
					-5.000000000000000e-01 3.750000000000000e-01 0.000000000000000e+00
					-5.385224194504830e-01 5.385224194504830e-01 0.000000000000000e+00
					-5.000000000000000e-01 5.000000000000000e-01 0.000000000000000e+00
				</DataArray>
			</Points>
			<Cells>
				<DataArray Name="connectivity" type="UInt32" format="ascii">
					0 1 3 2 4 5 7 6 8 9 11 10 12 13 15 14 16 17 19 18 20 21 23 22 24 25 27 26 28 29 31 30 32 33 35 34 36 37 39 38 40 41 43 42 44 45 47 46 48 49 51 50 52 53 55 54 56 57 59 58 60 61 63 62 64 65 67 66 68 69 71 70 72 73 75 74 76 77 79 78 80 81 83 82 84 85 87 86 88 89 91 90 92 93 95 94 96 97 99 98 100 101 103 102 104 105 107 106 108 109 111 110 112 113 115 114 116 117 119 118 120 121 123 122 124 125 127 126 128 129 131 130 132 133 135 134 136 137 139 138 140 141 143 142 144 145 147 146 148 149 151 150 152 153 155 154 156 157 159 158 160 161 163 162 164 165 167 166 168 169 171 170 172 173 175 174 176 177 179 178 180 181 183 182 184 185 187 186 188 189 191 190 192 193 195 194 196 197 199 198 200 201 203 202 204 205 207 206 208 209 211 210 212 213 215 214 216 217 219 218 220 221 223 222 224 225 227 226 228 229 231 230 232 233 235 234 236 237 239 238 240 241 243 242 244 245 247 246 248 249 251 250 252 253 255 254 
				</DataArray>
				<DataArray Name="offsets" type="UInt32" format="ascii">
					4 8 12 16 20 24 28 32 36 40 44 48 52 56 60 64 68 72 76 80 84 88 92 96 100 104 108 112 116 120 124 128 132 136 140 144 148 152 156 160 164 168 172 176 180 184 188 192 196 200 204 208 212 216 220 224 228 232 236 240 244 248 252 256 
				</DataArray>
				<DataArray Name="types" type="UInt8" format="ascii">
					9 9 9 9 9 9 9 9 9 9 9 9 9 9 9 9 9 9 9 9 9 9 9 9 9 9 9 9 9 9 9 9 9 9 9 9 9 9 9 9 9 9 9 9 9 9 9 9 9 9 9 9 9 9 9 9 9 9 9 9 9 9 9 9 
				</DataArray>
			</Cells>
			<PointData Vectors="solution ">
				<DataArray Name="solution" type="Float64" NumberOfComponents="1" format="ascii">
					0.000000000000000e+00 2.449136370492404e-02 0.000000000000000e+00 3.649453340638637e-02 2.449136370492404e-02 1.014589180559951e-01 3.649453340638638e-02 1.447240966577643e-01 1.014589180559951e-01 2.352782567767389e-01 1.447240966577643e-01 3.481436464401655e-01 2.352782567767389e-01 4.293375958833250e-01 3.481436464401656e-01 6.736286341417010e-01 4.293375958833251e-01 6.863266379208524e-01 6.736286341417013e-01 1.133558906016639e+00 6.863266379208525e-01 1.008500068242568e+00 1.133558906016639e+00 1.723707763583921e+00 1.008500068242569e+00 1.397867081150135e+00 1.723707763583921e+00 2.418509474373574e+00 1.397867081150135e+00 1.856310145572177e+00 2.418509474373574e+00 3.147070153971401e+00 0.000000000000000e+00 3.649453340638637e-02 0.000000000000000e+00 4.052237059437294e-02 3.649453340638638e-02 1.447240966577643e-01 4.052237059437294e-02 1.858327367788922e-01 1.447240966577644e-01 3.481436464401655e-01 1.858327367788923e-01 5.095374724698720e-01 3.481436464401657e-01 6.736286341417013e-01 5.095374724698720e-01 1.080454965416274e+00 6.736286341417013e-01 1.133558906016639e+00 1.080454965416274e+00 1.906901591854801e+00 1.133558906016639e+00 1.723707763583921e+00 1.906901591854801e+00 2.921404868233445e+00 1.723707763583921e+00 2.418509474373575e+00 2.921404868233445e+00 3.988182248756027e+00 2.418509474373575e+00 3.147070153971401e+00 3.988182248756028e+00 4.937701449858542e+00 0.000000000000000e+00 4.052237059437294e-02 0.000000000000000e+00 4.894661543432421e-02 4.052237059437294e-02 1.858327367788923e-01 4.894661543432422e-02 2.534930456410448e-01 1.858327367788923e-01 5.095374724698720e-01 2.534930456410448e-01 7.581475687111274e-01 5.095374724698720e-01 1.080454965416274e+00 7.581475687111275e-01 1.669285159286002e+00 1.080454965416274e+00 1.906901591854801e+00 1.669285159286002e+00 2.952885286516556e+00 1.906901591854802e+00 2.921404868233445e+00 2.952885286516556e+00 4.432598137847901e+00 2.921404868233445e+00 3.988182248756028e+00 4.432598137847902e+00 5.861925393548632e+00 3.988182248756028e+00 4.937701449858543e+00 5.861925393548632e+00 7.013374096934405e+00 0.000000000000000e+00 4.894661543432422e-02 0.000000000000000e+00 6.475993679194467e-02 4.894661543432422e-02 2.534930456410448e-01 6.475993679194468e-02 3.568979045915185e-01 2.534930456410448e-01 7.581475687111275e-01 3.568979045915185e-01 1.085564548324637e+00 7.581475687111275e-01 1.669285159286002e+00 1.085564548324637e+00 2.371505172946902e+00 1.669285159286002e+00 2.952885286516556e+00 2.371505172946903e+00 4.116645679235855e+00 2.952885286516556e+00 4.432598137847902e+00 4.116645679235855e+00 6.042758974156722e+00 4.432598137847902e+00 5.861925393548632e+00 6.042758974156723e+00 7.816056460450548e+00 5.861925393548633e+00 7.013374096934406e+00 7.816056460450548e+00 9.158912033116616e+00 0.000000000000000e+00 6.475993679194468e-02 0.000000000000000e+00 9.514835925234022e-02 6.475993679194468e-02 3.568979045915185e-01 9.514835925234025e-02 5.119291975858921e-01 3.568979045915185e-01 1.085564548324637e+00 5.119291975858922e-01 1.492068313389944e+00 1.085564548324637e+00 2.371505172946903e+00 1.492068313389944e+00 3.129486107109781e+00 2.371505172946903e+00 4.116645679235855e+00 3.129486107109781e+00 5.262641407372530e+00 4.116645679235855e+00 6.042758974156723e+00 5.262641407372532e+00 7.548033177356978e+00 6.042758974156724e+00 7.816056460450548e+00 7.548033177356978e+00 9.608287105824761e+00 7.816056460450548e+00 9.158912033116618e+00 9.608287105824765e+00 1.113480032459220e+01 0.000000000000000e+00 9.514835925234025e-02 0.000000000000000e+00 1.536889031680437e-01 9.514835925234025e-02 5.119291975858922e-01 1.536889031680438e-01 7.471549061583190e-01 5.119291975858923e-01 1.492068313389944e+00 7.471549061583191e-01 1.969777965958112e+00 1.492068313389944e+00 3.129486107109781e+00 1.969777965958113e+00 3.848223589830231e+00 3.129486107109781e+00 5.262641407372532e+00 3.848223589830231e+00 6.192946744938888e+00 5.262641407372532e+00 7.548033177356979e+00 6.192946744938890e+00 8.667768827059431e+00 7.548033177356979e+00 9.608287105824765e+00 8.667768827059433e+00 1.090184093686058e+01 9.608287105824767e+00 1.113480032459220e+01 1.090184093686058e+01 1.260556019954128e+01 0.000000000000000e+00 1.536889031680438e-01 0.000000000000000e+00 2.675623782160929e-01 1.536889031680438e-01 7.471549061583191e-01 2.675623782160930e-01 1.074086101680143e+00 7.471549061583194e-01 1.969777965958113e+00 1.074086101680143e+00 2.457098144755861e+00 1.969777965958113e+00 3.848223589830231e+00 2.457098144755862e+00 4.357028125666043e+00 3.848223589830231e+00 6.192946744938890e+00 4.357028125666043e+00 6.624891082717731e+00 6.192946744938891e+00 8.667768827059433e+00 6.624891082717733e+00 9.040998155032357e+00 8.667768827059433e+00 1.090184093686059e+01 9.040998155032357e+00 1.132880553218434e+01 1.090184093686059e+01 1.260556019954128e+01 1.132880553218434e+01 1.321219099448838e+01 0.000000000000000e+00 2.675623782160930e-01 0.000000000000000e+00 3.179224657901055e-01 2.675623782160930e-01 1.074086101680143e+00 3.179224657901056e-01 1.209782741427195e+00 1.074086101680143e+00 2.457098144755862e+00 1.209782741427195e+00 2.575470546108404e+00 2.457098144755862e+00 4.357028125666043e+00 2.575470546108404e+00 4.307008204332049e+00 4.357028125666043e+00 6.624891082717733e+00 4.307008204332050e+00 6.291337488868487e+00 6.624891082717734e+00 9.040998155032357e+00 6.291337488868489e+00 8.412585662122403e+00 9.040998155032359e+00 1.132880553218434e+01 8.412585662122403e+00 1.055348722685283e+01 1.132880553218435e+01 1.321219099448838e+01 1.055348722685283e+01 1.259615116122699e+01 
				</DataArray>
			</PointData>
			<CellData>
			</CellData>
		</Piece>
	</UnstructuredGrid>
</VTKFile>