<?xml version="1.0"?>
<VTKFile type="UnstructuredGrid" byte_order="LittleEndian">
	<UnstructuredGrid>
		<Piece NumberOfPoints="256" NumberOfCells="64">
			<Points>
				<DataArray type="Float64" NumberOfComponents="3" format="ascii">
					-1.000000000000000e+00 -1.000000000000000e+00 0.000000000000000e+00
					-7.500000000000000e-01 -1.218750000000000e+00 0.000000000000000e+00
					-9.135224194504830e-01 -9.135224194504830e-01 0.000000000000000e+00
					-6.851418145878622e-01 -1.081002888200483e+00 0.000000000000000e+00
					-7.500000000000000e-01 -1.218750000000000e+00 0.000000000000000e+00
					-5.000000000000000e-01 -1.375000000000000e+00 0.000000000000000e+00
					-6.851418145878622e-01 -1.081002888200483e+00 0.000000000000000e+00
					-4.567612097252415e-01 -1.200631794450483e+00 0.000000000000000e+00
					-5.000000000000000e-01 -1.375000000000000e+00 0.000000000000000e+00
					-2.500000000000000e-01 -1.468750000000000e+00 0.000000000000000e+00
					-4.567612097252415e-01 -1.200631794450483e+00 0.000000000000000e+00
					-2.283806048626207e-01 -1.272409138200483e+00 0.000000000000000e+00
					-2.500000000000000e-01 -1.468750000000000e+00 0.000000000000000e+00
					0.000000000000000e+00 -1.500000000000000e+00 0.000000000000000e+00
					-2.283806048626207e-01 -1.272409138200483e+00 0.000000000000000e+00
					1.040834085586084e-17 -1.296334919450483e+00 0.000000000000000e+00
					0.000000000000000e+00 -1.500000000000000e+00 0.000000000000000e+00
					2.500000000000000e-01 -1.468750000000000e+00 0.000000000000000e+00
					1.040834085586084e-17 -1.296334919450483e+00 0.000000000000000e+00
					2.283806048626208e-01 -1.272409138200483e+00 0.000000000000000e+00
					2.500000000000000e-01 -1.468750000000000e+00 0.000000000000000e+00
					5.000000000000000e-01 -1.375000000000000e+00 0.000000000000000e+00
					2.283806048626208e-01 -1.272409138200483e+00 0.000000000000000e+00
					4.567612097252415e-01 -1.200631794450483e+00 0.000000000000000e+00
					5.000000000000000e-01 -1.375000000000000e+00 0.000000000000000e+00
					7.500000000000000e-01 -1.218750000000000e+00 0.000000000000000e+00
					4.567612097252415e-01 -1.200631794450483e+00 0.000000000000000e+00
					6.851418145878623e-01 -1.081002888200483e+00 0.000000000000000e+00
					7.500000000000000e-01 -1.218750000000000e+00 0.000000000000000e+00
					1.000000000000000e+00 -1.000000000000000e+00 0.000000000000000e+00
					6.851418145878623e-01 -1.081002888200483e+00 0.000000000000000e+00
					9.135224194504830e-01 -9.135224194504830e-01 0.000000000000000e+00
					-9.135224194504830e-01 -9.135224194504830e-01 0.000000000000000e+00
					-6.851418145878622e-01 -1.081002888200483e+00 0.000000000000000e+00
					-8.338955762008279e-01 -8.338955762008279e-01 0.000000000000000e+00
					-6.254216821506209e-01 -9.569424512008280e-01 0.000000000000000e+00
					-6.851418145878622e-01 -1.081002888200483e+00 0.000000000000000e+00
					-4.567612097252415e-01 -1.200631794450483e+00 0.000000000000000e+00
					-6.254216821506209e-01 -9.569424512008280e-01 0.000000000000000e+00
					-4.169477881004140e-01 -1.044833076200828e+00 0.000000000000000e+00
					-4.567612097252415e-01 -1.200631794450483e+00 0.000000000000000e+00
					-2.283806048626207e-01 -1.272409138200483e+00 0.000000000000000e+00
					-4.169477881004140e-01 -1.044833076200828e+00 0.000000000000000e+00
					-2.084738940502070e-01 -1.097567451200828e+00 0.000000000000000e+00
					-2.283806048626207e-01 -1.272409138200483e+00 0.000000000000000e+00
					1.040834085586084e-17 -1.296334919450483e+00 0.000000000000000e+00
					-2.084738940502070e-01 -1.097567451200828e+00 0.000000000000000e+00
					1.734723475976807e-17 -1.115145576200828e+00 0.000000000000000e+00
					1.040834085586084e-17 -1.296334919450483e+00 0.000000000000000e+00
					2.283806048626208e-01 -1.272409138200483e+00 0.000000000000000e+00
					1.734723475976807e-17 -1.115145576200828e+00 0.000000000000000e+00
					2.084738940502070e-01 -1.097567451200828e+00 0.000000000000000e+00
					2.283806048626208e-01 -1.272409138200483e+00 0.000000000000000e+00
					4.567612097252415e-01 -1.200631794450483e+00 0.000000000000000e+00
					2.084738940502070e-01 -1.097567451200828e+00 0.000000000000000e+00
					4.169477881004140e-01 -1.044833076200828e+00 0.000000000000000e+00
					4.567612097252415e-01 -1.200631794450483e+00 0.000000000000000e+00
					6.851418145878623e-01 -1.081002888200483e+00 0.000000000000000e+00
					4.169477881004140e-01 -1.044833076200828e+00 0.000000000000000e+00
					6.254216821506209e-01 -9.569424512008280e-01 0.000000000000000e+00
					6.851418145878623e-01 -1.081002888200483e+00 0.000000000000000e+00
					9.135224194504830e-01 -9.135224194504830e-01 0.000000000000000e+00
					6.254216821506209e-01 -9.569424512008280e-01 0.000000000000000e+00
					8.338955762008279e-01 -8.338955762008279e-01 0.000000000000000e+00
					-8.338955762008279e-01 -8.338955762008279e-01 0.000000000000000e+00
					-6.254216821506209e-01 -9.569424512008280e-01 0.000000000000000e+00
					-7.611194702510349e-01 -7.611194702510349e-01 0.000000000000000e+00
					-5.708396026882762e-01 -8.465686890010349e-01 0.000000000000000e+00
					-6.254216821506209e-01 -9.569424512008280e-01 0.000000000000000e+00
					-4.169477881004140e-01 -1.044833076200828e+00 0.000000000000000e+00
					-5.708396026882762e-01 -8.465686890010349e-01 0.000000000000000e+00
					-3.805597351255174e-01 -9.076038452510349e-01 0.000000000000000e+00
					-4.169477881004140e-01 -1.044833076200828e+00 0.000000000000000e+00
					-2.084738940502070e-01 -1.097567451200828e+00 0.000000000000000e+00
					-3.805597351255174e-01 -9.076038452510349e-01 0.000000000000000e+00
					-1.902798675627587e-01 -9.442249390010350e-01 0.000000000000000e+00
					-2.084738940502070e-01 -1.097567451200828e+00 0.000000000000000e+00
					1.734723475976807e-17 -1.115145576200828e+00 0.000000000000000e+00
					-1.902798675627587e-01 -9.442249390010350e-01 0.000000000000000e+00
					2.428612866367530e-17 -9.564319702510349e-01 0.000000000000000e+00
					1.734723475976807e-17 -1.115145576200828e+00 0.000000000000000e+00
					2.084738940502070e-01 -1.097567451200828e+00 0.000000000000000e+00
					2.428612866367530e-17 -9.564319702510349e-01 0.000000000000000e+00
					1.902798675627587e-01 -9.442249390010349e-01 0.000000000000000e+00
					2.084738940502070e-01 -1.097567451200828e+00 0.000000000000000e+00
					4.169477881004140e-01 -1.044833076200828e+00 0.000000000000000e+00
					1.902798675627587e-01 -9.442249390010349e-01 0.000000000000000e+00
					3.805597351255174e-01 -9.076038452510349e-01 0.000000000000000e+00
					4.169477881004140e-01 -1.044833076200828e+00 0.000000000000000e+00
					6.254216821506209e-01 -9.569424512008280e-01 0.000000000000000e+00
					3.805597351255174e-01 -9.076038452510349e-01 0.000000000000000e+00
					5.708396026882762e-01 -8.465686890010349e-01 0.000000000000000e+00
					6.254216821506209e-01 -9.569424512008280e-01 0.000000000000000e+00
					8.338955762008279e-01 -8.338955762008279e-01 0.000000000000000e+00
					5.708396026882762e-01 -8.465686890010349e-01 0.000000000000000e+00
					7.611194702510349e-01 -7.611194702510349e-01 0.000000000000000e+00
					-7.611194702510349e-01 -7.611194702510349e-01 0.000000000000000e+00
					-5.708396026882762e-01 -8.465686890010349e-01 0.000000000000000e+00
					-6.951941016011038e-01 -6.951941016011038e-01 0.000000000000000e+00
					-5.213955762008279e-01 -7.498816016011038e-01 0.000000000000000e+00
					-5.708396026882762e-01 -8.465686890010349e-01 0.000000000000000e+00
					-3.805597351255174e-01 -9.076038452510349e-01 0.000000000000000e+00
					-5.213955762008279e-01 -7.498816016011038e-01 0.000000000000000e+00
					-3.475970508005519e-01 -7.889441016011040e-01 0.000000000000000e+00
					-3.805597351255174e-01 -9.076038452510349e-01 0.000000000000000e+00
					-1.902798675627587e-01 -9.442249390010350e-01 0.000000000000000e+00
					-3.475970508005519e-01 -7.889441016011040e-01 0.000000000000000e+00
					-1.737985254002760e-01 -8.123816016011040e-01 0.000000000000000e+00
					-1.902798675627587e-01 -9.442249390010350e-01 0.000000000000000e+00
					2.428612866367530e-17 -9.564319702510349e-01 0.000000000000000e+00
					-1.737985254002760e-01 -8.123816016011040e-01 0.000000000000000e+00
					2.428612866367530e-17 -8.201941016011038e-01 0.000000000000000e+00
					2.428612866367530e-17 -9.564319702510349e-01 0.000000000000000e+00
					1.902798675627587e-01 -9.442249390010349e-01 0.000000000000000e+00
					2.428612866367530e-17 -8.201941016011038e-01 0.000000000000000e+00
					1.737985254002760e-01 -8.123816016011038e-01 0.000000000000000e+00
					1.902798675627587e-01 -9.442249390010349e-01 0.000000000000000e+00
					3.805597351255174e-01 -9.076038452510349e-01 0.000000000000000e+00
					1.737985254002760e-01 -8.123816016011038e-01 0.000000000000000e+00
					3.475970508005519e-01 -7.889441016011038e-01 0.000000000000000e+00
					3.805597351255174e-01 -9.076038452510349e-01 0.000000000000000e+00
					5.708396026882762e-01 -8.465686890010349e-01 0.000000000000000e+00
					3.475970508005519e-01 -7.889441016011038e-01 0.000000000000000e+00
					5.213955762008279e-01 -7.498816016011038e-01 0.000000000000000e+00
					5.708396026882762e-01 -8.465686890010349e-01 0.000000000000000e+00
					7.611194702510349e-01 -7.611194702510349e-01 0.000000000000000e+00
					5.213955762008279e-01 -7.498816016011038e-01 0.000000000000000e+00
					6.951941016011038e-01 -6.951941016011038e-01 0.000000000000000e+00
					-6.951941016011038e-01 -6.951941016011038e-01 0.000000000000000e+00
					-5.213955762008279e-01 -7.498816016011038e-01 0.000000000000000e+00
					-6.361194702510349e-01 -6.361194702510349e-01 0.000000000000000e+00
					-4.770896026882762e-01 -6.668811890010349e-01 0.000000000000000e+00
					-5.213955762008279e-01 -7.498816016011038e-01 0.000000000000000e+00
					-3.475970508005519e-01 -7.889441016011040e-01 0.000000000000000e+00
					-4.770896026882762e-01 -6.668811890010349e-01 0.000000000000000e+00
					-3.180597351255174e-01 -6.888538452510349e-01 0.000000000000000e+00
					-3.475970508005519e-01 -7.889441016011040e-01 0.000000000000000e+00
					-1.737985254002760e-01 -8.123816016011040e-01 0.000000000000000e+00
					-3.180597351255174e-01 -6.888538452510349e-01 0.000000000000000e+00
					-1.590298675627587e-01 -7.020374390010350e-01 0.000000000000000e+00
					-1.737985254002760e-01 -8.123816016011040e-01 0.000000000000000e+00
					2.428612866367530e-17 -8.201941016011038e-01 0.000000000000000e+00
					-1.590298675627587e-01 -7.020374390010350e-01 0.000000000000000e+00
					1.734723475976807e-17 -7.064319702510349e-01 0.000000000000000e+00
					2.428612866367530e-17 -8.201941016011038e-01 0.000000000000000e+00
					1.737985254002760e-01 -8.123816016011038e-01 0.000000000000000e+00
					1.734723475976807e-17 -7.064319702510349e-01 0.000000000000000e+00
					1.590298675627587e-01 -7.020374390010349e-01 0.000000000000000e+00
					1.737985254002760e-01 -8.123816016011038e-01 0.000000000000000e+00
					3.475970508005519e-01 -7.889441016011038e-01 0.000000000000000e+00
					1.590298675627587e-01 -7.020374390010349e-01 0.000000000000000e+00
					3.180597351255174e-01 -6.888538452510349e-01 0.000000000000000e+00
					3.475970508005519e-01 -7.889441016011038e-01 0.000000000000000e+00
					5.213955762008279e-01 -7.498816016011038e-01 0.000000000000000e+00
					3.180597351255174e-01 -6.888538452510349e-01 0.000000000000000e+00
					4.770896026882762e-01 -6.668811890010349e-01 0.000000000000000e+00
					5.213955762008279e-01 -7.498816016011038e-01 0.000000000000000e+00
					6.951941016011038e-01 -6.951941016011038e-01 0.000000000000000e+00
					4.770896026882762e-01 -6.668811890010349e-01 0.000000000000000e+00
					6.361194702510349e-01 -6.361194702510349e-01 0.000000000000000e+00
					-6.361194702510349e-01 -6.361194702510349e-01 0.000000000000000e+00
					-4.770896026882762e-01 -6.668811890010349e-01 0.000000000000000e+00
					-5.838955762008278e-01 -5.838955762008278e-01 0.000000000000000e+00
					-4.379216821506209e-01 -5.975674512008280e-01 0.000000000000000e+00
					-4.770896026882762e-01 -6.668811890010349e-01 0.000000000000000e+00
					-3.180597351255174e-01 -6.888538452510349e-01 0.000000000000000e+00
					-4.379216821506209e-01 -5.975674512008280e-01 0.000000000000000e+00
					-2.919477881004139e-01 -6.073330762008280e-01 0.000000000000000e+00
					-3.180597351255174e-01 -6.888538452510349e-01 0.000000000000000e+00
					-1.590298675627587e-01 -7.020374390010350e-01 0.000000000000000e+00
					-2.919477881004139e-01 -6.073330762008280e-01 0.000000000000000e+00
					-1.459738940502069e-01 -6.131924512008280e-01 0.000000000000000e+00
					-1.590298675627587e-01 -7.020374390010350e-01 0.000000000000000e+00
					1.734723475976807e-17 -7.064319702510349e-01 0.000000000000000e+00
					-1.459738940502069e-01 -6.131924512008280e-01 0.000000000000000e+00
					1.040834085586084e-17 -6.151455762008280e-01 0.000000000000000e+00
					1.734723475976807e-17 -7.064319702510349e-01 0.000000000000000e+00
					1.590298675627587e-01 -7.020374390010349e-01 0.000000000000000e+00
					1.040834085586084e-17 -6.151455762008280e-01 0.000000000000000e+00
					1.459738940502070e-01 -6.131924512008278e-01 0.000000000000000e+00
					1.590298675627587e-01 -7.020374390010349e-01 0.000000000000000e+00
					3.180597351255174e-01 -6.888538452510349e-01 0.000000000000000e+00
					1.459738940502070e-01 -6.131924512008278e-01 0.000000000000000e+00
					2.919477881004139e-01 -6.073330762008278e-01 0.000000000000000e+00
					3.180597351255174e-01 -6.888538452510349e-01 0.000000000000000e+00
					4.770896026882762e-01 -6.668811890010349e-01 0.000000000000000e+00
					2.919477881004139e-01 -6.073330762008278e-01 0.000000000000000e+00
					4.379216821506209e-01 -5.975674512008278e-01 0.000000000000000e+00
					4.770896026882762e-01 -6.668811890010349e-01 0.000000000000000e+00
					6.361194702510349e-01 -6.361194702510349e-01 0.000000000000000e+00
					4.379216821506209e-01 -5.975674512008278e-01 0.000000000000000e+00
					5.838955762008278e-01 -5.838955762008278e-01 0.000000000000000e+00
					-5.838955762008278e-01 -5.838955762008278e-01 0.000000000000000e+00
					-4.379216821506209e-01 -5.975674512008280e-01 0.000000000000000e+00
					-5.385224194504830e-01 -5.385224194504830e-01 0.000000000000000e+00
					-4.038918145878622e-01 -5.419403882004830e-01 0.000000000000000e+00
					-4.379216821506209e-01 -5.975674512008280e-01 0.000000000000000e+00
					-2.919477881004139e-01 -6.073330762008280e-01 0.000000000000000e+00
					-4.038918145878622e-01 -5.419403882004830e-01 0.000000000000000e+00
					-2.692612097252414e-01 -5.443817944504830e-01 0.000000000000000e+00
					-2.919477881004139e-01 -6.073330762008280e-01 0.000000000000000e+00
					-1.459738940502069e-01 -6.131924512008280e-01 0.000000000000000e+00
					-2.692612097252414e-01 -5.443817944504830e-01 0.000000000000000e+00
					-1.346306048626207e-01 -5.458466382004830e-01 0.000000000000000e+00
					-1.459738940502069e-01 -6.131924512008280e-01 0.000000000000000e+00
					1.040834085586084e-17 -6.151455762008280e-01 0.000000000000000e+00
					-1.346306048626207e-01 -5.458466382004830e-01 0.000000000000000e+00
					3.469446951953614e-18 -5.463349194504828e-01 0.000000000000000e+00
					1.040834085586084e-17 -6.151455762008280e-01 0.000000000000000e+00
					1.459738940502070e-01 -6.131924512008278e-01 0.000000000000000e+00
					3.469446951953614e-18 -5.463349194504828e-01 0.000000000000000e+00
					1.346306048626207e-01 -5.458466382004828e-01 0.000000000000000e+00
					1.459738940502070e-01 -6.131924512008278e-01 0.000000000000000e+00
					2.919477881004139e-01 -6.073330762008278e-01 0.000000000000000e+00
					1.346306048626207e-01 -5.458466382004828e-01 0.000000000000000e+00
					2.692612097252414e-01 -5.443817944504828e-01 0.000000000000000e+00
					2.919477881004139e-01 -6.073330762008278e-01 0.000000000000000e+00
					4.379216821506209e-01 -5.975674512008278e-01 0.000000000000000e+00
					2.692612097252414e-01 -5.443817944504828e-01 0.000000000000000e+00
					4.038918145878622e-01 -5.419403882004828e-01 0.000000000000000e+00
					4.379216821506209e-01 -5.975674512008278e-01 0.000000000000000e+00
					5.838955762008278e-01 -5.838955762008278e-01 0.000000000000000e+00
					4.038918145878622e-01 -5.419403882004828e-01 0.000000000000000e+00
					5.385224194504830e-01 -5.385224194504830e-01 0.000000000000000e+00
					-5.385224194504830e-01 -5.385224194504830e-01 0.000000000000000e+00
					-4.038918145878622e-01 -5.419403882004830e-01 0.000000000000000e+00
					-5.000000000000000e-01 -5.000000000000000e-01 0.000000000000000e+00
					-3.750000000000000e-01 -5.000000000000000e-01 0.000000000000000e+00
					-4.038918145878622e-01 -5.419403882004830e-01 0.000000000000000e+00
					-2.692612097252414e-01 -5.443817944504830e-01 0.000000000000000e+00
					-3.750000000000000e-01 -5.000000000000000e-01 0.000000000000000e+00
					-2.500000000000000e-01 -5.000000000000000e-01 0.000000000000000e+00
					-2.692612097252414e-01 -5.443817944504830e-01 0.000000000000000e+00
					-1.346306048626207e-01 -5.458466382004830e-01 0.000000000000000e+00
					-2.500000000000000e-01 -5.000000000000000e-01 0.000000000000000e+00
					-1.250000000000000e-01 -5.000000000000000e-01 0.000000000000000e+00
					-1.346306048626207e-01 -5.458466382004830e-01 0.000000000000000e+00
					3.469446951953614e-18 -5.463349194504828e-01 0.000000000000000e+00
					-1.250000000000000e-01 -5.000000000000000e-01 0.000000000000000e+00
					0.000000000000000e+00 -5.000000000000000e-01 0.000000000000000e+00
					3.469446951953614e-18 -5.463349194504828e-01 0.000000000000000e+00
					1.346306048626207e-01 -5.458466382004828e-01 0.000000000000000e+00
					0.000000000000000e+00 -5.000000000000000e-01 0.000000000000000e+00
					1.250000000000000e-01 -5.000000000000000e-01 0.000000000000000e+00
					1.346306048626207e-01 -5.458466382004828e-01 0.000000000000000e+00
					2.692612097252414e-01 -5.443817944504828e-01 0.000000000000000e+00
					1.250000000000000e-01 -5.000000000000000e-01 0.000000000000000e+00
					2.500000000000000e-01 -5.000000000000000e-01 0.000000000000000e+00
					2.692612097252414e-01 -5.443817944504828e-01 0.000000000000000e+00
					4.038918145878622e-01 -5.419403882004828e-01 0.000000000000000e+00
					2.500000000000000e-01 -5.000000000000000e-01 0.000000000000000e+00
					3.750000000000000e-01 -5.000000000000000e-01 0.000000000000000e+00
					4.038918145878622e-01 -5.419403882004828e-01 0.000000000000000e+00
					5.385224194504830e-01 -5.385224194504830e-01 0.000000000000000e+00
					3.750000000000000e-01 -5.000000000000000e-01 0.000000000000000e+00
					5.000000000000000e-01 -5.000000000000000e-01 0.000000000000000e+00
				</DataArray>
			</Points>
			<Cells>
				<DataArray Name="connectivity" type="UInt32" format="ascii">
					0 1 3 2 4 5 7 6 8 9 11 10 12 13 15 14 16 17 19 18 20 21 23 22 24 25 27 26 28 29 31 30 32 33 35 34 36 37 39 38 40 41 43 42 44 45 47 46 48 49 51 50 52 53 55 54 56 57 59 58 60 61 63 62 64 65 67 66 68 69 71 70 72 73 75 74 76 77 79 78 80 81 83 82 84 85 87 86 88 89 91 90 92 93 95 94 96 97 99 98 100 101 103 102 104 105 107 106 108 109 111 110 112 113 115 114 116 117 119 118 120 121 123 122 124 125 127 126 128 129 131 130 132 133 135 134 136 137 139 138 140 141 143 142 144 145 147 146 148 149 151 150 152 153 155 154 156 157 159 158 160 161 163 162 164 165 167 166 168 169 171 170 172 173 175 174 176 177 179 178 180 181 183 182 184 185 187 186 188 189 191 190 192 193 195 194 196 197 199 198 200 201 203 202 204 205 207 206 208 209 211 210 212 213 215 214 216 217 219 218 220 221 223 222 224 225 227 226 228 229 231 230 232 233 235 234 236 237 239 238 240 241 243 242 244 245 247 246 248 249 251 250 252 253 255 254 
				</DataArray>
				<DataArray Name="offsets" type="UInt32" format="ascii">
					4 8 12 16 20 24 28 32 36 40 44 48 52 56 60 64 68 72 76 80 84 88 92 96 100 104 108 112 116 120 124 128 132 136 140 144 148 152 156 160 164 168 172 176 180 184 188 192 196 200 204 208 212 216 220 224 228 232 236 240 244 248 252 256 
				</DataArray>
				<DataArray Name="types" type="UInt8" format="ascii">
					9 9 9 9 9 9 9 9 9 9 9 9 9 9 9 9 9 9 9 9 9 9 9 9 9 9 9 9 9 9 9 9 9 9 9 9 9 9 9 9 9 9 9 9 9 9 9 9 9 9 9 9 9 9 9 9 9 9 9 9 9 9 9 9 
				</DataArray>
			</Cells>
			<PointData Vectors="solution ">
				<DataArray Name="solution" type="Float64" NumberOfComponents="1" format="ascii">
					0.000000000000000e+00 0.000000000000000e+00 2.626156620214518e-02 3.537227517187610e-02 0.000000000000000e+00 0.000000000000000e+00 3.537227517187612e-02 3.283436243617112e-02 0.000000000000000e+00 0.000000000000000e+00 3.283436243617113e-02 3.229295801200041e-02 0.000000000000000e+00 0.000000000000000e+00 3.229295801200041e-02 3.543382934397231e-02 0.000000000000000e+00 0.000000000000000e+00 3.543382934397231e-02 4.510636707082125e-02 0.000000000000000e+00 0.000000000000000e+00 4.510636707082126e-02 6.573986294565039e-02 0.000000000000000e+00 0.000000000000000e+00 6.573986294565040e-02 9.988240902424508e-02 0.000000000000000e+00 0.000000000000000e+00 9.988240902424511e-02 9.440309878431043e-02 2.626156620214518e-02 3.537227517187612e-02 1.068686733462214e-01 1.343763301437875e-01 3.537227517187612e-02 3.283436243617113e-02 1.343763301437875e-01 1.380381606533008e-01 3.283436243617113e-02 3.229295801200041e-02 1.380381606533008e-01 1.477307523987980e-01 3.229295801200042e-02 3.543382934397231e-02 1.477307523987980e-01 1.684378589347045e-01 3.543382934397232e-02 4.510636707082126e-02 1.684378589347046e-01 2.066968989600987e-01 4.510636707082126e-02 6.573986294565040e-02 2.066968989600987e-01 2.765307736494785e-01 6.573986294565040e-02 9.988240902424513e-02 2.765307736494785e-01 3.707253537608657e-01 9.988240902424514e-02 9.440309878431044e-02 3.707253537608657e-01 3.665714668763855e-01 1.068686733462214e-01 1.343763301437875e-01 2.444650696253088e-01 3.103657090463667e-01 1.343763301437875e-01 1.380381606533008e-01 3.103657090463667e-01 3.577752027262691e-01 1.380381606533008e-01 1.477307523987980e-01 3.577752027262692e-01 4.226551230498806e-01 1.477307523987981e-01 1.684378589347046e-01 4.226551230498806e-01 4.958512354553806e-01 1.684378589347046e-01 2.066968989600987e-01 4.958512354553806e-01 5.797169864055546e-01 2.066968989600987e-01 2.765307736494785e-01 5.797169864055546e-01 6.925996321812644e-01 2.765307736494785e-01 3.707253537608657e-01 6.925996321812645e-01 8.217727182314167e-01 3.707253537608657e-01 3.665714668763856e-01 8.217727182314167e-01 7.996371719716393e-01 2.444650696253088e-01 3.103657090463667e-01 4.415920343263194e-01 5.877391020078391e-01 3.103657090463668e-01 3.577752027262692e-01 5.877391020078391e-01 7.547172199383616e-01 3.577752027262692e-01 4.226551230498806e-01 7.547172199383617e-01 9.562235218440591e-01 4.226551230498806e-01 4.958512354553806e-01 9.562235218440593e-01 1.137681390705955e+00 4.958512354553807e-01 5.797169864055546e-01 1.137681390705955e+00 1.277566659945792e+00 5.797169864055547e-01 6.925996321812645e-01 1.277566659945793e+00 1.392169454277828e+00 6.925996321812645e-01 8.217727182314170e-01 1.392169454277828e+00 1.476107926226058e+00 8.217727182314170e-01 7.996371719716394e-01 1.476107926226058e+00 1.376389400174613e+00 4.415920343263194e-01 5.877391020078391e-01 7.007185290184472e-01 9.859223811444355e-01 5.877391020078392e-01 7.547172199383617e-01 9.859223811444356e-01 1.365721376988860e+00 7.547172199383618e-01 9.562235218440593e-01 1.365721376988860e+00 1.788485704500130e+00 9.562235218440595e-01 1.137681390705955e+00 1.788485704500130e+00 2.131836702594659e+00 1.137681390705955e+00 1.277566659945793e+00 2.131836702594660e+00 2.332931935136887e+00 1.277566659945793e+00 1.392169454277828e+00 2.332931935136887e+00 2.399264404410023e+00 1.392169454277829e+00 1.476107926226058e+00 2.399264404410024e+00 2.340206048057969e+00 1.476107926226058e+00 1.376389400174614e+00 2.340206048057969e+00 2.079383382840562e+00 7.007185290184472e-01 9.859223811444356e-01 1.024268592222210e+00 1.509832527940823e+00 9.859223811444356e-01 1.365721376988860e+00 1.509832527940823e+00 2.165240668418979e+00 1.365721376988860e+00 1.788485704500130e+00 2.165240668418979e+00 2.844726950560767e+00 1.788485704500130e+00 2.131836702594660e+00 2.844726950560767e+00 3.373050079013994e+00 2.131836702594660e+00 2.332931935136887e+00 3.373050079013994e+00 3.638564545865431e+00 2.332931935136887e+00 2.399264404410024e+00 3.638564545865431e+00 3.638438507484424e+00 2.399264404410024e+00 2.340206048057969e+00 3.638438507484425e+00 3.385699967583219e+00 2.340206048057969e+00 2.079383382840562e+00 3.385699967583219e+00 2.891034998963820e+00 1.024268592222211e+00 1.509832527940823e+00 1.414640969744359e+00 2.137364867537659e+00 1.509832527940824e+00 2.165240668418979e+00 2.137364867537660e+00 3.050000043282830e+00 2.165240668418979e+00 2.844726950560767e+00 3.050000043282830e+00 3.947288429575816e+00 2.844726950560767e+00 3.373050079013994e+00 3.947288429575816e+00 4.638100062650843e+00 3.373050079013995e+00 3.638564545865431e+00 4.638100062650844e+00 4.971462881484081e+00 3.638564545865431e+00 3.638438507484425e+00 4.971462881484081e+00 4.931676262982625e+00 3.638438507484425e+00 3.385699967583219e+00 4.931676262982625e+00 4.528929103573076e+00 3.385699967583220e+00 2.891034998963820e+00 4.528929103573077e+00 3.793685122415223e+00 1.414640969744360e+00 2.137364867537660e+00 1.874221376754120e+00 2.797616312705470e+00 2.137364867537660e+00 3.050000043282830e+00 2.797616312705470e+00 3.862014083593088e+00 3.050000043282830e+00 3.947288429575816e+00 3.862014083593089e+00 4.881071155356550e+00 3.947288429575816e+00 4.638100062650844e+00 4.881071155356551e+00 5.668432228726211e+00 4.638100062650844e+00 4.971462881484081e+00 5.668432228726212e+00 6.068916646584604e+00 4.971462881484082e+00 4.931676262982625e+00 6.068916646584606e+00 6.052086717040256e+00 4.931676262982626e+00 4.528929103573077e+00 6.052086717040257e+00 5.618723101861836e+00 4.528929103573077e+00 3.793685122415223e+00 5.618723101861836e+00 4.769637718364659e+00 
				</DataArray>
			</PointData>
			<CellData>
			</CellData>
		</Piece>
	</UnstructuredGrid>
</VTKFile>