<?xml version="1.0"?>
<VTKFile type="UnstructuredGrid" byte_order="LittleEndian">
	<UnstructuredGrid>
		<Piece NumberOfPoints="64" NumberOfCells="16">
			<Points>
				<DataArray type="Float64" NumberOfComponents="3" format="ascii">
					1.000000000000000e+00 -1.000000000000000e+00 0.000000000000000e+00
					1.375000000000000e+00 -5.000000000000000e-01 0.000000000000000e+00
					8.338955762008279e-01 -8.338955762008279e-01 0.000000000000000e+00
					1.044833076200828e+00 -4.169477881004139e-01 0.000000000000000e+00
					1.375000000000000e+00 -5.000000000000000e-01 0.000000000000000e+00
					1.500000000000000e+00 1.387778780781446e-17 0.000000000000000e+00
					1.044833076200828e+00 -4.169477881004139e-01 0.000000000000000e+00
					1.115145576200828e+00 6.938893903907228e-18 0.000000000000000e+00
					1.500000000000000e+00 1.387778780781446e-17 0.000000000000000e+00
					1.375000000000000e+00 5.000000000000000e-01 0.000000000000000e+00
					1.115145576200828e+00 6.938893903907228e-18 0.000000000000000e+00
					1.044833076200828e+00 4.169477881004139e-01 0.000000000000000e+00
					1.375000000000000e+00 5.000000000000000e-01 0.000000000000000e+00
					1.000000000000000e+00 1.000000000000000e+00 0.000000000000000e+00
					1.044833076200828e+00 4.169477881004139e-01 0.000000000000000e+00
					8.338955762008279e-01 8.338955762008279e-01 0.000000000000000e+00
					8.338955762008279e-01 -8.338955762008279e-01 0.000000000000000e+00
					1.044833076200828e+00 -4.169477881004139e-01 0.000000000000000e+00
					6.951941016011038e-01 -6.951941016011038e-01 0.000000000000000e+00
					7.889441016011038e-01 -3.475970508005519e-01 0.000000000000000e+00
					1.044833076200828e+00 -4.169477881004139e-01 0.000000000000000e+00
					1.115145576200828e+00 6.938893903907228e-18 0.000000000000000e+00
					7.889441016011038e-01 -3.475970508005519e-01 0.000000000000000e+00
					8.201941016011038e-01 0.000000000000000e+00 0.000000000000000e+00
					1.115145576200828e+00 6.938893903907228e-18 0.000000000000000e+00
					1.044833076200828e+00 4.169477881004139e-01 0.000000000000000e+00
					8.201941016011038e-01 0.000000000000000e+00 0.000000000000000e+00
					7.889441016011038e-01 3.475970508005519e-01 0.000000000000000e+00
					1.044833076200828e+00 4.169477881004139e-01 0.000000000000000e+00
					8.338955762008279e-01 8.338955762008279e-01 0.000000000000000e+00
					7.889441016011038e-01 3.475970508005519e-01 0.000000000000000e+00
					6.951941016011038e-01 6.951941016011038e-01 0.000000000000000e+00
					6.951941016011038e-01 -6.951941016011038e-01 0.000000000000000e+00
					7.889441016011038e-01 -3.475970508005519e-01 0.000000000000000e+00
					5.838955762008279e-01 -5.838955762008279e-01 0.000000000000000e+00
					6.073330762008279e-01 -2.919477881004139e-01 0.000000000000000e+00
					7.889441016011038e-01 -3.475970508005519e-01 0.000000000000000e+00
					8.201941016011038e-01 0.000000000000000e+00 0.000000000000000e+00
					6.073330762008279e-01 -2.919477881004139e-01 0.000000000000000e+00
					6.151455762008279e-01 6.938893903907228e-18 0.000000000000000e+00
					8.201941016011038e-01 0.000000000000000e+00 0.000000000000000e+00
					7.889441016011038e-01 3.475970508005519e-01 0.000000000000000e+00
					6.151455762008279e-01 6.938893903907228e-18 0.000000000000000e+00
					6.073330762008279e-01 2.919477881004139e-01 0.000000000000000e+00
					7.889441016011038e-01 3.475970508005519e-01 0.000000000000000e+00
					6.951941016011038e-01 6.951941016011038e-01 0.000000000000000e+00
					6.073330762008279e-01 2.919477881004139e-01 0.000000000000000e+00
					5.838955762008279e-01 5.838955762008279e-01 0.000000000000000e+00
					5.838955762008279e-01 -5.838955762008279e-01 0.000000000000000e+00
					6.073330762008279e-01 -2.919477881004139e-01 0.000000000000000e+00
					5.000000000000000e-01 -5.000000000000000e-01 0.000000000000000e+00
					5.000000000000000e-01 -2.500000000000000e-01 0.000000000000000e+00
					6.073330762008279e-01 -2.919477881004139e-01 0.000000000000000e+00
					6.151455762008279e-01 6.938893903907228e-18 0.000000000000000e+00
					5.000000000000000e-01 -2.500000000000000e-01 0.000000000000000e+00
					5.000000000000000e-01 6.938893903907228e-18 0.000000000000000e+00
					6.151455762008279e-01 6.938893903907228e-18 0.000000000000000e+00
					6.073330762008279e-01 2.919477881004139e-01 0.000000000000000e+00
					5.000000000000000e-01 6.938893903907228e-18 0.000000000000000e+00
					5.000000000000000e-01 2.500000000000000e-01 0.000000000000000e+00
					6.073330762008279e-01 2.919477881004139e-01 0.000000000000000e+00
					5.838955762008279e-01 5.838955762008279e-01 0.000000000000000e+00
					5.000000000000000e-01 2.500000000000000e-01 0.000000000000000e+00
					5.000000000000000e-01 5.000000000000000e-01 0.000000000000000e+00
				</DataArray>
			</Points>
			<Cells>
				<DataArray Name="connectivity" type="UInt32" format="ascii">
					0 1 3 2 4 5 7 6 8 9 11 10 12 13 15 14 16 17 19 18 20 21 23 22 24 25 27 26 28 29 31 30 32 33 35 34 36 37 39 38 40 41 43 42 44 45 47 46 48 49 51 50 52 53 55 54 56 57 59 58 60 61 63 62 
				</DataArray>
				<DataArray Name="offsets" type="UInt32" format="ascii">
					4 8 12 16 20 24 28 32 36 40 44 48 52 56 60 64 
				</DataArray>
				<DataArray Name="types" type="UInt8" format="ascii">
					9 9 9 9 9 9 9 9 9 9 9 9 9 9 9 9 
				</DataArray>
			</Cells>
			<PointData Vectors="solution ">
				<DataArray Name="solution" type="Float64" NumberOfComponents="1" format="ascii">
					0.000000000000000e+00 0.000000000000000e+00 6.968101078714765e-02 5.429682925709068e-01 0.000000000000000e+00 0.000000000000000e+00 5.429682925709068e-01 1.845858353695533e+00 0.000000000000000e+00 0.000000000000000e+00 1.845858353695533e+00 2.944468781340153e+00 0.000000000000000e+00 0.000000000000000e+00 2.944468781340153e+00 1.947875881256641e+00 6.968101078714767e-02 5.429682925709068e-01 7.338290549846944e-01 3.864163180933761e+00 5.429682925709070e-01 1.845858353695533e+00 3.864163180933762e+00 1.039638169255128e+01 1.845858353695533e+00 2.944468781340154e+00 1.039638169255129e+01 1.552834165023210e+01 2.944468781340154e+00 1.947875881256642e+00 1.552834165023210e+01 1.181291080699334e+01 7.338290549846945e-01 3.864163180933762e+00 2.304319278039713e+00 8.510843435736868e+00 3.864163180933762e+00 1.039638169255129e+01 8.510843435736868e+00 1.909418782520554e+01 1.039638169255129e+01 1.552834165023210e+01 1.909418782520554e+01 2.742379124165321e+01 1.552834165023210e+01 1.181291080699335e+01 2.742379124165322e+01 2.383707898665297e+01 2.304319278039713e+00 8.510843435736868e+00 4.379807861345639e+00 1.214618090217688e+01 8.510843435736870e+00 1.909418782520554e+01 1.214618090217689e+01 2.356066170073733e+01 1.909418782520554e+01 2.742379124165322e+01 2.356066170073733e+01 3.303336770147673e+01 2.742379124165322e+01 2.383707898665297e+01 3.303336770147673e+01 3.247943769402206e+01 
				</DataArray>
			</PointData>
			<CellData>
			</CellData>
		</Piece>
	</UnstructuredGrid>
</VTKFile>