<?xml version="1.0"?>
<VTKFile type="UnstructuredGrid" byte_order="LittleEndian">
	<UnstructuredGrid>
		<Piece NumberOfPoints="256" NumberOfCells="64">
			<Points>
				<DataArray type="Float64" NumberOfComponents="3" format="ascii">
					-1.000000000000000e+00 -1.000000000000000e+00 0.000000000000000e+00
					-9.135224194504830e-01 -9.135224194504830e-01 0.000000000000000e+00
					-1.218750000000000e+00 -7.500000000000000e-01 0.000000000000000e+00
					-1.081002888200483e+00 -6.851418145878622e-01 0.000000000000000e+00
					-9.135224194504830e-01 -9.135224194504830e-01 0.000000000000000e+00
					-8.338955762008279e-01 -8.338955762008279e-01 0.000000000000000e+00
					-1.081002888200483e+00 -6.851418145878622e-01 0.000000000000000e+00
					-9.569424512008280e-01 -6.254216821506209e-01 0.000000000000000e+00
					-8.338955762008279e-01 -8.338955762008279e-01 0.000000000000000e+00
					-7.611194702510349e-01 -7.611194702510349e-01 0.000000000000000e+00
					-9.569424512008280e-01 -6.254216821506209e-01 0.000000000000000e+00
					-8.465686890010349e-01 -5.708396026882762e-01 0.000000000000000e+00
					-7.611194702510349e-01 -7.611194702510349e-01 0.000000000000000e+00
					-6.951941016011038e-01 -6.951941016011038e-01 0.000000000000000e+00
					-8.465686890010349e-01 -5.708396026882762e-01 0.000000000000000e+00
					-7.498816016011038e-01 -5.213955762008279e-01 0.000000000000000e+00
					-6.951941016011038e-01 -6.951941016011038e-01 0.000000000000000e+00
					-6.361194702510349e-01 -6.361194702510349e-01 0.000000000000000e+00
					-7.498816016011038e-01 -5.213955762008279e-01 0.000000000000000e+00
					-6.668811890010349e-01 -4.770896026882761e-01 0.000000000000000e+00
					-6.361194702510349e-01 -6.361194702510349e-01 0.000000000000000e+00
					-5.838955762008278e-01 -5.838955762008278e-01 0.000000000000000e+00
					-6.668811890010349e-01 -4.770896026882761e-01 0.000000000000000e+00
					-5.975674512008279e-01 -4.379216821506209e-01 0.000000000000000e+00
					-5.838955762008278e-01 -5.838955762008278e-01 0.000000000000000e+00
					-5.385224194504830e-01 -5.385224194504830e-01 0.000000000000000e+00
					-5.975674512008279e-01 -4.379216821506209e-01 0.000000000000000e+00
					-5.419403882004830e-01 -4.038918145878622e-01 0.000000000000000e+00
					-5.385224194504830e-01 -5.385224194504830e-01 0.000000000000000e+00
					-5.000000000000000e-01 -5.000000000000000e-01 0.000000000000000e+00
					-5.419403882004830e-01 -4.038918145878622e-01 0.000000000000000e+00
					-5.000000000000000e-01 -3.750000000000000e-01 0.000000000000000e+00
					-1.218750000000000e+00 -7.500000000000000e-01 0.000000000000000e+00
					-1.081002888200483e+00 -6.851418145878622e-01 0.000000000000000e+00
					-1.375000000000000e+00 -5.000000000000000e-01 0.000000000000000e+00
					-1.200631794450483e+00 -4.567612097252415e-01 0.000000000000000e+00
					-1.081002888200483e+00 -6.851418145878622e-01 0.000000000000000e+00
					-9.569424512008280e-01 -6.254216821506209e-01 0.000000000000000e+00
					-1.200631794450483e+00 -4.567612097252415e-01 0.000000000000000e+00
					-1.044833076200828e+00 -4.169477881004140e-01 0.000000000000000e+00
					-9.569424512008280e-01 -6.254216821506209e-01 0.000000000000000e+00
					-8.465686890010349e-01 -5.708396026882762e-01 0.000000000000000e+00
					-1.044833076200828e+00 -4.169477881004140e-01 0.000000000000000e+00
					-9.076038452510349e-01 -3.805597351255174e-01 0.000000000000000e+00
					-8.465686890010349e-01 -5.708396026882762e-01 0.000000000000000e+00
					-7.498816016011038e-01 -5.213955762008279e-01 0.000000000000000e+00
					-9.076038452510349e-01 -3.805597351255174e-01 0.000000000000000e+00
					-7.889441016011038e-01 -3.475970508005519e-01 0.000000000000000e+00
					-7.498816016011038e-01 -5.213955762008279e-01 0.000000000000000e+00
					-6.668811890010349e-01 -4.770896026882761e-01 0.000000000000000e+00
					-7.889441016011038e-01 -3.475970508005519e-01 0.000000000000000e+00
					-6.888538452510349e-01 -3.180597351255174e-01 0.000000000000000e+00
					-6.668811890010349e-01 -4.770896026882761e-01 0.000000000000000e+00
					-5.975674512008279e-01 -4.379216821506209e-01 0.000000000000000e+00
					-6.888538452510349e-01 -3.180597351255174e-01 0.000000000000000e+00
					-6.073330762008279e-01 -2.919477881004139e-01 0.000000000000000e+00
					-5.975674512008279e-01 -4.379216821506209e-01 0.000000000000000e+00
					-5.419403882004830e-01 -4.038918145878622e-01 0.000000000000000e+00
					-6.073330762008279e-01 -2.919477881004139e-01 0.000000000000000e+00
					-5.443817944504830e-01 -2.692612097252414e-01 0.000000000000000e+00
					-5.419403882004830e-01 -4.038918145878622e-01 0.000000000000000e+00
					-5.000000000000000e-01 -3.750000000000000e-01 0.000000000000000e+00
					-5.443817944504830e-01 -2.692612097252414e-01 0.000000000000000e+00
					-5.000000000000000e-01 -2.500000000000000e-01 0.000000000000000e+00
					-1.375000000000000e+00 -5.000000000000000e-01 0.000000000000000e+00
					-1.200631794450483e+00 -4.567612097252415e-01 0.000000000000000e+00
					-1.468750000000000e+00 -2.500000000000000e-01 0.000000000000000e+00
					-1.272409138200483e+00 -2.283806048626207e-01 0.000000000000000e+00
					-1.200631794450483e+00 -4.567612097252415e-01 0.000000000000000e+00
					-1.044833076200828e+00 -4.169477881004140e-01 0.000000000000000e+00
					-1.272409138200483e+00 -2.283806048626207e-01 0.000000000000000e+00
					-1.097567451200828e+00 -2.084738940502069e-01 0.000000000000000e+00
					-1.044833076200828e+00 -4.169477881004140e-01 0.000000000000000e+00
					-9.076038452510349e-01 -3.805597351255174e-01 0.000000000000000e+00
					-1.097567451200828e+00 -2.084738940502069e-01 0.000000000000000e+00
					-9.442249390010349e-01 -1.902798675627587e-01 0.000000000000000e+00
					-9.076038452510349e-01 -3.805597351255174e-01 0.000000000000000e+00
					-7.889441016011038e-01 -3.475970508005519e-01 0.000000000000000e+00
					-9.442249390010349e-01 -1.902798675627587e-01 0.000000000000000e+00
					-8.123816016011038e-01 -1.737985254002759e-01 0.000000000000000e+00
					-7.889441016011038e-01 -3.475970508005519e-01 0.000000000000000e+00
					-6.888538452510349e-01 -3.180597351255174e-01 0.000000000000000e+00
					-8.123816016011038e-01 -1.737985254002759e-01 0.000000000000000e+00
					-7.020374390010349e-01 -1.590298675627587e-01 0.000000000000000e+00
					-6.888538452510349e-01 -3.180597351255174e-01 0.000000000000000e+00
					-6.073330762008279e-01 -2.919477881004139e-01 0.000000000000000e+00
					-7.020374390010349e-01 -1.590298675627587e-01 0.000000000000000e+00
					-6.131924512008279e-01 -1.459738940502069e-01 0.000000000000000e+00
					-6.073330762008279e-01 -2.919477881004139e-01 0.000000000000000e+00
					-5.443817944504830e-01 -2.692612097252414e-01 0.000000000000000e+00
					-6.131924512008279e-01 -1.459738940502069e-01 0.000000000000000e+00
					-5.458466382004830e-01 -1.346306048626207e-01 0.000000000000000e+00
					-5.443817944504830e-01 -2.692612097252414e-01 0.000000000000000e+00
					-5.000000000000000e-01 -2.500000000000000e-01 0.000000000000000e+00
					-5.458466382004830e-01 -1.346306048626207e-01 0.000000000000000e+00
					-5.000000000000000e-01 -1.250000000000000e-01 0.000000000000000e+00
					-1.468750000000000e+00 -2.500000000000000e-01 0.000000000000000e+00
					-1.272409138200483e+00 -2.283806048626207e-01 0.000000000000000e+00
					-1.500000000000000e+00 0.000000000000000e+00 0.000000000000000e+00
					-1.296334919450483e+00 4.857225732735060e-17 0.000000000000000e+00
					-1.272409138200483e+00 -2.283806048626207e-01 0.000000000000000e+00
					-1.097567451200828e+00 -2.084738940502069e-01 0.000000000000000e+00
					-1.296334919450483e+00 4.857225732735060e-17 0.000000000000000e+00
					-1.115145576200828e+00 3.469446951953614e-17 0.000000000000000e+00
					-1.097567451200828e+00 -2.084738940502069e-01 0.000000000000000e+00
					-9.442249390010349e-01 -1.902798675627587e-01 0.000000000000000e+00
					-1.115145576200828e+00 3.469446951953614e-17 0.000000000000000e+00
					-9.564319702510349e-01 4.163336342344337e-17 0.000000000000000e+00
					-9.442249390010349e-01 -1.902798675627587e-01 0.000000000000000e+00
					-8.123816016011038e-01 -1.737985254002759e-01 0.000000000000000e+00
					-9.564319702510349e-01 4.163336342344337e-17 0.000000000000000e+00
					-8.201941016011038e-01 4.163336342344337e-17 0.000000000000000e+00
					-8.123816016011038e-01 -1.737985254002759e-01 0.000000000000000e+00
					-7.020374390010349e-01 -1.590298675627587e-01 0.000000000000000e+00
					-8.201941016011038e-01 4.163336342344337e-17 0.000000000000000e+00
					-7.064319702510349e-01 3.816391647148976e-17 0.000000000000000e+00
					-7.020374390010349e-01 -1.590298675627587e-01 0.000000000000000e+00
					-6.131924512008279e-01 -1.459738940502069e-01 0.000000000000000e+00
					-7.064319702510349e-01 3.816391647148976e-17 0.000000000000000e+00
					-6.151455762008279e-01 2.428612866367530e-17 0.000000000000000e+00
					-6.131924512008279e-01 -1.459738940502069e-01 0.000000000000000e+00
					-5.458466382004830e-01 -1.346306048626207e-01 0.000000000000000e+00
					-6.151455762008279e-01 2.428612866367530e-17 0.000000000000000e+00
					-5.463349194504830e-01 2.428612866367530e-17 0.000000000000000e+00
					-5.458466382004830e-01 -1.346306048626207e-01 0.000000000000000e+00
					-5.000000000000000e-01 -1.250000000000000e-01 0.000000000000000e+00
					-5.463349194504830e-01 2.428612866367530e-17 0.000000000000000e+00
					-5.000000000000000e-01 0.000000000000000e+00 0.000000000000000e+00
					-1.500000000000000e+00 0.000000000000000e+00 0.000000000000000e+00
					-1.296334919450483e+00 4.857225732735060e-17 0.000000000000000e+00
					-1.468750000000000e+00 2.500000000000000e-01 0.000000000000000e+00
					-1.272409138200483e+00 2.283806048626208e-01 0.000000000000000e+00
					-1.296334919450483e+00 4.857225732735060e-17 0.000000000000000e+00
					-1.115145576200828e+00 3.469446951953614e-17 0.000000000000000e+00
					-1.272409138200483e+00 2.283806048626208e-01 0.000000000000000e+00
					-1.097567451200828e+00 2.084738940502070e-01 0.000000000000000e+00
					-1.115145576200828e+00 3.469446951953614e-17 0.000000000000000e+00
					-9.564319702510349e-01 4.163336342344337e-17 0.000000000000000e+00
					-1.097567451200828e+00 2.084738940502070e-01 0.000000000000000e+00
					-9.442249390010349e-01 1.902798675627588e-01 0.000000000000000e+00
					-9.564319702510349e-01 4.163336342344337e-17 0.000000000000000e+00
					-8.201941016011038e-01 4.163336342344337e-17 0.000000000000000e+00
					-9.442249390010349e-01 1.902798675627588e-01 0.000000000000000e+00
					-8.123816016011038e-01 1.737985254002760e-01 0.000000000000000e+00
					-8.201941016011038e-01 4.163336342344337e-17 0.000000000000000e+00
					-7.064319702510349e-01 3.816391647148976e-17 0.000000000000000e+00
					-8.123816016011038e-01 1.737985254002760e-01 0.000000000000000e+00
					-7.020374390010349e-01 1.590298675627588e-01 0.000000000000000e+00
					-7.064319702510349e-01 3.816391647148976e-17 0.000000000000000e+00
					-6.151455762008279e-01 2.428612866367530e-17 0.000000000000000e+00
					-7.020374390010349e-01 1.590298675627588e-01 0.000000000000000e+00
					-6.131924512008278e-01 1.459738940502070e-01 0.000000000000000e+00
					-6.151455762008279e-01 2.428612866367530e-17 0.000000000000000e+00
					-5.463349194504830e-01 2.428612866367530e-17 0.000000000000000e+00
					-6.131924512008278e-01 1.459738940502070e-01 0.000000000000000e+00
					-5.458466382004830e-01 1.346306048626208e-01 0.000000000000000e+00
					-5.463349194504830e-01 2.428612866367530e-17 0.000000000000000e+00
					-5.000000000000000e-01 0.000000000000000e+00 0.000000000000000e+00
					-5.458466382004830e-01 1.346306048626208e-01 0.000000000000000e+00
					-5.000000000000000e-01 1.250000000000000e-01 0.000000000000000e+00
					-1.468750000000000e+00 2.500000000000000e-01 0.000000000000000e+00
					-1.272409138200483e+00 2.283806048626208e-01 0.000000000000000e+00
					-1.375000000000000e+00 5.000000000000000e-01 0.000000000000000e+00
					-1.200631794450483e+00 4.567612097252415e-01 0.000000000000000e+00
					-1.272409138200483e+00 2.283806048626208e-01 0.000000000000000e+00
					-1.097567451200828e+00 2.084738940502070e-01 0.000000000000000e+00
					-1.200631794450483e+00 4.567612097252415e-01 0.000000000000000e+00
					-1.044833076200828e+00 4.169477881004139e-01 0.000000000000000e+00
					-1.097567451200828e+00 2.084738940502070e-01 0.000000000000000e+00
					-9.442249390010349e-01 1.902798675627588e-01 0.000000000000000e+00
					-1.044833076200828e+00 4.169477881004139e-01 0.000000000000000e+00
					-9.076038452510349e-01 3.805597351255174e-01 0.000000000000000e+00
					-9.442249390010349e-01 1.902798675627588e-01 0.000000000000000e+00
					-8.123816016011038e-01 1.737985254002760e-01 0.000000000000000e+00
					-9.076038452510349e-01 3.805597351255174e-01 0.000000000000000e+00
					-7.889441016011038e-01 3.475970508005520e-01 0.000000000000000e+00
					-8.123816016011038e-01 1.737985254002760e-01 0.000000000000000e+00
					-7.020374390010349e-01 1.590298675627588e-01 0.000000000000000e+00
					-7.889441016011038e-01 3.475970508005520e-01 0.000000000000000e+00
					-6.888538452510349e-01 3.180597351255175e-01 0.000000000000000e+00
					-7.020374390010349e-01 1.590298675627588e-01 0.000000000000000e+00
					-6.131924512008278e-01 1.459738940502070e-01 0.000000000000000e+00
					-6.888538452510349e-01 3.180597351255175e-01 0.000000000000000e+00
					-6.073330762008278e-01 2.919477881004140e-01 0.000000000000000e+00
					-6.131924512008278e-01 1.459738940502070e-01 0.000000000000000e+00
					-5.458466382004830e-01 1.346306048626208e-01 0.000000000000000e+00
					-6.073330762008278e-01 2.919477881004140e-01 0.000000000000000e+00
					-5.443817944504830e-01 2.692612097252415e-01 0.000000000000000e+00
					-5.458466382004830e-01 1.346306048626208e-01 0.000000000000000e+00
					-5.000000000000000e-01 1.250000000000000e-01 0.000000000000000e+00
					-5.443817944504830e-01 2.692612097252415e-01 0.000000000000000e+00
					-5.000000000000000e-01 2.500000000000000e-01 0.000000000000000e+00
					-1.375000000000000e+00 5.000000000000000e-01 0.000000000000000e+00
					-1.200631794450483e+00 4.567612097252415e-01 0.000000000000000e+00
					-1.218750000000000e+00 7.500000000000000e-01 0.000000000000000e+00
					-1.081002888200483e+00 6.851418145878622e-01 0.000000000000000e+00
					-1.200631794450483e+00 4.567612097252415e-01 0.000000000000000e+00
					-1.044833076200828e+00 4.169477881004139e-01 0.000000000000000e+00
					-1.081002888200483e+00 6.851418145878622e-01 0.000000000000000e+00
					-9.569424512008279e-01 6.254216821506209e-01 0.000000000000000e+00
					-1.044833076200828e+00 4.169477881004139e-01 0.000000000000000e+00
					-9.076038452510349e-01 3.805597351255174e-01 0.000000000000000e+00
					-9.569424512008279e-01 6.254216821506209e-01 0.000000000000000e+00
					-8.465686890010349e-01 5.708396026882763e-01 0.000000000000000e+00
					-9.076038452510349e-01 3.805597351255174e-01 0.000000000000000e+00
					-7.889441016011038e-01 3.475970508005520e-01 0.000000000000000e+00
					-8.465686890010349e-01 5.708396026882763e-01 0.000000000000000e+00
					-7.498816016011038e-01 5.213955762008280e-01 0.000000000000000e+00
					-7.889441016011038e-01 3.475970508005520e-01 0.000000000000000e+00
					-6.888538452510349e-01 3.180597351255175e-01 0.000000000000000e+00
					-7.498816016011038e-01 5.213955762008280e-01 0.000000000000000e+00
					-6.668811890010349e-01 4.770896026882762e-01 0.000000000000000e+00
					-6.888538452510349e-01 3.180597351255175e-01 0.000000000000000e+00
					-6.073330762008278e-01 2.919477881004140e-01 0.000000000000000e+00
					-6.668811890010349e-01 4.770896026882762e-01 0.000000000000000e+00
					-5.975674512008278e-01 4.379216821506209e-01 0.000000000000000e+00
					-6.073330762008278e-01 2.919477881004140e-01 0.000000000000000e+00
					-5.443817944504830e-01 2.692612097252415e-01 0.000000000000000e+00
					-5.975674512008278e-01 4.379216821506209e-01 0.000000000000000e+00
					-5.419403882004830e-01 4.038918145878622e-01 0.000000000000000e+00
					-5.443817944504830e-01 2.692612097252415e-01 0.000000000000000e+00
					-5.000000000000000e-01 2.500000000000000e-01 0.000000000000000e+00
					-5.419403882004830e-01 4.038918145878622e-01 0.000000000000000e+00
					-5.000000000000000e-01 3.750000000000000e-01 0.000000000000000e+00
					-1.218750000000000e+00 7.500000000000000e-01 0.000000000000000e+00
					-1.081002888200483e+00 6.851418145878622e-01 0.000000000000000e+00
					-1.000000000000000e+00 1.000000000000000e+00 0.000000000000000e+00
					-9.135224194504830e-01 9.135224194504830e-01 0.000000000000000e+00
					-1.081002888200483e+00 6.851418145878622e-01 0.000000000000000e+00
					-9.569424512008279e-01 6.254216821506209e-01 0.000000000000000e+00
					-9.135224194504830e-01 9.135224194504830e-01 0.000000000000000e+00
					-8.338955762008279e-01 8.338955762008279e-01 0.000000000000000e+00
					-9.569424512008279e-01 6.254216821506209e-01 0.000000000000000e+00
					-8.465686890010349e-01 5.708396026882763e-01 0.000000000000000e+00
					-8.338955762008279e-01 8.338955762008279e-01 0.000000000000000e+00
					-7.611194702510349e-01 7.611194702510349e-01 0.000000000000000e+00
					-8.465686890010349e-01 5.708396026882763e-01 0.000000000000000e+00
					-7.498816016011038e-01 5.213955762008280e-01 0.000000000000000e+00
					-7.611194702510349e-01 7.611194702510349e-01 0.000000000000000e+00
					-6.951941016011038e-01 6.951941016011038e-01 0.000000000000000e+00
					-7.498816016011038e-01 5.213955762008280e-01 0.000000000000000e+00
					-6.668811890010349e-01 4.770896026882762e-01 0.000000000000000e+00
					-6.951941016011038e-01 6.951941016011038e-01 0.000000000000000e+00
					-6.361194702510349e-01 6.361194702510349e-01 0.000000000000000e+00
					-6.668811890010349e-01 4.770896026882762e-01 0.000000000000000e+00
					-5.975674512008278e-01 4.379216821506209e-01 0.000000000000000e+00
					-6.361194702510349e-01 6.361194702510349e-01 0.000000000000000e+00
					-5.838955762008278e-01 5.838955762008278e-01 0.000000000000000e+00
					-5.975674512008278e-01 4.379216821506209e-01 0.000000000000000e+00
					-5.419403882004830e-01 4.038918145878622e-01 0.000000000000000e+00
					-5.838955762008278e-01 5.838955762008278e-01 0.000000000000000e+00
					-5.385224194504830e-01 5.385224194504830e-01 0.000000000000000e+00
					-5.419403882004830e-01 4.038918145878622e-01 0.000000000000000e+00
					-5.000000000000000e-01 3.750000000000000e-01 0.000000000000000e+00
					-5.385224194504830e-01 5.385224194504830e-01 0.000000000000000e+00
					-5.000000000000000e-01 5.000000000000000e-01 0.000000000000000e+00
				</DataArray>
			</Points>
			<Cells>
				<DataArray Name="connectivity" type="UInt32" format="ascii">
					0 1 3 2 4 5 7 6 8 9 11 10 12 13 15 14 16 17 19 18 20 21 23 22 24 25 27 26 28 29 31 30 32 33 35 34 36 37 39 38 40 41 43 42 44 45 47 46 48 49 51 50 52 53 55 54 56 57 59 58 60 61 63 62 64 65 67 66 68 69 71 70 72 73 75 74 76 77 79 78 80 81 83 82 84 85 87 86 88 89 91 90 92 93 95 94 96 97 99 98 100 101 103 102 104 105 107 106 108 109 111 110 112 113 115 114 116 117 119 118 120 121 123 122 124 125 127 126 128 129 131 130 132 133 135 134 136 137 139 138 140 141 143 142 144 145 147 146 148 149 151 150 152 153 155 154 156 157 159 158 160 161 163 162 164 165 167 166 168 169 171 170 172 173 175 174 176 177 179 178 180 181 183 182 184 185 187 186 188 189 191 190 192 193 195 194 196 197 199 198 200 201 203 202 204 205 207 206 208 209 211 210 212 213 215 214 216 217 219 218 220 221 223 222 224 225 227 226 228 229 231 230 232 233 235 234 236 237 239 238 240 241 243 242 244 245 247 246 248 249 251 250 252 253 255 254 
				</DataArray>
				<DataArray Name="offsets" type="UInt32" format="ascii">
					4 8 12 16 20 24 28 32 36 40 44 48 52 56 60 64 68 72 76 80 84 88 92 96 100 104 108 112 116 120 124 128 132 136 140 144 148 152 156 160 164 168 172 176 180 184 188 192 196 200 204 208 212 216 220 224 228 232 236 240 244 248 252 256 
				</DataArray>
				<DataArray Name="types" type="UInt8" format="ascii">
					9 9 9 9 9 9 9 9 9 9 9 9 9 9 9 9 9 9 9 9 9 9 9 9 9 9 9 9 9 9 9 9 9 9 9 9 9 9 9 9 9 9 9 9 9 9 9 9 9 9 9 9 9 9 9 9 9 9 9 9 9 9 9 9 
				</DataArray>
			</Cells>
			<PointData Vectors="solution ">
				<DataArray Name="solution" type="Float64" NumberOfComponents="1" format="ascii">
					0.000000000000000e+00 2.447947026698137e-02 0.000000000000000e+00 3.647150321858188e-02 2.447947026698137e-02 1.014147183770961e-01 3.647150321858188e-02 1.446447795223239e-01 1.014147183770961e-01 2.351863166264265e-01 1.446447795223239e-01 3.479891623814507e-01 2.351863166264265e-01 4.291873433086537e-01 3.479891623814507e-01 6.733906923286689e-01 4.291873433086538e-01 6.861122762712344e-01 6.733906923286690e-01 1.133237859331947e+00 6.861122762712345e-01 1.008220523536971e+00 1.133237859331947e+00 1.723311196843318e+00 1.008220523536972e+00 1.397525972716454e+00 1.723311196843318e+00 2.418050317847809e+00 1.397525972716454e+00 1.855915768228366e+00 2.418050317847809e+00 3.146563368126020e+00 0.000000000000000e+00 3.647150321858188e-02 0.000000000000000e+00 4.048793188039145e-02 3.647150321858189e-02 1.446447795223239e-01 4.048793188039145e-02 1.857162179521344e-01 1.446447795223239e-01 3.479891623814507e-01 1.857162179521344e-01 5.093165009920418e-01 3.479891623814508e-01 6.733906923286690e-01 5.093165009920418e-01 1.080125527647461e+00 6.733906923286692e-01 1.133237859331947e+00 1.080125527647461e+00 1.906472769046063e+00 1.133237859331947e+00 1.723311196843318e+00 1.906472769046063e+00 2.920894008836683e+00 1.723311196843319e+00 2.418050317847809e+00 2.920894008836684e+00 3.987609657238589e+00 2.418050317847810e+00 3.146563368126021e+00 3.987609657238589e+00 4.937085735666622e+00 0.000000000000000e+00 4.048793188039145e-02 0.000000000000000e+00 4.890352285804014e-02 4.048793188039146e-02 1.857162179521344e-01 4.890352285804016e-02 2.533465376130414e-01 1.857162179521345e-01 5.093165009920418e-01 2.533465376130414e-01 7.578710664322196e-01 5.093165009920418e-01 1.080125527647461e+00 7.578710664322197e-01 1.668877886591175e+00 1.080125527647461e+00 1.906472769046063e+00 1.668877886591176e+00 2.952363838342751e+00 1.906472769046063e+00 2.920894008836684e+00 2.952363838342751e+00 4.431987887949709e+00 2.920894008836684e+00 3.987609657238590e+00 4.431987887949710e+00 5.861252935768607e+00 3.987609657238591e+00 4.937085735666623e+00 5.861252935768607e+00 7.012662731650243e+00 0.000000000000000e+00 4.890352285804015e-02 0.000000000000000e+00 6.471157055947717e-02 4.890352285804016e-02 2.533465376130414e-01 6.471157055947718e-02 3.567323526317318e-01 2.533465376130415e-01 7.578710664322197e-01 3.567323526317318e-01 1.085251300935120e+00 7.578710664322198e-01 1.668877886591176e+00 1.085251300935120e+00 2.371044329787255e+00 1.668877886591176e+00 2.952363838342751e+00 2.371044329787255e+00 4.116058191575739e+00 2.952363838342751e+00 4.431987887949710e+00 4.116058191575739e+00 6.042075988679485e+00 4.431987887949710e+00 5.861252935768607e+00 6.042075988679485e+00 7.815309853654808e+00 5.861252935768607e+00 7.012662731650245e+00 7.815309853654810e+00 9.158128124367339e+00 0.000000000000000e+00 6.471157055947718e-02 0.000000000000000e+00 9.509860009578110e-02 6.471157055947718e-02 3.567323526317318e-01 9.509860009578111e-02 5.117584990518570e-01 3.567323526317318e-01 1.085251300935120e+00 5.117584990518570e-01 1.491743720030793e+00 1.085251300935120e+00 2.371044329787255e+00 1.491743720030793e+00 3.129005690080207e+00 2.371044329787255e+00 4.116058191575739e+00 3.129005690080207e+00 5.262025844558275e+00 4.116058191575740e+00 6.042075988679485e+00 5.262025844558276e+00 7.547315346473075e+00 6.042075988679485e+00 7.815309853654810e+00 7.547315346473076e+00 9.607501469987364e+00 7.815309853654811e+00 9.158128124367341e+00 9.607501469987364e+00 1.113397632727819e+01 0.000000000000000e+00 9.509860009578111e-02 0.000000000000000e+00 1.536428083574041e-01 9.509860009578112e-02 5.117584990518570e-01 1.536428083574042e-01 7.469968737098973e-01 5.117584990518571e-01 1.491743720030793e+00 7.469968737098975e-01 1.969474683841946e+00 1.491743720030793e+00 3.129005690080207e+00 1.969474683841947e+00 3.847767678472995e+00 3.129005690080207e+00 5.262025844558276e+00 3.847767678472995e+00 6.192352284262557e+00 5.262025844558277e+00 7.547315346473077e+00 6.192352284262557e+00 8.667065180736685e+00 7.547315346473077e+00 9.607501469987364e+00 8.667065180736685e+00 1.090106230872280e+01 9.607501469987366e+00 1.113397632727819e+01 1.090106230872280e+01 1.260473588119234e+01 0.000000000000000e+00 1.536428083574042e-01 0.000000000000000e+00 2.675266479487208e-01 1.536428083574042e-01 7.469968737098975e-01 2.675266479487208e-01 1.073961672275863e+00 7.469968737098975e-01 1.969474683841947e+00 1.073961672275863e+00 2.456853194379462e+00 1.969474683841947e+00 3.847767678472995e+00 2.456853194379463e+00 4.356648022834007e+00 3.847767678472995e+00 6.192352284262557e+00 4.356648022834007e+00 6.624377242090098e+00 6.192352284262557e+00 8.667065180736685e+00 6.624377242090100e+00 9.040367243098649e+00 8.667065180736687e+00 1.090106230872280e+01 9.040367243098649e+00 1.132808593472699e+01 1.090106230872281e+01 1.260473588119234e+01 1.132808593472699e+01 1.321141288384181e+01 0.000000000000000e+00 2.675266479487208e-01 0.000000000000000e+00 3.179004661910770e-01 2.675266479487208e-01 1.073961672275863e+00 3.179004661910771e-01 1.209701285324670e+00 1.073961672275863e+00 2.456853194379462e+00 1.209701285324671e+00 2.575302142959296e+00 2.456853194379463e+00 4.356648022834007e+00 2.575302142959297e+00 4.306735168571620e+00 4.356648022834008e+00 6.624377242090100e+00 4.306735168571620e+00 6.290951715595212e+00 6.624377242090100e+00 9.040367243098649e+00 6.290951715595213e+00 8.412088480108093e+00 9.040367243098650e+00 1.132808593472699e+01 8.412088480108094e+00 1.055288931698176e+01 1.132808593472699e+01 1.321141288384181e+01 1.055288931698176e+01 1.259547251378377e+01 
				</DataArray>
			</PointData>
			<CellData>
			</CellData>
		</Piece>
	</UnstructuredGrid>
</VTKFile>