<?xml version="1.0"?>
<VTKFile type="UnstructuredGrid" byte_order="LittleEndian">
	<UnstructuredGrid>
		<Piece NumberOfPoints="256" NumberOfCells="64">
			<Points>
				<DataArray type="Float64" NumberOfComponents="3" format="ascii">
					-1.000000000000000e+00 -1.000000000000000e+00 0.000000000000000e+00
					-7.500000000000000e-01 -1.218750000000000e+00 0.000000000000000e+00
					-9.135224194504830e-01 -9.135224194504830e-01 0.000000000000000e+00
					-6.851418145878622e-01 -1.081002888200483e+00 0.000000000000000e+00
					-7.500000000000000e-01 -1.218750000000000e+00 0.000000000000000e+00
					-5.000000000000000e-01 -1.375000000000000e+00 0.000000000000000e+00
					-6.851418145878622e-01 -1.081002888200483e+00 0.000000000000000e+00
					-4.567612097252415e-01 -1.200631794450483e+00 0.000000000000000e+00
					-5.000000000000000e-01 -1.375000000000000e+00 0.000000000000000e+00
					-2.500000000000000e-01 -1.468750000000000e+00 0.000000000000000e+00
					-4.567612097252415e-01 -1.200631794450483e+00 0.000000000000000e+00
					-2.283806048626207e-01 -1.272409138200483e+00 0.000000000000000e+00
					-2.500000000000000e-01 -1.468750000000000e+00 0.000000000000000e+00
					0.000000000000000e+00 -1.500000000000000e+00 0.000000000000000e+00
					-2.283806048626207e-01 -1.272409138200483e+00 0.000000000000000e+00
					1.040834085586084e-17 -1.296334919450483e+00 0.000000000000000e+00
					0.000000000000000e+00 -1.500000000000000e+00 0.000000000000000e+00
					2.500000000000000e-01 -1.468750000000000e+00 0.000000000000000e+00
					1.040834085586084e-17 -1.296334919450483e+00 0.000000000000000e+00
					2.283806048626208e-01 -1.272409138200483e+00 0.000000000000000e+00
					2.500000000000000e-01 -1.468750000000000e+00 0.000000000000000e+00
					5.000000000000000e-01 -1.375000000000000e+00 0.000000000000000e+00
					2.283806048626208e-01 -1.272409138200483e+00 0.000000000000000e+00
					4.567612097252415e-01 -1.200631794450483e+00 0.000000000000000e+00
					5.000000000000000e-01 -1.375000000000000e+00 0.000000000000000e+00
					7.500000000000000e-01 -1.218750000000000e+00 0.000000000000000e+00
					4.567612097252415e-01 -1.200631794450483e+00 0.000000000000000e+00
					6.851418145878623e-01 -1.081002888200483e+00 0.000000000000000e+00
					7.500000000000000e-01 -1.218750000000000e+00 0.000000000000000e+00
					1.000000000000000e+00 -1.000000000000000e+00 0.000000000000000e+00
					6.851418145878623e-01 -1.081002888200483e+00 0.000000000000000e+00
					9.135224194504830e-01 -9.135224194504830e-01 0.000000000000000e+00
					-9.135224194504830e-01 -9.135224194504830e-01 0.000000000000000e+00
					-6.851418145878622e-01 -1.081002888200483e+00 0.000000000000000e+00
					-8.338955762008279e-01 -8.338955762008279e-01 0.000000000000000e+00
					-6.254216821506209e-01 -9.569424512008280e-01 0.000000000000000e+00
					-6.851418145878622e-01 -1.081002888200483e+00 0.000000000000000e+00
					-4.567612097252415e-01 -1.200631794450483e+00 0.000000000000000e+00
					-6.254216821506209e-01 -9.569424512008280e-01 0.000000000000000e+00
					-4.169477881004140e-01 -1.044833076200828e+00 0.000000000000000e+00
					-4.567612097252415e-01 -1.200631794450483e+00 0.000000000000000e+00
					-2.283806048626207e-01 -1.272409138200483e+00 0.000000000000000e+00
					-4.169477881004140e-01 -1.044833076200828e+00 0.000000000000000e+00
					-2.084738940502070e-01 -1.097567451200828e+00 0.000000000000000e+00
					-2.283806048626207e-01 -1.272409138200483e+00 0.000000000000000e+00
					1.040834085586084e-17 -1.296334919450483e+00 0.000000000000000e+00
					-2.084738940502070e-01 -1.097567451200828e+00 0.000000000000000e+00
					1.734723475976807e-17 -1.115145576200828e+00 0.000000000000000e+00
					1.040834085586084e-17 -1.296334919450483e+00 0.000000000000000e+00
					2.283806048626208e-01 -1.272409138200483e+00 0.000000000000000e+00
					1.734723475976807e-17 -1.115145576200828e+00 0.000000000000000e+00
					2.084738940502070e-01 -1.097567451200828e+00 0.000000000000000e+00
					2.283806048626208e-01 -1.272409138200483e+00 0.000000000000000e+00
					4.567612097252415e-01 -1.200631794450483e+00 0.000000000000000e+00
					2.084738940502070e-01 -1.097567451200828e+00 0.000000000000000e+00
					4.169477881004140e-01 -1.044833076200828e+00 0.000000000000000e+00
					4.567612097252415e-01 -1.200631794450483e+00 0.000000000000000e+00
					6.851418145878623e-01 -1.081002888200483e+00 0.000000000000000e+00
					4.169477881004140e-01 -1.044833076200828e+00 0.000000000000000e+00
					6.254216821506209e-01 -9.569424512008280e-01 0.000000000000000e+00
					6.851418145878623e-01 -1.081002888200483e+00 0.000000000000000e+00
					9.135224194504830e-01 -9.135224194504830e-01 0.000000000000000e+00
					6.254216821506209e-01 -9.569424512008280e-01 0.000000000000000e+00
					8.338955762008279e-01 -8.338955762008279e-01 0.000000000000000e+00
					-8.338955762008279e-01 -8.338955762008279e-01 0.000000000000000e+00
					-6.254216821506209e-01 -9.569424512008280e-01 0.000000000000000e+00
					-7.611194702510349e-01 -7.611194702510349e-01 0.000000000000000e+00
					-5.708396026882762e-01 -8.465686890010349e-01 0.000000000000000e+00
					-6.254216821506209e-01 -9.569424512008280e-01 0.000000000000000e+00
					-4.169477881004140e-01 -1.044833076200828e+00 0.000000000000000e+00
					-5.708396026882762e-01 -8.465686890010349e-01 0.000000000000000e+00
					-3.805597351255174e-01 -9.076038452510349e-01 0.000000000000000e+00
					-4.169477881004140e-01 -1.044833076200828e+00 0.000000000000000e+00
					-2.084738940502070e-01 -1.097567451200828e+00 0.000000000000000e+00
					-3.805597351255174e-01 -9.076038452510349e-01 0.000000000000000e+00
					-1.902798675627587e-01 -9.442249390010350e-01 0.000000000000000e+00
					-2.084738940502070e-01 -1.097567451200828e+00 0.000000000000000e+00
					1.734723475976807e-17 -1.115145576200828e+00 0.000000000000000e+00
					-1.902798675627587e-01 -9.442249390010350e-01 0.000000000000000e+00
					2.428612866367530e-17 -9.564319702510349e-01 0.000000000000000e+00
					1.734723475976807e-17 -1.115145576200828e+00 0.000000000000000e+00
					2.084738940502070e-01 -1.097567451200828e+00 0.000000000000000e+00
					2.428612866367530e-17 -9.564319702510349e-01 0.000000000000000e+00
					1.902798675627587e-01 -9.442249390010349e-01 0.000000000000000e+00
					2.084738940502070e-01 -1.097567451200828e+00 0.000000000000000e+00
					4.169477881004140e-01 -1.044833076200828e+00 0.000000000000000e+00
					1.902798675627587e-01 -9.442249390010349e-01 0.000000000000000e+00
					3.805597351255174e-01 -9.076038452510349e-01 0.000000000000000e+00
					4.169477881004140e-01 -1.044833076200828e+00 0.000000000000000e+00
					6.254216821506209e-01 -9.569424512008280e-01 0.000000000000000e+00
					3.805597351255174e-01 -9.076038452510349e-01 0.000000000000000e+00
					5.708396026882762e-01 -8.465686890010349e-01 0.000000000000000e+00
					6.254216821506209e-01 -9.569424512008280e-01 0.000000000000000e+00
					8.338955762008279e-01 -8.338955762008279e-01 0.000000000000000e+00
					5.708396026882762e-01 -8.465686890010349e-01 0.000000000000000e+00
					7.611194702510349e-01 -7.611194702510349e-01 0.000000000000000e+00
					-7.611194702510349e-01 -7.611194702510349e-01 0.000000000000000e+00
					-5.708396026882762e-01 -8.465686890010349e-01 0.000000000000000e+00
					-6.951941016011038e-01 -6.951941016011038e-01 0.000000000000000e+00
					-5.213955762008279e-01 -7.498816016011038e-01 0.000000000000000e+00
					-5.708396026882762e-01 -8.465686890010349e-01 0.000000000000000e+00
					-3.805597351255174e-01 -9.076038452510349e-01 0.000000000000000e+00
					-5.213955762008279e-01 -7.498816016011038e-01 0.000000000000000e+00
					-3.475970508005519e-01 -7.889441016011040e-01 0.000000000000000e+00
					-3.805597351255174e-01 -9.076038452510349e-01 0.000000000000000e+00
					-1.902798675627587e-01 -9.442249390010350e-01 0.000000000000000e+00
					-3.475970508005519e-01 -7.889441016011040e-01 0.000000000000000e+00
					-1.737985254002760e-01 -8.123816016011040e-01 0.000000000000000e+00
					-1.902798675627587e-01 -9.442249390010350e-01 0.000000000000000e+00
					2.428612866367530e-17 -9.564319702510349e-01 0.000000000000000e+00
					-1.737985254002760e-01 -8.123816016011040e-01 0.000000000000000e+00
					2.428612866367530e-17 -8.201941016011038e-01 0.000000000000000e+00
					2.428612866367530e-17 -9.564319702510349e-01 0.000000000000000e+00
					1.902798675627587e-01 -9.442249390010349e-01 0.000000000000000e+00
					2.428612866367530e-17 -8.201941016011038e-01 0.000000000000000e+00
					1.737985254002760e-01 -8.123816016011038e-01 0.000000000000000e+00
					1.902798675627587e-01 -9.442249390010349e-01 0.000000000000000e+00
					3.805597351255174e-01 -9.076038452510349e-01 0.000000000000000e+00
					1.737985254002760e-01 -8.123816016011038e-01 0.000000000000000e+00
					3.475970508005519e-01 -7.889441016011038e-01 0.000000000000000e+00
					3.805597351255174e-01 -9.076038452510349e-01 0.000000000000000e+00
					5.708396026882762e-01 -8.465686890010349e-01 0.000000000000000e+00
					3.475970508005519e-01 -7.889441016011038e-01 0.000000000000000e+00
					5.213955762008279e-01 -7.498816016011038e-01 0.000000000000000e+00
					5.708396026882762e-01 -8.465686890010349e-01 0.000000000000000e+00
					7.611194702510349e-01 -7.611194702510349e-01 0.000000000000000e+00
					5.213955762008279e-01 -7.498816016011038e-01 0.000000000000000e+00
					6.951941016011038e-01 -6.951941016011038e-01 0.000000000000000e+00
					-6.951941016011038e-01 -6.951941016011038e-01 0.000000000000000e+00
					-5.213955762008279e-01 -7.498816016011038e-01 0.000000000000000e+00
					-6.361194702510349e-01 -6.361194702510349e-01 0.000000000000000e+00
					-4.770896026882762e-01 -6.668811890010349e-01 0.000000000000000e+00
					-5.213955762008279e-01 -7.498816016011038e-01 0.000000000000000e+00
					-3.475970508005519e-01 -7.889441016011040e-01 0.000000000000000e+00
					-4.770896026882762e-01 -6.668811890010349e-01 0.000000000000000e+00
					-3.180597351255174e-01 -6.888538452510349e-01 0.000000000000000e+00
					-3.475970508005519e-01 -7.889441016011040e-01 0.000000000000000e+00
					-1.737985254002760e-01 -8.123816016011040e-01 0.000000000000000e+00
					-3.180597351255174e-01 -6.888538452510349e-01 0.000000000000000e+00
					-1.590298675627587e-01 -7.020374390010350e-01 0.000000000000000e+00
					-1.737985254002760e-01 -8.123816016011040e-01 0.000000000000000e+00
					2.428612866367530e-17 -8.201941016011038e-01 0.000000000000000e+00
					-1.590298675627587e-01 -7.020374390010350e-01 0.000000000000000e+00
					1.734723475976807e-17 -7.064319702510349e-01 0.000000000000000e+00
					2.428612866367530e-17 -8.201941016011038e-01 0.000000000000000e+00
					1.737985254002760e-01 -8.123816016011038e-01 0.000000000000000e+00
					1.734723475976807e-17 -7.064319702510349e-01 0.000000000000000e+00
					1.590298675627587e-01 -7.020374390010349e-01 0.000000000000000e+00
					1.737985254002760e-01 -8.123816016011038e-01 0.000000000000000e+00
					3.475970508005519e-01 -7.889441016011038e-01 0.000000000000000e+00
					1.590298675627587e-01 -7.020374390010349e-01 0.000000000000000e+00
					3.180597351255174e-01 -6.888538452510349e-01 0.000000000000000e+00
					3.475970508005519e-01 -7.889441016011038e-01 0.000000000000000e+00
					5.213955762008279e-01 -7.498816016011038e-01 0.000000000000000e+00
					3.180597351255174e-01 -6.888538452510349e-01 0.000000000000000e+00
					4.770896026882762e-01 -6.668811890010349e-01 0.000000000000000e+00
					5.213955762008279e-01 -7.498816016011038e-01 0.000000000000000e+00
					6.951941016011038e-01 -6.951941016011038e-01 0.000000000000000e+00
					4.770896026882762e-01 -6.668811890010349e-01 0.000000000000000e+00
					6.361194702510349e-01 -6.361194702510349e-01 0.000000000000000e+00
					-6.361194702510349e-01 -6.361194702510349e-01 0.000000000000000e+00
					-4.770896026882762e-01 -6.668811890010349e-01 0.000000000000000e+00
					-5.838955762008278e-01 -5.838955762008278e-01 0.000000000000000e+00
					-4.379216821506209e-01 -5.975674512008280e-01 0.000000000000000e+00
					-4.770896026882762e-01 -6.668811890010349e-01 0.000000000000000e+00
					-3.180597351255174e-01 -6.888538452510349e-01 0.000000000000000e+00
					-4.379216821506209e-01 -5.975674512008280e-01 0.000000000000000e+00
					-2.919477881004139e-01 -6.073330762008280e-01 0.000000000000000e+00
					-3.180597351255174e-01 -6.888538452510349e-01 0.000000000000000e+00
					-1.590298675627587e-01 -7.020374390010350e-01 0.000000000000000e+00
					-2.919477881004139e-01 -6.073330762008280e-01 0.000000000000000e+00
					-1.459738940502069e-01 -6.131924512008280e-01 0.000000000000000e+00
					-1.590298675627587e-01 -7.020374390010350e-01 0.000000000000000e+00
					1.734723475976807e-17 -7.064319702510349e-01 0.000000000000000e+00
					-1.459738940502069e-01 -6.131924512008280e-01 0.000000000000000e+00
					1.040834085586084e-17 -6.151455762008280e-01 0.000000000000000e+00
					1.734723475976807e-17 -7.064319702510349e-01 0.000000000000000e+00
					1.590298675627587e-01 -7.020374390010349e-01 0.000000000000000e+00
					1.040834085586084e-17 -6.151455762008280e-01 0.000000000000000e+00
					1.459738940502070e-01 -6.131924512008278e-01 0.000000000000000e+00
					1.590298675627587e-01 -7.020374390010349e-01 0.000000000000000e+00
					3.180597351255174e-01 -6.888538452510349e-01 0.000000000000000e+00
					1.459738940502070e-01 -6.131924512008278e-01 0.000000000000000e+00
					2.919477881004139e-01 -6.073330762008278e-01 0.000000000000000e+00
					3.180597351255174e-01 -6.888538452510349e-01 0.000000000000000e+00
					4.770896026882762e-01 -6.668811890010349e-01 0.000000000000000e+00
					2.919477881004139e-01 -6.073330762008278e-01 0.000000000000000e+00
					4.379216821506209e-01 -5.975674512008278e-01 0.000000000000000e+00
					4.770896026882762e-01 -6.668811890010349e-01 0.000000000000000e+00
					6.361194702510349e-01 -6.361194702510349e-01 0.000000000000000e+00
					4.379216821506209e-01 -5.975674512008278e-01 0.000000000000000e+00
					5.838955762008278e-01 -5.838955762008278e-01 0.000000000000000e+00
					-5.838955762008278e-01 -5.838955762008278e-01 0.000000000000000e+00
					-4.379216821506209e-01 -5.975674512008280e-01 0.000000000000000e+00
					-5.385224194504830e-01 -5.385224194504830e-01 0.000000000000000e+00
					-4.038918145878622e-01 -5.419403882004830e-01 0.000000000000000e+00
					-4.379216821506209e-01 -5.975674512008280e-01 0.000000000000000e+00
					-2.919477881004139e-01 -6.073330762008280e-01 0.000000000000000e+00
					-4.038918145878622e-01 -5.419403882004830e-01 0.000000000000000e+00
					-2.692612097252414e-01 -5.443817944504830e-01 0.000000000000000e+00
					-2.919477881004139e-01 -6.073330762008280e-01 0.000000000000000e+00
					-1.459738940502069e-01 -6.131924512008280e-01 0.000000000000000e+00
					-2.692612097252414e-01 -5.443817944504830e-01 0.000000000000000e+00
					-1.346306048626207e-01 -5.458466382004830e-01 0.000000000000000e+00
					-1.459738940502069e-01 -6.131924512008280e-01 0.000000000000000e+00
					1.040834085586084e-17 -6.151455762008280e-01 0.000000000000000e+00
					-1.346306048626207e-01 -5.458466382004830e-01 0.000000000000000e+00
					3.469446951953614e-18 -5.463349194504828e-01 0.000000000000000e+00
					1.040834085586084e-17 -6.151455762008280e-01 0.000000000000000e+00
					1.459738940502070e-01 -6.131924512008278e-01 0.000000000000000e+00
					3.469446951953614e-18 -5.463349194504828e-01 0.000000000000000e+00
					1.346306048626207e-01 -5.458466382004828e-01 0.000000000000000e+00
					1.459738940502070e-01 -6.131924512008278e-01 0.000000000000000e+00
					2.919477881004139e-01 -6.073330762008278e-01 0.000000000000000e+00
					1.346306048626207e-01 -5.458466382004828e-01 0.000000000000000e+00
					2.692612097252414e-01 -5.443817944504828e-01 0.000000000000000e+00
					2.919477881004139e-01 -6.073330762008278e-01 0.000000000000000e+00
					4.379216821506209e-01 -5.975674512008278e-01 0.000000000000000e+00
					2.692612097252414e-01 -5.443817944504828e-01 0.000000000000000e+00
					4.038918145878622e-01 -5.419403882004828e-01 0.000000000000000e+00
					4.379216821506209e-01 -5.975674512008278e-01 0.000000000000000e+00
					5.838955762008278e-01 -5.838955762008278e-01 0.000000000000000e+00
					4.038918145878622e-01 -5.419403882004828e-01 0.000000000000000e+00
					5.385224194504830e-01 -5.385224194504830e-01 0.000000000000000e+00
					-5.385224194504830e-01 -5.385224194504830e-01 0.000000000000000e+00
					-4.038918145878622e-01 -5.419403882004830e-01 0.000000000000000e+00
					-5.000000000000000e-01 -5.000000000000000e-01 0.000000000000000e+00
					-3.750000000000000e-01 -5.000000000000000e-01 0.000000000000000e+00
					-4.038918145878622e-01 -5.419403882004830e-01 0.000000000000000e+00
					-2.692612097252414e-01 -5.443817944504830e-01 0.000000000000000e+00
					-3.750000000000000e-01 -5.000000000000000e-01 0.000000000000000e+00
					-2.500000000000000e-01 -5.000000000000000e-01 0.000000000000000e+00
					-2.692612097252414e-01 -5.443817944504830e-01 0.000000000000000e+00
					-1.346306048626207e-01 -5.458466382004830e-01 0.000000000000000e+00
					-2.500000000000000e-01 -5.000000000000000e-01 0.000000000000000e+00
					-1.250000000000000e-01 -5.000000000000000e-01 0.000000000000000e+00
					-1.346306048626207e-01 -5.458466382004830e-01 0.000000000000000e+00
					3.469446951953614e-18 -5.463349194504828e-01 0.000000000000000e+00
					-1.250000000000000e-01 -5.000000000000000e-01 0.000000000000000e+00
					0.000000000000000e+00 -5.000000000000000e-01 0.000000000000000e+00
					3.469446951953614e-18 -5.463349194504828e-01 0.000000000000000e+00
					1.346306048626207e-01 -5.458466382004828e-01 0.000000000000000e+00
					0.000000000000000e+00 -5.000000000000000e-01 0.000000000000000e+00
					1.250000000000000e-01 -5.000000000000000e-01 0.000000000000000e+00
					1.346306048626207e-01 -5.458466382004828e-01 0.000000000000000e+00
					2.692612097252414e-01 -5.443817944504828e-01 0.000000000000000e+00
					1.250000000000000e-01 -5.000000000000000e-01 0.000000000000000e+00
					2.500000000000000e-01 -5.000000000000000e-01 0.000000000000000e+00
					2.692612097252414e-01 -5.443817944504828e-01 0.000000000000000e+00
					4.038918145878622e-01 -5.419403882004828e-01 0.000000000000000e+00
					2.500000000000000e-01 -5.000000000000000e-01 0.000000000000000e+00
					3.750000000000000e-01 -5.000000000000000e-01 0.000000000000000e+00
					4.038918145878622e-01 -5.419403882004828e-01 0.000000000000000e+00
					5.385224194504830e-01 -5.385224194504830e-01 0.000000000000000e+00
					3.750000000000000e-01 -5.000000000000000e-01 0.000000000000000e+00
					5.000000000000000e-01 -5.000000000000000e-01 0.000000000000000e+00
				</DataArray>
			</Points>
			<Cells>
				<DataArray Name="connectivity" type="UInt32" format="ascii">
					0 1 3 2 4 5 7 6 8 9 11 10 12 13 15 14 16 17 19 18 20 21 23 22 24 25 27 26 28 29 31 30 32 33 35 34 36 37 39 38 40 41 43 42 44 45 47 46 48 49 51 50 52 53 55 54 56 57 59 58 60 61 63 62 64 65 67 66 68 69 71 70 72 73 75 74 76 77 79 78 80 81 83 82 84 85 87 86 88 89 91 90 92 93 95 94 96 97 99 98 100 101 103 102 104 105 107 106 108 109 111 110 112 113 115 114 116 117 119 118 120 121 123 122 124 125 127 126 128 129 131 130 132 133 135 134 136 137 139 138 140 141 143 142 144 145 147 146 148 149 151 150 152 153 155 154 156 157 159 158 160 161 163 162 164 165 167 166 168 169 171 170 172 173 175 174 176 177 179 178 180 181 183 182 184 185 187 186 188 189 191 190 192 193 195 194 196 197 199 198 200 201 203 202 204 205 207 206 208 209 211 210 212 213 215 214 216 217 219 218 220 221 223 222 224 225 227 226 228 229 231 230 232 233 235 234 236 237 239 238 240 241 243 242 244 245 247 246 248 249 251 250 252 253 255 254 
				</DataArray>
				<DataArray Name="offsets" type="UInt32" format="ascii">
					4 8 12 16 20 24 28 32 36 40 44 48 52 56 60 64 68 72 76 80 84 88 92 96 100 104 108 112 116 120 124 128 132 136 140 144 148 152 156 160 164 168 172 176 180 184 188 192 196 200 204 208 212 216 220 224 228 232 236 240 244 248 252 256 
				</DataArray>
				<DataArray Name="types" type="UInt8" format="ascii">
					9 9 9 9 9 9 9 9 9 9 9 9 9 9 9 9 9 9 9 9 9 9 9 9 9 9 9 9 9 9 9 9 9 9 9 9 9 9 9 9 9 9 9 9 9 9 9 9 9 9 9 9 9 9 9 9 9 9 9 9 9 9 9 9 
				</DataArray>
			</Cells>
			<PointData Vectors="solution ">
				<DataArray Name="solution" type="Float64" NumberOfComponents="1" format="ascii">
					0.000000000000000e+00 0.000000000000000e+00 -2.616663654121034e-03 3.422574478976283e-04 0.000000000000000e+00 0.000000000000000e+00 3.422574478976285e-04 2.849646686006477e-03 0.000000000000000e+00 0.000000000000000e+00 2.849646686006477e-03 4.125166667988331e-03 0.000000000000000e+00 0.000000000000000e+00 4.125166667988332e-03 4.997868981390058e-03 0.000000000000000e+00 0.000000000000000e+00 4.997868981390058e-03 5.762629959596914e-03 0.000000000000000e+00 0.000000000000000e+00 5.762629959596914e-03 6.077518001062371e-03 0.000000000000000e+00 0.000000000000000e+00 6.077518001062373e-03 4.755411077459626e-03 0.000000000000000e+00 0.000000000000000e+00 4.755411077459627e-03 -5.364228173640491e-03 -2.616663654121034e-03 3.422574478976281e-04 4.909388155372466e-03 2.160056108872743e-02 3.422574478976284e-04 2.849646686006477e-03 2.160056108872743e-02 3.815574532442778e-02 2.849646686006478e-03 4.125166667988331e-03 3.815574532442778e-02 5.268736715033335e-02 4.125166667988332e-03 4.997868981390058e-03 5.268736715033336e-02 6.588657784789229e-02 4.997868981390059e-03 5.762629959596914e-03 6.588657784789229e-02 7.701793929204707e-02 5.762629959596915e-03 6.077518001062373e-03 7.701793929204707e-02 8.477812781198471e-02 6.077518001062373e-03 4.755411077459626e-03 8.477812781198471e-02 8.202403408937187e-02 4.755411077459627e-03 -5.364228173640492e-03 8.202403408937187e-02 5.607152217128167e-02 4.909388155372466e-03 2.160056108872743e-02 5.526707164780394e-02 1.149278805406725e-01 2.160056108872743e-02 3.815574532442778e-02 1.149278805406725e-01 1.816118461519804e-01 3.815574532442779e-02 5.268736715033336e-02 1.816118461519804e-01 2.502288415127490e-01 5.268736715033336e-02 6.588657784789229e-02 2.502288415127491e-01 3.126887934295559e-01 6.588657784789230e-02 7.701793929204707e-02 3.126887934295559e-01 3.592465390159049e-01 7.701793929204709e-02 8.477812781198471e-02 3.592465390159049e-01 3.806621541174420e-01 8.477812781198472e-02 8.202403408937188e-02 3.806621541174420e-01 3.625188229121226e-01 8.202403408937189e-02 5.607152217128167e-02 3.625188229121227e-01 2.852403179164855e-01 5.526707164780395e-02 1.149278805406725e-01 1.817439542803281e-01 3.352230521822925e-01 1.149278805406725e-01 1.816118461519804e-01 3.352230521822925e-01 5.189461427968435e-01 1.816118461519804e-01 2.502288415127491e-01 5.189461427968436e-01 7.145623496354750e-01 2.502288415127491e-01 3.126887934295559e-01 7.145623496354752e-01 8.865157991952761e-01 3.126887934295559e-01 3.592465390159049e-01 8.865157991952763e-01 9.985546603129107e-01 3.592465390159050e-01 3.806621541174420e-01 9.985546603129108e-01 1.023841324417344e+00 3.806621541174420e-01 3.625188229121227e-01 1.023841324417344e+00 9.421435480415223e-01 3.625188229121227e-01 2.852403179164856e-01 9.421435480415224e-01 7.411590774106271e-01 1.817439542803282e-01 3.352230521822925e-01 4.051481097932514e-01 7.119298889841223e-01 3.352230521822926e-01 5.189461427968436e-01 7.119298889841226e-01 1.090103131808226e+00 5.189461427968436e-01 7.145623496354752e-01 1.090103131808226e+00 1.489381572676260e+00 7.145623496354752e-01 8.865157991952763e-01 1.489381572676260e+00 1.828195811239600e+00 8.865157991952765e-01 9.985546603129108e-01 1.828195811239600e+00 2.026779631183424e+00 9.985546603129110e-01 1.023841324417344e+00 2.026779631183424e+00 2.033782917924197e+00 1.023841324417344e+00 9.421435480415227e-01 2.033782917924197e+00 1.830122665922195e+00 9.421435480415227e-01 7.411590774106273e-01 1.830122665922195e+00 1.429788406336835e+00 4.051481097932516e-01 7.119298889841226e-01 7.285178724243198e-01 1.235201765459238e+00 7.119298889841226e-01 1.090103131808226e+00 1.235201765459238e+00 1.857608614757170e+00 1.090103131808226e+00 1.489381572676260e+00 1.857608614757170e+00 2.497806043384146e+00 1.489381572676260e+00 1.828195811239600e+00 2.497806043384147e+00 3.027400702490002e+00 1.828195811239600e+00 2.026779631183424e+00 3.027400702490002e+00 3.318696462594422e+00 2.026779631183424e+00 2.033782917924197e+00 3.318696462594422e+00 3.295139161302214e+00 2.033782917924197e+00 1.830122665922195e+00 3.295139161302214e+00 2.945762211773480e+00 1.830122665922196e+00 1.429788406336836e+00 2.945762211773481e+00 2.312124154651034e+00 7.285178724243198e-01 1.235201765459238e+00 1.138817756045233e+00 1.856834199705419e+00 1.235201765459238e+00 1.857608614757170e+00 1.856834199705420e+00 2.710397986758398e+00 1.857608614757170e+00 2.497806043384147e+00 2.710397986758399e+00 3.563590049164489e+00 2.497806043384147e+00 3.027400702490002e+00 3.563590049164489e+00 4.259515552578829e+00 3.027400702490002e+00 3.318696462594422e+00 4.259515552578830e+00 4.637458956563766e+00 3.318696462594422e+00 3.295139161302214e+00 4.637458956563766e+00 4.600003158268057e+00 3.295139161302214e+00 2.945762211773481e+00 4.600003158268057e+00 4.143188663376285e+00 2.945762211773481e+00 2.312124154651034e+00 4.143188663376286e+00 3.320167641380372e+00 1.138817756045233e+00 1.856834199705420e+00 1.611614637856041e+00 2.495205524006204e+00 1.856834199705420e+00 2.710397986758399e+00 2.495205524006204e+00 3.495418262981486e+00 2.710397986758399e+00 3.563590049164489e+00 3.495418262981486e+00 4.473701774753899e+00 3.563590049164490e+00 4.259515552578829e+00 4.473701774753899e+00 5.269377255325725e+00 4.259515552578831e+00 4.637458956563766e+00 5.269377255325725e+00 5.717981071123811e+00 4.637458956563767e+00 4.600003158268058e+00 5.717981071123811e+00 5.717525255754851e+00 4.600003158268058e+00 4.143188663376285e+00 5.717525255754852e+00 5.251275992300988e+00 4.143188663376287e+00 3.320167641380372e+00 5.251275992300988e+00 4.370743496016988e+00 
				</DataArray>
			</PointData>
			<CellData>
			</CellData>
		</Piece>
	</UnstructuredGrid>
</VTKFile>