<?xml version="1.0"?>
<VTKFile type="UnstructuredGrid" byte_order="LittleEndian">
	<UnstructuredGrid>
		<Piece NumberOfPoints="256" NumberOfCells="64">
			<Points>
				<DataArray type="Float64" NumberOfComponents="3" format="ascii">
					-1.000000000000000e+00 -1.000000000000000e+00 0.000000000000000e+00
					-9.135224194504830e-01 -9.135224194504830e-01 0.000000000000000e+00
					-1.218750000000000e+00 -7.500000000000000e-01 0.000000000000000e+00
					-1.081002888200483e+00 -6.851418145878622e-01 0.000000000000000e+00
					-9.135224194504830e-01 -9.135224194504830e-01 0.000000000000000e+00
					-8.338955762008279e-01 -8.338955762008279e-01 0.000000000000000e+00
					-1.081002888200483e+00 -6.851418145878622e-01 0.000000000000000e+00
					-9.569424512008280e-01 -6.254216821506209e-01 0.000000000000000e+00
					-8.338955762008279e-01 -8.338955762008279e-01 0.000000000000000e+00
					-7.611194702510349e-01 -7.611194702510349e-01 0.000000000000000e+00
					-9.569424512008280e-01 -6.254216821506209e-01 0.000000000000000e+00
					-8.465686890010349e-01 -5.708396026882762e-01 0.000000000000000e+00
					-7.611194702510349e-01 -7.611194702510349e-01 0.000000000000000e+00
					-6.951941016011038e-01 -6.951941016011038e-01 0.000000000000000e+00
					-8.465686890010349e-01 -5.708396026882762e-01 0.000000000000000e+00
					-7.498816016011038e-01 -5.213955762008279e-01 0.000000000000000e+00
					-6.951941016011038e-01 -6.951941016011038e-01 0.000000000000000e+00
					-6.361194702510349e-01 -6.361194702510349e-01 0.000000000000000e+00
					-7.498816016011038e-01 -5.213955762008279e-01 0.000000000000000e+00
					-6.668811890010349e-01 -4.770896026882761e-01 0.000000000000000e+00
					-6.361194702510349e-01 -6.361194702510349e-01 0.000000000000000e+00
					-5.838955762008278e-01 -5.838955762008278e-01 0.000000000000000e+00
					-6.668811890010349e-01 -4.770896026882761e-01 0.000000000000000e+00
					-5.975674512008279e-01 -4.379216821506209e-01 0.000000000000000e+00
					-5.838955762008278e-01 -5.838955762008278e-01 0.000000000000000e+00
					-5.385224194504830e-01 -5.385224194504830e-01 0.000000000000000e+00
					-5.975674512008279e-01 -4.379216821506209e-01 0.000000000000000e+00
					-5.419403882004830e-01 -4.038918145878622e-01 0.000000000000000e+00
					-5.385224194504830e-01 -5.385224194504830e-01 0.000000000000000e+00
					-5.000000000000000e-01 -5.000000000000000e-01 0.000000000000000e+00
					-5.419403882004830e-01 -4.038918145878622e-01 0.000000000000000e+00
					-5.000000000000000e-01 -3.750000000000000e-01 0.000000000000000e+00
					-1.218750000000000e+00 -7.500000000000000e-01 0.000000000000000e+00
					-1.081002888200483e+00 -6.851418145878622e-01 0.000000000000000e+00
					-1.375000000000000e+00 -5.000000000000000e-01 0.000000000000000e+00
					-1.200631794450483e+00 -4.567612097252415e-01 0.000000000000000e+00
					-1.081002888200483e+00 -6.851418145878622e-01 0.000000000000000e+00
					-9.569424512008280e-01 -6.254216821506209e-01 0.000000000000000e+00
					-1.200631794450483e+00 -4.567612097252415e-01 0.000000000000000e+00
					-1.044833076200828e+00 -4.169477881004140e-01 0.000000000000000e+00
					-9.569424512008280e-01 -6.254216821506209e-01 0.000000000000000e+00
					-8.465686890010349e-01 -5.708396026882762e-01 0.000000000000000e+00
					-1.044833076200828e+00 -4.169477881004140e-01 0.000000000000000e+00
					-9.076038452510349e-01 -3.805597351255174e-01 0.000000000000000e+00
					-8.465686890010349e-01 -5.708396026882762e-01 0.000000000000000e+00
					-7.498816016011038e-01 -5.213955762008279e-01 0.000000000000000e+00
					-9.076038452510349e-01 -3.805597351255174e-01 0.000000000000000e+00
					-7.889441016011038e-01 -3.475970508005519e-01 0.000000000000000e+00
					-7.498816016011038e-01 -5.213955762008279e-01 0.000000000000000e+00
					-6.668811890010349e-01 -4.770896026882761e-01 0.000000000000000e+00
					-7.889441016011038e-01 -3.475970508005519e-01 0.000000000000000e+00
					-6.888538452510349e-01 -3.180597351255174e-01 0.000000000000000e+00
					-6.668811890010349e-01 -4.770896026882761e-01 0.000000000000000e+00
					-5.975674512008279e-01 -4.379216821506209e-01 0.000000000000000e+00
					-6.888538452510349e-01 -3.180597351255174e-01 0.000000000000000e+00
					-6.073330762008279e-01 -2.919477881004139e-01 0.000000000000000e+00
					-5.975674512008279e-01 -4.379216821506209e-01 0.000000000000000e+00
					-5.419403882004830e-01 -4.038918145878622e-01 0.000000000000000e+00
					-6.073330762008279e-01 -2.919477881004139e-01 0.000000000000000e+00
					-5.443817944504830e-01 -2.692612097252414e-01 0.000000000000000e+00
					-5.419403882004830e-01 -4.038918145878622e-01 0.000000000000000e+00
					-5.000000000000000e-01 -3.750000000000000e-01 0.000000000000000e+00
					-5.443817944504830e-01 -2.692612097252414e-01 0.000000000000000e+00
					-5.000000000000000e-01 -2.500000000000000e-01 0.000000000000000e+00
					-1.375000000000000e+00 -5.000000000000000e-01 0.000000000000000e+00
					-1.200631794450483e+00 -4.567612097252415e-01 0.000000000000000e+00
					-1.468750000000000e+00 -2.500000000000000e-01 0.000000000000000e+00
					-1.272409138200483e+00 -2.283806048626207e-01 0.000000000000000e+00
					-1.200631794450483e+00 -4.567612097252415e-01 0.000000000000000e+00
					-1.044833076200828e+00 -4.169477881004140e-01 0.000000000000000e+00
					-1.272409138200483e+00 -2.283806048626207e-01 0.000000000000000e+00
					-1.097567451200828e+00 -2.084738940502069e-01 0.000000000000000e+00
					-1.044833076200828e+00 -4.169477881004140e-01 0.000000000000000e+00
					-9.076038452510349e-01 -3.805597351255174e-01 0.000000000000000e+00
					-1.097567451200828e+00 -2.084738940502069e-01 0.000000000000000e+00
					-9.442249390010349e-01 -1.902798675627587e-01 0.000000000000000e+00
					-9.076038452510349e-01 -3.805597351255174e-01 0.000000000000000e+00
					-7.889441016011038e-01 -3.475970508005519e-01 0.000000000000000e+00
					-9.442249390010349e-01 -1.902798675627587e-01 0.000000000000000e+00
					-8.123816016011038e-01 -1.737985254002759e-01 0.000000000000000e+00
					-7.889441016011038e-01 -3.475970508005519e-01 0.000000000000000e+00
					-6.888538452510349e-01 -3.180597351255174e-01 0.000000000000000e+00
					-8.123816016011038e-01 -1.737985254002759e-01 0.000000000000000e+00
					-7.020374390010349e-01 -1.590298675627587e-01 0.000000000000000e+00
					-6.888538452510349e-01 -3.180597351255174e-01 0.000000000000000e+00
					-6.073330762008279e-01 -2.919477881004139e-01 0.000000000000000e+00
					-7.020374390010349e-01 -1.590298675627587e-01 0.000000000000000e+00
					-6.131924512008279e-01 -1.459738940502069e-01 0.000000000000000e+00
					-6.073330762008279e-01 -2.919477881004139e-01 0.000000000000000e+00
					-5.443817944504830e-01 -2.692612097252414e-01 0.000000000000000e+00
					-6.131924512008279e-01 -1.459738940502069e-01 0.000000000000000e+00
					-5.458466382004830e-01 -1.346306048626207e-01 0.000000000000000e+00
					-5.443817944504830e-01 -2.692612097252414e-01 0.000000000000000e+00
					-5.000000000000000e-01 -2.500000000000000e-01 0.000000000000000e+00
					-5.458466382004830e-01 -1.346306048626207e-01 0.000000000000000e+00
					-5.000000000000000e-01 -1.250000000000000e-01 0.000000000000000e+00
					-1.468750000000000e+00 -2.500000000000000e-01 0.000000000000000e+00
					-1.272409138200483e+00 -2.283806048626207e-01 0.000000000000000e+00
					-1.500000000000000e+00 0.000000000000000e+00 0.000000000000000e+00
					-1.296334919450483e+00 4.857225732735060e-17 0.000000000000000e+00
					-1.272409138200483e+00 -2.283806048626207e-01 0.000000000000000e+00
					-1.097567451200828e+00 -2.084738940502069e-01 0.000000000000000e+00
					-1.296334919450483e+00 4.857225732735060e-17 0.000000000000000e+00
					-1.115145576200828e+00 3.469446951953614e-17 0.000000000000000e+00
					-1.097567451200828e+00 -2.084738940502069e-01 0.000000000000000e+00
					-9.442249390010349e-01 -1.902798675627587e-01 0.000000000000000e+00
					-1.115145576200828e+00 3.469446951953614e-17 0.000000000000000e+00
					-9.564319702510349e-01 4.163336342344337e-17 0.000000000000000e+00
					-9.442249390010349e-01 -1.902798675627587e-01 0.000000000000000e+00
					-8.123816016011038e-01 -1.737985254002759e-01 0.000000000000000e+00
					-9.564319702510349e-01 4.163336342344337e-17 0.000000000000000e+00
					-8.201941016011038e-01 4.163336342344337e-17 0.000000000000000e+00
					-8.123816016011038e-01 -1.737985254002759e-01 0.000000000000000e+00
					-7.020374390010349e-01 -1.590298675627587e-01 0.000000000000000e+00
					-8.201941016011038e-01 4.163336342344337e-17 0.000000000000000e+00
					-7.064319702510349e-01 3.816391647148976e-17 0.000000000000000e+00
					-7.020374390010349e-01 -1.590298675627587e-01 0.000000000000000e+00
					-6.131924512008279e-01 -1.459738940502069e-01 0.000000000000000e+00
					-7.064319702510349e-01 3.816391647148976e-17 0.000000000000000e+00
					-6.151455762008279e-01 2.428612866367530e-17 0.000000000000000e+00
					-6.131924512008279e-01 -1.459738940502069e-01 0.000000000000000e+00
					-5.458466382004830e-01 -1.346306048626207e-01 0.000000000000000e+00
					-6.151455762008279e-01 2.428612866367530e-17 0.000000000000000e+00
					-5.463349194504830e-01 2.428612866367530e-17 0.000000000000000e+00
					-5.458466382004830e-01 -1.346306048626207e-01 0.000000000000000e+00
					-5.000000000000000e-01 -1.250000000000000e-01 0.000000000000000e+00
					-5.463349194504830e-01 2.428612866367530e-17 0.000000000000000e+00
					-5.000000000000000e-01 0.000000000000000e+00 0.000000000000000e+00
					-1.500000000000000e+00 0.000000000000000e+00 0.000000000000000e+00
					-1.296334919450483e+00 4.857225732735060e-17 0.000000000000000e+00
					-1.468750000000000e+00 2.500000000000000e-01 0.000000000000000e+00
					-1.272409138200483e+00 2.283806048626208e-01 0.000000000000000e+00
					-1.296334919450483e+00 4.857225732735060e-17 0.000000000000000e+00
					-1.115145576200828e+00 3.469446951953614e-17 0.000000000000000e+00
					-1.272409138200483e+00 2.283806048626208e-01 0.000000000000000e+00
					-1.097567451200828e+00 2.084738940502070e-01 0.000000000000000e+00
					-1.115145576200828e+00 3.469446951953614e-17 0.000000000000000e+00
					-9.564319702510349e-01 4.163336342344337e-17 0.000000000000000e+00
					-1.097567451200828e+00 2.084738940502070e-01 0.000000000000000e+00
					-9.442249390010349e-01 1.902798675627588e-01 0.000000000000000e+00
					-9.564319702510349e-01 4.163336342344337e-17 0.000000000000000e+00
					-8.201941016011038e-01 4.163336342344337e-17 0.000000000000000e+00
					-9.442249390010349e-01 1.902798675627588e-01 0.000000000000000e+00
					-8.123816016011038e-01 1.737985254002760e-01 0.000000000000000e+00
					-8.201941016011038e-01 4.163336342344337e-17 0.000000000000000e+00
					-7.064319702510349e-01 3.816391647148976e-17 0.000000000000000e+00
					-8.123816016011038e-01 1.737985254002760e-01 0.000000000000000e+00
					-7.020374390010349e-01 1.590298675627588e-01 0.000000000000000e+00
					-7.064319702510349e-01 3.816391647148976e-17 0.000000000000000e+00
					-6.151455762008279e-01 2.428612866367530e-17 0.000000000000000e+00
					-7.020374390010349e-01 1.590298675627588e-01 0.000000000000000e+00
					-6.131924512008278e-01 1.459738940502070e-01 0.000000000000000e+00
					-6.151455762008279e-01 2.428612866367530e-17 0.000000000000000e+00
					-5.463349194504830e-01 2.428612866367530e-17 0.000000000000000e+00
					-6.131924512008278e-01 1.459738940502070e-01 0.000000000000000e+00
					-5.458466382004830e-01 1.346306048626208e-01 0.000000000000000e+00
					-5.463349194504830e-01 2.428612866367530e-17 0.000000000000000e+00
					-5.000000000000000e-01 0.000000000000000e+00 0.000000000000000e+00
					-5.458466382004830e-01 1.346306048626208e-01 0.000000000000000e+00
					-5.000000000000000e-01 1.250000000000000e-01 0.000000000000000e+00
					-1.468750000000000e+00 2.500000000000000e-01 0.000000000000000e+00
					-1.272409138200483e+00 2.283806048626208e-01 0.000000000000000e+00
					-1.375000000000000e+00 5.000000000000000e-01 0.000000000000000e+00
					-1.200631794450483e+00 4.567612097252415e-01 0.000000000000000e+00
					-1.272409138200483e+00 2.283806048626208e-01 0.000000000000000e+00
					-1.097567451200828e+00 2.084738940502070e-01 0.000000000000000e+00
					-1.200631794450483e+00 4.567612097252415e-01 0.000000000000000e+00
					-1.044833076200828e+00 4.169477881004139e-01 0.000000000000000e+00
					-1.097567451200828e+00 2.084738940502070e-01 0.000000000000000e+00
					-9.442249390010349e-01 1.902798675627588e-01 0.000000000000000e+00
					-1.044833076200828e+00 4.169477881004139e-01 0.000000000000000e+00
					-9.076038452510349e-01 3.805597351255174e-01 0.000000000000000e+00
					-9.442249390010349e-01 1.902798675627588e-01 0.000000000000000e+00
					-8.123816016011038e-01 1.737985254002760e-01 0.000000000000000e+00
					-9.076038452510349e-01 3.805597351255174e-01 0.000000000000000e+00
					-7.889441016011038e-01 3.475970508005520e-01 0.000000000000000e+00
					-8.123816016011038e-01 1.737985254002760e-01 0.000000000000000e+00
					-7.020374390010349e-01 1.590298675627588e-01 0.000000000000000e+00
					-7.889441016011038e-01 3.475970508005520e-01 0.000000000000000e+00
					-6.888538452510349e-01 3.180597351255175e-01 0.000000000000000e+00
					-7.020374390010349e-01 1.590298675627588e-01 0.000000000000000e+00
					-6.131924512008278e-01 1.459738940502070e-01 0.000000000000000e+00
					-6.888538452510349e-01 3.180597351255175e-01 0.000000000000000e+00
					-6.073330762008278e-01 2.919477881004140e-01 0.000000000000000e+00
					-6.131924512008278e-01 1.459738940502070e-01 0.000000000000000e+00
					-5.458466382004830e-01 1.346306048626208e-01 0.000000000000000e+00
					-6.073330762008278e-01 2.919477881004140e-01 0.000000000000000e+00
					-5.443817944504830e-01 2.692612097252415e-01 0.000000000000000e+00
					-5.458466382004830e-01 1.346306048626208e-01 0.000000000000000e+00
					-5.000000000000000e-01 1.250000000000000e-01 0.000000000000000e+00
					-5.443817944504830e-01 2.692612097252415e-01 0.000000000000000e+00
					-5.000000000000000e-01 2.500000000000000e-01 0.000000000000000e+00
					-1.375000000000000e+00 5.000000000000000e-01 0.000000000000000e+00
					-1.200631794450483e+00 4.567612097252415e-01 0.000000000000000e+00
					-1.218750000000000e+00 7.500000000000000e-01 0.000000000000000e+00
					-1.081002888200483e+00 6.851418145878622e-01 0.000000000000000e+00
					-1.200631794450483e+00 4.567612097252415e-01 0.000000000000000e+00
					-1.044833076200828e+00 4.169477881004139e-01 0.000000000000000e+00
					-1.081002888200483e+00 6.851418145878622e-01 0.000000000000000e+00
					-9.569424512008279e-01 6.254216821506209e-01 0.000000000000000e+00
					-1.044833076200828e+00 4.169477881004139e-01 0.000000000000000e+00
					-9.076038452510349e-01 3.805597351255174e-01 0.000000000000000e+00
					-9.569424512008279e-01 6.254216821506209e-01 0.000000000000000e+00
					-8.465686890010349e-01 5.708396026882763e-01 0.000000000000000e+00
					-9.076038452510349e-01 3.805597351255174e-01 0.000000000000000e+00
					-7.889441016011038e-01 3.475970508005520e-01 0.000000000000000e+00
					-8.465686890010349e-01 5.708396026882763e-01 0.000000000000000e+00
					-7.498816016011038e-01 5.213955762008280e-01 0.000000000000000e+00
					-7.889441016011038e-01 3.475970508005520e-01 0.000000000000000e+00
					-6.888538452510349e-01 3.180597351255175e-01 0.000000000000000e+00
					-7.498816016011038e-01 5.213955762008280e-01 0.000000000000000e+00
					-6.668811890010349e-01 4.770896026882762e-01 0.000000000000000e+00
					-6.888538452510349e-01 3.180597351255175e-01 0.000000000000000e+00
					-6.073330762008278e-01 2.919477881004140e-01 0.000000000000000e+00
					-6.668811890010349e-01 4.770896026882762e-01 0.000000000000000e+00
					-5.975674512008278e-01 4.379216821506209e-01 0.000000000000000e+00
					-6.073330762008278e-01 2.919477881004140e-01 0.000000000000000e+00
					-5.443817944504830e-01 2.692612097252415e-01 0.000000000000000e+00
					-5.975674512008278e-01 4.379216821506209e-01 0.000000000000000e+00
					-5.419403882004830e-01 4.038918145878622e-01 0.000000000000000e+00
					-5.443817944504830e-01 2.692612097252415e-01 0.000000000000000e+00
					-5.000000000000000e-01 2.500000000000000e-01 0.000000000000000e+00
					-5.419403882004830e-01 4.038918145878622e-01 0.000000000000000e+00
					-5.000000000000000e-01 3.750000000000000e-01 0.000000000000000e+00
					-1.218750000000000e+00 7.500000000000000e-01 0.000000000000000e+00
					-1.081002888200483e+00 6.851418145878622e-01 0.000000000000000e+00
					-1.000000000000000e+00 1.000000000000000e+00 0.000000000000000e+00
					-9.135224194504830e-01 9.135224194504830e-01 0.000000000000000e+00
					-1.081002888200483e+00 6.851418145878622e-01 0.000000000000000e+00
					-9.569424512008279e-01 6.254216821506209e-01 0.000000000000000e+00
					-9.135224194504830e-01 9.135224194504830e-01 0.000000000000000e+00
					-8.338955762008279e-01 8.338955762008279e-01 0.000000000000000e+00
					-9.569424512008279e-01 6.254216821506209e-01 0.000000000000000e+00
					-8.465686890010349e-01 5.708396026882763e-01 0.000000000000000e+00
					-8.338955762008279e-01 8.338955762008279e-01 0.000000000000000e+00
					-7.611194702510349e-01 7.611194702510349e-01 0.000000000000000e+00
					-8.465686890010349e-01 5.708396026882763e-01 0.000000000000000e+00
					-7.498816016011038e-01 5.213955762008280e-01 0.000000000000000e+00
					-7.611194702510349e-01 7.611194702510349e-01 0.000000000000000e+00
					-6.951941016011038e-01 6.951941016011038e-01 0.000000000000000e+00
					-7.498816016011038e-01 5.213955762008280e-01 0.000000000000000e+00
					-6.668811890010349e-01 4.770896026882762e-01 0.000000000000000e+00
					-6.951941016011038e-01 6.951941016011038e-01 0.000000000000000e+00
					-6.361194702510349e-01 6.361194702510349e-01 0.000000000000000e+00
					-6.668811890010349e-01 4.770896026882762e-01 0.000000000000000e+00
					-5.975674512008278e-01 4.379216821506209e-01 0.000000000000000e+00
					-6.361194702510349e-01 6.361194702510349e-01 0.000000000000000e+00
					-5.838955762008278e-01 5.838955762008278e-01 0.000000000000000e+00
					-5.975674512008278e-01 4.379216821506209e-01 0.000000000000000e+00
					-5.419403882004830e-01 4.038918145878622e-01 0.000000000000000e+00
					-5.838955762008278e-01 5.838955762008278e-01 0.000000000000000e+00
					-5.385224194504830e-01 5.385224194504830e-01 0.000000000000000e+00
					-5.419403882004830e-01 4.038918145878622e-01 0.000000000000000e+00
					-5.000000000000000e-01 3.750000000000000e-01 0.000000000000000e+00
					-5.385224194504830e-01 5.385224194504830e-01 0.000000000000000e+00
					-5.000000000000000e-01 5.000000000000000e-01 0.000000000000000e+00
				</DataArray>
			</Points>
			<Cells>
				<DataArray Name="connectivity" type="UInt32" format="ascii">
					0 1 3 2 4 5 7 6 8 9 11 10 12 13 15 14 16 17 19 18 20 21 23 22 24 25 27 26 28 29 31 30 32 33 35 34 36 37 39 38 40 41 43 42 44 45 47 46 48 49 51 50 52 53 55 54 56 57 59 58 60 61 63 62 64 65 67 66 68 69 71 70 72 73 75 74 76 77 79 78 80 81 83 82 84 85 87 86 88 89 91 90 92 93 95 94 96 97 99 98 100 101 103 102 104 105 107 106 108 109 111 110 112 113 115 114 116 117 119 118 120 121 123 122 124 125 127 126 128 129 131 130 132 133 135 134 136 137 139 138 140 141 143 142 144 145 147 146 148 149 151 150 152 153 155 154 156 157 159 158 160 161 163 162 164 165 167 166 168 169 171 170 172 173 175 174 176 177 179 178 180 181 183 182 184 185 187 186 188 189 191 190 192 193 195 194 196 197 199 198 200 201 203 202 204 205 207 206 208 209 211 210 212 213 215 214 216 217 219 218 220 221 223 222 224 225 227 226 228 229 231 230 232 233 235 234 236 237 239 238 240 241 243 242 244 245 247 246 248 249 251 250 252 253 255 254 
				</DataArray>
				<DataArray Name="offsets" type="UInt32" format="ascii">
					4 8 12 16 20 24 28 32 36 40 44 48 52 56 60 64 68 72 76 80 84 88 92 96 100 104 108 112 116 120 124 128 132 136 140 144 148 152 156 160 164 168 172 176 180 184 188 192 196 200 204 208 212 216 220 224 228 232 236 240 244 248 252 256 
				</DataArray>
				<DataArray Name="types" type="UInt8" format="ascii">
					9 9 9 9 9 9 9 9 9 9 9 9 9 9 9 9 9 9 9 9 9 9 9 9 9 9 9 9 9 9 9 9 9 9 9 9 9 9 9 9 9 9 9 9 9 9 9 9 9 9 9 9 9 9 9 9 9 9 9 9 9 9 9 9 
				</DataArray>
			</Cells>
			<PointData Vectors="solution ">
				<DataArray Name="solution" type="Float64" NumberOfComponents="1" format="ascii">
					0.000000000000000e+00 1.345240718382133e-02 0.000000000000000e+00 2.581557834993770e-02 1.345240718382133e-02 6.859171090988005e-02 2.581557834993770e-02 1.116384020065477e-01 6.859171090988006e-02 1.814762658837687e-01 1.116384020065477e-01 2.934273690847078e-01 1.814762658837687e-01 3.610684982297878e-01 2.934273690847079e-01 6.047120924468935e-01 3.610684982297879e-01 6.111862531381973e-01 6.047120924468936e-01 1.058198807159577e+00 6.111862531381974e-01 9.323610286066109e-01 1.058198807159578e+00 1.645754268131909e+00 9.323610286066110e-01 1.323227818260381e+00 1.645754268131909e+00 2.337091550203189e+00 1.323227818260382e+00 1.781424195938380e+00 2.337091550203190e+00 3.060190789173765e+00 0.000000000000000e+00 2.581557834993770e-02 0.000000000000000e+00 3.106668094705765e-02 2.581557834993771e-02 1.116384020065477e-01 3.106668094705765e-02 1.548661830713127e-01 1.116384020065477e-01 2.934273690847079e-01 1.548661830713127e-01 4.556667428742587e-01 2.934273690847080e-01 6.047120924468936e-01 4.556667428742587e-01 1.008851244740771e+00 6.047120924468937e-01 1.058198807159578e+00 1.008851244740771e+00 1.823378763177925e+00 1.058198807159578e+00 1.645754268131909e+00 1.823378763177926e+00 2.829082366767034e+00 1.645754268131909e+00 2.337091550203190e+00 2.829082366767034e+00 3.888535265960753e+00 2.337091550203190e+00 3.060190789173765e+00 3.888535265960753e+00 4.832651730696628e+00 0.000000000000000e+00 3.106668094705765e-02 0.000000000000000e+00 3.847743683501538e-02 3.106668094705766e-02 1.548661830713127e-01 3.847743683501539e-02 2.187094459446215e-01 1.548661830713127e-01 4.556667428742587e-01 2.187094459446215e-01 6.964423712388947e-01 4.556667428742588e-01 1.008851244740771e+00 6.964423712388949e-01 1.585289918170084e+00 1.008851244740772e+00 1.823378763177926e+00 1.585289918170084e+00 2.852807705885403e+00 1.823378763177926e+00 2.829082366767034e+00 2.852807705885403e+00 4.321457748205893e+00 2.829082366767034e+00 3.888535265960753e+00 4.321457748205894e+00 5.743589072083264e+00 3.888535265960753e+00 4.832651730696629e+00 5.743589072083264e+00 6.890574547302085e+00 0.000000000000000e+00 3.847743683501539e-02 0.000000000000000e+00 5.104523371322080e-02 3.847743683501539e-02 2.187094459446215e-01 5.104523371322080e-02 3.114788684401920e-01 2.187094459446215e-01 6.964423712388949e-01 3.114788684401921e-01 1.006515504867690e+00 6.964423712388950e-01 1.585289918170084e+00 1.006515504867690e+00 2.267168614261841e+00 1.585289918170085e+00 2.852807705885403e+00 2.267168614261842e+00 3.996708124200652e+00 2.852807705885404e+00 4.321457748205894e+00 3.996708124200652e+00 5.913783670289392e+00 4.321457748205894e+00 5.743589072083264e+00 5.913783670289393e+00 7.681800690937251e+00 5.743589072083265e+00 6.890574547302087e+00 7.681800690937252e+00 9.022393168847604e+00 0.000000000000000e+00 5.104523371322080e-02 0.000000000000000e+00 7.487813569171600e-02 5.104523371322081e-02 3.114788684401921e-01 7.487813569171603e-02 4.455607010705177e-01 3.114788684401921e-01 1.006515504867690e+00 4.455607010705178e-01 1.381201365179388e+00 1.006515504867690e+00 2.267168614261842e+00 1.381201365179388e+00 2.992290371891532e+00 2.267168614261842e+00 3.996708124200652e+00 2.992290371891532e+00 5.116046116813027e+00 3.996708124200653e+00 5.913783670289393e+00 5.116046116813027e+00 7.400224781585314e+00 5.913783670289393e+00 7.681800690937252e+00 7.400224781585316e+00 9.461327457696322e+00 7.681800690937254e+00 9.022393168847605e+00 9.461327457696322e+00 1.098773196813105e+01 0.000000000000000e+00 7.487813569171602e-02 0.000000000000000e+00 1.201678651700308e-01 7.487813569171603e-02 4.455607010705178e-01 1.201678651700308e-01 6.412777091923123e-01 4.455607010705179e-01 1.381201365179388e+00 6.412777091923124e-01 1.801304488591189e+00 1.381201365179388e+00 2.992290371891532e+00 1.801304488591189e+00 3.653807321707902e+00 2.992290371891533e+00 5.116046116813028e+00 3.653807321707903e+00 6.003218124325373e+00 5.116046116813028e+00 7.400224781585315e+00 6.003218124325374e+00 8.491325042239968e+00 7.400224781585317e+00 9.461327457696324e+00 8.491325042239968e+00 1.073464083394650e+01 9.461327457696324e+00 1.098773196813105e+01 1.073464083394650e+01 1.244441241681179e+01 0.000000000000000e+00 1.201678651700308e-01 0.000000000000000e+00 2.096875374774204e-01 1.201678651700308e-01 6.412777091923124e-01 2.096875374774204e-01 9.037659207452502e-01 6.412777091923125e-01 1.801304488591189e+00 9.037659207452503e-01 2.198135936226637e+00 1.801304488591190e+00 3.653807321707903e+00 2.198135936226638e+00 4.068501499406433e+00 3.653807321707903e+00 6.003218124325374e+00 4.068501499406434e+00 6.358501805919919e+00 6.003218124325375e+00 8.491325042239968e+00 6.358501805919920e+00 8.816773191356109e+00 8.491325042239970e+00 1.073464083394651e+01 8.816773191356109e+00 1.113462841269977e+01 1.073464083394651e+01 1.244441241681179e+01 1.113462841269977e+01 1.302905933441614e+01 0.000000000000000e+00 2.096875374774204e-01 0.000000000000000e+00 2.457295254768563e-01 2.096875374774204e-01 9.037659207452502e-01 2.457295254768564e-01 1.007042465055379e+00 9.037659207452505e-01 2.198135936226637e+00 1.007042465055379e+00 2.266310576002465e+00 2.198135936226638e+00 4.068501499406433e+00 2.266310576002466e+00 3.947669651908660e+00 4.068501499406434e+00 6.358501805919920e+00 3.947669651908661e+00 5.937927222302291e+00 6.358501805919921e+00 8.816773191356109e+00 5.937927222302291e+00 8.103499129770286e+00 8.816773191356109e+00 1.113462841269977e+01 8.103499129770288e+00 1.030093068179746e+01 1.113462841269977e+01 1.302905933441614e+01 1.030093068179746e+01 1.238246974048130e+01 
				</DataArray>
			</PointData>
			<CellData>
			</CellData>
		</Piece>
	</UnstructuredGrid>
</VTKFile>