<?xml version="1.0"?>
<VTKFile type="UnstructuredGrid" byte_order="LittleEndian">
	<UnstructuredGrid>
		<Piece NumberOfPoints="256" NumberOfCells="64">
			<Points>
				<DataArray type="Float64" NumberOfComponents="3" format="ascii">
					1.000000000000000e+00 -1.000000000000000e+00 0.000000000000000e+00
					1.218750000000000e+00 -7.500000000000000e-01 0.000000000000000e+00
					9.135224194504830e-01 -9.135224194504830e-01 0.000000000000000e+00
					1.081002888200483e+00 -6.851418145878622e-01 0.000000000000000e+00
					1.218750000000000e+00 -7.500000000000000e-01 0.000000000000000e+00
					1.375000000000000e+00 -5.000000000000000e-01 0.000000000000000e+00
					1.081002888200483e+00 -6.851418145878622e-01 0.000000000000000e+00
					1.200631794450483e+00 -4.567612097252415e-01 0.000000000000000e+00
					1.375000000000000e+00 -5.000000000000000e-01 0.000000000000000e+00
					1.468750000000000e+00 -2.500000000000000e-01 0.000000000000000e+00
					1.200631794450483e+00 -4.567612097252415e-01 0.000000000000000e+00
					1.272409138200483e+00 -2.283806048626207e-01 0.000000000000000e+00
					1.468750000000000e+00 -2.500000000000000e-01 0.000000000000000e+00
					1.500000000000000e+00 0.000000000000000e+00 0.000000000000000e+00
					1.272409138200483e+00 -2.283806048626207e-01 0.000000000000000e+00
					1.296334919450483e+00 1.040834085586084e-17 0.000000000000000e+00
					1.500000000000000e+00 0.000000000000000e+00 0.000000000000000e+00
					1.468750000000000e+00 2.500000000000000e-01 0.000000000000000e+00
					1.296334919450483e+00 1.040834085586084e-17 0.000000000000000e+00
					1.272409138200483e+00 2.283806048626208e-01 0.000000000000000e+00
					1.468750000000000e+00 2.500000000000000e-01 0.000000000000000e+00
					1.375000000000000e+00 5.000000000000000e-01 0.000000000000000e+00
					1.272409138200483e+00 2.283806048626208e-01 0.000000000000000e+00
					1.200631794450483e+00 4.567612097252415e-01 0.000000000000000e+00
					1.375000000000000e+00 5.000000000000000e-01 0.000000000000000e+00
					1.218750000000000e+00 7.500000000000000e-01 0.000000000000000e+00
					1.200631794450483e+00 4.567612097252415e-01 0.000000000000000e+00
					1.081002888200483e+00 6.851418145878623e-01 0.000000000000000e+00
					1.218750000000000e+00 7.500000000000000e-01 0.000000000000000e+00
					1.000000000000000e+00 1.000000000000000e+00 0.000000000000000e+00
					1.081002888200483e+00 6.851418145878623e-01 0.000000000000000e+00
					9.135224194504830e-01 9.135224194504830e-01 0.000000000000000e+00
					9.135224194504830e-01 -9.135224194504830e-01 0.000000000000000e+00
					1.081002888200483e+00 -6.851418145878622e-01 0.000000000000000e+00
					8.338955762008279e-01 -8.338955762008279e-01 0.000000000000000e+00
					9.569424512008280e-01 -6.254216821506209e-01 0.000000000000000e+00
					1.081002888200483e+00 -6.851418145878622e-01 0.000000000000000e+00
					1.200631794450483e+00 -4.567612097252415e-01 0.000000000000000e+00
					9.569424512008280e-01 -6.254216821506209e-01 0.000000000000000e+00
					1.044833076200828e+00 -4.169477881004140e-01 0.000000000000000e+00
					1.200631794450483e+00 -4.567612097252415e-01 0.000000000000000e+00
					1.272409138200483e+00 -2.283806048626207e-01 0.000000000000000e+00
					1.044833076200828e+00 -4.169477881004140e-01 0.000000000000000e+00
					1.097567451200828e+00 -2.084738940502070e-01 0.000000000000000e+00
					1.272409138200483e+00 -2.283806048626207e-01 0.000000000000000e+00
					1.296334919450483e+00 1.040834085586084e-17 0.000000000000000e+00
					1.097567451200828e+00 -2.084738940502070e-01 0.000000000000000e+00
					1.115145576200828e+00 1.734723475976807e-17 0.000000000000000e+00
					1.296334919450483e+00 1.040834085586084e-17 0.000000000000000e+00
					1.272409138200483e+00 2.283806048626208e-01 0.000000000000000e+00
					1.115145576200828e+00 1.734723475976807e-17 0.000000000000000e+00
					1.097567451200828e+00 2.084738940502070e-01 0.000000000000000e+00
					1.272409138200483e+00 2.283806048626208e-01 0.000000000000000e+00
					1.200631794450483e+00 4.567612097252415e-01 0.000000000000000e+00
					1.097567451200828e+00 2.084738940502070e-01 0.000000000000000e+00
					1.044833076200828e+00 4.169477881004140e-01 0.000000000000000e+00
					1.200631794450483e+00 4.567612097252415e-01 0.000000000000000e+00
					1.081002888200483e+00 6.851418145878623e-01 0.000000000000000e+00
					1.044833076200828e+00 4.169477881004140e-01 0.000000000000000e+00
					9.569424512008280e-01 6.254216821506209e-01 0.000000000000000e+00
					1.081002888200483e+00 6.851418145878623e-01 0.000000000000000e+00
					9.135224194504830e-01 9.135224194504830e-01 0.000000000000000e+00
					9.569424512008280e-01 6.254216821506209e-01 0.000000000000000e+00
					8.338955762008279e-01 8.338955762008279e-01 0.000000000000000e+00
					8.338955762008279e-01 -8.338955762008279e-01 0.000000000000000e+00
					9.569424512008280e-01 -6.254216821506209e-01 0.000000000000000e+00
					7.611194702510349e-01 -7.611194702510349e-01 0.000000000000000e+00
					8.465686890010349e-01 -5.708396026882762e-01 0.000000000000000e+00
					9.569424512008280e-01 -6.254216821506209e-01 0.000000000000000e+00
					1.044833076200828e+00 -4.169477881004140e-01 0.000000000000000e+00
					8.465686890010349e-01 -5.708396026882762e-01 0.000000000000000e+00
					9.076038452510349e-01 -3.805597351255174e-01 0.000000000000000e+00
					1.044833076200828e+00 -4.169477881004140e-01 0.000000000000000e+00
					1.097567451200828e+00 -2.084738940502070e-01 0.000000000000000e+00
					9.076038452510349e-01 -3.805597351255174e-01 0.000000000000000e+00
					9.442249390010350e-01 -1.902798675627587e-01 0.000000000000000e+00
					1.097567451200828e+00 -2.084738940502070e-01 0.000000000000000e+00
					1.115145576200828e+00 1.734723475976807e-17 0.000000000000000e+00
					9.442249390010350e-01 -1.902798675627587e-01 0.000000000000000e+00
					9.564319702510349e-01 2.428612866367530e-17 0.000000000000000e+00
					1.115145576200828e+00 1.734723475976807e-17 0.000000000000000e+00
					1.097567451200828e+00 2.084738940502070e-01 0.000000000000000e+00
					9.564319702510349e-01 2.428612866367530e-17 0.000000000000000e+00
					9.442249390010349e-01 1.902798675627587e-01 0.000000000000000e+00
					1.097567451200828e+00 2.084738940502070e-01 0.000000000000000e+00
					1.044833076200828e+00 4.169477881004140e-01 0.000000000000000e+00
					9.442249390010349e-01 1.902798675627587e-01 0.000000000000000e+00
					9.076038452510349e-01 3.805597351255174e-01 0.000000000000000e+00
					1.044833076200828e+00 4.169477881004140e-01 0.000000000000000e+00
					9.569424512008280e-01 6.254216821506209e-01 0.000000000000000e+00
					9.076038452510349e-01 3.805597351255174e-01 0.000000000000000e+00
					8.465686890010349e-01 5.708396026882762e-01 0.000000000000000e+00
					9.569424512008280e-01 6.254216821506209e-01 0.000000000000000e+00
					8.338955762008279e-01 8.338955762008279e-01 0.000000000000000e+00
					8.465686890010349e-01 5.708396026882762e-01 0.000000000000000e+00
					7.611194702510349e-01 7.611194702510349e-01 0.000000000000000e+00
					7.611194702510349e-01 -7.611194702510349e-01 0.000000000000000e+00
					8.465686890010349e-01 -5.708396026882762e-01 0.000000000000000e+00
					6.951941016011038e-01 -6.951941016011038e-01 0.000000000000000e+00
					7.498816016011038e-01 -5.213955762008279e-01 0.000000000000000e+00
					8.465686890010349e-01 -5.708396026882762e-01 0.000000000000000e+00
					9.076038452510349e-01 -3.805597351255174e-01 0.000000000000000e+00
					7.498816016011038e-01 -5.213955762008279e-01 0.000000000000000e+00
					7.889441016011040e-01 -3.475970508005519e-01 0.000000000000000e+00
					9.076038452510349e-01 -3.805597351255174e-01 0.000000000000000e+00
					9.442249390010350e-01 -1.902798675627587e-01 0.000000000000000e+00
					7.889441016011040e-01 -3.475970508005519e-01 0.000000000000000e+00
					8.123816016011040e-01 -1.737985254002760e-01 0.000000000000000e+00
					9.442249390010350e-01 -1.902798675627587e-01 0.000000000000000e+00
					9.564319702510349e-01 2.428612866367530e-17 0.000000000000000e+00
					8.123816016011040e-01 -1.737985254002760e-01 0.000000000000000e+00
					8.201941016011038e-01 2.428612866367530e-17 0.000000000000000e+00
					9.564319702510349e-01 2.428612866367530e-17 0.000000000000000e+00
					9.442249390010349e-01 1.902798675627587e-01 0.000000000000000e+00
					8.201941016011038e-01 2.428612866367530e-17 0.000000000000000e+00
					8.123816016011038e-01 1.737985254002760e-01 0.000000000000000e+00
					9.442249390010349e-01 1.902798675627587e-01 0.000000000000000e+00
					9.076038452510349e-01 3.805597351255174e-01 0.000000000000000e+00
					8.123816016011038e-01 1.737985254002760e-01 0.000000000000000e+00
					7.889441016011038e-01 3.475970508005519e-01 0.000000000000000e+00
					9.076038452510349e-01 3.805597351255174e-01 0.000000000000000e+00
					8.465686890010349e-01 5.708396026882762e-01 0.000000000000000e+00
					7.889441016011038e-01 3.475970508005519e-01 0.000000000000000e+00
					7.498816016011038e-01 5.213955762008279e-01 0.000000000000000e+00
					8.465686890010349e-01 5.708396026882762e-01 0.000000000000000e+00
					7.611194702510349e-01 7.611194702510349e-01 0.000000000000000e+00
					7.498816016011038e-01 5.213955762008279e-01 0.000000000000000e+00
					6.951941016011038e-01 6.951941016011038e-01 0.000000000000000e+00
					6.951941016011038e-01 -6.951941016011038e-01 0.000000000000000e+00
					7.498816016011038e-01 -5.213955762008279e-01 0.000000000000000e+00
					6.361194702510349e-01 -6.361194702510349e-01 0.000000000000000e+00
					6.668811890010349e-01 -4.770896026882762e-01 0.000000000000000e+00
					7.498816016011038e-01 -5.213955762008279e-01 0.000000000000000e+00
					7.889441016011040e-01 -3.475970508005519e-01 0.000000000000000e+00
					6.668811890010349e-01 -4.770896026882762e-01 0.000000000000000e+00
					6.888538452510349e-01 -3.180597351255174e-01 0.000000000000000e+00
					7.889441016011040e-01 -3.475970508005519e-01 0.000000000000000e+00
					8.123816016011040e-01 -1.737985254002760e-01 0.000000000000000e+00
					6.888538452510349e-01 -3.180597351255174e-01 0.000000000000000e+00
					7.020374390010350e-01 -1.590298675627587e-01 0.000000000000000e+00
					8.123816016011040e-01 -1.737985254002760e-01 0.000000000000000e+00
					8.201941016011038e-01 2.428612866367530e-17 0.000000000000000e+00
					7.020374390010350e-01 -1.590298675627587e-01 0.000000000000000e+00
					7.064319702510349e-01 1.734723475976807e-17 0.000000000000000e+00
					8.201941016011038e-01 2.428612866367530e-17 0.000000000000000e+00
					8.123816016011038e-01 1.737985254002760e-01 0.000000000000000e+00
					7.064319702510349e-01 1.734723475976807e-17 0.000000000000000e+00
					7.020374390010349e-01 1.590298675627587e-01 0.000000000000000e+00
					8.123816016011038e-01 1.737985254002760e-01 0.000000000000000e+00
					7.889441016011038e-01 3.475970508005519e-01 0.000000000000000e+00
					7.020374390010349e-01 1.590298675627587e-01 0.000000000000000e+00
					6.888538452510349e-01 3.180597351255174e-01 0.000000000000000e+00
					7.889441016011038e-01 3.475970508005519e-01 0.000000000000000e+00
					7.498816016011038e-01 5.213955762008279e-01 0.000000000000000e+00
					6.888538452510349e-01 3.180597351255174e-01 0.000000000000000e+00
					6.668811890010349e-01 4.770896026882762e-01 0.000000000000000e+00
					7.498816016011038e-01 5.213955762008279e-01 0.000000000000000e+00
					6.951941016011038e-01 6.951941016011038e-01 0.000000000000000e+00
					6.668811890010349e-01 4.770896026882762e-01 0.000000000000000e+00
					6.361194702510349e-01 6.361194702510349e-01 0.000000000000000e+00
					6.361194702510349e-01 -6.361194702510349e-01 0.000000000000000e+00
					6.668811890010349e-01 -4.770896026882762e-01 0.000000000000000e+00
					5.838955762008278e-01 -5.838955762008278e-01 0.000000000000000e+00
					5.975674512008280e-01 -4.379216821506209e-01 0.000000000000000e+00
					6.668811890010349e-01 -4.770896026882762e-01 0.000000000000000e+00
					6.888538452510349e-01 -3.180597351255174e-01 0.000000000000000e+00
					5.975674512008280e-01 -4.379216821506209e-01 0.000000000000000e+00
					6.073330762008280e-01 -2.919477881004139e-01 0.000000000000000e+00
					6.888538452510349e-01 -3.180597351255174e-01 0.000000000000000e+00
					7.020374390010350e-01 -1.590298675627587e-01 0.000000000000000e+00
					6.073330762008280e-01 -2.919477881004139e-01 0.000000000000000e+00
					6.131924512008280e-01 -1.459738940502069e-01 0.000000000000000e+00
					7.020374390010350e-01 -1.590298675627587e-01 0.000000000000000e+00
					7.064319702510349e-01 1.734723475976807e-17 0.000000000000000e+00
					6.131924512008280e-01 -1.459738940502069e-01 0.000000000000000e+00
					6.151455762008280e-01 1.040834085586084e-17 0.000000000000000e+00
					7.064319702510349e-01 1.734723475976807e-17 0.000000000000000e+00
					7.020374390010349e-01 1.590298675627587e-01 0.000000000000000e+00
					6.151455762008280e-01 1.040834085586084e-17 0.000000000000000e+00
					6.131924512008278e-01 1.459738940502070e-01 0.000000000000000e+00
					7.020374390010349e-01 1.590298675627587e-01 0.000000000000000e+00
					6.888538452510349e-01 3.180597351255174e-01 0.000000000000000e+00
					6.131924512008278e-01 1.459738940502070e-01 0.000000000000000e+00
					6.073330762008278e-01 2.919477881004139e-01 0.000000000000000e+00
					6.888538452510349e-01 3.180597351255174e-01 0.000000000000000e+00
					6.668811890010349e-01 4.770896026882762e-01 0.000000000000000e+00
					6.073330762008278e-01 2.919477881004139e-01 0.000000000000000e+00
					5.975674512008278e-01 4.379216821506209e-01 0.000000000000000e+00
					6.668811890010349e-01 4.770896026882762e-01 0.000000000000000e+00
					6.361194702510349e-01 6.361194702510349e-01 0.000000000000000e+00
					5.975674512008278e-01 4.379216821506209e-01 0.000000000000000e+00
					5.838955762008278e-01 5.838955762008278e-01 0.000000000000000e+00
					5.838955762008278e-01 -5.838955762008278e-01 0.000000000000000e+00
					5.975674512008280e-01 -4.379216821506209e-01 0.000000000000000e+00
					5.385224194504830e-01 -5.385224194504830e-01 0.000000000000000e+00
					5.419403882004830e-01 -4.038918145878622e-01 0.000000000000000e+00
					5.975674512008280e-01 -4.379216821506209e-01 0.000000000000000e+00
					6.073330762008280e-01 -2.919477881004139e-01 0.000000000000000e+00
					5.419403882004830e-01 -4.038918145878622e-01 0.000000000000000e+00
					5.443817944504830e-01 -2.692612097252414e-01 0.000000000000000e+00
					6.073330762008280e-01 -2.919477881004139e-01 0.000000000000000e+00
					6.131924512008280e-01 -1.459738940502069e-01 0.000000000000000e+00
					5.443817944504830e-01 -2.692612097252414e-01 0.000000000000000e+00
					5.458466382004830e-01 -1.346306048626207e-01 0.000000000000000e+00
					6.131924512008280e-01 -1.459738940502069e-01 0.000000000000000e+00
					6.151455762008280e-01 1.040834085586084e-17 0.000000000000000e+00
					5.458466382004830e-01 -1.346306048626207e-01 0.000000000000000e+00
					5.463349194504828e-01 3.469446951953614e-18 0.000000000000000e+00
					6.151455762008280e-01 1.040834085586084e-17 0.000000000000000e+00
					6.131924512008278e-01 1.459738940502070e-01 0.000000000000000e+00
					5.463349194504828e-01 3.469446951953614e-18 0.000000000000000e+00
					5.458466382004828e-01 1.346306048626207e-01 0.000000000000000e+00
					6.131924512008278e-01 1.459738940502070e-01 0.000000000000000e+00
					6.073330762008278e-01 2.919477881004139e-01 0.000000000000000e+00
					5.458466382004828e-01 1.346306048626207e-01 0.000000000000000e+00
					5.443817944504828e-01 2.692612097252414e-01 0.000000000000000e+00
					6.073330762008278e-01 2.919477881004139e-01 0.000000000000000e+00
					5.975674512008278e-01 4.379216821506209e-01 0.000000000000000e+00
					5.443817944504828e-01 2.692612097252414e-01 0.000000000000000e+00
					5.419403882004828e-01 4.038918145878622e-01 0.000000000000000e+00
					5.975674512008278e-01 4.379216821506209e-01 0.000000000000000e+00
					5.838955762008278e-01 5.838955762008278e-01 0.000000000000000e+00
					5.419403882004828e-01 4.038918145878622e-01 0.000000000000000e+00
					5.385224194504830e-01 5.385224194504830e-01 0.000000000000000e+00
					5.385224194504830e-01 -5.385224194504830e-01 0.000000000000000e+00
					5.419403882004830e-01 -4.038918145878622e-01 0.000000000000000e+00
					5.000000000000000e-01 -5.000000000000000e-01 0.000000000000000e+00
					5.000000000000000e-01 -3.750000000000000e-01 0.000000000000000e+00
					5.419403882004830e-01 -4.038918145878622e-01 0.000000000000000e+00
					5.443817944504830e-01 -2.692612097252414e-01 0.000000000000000e+00
					5.000000000000000e-01 -3.750000000000000e-01 0.000000000000000e+00
					5.000000000000000e-01 -2.500000000000000e-01 0.000000000000000e+00
					5.443817944504830e-01 -2.692612097252414e-01 0.000000000000000e+00
					5.458466382004830e-01 -1.346306048626207e-01 0.000000000000000e+00
					5.000000000000000e-01 -2.500000000000000e-01 0.000000000000000e+00
					5.000000000000000e-01 -1.250000000000000e-01 0.000000000000000e+00
					5.458466382004830e-01 -1.346306048626207e-01 0.000000000000000e+00
					5.463349194504828e-01 3.469446951953614e-18 0.000000000000000e+00
					5.000000000000000e-01 -1.250000000000000e-01 0.000000000000000e+00
					5.000000000000000e-01 0.000000000000000e+00 0.000000000000000e+00
					5.463349194504828e-01 3.469446951953614e-18 0.000000000000000e+00
					5.458466382004828e-01 1.346306048626207e-01 0.000000000000000e+00
					5.000000000000000e-01 0.000000000000000e+00 0.000000000000000e+00
					5.000000000000000e-01 1.250000000000000e-01 0.000000000000000e+00
					5.458466382004828e-01 1.346306048626207e-01 0.000000000000000e+00
					5.443817944504828e-01 2.692612097252414e-01 0.000000000000000e+00
					5.000000000000000e-01 1.250000000000000e-01 0.000000000000000e+00
					5.000000000000000e-01 2.500000000000000e-01 0.000000000000000e+00
					5.443817944504828e-01 2.692612097252414e-01 0.000000000000000e+00
					5.419403882004828e-01 4.038918145878622e-01 0.000000000000000e+00
					5.000000000000000e-01 2.500000000000000e-01 0.000000000000000e+00
					5.000000000000000e-01 3.750000000000000e-01 0.000000000000000e+00
					5.419403882004828e-01 4.038918145878622e-01 0.000000000000000e+00
					5.385224194504830e-01 5.385224194504830e-01 0.000000000000000e+00
					5.000000000000000e-01 3.750000000000000e-01 0.000000000000000e+00
					5.000000000000000e-01 5.000000000000000e-01 0.000000000000000e+00
				</DataArray>
			</Points>
			<Cells>
				<DataArray Name="connectivity" type="UInt32" format="ascii">
					0 1 3 2 4 5 7 6 8 9 11 10 12 13 15 14 16 17 19 18 20 21 23 22 24 25 27 26 28 29 31 30 32 33 35 34 36 37 39 38 40 41 43 42 44 45 47 46 48 49 51 50 52 53 55 54 56 57 59 58 60 61 63 62 64 65 67 66 68 69 71 70 72 73 75 74 76 77 79 78 80 81 83 82 84 85 87 86 88 89 91 90 92 93 95 94 96 97 99 98 100 101 103 102 104 105 107 106 108 109 111 110 112 113 115 114 116 117 119 118 120 121 123 122 124 125 127 126 128 129 131 130 132 133 135 134 136 137 139 138 140 141 143 142 144 145 147 146 148 149 151 150 152 153 155 154 156 157 159 158 160 161 163 162 164 165 167 166 168 169 171 170 172 173 175 174 176 177 179 178 180 181 183 182 184 185 187 186 188 189 191 190 192 193 195 194 196 197 199 198 200 201 203 202 204 205 207 206 208 209 211 210 212 213 215 214 216 217 219 218 220 221 223 222 224 225 227 226 228 229 231 230 232 233 235 234 236 237 239 238 240 241 243 242 244 245 247 246 248 249 251 250 252 253 255 254 
				</DataArray>
				<DataArray Name="offsets" type="UInt32" format="ascii">
					4 8 12 16 20 24 28 32 36 40 44 48 52 56 60 64 68 72 76 80 84 88 92 96 100 104 108 112 116 120 124 128 132 136 140 144 148 152 156 160 164 168 172 176 180 184 188 192 196 200 204 208 212 216 220 224 228 232 236 240 244 248 252 256 
				</DataArray>
				<DataArray Name="types" type="UInt8" format="ascii">
					9 9 9 9 9 9 9 9 9 9 9 9 9 9 9 9 9 9 9 9 9 9 9 9 9 9 9 9 9 9 9 9 9 9 9 9 9 9 9 9 9 9 9 9 9 9 9 9 9 9 9 9 9 9 9 9 9 9 9 9 9 9 9 9 
				</DataArray>
			</Cells>
			<PointData Vectors="solution ">
				<DataArray Name="solution" type="Float64" NumberOfComponents="1" format="ascii">
					0.000000000000000e+00 0.000000000000000e+00 -2.271301084816730e-03 2.942443057550091e-02 0.000000000000000e+00 0.000000000000000e+00 2.942443057550091e-02 6.473639284209029e-02 0.000000000000000e+00 0.000000000000000e+00 6.473639284209030e-02 1.291237270530615e-01 0.000000000000000e+00 0.000000000000000e+00 1.291237270530615e-01 2.199899736229769e-01 0.000000000000000e+00 0.000000000000000e+00 2.199899736229770e-01 3.060400580065530e-01 0.000000000000000e+00 0.000000000000000e+00 3.060400580065530e-01 3.711641271971952e-01 0.000000000000000e+00 0.000000000000000e+00 3.711641271971952e-01 5.091682824450803e-01 0.000000000000000e+00 0.000000000000000e+00 5.091682824450804e-01 7.131484013556325e-01 -2.271301084816730e-03 2.942443057550091e-02 8.450759993415484e-02 2.594208570917425e-01 2.942443057550091e-02 6.473639284209030e-02 2.594208570917425e-01 5.852177672496190e-01 6.473639284209030e-02 1.291237270530615e-01 5.852177672496192e-01 1.124307826889211e+00 1.291237270530615e-01 2.199899736229770e-01 1.124307826889211e+00 1.834488324688426e+00 2.199899736229770e-01 3.060400580065530e-01 1.834488324688426e+00 2.536011853239996e+00 3.060400580065530e-01 3.711641271971952e-01 2.536011853239996e+00 2.997150132804161e+00 3.711641271971953e-01 5.091682824450805e-01 2.997150132804161e+00 3.188123080184512e+00 5.091682824450805e-01 7.131484013556326e-01 3.188123080184512e+00 3.102187857001587e+00 8.450759993415485e-02 2.594208570917425e-01 3.532117131377627e-01 8.863184798160738e-01 2.594208570917425e-01 5.852177672496193e-01 8.863184798160738e-01 1.908585484956269e+00 5.852177672496193e-01 1.124307826889211e+00 1.908585484956269e+00 3.499784528548438e+00 1.124307826889212e+00 1.834488324688426e+00 3.499784528548438e+00 5.477171803821927e+00 1.834488324688426e+00 2.536011853239996e+00 5.477171803821928e+00 7.367939839198797e+00 2.536011853239996e+00 2.997150132804161e+00 7.367939839198798e+00 8.486653037442608e+00 2.997150132804161e+00 3.188123080184512e+00 8.486653037442608e+00 8.363104803229511e+00 3.188123080184512e+00 3.102187857001587e+00 8.363104803229511e+00 7.093232166618492e+00 3.532117131377628e-01 8.863184798160738e-01 8.387886766420445e-01 1.935924630148860e+00 8.863184798160739e-01 1.908585484956269e+00 1.935924630148860e+00 3.945963846503159e+00 1.908585484956270e+00 3.499784528548438e+00 3.945963846503159e+00 6.881637646432118e+00 3.499784528548439e+00 5.477171803821928e+00 6.881637646432120e+00 1.034889369206913e+01 5.477171803821928e+00 7.367939839198798e+00 1.034889369206913e+01 1.357170132182933e+01 7.367939839198799e+00 8.486653037442608e+00 1.357170132182933e+01 1.543027379203516e+01 8.486653037442608e+00 8.363104803229511e+00 1.543027379203516e+01 1.491990443136707e+01 8.363104803229513e+00 7.093232166618494e+00 1.491990443136707e+01 1.222379689865899e+01 8.387886766420447e-01 1.935924630148860e+00 1.531836752489006e+00 3.293660601253445e+00 1.935924630148860e+00 3.945963846503159e+00 3.293660601253446e+00 6.330886427870590e+00 3.945963846503160e+00 6.881637646432120e+00 6.330886427870591e+00 1.048441419903073e+01 6.881637646432122e+00 1.034889369206913e+01 1.048441419903073e+01 1.517878852517939e+01 1.034889369206913e+01 1.357170132182933e+01 1.517878852517939e+01 1.948537990623482e+01 1.357170132182933e+01 1.543027379203516e+01 1.948537990623482e+01 2.208998764201717e+01 1.543027379203516e+01 1.491990443136707e+01 2.208998764201717e+01 2.159693909582376e+01 1.491990443136707e+01 1.222379689865899e+01 2.159693909582376e+01 1.789702723015804e+01 1.531836752489006e+00 3.293660601253446e+00 2.393781958601547e+00 4.804771157332868e+00 3.293660601253447e+00 6.330886427870591e+00 4.804771157332868e+00 8.687132137818848e+00 6.330886427870591e+00 1.048441419903073e+01 8.687132137818848e+00 1.366820915091751e+01 1.048441419903073e+01 1.517878852517939e+01 1.366820915091752e+01 1.910845716335586e+01 1.517878852517939e+01 1.948537990623482e+01 1.910845716335586e+01 2.409862565368194e+01 1.948537990623482e+01 2.208998764201717e+01 2.409862565368194e+01 2.734668493809389e+01 2.208998764201718e+01 2.159693909582377e+01 2.734668493809389e+01 2.741751838740851e+01 2.159693909582377e+01 1.789702723015804e+01 2.741751838740851e+01 2.352839406329561e+01 2.393781958601547e+00 4.804771157332868e+00 3.369239871387490e+00 6.330874683614537e+00 4.804771157332869e+00 8.687132137818848e+00 6.330874683614538e+00 1.074666489152002e+01 8.687132137818850e+00 1.366820915091752e+01 1.074666489152002e+01 1.612114611996880e+01 1.366820915091752e+01 1.910845716335586e+01 1.612114611996880e+01 2.186098257396204e+01 1.910845716335586e+01 2.409862565368194e+01 2.186098257396205e+01 2.717702154919967e+01 2.409862565368194e+01 2.734668493809389e+01 2.717702154919967e+01 3.086784689742140e+01 2.734668493809389e+01 2.741751838740852e+01 3.086784689742140e+01 3.174539784359558e+01 2.741751838740852e+01 2.352839406329561e+01 3.174539784359559e+01 2.859064413994997e+01 3.369239871387491e+00 6.330874683614538e+00 4.394224474243527e+00 7.743681793296498e+00 6.330874683614539e+00 1.074666489152002e+01 7.743681793296499e+00 1.236131427724301e+01 1.074666489152002e+01 1.612114611996880e+01 1.236131427724301e+01 1.779805776382235e+01 1.612114611996880e+01 2.186098257396204e+01 1.779805776382235e+01 2.353689857459628e+01 2.186098257396205e+01 2.717702154919967e+01 2.353689857459628e+01 2.890642016752095e+01 2.717702154919967e+01 3.086784689742140e+01 2.890642016752096e+01 3.289616592176176e+01 3.086784689742140e+01 3.174539784359559e+01 3.289616592176176e+01 3.446118811119366e+01 3.174539784359559e+01 2.859064413994998e+01 3.446118811119366e+01 3.260817274151177e+01 
				</DataArray>
			</PointData>
			<CellData>
			</CellData>
		</Piece>
	</UnstructuredGrid>
</VTKFile>