a             penalty            nitsche
10           2.7544667166e-01   3.5430468674e-03 
100          2.7705147814e-02   3.5705238732e-03 
1000         4.5794407593e-03   4.0424828118e-03
10000        9.0573363306e-03   9.1845252108e-03
100000       4.5473765535e-02   4.5489377882e-02
1000000      1.4548820939e-01   1.4548358143e-01
10000000     3.6979944801e-01   3.6979668690e-01
100000000    4.9591596900e-01   4.9556417326e-01
1000000000   5.2298712864e-01   5.2308711831e-01
10000000000  4.7785161097e-01   4.9317071922e-01