Eigenvalues_0=
[ 0 1.00000000000000e-15 2.00000000000000e-15 8.46241000000000e-10 1.02775500000000e-09 2.52911500000000e-09 1.32808330000000e-08 1.78004780000000e-08 7.66959640000000e-08 9.02283880000000e-07 9.62266311000000e-07 1.21789326500000e-06 0.242730318925571 0.267373521680313 0.267568855043015 0.270344847459239 0.296468038646174 0.340161318141142 0.340394742862192 0.416636553933539 0.632577766619071 0.638424452654167 0.645524311313005 0.645624267306366 0.719391740131843 0.725091316375986 0.725099453598258 0.732275575651270 ]
;
Eigenvalues_1=
[ -1.00000000000000e-15 0 0 0 0 0 0 0 0 0 0 0 0 0 0 0 1.16510000000000e-11 1.19000000000000e-11 1.01205000000000e-10 2.08303000000000e-10 3.43516000000000e-10 4.48568000000000e-10 9.48009000000000e-10 2.58977900000000e-09 2.61607200000000e-09 1.16608930000000e-07 4.25843142000000e-07 7.92995617000000e-07 1.38785799500000e-06 0.000369104611411000 0.000380379143297000 0.000380476477739000 0.000391401112301000 0.201593772831937 0.202267401944077 0.202380273663071 0.203062925161439 0.223877058587041 0.245776902289640 0.245854180474715 0.270886004805069 0.302352908609831 0.311911568982091 0.311912984253632 0.317191096703810 0.345045982385280 0.365332746329097 0.365332782368742 0.401438074273063 0.414862302106327 0.425696491213340 0.425711627298862 0.426078954596728 0.427992154521840 0.441690916818181 0.441691221547534 0.450837974564918 ]
;
Eigenvalues_2=
[ 0 0 0 0 0 0 0 0 0 0 0 0 0 0 0 0 0 0 0 0 0 0 0 0 0 0 0 0 0 0 0 0 0 0 0 0 0 0 0 0 0 0 0 0 0 0 0 0 0 0 0 0 0 0 0 0 0 0 0 0 0 0 0 0 1.32000000000000e-13 1.39000000000000e-13 3.66000000000000e-13 5.55000000000000e-13 2.39700000000000e-12 2.90000000000000e-12 1.09910000000000e-11 1.43170000000000e-11 1.60480000000000e-11 2.45756000000000e-10 2.56079000000000e-10 2.76029000000000e-10 5.18277000000000e-10 5.25279000000000e-10 1.63483600000000e-09 2.88465700000000e-09 4.25786000000000e-09 1.55075360000000e-08 3.34863130000000e-08 3.47420690000000e-08 4.50472920000000e-08 4.76104769100000e-06 5.08150755600000e-06 5.09326329200000e-06 5.38913131700000e-06 0.000166016223766000 0.000173021719774000 0.000173845168340000 0.000183697723465000 0.000221245502174000 0.000238231968500000 0.000239008297585000 0.000252340305186000 0.000430822559657000 0.000441520961417000 0.000442088860036000 0.000450994569663000 0.00486190970876700 0.00493205127551000 0.00493251089905600 0.00500293930465900 0.138310575772555 0.138718676802720 0.138730288693238 0.139188230612118 0.169781993623819 0.170460718089992 0.170465349344666 0.175267623025147 0.175965688665484 0.177376019220093 0.177395755338665 0.179436721202571 0.182912118152304 0.198032818144599 0.198032861731717 0.213326838341988 0.213368562786728 0.213511283010394 0.213514867353686 0.213655294808031 0.218644436605591 0.227963189268172 0.227963720761180 0.228820947821565 0.228888001820404 0.229104034978319 0.229128833004629 0.232267962493114 0.233260892921316 0.233423618967240 0.233430819449870 0.235595769194021 0.236792903093901 0.239866948890536 0.239866955006033 0.241465944917957 0.242715037038588 0.243283035035505 0.243283048176004 0.243567002651276 ]
;
Eigenvalues_3=
[ -1.00000000000000e-15 0 0 0 0 0 0 0 0 0 0 0 0 0 0 0 0 0 0 0 0 0 0 0 0 0 0 0 0 0 0 0 0 0 0 0 0 0 0 0 0 0 0 0 0 0 0 0 0 0 0 0 0 0 0 0 0 0 0 0 0 0 0 0 0 0 0 0 0 0 0 0 0 0 0 0 0 0 0 0 0 0 0 0 0 0 0 0 0 0 0 0 0 0 0 0 0 0 0 0 0 0 0 0 0 0 0 0 0 0 0 0 0 0 0 0 0 0 0 0 0 0 0 0 0 0 0 0 0 0 0 0 0 0 0 0 0 0 0 0 0 0 0 0 0 0 0 0 0 0 0 0 0 0 0 0 0 0 0 0 0 0 0 0 0 0 0 0 0 0 0 0 0 0 0 0 0 0 0 0 0 0 0 0 0 0 0 0 0 0 0 0 0 0 0 0 0 0 0 0 0 0 0 0 0 1.00000000000000e-15 1.00000000000000e-15 1.00000000000000e-15 1.00000000000000e-15 1.00000000000000e-15 2.00000000000000e-15 2.00000000000000e-15 3.00000000000000e-15 1.10000000000000e-14 1.20000000000000e-14 1.30000000000000e-14 1.30000000000000e-14 3.20000000000000e-14 3.90000000000000e-14 8.40000000000000e-14 4.32000000000000e-13 4.33000000000000e-13 7.40000000000000e-13 2.68300000000000e-12 2.68400000000000e-12 4.66600000000000e-12 4.80100000000000e-12 5.07300000000000e-12 6.68500000000000e-12 6.71500000000000e-12 1.58930000000000e-11 1.58940000000000e-11 5.24970000000000e-11 5.25190000000000e-11 5.29870000000000e-11 9.74300000000000e-11 9.87600000000000e-11 1.17905000000000e-10 1.23324000000000e-10 1.33109000000000e-10 4.56466000000000e-10 6.77922000000000e-10 6.86870000000000e-10 7.89998000000000e-10 2.82668600000000e-09 3.52738900000000e-09 3.61265200000000e-09 3.95310900000000e-09 4.02607760000000e-08 4.04874210000000e-08 4.08894990000000e-08 4.10996060000000e-08 7.85289161000000e-07 8.62872763000000e-07 8.82316841000000e-07 9.70074547000000e-07 1.86817050800000e-06 2.09368966500000e-06 2.09922743600000e-06 2.31747172700000e-06 3.80828010900000e-06 3.93103992700000e-06 4.03436959600000e-06 4.14897096700000e-06 2.88921780480000e-05 2.95872913190000e-05 2.95989155060000e-05 3.02858235360000e-05 0.000118519907153000 0.000121011434629000 0.000123930221363000 0.000126863254896000 0.000138419085239000 0.000143728222171000 0.000146676706299000 0.000151289926206000 0.000247179668799000 0.000250833418323000 0.000250883052263000 0.000254608488990000 0.00119393168694100 0.00121472931343000 0.00121547883440500 0.00123566673981600 0.00181095639882400 0.00181432297512300 0.00187114586227700 0.00187161734436600 0.00206626645744900 0.00208348157932900 0.00213822600262900 0.00215900797518000 0.00534898730671000 0.00541280522677400 0.00541280592865600 0.00547679894718800 0.0221819841581170 0.0223984454888820 0.0223984560191540 0.0226149639002570 0.0893277605583390 0.0894071161508520 0.0894086594583630 0.0894962034910170 0.0902911439028510 0.0904632395558080 0.0904639823900850 0.0906385096983000 0.0933813407839650 0.0934494580492180 0.0934497505046190 0.0935170630306510 0.107906316906307 0.107984900598026 0.107987790884598 0.108061023929298 0.108109247276401 0.109108102448978 0.109108262301220 0.110413055123107 0.113699425400531 0.113749726161034 0.113750067775581 0.113800831312065 0.114539113897120 0.115820800728579 0.115820803362750 0.117006010708568 0.118086603720881 0.118113823956737 0.118114790100362 0.118142196470135 0.119255674724369 0.119877260728934 0.119877768829280 0.120031630008158 0.120125493192829 0.120231909406595 0.120233386466558 0.120627138874460 0.120856393292259 0.120884363699326 0.120886789689562 0.121161316555118 0.121353283258172 0.121506288553351 0.121519887125832 0.121528584943863 0.121546764309378 0.121954268685984 0.121954275091918 0.122348946975343 0.122628499290457 0.122641462295679 0.122641527224432 0.122654536626723 0.122674400783504 0.122909131321778 0.122909135279102 0.123068560979869 0.123315972418229 0.123379830230394 0.123379840858149 0.123419891213705 0.123978749868465 0.123980646760806 0.123980873550102 0.123982724333110 0.124331651046319 0.124331710951771 0.124332265712218 0.124332324972947 ]
;
