<?xml version="1.0"?>
<VTKFile type="UnstructuredGrid" byte_order="LittleEndian">
	<UnstructuredGrid>
		<Piece NumberOfPoints="64" NumberOfCells="16">
			<Points>
				<DataArray type="Float64" NumberOfComponents="3" format="ascii">
					1.000000000000000e+00 -1.000000000000000e+00 0.000000000000000e+00
					1.375000000000000e+00 -5.000000000000000e-01 0.000000000000000e+00
					8.338955762008279e-01 -8.338955762008279e-01 0.000000000000000e+00
					1.046184735125518e+00 -4.169477881004139e-01 0.000000000000000e+00
					1.375000000000000e+00 -5.000000000000000e-01 0.000000000000000e+00
					1.500000000000000e+00 5.551115123125783e-17 0.000000000000000e+00
					1.046184735125518e+00 -4.169477881004139e-01 0.000000000000000e+00
					1.116947788100414e+00 4.857225732735060e-17 0.000000000000000e+00
					1.500000000000000e+00 5.551115123125783e-17 0.000000000000000e+00
					1.375000000000000e+00 5.000000000000000e-01 0.000000000000000e+00
					1.116947788100414e+00 4.857225732735060e-17 0.000000000000000e+00
					1.046184735125518e+00 4.169477881004139e-01 0.000000000000000e+00
					1.375000000000000e+00 5.000000000000000e-01 0.000000000000000e+00
					1.000000000000000e+00 1.000000000000000e+00 0.000000000000000e+00
					1.046184735125518e+00 4.169477881004139e-01 0.000000000000000e+00
					8.338955762008279e-01 8.338955762008279e-01 0.000000000000000e+00
					8.338955762008279e-01 -8.338955762008279e-01 0.000000000000000e+00
					1.046184735125518e+00 -4.169477881004139e-01 0.000000000000000e+00
					6.951941016011038e-01 -6.951941016011038e-01 0.000000000000000e+00
					7.907463135006899e-01 -3.475970508005519e-01 0.000000000000000e+00
					1.046184735125518e+00 -4.169477881004139e-01 0.000000000000000e+00
					1.116947788100414e+00 4.857225732735060e-17 0.000000000000000e+00
					7.907463135006899e-01 -3.475970508005519e-01 0.000000000000000e+00
					8.225970508005520e-01 4.163336342344337e-17 0.000000000000000e+00
					1.116947788100414e+00 4.857225732735060e-17 0.000000000000000e+00
					1.046184735125518e+00 4.169477881004139e-01 0.000000000000000e+00
					8.225970508005520e-01 4.163336342344337e-17 0.000000000000000e+00
					7.907463135006899e-01 3.475970508005519e-01 0.000000000000000e+00
					1.046184735125518e+00 4.169477881004139e-01 0.000000000000000e+00
					8.338955762008279e-01 8.338955762008279e-01 0.000000000000000e+00
					7.907463135006899e-01 3.475970508005519e-01 0.000000000000000e+00
					6.951941016011038e-01 6.951941016011038e-01 0.000000000000000e+00
					6.951941016011038e-01 -6.951941016011038e-01 0.000000000000000e+00
					7.907463135006899e-01 -3.475970508005519e-01 0.000000000000000e+00
					5.838955762008279e-01 -5.838955762008279e-01 0.000000000000000e+00
					6.086847351255174e-01 -2.919477881004139e-01 0.000000000000000e+00
					7.907463135006899e-01 -3.475970508005519e-01 0.000000000000000e+00
					8.225970508005520e-01 4.163336342344337e-17 0.000000000000000e+00
					6.086847351255174e-01 -2.919477881004139e-01 0.000000000000000e+00
					6.169477881004140e-01 3.469446951953614e-17 0.000000000000000e+00
					8.225970508005520e-01 4.163336342344337e-17 0.000000000000000e+00
					7.907463135006899e-01 3.475970508005519e-01 0.000000000000000e+00
					6.169477881004140e-01 3.469446951953614e-17 0.000000000000000e+00
					6.086847351255174e-01 2.919477881004139e-01 0.000000000000000e+00
					7.907463135006899e-01 3.475970508005519e-01 0.000000000000000e+00
					6.951941016011038e-01 6.951941016011038e-01 0.000000000000000e+00
					6.086847351255174e-01 2.919477881004139e-01 0.000000000000000e+00
					5.838955762008279e-01 5.838955762008279e-01 0.000000000000000e+00
					5.838955762008279e-01 -5.838955762008279e-01 0.000000000000000e+00
					6.086847351255174e-01 -2.919477881004139e-01 0.000000000000000e+00
					5.000000000000000e-01 -5.000000000000000e-01 0.000000000000000e+00
					5.000000000000000e-01 -2.500000000000000e-01 0.000000000000000e+00
					6.086847351255174e-01 -2.919477881004139e-01 0.000000000000000e+00
					6.169477881004140e-01 3.469446951953614e-17 0.000000000000000e+00
					5.000000000000000e-01 -2.500000000000000e-01 0.000000000000000e+00
					5.000000000000000e-01 2.775557561562891e-17 0.000000000000000e+00
					6.169477881004140e-01 3.469446951953614e-17 0.000000000000000e+00
					6.086847351255174e-01 2.919477881004139e-01 0.000000000000000e+00
					5.000000000000000e-01 2.775557561562891e-17 0.000000000000000e+00
					5.000000000000000e-01 2.500000000000000e-01 0.000000000000000e+00
					6.086847351255174e-01 2.919477881004139e-01 0.000000000000000e+00
					5.838955762008279e-01 5.838955762008279e-01 0.000000000000000e+00
					5.000000000000000e-01 2.500000000000000e-01 0.000000000000000e+00
					5.000000000000000e-01 5.000000000000000e-01 0.000000000000000e+00
				</DataArray>
			</Points>
			<Cells>
				<DataArray Name="connectivity" type="UInt32" format="ascii">
					0 1 3 2 4 5 7 6 8 9 11 10 12 13 15 14 16 17 19 18 20 21 23 22 24 25 27 26 28 29 31 30 32 33 35 34 36 37 39 38 40 41 43 42 44 45 47 46 48 49 51 50 52 53 55 54 56 57 59 58 60 61 63 62 
				</DataArray>
				<DataArray Name="offsets" type="UInt32" format="ascii">
					4 8 12 16 20 24 28 32 36 40 44 48 52 56 60 64 
				</DataArray>
				<DataArray Name="types" type="UInt8" format="ascii">
					9 9 9 9 9 9 9 9 9 9 9 9 9 9 9 9 
				</DataArray>
			</Cells>
			<PointData Vectors="solution ">
				<DataArray Name="solution" type="Float64" NumberOfComponents="1" format="ascii">
					0.000000000000000e+00 0.000000000000000e+00 1.908384287772902e-01 6.289253752077211e-01 0.000000000000000e+00 0.000000000000000e+00 6.289253752077211e-01 1.970984568711853e+00 0.000000000000000e+00 0.000000000000000e+00 1.970984568711853e+00 3.170094747891204e+00 0.000000000000000e+00 0.000000000000000e+00 3.170094747891204e+00 3.607334919433793e+00 1.908384287772902e-01 6.289253752077211e-01 9.071207170202401e-01 3.956311845484905e+00 6.289253752077211e-01 1.970984568711853e+00 3.956311845484905e+00 1.059606676573459e+01 1.970984568711853e+00 3.170094747891204e+00 1.059606676573459e+01 1.577444185337250e+01 3.170094747891204e+00 3.607334919433793e+00 1.577444185337250e+01 1.286980847103359e+01 9.071207170202401e-01 3.956311845484905e+00 2.384806276938990e+00 8.573505425441704e+00 3.956311845484905e+00 1.059606676573459e+01 8.573505425441704e+00 1.937475441137083e+01 1.059606676573459e+01 1.577444185337250e+01 1.937475441137083e+01 2.770231984715784e+01 1.577444185337250e+01 1.286980847103359e+01 2.770231984715784e+01 2.401286333982842e+01 2.384806276938990e+00 8.573505425441704e+00 4.380472978556219e+00 1.222862510570412e+01 8.573505425441704e+00 1.937475441137083e+01 1.222862510570412e+01 2.367015909908958e+01 1.937475441137083e+01 2.770231984715784e+01 2.367015909908958e+01 3.328990930936328e+01 2.770231984715784e+01 2.401286333982842e+01 3.328990930936328e+01 3.275773944100909e+01 
				</DataArray>
			</PointData>
			<CellData>
			</CellData>
		</Piece>
	</UnstructuredGrid>
</VTKFile>