Eigenvalues_0=
[ 0 5.86032000000000e-10 1.91349600000000e-09 1.91349700000000e-09 4.28184400000000e-09 5.59721850000000e-08 5.59721850000000e-08 1.37358411000000e-07 8.49269029000000e-07 1.05069211500000e-06 1.05069211600000e-06 1.30607313800000e-06 0.240368650267839 0.266127989702890 0.266127989702891 0.268787850974701 0.294650024479160 0.337462319346160 0.337462319346160 0.413839501139774 0.632279613932334 0.637387073754345 0.644736248148902 0.644736248148902 0.719251565485451 0.724900411716400 0.724900411716400 0.731949619929132 ]
;
Eigenvalues_1=
[ -3.00000000000000e-15 -1.00000000000000e-15 0 0 0 0 0 0 0 0 0 0 0 0 1.07819000000000e-10 1.07819000000000e-10 1.32299000000000e-10 2.11739000000000e-10 2.13096000000000e-10 2.13096000000000e-10 6.76599000000000e-10 9.46575630000000e-08 1.01267104000000e-07 1.01267104000000e-07 1.16838626000000e-07 4.43028274000000e-07 1.02164266500000e-06 1.02164266500000e-06 1.46727492900000e-06 0.000368548534821000 0.000370037280116000 0.000370037280116000 0.000371609811898000 0.201568876197547 0.201612733548123 0.201710988690138 0.201710988690138 0.222901996942392 0.244927335950211 0.244927335950211 0.270160935943088 0.301975352175474 0.311535215062217 0.311535215062217 0.316805202661627 0.345371721261632 0.365486042477073 0.365486042477074 0.401301905213412 0.414974537143104 0.425616324429323 0.425616324429323 0.425962001868330 0.427872914472610 0.441657139219899 0.441657139219899 0.450812412419782 ]
;
Eigenvalues_2=
[ -1.00000000000000e-15 0 0 0 0 0 0 0 0 0 0 0 0 0 0 0 0 0 0 0 0 0 0 0 0 0 0 0 0 0 0 0 0 0 0 0 0 0 0 0 0 0 0 0 0 0 0 0 0 0 0 0 0 0 0 0 0 0 0 0 0 0 1.11900000000000e-12 1.12100000000000e-12 1.17200000000000e-12 2.63300000000000e-12 2.63700000000000e-12 3.09400000000000e-12 1.06340000000000e-11 2.14252000000000e-10 2.45075000000000e-10 2.45075000000000e-10 2.70022000000000e-10 1.56289400000000e-09 2.83602600000000e-09 2.83602600000000e-09 3.98176500000000e-09 1.39886210000000e-08 1.43211450000000e-08 1.43211450000000e-08 1.50891320000000e-08 3.65583850000000e-08 4.04337390000000e-08 4.04337390000000e-08 4.44573300000000e-08 4.64526716300000e-06 4.88326548100000e-06 4.88326548200000e-06 5.11856674500000e-06 0.000164052901687000 0.000169464748608000 0.000169464748612000 0.000178214695857000 0.000219542476153000 0.000236843315100000 0.000236843315101000 0.000251017781867000 0.000427563402237000 0.000437729681761000 0.000437729681762000 0.000447039633424000 0.00485605102090300 0.00486810981276500 0.00486810981276500 0.00488129447456400 0.138164336465848 0.138427693876235 0.138427693876236 0.138761583831553 0.169847889237884 0.170471539135901 0.170471539135902 0.175034501236104 0.175815555988756 0.177262331405461 0.177262331405462 0.179627978435026 0.182853730762626 0.198043226716257 0.198043226716257 0.213331593390615 0.213337931846887 0.213392529218066 0.213392529218067 0.213443506100482 0.218624003229119 0.227945739237288 0.227945739237288 0.228758601641033 0.228820956423186 0.229031603081043 0.229031603081043 0.232227207890351 0.233223060758122 0.233383035685147 0.233383035685147 0.235582031855348 0.236793778596433 0.239866405763241 0.239866405763241 0.241464864629813 0.242716840781292 0.243284118549933 0.243284118549933 0.243568015547905 ]
;
Eigenvalues_3=
[ 0 0 0 0 0 0 0 0 0 0 0 0 0 0 0 0 0 0 0 0 0 0 0 0 0 0 0 0 0 0 0 0 0 0 0 0 0 0 0 0 0 0 0 0 0 0 0 0 0 0 0 0 0 0 0 0 0 0 0 0 0 0 0 0 0 0 0 0 0 0 0 0 0 0 0 0 0 0 0 0 0 0 0 0 0 0 0 0 0 0 0 0 0 0 0 0 0 0 0 0 0 0 0 0 0 0 0 0 0 0 0 0 0 0 0 0 0 0 0 0 0 0 0 0 0 0 0 0 0 0 0 0 0 0 0 0 0 0 0 0 0 0 0 0 0 0 0 0 0 0 0 0 0 0 0 0 0 0 0 0 0 0 0 0 0 0 0 0 0 0 0 0 0 0 0 0 0 0 0 0 0 0 0 0 0 0 0 0 0 0 0 0 0 0 0 0 0 0 0 0 0 0 0 0 0 2.00000000000000e-15 2.00000000000000e-15 3.00000000000000e-15 4.00000000000000e-15 4.00000000000000e-15 4.00000000000000e-15 5.00000000000000e-15 6.00000000000000e-15 7.00000000000000e-15 1.40000000000000e-14 5.70000000000000e-14 2.98000000000000e-13 6.71000000000000e-13 6.71000000000000e-13 9.64000000000000e-13 4.37100000000000e-12 4.58400000000000e-12 4.58400000000000e-12 4.79100000000000e-12 4.70050000000000e-11 4.89570000000000e-11 4.89570000000000e-11 5.24090000000000e-11 1.09888000000000e-10 1.20021000000000e-10 1.20021000000000e-10 1.27081000000000e-10 4.17918000000000e-10 4.21179000000000e-10 4.21180000000000e-10 4.28759000000000e-10 6.79326000000000e-10 7.18378000000000e-10 7.18378000000000e-10 7.61612000000000e-10 2.44218400000000e-09 2.60151400000000e-09 2.60151400000000e-09 2.79263000000000e-09 3.23468000000000e-09 3.60604700000000e-09 3.60604800000000e-09 3.94552900000000e-09 4.00348620000000e-08 4.04257350000000e-08 4.04257390000000e-08 4.07835980000000e-08 7.66338026000000e-07 8.42709833000000e-07 8.Eigenvalues_3=
[ -1.00000000000000e-15 0 0 0 0 0 0 0 0 0 0 0 0 0 0 0 0 0 0 0 0 0 0 0 0 0 0 0 0 0 0 0 0 0 0 0 0 0 0 0 0 0 0 0 0 0 0 0 0 0 0 0 0 0 0 0 0 0 0 0 0 0 0 0 0 0 0 0 0 0 0 0 0 0 0 0 0 0 0 0 0 0 0 0 0 0 0 0 0 0 0 0 0 0 0 0 0 0 0 0 0 0 0 0 0 0 0 0 0 0 0 0 0 0 0 0 0 0 0 0 0 0 0 0 0 0 0 0 0 0 0 0 0 0 0 0 0 0 0 0 0 0 0 0 0 0 0 0 0 0 0 0 0 0 0 0 0 0 0 0 0 0 0 0 0 0 0 0 0 0 0 0 0 0 0 0 0 0 0 0 0 0 0 0 0 0 0 0 0 0 0 0 0 0 0 0 0 0 0 0 0 0 0 0 0 0 0 0 0 0 0 0 0 0 0 0 0 0 0 0 0 0 0 0 0 0 0 0 0 0 0 0 0 0 0 0 0 0 0 0 0 0 0 0 0 0 0 0 0 0 0 0 0 0 0 0 0 0 0 0 0 0 0 0 0 0 0 0 0 0 0 0 0 0 0 0 0 0 0 0 0 0 0 0 0 0 0 0 0 0 0 0 0 0 0 0 0 0 0 0 0 0 0 0 0 0 0 0 0 0 0 0 0 0 0 0 0 0 0 0 0 0 0 0 0 0 0 0 0 0 0 0 0 0 0 0 0 0 0 0 0 0 0 0 0 0 0 0 0 0 0 0 0 0 0 0 0 0 0 0 0 0 0 0 0 0 0 0 0 0 0 0 0 0 0 0 0 0 0 0 0 0 0 0 0 0 0 0 0 0 0 0 0 0 0 0 0 0 0 0 0 0 0 0 0 0 0 0 0 0 0 0 0 0 0 0 0 0 0 0 0 0 0 0 0 0 0 0 0 0 0 0 0 0 0 0 0 0 0 0 0 0 0 0 0 0 0 0 0 0 0 0 0 0 0 0 0 0 0 0 0 0 0 0 0 0 0 0 0 0 0 0 0 0 0 0 0 0 0 0 0 0 0 0 0 0 0 0 0 0 0 0 0 0 0 0 0 0 0 0 0 0 0 0 0 0 0 0 0 0 0 0 0 0 0 0 0 1.00000000000000e-15 2.00000000000000e-15 8.00000000000000e-15 1.20000000000000e-14 2.90000000000000e-14 3.20000000000000e-14 3.30000000000000e-14 3.21000000000000e-13 3.64000000000000e-13 3.69000000000000e-13 4.78000000000000e-13 5.51000000000000e-13 6.37000000000000e-13 6.43000000000000e-13 6.80000000000000e-13 2.92000000000000e-12 3.09100000000000e-12 3.09800000000000e-12 3.25200000000000e-12 8.02300000000000e-12 8.38300000000000e-12 8.39500000000000e-12 8.83300000000000e-12 1.02790000000000e-11 1.04950000000000e-11 1.05410000000000e-11 1.07010000000000e-11 2.48000000000000e-11 2.48560000000000e-11 2.48640000000000e-11 2.49450000000000e-11 1.13703000000000e-10 1.14364000000000e-10 1.14366000000000e-10 1.14988000000000e-10 4.05799000000000e-10 4.17776000000000e-10 4.17777000000000e-10 4.29992000000000e-10 7.61193000000000e-10 7.64371000000000e-10 7.64371000000000e-10 7.67577000000000e-10 1.74090900000000e-09 1.75255100000000e-09 1.75255100000000e-09 1.77853000000000e-09 1.81262100000000e-09 1.85253400000000e-09 1.85253400000000e-09 1.87790800000000e-09 4.84053400000000e-09 4.84245600000000e-09 4.84245600000000e-09 4.84439700000000e-09 4.87089500000000e-09 4.87124900000000e-09 4.87124900000000e-09 4.87159100000000e-09 9.02451400000000e-09 9.02685000000000e-09 9.02685000000000e-09 9.02918400000000e-09 2.14453310000000e-08 2.14464790000000e-08 2.14464810000000e-08 2.14476320000000e-08 0.000419173335905000 0.000419173364720000 0.000419173364722000 0.000419173393598000 0.000679913483432000 0.000682142291438000 0.000682142291439000 0.000684512520641000 0.000770034546320000 0.000772923805106000 0.000772923805108000 0.000775672006794000 0.00205520645184900 0.00205523299266000 0.00205523299266100 0.00205525954661100 0.00300214901764400 0.00301722862760100 0.00301722862760100 0.00303584198841300 0.00319740553860100 0.00322055462545900 0.00322055462546000 0.00324018748155100 0.00493826885105200 0.00493925942270000 0.00493925942270100 0.00494023940678700 0.00770621892271700 0.00771030669239000 0.00771030669239200 0.00771437490314200 0.0110540463466530 0.0111253231627430 0.0111253231627450 0.0112637466958560 0.0113600808179890 0.0115048566421870 0.0115048566421870 0.0115826289757890 0.0130201756452600 0.0130245711144130 0.0130245711144130 0.0130288356844970 0.0227641261620830 0.0227641556278790 0.0227641556278790 0.0227641850730540 0.0398856897241370 0.0398856926147690 0.0398856926147690 0.0398856955053590 0.0655406240440510 0.0655406240471150 0.0655406240471150 0.0655406240501800 0.0860255338472930 0.0860255338624880 0.0860255338624880 0.0860255338776900 0.0871931546926710 0.0872038831913750 0.0872038831913750 0.0872146773944000 0.0973914198162400 0.0974105017383080 0.0974105017383090 0.0974261398987540 0.0979831528737110 0.0980397771075120 0.0980397771075120 0.0980877484423710 0.0982085366443550 0.0982253727704190 0.0982253727704190 0.0982573984801340 0.106392934374905 0.106743054387173 0.106743054387173 0.106743055706571 0.106743056139497 0.106914736320115 0.106914736320115 0.108193749295533 0.108255763026548 0.109883520767201 0.109883520767201 0.111426240908465 0.111429731939303 0.111429745289223 0.111429745289223 0.111429745391428 0.111788199798856 0.113152331700793 0.113152331700794 0.113152356248519 0.113152358472573 0.113218619579123 0.113218619579124 0.114484316255176 0.114790057839713 0.115313395141081 0.115313395141081 0.115313444397641 0.115313641590457 0.115799331816011 0.115799331816012 0.116048750293307 0.116049970853832 0.116050806560192 0.116050806560193 0.116394950683309 0.117614647751754 0.117884017562352 0.117884017562352 0.117884432628762 0.117884688948511 0.117952876773765 0.117952876773765 0.118211223411560 0.119010006165669 0.119010216069184 0.119010216069184 0.119010609380496 0.119558474486430 0.119659810315867 0.119659810315867 0.119744421955918 0.119898583804604 0.119898614562599 0.119898614562599 0.119898672014688 0.120462709243054 0.120501221231985 0.120501221231985 0.120567642592670 0.120774437109822 0.120828026050269 0.120828026050269 0.120837610759369 0.120863010648091 0.120903338351681 0.120903338351681 0.120961567184343 0.121227054081200 0.121227156409647 0.121227156409647 0.121227297555016 0.121959465290177 0.121999425621823 0.121999425621823 0.122066488277004 0.122098455089643 0.122099112033445 0.122099112033446 0.122099124466357 0.122105839615906 0.122159588559396 0.122159588559396 0.122185950933802 0.122978086857553 0.122979113878511 0.122979113878511 0.122980136676680 0.123322743034260 0.123323062153403 0.123323062153403 0.123323380476573 0.123575603386964 0.123575686039406 0.123575686039406 0.123575768617806 0.123740316484906 0.123740338712759 0.123740338712760 0.123740360932433 0.123832354782885 0.123832359389429 0.123832359389429 0.123832363994863 ]
;
694409081 0.229963810084473 0.235118025090860 0.235118025090861 0.235297195419184 0.235521925857035 0.236629395681237 0.236629395681237 0.237867398607499 0.238251145711624 0.238449495493924 0.238449495493925 0.240371610655641 0.241463350735758 0.243104842817796 0.243104842817797 0.244004405170727 0.244894993171078 0.245202786293165 0.245202786293165 0.245368299361554 ]
;
Eigenvalues_3=
[ -1.00000000000000e-15 -1.00000000000000e-15 0 0 0 0 0 0 0 0 0 0 0 0 0 0 0 0 0 0 0 0 0 0 0 0 0 0 0 0 0 0 0 0 0 0 0 0 0 0 0 0 0 0 0 0 0 0 0 0 0 0 0 0 0 0 0 0 0 0 0 0 0 0 0 0 0 0 0 0 0 0 0 0 0 0 0 0 0 0 0 0 0 0 0 0 0 0 0 0 0 0 0 0 0 0 0 0 0 0 0 0 0 0 0 0 0 0 0 0 0 0 0 0 0 0 0 0 0 0 0 0 0 0 0 0 0 0 0 0 0 0 0 0 0 0 0 0 0 0 0 0 0 0 0 0 0 0 0 0 0 0 0 0 0 0 0 0 0 0 0 0 0 0 0 0 0 0 0 0 0 0 0 0 0 0 0 0 0 0 0 0 0 0 0 0 0 0 0 0 0 0 0 0 0 0 0 0 0 0 0 0 0 0 0 0 0 0 0 0 0 0 0 0 0 0 0 0 0 0 0 0 0 0 0 0 0 0 0 0 0 0 0 0 0 0 0 0 0 0 0 0 0 0 0 0 0 0 0 0 0 0 0 0 0 0 0 0 0 0 0 0 0 0 0 0 0 0 0 0 0 0 0 0 0 0 0 0 0 0 0 0 0 0 0 0 0 0 0 0 0 0 0 0 0 0 0 0 0 0 0 0 0 0 0 0 0 0 0 0 0 0 0 0 0 0 1.00000000000000e-15 1.00000000000000e-15 1.00000000000000e-15 1.00000000000000e-15 1.00000000000000e-15 2.00000000000000e-15 2.00000000000000e-15 4.00000000000000e-15 7.00000000000000e-15 7.00000000000000e-15 8.00000000000000e-15 1.10000000000000e-14 1.10000000000000e-14 1.70000000000000e-14 1.80000000000000e-14 2.20000000000000e-14 1.83000000000000e-13 2.04000000000000e-13 2.04000000000000e-13 2.16000000000000e-13 8.23000000000000e-13 1.07200000000000e-12 1.07300000000000e-12 1.35400000000000e-12 1.29010000000000e-11 1.45140000000000e-11 1.45150000000000e-11 1.68960000000000e-11 2.80220000000000e-11 3.25920000000000e-11 3.25930000000000e-11 3.64090000000000e-11 1.57622000000000e-10 1.63018000000000e-10 1.63018000000000e-10 1.68706000000000e-10 3.02438000000000e-10 3.06641000000000e-10 3.06642000000000e-10 3.11513000000000e-10 1.79291600000000e-09 1.90393400000000e-09 1.90393400000000e-09 2.02122500000000e-09 3.18238200000000e-09 3.32281600000000e-09 3.32281700000000e-09 3.46631500000000e-09 1.06201500000000e-08 1.07632690000000e-08 1.07632700000000e-08 1.08985410000000e-08 1.59472244000000e-07 1.66286220000000e-07 1.66286220000000e-07 1.74126159000000e-07 3.66075591000000e-07 4.01697579000000e-07 4.01697581000000e-07 4.53975296000000e-07 5.55485184000000e-07 6.07099548000000e-07 6.07099568000000e-07 6.41175561000000e-07 6.23310145000000e-06 6.29412739600000e-06 6.29412740800000e-06 6.35683331100000e-06 2.72689033260000e-05 2.74012745830000e-05 2.74012745840000e-05 2.75652431680000e-05 3.13550187080000e-05 3.19294896030000e-05 3.19294896060000e-05 3.24713169140000e-05 5.40595276360000e-05 5.41044847700000e-05 5.41044847750000e-05 5.41477516640000e-05 0.000284246859422000 0.000285879718943000 0.000285879718945000 0.000287554580351000 0.000505062541800000 0.000507297374085000 0.000507297374087000 0.000509965218776000 0.000603832385774000 0.000612890354171000 0.000612890354175000 0.000621517493831000 0.00151255878690500 0.00151321954262800 0.00151321954262900 0.00151386565678600 0.00742669007107700 0.00742746013050100 0.00742746013051000 0.00742823837859100 0.0755571137245920 0.0755616784878280 0.0755616784878280 0.0755663575034680 0.0870433186329550 0.0870698972691510 0.0870698972691510 0.0871040027793350 0.0894176593537930 0.0898535872698060 0.0898535872698060 0.0904278563888980 0.0994229296020220 0.100301296017949 0.100301296017949 0.100312186532487 0.100438938427384 0.101753460950721 0.101753460950721 0.105043940242340 0.108017164314339 0.111088777290477 0.111089661357078 0.111089661357079 0.111091556563024 0.111099122452427 0.111099122452428 0.113279407961470 0.116997221985109 0.117010548940077 0.117010548940077 0.117010682902580 0.117177080800753 0.118400801782193 0.118400801782193 0.119616754581503 0.119761445257029 0.119762630864201 0.119762630864202 0.119810166007393 0.120440837769888 0.121249922251738 0.121249922251739 0.121479189113661 0.121533523824940 0.121569988886099 0.121569988886099 0.121977013658117 0.122041589008177 0.122041814306752 0.122041814306752 0.122049541513232 0.122358415691753 0.122701148597031 0.122701148597031 0.122719869746496 0.122729442883999 0.122781277881741 0.122781277881741 0.123027417715360 0.123366354430385 0.123452715117187 0.123452715117187 0.123452750353452 0.123452807364170 0.123504236883317 0.123504236883318 0.123601643924931 0.123859023311847 0.123894015100175 0.123894015100175 0.123919912614304 0.124202866638468 0.124205707265830 0.124205707265831 0.124208389079048 0.124572438601747 0.124572456698442 0.124572456698443 0.124572474780778 ]
;
Eigenvalues_0=
[ 0 0 0 0 0 0 0 0 0 0 0 0 0 0 0 0 0 0 0 0 0 0 0 0 0 0 0 0 0 0 0 0 0 0 0 0 0 0 0 0 0 0 0 0 0 0 0 0 0 0 0 0 2.42031300000000e-09 2.42031300000000e-09 2.45146900000000e-09 2.51512500000000e-09 1.00280357000000e-07 1.13894313000000e-07 1.13894313000000e-07 1.61567102000000e-07 1.86398063000000e-07 2.80843067000000e-07 3.00956100000000e-07 3.00956100000000e-07 0.0412614048869840 0.0463571477169540 0.0463571477169550 0.0488428456913390 0.0594746253549550 0.0672916070305400 0.0672916070305400 0.0827098668711020 0.270120852265526 0.278367651795460 0.278367651795461 0.280179740504264 0.307205444641537 0.360259250121632 0.360259250121632 0.429859263674638 0.475747183213237 0.482904157517880 0.482904157517880 0.484411240406211 0.616321937254521 0.634071838073037 0.634071838073038 0.643028887128374 0.758646696314002 0.762128070789869 0.762128070789869 0.764630275921148 0.794659935134479 0.802359513346326 0.802359513346328 0.810657487250814 ]
;
Eigenvalues_1=
[ -1.00000000000000e-15 0 0 0 0 0 0 0 0 0 0 0 0 0 0 0 0 0 0 0 0 0 0 0 0 0 0 0 0 0 0 0 0 0 0 0 0 0 0 0 0 0 0 0 0 0 0 0 0 0 0 0 0 0 0 0 0 0 0 0 0 0 0 0 0 0 0 0 0 0 0 0 0 0 0 0 0 0 0 0 0 0 0 0 1.00000000000000e-15 3.38630000000000e-11 6.54060000000000e-11 6.54060000000000e-11 7.40890000000000e-11 1.00616900000000e-09 1.05629900000000e-09 1.05630000000000e-09 1.09218400000000e-09 1.24872979000000e-07 1.42137782000000e-07 1.42137783000000e-07 2.21779926000000e-07 5.33164615000000e-07 1.00882410600000e-06 1.00882410700000e-06 1.36213620500000e-06 3.35993093950000e-05 3.36586522680000e-05 3.36586522690000e-05 3.37111651270000e-05 0.0385645241775640 0.0389139888188200 0.0389139888188200 0.0391632131706340 0.0750652195385190 0.0852016067637020 0.0852016067637020 0.0975764419404540 0.206386580676314 0.206466661042582 0.206466661042583 0.206552058105015 0.252803002950931 0.272627462612609 0.272627462612610 0.291464623587749 0.316987563998522 0.321027874476869 0.321027874476870 0.323210934455211 0.357436954437066 0.369032582435394 0.369032582435394 0.390620659149862 0.396358277829775 0.396358277829775 0.396640212995822 0.398209144118453 0.411702080636100 0.435797440667458 0.435797440667458 0.450563962506061 0.454626318027284 0.454787402257000 0.454787402257001 0.458467184772193 0.458663645377963 0.467005143194833 0.467005143194834 0.469738724551835 ]
;
