<?xml version="1.0"?>
<VTKFile type="UnstructuredGrid" byte_order="LittleEndian">
	<UnstructuredGrid>
		<Piece NumberOfPoints="256" NumberOfCells="64">
			<Points>
				<DataArray type="Float64" NumberOfComponents="3" format="ascii">
					-1.000000000000000e+00 -1.000000000000000e+00 0.000000000000000e+00
					-9.135224194504830e-01 -9.135224194504830e-01 0.000000000000000e+00
					-1.218750000000000e+00 -7.500000000000000e-01 0.000000000000000e+00
					-1.081002936052045e+00 -6.851418145878622e-01 0.000000000000000e+00
					-9.135224194504830e-01 -9.135224194504830e-01 0.000000000000000e+00
					-8.338955762008279e-01 -8.338955762008279e-01 0.000000000000000e+00
					-1.081002936052045e+00 -6.851418145878622e-01 0.000000000000000e+00
					-9.569425332320779e-01 -6.254216821506209e-01 0.000000000000000e+00
					-8.338955762008279e-01 -8.338955762008279e-01 0.000000000000000e+00
					-7.611194702510349e-01 -7.611194702510349e-01 0.000000000000000e+00
					-9.569425332320779e-01 -6.254216821506209e-01 0.000000000000000e+00
					-8.465687915400975e-01 -5.708396026882762e-01 0.000000000000000e+00
					-7.611194702510349e-01 -7.611194702510349e-01 0.000000000000000e+00
					-6.951941016011038e-01 -6.951941016011038e-01 0.000000000000000e+00
					-8.465687915400975e-01 -5.708396026882762e-01 0.000000000000000e+00
					-7.498817109761039e-01 -5.213955762008279e-01 0.000000000000000e+00
					-6.951941016011038e-01 -6.951941016011038e-01 0.000000000000000e+00
					-6.361194702510349e-01 -6.361194702510349e-01 0.000000000000000e+00
					-7.498817109761039e-01 -5.213955762008279e-01 0.000000000000000e+00
					-6.668812915400975e-01 -4.770896026882761e-01 0.000000000000000e+00
					-6.361194702510349e-01 -6.361194702510349e-01 0.000000000000000e+00
					-5.838955762008278e-01 -5.838955762008278e-01 0.000000000000000e+00
					-6.668812915400975e-01 -4.770896026882761e-01 0.000000000000000e+00
					-5.975675332320779e-01 -4.379216821506209e-01 0.000000000000000e+00
					-5.838955762008278e-01 -5.838955762008278e-01 0.000000000000000e+00
					-5.385224194504830e-01 -5.385224194504830e-01 0.000000000000000e+00
					-5.975675332320779e-01 -4.379216821506209e-01 0.000000000000000e+00
					-5.419404360520454e-01 -4.038918145878622e-01 0.000000000000000e+00
					-5.385224194504830e-01 -5.385224194504830e-01 0.000000000000000e+00
					-5.000000000000000e-01 -5.000000000000000e-01 0.000000000000000e+00
					-5.419404360520454e-01 -4.038918145878622e-01 0.000000000000000e+00
					-5.000000000000000e-01 -3.750000000000000e-01 0.000000000000000e+00
					-1.218750000000000e+00 -7.500000000000000e-01 0.000000000000000e+00
					-1.081002936052045e+00 -6.851418145878622e-01 0.000000000000000e+00
					-1.375000000000000e+00 -5.000000000000000e-01 0.000000000000000e+00
					-1.200631876481733e+00 -4.567612097252415e-01 0.000000000000000e+00
					-1.081002936052045e+00 -6.851418145878622e-01 0.000000000000000e+00
					-9.569425332320779e-01 -6.254216821506209e-01 0.000000000000000e+00
					-1.200631876481733e+00 -4.567612097252415e-01 0.000000000000000e+00
					-1.044833216825828e+00 -4.169477881004140e-01 0.000000000000000e+00
					-9.569425332320779e-01 -6.254216821506209e-01 0.000000000000000e+00
					-8.465687915400975e-01 -5.708396026882762e-01 0.000000000000000e+00
					-1.044833216825828e+00 -4.169477881004140e-01 0.000000000000000e+00
					-9.076040210322849e-01 -3.805597351255174e-01 0.000000000000000e+00
					-8.465687915400975e-01 -5.708396026882762e-01 0.000000000000000e+00
					-7.498817109761039e-01 -5.213955762008279e-01 0.000000000000000e+00
					-9.076040210322849e-01 -3.805597351255174e-01 0.000000000000000e+00
					-7.889442891011038e-01 -3.475970508005519e-01 0.000000000000000e+00
					-7.498817109761039e-01 -5.213955762008279e-01 0.000000000000000e+00
					-6.668812915400975e-01 -4.770896026882761e-01 0.000000000000000e+00
					-7.889442891011038e-01 -3.475970508005519e-01 0.000000000000000e+00
					-6.888540210322850e-01 -3.180597351255174e-01 0.000000000000000e+00
					-6.668812915400975e-01 -4.770896026882761e-01 0.000000000000000e+00
					-5.975675332320779e-01 -4.379216821506209e-01 0.000000000000000e+00
					-6.888540210322850e-01 -3.180597351255174e-01 0.000000000000000e+00
					-6.073332168258279e-01 -2.919477881004139e-01 0.000000000000000e+00
					-5.975675332320779e-01 -4.379216821506209e-01 0.000000000000000e+00
					-5.419404360520454e-01 -4.038918145878622e-01 0.000000000000000e+00
					-6.073332168258279e-01 -2.919477881004139e-01 0.000000000000000e+00
					-5.443818764817330e-01 -2.692612097252414e-01 0.000000000000000e+00
					-5.419404360520454e-01 -4.038918145878622e-01 0.000000000000000e+00
					-5.000000000000000e-01 -3.750000000000000e-01 0.000000000000000e+00
					-5.443818764817330e-01 -2.692612097252414e-01 0.000000000000000e+00
					-5.000000000000000e-01 -2.500000000000000e-01 0.000000000000000e+00
					-1.375000000000000e+00 -5.000000000000000e-01 0.000000000000000e+00
					-1.200631876481733e+00 -4.567612097252415e-01 0.000000000000000e+00
					-1.468750000000000e+00 -2.500000000000000e-01 0.000000000000000e+00
					-1.272409240739546e+00 -2.283806048626207e-01 0.000000000000000e+00
					-1.200631876481733e+00 -4.567612097252415e-01 0.000000000000000e+00
					-1.044833216825828e+00 -4.169477881004140e-01 0.000000000000000e+00
					-1.272409240739546e+00 -2.283806048626207e-01 0.000000000000000e+00
					-1.097567626982078e+00 -2.084738940502069e-01 0.000000000000000e+00
					-1.044833216825828e+00 -4.169477881004140e-01 0.000000000000000e+00
					-9.076040210322849e-01 -3.805597351255174e-01 0.000000000000000e+00
					-1.097567626982078e+00 -2.084738940502069e-01 0.000000000000000e+00
					-9.442251587275974e-01 -1.902798675627587e-01 0.000000000000000e+00
					-9.076040210322849e-01 -3.805597351255174e-01 0.000000000000000e+00
					-7.889442891011038e-01 -3.475970508005519e-01 0.000000000000000e+00
					-9.442251587275974e-01 -1.902798675627587e-01 0.000000000000000e+00
					-8.123818359761039e-01 -1.737985254002759e-01 0.000000000000000e+00
					-7.889442891011038e-01 -3.475970508005519e-01 0.000000000000000e+00
					-6.888540210322850e-01 -3.180597351255174e-01 0.000000000000000e+00
					-8.123818359761039e-01 -1.737985254002759e-01 0.000000000000000e+00
					-7.020376587275974e-01 -1.590298675627587e-01 0.000000000000000e+00
					-6.888540210322850e-01 -3.180597351255174e-01 0.000000000000000e+00
					-6.073332168258279e-01 -2.919477881004139e-01 0.000000000000000e+00
					-7.020376587275974e-01 -1.590298675627587e-01 0.000000000000000e+00
					-6.131926269820780e-01 -1.459738940502069e-01 0.000000000000000e+00
					-6.073332168258279e-01 -2.919477881004139e-01 0.000000000000000e+00
					-5.443818764817330e-01 -2.692612097252414e-01 0.000000000000000e+00
					-6.131926269820780e-01 -1.459738940502069e-01 0.000000000000000e+00
					-5.458467407395455e-01 -1.346306048626207e-01 0.000000000000000e+00
					-5.443818764817330e-01 -2.692612097252414e-01 0.000000000000000e+00
					-5.000000000000000e-01 -2.500000000000000e-01 0.000000000000000e+00
					-5.458467407395455e-01 -1.346306048626207e-01 0.000000000000000e+00
					-5.000000000000000e-01 -1.250000000000000e-01 0.000000000000000e+00
					-1.468750000000000e+00 -2.500000000000000e-01 0.000000000000000e+00
					-1.272409240739546e+00 -2.283806048626207e-01 0.000000000000000e+00
					-1.500000000000000e+00 0.000000000000000e+00 0.000000000000000e+00
					-1.296335028825483e+00 4.857225732735060e-17 0.000000000000000e+00
					-1.272409240739546e+00 -2.283806048626207e-01 0.000000000000000e+00
					-1.097567626982078e+00 -2.084738940502069e-01 0.000000000000000e+00
					-1.296335028825483e+00 4.857225732735060e-17 0.000000000000000e+00
					-1.115145763700828e+00 3.469446951953614e-17 0.000000000000000e+00
					-1.097567626982078e+00 -2.084738940502069e-01 0.000000000000000e+00
					-9.442251587275974e-01 -1.902798675627587e-01 0.000000000000000e+00
					-1.115145763700828e+00 3.469446951953614e-17 0.000000000000000e+00
					-9.564322046260348e-01 4.163336342344337e-17 0.000000000000000e+00
					-9.442251587275974e-01 -1.902798675627587e-01 0.000000000000000e+00
					-8.123818359761039e-01 -1.737985254002759e-01 0.000000000000000e+00
					-9.564322046260348e-01 4.163336342344337e-17 0.000000000000000e+00
					-8.201943516011039e-01 4.163336342344337e-17 0.000000000000000e+00
					-8.123818359761039e-01 -1.737985254002759e-01 0.000000000000000e+00
					-7.020376587275974e-01 -1.590298675627587e-01 0.000000000000000e+00
					-8.201943516011039e-01 4.163336342344337e-17 0.000000000000000e+00
					-7.064322046260350e-01 3.816391647148976e-17 0.000000000000000e+00
					-7.020376587275974e-01 -1.590298675627587e-01 0.000000000000000e+00
					-6.131926269820780e-01 -1.459738940502069e-01 0.000000000000000e+00
					-7.064322046260350e-01 3.816391647148976e-17 0.000000000000000e+00
					-6.151457637008280e-01 2.428612866367530e-17 0.000000000000000e+00
					-6.131926269820780e-01 -1.459738940502069e-01 0.000000000000000e+00
					-5.458467407395455e-01 -1.346306048626207e-01 0.000000000000000e+00
					-6.151457637008280e-01 2.428612866367530e-17 0.000000000000000e+00
					-5.463350288254830e-01 2.428612866367530e-17 0.000000000000000e+00
					-5.458467407395455e-01 -1.346306048626207e-01 0.000000000000000e+00
					-5.000000000000000e-01 -1.250000000000000e-01 0.000000000000000e+00
					-5.463350288254830e-01 2.428612866367530e-17 0.000000000000000e+00
					-5.000000000000000e-01 0.000000000000000e+00 0.000000000000000e+00
					-1.500000000000000e+00 0.000000000000000e+00 0.000000000000000e+00
					-1.296335028825483e+00 4.857225732735060e-17 0.000000000000000e+00
					-1.468750000000000e+00 2.500000000000000e-01 0.000000000000000e+00
					-1.272409240739545e+00 2.283806048626208e-01 0.000000000000000e+00
					-1.296335028825483e+00 4.857225732735060e-17 0.000000000000000e+00
					-1.115145763700828e+00 3.469446951953614e-17 0.000000000000000e+00
					-1.272409240739545e+00 2.283806048626208e-01 0.000000000000000e+00
					-1.097567626982078e+00 2.084738940502070e-01 0.000000000000000e+00
					-1.115145763700828e+00 3.469446951953614e-17 0.000000000000000e+00
					-9.564322046260348e-01 4.163336342344337e-17 0.000000000000000e+00
					-1.097567626982078e+00 2.084738940502070e-01 0.000000000000000e+00
					-9.442251587275974e-01 1.902798675627588e-01 0.000000000000000e+00
					-9.564322046260348e-01 4.163336342344337e-17 0.000000000000000e+00
					-8.201943516011039e-01 4.163336342344337e-17 0.000000000000000e+00
					-9.442251587275974e-01 1.902798675627588e-01 0.000000000000000e+00
					-8.123818359761039e-01 1.737985254002760e-01 0.000000000000000e+00
					-8.201943516011039e-01 4.163336342344337e-17 0.000000000000000e+00
					-7.064322046260350e-01 3.816391647148976e-17 0.000000000000000e+00
					-8.123818359761039e-01 1.737985254002760e-01 0.000000000000000e+00
					-7.020376587275974e-01 1.590298675627588e-01 0.000000000000000e+00
					-7.064322046260350e-01 3.816391647148976e-17 0.000000000000000e+00
					-6.151457637008280e-01 2.428612866367530e-17 0.000000000000000e+00
					-7.020376587275974e-01 1.590298675627588e-01 0.000000000000000e+00
					-6.131926269820779e-01 1.459738940502070e-01 0.000000000000000e+00
					-6.151457637008280e-01 2.428612866367530e-17 0.000000000000000e+00
					-5.463350288254830e-01 2.428612866367530e-17 0.000000000000000e+00
					-6.131926269820779e-01 1.459738940502070e-01 0.000000000000000e+00
					-5.458467407395453e-01 1.346306048626208e-01 0.000000000000000e+00
					-5.463350288254830e-01 2.428612866367530e-17 0.000000000000000e+00
					-5.000000000000000e-01 0.000000000000000e+00 0.000000000000000e+00
					-5.458467407395453e-01 1.346306048626208e-01 0.000000000000000e+00
					-5.000000000000000e-01 1.250000000000000e-01 0.000000000000000e+00
					-1.468750000000000e+00 2.500000000000000e-01 0.000000000000000e+00
					-1.272409240739545e+00 2.283806048626208e-01 0.000000000000000e+00
					-1.375000000000000e+00 5.000000000000000e-01 0.000000000000000e+00
					-1.200631876481733e+00 4.567612097252415e-01 0.000000000000000e+00
					-1.272409240739545e+00 2.283806048626208e-01 0.000000000000000e+00
					-1.097567626982078e+00 2.084738940502070e-01 0.000000000000000e+00
					-1.200631876481733e+00 4.567612097252415e-01 0.000000000000000e+00
					-1.044833216825828e+00 4.169477881004139e-01 0.000000000000000e+00
					-1.097567626982078e+00 2.084738940502070e-01 0.000000000000000e+00
					-9.442251587275974e-01 1.902798675627588e-01 0.000000000000000e+00
					-1.044833216825828e+00 4.169477881004139e-01 0.000000000000000e+00
					-9.076040210322849e-01 3.805597351255174e-01 0.000000000000000e+00
					-9.442251587275974e-01 1.902798675627588e-01 0.000000000000000e+00
					-8.123818359761039e-01 1.737985254002760e-01 0.000000000000000e+00
					-9.076040210322849e-01 3.805597351255174e-01 0.000000000000000e+00
					-7.889442891011039e-01 3.475970508005520e-01 0.000000000000000e+00
					-8.123818359761039e-01 1.737985254002760e-01 0.000000000000000e+00
					-7.020376587275974e-01 1.590298675627588e-01 0.000000000000000e+00
					-7.889442891011039e-01 3.475970508005520e-01 0.000000000000000e+00
					-6.888540210322849e-01 3.180597351255175e-01 0.000000000000000e+00
					-7.020376587275974e-01 1.590298675627588e-01 0.000000000000000e+00
					-6.131926269820779e-01 1.459738940502070e-01 0.000000000000000e+00
					-6.888540210322849e-01 3.180597351255175e-01 0.000000000000000e+00
					-6.073332168258279e-01 2.919477881004140e-01 0.000000000000000e+00
					-6.131926269820779e-01 1.459738940502070e-01 0.000000000000000e+00
					-5.458467407395453e-01 1.346306048626208e-01 0.000000000000000e+00
					-6.073332168258279e-01 2.919477881004140e-01 0.000000000000000e+00
					-5.443818764817330e-01 2.692612097252415e-01 0.000000000000000e+00
					-5.458467407395453e-01 1.346306048626208e-01 0.000000000000000e+00
					-5.000000000000000e-01 1.250000000000000e-01 0.000000000000000e+00
					-5.443818764817330e-01 2.692612097252415e-01 0.000000000000000e+00
					-5.000000000000000e-01 2.500000000000000e-01 0.000000000000000e+00
					-1.375000000000000e+00 5.000000000000000e-01 0.000000000000000e+00
					-1.200631876481733e+00 4.567612097252415e-01 0.000000000000000e+00
					-1.218750000000000e+00 7.500000000000000e-01 0.000000000000000e+00
					-1.081002936052045e+00 6.851418145878622e-01 0.000000000000000e+00
					-1.200631876481733e+00 4.567612097252415e-01 0.000000000000000e+00
					-1.044833216825828e+00 4.169477881004139e-01 0.000000000000000e+00
					-1.081002936052045e+00 6.851418145878622e-01 0.000000000000000e+00
					-9.569425332320780e-01 6.254216821506209e-01 0.000000000000000e+00
					-1.044833216825828e+00 4.169477881004139e-01 0.000000000000000e+00
					-9.076040210322849e-01 3.805597351255174e-01 0.000000000000000e+00
					-9.569425332320780e-01 6.254216821506209e-01 0.000000000000000e+00
					-8.465687915400975e-01 5.708396026882763e-01 0.000000000000000e+00
					-9.076040210322849e-01 3.805597351255174e-01 0.000000000000000e+00
					-7.889442891011039e-01 3.475970508005520e-01 0.000000000000000e+00
					-8.465687915400975e-01 5.708396026882763e-01 0.000000000000000e+00
					-7.498817109761040e-01 5.213955762008280e-01 0.000000000000000e+00
					-7.889442891011039e-01 3.475970508005520e-01 0.000000000000000e+00
					-6.888540210322849e-01 3.180597351255175e-01 0.000000000000000e+00
					-7.498817109761040e-01 5.213955762008280e-01 0.000000000000000e+00
					-6.668812915400973e-01 4.770896026882762e-01 0.000000000000000e+00
					-6.888540210322849e-01 3.180597351255175e-01 0.000000000000000e+00
					-6.073332168258279e-01 2.919477881004140e-01 0.000000000000000e+00
					-6.668812915400973e-01 4.770896026882762e-01 0.000000000000000e+00
					-5.975675332320779e-01 4.379216821506209e-01 0.000000000000000e+00
					-6.073332168258279e-01 2.919477881004140e-01 0.000000000000000e+00
					-5.443818764817330e-01 2.692612097252415e-01 0.000000000000000e+00
					-5.975675332320779e-01 4.379216821506209e-01 0.000000000000000e+00
					-5.419404360520454e-01 4.038918145878622e-01 0.000000000000000e+00
					-5.443818764817330e-01 2.692612097252415e-01 0.000000000000000e+00
					-5.000000000000000e-01 2.500000000000000e-01 0.000000000000000e+00
					-5.419404360520454e-01 4.038918145878622e-01 0.000000000000000e+00
					-5.000000000000000e-01 3.750000000000000e-01 0.000000000000000e+00
					-1.218750000000000e+00 7.500000000000000e-01 0.000000000000000e+00
					-1.081002936052045e+00 6.851418145878622e-01 0.000000000000000e+00
					-1.000000000000000e+00 1.000000000000000e+00 0.000000000000000e+00
					-9.135224194504830e-01 9.135224194504830e-01 0.000000000000000e+00
					-1.081002936052045e+00 6.851418145878622e-01 0.000000000000000e+00
					-9.569425332320780e-01 6.254216821506209e-01 0.000000000000000e+00
					-9.135224194504830e-01 9.135224194504830e-01 0.000000000000000e+00
					-8.338955762008279e-01 8.338955762008279e-01 0.000000000000000e+00
					-9.569425332320780e-01 6.254216821506209e-01 0.000000000000000e+00
					-8.465687915400975e-01 5.708396026882763e-01 0.000000000000000e+00
					-8.338955762008279e-01 8.338955762008279e-01 0.000000000000000e+00
					-7.611194702510349e-01 7.611194702510349e-01 0.000000000000000e+00
					-8.465687915400975e-01 5.708396026882763e-01 0.000000000000000e+00
					-7.498817109761040e-01 5.213955762008280e-01 0.000000000000000e+00
					-7.611194702510349e-01 7.611194702510349e-01 0.000000000000000e+00
					-6.951941016011038e-01 6.951941016011038e-01 0.000000000000000e+00
					-7.498817109761040e-01 5.213955762008280e-01 0.000000000000000e+00
					-6.668812915400973e-01 4.770896026882762e-01 0.000000000000000e+00
					-6.951941016011038e-01 6.951941016011038e-01 0.000000000000000e+00
					-6.361194702510349e-01 6.361194702510349e-01 0.000000000000000e+00
					-6.668812915400973e-01 4.770896026882762e-01 0.000000000000000e+00
					-5.975675332320779e-01 4.379216821506209e-01 0.000000000000000e+00
					-6.361194702510349e-01 6.361194702510349e-01 0.000000000000000e+00
					-5.838955762008278e-01 5.838955762008278e-01 0.000000000000000e+00
					-5.975675332320779e-01 4.379216821506209e-01 0.000000000000000e+00
					-5.419404360520454e-01 4.038918145878622e-01 0.000000000000000e+00
					-5.838955762008278e-01 5.838955762008278e-01 0.000000000000000e+00
					-5.385224194504830e-01 5.385224194504830e-01 0.000000000000000e+00
					-5.419404360520454e-01 4.038918145878622e-01 0.000000000000000e+00
					-5.000000000000000e-01 3.750000000000000e-01 0.000000000000000e+00
					-5.385224194504830e-01 5.385224194504830e-01 0.000000000000000e+00
					-5.000000000000000e-01 5.000000000000000e-01 0.000000000000000e+00
				</DataArray>
			</Points>
			<Cells>
				<DataArray Name="connectivity" type="UInt32" format="ascii">
					0 1 3 2 4 5 7 6 8 9 11 10 12 13 15 14 16 17 19 18 20 21 23 22 24 25 27 26 28 29 31 30 32 33 35 34 36 37 39 38 40 41 43 42 44 45 47 46 48 49 51 50 52 53 55 54 56 57 59 58 60 61 63 62 64 65 67 66 68 69 71 70 72 73 75 74 76 77 79 78 80 81 83 82 84 85 87 86 88 89 91 90 92 93 95 94 96 97 99 98 100 101 103 102 104 105 107 106 108 109 111 110 112 113 115 114 116 117 119 118 120 121 123 122 124 125 127 126 128 129 131 130 132 133 135 134 136 137 139 138 140 141 143 142 144 145 147 146 148 149 151 150 152 153 155 154 156 157 159 158 160 161 163 162 164 165 167 166 168 169 171 170 172 173 175 174 176 177 179 178 180 181 183 182 184 185 187 186 188 189 191 190 192 193 195 194 196 197 199 198 200 201 203 202 204 205 207 206 208 209 211 210 212 213 215 214 216 217 219 218 220 221 223 222 224 225 227 226 228 229 231 230 232 233 235 234 236 237 239 238 240 241 243 242 244 245 247 246 248 249 251 250 252 253 255 254 
				</DataArray>
				<DataArray Name="offsets" type="UInt32" format="ascii">
					4 8 12 16 20 24 28 32 36 40 44 48 52 56 60 64 68 72 76 80 84 88 92 96 100 104 108 112 116 120 124 128 132 136 140 144 148 152 156 160 164 168 172 176 180 184 188 192 196 200 204 208 212 216 220 224 228 232 236 240 244 248 252 256 
				</DataArray>
				<DataArray Name="types" type="UInt8" format="ascii">
					9 9 9 9 9 9 9 9 9 9 9 9 9 9 9 9 9 9 9 9 9 9 9 9 9 9 9 9 9 9 9 9 9 9 9 9 9 9 9 9 9 9 9 9 9 9 9 9 9 9 9 9 9 9 9 9 9 9 9 9 9 9 9 9 
				</DataArray>
			</Cells>
			<PointData Vectors="solution ">
				<DataArray Name="solution" type="Float64" NumberOfComponents="1" format="ascii">
					0.000000000000000e+00 2.623860033788208e-02 0.000000000000000e+00 3.817336416835172e-02 2.623860033788208e-02 1.066413112493488e-01 3.817336416835173e-02 1.499236797172772e-01 1.066413112493488e-01 2.437384530716064e-01 1.499236797172772e-01 3.567400916491431e-01 2.437384530716065e-01 4.400602975539104e-01 3.567400916491431e-01 6.844647327301725e-01 4.400602975539105e-01 6.981370867194889e-01 6.844647327301726e-01 1.145434724951707e+00 6.981370867194890e-01 1.020499046686257e+00 1.145434724951707e+00 1.736027716790358e+00 1.020499046686257e+00 1.409676394582168e+00 1.736027716790358e+00 2.431397904390626e+00 1.409676394582168e+00 1.868199343243600e+00 2.431397904390626e+00 3.160817138238206e+00 0.000000000000000e+00 3.817336416835173e-02 0.000000000000000e+00 4.200715818196717e-02 3.817336416835173e-02 1.499236797172772e-01 4.200715818196718e-02 1.906971306181689e-01 1.499236797172772e-01 3.567400916491431e-01 1.906971306181689e-01 5.180036723416899e-01 3.567400916491433e-01 6.844647327301725e-01 5.180036723416899e-01 1.091715354485943e+00 6.844647327301726e-01 1.145434724951707e+00 1.091715354485943e+00 1.920044728066414e+00 1.145434724951707e+00 1.736027716790358e+00 1.920044728066415e+00 2.935934850934106e+00 1.736027716790358e+00 2.431397904390626e+00 2.935934850934106e+00 4.003860618127571e+00 2.431397904390626e+00 3.160817138238206e+00 4.003860618127571e+00 4.954230592834913e+00 0.000000000000000e+00 4.200715818196718e-02 0.000000000000000e+00 5.059516745510945e-02 4.200715818196718e-02 1.906971306181689e-01 5.059516745510945e-02 2.589720823918988e-01 1.906971306181689e-01 5.180036723416900e-01 2.589720823918988e-01 7.678681972664465e-01 5.180036723416900e-01 1.091715354485943e+00 7.678681972664466e-01 1.682515555772499e+00 1.091715354485943e+00 1.920044728066415e+00 1.682515555772499e+00 2.968642835804580e+00 1.920044728066415e+00 2.935934850934106e+00 2.968642835804580e+00 4.450090007990760e+00 2.935934850934106e+00 4.003860618127571e+00 4.450090007990761e+00 5.880549818900802e+00 4.003860618127571e+00 4.954230592834914e+00 5.880549818900802e+00 7.032713352304929e+00 0.000000000000000e+00 5.059516745510945e-02 0.000000000000000e+00 6.692828972489108e-02 5.059516745510946e-02 2.589720823918988e-01 6.692828972489108e-02 3.640809331306474e-01 2.589720823918989e-01 7.678681972664466e-01 3.640809331306474e-01 1.098069001636511e+00 7.678681972664466e-01 1.682515555772499e+00 1.098069001636511e+00 2.388013170530594e+00 1.682515555772499e+00 2.968642835804580e+00 2.388013170530594e+00 4.135626220813446e+00 2.968642835804580e+00 4.450090007990761e+00 4.135626220813447e+00 6.063175411621037e+00 4.450090007990762e+00 5.880549818900802e+00 6.063175411621039e+00 7.837317068068759e+00 5.880549818900803e+00 7.032713352304930e+00 7.837317068068759e+00 9.180538928039255e+00 0.000000000000000e+00 6.692828972489108e-02 0.000000000000000e+00 9.836111948516213e-02 6.692828972489109e-02 3.640809331306474e-01 9.836111948516216e-02 5.224510958164910e-01 3.640809331306475e-01 1.098069001636511e+00 5.224510958164910e-01 1.509653716297135e+00 1.098069001636511e+00 2.388013170530594e+00 1.509653716297135e+00 3.151263793466503e+00 2.388013170530594e+00 4.135626220813447e+00 3.151263793466503e+00 5.285935458190869e+00 4.135626220813447e+00 6.063175411621039e+00 5.285935458190870e+00 7.571547378728796e+00 6.063175411621040e+00 7.837317068068760e+00 7.571547378728796e+00 9.631683975747601e+00 7.837317068068760e+00 9.180538928039256e+00 9.631683975747601e+00 1.115822208094843e+01 0.000000000000000e+00 9.836111948516216e-02 0.000000000000000e+00 1.590021045370718e-01 9.836111948516216e-02 5.224510958164910e-01 1.590021045370718e-01 7.639448296844455e-01 5.224510958164911e-01 1.509653716297135e+00 7.639448296844457e-01 1.996512148916069e+00 1.509653716297135e+00 3.151263793466503e+00 1.996512148916069e+00 3.879096918573676e+00 3.151263793466503e+00 5.285935458190870e+00 3.879096918573677e+00 6.223098773886251e+00 5.285935458190870e+00 7.571547378728797e+00 6.223098773886251e+00 8.695840210887194e+00 7.571547378728797e+00 9.631683975747601e+00 8.695840210887194e+00 1.092847489739639e+01 9.631683975747601e+00 1.115822208094843e+01 1.092847489739639e+01 1.263124292915037e+01 0.000000000000000e+00 1.590021045370718e-01 0.000000000000000e+00 2.767206475815075e-01 1.590021045370718e-01 7.639448296844457e-01 2.767206475815076e-01 1.101062208959042e+00 7.639448296844457e-01 1.996512148916069e+00 1.101062208959042e+00 2.498168802396105e+00 1.996512148916069e+00 3.879096918573677e+00 2.498168802396105e+00 4.402845387531367e+00 3.879096918573677e+00 6.223098773886251e+00 4.402845387531367e+00 6.667222905373681e+00 6.223098773886253e+00 8.695840210887194e+00 6.667222905373682e+00 9.076629607850109e+00 8.695840210887196e+00 1.092847489739639e+01 9.076629607850110e+00 1.135966586227391e+01 1.092847489739639e+01 1.263124292915038e+01 1.135966586227391e+01 1.324132271418928e+01 0.000000000000000e+00 2.767206475815075e-01 0.000000000000000e+00 3.293078594133111e-01 2.767206475815076e-01 1.101062208959042e+00 3.293078594133112e-01 1.241824938404112e+00 1.101062208959042e+00 2.498168802396105e+00 1.241824938404112e+00 2.624441533154658e+00 2.498168802396106e+00 4.402845387531367e+00 2.624441533154659e+00 4.364048015137565e+00 4.402845387531368e+00 6.667222905373681e+00 4.364048015137566e+00 6.347534831461147e+00 6.667222905373682e+00 9.076629607850112e+00 6.347534831461147e+00 8.461792489261311e+00 9.076629607850112e+00 1.135966586227391e+01 8.461792489261313e+00 1.059371153600634e+01 1.135966586227391e+01 1.324132271418928e+01 1.059371153600634e+01 1.263018255293665e+01 
				</DataArray>
			</PointData>
			<CellData>
			</CellData>
		</Piece>
	</UnstructuredGrid>
</VTKFile>