1 0
2 0
3 0
4 0
5 0
6 0
7 0
8 0
9 0
10 0
11 0
12 0
13 0
14 0
15 0
16 0
17 0
18 0
19 0
20 0
21 0
22 0
23 0
24 0
25 0
26 0
27 0
28 0
29 0
30 0
31 0
32 0
33 0
34 0
35 0
36 0
37 0
38 0
39 0
40 0
41 0
42 0
43 0
44 0
45 0
46 0
47 0
48 0
49 0
50 0
51 0
52 0
53 0
54 0
55 0
56 0
57 0
58 0
59 0
60 0
61 0
62 0
63 0
64 0
65 0
66 0
67 0
68 0
69 0
70 0
71 0
72 0
73 0
74 0
75 0
76 0
77 0
78 0
79 0
80 0
81 0
82 0
83 0
84 0
85 0
86 0
87 0
88 0
89 0
90 0
91 0
92 0
93 0
94 0
95 0
96 0
97 0
98 0
99 0
100 0
101 0
102 0
103 0
104 0
105 0
106 0
107 0
108 0
109 0
110 0
111 0
112 0
113 0
114 0
115 0
116 0
117 0
118 0
119 0
120 0
121 0
122 0
123 0
124 0
125 0
126 0
127 0
128 0
129 0
130 0
131 0
132 0
133 0
134 0
135 0
136 0
137 0
138 0
139 0
140 0
141 0
142 0
143 0
144 0
145 0
146 0
147 0
148 0
149 0
150 0
151 0
152 0
153 0
154 0
155 0
156 0
157 0
158 0
159 0
160 0
161 0
162 0
163 0
164 0
165 0
166 0
167 0
168 0
169 0
170 0
171 0
172 0
173 0
174 0
175 0
176 0
177 0
178 0
179 0
180 0
181 0
182 0
183 0
184 0
185 0
186 0
187 0
188 0
189 0
190 0
191 0
192 0
193 0
194 0
195 0
196 0
197 0
198 0
199 0
200 0
201 0
202 0
203 0
204 0
205 0
206 0
207 0
208 0
209 0
210 0
211 0
212 0
213 0
214 0
215 0
216 0
217 0
218 0
219 0
220 0
221 0
222 0
223 0
224 0
225 0
226 0
227 0
228 0
229 0
230 0
231 0
232 0
233 0
234 0
235 0
236 0
237 0
238 0
239 0
240 0
241 0
242 0
243 0
244 0
245 0
246 0
247 0
248 0
249 4.004814e-08
250 4.045241e-08
251 4.045241e-08
252 4.082867e-08
253 8.310683e-07
254 8.992202e-07
255 8.992202e-07
256 9.846699e-07
257 1.932001e-06
258 2.141112e-06
259 2.141112e-06
260 2.354643e-06
261 3.951026e-06
262 4.080968e-06
263 4.080968e-06
264 4.190980e-06
265 2.974099e-05
266 3.015070e-05
267 3.015070e-05
268 3.056665e-05
269 1.227494e-04
270 1.248560e-04
271 1.248560e-04
272 1.280489e-04
273 1.429595e-04
274 1.484409e-04
275 1.484409e-04
276 1.528678e-04
277 2.536811e-04
278 2.545209e-04
279 2.545209e-04
280 2.553198e-04
281 1.224975e-03
282 1.233688e-03
283 1.233688e-03
284 1.242773e-03
285 1.871770e-03
286 1.872268e-03
287 1.872268e-03
288 1.872878e-03
289 2.127104e-03
290 2.148125e-03
291 2.148125e-03
292 2.168708e-03
293 5.476451e-03
294 5.476785e-03
295 5.476785e-03
296 5.477118e-03
297 2.261277e-02
298 2.261490e-02
299 2.261490e-02
300 2.261706e-02
301 8.946810e-02
302 8.948945e-02
303 8.948945e-02
304 8.951834e-02
305 9.023411e-02
306 9.038575e-02
307 9.038575e-02
308 9.054375e-02
309 9.350553e-02
310 9.351647e-02
311 9.351647e-02
312 9.352665e-02
313 1.080437e-01
314 1.080685e-01
315 1.080697e-01
316 1.080697e-01
317 1.081223e-01
318 1.091046e-01
319 1.091046e-01
320 1.104079e-01
321 1.138006e-01
322 1.138006e-01
323 1.138009e-01
324 1.138011e-01
325 1.145364e-01
326 1.158177e-01
327 1.158177e-01
328 1.170025e-01
329 1.181402e-01
330 1.181427e-01
331 1.181427e-01
332 1.181430e-01
333 1.192561e-01
334 1.198841e-01
335 1.198841e-01
336 1.200477e-01
337 1.201445e-01
338 1.202451e-01
339 1.202451e-01
340 1.206382e-01
341 1.208705e-01
342 1.208951e-01
343 1.208951e-01
344 1.211660e-01
345 1.213522e-01
346 1.215370e-01
347 1.215370e-01
348 1.215387e-01
349 1.215564e-01
350 1.219539e-01
351 1.219539e-01
352 1.223487e-01
353 1.226545e-01
354 1.226545e-01
355 1.226545e-01
356 1.226546e-01
357 1.226735e-01
358 1.229085e-01
359 1.229085e-01
360 1.230681e-01
361 1.233154e-01
362 1.233793e-01
363 1.233793e-01
364 1.234194e-01
365 1.239784e-01
366 1.239803e-01
367 1.239803e-01
368 1.239821e-01
369 1.243316e-01
370 1.243317e-01
371 1.243317e-01
372 1.243317e-01
