<?xml version="1.0"?>
<VTKFile type="UnstructuredGrid" byte_order="LittleEndian">
	<UnstructuredGrid>
		<Piece NumberOfPoints="256" NumberOfCells="64">
			<Points>
				<DataArray type="Float64" NumberOfComponents="3" format="ascii">
					-1.000000000000000e+00 -1.000000000000000e+00 0.000000000000000e+00
					-7.500000000000000e-01 -1.218750000000000e+00 0.000000000000000e+00
					-9.135224194504830e-01 -9.135224194504830e-01 0.000000000000000e+00
					-6.851418145878622e-01 -1.081462827695690e+00 0.000000000000000e+00
					-7.500000000000000e-01 -1.218750000000000e+00 0.000000000000000e+00
					-5.000000000000000e-01 -1.375000000000000e+00 0.000000000000000e+00
					-6.851418145878622e-01 -1.081462827695690e+00 0.000000000000000e+00
					-4.567612097252415e-01 -1.201420262156552e+00 0.000000000000000e+00
					-5.000000000000000e-01 -1.375000000000000e+00 0.000000000000000e+00
					-2.500000000000000e-01 -1.468750000000000e+00 0.000000000000000e+00
					-4.567612097252415e-01 -1.201420262156552e+00 0.000000000000000e+00
					-2.283806048626207e-01 -1.273394722833069e+00 0.000000000000000e+00
					-2.500000000000000e-01 -1.468750000000000e+00 0.000000000000000e+00
					0.000000000000000e+00 -1.500000000000000e+00 0.000000000000000e+00
					-2.283806048626207e-01 -1.273394722833069e+00 0.000000000000000e+00
					1.040834085586084e-17 -1.297386209725242e+00 0.000000000000000e+00
					0.000000000000000e+00 -1.500000000000000e+00 0.000000000000000e+00
					2.500000000000000e-01 -1.468750000000000e+00 0.000000000000000e+00
					1.040834085586084e-17 -1.297386209725242e+00 0.000000000000000e+00
					2.283806048626208e-01 -1.273394722833069e+00 0.000000000000000e+00
					2.500000000000000e-01 -1.468750000000000e+00 0.000000000000000e+00
					5.000000000000000e-01 -1.375000000000000e+00 0.000000000000000e+00
					2.283806048626208e-01 -1.273394722833069e+00 0.000000000000000e+00
					4.567612097252415e-01 -1.201420262156552e+00 0.000000000000000e+00
					5.000000000000000e-01 -1.375000000000000e+00 0.000000000000000e+00
					7.500000000000000e-01 -1.218750000000000e+00 0.000000000000000e+00
					4.567612097252415e-01 -1.201420262156552e+00 0.000000000000000e+00
					6.851418145878623e-01 -1.081462827695690e+00 0.000000000000000e+00
					7.500000000000000e-01 -1.218750000000000e+00 0.000000000000000e+00
					1.000000000000000e+00 -1.000000000000000e+00 0.000000000000000e+00
					6.851418145878623e-01 -1.081462827695690e+00 0.000000000000000e+00
					9.135224194504830e-01 -9.135224194504830e-01 0.000000000000000e+00
					-9.135224194504830e-01 -9.135224194504830e-01 0.000000000000000e+00
					-6.851418145878622e-01 -1.081462827695690e+00 0.000000000000000e+00
					-8.338955762008279e-01 -8.338955762008279e-01 0.000000000000000e+00
					-6.254216821506209e-01 -9.577309189068969e-01 0.000000000000000e+00
					-6.851418145878622e-01 -1.081462827695690e+00 0.000000000000000e+00
					-4.567612097252415e-01 -1.201420262156552e+00 0.000000000000000e+00
					-6.254216821506209e-01 -9.577309189068969e-01 0.000000000000000e+00
					-4.169477881004140e-01 -1.046184735125518e+00 0.000000000000000e+00
					-4.567612097252415e-01 -1.201420262156552e+00 0.000000000000000e+00
					-2.283806048626207e-01 -1.273394722833069e+00 0.000000000000000e+00
					-4.169477881004140e-01 -1.046184735125518e+00 0.000000000000000e+00
					-2.084738940502070e-01 -1.099257024856690e+00 0.000000000000000e+00
					-2.283806048626207e-01 -1.273394722833069e+00 0.000000000000000e+00
					1.040834085586084e-17 -1.297386209725242e+00 0.000000000000000e+00
					-2.084738940502070e-01 -1.099257024856690e+00 0.000000000000000e+00
					1.734723475976807e-17 -1.116947788100414e+00 0.000000000000000e+00
					1.040834085586084e-17 -1.297386209725242e+00 0.000000000000000e+00
					2.283806048626208e-01 -1.273394722833069e+00 0.000000000000000e+00
					1.734723475976807e-17 -1.116947788100414e+00 0.000000000000000e+00
					2.084738940502070e-01 -1.099257024856690e+00 0.000000000000000e+00
					2.283806048626208e-01 -1.273394722833069e+00 0.000000000000000e+00
					4.567612097252415e-01 -1.201420262156552e+00 0.000000000000000e+00
					2.084738940502070e-01 -1.099257024856690e+00 0.000000000000000e+00
					4.169477881004140e-01 -1.046184735125518e+00 0.000000000000000e+00
					4.567612097252415e-01 -1.201420262156552e+00 0.000000000000000e+00
					6.851418145878623e-01 -1.081462827695690e+00 0.000000000000000e+00
					4.169477881004140e-01 -1.046184735125518e+00 0.000000000000000e+00
					6.254216821506209e-01 -9.577309189068968e-01 0.000000000000000e+00
					6.851418145878623e-01 -1.081462827695690e+00 0.000000000000000e+00
					9.135224194504830e-01 -9.135224194504830e-01 0.000000000000000e+00
					6.254216821506209e-01 -9.577309189068968e-01 0.000000000000000e+00
					8.338955762008279e-01 -8.338955762008279e-01 0.000000000000000e+00
					-8.338955762008279e-01 -8.338955762008279e-01 0.000000000000000e+00
					-6.254216821506209e-01 -9.577309189068969e-01 0.000000000000000e+00
					-7.611194702510349e-01 -7.611194702510349e-01 0.000000000000000e+00
					-5.708396026882762e-01 -8.475542736336210e-01 0.000000000000000e+00
					-6.254216821506209e-01 -9.577309189068969e-01 0.000000000000000e+00
					-4.169477881004140e-01 -1.046184735125518e+00 0.000000000000000e+00
					-5.708396026882762e-01 -8.475542736336210e-01 0.000000000000000e+00
					-3.805597351255174e-01 -9.092934189068969e-01 0.000000000000000e+00
					-4.169477881004140e-01 -1.046184735125518e+00 0.000000000000000e+00
					-2.084738940502070e-01 -1.099257024856690e+00 0.000000000000000e+00
					-3.805597351255174e-01 -9.092934189068969e-01 0.000000000000000e+00
					-1.902798675627587e-01 -9.463369060708624e-01 0.000000000000000e+00
					-2.084738940502070e-01 -1.099257024856690e+00 0.000000000000000e+00
					1.734723475976807e-17 -1.116947788100414e+00 0.000000000000000e+00
					-1.902798675627587e-01 -9.463369060708624e-01 0.000000000000000e+00
					2.428612866367530e-17 -9.586847351255177e-01 0.000000000000000e+00
					1.734723475976807e-17 -1.116947788100414e+00 0.000000000000000e+00
					2.084738940502070e-01 -1.099257024856690e+00 0.000000000000000e+00
					2.428612866367530e-17 -9.586847351255177e-01 0.000000000000000e+00
					1.902798675627587e-01 -9.463369060708624e-01 0.000000000000000e+00
					2.084738940502070e-01 -1.099257024856690e+00 0.000000000000000e+00
					4.169477881004140e-01 -1.046184735125518e+00 0.000000000000000e+00
					1.902798675627587e-01 -9.463369060708624e-01 0.000000000000000e+00
					3.805597351255174e-01 -9.092934189068969e-01 0.000000000000000e+00
					4.169477881004140e-01 -1.046184735125518e+00 0.000000000000000e+00
					6.254216821506209e-01 -9.577309189068968e-01 0.000000000000000e+00
					3.805597351255174e-01 -9.092934189068969e-01 0.000000000000000e+00
					5.708396026882762e-01 -8.475542736336210e-01 0.000000000000000e+00
					6.254216821506209e-01 -9.577309189068968e-01 0.000000000000000e+00
					8.338955762008279e-01 -8.338955762008279e-01 0.000000000000000e+00
					5.708396026882762e-01 -8.475542736336210e-01 0.000000000000000e+00
					7.611194702510349e-01 -7.611194702510349e-01 0.000000000000000e+00
					-7.611194702510349e-01 -7.611194702510349e-01 0.000000000000000e+00
					-5.708396026882762e-01 -8.475542736336210e-01 0.000000000000000e+00
					-6.951941016011038e-01 -6.951941016011038e-01 0.000000000000000e+00
					-5.213955762008279e-01 -7.509328918758624e-01 0.000000000000000e+00
					-5.708396026882762e-01 -8.475542736336210e-01 0.000000000000000e+00
					-3.805597351255174e-01 -9.092934189068969e-01 0.000000000000000e+00
					-5.213955762008279e-01 -7.509328918758624e-01 0.000000000000000e+00
					-3.475970508005519e-01 -7.907463135006900e-01 0.000000000000000e+00
					-3.805597351255174e-01 -9.092934189068969e-01 0.000000000000000e+00
					-1.902798675627587e-01 -9.463369060708624e-01 0.000000000000000e+00
					-3.475970508005519e-01 -7.907463135006900e-01 0.000000000000000e+00
					-1.737985254002760e-01 -8.146343664755866e-01 0.000000000000000e+00
					-1.902798675627587e-01 -9.463369060708624e-01 0.000000000000000e+00
					2.428612866367530e-17 -9.586847351255177e-01 0.000000000000000e+00
					-1.737985254002760e-01 -8.146343664755866e-01 0.000000000000000e+00
					2.428612866367530e-17 -8.225970508005520e-01 0.000000000000000e+00
					2.428612866367530e-17 -9.586847351255177e-01 0.000000000000000e+00
					1.902798675627587e-01 -9.463369060708624e-01 0.000000000000000e+00
					2.428612866367530e-17 -8.225970508005520e-01 0.000000000000000e+00
					1.737985254002760e-01 -8.146343664755865e-01 0.000000000000000e+00
					1.902798675627587e-01 -9.463369060708624e-01 0.000000000000000e+00
					3.805597351255174e-01 -9.092934189068969e-01 0.000000000000000e+00
					1.737985254002760e-01 -8.146343664755865e-01 0.000000000000000e+00
					3.475970508005519e-01 -7.907463135006900e-01 0.000000000000000e+00
					3.805597351255174e-01 -9.092934189068969e-01 0.000000000000000e+00
					5.708396026882762e-01 -8.475542736336210e-01 0.000000000000000e+00
					3.475970508005519e-01 -7.907463135006900e-01 0.000000000000000e+00
					5.213955762008279e-01 -7.509328918758624e-01 0.000000000000000e+00
					5.708396026882762e-01 -8.475542736336210e-01 0.000000000000000e+00
					7.611194702510349e-01 -7.611194702510349e-01 0.000000000000000e+00
					5.213955762008279e-01 -7.509328918758624e-01 0.000000000000000e+00
					6.951941016011038e-01 -6.951941016011038e-01 0.000000000000000e+00
					-6.951941016011038e-01 -6.951941016011038e-01 0.000000000000000e+00
					-5.213955762008279e-01 -7.509328918758624e-01 0.000000000000000e+00
					-6.361194702510349e-01 -6.361194702510349e-01 0.000000000000000e+00
					-4.770896026882762e-01 -6.678667736336210e-01 0.000000000000000e+00
					-5.213955762008279e-01 -7.509328918758624e-01 0.000000000000000e+00
					-3.475970508005519e-01 -7.907463135006900e-01 0.000000000000000e+00
					-4.770896026882762e-01 -6.678667736336210e-01 0.000000000000000e+00
					-3.180597351255174e-01 -6.905434189068969e-01 0.000000000000000e+00
					-3.475970508005519e-01 -7.907463135006900e-01 0.000000000000000e+00
					-1.737985254002760e-01 -8.146343664755866e-01 0.000000000000000e+00
					-3.180597351255174e-01 -6.905434189068969e-01 0.000000000000000e+00
					-1.590298675627587e-01 -7.041494060708624e-01 0.000000000000000e+00
					-1.737985254002760e-01 -8.146343664755866e-01 0.000000000000000e+00
					2.428612866367530e-17 -8.225970508005520e-01 0.000000000000000e+00
					-1.590298675627587e-01 -7.041494060708624e-01 0.000000000000000e+00
					1.734723475976807e-17 -7.086847351255174e-01 0.000000000000000e+00
					2.428612866367530e-17 -8.225970508005520e-01 0.000000000000000e+00
					1.737985254002760e-01 -8.146343664755865e-01 0.000000000000000e+00
					1.734723475976807e-17 -7.086847351255174e-01 0.000000000000000e+00
					1.590298675627587e-01 -7.041494060708622e-01 0.000000000000000e+00
					1.737985254002760e-01 -8.146343664755865e-01 0.000000000000000e+00
					3.475970508005519e-01 -7.907463135006900e-01 0.000000000000000e+00
					1.590298675627587e-01 -7.041494060708622e-01 0.000000000000000e+00
					3.180597351255174e-01 -6.905434189068967e-01 0.000000000000000e+00
					3.475970508005519e-01 -7.907463135006900e-01 0.000000000000000e+00
					5.213955762008279e-01 -7.509328918758624e-01 0.000000000000000e+00
					3.180597351255174e-01 -6.905434189068967e-01 0.000000000000000e+00
					4.770896026882762e-01 -6.678667736336210e-01 0.000000000000000e+00
					5.213955762008279e-01 -7.509328918758624e-01 0.000000000000000e+00
					6.951941016011038e-01 -6.951941016011038e-01 0.000000000000000e+00
					4.770896026882762e-01 -6.678667736336210e-01 0.000000000000000e+00
					6.361194702510349e-01 -6.361194702510349e-01 0.000000000000000e+00
					-6.361194702510349e-01 -6.361194702510349e-01 0.000000000000000e+00
					-4.770896026882762e-01 -6.678667736336210e-01 0.000000000000000e+00
					-5.838955762008278e-01 -5.838955762008278e-01 0.000000000000000e+00
					-4.379216821506209e-01 -5.983559189068968e-01 0.000000000000000e+00
					-4.770896026882762e-01 -6.678667736336210e-01 0.000000000000000e+00
					-3.180597351255174e-01 -6.905434189068969e-01 0.000000000000000e+00
					-4.379216821506209e-01 -5.983559189068968e-01 0.000000000000000e+00
					-2.919477881004139e-01 -6.086847351255174e-01 0.000000000000000e+00
					-3.180597351255174e-01 -6.905434189068969e-01 0.000000000000000e+00
					-1.590298675627587e-01 -7.041494060708624e-01 0.000000000000000e+00
					-2.919477881004139e-01 -6.086847351255174e-01 0.000000000000000e+00
					-1.459738940502069e-01 -6.148820248566897e-01 0.000000000000000e+00
					-1.590298675627587e-01 -7.041494060708624e-01 0.000000000000000e+00
					1.734723475976807e-17 -7.086847351255174e-01 0.000000000000000e+00
					-1.459738940502069e-01 -6.148820248566897e-01 0.000000000000000e+00
					1.040834085586084e-17 -6.169477881004138e-01 0.000000000000000e+00
					1.734723475976807e-17 -7.086847351255174e-01 0.000000000000000e+00
					1.590298675627587e-01 -7.041494060708622e-01 0.000000000000000e+00
					1.040834085586084e-17 -6.169477881004138e-01 0.000000000000000e+00
					1.459738940502070e-01 -6.148820248566897e-01 0.000000000000000e+00
					1.590298675627587e-01 -7.041494060708622e-01 0.000000000000000e+00
					3.180597351255174e-01 -6.905434189068967e-01 0.000000000000000e+00
					1.459738940502070e-01 -6.148820248566897e-01 0.000000000000000e+00
					2.919477881004139e-01 -6.086847351255174e-01 0.000000000000000e+00
					3.180597351255174e-01 -6.905434189068967e-01 0.000000000000000e+00
					4.770896026882762e-01 -6.678667736336210e-01 0.000000000000000e+00
					2.919477881004139e-01 -6.086847351255174e-01 0.000000000000000e+00
					4.379216821506209e-01 -5.983559189068968e-01 0.000000000000000e+00
					4.770896026882762e-01 -6.678667736336210e-01 0.000000000000000e+00
					6.361194702510349e-01 -6.361194702510349e-01 0.000000000000000e+00
					4.379216821506209e-01 -5.983559189068968e-01 0.000000000000000e+00
					5.838955762008278e-01 -5.838955762008278e-01 0.000000000000000e+00
					-5.838955762008278e-01 -5.838955762008278e-01 0.000000000000000e+00
					-4.379216821506209e-01 -5.983559189068968e-01 0.000000000000000e+00
					-5.385224194504830e-01 -5.385224194504830e-01 0.000000000000000e+00
					-4.038918145878622e-01 -5.424003276956898e-01 0.000000000000000e+00
					-4.379216821506209e-01 -5.983559189068968e-01 0.000000000000000e+00
					-2.919477881004139e-01 -6.086847351255174e-01 0.000000000000000e+00
					-4.038918145878622e-01 -5.424003276956898e-01 0.000000000000000e+00
					-2.692612097252414e-01 -5.451702621565517e-01 0.000000000000000e+00
					-2.919477881004139e-01 -6.086847351255174e-01 0.000000000000000e+00
					-1.459738940502069e-01 -6.148820248566897e-01 0.000000000000000e+00
					-2.692612097252414e-01 -5.451702621565517e-01 0.000000000000000e+00
					-1.346306048626207e-01 -5.468322228330691e-01 0.000000000000000e+00
					-1.459738940502069e-01 -6.148820248566897e-01 0.000000000000000e+00
					1.040834085586084e-17 -6.169477881004138e-01 0.000000000000000e+00
					-1.346306048626207e-01 -5.468322228330691e-01 0.000000000000000e+00
					3.469446951953614e-18 -5.473862097252414e-01 0.000000000000000e+00
					1.040834085586084e-17 -6.169477881004138e-01 0.000000000000000e+00
					1.459738940502070e-01 -6.148820248566897e-01 0.000000000000000e+00
					3.469446951953614e-18 -5.473862097252414e-01 0.000000000000000e+00
					1.346306048626207e-01 -5.468322228330691e-01 0.000000000000000e+00
					1.459738940502070e-01 -6.148820248566897e-01 0.000000000000000e+00
					2.919477881004139e-01 -6.086847351255174e-01 0.000000000000000e+00
					1.346306048626207e-01 -5.468322228330691e-01 0.000000000000000e+00
					2.692612097252414e-01 -5.451702621565518e-01 0.000000000000000e+00
					2.919477881004139e-01 -6.086847351255174e-01 0.000000000000000e+00
					4.379216821506209e-01 -5.983559189068968e-01 0.000000000000000e+00
					2.692612097252414e-01 -5.451702621565518e-01 0.000000000000000e+00
					4.038918145878622e-01 -5.424003276956898e-01 0.000000000000000e+00
					4.379216821506209e-01 -5.983559189068968e-01 0.000000000000000e+00
					5.838955762008278e-01 -5.838955762008278e-01 0.000000000000000e+00
					4.038918145878622e-01 -5.424003276956898e-01 0.000000000000000e+00
					5.385224194504830e-01 -5.385224194504830e-01 0.000000000000000e+00
					-5.385224194504830e-01 -5.385224194504830e-01 0.000000000000000e+00
					-4.038918145878622e-01 -5.424003276956898e-01 0.000000000000000e+00
					-5.000000000000000e-01 -5.000000000000000e-01 0.000000000000000e+00
					-3.750000000000000e-01 -5.000000000000000e-01 0.000000000000000e+00
					-4.038918145878622e-01 -5.424003276956898e-01 0.000000000000000e+00
					-2.692612097252414e-01 -5.451702621565517e-01 0.000000000000000e+00
					-3.750000000000000e-01 -5.000000000000000e-01 0.000000000000000e+00
					-2.500000000000000e-01 -5.000000000000000e-01 0.000000000000000e+00
					-2.692612097252414e-01 -5.451702621565517e-01 0.000000000000000e+00
					-1.346306048626207e-01 -5.468322228330691e-01 0.000000000000000e+00
					-2.500000000000000e-01 -5.000000000000000e-01 0.000000000000000e+00
					-1.250000000000000e-01 -5.000000000000000e-01 0.000000000000000e+00
					-1.346306048626207e-01 -5.468322228330691e-01 0.000000000000000e+00
					3.469446951953614e-18 -5.473862097252414e-01 0.000000000000000e+00
					-1.250000000000000e-01 -5.000000000000000e-01 0.000000000000000e+00
					0.000000000000000e+00 -5.000000000000000e-01 0.000000000000000e+00
					3.469446951953614e-18 -5.473862097252414e-01 0.000000000000000e+00
					1.346306048626207e-01 -5.468322228330691e-01 0.000000000000000e+00
					0.000000000000000e+00 -5.000000000000000e-01 0.000000000000000e+00
					1.250000000000000e-01 -5.000000000000000e-01 0.000000000000000e+00
					1.346306048626207e-01 -5.468322228330691e-01 0.000000000000000e+00
					2.692612097252414e-01 -5.451702621565518e-01 0.000000000000000e+00
					1.250000000000000e-01 -5.000000000000000e-01 0.000000000000000e+00
					2.500000000000000e-01 -5.000000000000000e-01 0.000000000000000e+00
					2.692612097252414e-01 -5.451702621565518e-01 0.000000000000000e+00
					4.038918145878622e-01 -5.424003276956898e-01 0.000000000000000e+00
					2.500000000000000e-01 -5.000000000000000e-01 0.000000000000000e+00
					3.750000000000000e-01 -5.000000000000000e-01 0.000000000000000e+00
					4.038918145878622e-01 -5.424003276956898e-01 0.000000000000000e+00
					5.385224194504830e-01 -5.385224194504830e-01 0.000000000000000e+00
					3.750000000000000e-01 -5.000000000000000e-01 0.000000000000000e+00
					5.000000000000000e-01 -5.000000000000000e-01 0.000000000000000e+00
				</DataArray>
			</Points>
			<Cells>
				<DataArray Name="connectivity" type="UInt32" format="ascii">
					0 1 3 2 4 5 7 6 8 9 11 10 12 13 15 14 16 17 19 18 20 21 23 22 24 25 27 26 28 29 31 30 32 33 35 34 36 37 39 38 40 41 43 42 44 45 47 46 48 49 51 50 52 53 55 54 56 57 59 58 60 61 63 62 64 65 67 66 68 69 71 70 72 73 75 74 76 77 79 78 80 81 83 82 84 85 87 86 88 89 91 90 92 93 95 94 96 97 99 98 100 101 103 102 104 105 107 106 108 109 111 110 112 113 115 114 116 117 119 118 120 121 123 122 124 125 127 126 128 129 131 130 132 133 135 134 136 137 139 138 140 141 143 142 144 145 147 146 148 149 151 150 152 153 155 154 156 157 159 158 160 161 163 162 164 165 167 166 168 169 171 170 172 173 175 174 176 177 179 178 180 181 183 182 184 185 187 186 188 189 191 190 192 193 195 194 196 197 199 198 200 201 203 202 204 205 207 206 208 209 211 210 212 213 215 214 216 217 219 218 220 221 223 222 224 225 227 226 228 229 231 230 232 233 235 234 236 237 239 238 240 241 243 242 244 245 247 246 248 249 251 250 252 253 255 254 
				</DataArray>
				<DataArray Name="offsets" type="UInt32" format="ascii">
					4 8 12 16 20 24 28 32 36 40 44 48 52 56 60 64 68 72 76 80 84 88 92 96 100 104 108 112 116 120 124 128 132 136 140 144 148 152 156 160 164 168 172 176 180 184 188 192 196 200 204 208 212 216 220 224 228 232 236 240 244 248 252 256 
				</DataArray>
				<DataArray Name="types" type="UInt8" format="ascii">
					9 9 9 9 9 9 9 9 9 9 9 9 9 9 9 9 9 9 9 9 9 9 9 9 9 9 9 9 9 9 9 9 9 9 9 9 9 9 9 9 9 9 9 9 9 9 9 9 9 9 9 9 9 9 9 9 9 9 9 9 9 9 9 9 
				</DataArray>
			</Cells>
			<PointData Vectors="solution ">
				<DataArray Name="solution" type="Float64" NumberOfComponents="1" format="ascii">
					0.000000000000000e+00 0.000000000000000e+00 -7.051861624228292e-03 -5.224888269517406e-04 0.000000000000000e+00 0.000000000000000e+00 -5.224888269517404e-04 2.282690013569546e-03 0.000000000000000e+00 0.000000000000000e+00 2.282690013569546e-03 3.439897158543853e-03 0.000000000000000e+00 0.000000000000000e+00 3.439897158543854e-03 4.538142268090211e-03 0.000000000000000e+00 0.000000000000000e+00 4.538142268090212e-03 5.298457327311438e-03 0.000000000000000e+00 0.000000000000000e+00 5.298457327311440e-03 5.497695017597583e-03 0.000000000000000e+00 0.000000000000000e+00 5.497695017597583e-03 2.147346958458449e-03 0.000000000000000e+00 0.000000000000000e+00 2.147346958458449e-03 -1.371650026659109e-02 -7.051861624228293e-03 -5.224888269517406e-04 -2.496535818255570e-04 1.979682312154223e-02 -5.224888269517404e-04 2.282690013569546e-03 1.979682312154223e-02 3.573369985817566e-02 2.282690013569546e-03 3.439897158543853e-03 3.573369985817566e-02 4.965719960345822e-02 3.439897158543854e-03 4.538142268090211e-03 4.965719960345823e-02 6.314824924341153e-02 4.538142268090213e-03 5.298457327311438e-03 6.314824924341156e-02 7.487134367776191e-02 5.298457327311440e-03 5.497695017597583e-03 7.487134367776192e-02 8.133357225071938e-02 5.497695017597583e-03 2.147346958458448e-03 8.133357225071938e-02 7.519015724438959e-02 2.147346958458449e-03 -1.371650026659109e-02 7.519015724438961e-02 4.432816482029787e-02 -2.496535818255570e-04 1.979682312154224e-02 5.515827385182923e-02 1.122194809411809e-01 1.979682312154224e-02 3.573369985817566e-02 1.122194809411809e-01 1.755197058026627e-01 3.573369985817567e-02 4.965719960345823e-02 1.755197058026627e-01 2.416143215455169e-01 4.965719960345825e-02 6.314824924341156e-02 2.416143215455170e-01 3.040090665195409e-01 6.314824924341157e-02 7.487134367776191e-02 3.040090665195410e-01 3.525288431912805e-01 7.487134367776194e-02 8.133357225071938e-02 3.525288431912806e-01 3.730878902375518e-01 8.133357225071941e-02 7.519015724438961e-02 3.730878902375518e-01 3.515531411296088e-01 7.519015724438963e-02 4.432816482029788e-02 3.515531411296088e-01 2.776710541415767e-01 5.515827385182925e-02 1.122194809411809e-01 1.848416124975903e-01 3.284227601964942e-01 1.122194809411809e-01 1.755197058026628e-01 3.284227601964942e-01 5.076351740035702e-01 1.755197058026628e-01 2.416143215455170e-01 5.076351740035704e-01 6.964943785163858e-01 2.416143215455171e-01 3.040090665195410e-01 6.964943785163861e-01 8.673622922026332e-01 3.040090665195411e-01 3.525288431912806e-01 8.673622922026334e-01 9.845268097334656e-01 3.525288431912807e-01 3.730878902375520e-01 9.845268097334658e-01 1.012480387176278e+00 3.730878902375520e-01 3.515531411296088e-01 1.012480387176278e+00 9.259547509122928e-01 3.515531411296089e-01 2.776710541415768e-01 9.259547509122931e-01 7.359998493260187e-01 1.848416124975904e-01 3.284227601964942e-01 4.052061774806760e-01 6.986156569020980e-01 3.284227601964942e-01 5.076351740035704e-01 6.986156569020980e-01 1.075166225841244e+00 5.076351740035705e-01 6.964943785163861e-01 1.075166225841244e+00 1.459352321196834e+00 6.964943785163863e-01 8.673622922026334e-01 1.459352321196834e+00 1.797550556044286e+00 8.673622922026338e-01 9.845268097334658e-01 1.797550556044287e+00 2.004433495380873e+00 9.845268097334661e-01 1.012480387176278e+00 2.004433495380874e+00 2.023286511423690e+00 1.012480387176278e+00 9.259547509122931e-01 2.023286511423691e+00 1.810609006564869e+00 9.259547509122933e-01 7.359998493260190e-01 1.810609006564869e+00 1.423297043554092e+00 4.052061774806761e-01 6.986156569020983e-01 7.225552631764791e-01 1.219464991236153e+00 6.986156569020983e-01 1.075166225841244e+00 1.219464991236153e+00 1.843448279697693e+00 1.075166225841244e+00 1.459352321196834e+00 1.843448279697693e+00 2.456937462994181e+00 1.459352321196835e+00 1.797550556044287e+00 2.456937462994182e+00 2.992363388613618e+00 1.797550556044287e+00 2.004433495380874e+00 2.992363388613618e+00 3.289908761940084e+00 2.004433495380875e+00 2.023286511423691e+00 3.289908761940084e+00 3.292961046248619e+00 2.023286511423691e+00 1.810609006564869e+00 3.292961046248619e+00 2.931036128943259e+00 1.810609006564870e+00 1.423297043554092e+00 2.931036128943259e+00 2.305993493414437e+00 7.225552631764792e-01 1.219464991236154e+00 1.131820720292169e+00 1.846779063914287e+00 1.219464991236154e+00 1.843448279697693e+00 1.846779063914287e+00 2.697722780945619e+00 1.843448279697694e+00 2.456937462994182e+00 2.697722780945619e+00 3.522242246525253e+00 2.456937462994182e+00 2.992363388613618e+00 3.522242246525254e+00 4.232784805666493e+00 2.992363388613619e+00 3.289908761940084e+00 4.232784805666494e+00 4.611392883110581e+00 3.289908761940085e+00 3.292961046248619e+00 4.611392883110583e+00 4.609246898479609e+00 3.292961046248619e+00 2.931036128943259e+00 4.609246898479610e+00 4.143338522214039e+00 2.931036128943260e+00 2.305993493414438e+00 4.143338522214039e+00 3.321114475013543e+00 1.131820720292169e+00 1.846779063914287e+00 1.615033281656710e+00 2.491025425125544e+00 1.846779063914287e+00 2.697722780945620e+00 2.491025425125544e+00 3.481486785308555e+00 2.697722780945620e+00 3.522242246525254e+00 3.481486785308556e+00 4.458641684721377e+00 3.522242246525256e+00 4.232784805666494e+00 4.458641684721379e+00 5.254976582119487e+00 4.232784805666496e+00 4.611392883110583e+00 5.254976582119489e+00 5.719957334318687e+00 4.611392883110584e+00 4.609246898479610e+00 5.719957334318688e+00 5.736529890366495e+00 4.609246898479610e+00 4.143338522214039e+00 5.736529890366495e+00 5.268487159475582e+00 4.143338522214041e+00 3.321114475013544e+00 5.268487159475583e+00 4.384413233529953e+00 
				</DataArray>
			</PointData>
			<CellData>
			</CellData>
		</Piece>
	</UnstructuredGrid>
</VTKFile>