1 0
2 0
3 0
4 0
5 0
6 0
7 0
8 0
9 0
10 0
11 0
12 0
13 0
14 0
15 0
16 0
17 0
18 0
19 0
20 0
21 0
22 0
23 0
24 0
25 0
26 0
27 0
28 0
29 0
30 0
31 0
32 0
33 0
34 0
35 0
36 0
37 0
38 7.173000e-12
39 7.173000e-12
40 9.746000e-12
41 1.010000e-11
42 1.422410e-10
43 1.422410e-10
44 7.018780e-10
45 1.490338e-09
46 1.640117e-09
47 1.802386e-09
48 1.802388e-09
49 1.940721e-09
50 4.513094e-09
51 4.513095e-09
52 8.548895e-09
53 1.612507e-07
54 1.612507e-07
55 1.691751e-07
56 1.830810e-07
57 5.554544e-07
58 1.003255e-06
59 1.003255e-06
60 1.374706e-06
61 5.406327e-03
62 5.411169e-03
63 5.411169e-03
64 5.415255e-03
65 1.853482e-01
66 1.853706e-01
67 1.853706e-01
68 1.853839e-01
69 2.354494e-01
70 2.511714e-01
71 2.511714e-01
72 2.693882e-01
73 2.963513e-01
74 2.997084e-01
75 2.997084e-01
76 3.012763e-01
77 3.313851e-01
78 3.376863e-01
79 3.376863e-01
80 3.466064e-01
81 3.601255e-01
82 3.602541e-01
83 3.602541e-01
84 3.622808e-01
85 3.830230e-01
86 3.990270e-01
87 3.990270e-01
88 4.097095e-01
89 4.326482e-01
90 4.336884e-01
91 4.336884e-01
92 4.362988e-01
93 4.438184e-01
94 4.476071e-01
95 4.476071e-01
96 4.497758e-01
