<?xml version="1.0"?>
<VTKFile type="UnstructuredGrid" byte_order="LittleEndian">
	<UnstructuredGrid>
		<Piece NumberOfPoints="64" NumberOfCells="16">
			<Points>
				<DataArray type="Float64" NumberOfComponents="3" format="ascii">
					-1.000000000000000e+00 -1.000000000000000e+00 0.000000000000000e+00
					-8.338955762008279e-01 -8.338955762008279e-01 0.000000000000000e+00
					-1.375000000000000e+00 -5.000000000000000e-01 0.000000000000000e+00
					-1.044847138700828e+00 -4.169477881004139e-01 0.000000000000000e+00
					-8.338955762008279e-01 -8.338955762008279e-01 0.000000000000000e+00
					-6.951941016011038e-01 -6.951941016011038e-01 0.000000000000000e+00
					-1.044847138700828e+00 -4.169477881004139e-01 0.000000000000000e+00
					-7.889628516011038e-01 -3.475970508005519e-01 0.000000000000000e+00
					-6.951941016011038e-01 -6.951941016011038e-01 0.000000000000000e+00
					-5.838955762008279e-01 -5.838955762008279e-01 0.000000000000000e+00
					-7.889628516011038e-01 -3.475970508005519e-01 0.000000000000000e+00
					-6.073471387008279e-01 -2.919477881004139e-01 0.000000000000000e+00
					-5.838955762008279e-01 -5.838955762008279e-01 0.000000000000000e+00
					-5.000000000000000e-01 -5.000000000000000e-01 0.000000000000000e+00
					-6.073471387008279e-01 -2.919477881004139e-01 0.000000000000000e+00
					-5.000000000000000e-01 -2.500000000000000e-01 0.000000000000000e+00
					-1.375000000000000e+00 -5.000000000000000e-01 0.000000000000000e+00
					-1.044847138700828e+00 -4.169477881004139e-01 0.000000000000000e+00
					-1.500000000000000e+00 5.551115123125783e-17 0.000000000000000e+00
					-1.115164326200828e+00 5.551115123125783e-17 0.000000000000000e+00
					-1.044847138700828e+00 -4.169477881004139e-01 0.000000000000000e+00
					-7.889628516011038e-01 -3.475970508005519e-01 0.000000000000000e+00
					-1.115164326200828e+00 5.551115123125783e-17 0.000000000000000e+00
					-8.202191016011039e-01 4.163336342344337e-17 0.000000000000000e+00
					-7.889628516011038e-01 -3.475970508005519e-01 0.000000000000000e+00
					-6.073471387008279e-01 -2.919477881004139e-01 0.000000000000000e+00
					-8.202191016011039e-01 4.163336342344337e-17 0.000000000000000e+00
					-6.151643262008279e-01 4.163336342344337e-17 0.000000000000000e+00
					-6.073471387008279e-01 -2.919477881004139e-01 0.000000000000000e+00
					-5.000000000000000e-01 -2.500000000000000e-01 0.000000000000000e+00
					-6.151643262008279e-01 4.163336342344337e-17 0.000000000000000e+00
					-5.000000000000000e-01 2.775557561562891e-17 0.000000000000000e+00
					-1.500000000000000e+00 5.551115123125783e-17 0.000000000000000e+00
					-1.115164326200828e+00 5.551115123125783e-17 0.000000000000000e+00
					-1.375000000000000e+00 5.000000000000000e-01 0.000000000000000e+00
					-1.044847138700828e+00 4.169477881004139e-01 0.000000000000000e+00
					-1.115164326200828e+00 5.551115123125783e-17 0.000000000000000e+00
					-8.202191016011039e-01 4.163336342344337e-17 0.000000000000000e+00
					-1.044847138700828e+00 4.169477881004139e-01 0.000000000000000e+00
					-7.889628516011038e-01 3.475970508005519e-01 0.000000000000000e+00
					-8.202191016011039e-01 4.163336342344337e-17 0.000000000000000e+00
					-6.151643262008279e-01 4.163336342344337e-17 0.000000000000000e+00
					-7.889628516011038e-01 3.475970508005519e-01 0.000000000000000e+00
					-6.073471387008278e-01 2.919477881004139e-01 0.000000000000000e+00
					-6.151643262008279e-01 4.163336342344337e-17 0.000000000000000e+00
					-5.000000000000000e-01 2.775557561562891e-17 0.000000000000000e+00
					-6.073471387008278e-01 2.919477881004139e-01 0.000000000000000e+00
					-5.000000000000000e-01 2.500000000000000e-01 0.000000000000000e+00
					-1.375000000000000e+00 5.000000000000000e-01 0.000000000000000e+00
					-1.044847138700828e+00 4.169477881004139e-01 0.000000000000000e+00
					-1.000000000000000e+00 1.000000000000000e+00 0.000000000000000e+00
					-8.338955762008279e-01 8.338955762008279e-01 0.000000000000000e+00
					-1.044847138700828e+00 4.169477881004139e-01 0.000000000000000e+00
					-7.889628516011038e-01 3.475970508005519e-01 0.000000000000000e+00
					-8.338955762008279e-01 8.338955762008279e-01 0.000000000000000e+00
					-6.951941016011038e-01 6.951941016011038e-01 0.000000000000000e+00
					-7.889628516011038e-01 3.475970508005519e-01 0.000000000000000e+00
					-6.073471387008278e-01 2.919477881004139e-01 0.000000000000000e+00
					-6.951941016011038e-01 6.951941016011038e-01 0.000000000000000e+00
					-5.838955762008279e-01 5.838955762008279e-01 0.000000000000000e+00
					-6.073471387008278e-01 2.919477881004139e-01 0.000000000000000e+00
					-5.000000000000000e-01 2.500000000000000e-01 0.000000000000000e+00
					-5.838955762008279e-01 5.838955762008279e-01 0.000000000000000e+00
					-5.000000000000000e-01 5.000000000000000e-01 0.000000000000000e+00
				</DataArray>
			</Points>
			<Cells>
				<DataArray Name="connectivity" type="UInt32" format="ascii">
					0 1 3 2 4 5 7 6 8 9 11 10 12 13 15 14 16 17 19 18 20 21 23 22 24 25 27 26 28 29 31 30 32 33 35 34 36 37 39 38 40 41 43 42 44 45 47 46 48 49 51 50 52 53 55 54 56 57 59 58 60 61 63 62 
				</DataArray>
				<DataArray Name="offsets" type="UInt32" format="ascii">
					4 8 12 16 20 24 28 32 36 40 44 48 52 56 60 64 
				</DataArray>
				<DataArray Name="types" type="UInt8" format="ascii">
					9 9 9 9 9 9 9 9 9 9 9 9 9 9 9 9 
				</DataArray>
			</Cells>
			<PointData Vectors="solution ">
				<DataArray Name="solution" type="Float64" NumberOfComponents="1" format="ascii">
					0.000000000000000e+00 1.312344615315761e-02 0.000000000000000e+00 6.690828079677912e-02 1.312344615315761e-02 1.814474081161712e-01 6.690828079677912e-02 7.967674795446302e-01 1.814474081161712e-01 7.186566558919727e-01 7.967674795446302e-01 2.536656120519702e+00 7.186566558919727e-01 1.618975306884290e+00 2.536656120519702e+00 4.470790624452437e+00 0.000000000000000e+00 6.690828079677912e-02 0.000000000000000e+00 1.913369453630853e-01 6.690828079677912e-02 7.967674795446302e-01 1.913369453630853e-01 2.007664434174820e+00 7.967674795446302e-01 2.536656120519702e+00 2.007664434174820e+00 5.591293895502250e+00 2.536656120519702e+00 4.470790624452437e+00 5.591293895502250e+00 8.665081061864248e+00 0.000000000000000e+00 1.913369453630853e-01 0.000000000000000e+00 3.532593314653851e-01 1.913369453630853e-01 2.007664434174820e+00 3.532593314653851e-01 3.192318110432667e+00 2.007664434174820e+00 5.591293895502250e+00 3.192318110432667e+00 8.142619015254148e+00 5.591293895502250e+00 8.665081061864248e+00 8.142619015254148e+00 1.215043586544815e+01 0.000000000000000e+00 3.532593314653851e-01 0.000000000000000e+00 3.585041078119321e-01 3.532593314653851e-01 3.192318110432667e+00 3.585041078119321e-01 2.931470714900441e+00 3.192318110432667e+00 8.142619015254148e+00 2.931470714900441e+00 7.425576536161059e+00 8.142619015254148e+00 1.215043586544815e+01 7.425576536161059e+00 1.193232826310264e+01 
				</DataArray>
			</PointData>
			<CellData>
			</CellData>
		</Piece>
	</UnstructuredGrid>
</VTKFile>