<?xml version="1.0"?>
<VTKFile type="UnstructuredGrid" byte_order="LittleEndian">
	<UnstructuredGrid>
		<Piece NumberOfPoints="256" NumberOfCells="64">
			<Points>
				<DataArray type="Float64" NumberOfComponents="3" format="ascii">
					-1.000000000000000e+00 1.000000000000000e+00 0.000000000000000e+00
					-9.135224194504830e-01 9.135224194504830e-01 0.000000000000000e+00
					-7.500000000000000e-01 1.218750000000000e+00 0.000000000000000e+00
					-6.851418145878623e-01 1.081007673356733e+00 0.000000000000000e+00
					-9.135224194504830e-01 9.135224194504830e-01 0.000000000000000e+00
					-8.338955762008280e-01 8.338955762008280e-01 0.000000000000000e+00
					-6.851418145878623e-01 1.081007673356733e+00 0.000000000000000e+00
					-6.254216821506210e-01 9.569506543258282e-01 0.000000000000000e+00
					-8.338955762008280e-01 8.338955762008280e-01 0.000000000000000e+00
					-7.611194702510350e-01 7.611194702510350e-01 0.000000000000000e+00
					-6.254216821506210e-01 9.569506543258282e-01 0.000000000000000e+00
					-5.708396026882763e-01 8.465789429072850e-01 0.000000000000000e+00
					-7.611194702510350e-01 7.611194702510350e-01 0.000000000000000e+00
					-6.951941016011041e-01 6.951941016011041e-01 0.000000000000000e+00
					-5.708396026882763e-01 8.465789429072850e-01 0.000000000000000e+00
					-5.213955762008280e-01 7.498925391011041e-01 0.000000000000000e+00
					-6.951941016011041e-01 6.951941016011041e-01 0.000000000000000e+00
					-6.361194702510350e-01 6.361194702510350e-01 0.000000000000000e+00
					-5.213955762008280e-01 7.498925391011041e-01 0.000000000000000e+00
					-4.770896026882763e-01 6.668914429072850e-01 0.000000000000000e+00
					-6.361194702510350e-01 6.361194702510350e-01 0.000000000000000e+00
					-5.838955762008280e-01 5.838955762008280e-01 0.000000000000000e+00
					-4.770896026882763e-01 6.668914429072850e-01 0.000000000000000e+00
					-4.379216821506210e-01 5.975756543258282e-01 0.000000000000000e+00
					-5.838955762008280e-01 5.838955762008280e-01 0.000000000000000e+00
					-5.385224194504830e-01 5.385224194504830e-01 0.000000000000000e+00
					-4.379216821506210e-01 5.975756543258282e-01 0.000000000000000e+00
					-4.038918145878622e-01 5.419451733567330e-01 0.000000000000000e+00
					-5.385224194504830e-01 5.385224194504830e-01 0.000000000000000e+00
					-5.000000000000000e-01 5.000000000000000e-01 0.000000000000000e+00
					-4.038918145878622e-01 5.419451733567330e-01 0.000000000000000e+00
					-3.750000000000000e-01 5.000000000000000e-01 0.000000000000000e+00
					-7.500000000000000e-01 1.218750000000000e+00 0.000000000000000e+00
					-6.851418145878623e-01 1.081007673356733e+00 0.000000000000000e+00
					-5.000000000000000e-01 1.375000000000000e+00 0.000000000000000e+00
					-4.567612097252415e-01 1.200639997575483e+00 0.000000000000000e+00
					-6.851418145878623e-01 1.081007673356733e+00 0.000000000000000e+00
					-6.254216821506210e-01 9.569506543258282e-01 0.000000000000000e+00
					-4.567612097252415e-01 1.200639997575483e+00 0.000000000000000e+00
					-4.169477881004140e-01 1.044847138700828e+00 0.000000000000000e+00
					-6.254216821506210e-01 9.569506543258282e-01 0.000000000000000e+00
					-5.708396026882763e-01 8.465789429072850e-01 0.000000000000000e+00
					-4.169477881004140e-01 1.044847138700828e+00 0.000000000000000e+00
					-3.805597351255176e-01 9.076214233760351e-01 0.000000000000000e+00
					-5.708396026882763e-01 8.465789429072850e-01 0.000000000000000e+00
					-5.213955762008280e-01 7.498925391011041e-01 0.000000000000000e+00
					-3.805597351255176e-01 9.076214233760351e-01 0.000000000000000e+00
					-3.475970508005520e-01 7.889628516011042e-01 0.000000000000000e+00
					-5.213955762008280e-01 7.498925391011041e-01 0.000000000000000e+00
					-4.770896026882763e-01 6.668914429072850e-01 0.000000000000000e+00
					-3.475970508005520e-01 7.889628516011042e-01 0.000000000000000e+00
					-3.180597351255176e-01 6.888714233760351e-01 0.000000000000000e+00
					-4.770896026882763e-01 6.668914429072850e-01 0.000000000000000e+00
					-4.379216821506210e-01 5.975756543258282e-01 0.000000000000000e+00
					-3.180597351255176e-01 6.888714233760351e-01 0.000000000000000e+00
					-2.919477881004140e-01 6.073471387008281e-01 0.000000000000000e+00
					-4.379216821506210e-01 5.975756543258282e-01 0.000000000000000e+00
					-4.038918145878622e-01 5.419451733567330e-01 0.000000000000000e+00
					-2.919477881004140e-01 6.073471387008281e-01 0.000000000000000e+00
					-2.692612097252415e-01 5.443899975754830e-01 0.000000000000000e+00
					-4.038918145878622e-01 5.419451733567330e-01 0.000000000000000e+00
					-3.750000000000000e-01 5.000000000000000e-01 0.000000000000000e+00
					-2.692612097252415e-01 5.443899975754830e-01 0.000000000000000e+00
					-2.500000000000000e-01 5.000000000000000e-01 0.000000000000000e+00
					-5.000000000000000e-01 1.375000000000000e+00 0.000000000000000e+00
					-4.567612097252415e-01 1.200639997575483e+00 0.000000000000000e+00
					-2.499999999999999e-01 1.468750000000000e+00 0.000000000000000e+00
					-2.283806048626207e-01 1.272419392106733e+00 0.000000000000000e+00
					-4.567612097252415e-01 1.200639997575483e+00 0.000000000000000e+00
					-4.169477881004140e-01 1.044847138700828e+00 0.000000000000000e+00
					-2.283806048626207e-01 1.272419392106733e+00 0.000000000000000e+00
					-2.084738940502069e-01 1.097585029325828e+00 0.000000000000000e+00
					-4.169477881004140e-01 1.044847138700828e+00 0.000000000000000e+00
					-3.805597351255176e-01 9.076214233760351e-01 0.000000000000000e+00
					-2.084738940502069e-01 1.097585029325828e+00 0.000000000000000e+00
					-1.902798675627587e-01 9.442469116572851e-01 0.000000000000000e+00
					-3.805597351255176e-01 9.076214233760351e-01 0.000000000000000e+00
					-3.475970508005520e-01 7.889628516011042e-01 0.000000000000000e+00
					-1.902798675627587e-01 9.442469116572851e-01 0.000000000000000e+00
					-1.737985254002760e-01 8.124050391011042e-01 0.000000000000000e+00
					-3.475970508005520e-01 7.889628516011042e-01 0.000000000000000e+00
					-3.180597351255176e-01 6.888714233760351e-01 0.000000000000000e+00
					-1.737985254002760e-01 8.124050391011042e-01 0.000000000000000e+00
					-1.590298675627587e-01 7.020594116572851e-01 0.000000000000000e+00
					-3.180597351255176e-01 6.888714233760351e-01 0.000000000000000e+00
					-2.919477881004140e-01 6.073471387008281e-01 0.000000000000000e+00
					-1.590298675627587e-01 7.020594116572851e-01 0.000000000000000e+00
					-1.459738940502070e-01 6.132100293258280e-01 0.000000000000000e+00
					-2.919477881004140e-01 6.073471387008281e-01 0.000000000000000e+00
					-2.692612097252415e-01 5.443899975754830e-01 0.000000000000000e+00
					-1.459738940502070e-01 6.132100293258280e-01 0.000000000000000e+00
					-1.346306048626207e-01 5.458568921067330e-01 0.000000000000000e+00
					-2.692612097252415e-01 5.443899975754830e-01 0.000000000000000e+00
					-2.500000000000000e-01 5.000000000000000e-01 0.000000000000000e+00
					-1.346306048626207e-01 5.458568921067330e-01 0.000000000000000e+00
					-1.250000000000000e-01 5.000000000000000e-01 0.000000000000000e+00
					-2.499999999999999e-01 1.468750000000000e+00 0.000000000000000e+00
					-2.283806048626207e-01 1.272419392106733e+00 0.000000000000000e+00
					6.938893903907228e-17 1.500000000000000e+00 0.000000000000000e+00
					1.249000902703301e-16 1.296345856950483e+00 0.000000000000000e+00
					-2.283806048626207e-01 1.272419392106733e+00 0.000000000000000e+00
					-2.084738940502069e-01 1.097585029325828e+00 0.000000000000000e+00
					1.249000902703301e-16 1.296345856950483e+00 0.000000000000000e+00
					5.551115123125783e-17 1.115164326200828e+00 0.000000000000000e+00
					-2.084738940502069e-01 1.097585029325828e+00 0.000000000000000e+00
					-1.902798675627587e-01 9.442469116572851e-01 0.000000000000000e+00
					5.551115123125783e-17 1.115164326200828e+00 0.000000000000000e+00
					5.551115123125783e-17 9.564554077510352e-01 0.000000000000000e+00
					-1.902798675627587e-01 9.442469116572851e-01 0.000000000000000e+00
					-1.737985254002760e-01 8.124050391011042e-01 0.000000000000000e+00
					5.551115123125783e-17 9.564554077510352e-01 0.000000000000000e+00
					1.387778780781446e-17 8.202191016011042e-01 0.000000000000000e+00
					-1.737985254002760e-01 8.124050391011042e-01 0.000000000000000e+00
					-1.590298675627587e-01 7.020594116572851e-01 0.000000000000000e+00
					1.387778780781446e-17 8.202191016011042e-01 0.000000000000000e+00
					4.163336342344337e-17 7.064554077510352e-01 0.000000000000000e+00
					-1.590298675627587e-01 7.020594116572851e-01 0.000000000000000e+00
					-1.459738940502070e-01 6.132100293258280e-01 0.000000000000000e+00
					4.163336342344337e-17 7.064554077510352e-01 0.000000000000000e+00
					4.857225732735060e-17 6.151643262008279e-01 0.000000000000000e+00
					-1.459738940502070e-01 6.132100293258280e-01 0.000000000000000e+00
					-1.346306048626207e-01 5.458568921067330e-01 0.000000000000000e+00
					4.857225732735060e-17 6.151643262008279e-01 0.000000000000000e+00
					3.469446951953614e-17 5.463458569504831e-01 0.000000000000000e+00
					-1.346306048626207e-01 5.458568921067330e-01 0.000000000000000e+00
					-1.250000000000000e-01 5.000000000000000e-01 0.000000000000000e+00
					3.469446951953614e-17 5.463458569504831e-01 0.000000000000000e+00
					3.469446951953614e-17 5.000000000000000e-01 0.000000000000000e+00
					6.938893903907228e-17 1.500000000000000e+00 0.000000000000000e+00
					1.249000902703301e-16 1.296345856950483e+00 0.000000000000000e+00
					2.500000000000001e-01 1.468750000000000e+00 0.000000000000000e+00
					2.283806048626209e-01 1.272419392106733e+00 0.000000000000000e+00
					1.249000902703301e-16 1.296345856950483e+00 0.000000000000000e+00
					5.551115123125783e-17 1.115164326200828e+00 0.000000000000000e+00
					2.283806048626209e-01 1.272419392106733e+00 0.000000000000000e+00
					2.084738940502071e-01 1.097585029325828e+00 0.000000000000000e+00
					5.551115123125783e-17 1.115164326200828e+00 0.000000000000000e+00
					5.551115123125783e-17 9.564554077510352e-01 0.000000000000000e+00
					2.084738940502071e-01 1.097585029325828e+00 0.000000000000000e+00
					1.902798675627588e-01 9.442469116572851e-01 0.000000000000000e+00
					5.551115123125783e-17 9.564554077510352e-01 0.000000000000000e+00
					1.387778780781446e-17 8.202191016011042e-01 0.000000000000000e+00
					1.902798675627588e-01 9.442469116572851e-01 0.000000000000000e+00
					1.737985254002760e-01 8.124050391011042e-01 0.000000000000000e+00
					1.387778780781446e-17 8.202191016011042e-01 0.000000000000000e+00
					4.163336342344337e-17 7.064554077510352e-01 0.000000000000000e+00
					1.737985254002760e-01 8.124050391011042e-01 0.000000000000000e+00
					1.590298675627588e-01 7.020594116572851e-01 0.000000000000000e+00
					4.163336342344337e-17 7.064554077510352e-01 0.000000000000000e+00
					4.857225732735060e-17 6.151643262008279e-01 0.000000000000000e+00
					1.590298675627588e-01 7.020594116572851e-01 0.000000000000000e+00
					1.459738940502071e-01 6.132100293258280e-01 0.000000000000000e+00
					4.857225732735060e-17 6.151643262008279e-01 0.000000000000000e+00
					3.469446951953614e-17 5.463458569504831e-01 0.000000000000000e+00
					1.459738940502071e-01 6.132100293258280e-01 0.000000000000000e+00
					1.346306048626208e-01 5.458568921067330e-01 0.000000000000000e+00
					3.469446951953614e-17 5.463458569504831e-01 0.000000000000000e+00
					3.469446951953614e-17 5.000000000000000e-01 0.000000000000000e+00
					1.346306048626208e-01 5.458568921067330e-01 0.000000000000000e+00
					1.250000000000001e-01 5.000000000000000e-01 0.000000000000000e+00
					2.500000000000001e-01 1.468750000000000e+00 0.000000000000000e+00
					2.283806048626209e-01 1.272419392106733e+00 0.000000000000000e+00
					5.000000000000001e-01 1.375000000000000e+00 0.000000000000000e+00
					4.567612097252416e-01 1.200639997575483e+00 0.000000000000000e+00
					2.283806048626209e-01 1.272419392106733e+00 0.000000000000000e+00
					2.084738940502071e-01 1.097585029325828e+00 0.000000000000000e+00
					4.567612097252416e-01 1.200639997575483e+00 0.000000000000000e+00
					4.169477881004141e-01 1.044847138700828e+00 0.000000000000000e+00
					2.084738940502071e-01 1.097585029325828e+00 0.000000000000000e+00
					1.902798675627588e-01 9.442469116572851e-01 0.000000000000000e+00
					4.169477881004141e-01 1.044847138700828e+00 0.000000000000000e+00
					3.805597351255176e-01 9.076214233760351e-01 0.000000000000000e+00
					1.902798675627588e-01 9.442469116572851e-01 0.000000000000000e+00
					1.737985254002760e-01 8.124050391011042e-01 0.000000000000000e+00
					3.805597351255176e-01 9.076214233760351e-01 0.000000000000000e+00
					3.475970508005520e-01 7.889628516011041e-01 0.000000000000000e+00
					1.737985254002760e-01 8.124050391011042e-01 0.000000000000000e+00
					1.590298675627588e-01 7.020594116572851e-01 0.000000000000000e+00
					3.475970508005520e-01 7.889628516011041e-01 0.000000000000000e+00
					3.180597351255176e-01 6.888714233760350e-01 0.000000000000000e+00
					1.590298675627588e-01 7.020594116572851e-01 0.000000000000000e+00
					1.459738940502071e-01 6.132100293258280e-01 0.000000000000000e+00
					3.180597351255176e-01 6.888714233760350e-01 0.000000000000000e+00
					2.919477881004141e-01 6.073471387008280e-01 0.000000000000000e+00
					1.459738940502071e-01 6.132100293258280e-01 0.000000000000000e+00
					1.346306048626208e-01 5.458568921067330e-01 0.000000000000000e+00
					2.919477881004141e-01 6.073471387008280e-01 0.000000000000000e+00
					2.692612097252415e-01 5.443899975754830e-01 0.000000000000000e+00
					1.346306048626208e-01 5.458568921067330e-01 0.000000000000000e+00
					1.250000000000001e-01 5.000000000000000e-01 0.000000000000000e+00
					2.692612097252415e-01 5.443899975754830e-01 0.000000000000000e+00
					2.500000000000001e-01 5.000000000000000e-01 0.000000000000000e+00
					5.000000000000001e-01 1.375000000000000e+00 0.000000000000000e+00
					4.567612097252416e-01 1.200639997575483e+00 0.000000000000000e+00
					7.500000000000000e-01 1.218750000000000e+00 0.000000000000000e+00
					6.851418145878623e-01 1.081007673356733e+00 0.000000000000000e+00
					4.567612097252416e-01 1.200639997575483e+00 0.000000000000000e+00
					4.169477881004141e-01 1.044847138700828e+00 0.000000000000000e+00
					6.851418145878623e-01 1.081007673356733e+00 0.000000000000000e+00
					6.254216821506210e-01 9.569506543258279e-01 0.000000000000000e+00
					4.169477881004141e-01 1.044847138700828e+00 0.000000000000000e+00
					3.805597351255176e-01 9.076214233760351e-01 0.000000000000000e+00
					6.254216821506210e-01 9.569506543258279e-01 0.000000000000000e+00
					5.708396026882763e-01 8.465789429072850e-01 0.000000000000000e+00
					3.805597351255176e-01 9.076214233760351e-01 0.000000000000000e+00
					3.475970508005520e-01 7.889628516011041e-01 0.000000000000000e+00
					5.708396026882763e-01 8.465789429072850e-01 0.000000000000000e+00
					5.213955762008280e-01 7.498925391011041e-01 0.000000000000000e+00
					3.475970508005520e-01 7.889628516011041e-01 0.000000000000000e+00
					3.180597351255176e-01 6.888714233760350e-01 0.000000000000000e+00
					5.213955762008280e-01 7.498925391011041e-01 0.000000000000000e+00
					4.770896026882762e-01 6.668914429072850e-01 0.000000000000000e+00
					3.180597351255176e-01 6.888714233760350e-01 0.000000000000000e+00
					2.919477881004141e-01 6.073471387008280e-01 0.000000000000000e+00
					4.770896026882762e-01 6.668914429072850e-01 0.000000000000000e+00
					4.379216821506210e-01 5.975756543258279e-01 0.000000000000000e+00
					2.919477881004141e-01 6.073471387008280e-01 0.000000000000000e+00
					2.692612097252415e-01 5.443899975754830e-01 0.000000000000000e+00
					4.379216821506210e-01 5.975756543258279e-01 0.000000000000000e+00
					4.038918145878622e-01 5.419451733567330e-01 0.000000000000000e+00
					2.692612097252415e-01 5.443899975754830e-01 0.000000000000000e+00
					2.500000000000001e-01 5.000000000000000e-01 0.000000000000000e+00
					4.038918145878622e-01 5.419451733567330e-01 0.000000000000000e+00
					3.750000000000000e-01 5.000000000000000e-01 0.000000000000000e+00
					7.500000000000000e-01 1.218750000000000e+00 0.000000000000000e+00
					6.851418145878623e-01 1.081007673356733e+00 0.000000000000000e+00
					1.000000000000000e+00 1.000000000000000e+00 0.000000000000000e+00
					9.135224194504830e-01 9.135224194504830e-01 0.000000000000000e+00
					6.851418145878623e-01 1.081007673356733e+00 0.000000000000000e+00
					6.254216821506210e-01 9.569506543258279e-01 0.000000000000000e+00
					9.135224194504830e-01 9.135224194504830e-01 0.000000000000000e+00
					8.338955762008280e-01 8.338955762008280e-01 0.000000000000000e+00
					6.254216821506210e-01 9.569506543258279e-01 0.000000000000000e+00
					5.708396026882763e-01 8.465789429072850e-01 0.000000000000000e+00
					8.338955762008280e-01 8.338955762008280e-01 0.000000000000000e+00
					7.611194702510350e-01 7.611194702510350e-01 0.000000000000000e+00
					5.708396026882763e-01 8.465789429072850e-01 0.000000000000000e+00
					5.213955762008280e-01 7.498925391011041e-01 0.000000000000000e+00
					7.611194702510350e-01 7.611194702510350e-01 0.000000000000000e+00
					6.951941016011041e-01 6.951941016011041e-01 0.000000000000000e+00
					5.213955762008280e-01 7.498925391011041e-01 0.000000000000000e+00
					4.770896026882762e-01 6.668914429072850e-01 0.000000000000000e+00
					6.951941016011041e-01 6.951941016011041e-01 0.000000000000000e+00
					6.361194702510350e-01 6.361194702510350e-01 0.000000000000000e+00
					4.770896026882762e-01 6.668914429072850e-01 0.000000000000000e+00
					4.379216821506210e-01 5.975756543258279e-01 0.000000000000000e+00
					6.361194702510350e-01 6.361194702510350e-01 0.000000000000000e+00
					5.838955762008280e-01 5.838955762008280e-01 0.000000000000000e+00
					4.379216821506210e-01 5.975756543258279e-01 0.000000000000000e+00
					4.038918145878622e-01 5.419451733567330e-01 0.000000000000000e+00
					5.838955762008280e-01 5.838955762008280e-01 0.000000000000000e+00
					5.385224194504830e-01 5.385224194504830e-01 0.000000000000000e+00
					4.038918145878622e-01 5.419451733567330e-01 0.000000000000000e+00
					3.750000000000000e-01 5.000000000000000e-01 0.000000000000000e+00
					5.385224194504830e-01 5.385224194504830e-01 0.000000000000000e+00
					5.000000000000000e-01 5.000000000000000e-01 0.000000000000000e+00
				</DataArray>
			</Points>
			<Cells>
				<DataArray Name="connectivity" type="UInt32" format="ascii">
					0 1 3 2 4 5 7 6 8 9 11 10 12 13 15 14 16 17 19 18 20 21 23 22 24 25 27 26 28 29 31 30 32 33 35 34 36 37 39 38 40 41 43 42 44 45 47 46 48 49 51 50 52 53 55 54 56 57 59 58 60 61 63 62 64 65 67 66 68 69 71 70 72 73 75 74 76 77 79 78 80 81 83 82 84 85 87 86 88 89 91 90 92 93 95 94 96 97 99 98 100 101 103 102 104 105 107 106 108 109 111 110 112 113 115 114 116 117 119 118 120 121 123 122 124 125 127 126 128 129 131 130 132 133 135 134 136 137 139 138 140 141 143 142 144 145 147 146 148 149 151 150 152 153 155 154 156 157 159 158 160 161 163 162 164 165 167 166 168 169 171 170 172 173 175 174 176 177 179 178 180 181 183 182 184 185 187 186 188 189 191 190 192 193 195 194 196 197 199 198 200 201 203 202 204 205 207 206 208 209 211 210 212 213 215 214 216 217 219 218 220 221 223 222 224 225 227 226 228 229 231 230 232 233 235 234 236 237 239 238 240 241 243 242 244 245 247 246 248 249 251 250 252 253 255 254 
				</DataArray>
				<DataArray Name="offsets" type="UInt32" format="ascii">
					4 8 12 16 20 24 28 32 36 40 44 48 52 56 60 64 68 72 76 80 84 88 92 96 100 104 108 112 116 120 124 128 132 136 140 144 148 152 156 160 164 168 172 176 180 184 188 192 196 200 204 208 212 216 220 224 228 232 236 240 244 248 252 256 
				</DataArray>
				<DataArray Name="types" type="UInt8" format="ascii">
					9 9 9 9 9 9 9 9 9 9 9 9 9 9 9 9 9 9 9 9 9 9 9 9 9 9 9 9 9 9 9 9 9 9 9 9 9 9 9 9 9 9 9 9 9 9 9 9 9 9 9 9 9 9 9 9 9 9 9 9 9 9 9 9 
				</DataArray>
			</Cells>
			<PointData Vectors="solution ">
				<DataArray Name="solution" type="Float64" NumberOfComponents="1" format="ascii">
					0.000000000000000e+00 3.236917090891384e-02 0.000000000000000e+00 1.119069632937160e-01 3.236917090891384e-02 3.684036921872304e-01 1.119069632937160e-01 1.081852315402946e+00 3.684036921872304e-01 1.317032258291565e+00 1.081852315402946e+00 3.367630155078395e+00 1.317032258291565e+00 2.935779155753783e+00 3.367630155078395e+00 6.605562423689468e+00 2.935779155753783e+00 5.060142968815976e+00 6.605562423689468e+00 1.013568027848460e+01 5.060142968815976e+00 7.429096113192164e+00 1.013568027848460e+01 1.342881019855955e+01 7.429096113192164e+00 9.788353775920029e+00 1.342881019855955e+01 1.621075142652375e+01 9.788353775920029e+00 1.194416928448901e+01 1.621075142652375e+01 1.841342985715962e+01 0.000000000000000e+00 1.119069632937160e-01 0.000000000000000e+00 2.845610303765405e-01 1.119069632937160e-01 1.081852315402946e+00 2.845610303765405e-01 2.368266608936702e+00 1.081852315402946e+00 3.367630155078395e+00 2.368266608936702e+00 6.685322071542819e+00 3.367630155078395e+00 6.605562423689468e+00 6.685322071542819e+00 1.201736478847704e+01 6.605562423689468e+00 1.013568027848460e+01 1.201736478847704e+01 1.701752397018664e+01 1.013568027848460e+01 1.342881019855955e+01 1.701752397018664e+01 2.098492627031150e+01 1.342881019855955e+01 1.621075142652375e+01 2.098492627031150e+01 2.382104368401569e+01 1.621075142652375e+01 1.841342985715962e+01 2.382104368401569e+01 2.573501735959299e+01 0.000000000000000e+00 2.845610303765405e-01 0.000000000000000e+00 5.590787841031446e-01 2.845610303765405e-01 2.368266608936702e+00 5.590787841031446e-01 4.076786617058620e+00 2.368266608936702e+00 6.685322071542819e+00 4.076786617058620e+00 1.074999714507435e+01 6.685322071542819e+00 1.201736478847704e+01 1.074999714507435e+01 1.825506057478703e+01 1.201736478847704e+01 1.701752397018664e+01 1.825506057478703e+01 2.454389563285473e+01 1.701752397018664e+01 2.098492627031150e+01 2.454389563285473e+01 2.889049963042360e+01 2.098492627031150e+01 2.382104368401569e+01 2.889049963042360e+01 3.151017655212964e+01 2.382104368401569e+01 2.573501735959299e+01 3.151017655212964e+01 3.294964334617833e+01 0.000000000000000e+00 5.590787841031446e-01 0.000000000000000e+00 8.202971107880708e-01 5.590787841031446e-01 4.076786617058620e+00 8.202971107880708e-01 5.608579455902548e+00 4.076786617058620e+00 1.074999714507435e+01 5.608579455902548e+00 1.427169016851657e+01 1.074999714507435e+01 1.825506057478703e+01 1.427169016851657e+01 2.352528536127077e+01 1.825506057478703e+01 2.454389563285473e+01 2.352528536127077e+01 3.079248638236903e+01 2.454389563285473e+01 2.889049963042360e+01 3.079248638236903e+01 3.538813671910533e+01 2.889049963042360e+01 3.151017655212964e+01 3.538813671910533e+01 3.780771792177499e+01 3.151017655212964e+01 3.294964334617833e+01 3.780771792177499e+01 3.886515779048278e+01 0.000000000000000e+00 8.202971107880708e-01 0.000000000000000e+00 8.827602465596323e-01 8.202971107880708e-01 5.608579455902548e+00 8.827602465596323e-01 6.186297058869693e+00 5.608579455902548e+00 1.427169016851657e+01 6.186297058869693e+00 1.572937515873414e+01 1.427169016851657e+01 2.352528536127077e+01 1.572937515873414e+01 2.584420835936793e+01 2.352528536127077e+01 3.079248638236903e+01 2.584420835936793e+01 3.373558281739636e+01 3.079248638236903e+01 3.538813671910533e+01 3.373558281739636e+01 3.868600011926455e+01 3.538813671910533e+01 3.780771792177499e+01 3.868600011926455e+01 4.124707583432173e+01 3.780771792177499e+01 3.886515779048278e+01 4.124707583432173e+01 4.230840435374634e+01 0.000000000000000e+00 8.827602465596323e-01 0.000000000000000e+00 7.086536915623218e-01 8.827602465596323e-01 6.186297058869693e+00 7.086536915623218e-01 5.453036869677529e+00 6.186297058869693e+00 1.572937515873414e+01 5.453036869677529e+00 1.431307053764705e+01 1.572937515873414e+01 2.584420835936793e+01 1.431307053764705e+01 2.408638704608754e+01 2.584420835936793e+01 3.373558281739636e+01 2.408638704608754e+01 3.215042901104385e+01 3.373558281739636e+01 3.868600011926455e+01 3.215042901104385e+01 3.762762227088152e+01 3.868600011926455e+01 4.124707583432173e+01 3.762762227088152e+01 4.081762506029602e+01 4.124707583432173e+01 4.230840435374634e+01 4.081762506029602e+01 4.243040614344094e+01 0.000000000000000e+00 7.086536915623218e-01 0.000000000000000e+00 4.393314110823713e-01 7.086536915623218e-01 5.453036869677529e+00 4.393314110823713e-01 3.779536765869802e+00 5.453036869677529e+00 1.431307053764705e+01 3.779536765869802e+00 1.054957198336661e+01 1.431307053764705e+01 2.408638704608754e+01 1.054957198336661e+01 1.874346427843644e+01 2.408638704608754e+01 3.215042901104385e+01 1.874346427843644e+01 2.631963839622225e+01 3.215042901104385e+01 3.762762227088152e+01 2.631963839622225e+01 3.224216421005760e+01 3.762762227088152e+01 4.081762506029602e+01 3.224216421005760e+01 3.635991953644707e+01 4.081762506029602e+01 4.243040614344094e+01 3.635991953644707e+01 3.898206373406347e+01 0.000000000000000e+00 4.393314110823713e-01 0.000000000000000e+00 2.008628360480866e-01 4.393314110823713e-01 3.779536765869802e+00 2.008628360480866e-01 1.953773892664211e+00 3.779536765869802e+00 1.054957198336661e+01 1.953773892664211e+00 6.037825766421136e+00 1.054957198336661e+01 1.874346427843644e+01 6.037825766421136e+00 1.179447336269375e+01 1.874346427843644e+01 2.631963839622225e+01 1.179447336269375e+01 1.806145088715196e+01 2.631963839622225e+01 3.224216421005760e+01 1.806145088715196e+01 2.388496059929891e+01 3.224216421005760e+01 3.635991953644707e+01 2.388496059929891e+01 2.873869341608794e+01 3.635991953644707e+01 3.898206373406347e+01 2.873869341608794e+01 3.246704599943944e+01 
				</DataArray>
			</PointData>
			<CellData>
			</CellData>
		</Piece>
	</UnstructuredGrid>
</VTKFile>