Eigenvalues_0=
[ 0 6.30000000000000e-14 2.06000000000000e-13 2.06000000000000e-13 4.63000000000000e-13 6.23300000000000e-12 6.23300000000000e-12 1.53970000000000e-11 9.35750000000000e-11 1.15984000000000e-10 1.15985000000000e-10 1.44392000000000e-10 0.245495048976339 0.269114329408068 0.269114329408068 0.271426763727744 0.298571744959254 0.343230306243063 0.343230306243064 0.419389244372329 0.632941810989350 0.639780140316659 0.646318136838314 0.646318136838314 0.719543354118435 0.725313789690908 0.725313789690909 0.732601328674023 ]
;
Eigenvalues_1=
[ 0 0 0 0 0 0 0 0 0 0 0 0 0 0 0 0 0 0 0 0 0 0 0 0 0 0 0 0 0 0 0 0 0 0 0 0 0 0 1.00000000000000e-15 1.00000000000000e-15 6.00000000000000e-15 1.30000000000000e-14 1.50000000000000e-14 7.80000000000000e-14 1.72000000000000e-13 1.79000000000000e-13 1.95000000000000e-13 1.96000000000000e-13 2.10000000000000e-13 5.15000000000000e-13 5.15000000000000e-13 9.72000000000000e-13 1.78300000000000e-11 1.78310000000000e-11 1.86900000000000e-11 2.04690000000000e-11 6.19100000000000e-11 1.13334000000000e-10 1.13334000000000e-10 1.55912000000000e-10 0.00555116756397900 0.00555762386711500 0.00555762386711500 0.00556312701886200 0.186873841743269 0.186898696243558 0.186898696243558 0.186915206285678 0.237773424983631 0.253208398885761 0.253208398885761 0.270984336614558 0.297613347451479 0.300900907918350 0.300900907918351 0.302461460434103 0.331145742776259 0.337839047502172 0.337839047502172 0.347582776883453 0.361180822823800 0.361261918098972 0.361261918098973 0.363155435918667 0.382899972028815 0.399217598746938 0.399217598746938 0.409956112564413 0.432890219984958 0.433928404021251 0.433928404021251 0.436557656987408 0.443847036902669 0.447661686874606 0.447661686874607 0.449830795940605 ]
;
Eigenvalues_2=
[ 0 0 0 0 0 0 0 0 0 0 0 0 0 0 0 0 0 0 0 0 0 0 0 0 0 0 0 0 0 0 0 0 0 0 0 0 0 0 0 0 0 0 0 0 0 0 0 0 0 0 0 0 0 0 0 0 0 0 0 0 0 0 0 0 0 0 0 0 0 0 0 0 0 0 0 0 0 0 0 0 0 0 0 0 0 0 0 0 0 0 0 0 0 0 0 0 0 0 0 0 0 0 0 0 0 0 0 0 0 0 0 0 0 0 0 0 0 0 0 0 0 0 0 0 0 0 0 0 0 0 0 0 0 0 0 0 0 0 0 0 0 0 0 0 0 0 0 0 0 0 0 0 0 0 0 0 0 0 0 0 0 0 0 0 0 0 0 0 0 0 0 0 0 0 0 0 0 0 0 0 0 0 0 0 0 0 0 0 0 0 0 0 1.00000000000000e-15 1.00000000000000e-15 1.00000000000000e-15 1.00000000000000e-15 1.00000000000000e-15 1.00000000000000e-15 1.00000000000000e-15 1.00000000000000e-15 2.00000000000000e-15 3.00000000000000e-15 3.00000000000000e-15 3.00000000000000e-15 4.00000000000000e-15 4.00000000000000e-15 5.00000000000000e-15 2.20000000000000e-14 2.80000000000000e-14 2.90000000000000e-14 2.90000000000000e-14 3.10000000000000e-14 6.00000000000000e-14 6.70000000000000e-14 6.80000000000000e-14 6.90000000000000e-14 1.29700000000000e-12 1.29800000000000e-12 1.29800000000000e-12 1.32600000000000e-12 1.81300000000000e-12 2.20500000000000e-12 2.20600000000000e-12 2.64200000000000e-12 4.76600000000000e-12 5.09100000000000e-12 5.09200000000000e-12 5.34100000000000e-12 1.19340000000000e-11 1.19350000000000e-11 1.19350000000000e-11 1.19350000000000e-11 0.00189824801486300 0.00189969429281500 0.00189969429281800 0.00190109781165500 0.00269799994961900 0.00275263212396600 0.00275263212396700 0.00282813682542400 0.00322170584411200 0.00332333485719700 0.00332333485719800 0.00340436401559200 0.00778819766790500 0.00779062259690700 0.00779062259690800 0.00779298683931900 0.0217126472852410 0.0217139686404810 0.0217139686404830 0.0217152961867950 0.125916815991465 0.125917087715300 0.125917087715301 0.125917362841447 0.163473066307196 0.164110498693161 0.164110498693162 0.166099534267465 0.167310905341231 0.168804185280736 0.168804185280737 0.168869776241681 0.170221394015112 0.173203941469313 0.173203941469314 0.176837019012720 0.184406092596225 0.184411908485966 0.184411908485966 0.184472903616749 0.197887486152241 0.202517575919100 0.202517575919101 0.205831366270864 0.205831591148169 0.205840837013860 0.205840837013861 0.210276281041079 0.210413400508110 0.215061629755427 0.215061687680036 0.215061687680036 0.215063776801054 0.216781376652647 0.216781376652647 0.219609601293001 0.227291725894010 0.227294961714056 0.227294961714057 0.227306259833916 0.228437146994623 0.229184122351945 0.229184122351945 0.229359633754207 0.229426440144989 0.229503231551727 0.229503231551727 0.229897151501016 0.232647142536441 0.232885651961708 0.232885651961708 0.233207239127435 0.237597368803427 0.237974827114815 0.237974827114816 0.238359927182445 0.239658833451818 0.239834886299937 0.239834886299937 0.239963534416322 0.244417027407654 0.244417818220139 0.244417818220140 0.244418606312060 ]
;
Eigenvalues_3=
[ -1.00000000000000e-15 0 0 0 0 0 0 0 0 0 0 0 0 0 0 0 0 0 0 0 0 0 0 0 0 0 0 0 0 0 0 0 0 0 0 0 0 0 0 0 0 0 0 0 0 0 0 0 0 0 0 0 0 0 0 0 0 0 0 0 0 0 0 0 0 0 0 0 0 0 0 0 0 0 0 0 0 0 0 0 0 0 0 0 0 0 0 0 0 0 0 0 0 0 0 0 0 0 0 0 0 0 0 0 0 0 0 0 0 0 0 0 0 0 0 0 0 0 0 0 0 0 0 0 0 0 0 0 0 0 0 0 0 0 0 0 0 0 0 0 0 0 0 0 0 0 0 0 0 0 0 0 0 0 0 0 0 0 0 0 0 0 0 0 0 0 0 0 0 0 0 0 0 0 0 0 0 0 0 0 0 0 0 0 0 0 0 0 0 0 0 0 0 0 0 0 0 0 0 0 0 0 0 0 0 0 0 0 0 0 0 0 0 0 0 0 0 0 0 0 0 0 0 0 0 0 0 0 0 0 0 0 0 0 0 0 0 0 0 0 0 0 0 0 0 0 0 0 0 0 0 0 0 0 0 0 0 0 0 0 0 0 0 0 0 0 0 0 0 0 0 0 0 0 0 0 0 0 0 0 0 0 0 0 0 0 0 0 0 0 0 0 0 0 0 0 0 0 0 0 0 0 0 0 0 0 0 0 0 0 0 0 0 0 0 0 0 0 0 0 0 0 0 0 0 0 0 0 0 0 0 0 0 0 0 0 0 0 0 0 0 0 0 0 0 0 0 0 0 0 0 0 0 0 0 0 0 0 0 0 0 0 0 0 0 0 0 0 0 0 0 0 0 0 0 0 0 0 0 0 0 0 0 0 0 0 0 0 0 0 0 0 0 0 0 0 0 0 0 0 0 0 0 0 0 0 0 0 0 0 0 0 0 0 0 0 0 0 0 0 0 0 0 0 0 0 0 0 0 0 0 0 0 0 0 0 0 0 0 0 0 0 0 0 0 0 0 0 0 0 0 0 0 0 0 0 0 0 0 0 0 0 0 0 0 0 0 0 0 0 0 0 0 0 0 0 0 0 0 0 0 0 0 0 0 0 0 0 0 0 0 0 0 0 0 0 0 0 0 0 0 0 0 0 0 0 0 0 0 0 0 0 0 0 0 0 0 0 0 0 0 0 0 0 0 0 0 0 0 0 0 0 0 0 0 0 0 0 0 1.00000000000000e-15 1.00000000000000e-15 1.00000000000000e-15 2.00000000000000e-15 2.00000000000000e-15 3.00000000000000e-15 3.00000000000000e-15 5.00000000000000e-15 6.00000000000000e-15 8.00000000000000e-15 9.00000000000000e-15 9.00000000000000e-15 1.00000000000000e-14 4.60000000000000e-14 4.70000000000000e-14 4.70000000000000e-14 4.90000000000000e-14 8.80000000000000e-14 8.80000000000000e-14 8.80000000000000e-14 8.80000000000000e-14 1.99000000000000e-13 1.99000000000000e-13 1.99000000000000e-13 2.02000000000000e-13 2.06000000000000e-13 2.09000000000000e-13 2.09000000000000e-13 2.13000000000000e-13 5.43000000000000e-13 5.44000000000000e-13 5.44000000000000e-13 5.45000000000000e-13 5.45000000000000e-13 5.46000000000000e-13 5.46000000000000e-13 5.46000000000000e-13 9.88000000000000e-13 9.88000000000000e-13 9.89000000000000e-13 9.89000000000000e-13 2.35900000000000e-12 2.35900000000000e-12 2.35900000000000e-12 2.36000000000000e-12 0.000431548389402000 0.000431548414811000 0.000431548414811000 0.000431548440269000 0.000718874696326000 0.000721224236777000 0.000721224236778000 0.000723723706379000 0.000813131182398000 0.000816168583610000 0.000816168583611000 0.000819056406953000 0.00211054069838800 0.00211056678052700 0.00211056678052700 0.00211059287373600 0.00312104996869400 0.00313760079646400 0.00313760079646400 0.00315824478146600 0.00332493586736800 0.00335045134721400 0.00335045134721500 0.00337189408104300 0.00504892658174900 0.00505001417880200 0.00505001417880200 0.00505108924047000 0.00782830961944300 0.00783227822418500 0.00783227822418600 0.00783622702781800 0.0113998431881960 0.0114745608805990 0.0114745608805990 0.0116188919816520 0.0117223756612440 0.0118736620404770 0.0118736620404780 0.0119555574278020 0.0132285561812910 0.0132339713485980 0.0132339713486000 0.0132391757412140 0.0230763801865070 0.0230764100417010 0.0230764100417010 0.0230764398749940 0.0403025821786460 0.0403025851440110 0.0403025851440120 0.0403025881093450 0.0657777720533500 0.0657777720564240 0.0657777720564250 0.0657777720595000 0.0863102318312740 0.0863102318449560 0.0863102318449570 0.0863102318586680 0.0871079116473940 0.0871184245678450 0.0871184245678450 0.0871290004050560 0.0974121219890820 0.0974389606645960 0.0974389606645960 0.0974617756102460 0.0980810790348370 0.0981426901254040 0.0981426901254040 0.0982089602385110 0.0984465663446630 0.0984502453223590 0.0984502453223600 0.0984563800480290 0.106380051537318 0.106901709504258 0.106901709504258 0.107004678272292 0.107004678292953 0.107004679661889 0.107004679661889 0.108166259223669 0.108258644068901 0.109872773102184 0.109872773102184 0.111421042994782 0.111508601508643 0.111508610836662 0.111508610836662 0.111508610964134 0.111773634259883 0.113210103076307 0.113210103076307 0.113329784612526 0.113329785347585 0.113329785347585 0.113329785847827 0.114479419030767 0.114781918033229 0.115394160435940 0.115394160435940 0.115394246590681 0.115394474664333 0.115795013294379 0.115795013294379 0.116157478221347 0.116159725979523 0.116160427867747 0.116160427867748 0.116393710748466 0.117608070160531 0.117941640662824 0.117941640662824 0.117949153359919 0.117949490254660 0.117955509965441 0.117955509965441 0.118208016389795 0.119100554298064 0.119100781117711 0.119100781117711 0.119101213849531 0.119553975395381 0.119656631926878 0.119656631926878 0.119742547861989 0.119958392167009 0.119958423279650 0.119958423279650 0.119958472826451 0.120476967587506 0.120515544814431 0.120515544814431 0.120584662515258 0.120771664529467 0.120850491056008 0.120850491056009 0.120876549941189 0.120908084756526 0.120926838963168 0.120926838963169 0.120969450272399 0.121276161635825 0.121276237663346 0.121276237663347 0.121276338212410 0.121957694195933 0.121997721603557 0.121997721603557 0.122064797134688 0.122103600509755 0.122137938647845 0.122137938647845 0.122138033350650 0.122138242442751 0.122158288823038 0.122158288823039 0.122184595913489 0.122976621559089 0.122977652580658 0.122977652580659 0.122978679351649 0.123321462148921 0.123321783069770 0.123321783069771 0.123322103188340 0.123574482580276 0.123574566204924 0.123574566204924 0.123574649754454 0.123739327555686 0.123739350317433 0.123739350317433 0.123739373070723 0.123831408613908 0.123831413386656 0.123831413386656 0.123831418158217 ]
;
