<?xml version="1.0"?>
<VTKFile type="UnstructuredGrid" byte_order="LittleEndian">
	<UnstructuredGrid>
		<Piece NumberOfPoints="64" NumberOfCells="16">
			<Points>
				<DataArray type="Float64" NumberOfComponents="3" format="ascii">
					-1.000000000000000e+00 0.000000000000000e+00 0.000000000000000e+00
					-7.499999999671876e-01 0.000000000000000e+00 0.000000000000000e+00
					-1.000000000000000e+00 2.499999999765626e-01 0.000000000000000e+00
					-7.421386718425538e-01 2.499999999765626e-01 0.000000000000000e+00
					-7.499999999671876e-01 0.000000000000000e+00 0.000000000000000e+00
					-4.999999999625000e-01 0.000000000000000e+00 0.000000000000000e+00
					-7.421386718425538e-01 2.499999999765626e-01 0.000000000000000e+00
					-4.582031249654298e-01 2.499999999765626e-01 0.000000000000000e+00
					-4.999999999625000e-01 0.000000000000000e+00 0.000000000000000e+00
					-2.499999999765625e-01 0.000000000000000e+00 0.000000000000000e+00
					-4.582031249654298e-01 2.499999999765626e-01 0.000000000000000e+00
					-1.326660156114502e-01 2.499999999765626e-01 0.000000000000000e+00
					-2.499999999765625e-01 0.000000000000000e+00 0.000000000000000e+00
					0.000000000000000e+00 0.000000000000000e+00 0.000000000000000e+00
					-1.326660156114502e-01 2.499999999765626e-01 0.000000000000000e+00
					2.499999999765626e-01 2.499999999765626e-01 0.000000000000000e+00
					-1.000000000000000e+00 2.499999999765626e-01 0.000000000000000e+00
					-7.421386718425538e-01 2.499999999765626e-01 0.000000000000000e+00
					-1.000000000000000e+00 4.999999999625001e-01 0.000000000000000e+00
					-7.421874999677736e-01 4.999999999625001e-01 0.000000000000000e+00
					-7.421386718425538e-01 2.499999999765626e-01 0.000000000000000e+00
					-4.582031249654298e-01 2.499999999765626e-01 0.000000000000000e+00
					-7.421874999677736e-01 4.999999999625001e-01 0.000000000000000e+00
					-4.374999999671876e-01 4.999999999625001e-01 0.000000000000000e+00
					-4.582031249654298e-01 2.499999999765626e-01 0.000000000000000e+00
					-1.326660156114502e-01 2.499999999765626e-01 0.000000000000000e+00
					-4.374999999671876e-01 4.999999999625001e-01 0.000000000000000e+00
					-3.906249999238280e-02 4.999999999625001e-01 0.000000000000000e+00
					-1.326660156114502e-01 2.499999999765626e-01 0.000000000000000e+00
					2.499999999765626e-01 2.499999999765626e-01 0.000000000000000e+00
					-3.906249999238280e-02 4.999999999625001e-01 0.000000000000000e+00
					4.999999999625001e-01 4.999999999625001e-01 0.000000000000000e+00
					-1.000000000000000e+00 4.999999999625001e-01 0.000000000000000e+00
					-7.421874999677736e-01 4.999999999625001e-01 0.000000000000000e+00
					-1.000000000000000e+00 7.499999999671876e-01 0.000000000000000e+00
					-7.422363280927002e-01 7.499999999671876e-01 0.000000000000000e+00
					-7.421874999677736e-01 4.999999999625001e-01 0.000000000000000e+00
					-4.374999999671876e-01 4.999999999625001e-01 0.000000000000000e+00
					-7.422363280927002e-01 7.499999999671876e-01 0.000000000000000e+00
					-4.167968749666016e-01 7.499999999671876e-01 0.000000000000000e+00
					-4.374999999671876e-01 4.999999999625001e-01 0.000000000000000e+00
					-3.906249999238280e-02 4.999999999625001e-01 0.000000000000000e+00
					-4.167968749666016e-01 7.499999999671876e-01 0.000000000000000e+00
					5.454101563459472e-02 7.499999999671876e-01 0.000000000000000e+00
					-3.906249999238280e-02 4.999999999625001e-01 0.000000000000000e+00
					4.999999999625001e-01 4.999999999625001e-01 0.000000000000000e+00
					5.454101563459472e-02 7.499999999671876e-01 0.000000000000000e+00
					7.499999999671876e-01 7.499999999671876e-01 0.000000000000000e+00
					-1.000000000000000e+00 7.499999999671876e-01 0.000000000000000e+00
					-7.422363280927002e-01 7.499999999671876e-01 0.000000000000000e+00
					-1.000000000000000e+00 1.000000000000000e+00 0.000000000000000e+00
					-7.343749999671876e-01 1.000000000000000e+00 0.000000000000000e+00
					-7.422363280927002e-01 7.499999999671876e-01 0.000000000000000e+00
					-4.167968749666016e-01 7.499999999671876e-01 0.000000000000000e+00
					-7.343749999671876e-01 1.000000000000000e+00 0.000000000000000e+00
					-3.749999999625000e-01 1.000000000000000e+00 0.000000000000000e+00
					-4.167968749666016e-01 7.499999999671876e-01 0.000000000000000e+00
					5.454101563459472e-02 7.499999999671876e-01 0.000000000000000e+00
					-3.749999999625000e-01 1.000000000000000e+00 0.000000000000000e+00
					1.718750000234375e-01 1.000000000000000e+00 0.000000000000000e+00
					5.454101563459472e-02 7.499999999671876e-01 0.000000000000000e+00
					7.499999999671876e-01 7.499999999671876e-01 0.000000000000000e+00
					1.718750000234375e-01 1.000000000000000e+00 0.000000000000000e+00
					1.000000000000000e+00 1.000000000000000e+00 0.000000000000000e+00
				</DataArray>
			</Points>
			<Cells>
				<DataArray Name="connectivity" type="UInt32" format="ascii">
					0 1 3 2 4 5 7 6 8 9 11 10 12 13 15 14 16 17 19 18 20 21 23 22 24 25 27 26 28 29 31 30 32 33 35 34 36 37 39 38 40 41 43 42 44 45 47 46 48 49 51 50 52 53 55 54 56 57 59 58 60 61 63 62 
				</DataArray>
				<DataArray Name="offsets" type="UInt32" format="ascii">
					4 8 12 16 20 24 28 32 36 40 44 48 52 56 60 64 
				</DataArray>
				<DataArray Name="types" type="UInt8" format="ascii">
					9 9 9 9 9 9 9 9 9 9 9 9 9 9 9 9 
				</DataArray>
			</Cells>
			<PointData Vectors="solution ">
				<DataArray Name="solution" type="Float64" NumberOfComponents="1" format="ascii">
					0.000000000000000e+00 0.000000000000000e+00 0.000000000000000e+00 6.108358674792626e-02 0.000000000000000e+00 0.000000000000000e+00 6.108358674792626e-02 7.221211844051650e-02 0.000000000000000e+00 0.000000000000000e+00 7.221211844051650e-02 1.093833723917934e-02 0.000000000000000e+00 0.000000000000000e+00 1.093833723917934e-02 3.818617506400693e-02 0.000000000000000e+00 6.108358674792626e-02 0.000000000000000e+00 1.562932133397645e-01 6.108358674792626e-02 7.221211844051650e-02 1.562932133397645e-01 1.765177625275901e-01 7.221211844051650e-02 1.093833723917934e-02 1.765177625275901e-01 4.665261543131684e-03 1.093833723917934e-02 3.818617506400693e-02 4.665261543131684e-03 1.929127355760776e-01 0.000000000000000e+00 1.562932133397645e-01 0.000000000000000e+00 1.195616883326714e-01 1.562932133397645e-01 1.765177625275901e-01 1.195616883326714e-01 1.279510267959013e-01 1.765177625275901e-01 4.665261543131684e-03 1.279510267959013e-01 2.652989431746166e-03 4.665261543131684e-03 1.929127355760776e-01 2.652989431746166e-03 1.185262593057687e-01 0.000000000000000e+00 1.195616883326714e-01 0.000000000000000e+00 0.000000000000000e+00 1.195616883326714e-01 1.279510267959013e-01 0.000000000000000e+00 0.000000000000000e+00 1.279510267959013e-01 2.652989431746166e-03 0.000000000000000e+00 0.000000000000000e+00 2.652989431746166e-03 1.185262593057687e-01 0.000000000000000e+00 0.000000000000000e+00 
				</DataArray>
			</PointData>
			<CellData>
			</CellData>
		</Piece>
	</UnstructuredGrid>
</VTKFile>