<?xml version="1.0"?>
<VTKFile type="UnstructuredGrid" byte_order="LittleEndian">
	<UnstructuredGrid>
		<Piece NumberOfPoints="256" NumberOfCells="64">
			<Points>
				<DataArray type="Float64" NumberOfComponents="3" format="ascii">
					-1.000000000000000e+00 0.000000000000000e+00 0.000000000000000e+00
					-8.749999999794923e-01 0.000000000000000e+00 0.000000000000000e+00
					-1.000000000000000e+00 1.249999999876953e-01 0.000000000000000e+00
					-8.737464904580320e-01 1.249999999876954e-01 0.000000000000000e+00
					-8.749999999794923e-01 0.000000000000000e+00 0.000000000000000e+00
					-7.499999999671876e-01 0.000000000000000e+00 0.000000000000000e+00
					-8.737464904580320e-01 1.249999999876954e-01 0.000000000000000e+00
					-7.445861816080049e-01 1.249999999876954e-01 0.000000000000000e+00
					-7.499999999671876e-01 0.000000000000000e+00 0.000000000000000e+00
					-6.249999999619140e-01 0.000000000000000e+00 0.000000000000000e+00
					-7.445861816080049e-01 1.249999999876954e-01 0.000000000000000e+00
					-6.119194030387349e-01 1.249999999876954e-01 0.000000000000000e+00
					-6.249999999619140e-01 0.000000000000000e+00 0.000000000000000e+00
					-4.999999999624999e-01 0.000000000000000e+00 0.000000000000000e+00
					-6.119194030387349e-01 1.249999999876954e-01 0.000000000000000e+00
					-4.751464843390381e-01 1.249999999876954e-01 0.000000000000000e+00
					-4.999999999624999e-01 0.000000000000000e+00 0.000000000000000e+00
					-3.749999999677734e-01 0.000000000000000e+00 0.000000000000000e+00
					-4.751464843390381e-01 1.249999999876954e-01 0.000000000000000e+00
					-3.336677550977307e-01 1.249999999876954e-01 0.000000000000000e+00
					-3.749999999677734e-01 0.000000000000000e+00 0.000000000000000e+00
					-2.499999999765625e-01 0.000000000000000e+00 0.000000000000000e+00
					-3.336677550977307e-01 1.249999999876954e-01 0.000000000000000e+00
					-1.868835449036286e-01 1.249999999876953e-01 0.000000000000000e+00
					-2.499999999765625e-01 0.000000000000000e+00 0.000000000000000e+00
					-1.249999999876953e-01 0.000000000000000e+00 0.000000000000000e+00
					-1.868835449036286e-01 1.249999999876953e-01 0.000000000000000e+00
					-3.419418334554784e-02 1.249999999876953e-01 0.000000000000000e+00
					-1.249999999876953e-01 0.000000000000000e+00 0.000000000000000e+00
					0.000000000000000e+00 0.000000000000000e+00 0.000000000000000e+00
					-3.419418334554784e-02 1.249999999876953e-01 0.000000000000000e+00
					1.249999999876953e-01 1.249999999876953e-01 0.000000000000000e+00
					-1.000000000000000e+00 1.249999999876953e-01 0.000000000000000e+00
					-8.737464904580320e-01 1.249999999876954e-01 0.000000000000000e+00
					-1.000000000000000e+00 2.499999999765626e-01 0.000000000000000e+00
					-8.733581542764133e-01 2.499999999765626e-01 0.000000000000000e+00
					-8.737464904580320e-01 1.249999999876954e-01 0.000000000000000e+00
					-7.445861816080049e-01 1.249999999876954e-01 0.000000000000000e+00
					-8.733581542764133e-01 2.499999999765626e-01 0.000000000000000e+00
					-7.421386718425539e-01 2.499999999765626e-01 0.000000000000000e+00
					-7.445861816080049e-01 1.249999999876954e-01 0.000000000000000e+00
					-6.119194030387349e-01 1.249999999876954e-01 0.000000000000000e+00
					-7.421386718425539e-01 2.499999999765626e-01 0.000000000000000e+00
					-6.044006347287751e-01 2.499999999765626e-01 0.000000000000000e+00
					-6.119194030387349e-01 1.249999999876954e-01 0.000000000000000e+00
					-4.751464843390381e-01 1.249999999876954e-01 0.000000000000000e+00
					-6.044006347287751e-01 2.499999999765626e-01 0.000000000000000e+00
					-4.582031249654297e-01 2.499999999765626e-01 0.000000000000000e+00
					-4.751464843390381e-01 1.249999999876954e-01 0.000000000000000e+00
					-3.336677550977307e-01 1.249999999876954e-01 0.000000000000000e+00
					-4.582031249654297e-01 2.499999999765626e-01 0.000000000000000e+00
					-3.016052245828706e-01 2.499999999765626e-01 0.000000000000000e+00
					-3.336677550977307e-01 1.249999999876954e-01 0.000000000000000e+00
					-1.868835449036286e-01 1.249999999876953e-01 0.000000000000000e+00
					-3.016052245828706e-01 2.499999999765626e-01 0.000000000000000e+00
					-1.326660156114502e-01 2.499999999765625e-01 0.000000000000000e+00
					-1.868835449036286e-01 1.249999999876953e-01 0.000000000000000e+00
					-3.419418334554784e-02 1.249999999876953e-01 0.000000000000000e+00
					-1.326660156114502e-01 2.499999999765625e-01 0.000000000000000e+00
					5.055541991847841e-02 2.499999999765625e-01 0.000000000000000e+00
					-3.419418334554784e-02 1.249999999876953e-01 0.000000000000000e+00
					1.249999999876953e-01 1.249999999876953e-01 0.000000000000000e+00
					5.055541991847841e-02 2.499999999765625e-01 0.000000000000000e+00
					2.499999999765626e-01 2.499999999765626e-01 0.000000000000000e+00
					-1.000000000000000e+00 2.499999999765626e-01 0.000000000000000e+00
					-8.733581542764133e-01 2.499999999765626e-01 0.000000000000000e+00
					-1.000000000000000e+00 3.749999999677735e-01 0.000000000000000e+00
					-8.735466003213522e-01 3.749999999677737e-01 0.000000000000000e+00
					-8.733581542764133e-01 2.499999999765626e-01 0.000000000000000e+00
					-7.421386718425539e-01 2.499999999765626e-01 0.000000000000000e+00
					-8.735466003213522e-01 3.749999999677737e-01 0.000000000000000e+00
					-7.416687011395662e-01 3.749999999677737e-01 0.000000000000000e+00
					-7.421386718425539e-01 2.499999999765626e-01 0.000000000000000e+00
					-6.044006347287751e-01 2.499999999765626e-01 0.000000000000000e+00
					-7.416687011395662e-01 3.749999999677737e-01 0.000000000000000e+00
					-6.005897521608792e-01 3.749999999677737e-01 0.000000000000000e+00
					-6.044006347287751e-01 2.499999999765626e-01 0.000000000000000e+00
					-4.582031249654297e-01 2.499999999765626e-01 0.000000000000000e+00
					-6.005897521608792e-01 3.749999999677737e-01 0.000000000000000e+00
					-4.465332030915284e-01 3.749999999677737e-01 0.000000000000000e+00
					-4.582031249654297e-01 2.499999999765626e-01 0.000000000000000e+00
					-3.016052245828706e-01 2.499999999765626e-01 0.000000000000000e+00
					-4.465332030915284e-01 3.749999999677737e-01 0.000000000000000e+00
					-2.757225036377507e-01 3.749999999677737e-01 0.000000000000000e+00
					-3.016052245828706e-01 2.499999999765626e-01 0.000000000000000e+00
					-1.326660156114502e-01 2.499999999765625e-01 0.000000000000000e+00
					-2.757225036377507e-01 3.749999999677737e-01 0.000000000000000e+00
					-8.438110350578312e-02 3.749999999677735e-01 0.000000000000000e+00
					-1.326660156114502e-01 2.499999999765625e-01 0.000000000000000e+00
					5.055541991847841e-02 2.499999999765625e-01 0.000000000000000e+00
					-8.438110350578312e-02 3.749999999677735e-01 0.000000000000000e+00
					1.312675475981373e-01 3.749999999677735e-01 0.000000000000000e+00
					5.055541991847841e-02 2.499999999765625e-01 0.000000000000000e+00
					2.499999999765626e-01 2.499999999765626e-01 0.000000000000000e+00
					1.312675475981373e-01 3.749999999677735e-01 0.000000000000000e+00
					3.749999999677735e-01 3.749999999677735e-01 0.000000000000000e+00
					-1.000000000000000e+00 3.749999999677735e-01 0.000000000000000e+00
					-8.735466003213522e-01 3.749999999677737e-01 0.000000000000000e+00
					-1.000000000000000e+00 4.999999999625001e-01 0.000000000000000e+00
					-8.740234374795657e-01 4.999999999625002e-01 0.000000000000000e+00
					-8.735466003213522e-01 3.749999999677737e-01 0.000000000000000e+00
					-7.416687011395662e-01 3.749999999677737e-01 0.000000000000000e+00
					-8.740234374795657e-01 4.999999999625002e-01 0.000000000000000e+00
					-7.421874999677736e-01 4.999999999625003e-01 0.000000000000000e+00
					-7.416687011395662e-01 3.749999999677737e-01 0.000000000000000e+00
					-6.005897521608792e-01 3.749999999677737e-01 0.000000000000000e+00
					-7.421874999677736e-01 4.999999999625003e-01 0.000000000000000e+00
					-5.986328124638918e-01 4.999999999625002e-01 0.000000000000000e+00
					-6.005897521608792e-01 3.749999999677737e-01 0.000000000000000e+00
					-4.465332030915284e-01 3.749999999677737e-01 0.000000000000000e+00
					-5.986328124638918e-01 4.999999999625002e-01 0.000000000000000e+00
					-4.374999999671876e-01 4.999999999625002e-01 0.000000000000000e+00
					-4.465332030915284e-01 3.749999999677737e-01 0.000000000000000e+00
					-2.757225036377507e-01 3.749999999677737e-01 0.000000000000000e+00
					-4.374999999671876e-01 4.999999999625002e-01 0.000000000000000e+00
					-2.529296874769288e-01 4.999999999625002e-01 0.000000000000000e+00
					-2.757225036377507e-01 3.749999999677737e-01 0.000000000000000e+00
					-8.438110350578312e-02 3.749999999677735e-01 0.000000000000000e+00
					-2.529296874769288e-01 4.999999999625002e-01 0.000000000000000e+00
					-3.906249999238284e-02 4.999999999625001e-01 0.000000000000000e+00
					-8.438110350578312e-02 3.749999999677735e-01 0.000000000000000e+00
					1.312675475981373e-01 3.749999999677735e-01 0.000000000000000e+00
					-3.906249999238284e-02 4.999999999625001e-01 0.000000000000000e+00
					2.099609374871826e-01 4.999999999625001e-01 0.000000000000000e+00
					1.312675475981373e-01 3.749999999677735e-01 0.000000000000000e+00
					3.749999999677735e-01 3.749999999677735e-01 0.000000000000000e+00
					2.099609374871826e-01 4.999999999625001e-01 0.000000000000000e+00
					4.999999999625001e-01 4.999999999625001e-01 0.000000000000000e+00
					-1.000000000000000e+00 4.999999999625001e-01 0.000000000000000e+00
					-8.740234374795657e-01 4.999999999625002e-01 0.000000000000000e+00
					-1.000000000000000e+00 6.249999999619140e-01 0.000000000000000e+00
					-8.745002746377699e-01 6.249999999619144e-01 0.000000000000000e+00
					-8.740234374795657e-01 4.999999999625002e-01 0.000000000000000e+00
					-7.421874999677736e-01 4.999999999625003e-01 0.000000000000000e+00
					-8.745002746377699e-01 6.249999999619144e-01 0.000000000000000e+00
					-7.427062987959078e-01 6.249999999619145e-01 0.000000000000000e+00
					-7.421874999677736e-01 4.999999999625003e-01 0.000000000000000e+00
					-5.986328124638918e-01 4.999999999625002e-01 0.000000000000000e+00
					-7.427062987959078e-01 6.249999999619145e-01 0.000000000000000e+00
					-5.966758727666570e-01 6.249999999619145e-01 0.000000000000000e+00
					-5.986328124638918e-01 4.999999999625002e-01 0.000000000000000e+00
					-4.374999999671876e-01 4.999999999625002e-01 0.000000000000000e+00
					-5.966758727666570e-01 6.249999999619145e-01 0.000000000000000e+00
					-4.284667968422609e-01 6.249999999619142e-01 0.000000000000000e+00
					-4.374999999671876e-01 4.999999999625002e-01 0.000000000000000e+00
					-2.529296874769288e-01 4.999999999625002e-01 0.000000000000000e+00
					-4.284667968422609e-01 6.249999999619142e-01 0.000000000000000e+00
					-2.301368713149624e-01 6.249999999619141e-01 0.000000000000000e+00
					-2.529296874769288e-01 4.999999999625002e-01 0.000000000000000e+00
					-3.906249999238284e-02 4.999999999625001e-01 0.000000000000000e+00
					-2.301368713149624e-01 6.249999999619141e-01 0.000000000000000e+00
					6.256103522994973e-03 6.249999999619140e-01 0.000000000000000e+00
					-3.906249999238284e-02 4.999999999625001e-01 0.000000000000000e+00
					2.099609374871826e-01 4.999999999625001e-01 0.000000000000000e+00
					6.256103522994973e-03 6.249999999619140e-01 0.000000000000000e+00
					2.886543273793682e-01 6.249999999619140e-01 0.000000000000000e+00
					2.099609374871826e-01 4.999999999625001e-01 0.000000000000000e+00
					4.999999999625001e-01 4.999999999625001e-01 0.000000000000000e+00
					2.886543273793682e-01 6.249999999619140e-01 0.000000000000000e+00
					6.249999999619140e-01 6.249999999619140e-01 0.000000000000000e+00
					-1.000000000000000e+00 6.249999999619140e-01 0.000000000000000e+00
					-8.745002746377699e-01 6.249999999619144e-01 0.000000000000000e+00
					-1.000000000000000e+00 7.499999999671875e-01 0.000000000000000e+00
					-8.746887206826813e-01 7.499999999671876e-01 0.000000000000000e+00
					-8.745002746377699e-01 6.249999999619144e-01 0.000000000000000e+00
					-7.427062987959078e-01 6.249999999619145e-01 0.000000000000000e+00
					-8.746887206826813e-01 7.499999999671876e-01 0.000000000000000e+00
					-7.422363280927002e-01 7.499999999671877e-01 0.000000000000000e+00
					-7.427062987959078e-01 6.249999999619145e-01 0.000000000000000e+00
					-5.966758727666570e-01 6.249999999619145e-01 0.000000000000000e+00
					-7.422363280927002e-01 7.499999999671877e-01 0.000000000000000e+00
					-5.928649901980196e-01 7.499999999671877e-01 0.000000000000000e+00
					-5.966758727666570e-01 6.249999999619145e-01 0.000000000000000e+00
					-4.284667968422609e-01 6.249999999619142e-01 0.000000000000000e+00
					-5.928649901980196e-01 7.499999999671877e-01 0.000000000000000e+00
					-4.167968749666017e-01 7.499999999671876e-01 0.000000000000000e+00
					-4.284667968422609e-01 6.249999999619142e-01 0.000000000000000e+00
					-2.301368713149624e-01 6.249999999619141e-01 0.000000000000000e+00
					-4.167968749666017e-01 7.499999999671876e-01 0.000000000000000e+00
					-2.042541503664093e-01 7.499999999671876e-01 0.000000000000000e+00
					-2.301368713149624e-01 6.249999999619141e-01 0.000000000000000e+00
					6.256103522994973e-03 6.249999999619140e-01 0.000000000000000e+00
					-2.042541503664093e-01 7.499999999671876e-01 0.000000000000000e+00
					5.454101563459472e-02 7.499999999671874e-01 0.000000000000000e+00
					6.256103522994973e-03 6.249999999619140e-01 0.000000000000000e+00
					2.886543273793682e-01 6.249999999619140e-01 0.000000000000000e+00
					5.454101563459472e-02 7.499999999671874e-01 0.000000000000000e+00
					3.693664550684478e-01 7.499999999671874e-01 0.000000000000000e+00
					2.886543273793682e-01 6.249999999619140e-01 0.000000000000000e+00
					6.249999999619140e-01 6.249999999619140e-01 0.000000000000000e+00
					3.693664550684478e-01 7.499999999671874e-01 0.000000000000000e+00
					7.499999999671875e-01 7.499999999671875e-01 0.000000000000000e+00
					-1.000000000000000e+00 7.499999999671875e-01 0.000000000000000e+00
					-8.746887206826813e-01 7.499999999671876e-01 0.000000000000000e+00
					-1.000000000000000e+00 8.749999999794922e-01 0.000000000000000e+00
					-8.743003845010167e-01 8.749999999794923e-01 0.000000000000000e+00
					-8.746887206826813e-01 7.499999999671876e-01 0.000000000000000e+00
					-7.422363280927002e-01 7.499999999671877e-01 0.000000000000000e+00
					-8.743003845010167e-01 8.749999999794923e-01 0.000000000000000e+00
					-7.397888183268830e-01 8.749999999794923e-01 0.000000000000000e+00
					-7.422363280927002e-01 7.499999999671877e-01 0.000000000000000e+00
					-5.928649901980196e-01 7.499999999671877e-01 0.000000000000000e+00
					-7.397888183268830e-01 8.749999999794923e-01 0.000000000000000e+00
					-5.853462218868237e-01 8.749999999794923e-01 0.000000000000000e+00
					-5.928649901980196e-01 7.499999999671877e-01 0.000000000000000e+00
					-4.167968749666017e-01 7.499999999671876e-01 0.000000000000000e+00
					-5.853462218868237e-01 8.749999999794923e-01 0.000000000000000e+00
					-3.998535155900634e-01 8.749999999794922e-01 0.000000000000000e+00
					-4.167968749666017e-01 7.499999999671876e-01 0.000000000000000e+00
					-2.042541503664093e-01 7.499999999671876e-01 0.000000000000000e+00
					-3.998535155900634e-01 8.749999999794922e-01 0.000000000000000e+00
					-1.721916198458271e-01 8.749999999794922e-01 0.000000000000000e+00
					-2.042541503664093e-01 7.499999999671876e-01 0.000000000000000e+00
					5.454101563459472e-02 7.499999999671874e-01 0.000000000000000e+00
					-1.721916198458271e-01 8.749999999794922e-01 0.000000000000000e+00
					1.087585449366608e-01 8.749999999794922e-01 0.000000000000000e+00
					5.454101563459472e-02 7.499999999671874e-01 0.000000000000000e+00
					3.693664550684478e-01 7.499999999671874e-01 0.000000000000000e+00
					1.087585449366608e-01 8.749999999794922e-01 0.000000000000000e+00
					4.541160583481754e-01 8.749999999794922e-01 0.000000000000000e+00
					3.693664550684478e-01 7.499999999671874e-01 0.000000000000000e+00
					7.499999999671875e-01 7.499999999671875e-01 0.000000000000000e+00
					4.541160583481754e-01 8.749999999794922e-01 0.000000000000000e+00
					8.749999999794922e-01 8.749999999794922e-01 0.000000000000000e+00
					-1.000000000000000e+00 8.749999999794922e-01 0.000000000000000e+00
					-8.743003845010167e-01 8.749999999794923e-01 0.000000000000000e+00
					-1.000000000000000e+00 1.000000000000000e+00 0.000000000000000e+00
					-8.730468749794923e-01 1.000000000000000e+00 0.000000000000000e+00
					-8.743003845010167e-01 8.749999999794923e-01 0.000000000000000e+00
					-7.397888183268830e-01 8.749999999794923e-01 0.000000000000000e+00
					-8.730468749794923e-01 1.000000000000000e+00 0.000000000000000e+00
					-7.343749999671876e-01 1.000000000000000e+00 0.000000000000000e+00
					-7.397888183268830e-01 8.749999999794923e-01 0.000000000000000e+00
					-5.853462218868237e-01 8.749999999794923e-01 0.000000000000000e+00
					-7.343749999671876e-01 1.000000000000000e+00 0.000000000000000e+00
					-5.722656249619140e-01 1.000000000000000e+00 0.000000000000000e+00
					-5.853462218868237e-01 8.749999999794923e-01 0.000000000000000e+00
					-3.998535155900634e-01 8.749999999794922e-01 0.000000000000000e+00
					-5.722656249619140e-01 1.000000000000000e+00 0.000000000000000e+00
					-3.749999999625000e-01 1.000000000000000e+00 0.000000000000000e+00
					-3.998535155900634e-01 8.749999999794922e-01 0.000000000000000e+00
					-1.721916198458271e-01 8.749999999794922e-01 0.000000000000000e+00
					-3.749999999625000e-01 1.000000000000000e+00 0.000000000000000e+00
					-1.308593749677734e-01 1.000000000000000e+00 0.000000000000000e+00
					-1.721916198458271e-01 8.749999999794922e-01 0.000000000000000e+00
					1.087585449366608e-01 8.749999999794922e-01 0.000000000000000e+00
					-1.308593749677734e-01 1.000000000000000e+00 0.000000000000000e+00
					1.718750000234375e-01 1.000000000000000e+00 0.000000000000000e+00
					1.087585449366608e-01 8.749999999794922e-01 0.000000000000000e+00
					4.541160583481754e-01 8.749999999794922e-01 0.000000000000000e+00
					1.718750000234375e-01 1.000000000000000e+00 0.000000000000000e+00
					5.449218750123046e-01 1.000000000000000e+00 0.000000000000000e+00
					4.541160583481754e-01 8.749999999794922e-01 0.000000000000000e+00
					8.749999999794922e-01 8.749999999794922e-01 0.000000000000000e+00
					5.449218750123046e-01 1.000000000000000e+00 0.000000000000000e+00
					1.000000000000000e+00 1.000000000000000e+00 0.000000000000000e+00
				</DataArray>
			</Points>
			<Cells>
				<DataArray Name="connectivity" type="UInt32" format="ascii">
					0 1 3 2 4 5 7 6 8 9 11 10 12 13 15 14 16 17 19 18 20 21 23 22 24 25 27 26 28 29 31 30 32 33 35 34 36 37 39 38 40 41 43 42 44 45 47 46 48 49 51 50 52 53 55 54 56 57 59 58 60 61 63 62 64 65 67 66 68 69 71 70 72 73 75 74 76 77 79 78 80 81 83 82 84 85 87 86 88 89 91 90 92 93 95 94 96 97 99 98 100 101 103 102 104 105 107 106 108 109 111 110 112 113 115 114 116 117 119 118 120 121 123 122 124 125 127 126 128 129 131 130 132 133 135 134 136 137 139 138 140 141 143 142 144 145 147 146 148 149 151 150 152 153 155 154 156 157 159 158 160 161 163 162 164 165 167 166 168 169 171 170 172 173 175 174 176 177 179 178 180 181 183 182 184 185 187 186 188 189 191 190 192 193 195 194 196 197 199 198 200 201 203 202 204 205 207 206 208 209 211 210 212 213 215 214 216 217 219 218 220 221 223 222 224 225 227 226 228 229 231 230 232 233 235 234 236 237 239 238 240 241 243 242 244 245 247 246 248 249 251 250 252 253 255 254 
				</DataArray>
				<DataArray Name="offsets" type="UInt32" format="ascii">
					4 8 12 16 20 24 28 32 36 40 44 48 52 56 60 64 68 72 76 80 84 88 92 96 100 104 108 112 116 120 124 128 132 136 140 144 148 152 156 160 164 168 172 176 180 184 188 192 196 200 204 208 212 216 220 224 228 232 236 240 244 248 252 256 
				</DataArray>
				<DataArray Name="types" type="UInt8" format="ascii">
					9 9 9 9 9 9 9 9 9 9 9 9 9 9 9 9 9 9 9 9 9 9 9 9 9 9 9 9 9 9 9 9 9 9 9 9 9 9 9 9 9 9 9 9 9 9 9 9 9 9 9 9 9 9 9 9 9 9 9 9 9 9 9 9 
				</DataArray>
			</Cells>
			<PointData Vectors="solution ">
				<DataArray Name="solution" type="Float64" NumberOfComponents="1" format="ascii">
					0.000000000000000e+00 0.000000000000000e+00 0.000000000000000e+00 6.468874490376622e-03 0.000000000000000e+00 0.000000000000000e+00 6.468874490376622e-03 1.666656911653661e-02 0.000000000000000e+00 0.000000000000000e+00 1.666656911653661e-02 2.218493922392879e-02 0.000000000000000e+00 0.000000000000000e+00 2.218493922392879e-02 2.048977194337669e-02 0.000000000000000e+00 0.000000000000000e+00 2.048977194337669e-02 1.331157820251232e-02 0.000000000000000e+00 0.000000000000000e+00 1.331157820251232e-02 4.924878553997169e-03 0.000000000000000e+00 0.000000000000000e+00 4.924878553997169e-03 1.843763040689959e-04 0.000000000000000e+00 0.000000000000000e+00 1.843763040689959e-04 2.279242183298634e-03 0.000000000000000e+00 6.468874490376622e-03 0.000000000000000e+00 2.358346007762022e-02 6.468874490376622e-03 1.666656911653661e-02 2.358346007762022e-02 6.105636661132990e-02 1.666656911653661e-02 2.218493922392879e-02 6.105636661132990e-02 8.083636941625690e-02 2.218493922392879e-02 2.048977194337669e-02 8.083636941625690e-02 7.198475188047658e-02 2.048977194337669e-02 1.331157820251232e-02 7.198475188047658e-02 4.128983918334336e-02 1.331157820251232e-02 4.924878553997169e-03 4.128983918334336e-02 9.331460926071381e-03 4.924878553997169e-03 1.843763040689959e-04 9.331460926071381e-03 1.396829608214449e-03 1.843763040689959e-04 2.279242183298634e-03 1.396829608214449e-03 3.020402296098945e-02 0.000000000000000e+00 2.358346007762022e-02 0.000000000000000e+00 4.448254893198850e-02 2.358346007762022e-02 6.105636661132990e-02 4.448254893198850e-02 1.156463408674145e-01 6.105636661132990e-02 8.083636941625690e-02 1.156463408674145e-01 1.531017403354137e-01 8.083636941625690e-02 7.198475188047658e-02 1.531017403354137e-01 1.327301669797971e-01 7.198475188047658e-02 4.128983918334336e-02 1.327301669797971e-01 6.740264931579627e-02 4.128983918334336e-02 9.331460926071381e-03 6.740264931579627e-02 7.289276004123115e-03 9.331460926071381e-03 1.396829608214449e-03 7.289276004123115e-03 1.727617749803870e-02 1.396829608214449e-03 3.020402296098945e-02 1.727617749803870e-02 1.078952984105464e-01 0.000000000000000e+00 4.448254893198850e-02 0.000000000000000e+00 5.987318445583579e-02 4.448254893198850e-02 1.156463408674145e-01 5.987318445583579e-02 1.562731874005102e-01 1.156463408674145e-01 1.531017403354137e-01 1.562731874005102e-01 2.074736833333546e-01 1.531017403354137e-01 1.327301669797971e-01 2.074736833333546e-01 1.759853556529849e-01 1.327301669797971e-01 6.740264931579627e-02 1.759853556529849e-01 7.881713989331837e-02 6.740264931579627e-02 7.289276004123115e-03 7.881713989331837e-02 2.129872785200357e-03 7.289276004123115e-03 1.727617749803870e-02 2.129872785200357e-03 5.658096910126426e-02 1.727617749803870e-02 1.078952984105464e-01 5.658096910126426e-02 1.976163964431305e-01 0.000000000000000e+00 5.987318445583579e-02 0.000000000000000e+00 6.138952518352743e-02 5.987318445583579e-02 1.562731874005102e-01 6.138952518352743e-02 1.608662363598217e-01 1.562731874005102e-01 2.074736833333546e-01 1.608662363598217e-01 2.141641282476192e-01 2.074736833333546e-01 1.759853556529849e-01 2.141641282476192e-01 1.774957275336021e-01 1.759853556529849e-01 7.881713989331837e-02 1.774957275336021e-01 6.889870237057902e-02 7.881713989331837e-02 2.129872785200357e-03 6.889870237057902e-02 2.632491573400760e-05 2.129872785200357e-03 5.658096910126426e-02 2.632491573400760e-05 1.013986003887450e-01 5.658096910126426e-02 1.976163964431305e-01 1.013986003887450e-01 2.098244299916373e-01 0.000000000000000e+00 6.138952518352743e-02 0.000000000000000e+00 4.545780128942088e-02 6.138952518352743e-02 1.608662363598217e-01 4.545780128942088e-02 1.196224584433688e-01 1.608662363598217e-01 2.141641282476192e-01 1.196224584433688e-01 1.591563114293982e-01 2.141641282476192e-01 1.774957275336021e-01 1.591563114293982e-01 1.276995294406937e-01 1.774957275336021e-01 6.889870237057902e-02 1.276995294406937e-01 4.124388224747509e-02 6.889870237057902e-02 2.632491573400760e-05 4.124388224747509e-02 3.147947438640810e-03 2.632491573400760e-05 1.013986003887450e-01 3.147947438640810e-03 1.094292048412416e-01 1.013986003887450e-01 2.098244299916373e-01 1.094292048412416e-01 1.155630291863279e-01 0.000000000000000e+00 4.545780128942088e-02 0.000000000000000e+00 1.784393348058666e-02 4.545780128942088e-02 1.196224584433688e-01 1.784393348058666e-02 4.717244820061021e-02 1.196224584433688e-01 1.591563114293982e-01 4.717244820061021e-02 6.227085268208479e-02 1.591563114293982e-01 1.276995294406937e-01 6.227085268208479e-02 4.746158128866409e-02 1.276995294406937e-01 4.124388224747509e-02 4.746158128866409e-02 1.174154866792071e-02 4.124388224747509e-02 3.147947438640810e-03 1.174154866792071e-02 4.871307386304861e-03 3.147947438640810e-03 1.094292048412416e-01 4.871307386304861e-03 5.481462836609946e-02 1.094292048412416e-01 1.155630291863279e-01 5.481462836609946e-02 1.878266987729764e-02 0.000000000000000e+00 1.784393348058666e-02 0.000000000000000e+00 0.000000000000000e+00 1.784393348058666e-02 4.717244820061021e-02 0.000000000000000e+00 0.000000000000000e+00 4.717244820061021e-02 6.227085268208479e-02 0.000000000000000e+00 0.000000000000000e+00 6.227085268208479e-02 4.746158128866409e-02 0.000000000000000e+00 0.000000000000000e+00 4.746158128866409e-02 1.174154866792071e-02 0.000000000000000e+00 0.000000000000000e+00 1.174154866792071e-02 4.871307386304861e-03 0.000000000000000e+00 0.000000000000000e+00 4.871307386304861e-03 5.481462836609946e-02 0.000000000000000e+00 0.000000000000000e+00 5.481462836609946e-02 1.878266987729764e-02 0.000000000000000e+00 0.000000000000000e+00 
				</DataArray>
			</PointData>
			<CellData>
			</CellData>
		</Piece>
	</UnstructuredGrid>
</VTKFile>