Eigenvalues_0=
[ 0 0 0 0 0 1.00000000000000e-15 2.00000000000000e-15 3.00000000000000e-15 8.00000000000000e-15 9.00000000000000e-15 1.00000000000000e-14 1.10000000000000e-14 0.245548747352765 0.269145509477492 0.269145509477493 0.271454348194441 0.298613523774804 0.343291264781816 0.343291264781817 0.419447543942085 0.632948164464269 0.639804703971899 0.646334167010254 0.646334167010255 0.719546353098463 0.725318059637071 0.725318059637071 0.732608132115346 ]
;
Eigenvalues_1=
[ 0 0 0 0 0 0 0 0 0 0 0 0 0 0 0 0 0 0 0 0 0 0 0 0 0 0 0 0 0 0 0 0 0 0 0 0 0 0 0 0 0 0 0 0 0 0 0 0 0 0 0 1.00000000000000e-15 1.00000000000000e-15 2.00000000000000e-15 3.00000000000000e-15 4.00000000000000e-15 7.00000000000000e-15 8.00000000000000e-15 8.00000000000000e-15 9.00000000000000e-15 0.00555268714960800 0.00555916197371700 0.00555916197371800 0.00556468140886700 0.186889760965172 0.186914641464128 0.186914641464128 0.186931184278098 0.237797639324106 0.253229552026007 0.253229552026008 0.271000812913251 0.297626409776956 0.300913246652507 0.300913246652508 0.302473728013982 0.331143054698804 0.337840452233240 0.337840452233241 0.347592847600356 0.361191818578643 0.361272442224600 0.361272442224600 0.363164560111070 0.382898609036998 0.399219518297091 0.399219518297092 0.409958603551241 0.432892747493623 0.433930907741691 0.433930907741692 0.436560357601610 0.443847272223071 0.447662203444051 0.447662203444051 0.449831318751218 ]
;
Eigenvalues_2=
[ -1.00000000000000e-15 0 0 0 0 0 0 0 0 0 0 0 0 0 0 0 0 0 0 0 0 0 0 0 0 0 0 0 0 0 0 0 0 0 0 0 0 0 0 0 0 0 0 0 0 0 0 0 0 0 0 0 0 0 0 0 0 0 0 0 0 0 0 0 0 0 0 0 0 0 0 0 0 0 0 0 0 0 0 0 0 0 0 0 0 0 0 0 0 0 0 0 0 0 0 0 0 0 0 0 0 0 0 0 0 0 0 0 0 0 0 0 0 0 0 0 0 0 0 0 0 0 0 0 0 0 0 0 0 0 0 0 0 0 0 0 0 0 0 0 0 0 0 0 0 0 0 0 0 0 0 0 0 0 0 0 0 0 0 0 0 0 0 0 0 0 0 0 0 0 0 0 0 0 0 0 0 0 0 0 0 0 0 0 0 0 0 0 0 0 0 0 0 0 0 0 0 0 0 0 0 0 0 0 0 0 0 0 0 0 0 0 0 0 0 0 0 0 0 0 0 0 0 0 0 0 0 0 0 0 0 1.00000000000000e-15 0.00189879879344100 0.00190024324133900 0.00190024324133900 0.00190164499914600 0.00269917763121700 0.00275384082710700 0.00275384082710900 0.00282938910233400 0.00322311159443500 0.00332478990676500 0.00332478990676700 0.00340585577119000 0.00778972044095800 0.00779214449866800 0.00779214449866800 0.00779450787544300 0.0217161826640390 0.0217175046071440 0.0217175046071450 0.0217188327457260 0.125923879200293 0.125924150978559 0.125924150978560 0.125924426160996 0.163473050107058 0.164111223197955 0.164111223197956 0.166104637133144 0.167309601680349 0.168810038153988 0.168810038153988 0.168876219839874 0.170226438841380 0.173206335983354 0.173206335983355 0.176839959181160 0.184411843975652 0.184417575507545 0.184417575507545 0.184478332443604 0.197887701544577 0.202517950495996 0.202517950495996 0.205836805584673 0.205837004899776 0.205846228623071 0.205846228623071 0.210276307197767 0.210413993410417 0.215064434252654 0.215064493602644 0.215064493602644 0.215066577916298 0.216781622575472 0.216781622575473 0.219609846093538 0.227294878100473 0.227298110691218 0.227298110691218 0.227309414916836 0.228437129534892 0.229184656001484 0.229184656001484 0.229361406313670 0.229428464544545 0.229504816515904 0.229504816515904 0.229897604228997 0.232647938823777 0.232886381252335 0.232886381252335 0.233207885654635 0.237597301795683 0.237974773225583 0.237974773225583 0.238359883471841 0.239658779313698 0.239834834764521 0.239834834764521 0.239963483924228 0.244416983619435 0.244417774357273 0.244417774357274 0.244418562375255 ]
;
Eigenvalues_3=
[ -1.00000000000000e-15 -1.00000000000000e-15 -1.00000000000000e-15 -1.00000000000000e-15 -1.00000000000000e-15 0 0 0 0 0 0 0 0 0 0 0 0 0 0 0 0 0 0 0 0 0 0 0 0 0 0 0 0 0 0 0 0 0 0 0 0 0 0 0 0 0 0 0 0 0 0 0 0 0 0 0 0 0 0 0 0 0 0 0 0 0 0 0 0 0 0 0 0 0 0 0 0 0 0 0 0 0 0 0 0 0 0 0 0 0 0 0 0 0 0 0 0 0 0 0 0 0 0 0 0 0 0 0 0 0 0 0 0 0 0 0 0 0 0 0 0 0 0 0 0 0 0 0 0 0 0 0 0 0 0 0 0 0 0 0 0 0 0 0 0 0 0 0 0 0 0 0 0 0 0 0 0 0 0 0 0 0 0 0 0 0 0 0 0 0 0 0 0 0 0 0 0 0 0 0 0 0 0 0 0 0 0 0 0 0 0 0 0 0 0 0 0 0 0 0 0 0 0 0 0 0 0 0 0 0 0 0 0 0 0 0 0 0 0 0 0 0 0 0 0 0 0 0 0 0 0 0 0 0 0 0 0 0 0 0 0 0 0 0 0 0 0 0 0 0 0 0 0 0 0 0 0 0 0 0 0 0 0 0 0 0 0 0 0 0 0 0 0 0 0 0 0 0 0 0 0 0 0 0 0 0 0 0 0 0 0 0 0 0 0 0 0 0 0 0 0 0 0 0 0 0 0 0 0 0 0 0 0 0 0 0 0 0 0 0 0 0 0 0 0 0 0 0 0 0 0 0 0 0 0 0 0 0 0 0 0 0 0 0 0 0 0 0 0 0 0 0 0 0 0 0 0 0 0 0 0 0 0 0 0 0 0 0 0 0 0 0 0 0 0 0 0 0 0 0 0 0 0 0 0 0 0 0 0 0 0 0 0 0 0 0 0 0 0 0 0 0 0 0 0 0 0 0 0 0 0 0 0 0 0 0 0 0 0 0 0 0 0 0 0 0 0 0 0 0 0 0 0 0 0 0 0 0 0 0 0 0 0 0 0 0 0 0 0 0 0 0 0 0 0 0 0 0 0 0 0 0 0 0 0 0 0 0 0 0 0 0 0 0 0 0 0 0 0 0 0 0 0 0 0 0 0 0 0 0 0 0 0 0 0 0 0 0 0 0 0 0 0 0 0 0 0 0 0 0 0 0 0 0 0 0 0 0 0 0 0 0 0 0 0 0 0 0 0 0 0 0 0 0 0 0 0 0 0 0 0 0 0 0 0 0 0 0 0 0 0 0 0 0 0 0 0 0 0 0 0 0 0 0 0 0 0 0 0 0 0 0 0 0 0 0 0 0 0 0 0 0 1.00000000000000e-15 2.00000000000000e-15 0.000431678172312000 0.000431678197687000 0.000431678197688000 0.000431678223111000 0.000719297389224000 0.000721648245982000 0.000721648245984000 0.000724149125778000 0.000813598207479000 0.000816637220118000 0.000816637220118000 0.000819526560849000 0.00211112069852900 0.00211114677585700 0.00211114677585700 0.00211117286423400 0.00312232484592800 0.00313889165357000 0.00313889165357000 0.00315955784795800 0.00332630373292300 0.00335184510888200 0.00335184510888300 0.00337330754282200 0.00505008420343000 0.00505117289693300 0.00505117289693400 0.00505224903206600 0.00782958204376300 0.00783354947435600 0.00783354947435700 0.00783749710140500 0.0114035353335600 0.0114782893382860 0.0114782893382860 0.0116226813530070 0.0117262474554830 0.0118776028571330 0.0118776028571330 0.0119595437937420 0.0132307415761360 0.0132361695381860 0.0132361695381870 0.0132413855894180 0.0230796380606480 0.0230796679204940 0.0230796679204940 0.0230796977584250 0.0403069269287090 0.0403069298948540 0.0403069298948550 0.0403069328609670 0.0657802382303700 0.0657802382334460 0.0657802382334460 0.0657802382365210 0.0863131859423950 0.0863131859560590 0.0863131859560590 0.0863131859697540 0.0871070108876160 0.0871175216371980 0.0871175216371990 0.0871280952758360 0.0974122300277850 0.0974391447175970 0.0974391447175980 0.0974620329998850 0.0980820179166460 0.0981435993310120 0.0981435993310120 0.0982098899868630 0.0984491985833680 0.0984528274767140 0.0984528274767150 0.0984588646000060 0.106379889790211 0.106901547668314 0.106901547668314 0.107007387319259 0.107007387336354 0.107007388658634 0.107007388658634 0.108165952065388 0.108258651046859 0.109872643923414 0.109872643923414 0.111420977212314 0.111509405779557 0.111509415072455 0.111509415072456 0.111509415199875 0.111773465660173 0.113210003144032 0.113210003144033 0.113331633657316 0.113331634417495 0.113331634417496 0.113331634884022 0.114479360554817 0.114781822619501 0.115394982765730 0.115394982765730 0.115395069413679 0.115395297812288 0.115794960916249 0.115794960916249 0.116158615408475 0.116160879367973 0.116161580306082 0.116161580306082 0.116393697996240 0.117607994767479 0.117941892091149 0.117941892091150 0.117949824620909 0.117950162590575 0.117955877939562 0.117955877939562 0.118207978353583 0.119101491798232 0.119101718819960 0.119101718819961 0.119102152079715 0.119553924097038 0.119656594744993 0.119656594744993 0.119742524432562 0.119959013709771 0.119959044835374 0.119959044835374 0.119959094339048 0.120477112085435 0.120515689270590 0.120515689270590 0.120584834749137 0.120771632151818 0.120850648448894 0.120850648448894 0.120876919920123 0.120908557123001 0.120927159358700 0.120927159358701 0.120969566183459 0.121276671362909 0.121276747168788 0.121276747168789 0.121276847388151 0.121957674641242 0.121997702746158 0.121997702746158 0.122064778363117 0.122103586718961 0.122138339129955 0.122138339129955 0.122138436809743 0.122138644951753 0.122158276800074 0.122158276800074 0.122184581206788 0.122976604566411 0.122977635636535 0.122977635636535 0.122978662455730 0.123321447511342 0.123321768453076 0.123321768453076 0.123322088592456 0.123574469789405 0.123574553425022 0.123574553425023 0.123574636985509 0.123739316247260 0.123739339014935 0.123739339014935 0.123739361774149 0.123831397647164 0.123831402421748 0.123831402421748 0.123831407195146 ]
;
