<?xml version="1.0"?>
<VTKFile type="UnstructuredGrid" byte_order="LittleEndian">
	<UnstructuredGrid>
		<Piece NumberOfPoints="64" NumberOfCells="16">
			<Points>
				<DataArray type="Float64" NumberOfComponents="3" format="ascii">
					-1.000000000000000e+00 -1.000000000000000e+00 0.000000000000000e+00
					-5.000000000000000e-01 -1.375000000000000e+00 0.000000000000000e+00
					-8.338955762008279e-01 -8.338955762008279e-01 0.000000000000000e+00
					-4.169477881004139e-01 -1.046239326200828e+00 0.000000000000000e+00
					-5.000000000000000e-01 -1.375000000000000e+00 0.000000000000000e+00
					5.551115123125783e-17 -1.500000000000000e+00 0.000000000000000e+00
					-4.169477881004139e-01 -1.046239326200828e+00 0.000000000000000e+00
					4.857225732735060e-17 -1.117020576200828e+00 0.000000000000000e+00
					5.551115123125783e-17 -1.500000000000000e+00 0.000000000000000e+00
					5.000000000000000e-01 -1.375000000000000e+00 0.000000000000000e+00
					4.857225732735060e-17 -1.117020576200828e+00 0.000000000000000e+00
					4.169477881004139e-01 -1.046239326200828e+00 0.000000000000000e+00
					5.000000000000000e-01 -1.375000000000000e+00 0.000000000000000e+00
					1.000000000000000e+00 -1.000000000000000e+00 0.000000000000000e+00
					4.169477881004139e-01 -1.046239326200828e+00 0.000000000000000e+00
					8.338955762008279e-01 -8.338955762008279e-01 0.000000000000000e+00
					-8.338955762008279e-01 -8.338955762008279e-01 0.000000000000000e+00
					-4.169477881004139e-01 -1.046239326200828e+00 0.000000000000000e+00
					-6.951941016011038e-01 -6.951941016011038e-01 0.000000000000000e+00
					-3.475970508005519e-01 -7.908191016011039e-01 0.000000000000000e+00
					-4.169477881004139e-01 -1.046239326200828e+00 0.000000000000000e+00
					4.857225732735060e-17 -1.117020576200828e+00 0.000000000000000e+00
					-3.475970508005519e-01 -7.908191016011039e-01 0.000000000000000e+00
					4.163336342344337e-17 -8.226941016011038e-01 0.000000000000000e+00
					4.857225732735060e-17 -1.117020576200828e+00 0.000000000000000e+00
					4.169477881004139e-01 -1.046239326200828e+00 0.000000000000000e+00
					4.163336342344337e-17 -8.226941016011038e-01 0.000000000000000e+00
					3.475970508005519e-01 -7.908191016011039e-01 0.000000000000000e+00
					4.169477881004139e-01 -1.046239326200828e+00 0.000000000000000e+00
					8.338955762008279e-01 -8.338955762008279e-01 0.000000000000000e+00
					3.475970508005519e-01 -7.908191016011039e-01 0.000000000000000e+00
					6.951941016011038e-01 -6.951941016011038e-01 0.000000000000000e+00
					-6.951941016011038e-01 -6.951941016011038e-01 0.000000000000000e+00
					-3.475970508005519e-01 -7.908191016011039e-01 0.000000000000000e+00
					-5.838955762008279e-01 -5.838955762008279e-01 0.000000000000000e+00
					-2.919477881004139e-01 -6.087393262008278e-01 0.000000000000000e+00
					-3.475970508005519e-01 -7.908191016011039e-01 0.000000000000000e+00
					4.163336342344337e-17 -8.226941016011038e-01 0.000000000000000e+00
					-2.919477881004139e-01 -6.087393262008278e-01 0.000000000000000e+00
					3.469446951953614e-17 -6.170205762008278e-01 0.000000000000000e+00
					4.163336342344337e-17 -8.226941016011038e-01 0.000000000000000e+00
					3.475970508005519e-01 -7.908191016011039e-01 0.000000000000000e+00
					3.469446951953614e-17 -6.170205762008278e-01 0.000000000000000e+00
					2.919477881004139e-01 -6.087393262008278e-01 0.000000000000000e+00
					3.475970508005519e-01 -7.908191016011039e-01 0.000000000000000e+00
					6.951941016011038e-01 -6.951941016011038e-01 0.000000000000000e+00
					2.919477881004139e-01 -6.087393262008278e-01 0.000000000000000e+00
					5.838955762008279e-01 -5.838955762008279e-01 0.000000000000000e+00
					-5.838955762008279e-01 -5.838955762008279e-01 0.000000000000000e+00
					-2.919477881004139e-01 -6.087393262008278e-01 0.000000000000000e+00
					-5.000000000000000e-01 -5.000000000000000e-01 0.000000000000000e+00
					-2.500000000000000e-01 -5.000000000000000e-01 0.000000000000000e+00
					-2.919477881004139e-01 -6.087393262008278e-01 0.000000000000000e+00
					3.469446951953614e-17 -6.170205762008278e-01 0.000000000000000e+00
					-2.500000000000000e-01 -5.000000000000000e-01 0.000000000000000e+00
					2.775557561562891e-17 -5.000000000000000e-01 0.000000000000000e+00
					3.469446951953614e-17 -6.170205762008278e-01 0.000000000000000e+00
					2.919477881004139e-01 -6.087393262008278e-01 0.000000000000000e+00
					2.775557561562891e-17 -5.000000000000000e-01 0.000000000000000e+00
					2.500000000000000e-01 -5.000000000000000e-01 0.000000000000000e+00
					2.919477881004139e-01 -6.087393262008278e-01 0.000000000000000e+00
					5.838955762008279e-01 -5.838955762008279e-01 0.000000000000000e+00
					2.500000000000000e-01 -5.000000000000000e-01 0.000000000000000e+00
					5.000000000000000e-01 -5.000000000000000e-01 0.000000000000000e+00
				</DataArray>
			</Points>
			<Cells>
				<DataArray Name="connectivity" type="UInt32" format="ascii">
					0 1 3 2 4 5 7 6 8 9 11 10 12 13 15 14 16 17 19 18 20 21 23 22 24 25 27 26 28 29 31 30 32 33 35 34 36 37 39 38 40 41 43 42 44 45 47 46 48 49 51 50 52 53 55 54 56 57 59 58 60 61 63 62 
				</DataArray>
				<DataArray Name="offsets" type="UInt32" format="ascii">
					4 8 12 16 20 24 28 32 36 40 44 48 52 56 60 64 
				</DataArray>
				<DataArray Name="types" type="UInt8" format="ascii">
					9 9 9 9 9 9 9 9 9 9 9 9 9 9 9 9 
				</DataArray>
			</Cells>
			<PointData Vectors="solution ">
				<DataArray Name="solution" type="Float64" NumberOfComponents="1" format="ascii">
					0.000000000000000e+00 0.000000000000000e+00 1.301594468141565e-02 3.426400933732276e-02 0.000000000000000e+00 0.000000000000000e+00 3.426400933732276e-02 5.948967299987462e-02 0.000000000000000e+00 0.000000000000000e+00 5.948967299987462e-02 7.853762381418540e-02 0.000000000000000e+00 0.000000000000000e+00 7.853762381418540e-02 6.812129999166144e-02 1.301594468141565e-02 3.426400933732276e-02 1.812536321542485e-01 5.040841701725678e-01 3.426400933732276e-02 5.948967299987462e-02 5.040841701725678e-01 8.656051395578216e-01 5.948967299987462e-02 7.853762381418540e-02 8.656051395578216e-01 1.008232733210658e+00 7.853762381418540e-02 6.812129999166144e-02 1.008232733210658e+00 7.297804596689352e-01 1.812536321542485e-01 5.040841701725678e-01 7.185216605035217e-01 1.836606043611241e+00 5.040841701725678e-01 8.656051395578216e-01 1.836606043611241e+00 2.991498860876460e+00 8.656051395578216e-01 1.008232733210658e+00 2.991498860876460e+00 3.287735869061540e+00 1.008232733210658e+00 7.297804596689352e-01 3.287735869061540e+00 2.309782341485674e+00 7.185216605035217e-01 1.836606043611241e+00 1.618660371210284e+00 3.480921226911770e+00 1.836606043611241e+00 2.991498860876460e+00 3.480921226911770e+00 5.254698981861049e+00 2.991498860876460e+00 3.287735869061540e+00 5.254698981861049e+00 5.736120503094334e+00 3.287735869061540e+00 2.309782341485674e+00 5.736120503094334e+00 4.390049355383335e+00 
				</DataArray>
			</PointData>
			<CellData>
			</CellData>
		</Piece>
	</UnstructuredGrid>
</VTKFile>