<?xml version="1.0"?>
<VTKFile type="UnstructuredGrid" byte_order="LittleEndian">
	<UnstructuredGrid>
		<Piece NumberOfPoints="256" NumberOfCells="64">
			<Points>
				<DataArray type="Float64" NumberOfComponents="3" format="ascii">
					-1.000000000000000e+00 1.000000000000000e+00 0.000000000000000e+00
					-9.135224194504830e-01 9.135224194504830e-01 0.000000000000000e+00
					-7.500000000000000e-01 1.218750000000000e+00 0.000000000000000e+00
					-6.851418145878623e-01 1.081481403825483e+00 0.000000000000000e+00
					-9.135224194504830e-01 9.135224194504830e-01 0.000000000000000e+00
					-8.338955762008280e-01 8.338955762008280e-01 0.000000000000000e+00
					-6.851418145878623e-01 1.081481403825483e+00 0.000000000000000e+00
					-6.254216821506210e-01 9.577627637008281e-01 0.000000000000000e+00
					-8.338955762008280e-01 8.338955762008280e-01 0.000000000000000e+00
					-7.611194702510350e-01 7.611194702510350e-01 0.000000000000000e+00
					-6.254216821506210e-01 9.577627637008281e-01 0.000000000000000e+00
					-5.708396026882763e-01 8.475940796260351e-01 0.000000000000000e+00
					-7.611194702510350e-01 7.611194702510350e-01 0.000000000000000e+00
					-6.951941016011041e-01 6.951941016011041e-01 0.000000000000000e+00
					-5.708396026882763e-01 8.475940796260351e-01 0.000000000000000e+00
					-5.213955762008280e-01 7.509753516011042e-01 0.000000000000000e+00
					-6.951941016011041e-01 6.951941016011041e-01 0.000000000000000e+00
					-6.361194702510350e-01 6.361194702510350e-01 0.000000000000000e+00
					-5.213955762008280e-01 7.509753516011042e-01 0.000000000000000e+00
					-4.770896026882763e-01 6.679065796260351e-01 0.000000000000000e+00
					-6.361194702510350e-01 6.361194702510350e-01 0.000000000000000e+00
					-5.838955762008280e-01 5.838955762008280e-01 0.000000000000000e+00
					-4.770896026882763e-01 6.679065796260351e-01 0.000000000000000e+00
					-4.379216821506210e-01 5.983877637008280e-01 0.000000000000000e+00
					-5.838955762008280e-01 5.838955762008280e-01 0.000000000000000e+00
					-5.385224194504830e-01 5.385224194504830e-01 0.000000000000000e+00
					-4.379216821506210e-01 5.983877637008280e-01 0.000000000000000e+00
					-4.038918145878622e-01 5.424189038254830e-01 0.000000000000000e+00
					-5.385224194504830e-01 5.385224194504830e-01 0.000000000000000e+00
					-5.000000000000000e-01 5.000000000000000e-01 0.000000000000000e+00
					-4.038918145878622e-01 5.424189038254830e-01 0.000000000000000e+00
					-3.750000000000000e-01 5.000000000000000e-01 0.000000000000000e+00
					-7.500000000000000e-01 1.218750000000000e+00 0.000000000000000e+00
					-6.851418145878623e-01 1.081481403825483e+00 0.000000000000000e+00
					-5.000000000000000e-01 1.375000000000000e+00 0.000000000000000e+00
					-4.567612097252415e-01 1.201452106950483e+00 0.000000000000000e+00
					-6.851418145878623e-01 1.081481403825483e+00 0.000000000000000e+00
					-6.254216821506210e-01 9.577627637008281e-01 0.000000000000000e+00
					-4.567612097252415e-01 1.201452106950483e+00 0.000000000000000e+00
					-4.169477881004140e-01 1.046239326200828e+00 0.000000000000000e+00
					-6.254216821506210e-01 9.577627637008281e-01 0.000000000000000e+00
					-5.708396026882763e-01 8.475940796260351e-01 0.000000000000000e+00
					-4.169477881004140e-01 1.046239326200828e+00 0.000000000000000e+00
					-3.805597351255176e-01 9.093616577510352e-01 0.000000000000000e+00
					-5.708396026882763e-01 8.475940796260351e-01 0.000000000000000e+00
					-5.213955762008280e-01 7.509753516011042e-01 0.000000000000000e+00
					-3.805597351255176e-01 9.093616577510352e-01 0.000000000000000e+00
					-3.475970508005520e-01 7.908191016011042e-01 0.000000000000000e+00
					-5.213955762008280e-01 7.509753516011042e-01 0.000000000000000e+00
					-4.770896026882763e-01 6.679065796260351e-01 0.000000000000000e+00
					-3.475970508005520e-01 7.908191016011042e-01 0.000000000000000e+00
					-3.180597351255176e-01 6.906116577510353e-01 0.000000000000000e+00
					-4.770896026882763e-01 6.679065796260351e-01 0.000000000000000e+00
					-4.379216821506210e-01 5.983877637008280e-01 0.000000000000000e+00
					-3.180597351255176e-01 6.906116577510353e-01 0.000000000000000e+00
					-2.919477881004140e-01 6.087393262008280e-01 0.000000000000000e+00
					-4.379216821506210e-01 5.983877637008280e-01 0.000000000000000e+00
					-4.038918145878622e-01 5.424189038254830e-01 0.000000000000000e+00
					-2.919477881004140e-01 6.087393262008280e-01 0.000000000000000e+00
					-2.692612097252415e-01 5.452021069504830e-01 0.000000000000000e+00
					-4.038918145878622e-01 5.424189038254830e-01 0.000000000000000e+00
					-3.750000000000000e-01 5.000000000000000e-01 0.000000000000000e+00
					-2.692612097252415e-01 5.452021069504830e-01 0.000000000000000e+00
					-2.500000000000000e-01 5.000000000000000e-01 0.000000000000000e+00
					-5.000000000000000e-01 1.375000000000000e+00 0.000000000000000e+00
					-4.567612097252415e-01 1.201452106950483e+00 0.000000000000000e+00
					-2.499999999999999e-01 1.468750000000000e+00 0.000000000000000e+00
					-2.283806048626207e-01 1.273434528825483e+00 0.000000000000000e+00
					-4.567612097252415e-01 1.201452106950483e+00 0.000000000000000e+00
					-4.169477881004140e-01 1.046239326200828e+00 0.000000000000000e+00
					-2.283806048626207e-01 1.273434528825483e+00 0.000000000000000e+00
					-2.084738940502069e-01 1.099325263700828e+00 0.000000000000000e+00
					-4.169477881004140e-01 1.046239326200828e+00 0.000000000000000e+00
					-3.805597351255176e-01 9.093616577510352e-01 0.000000000000000e+00
					-2.084738940502069e-01 1.099325263700828e+00 0.000000000000000e+00
					-1.902798675627587e-01 9.464222046260351e-01 0.000000000000000e+00
					-3.805597351255176e-01 9.093616577510352e-01 0.000000000000000e+00
					-3.475970508005520e-01 7.908191016011042e-01 0.000000000000000e+00
					-1.902798675627587e-01 9.464222046260351e-01 0.000000000000000e+00
					-1.737985254002760e-01 8.147253516011042e-01 0.000000000000000e+00
					-3.475970508005520e-01 7.908191016011042e-01 0.000000000000000e+00
					-3.180597351255176e-01 6.906116577510353e-01 0.000000000000000e+00
					-1.737985254002760e-01 8.147253516011042e-01 0.000000000000000e+00
					-1.590298675627587e-01 7.042347046260352e-01 0.000000000000000e+00
					-3.180597351255176e-01 6.906116577510353e-01 0.000000000000000e+00
					-2.919477881004140e-01 6.087393262008280e-01 0.000000000000000e+00
					-1.590298675627587e-01 7.042347046260352e-01 0.000000000000000e+00
					-1.459738940502070e-01 6.149502637008282e-01 0.000000000000000e+00
					-2.919477881004140e-01 6.087393262008280e-01 0.000000000000000e+00
					-2.692612097252415e-01 5.452021069504830e-01 0.000000000000000e+00
					-1.459738940502070e-01 6.149502637008282e-01 0.000000000000000e+00
					-1.346306048626207e-01 5.468720288254829e-01 0.000000000000000e+00
					-2.692612097252415e-01 5.452021069504830e-01 0.000000000000000e+00
					-2.500000000000000e-01 5.000000000000000e-01 0.000000000000000e+00
					-1.346306048626207e-01 5.468720288254829e-01 0.000000000000000e+00
					-1.250000000000000e-01 5.000000000000000e-01 0.000000000000000e+00
					-2.499999999999999e-01 1.468750000000000e+00 0.000000000000000e+00
					-2.283806048626207e-01 1.273434528825483e+00 0.000000000000000e+00
					6.938893903907228e-17 1.500000000000000e+00 0.000000000000000e+00
					1.249000902703301e-16 1.297428669450483e+00 0.000000000000000e+00
					-2.283806048626207e-01 1.273434528825483e+00 0.000000000000000e+00
					-2.084738940502069e-01 1.099325263700828e+00 0.000000000000000e+00
					1.249000902703301e-16 1.297428669450483e+00 0.000000000000000e+00
					5.551115123125783e-17 1.117020576200828e+00 0.000000000000000e+00
					-2.084738940502069e-01 1.099325263700828e+00 0.000000000000000e+00
					-1.902798675627587e-01 9.464222046260351e-01 0.000000000000000e+00
					5.551115123125783e-17 1.117020576200828e+00 0.000000000000000e+00
					5.551115123125783e-17 9.587757202510351e-01 0.000000000000000e+00
					-1.902798675627587e-01 9.464222046260351e-01 0.000000000000000e+00
					-1.737985254002760e-01 8.147253516011042e-01 0.000000000000000e+00
					5.551115123125783e-17 9.587757202510351e-01 0.000000000000000e+00
					1.387778780781446e-17 8.226941016011042e-01 0.000000000000000e+00
					-1.737985254002760e-01 8.147253516011042e-01 0.000000000000000e+00
					-1.590298675627587e-01 7.042347046260352e-01 0.000000000000000e+00
					1.387778780781446e-17 8.226941016011042e-01 0.000000000000000e+00
					4.163336342344337e-17 7.087757202510352e-01 0.000000000000000e+00
					-1.590298675627587e-01 7.042347046260352e-01 0.000000000000000e+00
					-1.459738940502070e-01 6.149502637008282e-01 0.000000000000000e+00
					4.163336342344337e-17 7.087757202510352e-01 0.000000000000000e+00
					4.857225732735060e-17 6.170205762008282e-01 0.000000000000000e+00
					-1.459738940502070e-01 6.149502637008282e-01 0.000000000000000e+00
					-1.346306048626207e-01 5.468720288254829e-01 0.000000000000000e+00
					4.857225732735060e-17 6.170205762008282e-01 0.000000000000000e+00
					3.469446951953614e-17 5.474286694504830e-01 0.000000000000000e+00
					-1.346306048626207e-01 5.468720288254829e-01 0.000000000000000e+00
					-1.250000000000000e-01 5.000000000000000e-01 0.000000000000000e+00
					3.469446951953614e-17 5.474286694504830e-01 0.000000000000000e+00
					3.469446951953614e-17 5.000000000000000e-01 0.000000000000000e+00
					6.938893903907228e-17 1.500000000000000e+00 0.000000000000000e+00
					1.249000902703301e-16 1.297428669450483e+00 0.000000000000000e+00
					2.500000000000001e-01 1.468750000000000e+00 0.000000000000000e+00
					2.283806048626209e-01 1.273434528825483e+00 0.000000000000000e+00
					1.249000902703301e-16 1.297428669450483e+00 0.000000000000000e+00
					5.551115123125783e-17 1.117020576200828e+00 0.000000000000000e+00
					2.283806048626209e-01 1.273434528825483e+00 0.000000000000000e+00
					2.084738940502071e-01 1.099325263700828e+00 0.000000000000000e+00
					5.551115123125783e-17 1.117020576200828e+00 0.000000000000000e+00
					5.551115123125783e-17 9.587757202510351e-01 0.000000000000000e+00
					2.084738940502071e-01 1.099325263700828e+00 0.000000000000000e+00
					1.902798675627588e-01 9.464222046260350e-01 0.000000000000000e+00
					5.551115123125783e-17 9.587757202510351e-01 0.000000000000000e+00
					1.387778780781446e-17 8.226941016011042e-01 0.000000000000000e+00
					1.902798675627588e-01 9.464222046260350e-01 0.000000000000000e+00
					1.737985254002760e-01 8.147253516011042e-01 0.000000000000000e+00
					1.387778780781446e-17 8.226941016011042e-01 0.000000000000000e+00
					4.163336342344337e-17 7.087757202510352e-01 0.000000000000000e+00
					1.737985254002760e-01 8.147253516011042e-01 0.000000000000000e+00
					1.590298675627588e-01 7.042347046260351e-01 0.000000000000000e+00
					4.163336342344337e-17 7.087757202510352e-01 0.000000000000000e+00
					4.857225732735060e-17 6.170205762008282e-01 0.000000000000000e+00
					1.590298675627588e-01 7.042347046260351e-01 0.000000000000000e+00
					1.459738940502071e-01 6.149502637008282e-01 0.000000000000000e+00
					4.857225732735060e-17 6.170205762008282e-01 0.000000000000000e+00
					3.469446951953614e-17 5.474286694504830e-01 0.000000000000000e+00
					1.459738940502071e-01 6.149502637008282e-01 0.000000000000000e+00
					1.346306048626208e-01 5.468720288254829e-01 0.000000000000000e+00
					3.469446951953614e-17 5.474286694504830e-01 0.000000000000000e+00
					3.469446951953614e-17 5.000000000000000e-01 0.000000000000000e+00
					1.346306048626208e-01 5.468720288254829e-01 0.000000000000000e+00
					1.250000000000001e-01 5.000000000000000e-01 0.000000000000000e+00
					2.500000000000001e-01 1.468750000000000e+00 0.000000000000000e+00
					2.283806048626209e-01 1.273434528825483e+00 0.000000000000000e+00
					5.000000000000001e-01 1.375000000000000e+00 0.000000000000000e+00
					4.567612097252416e-01 1.201452106950483e+00 0.000000000000000e+00
					2.283806048626209e-01 1.273434528825483e+00 0.000000000000000e+00
					2.084738940502071e-01 1.099325263700828e+00 0.000000000000000e+00
					4.567612097252416e-01 1.201452106950483e+00 0.000000000000000e+00
					4.169477881004141e-01 1.046239326200828e+00 0.000000000000000e+00
					2.084738940502071e-01 1.099325263700828e+00 0.000000000000000e+00
					1.902798675627588e-01 9.464222046260350e-01 0.000000000000000e+00
					4.169477881004141e-01 1.046239326200828e+00 0.000000000000000e+00
					3.805597351255176e-01 9.093616577510349e-01 0.000000000000000e+00
					1.902798675627588e-01 9.464222046260350e-01 0.000000000000000e+00
					1.737985254002760e-01 8.147253516011042e-01 0.000000000000000e+00
					3.805597351255176e-01 9.093616577510349e-01 0.000000000000000e+00
					3.475970508005520e-01 7.908191016011041e-01 0.000000000000000e+00
					1.737985254002760e-01 8.147253516011042e-01 0.000000000000000e+00
					1.590298675627588e-01 7.042347046260351e-01 0.000000000000000e+00
					3.475970508005520e-01 7.908191016011041e-01 0.000000000000000e+00
					3.180597351255176e-01 6.906116577510351e-01 0.000000000000000e+00
					1.590298675627588e-01 7.042347046260351e-01 0.000000000000000e+00
					1.459738940502071e-01 6.149502637008282e-01 0.000000000000000e+00
					3.180597351255176e-01 6.906116577510351e-01 0.000000000000000e+00
					2.919477881004141e-01 6.087393262008280e-01 0.000000000000000e+00
					1.459738940502071e-01 6.149502637008282e-01 0.000000000000000e+00
					1.346306048626208e-01 5.468720288254829e-01 0.000000000000000e+00
					2.919477881004141e-01 6.087393262008280e-01 0.000000000000000e+00
					2.692612097252415e-01 5.452021069504830e-01 0.000000000000000e+00
					1.346306048626208e-01 5.468720288254829e-01 0.000000000000000e+00
					1.250000000000001e-01 5.000000000000000e-01 0.000000000000000e+00
					2.692612097252415e-01 5.452021069504830e-01 0.000000000000000e+00
					2.500000000000001e-01 5.000000000000000e-01 0.000000000000000e+00
					5.000000000000001e-01 1.375000000000000e+00 0.000000000000000e+00
					4.567612097252416e-01 1.201452106950483e+00 0.000000000000000e+00
					7.500000000000000e-01 1.218750000000000e+00 0.000000000000000e+00
					6.851418145878623e-01 1.081481403825483e+00 0.000000000000000e+00
					4.567612097252416e-01 1.201452106950483e+00 0.000000000000000e+00
					4.169477881004141e-01 1.046239326200828e+00 0.000000000000000e+00
					6.851418145878623e-01 1.081481403825483e+00 0.000000000000000e+00
					6.254216821506210e-01 9.577627637008279e-01 0.000000000000000e+00
					4.169477881004141e-01 1.046239326200828e+00 0.000000000000000e+00
					3.805597351255176e-01 9.093616577510349e-01 0.000000000000000e+00
					6.254216821506210e-01 9.577627637008279e-01 0.000000000000000e+00
					5.708396026882763e-01 8.475940796260348e-01 0.000000000000000e+00
					3.805597351255176e-01 9.093616577510349e-01 0.000000000000000e+00
					3.475970508005520e-01 7.908191016011041e-01 0.000000000000000e+00
					5.708396026882763e-01 8.475940796260348e-01 0.000000000000000e+00
					5.213955762008280e-01 7.509753516011041e-01 0.000000000000000e+00
					3.475970508005520e-01 7.908191016011041e-01 0.000000000000000e+00
					3.180597351255176e-01 6.906116577510351e-01 0.000000000000000e+00
					5.213955762008280e-01 7.509753516011041e-01 0.000000000000000e+00
					4.770896026882762e-01 6.679065796260349e-01 0.000000000000000e+00
					3.180597351255176e-01 6.906116577510351e-01 0.000000000000000e+00
					2.919477881004141e-01 6.087393262008280e-01 0.000000000000000e+00
					4.770896026882762e-01 6.679065796260349e-01 0.000000000000000e+00
					4.379216821506210e-01 5.983877637008280e-01 0.000000000000000e+00
					2.919477881004141e-01 6.087393262008280e-01 0.000000000000000e+00
					2.692612097252415e-01 5.452021069504830e-01 0.000000000000000e+00
					4.379216821506210e-01 5.983877637008280e-01 0.000000000000000e+00
					4.038918145878622e-01 5.424189038254830e-01 0.000000000000000e+00
					2.692612097252415e-01 5.452021069504830e-01 0.000000000000000e+00
					2.500000000000001e-01 5.000000000000000e-01 0.000000000000000e+00
					4.038918145878622e-01 5.424189038254830e-01 0.000000000000000e+00
					3.750000000000000e-01 5.000000000000000e-01 0.000000000000000e+00
					7.500000000000000e-01 1.218750000000000e+00 0.000000000000000e+00
					6.851418145878623e-01 1.081481403825483e+00 0.000000000000000e+00
					1.000000000000000e+00 1.000000000000000e+00 0.000000000000000e+00
					9.135224194504830e-01 9.135224194504830e-01 0.000000000000000e+00
					6.851418145878623e-01 1.081481403825483e+00 0.000000000000000e+00
					6.254216821506210e-01 9.577627637008279e-01 0.000000000000000e+00
					9.135224194504830e-01 9.135224194504830e-01 0.000000000000000e+00
					8.338955762008280e-01 8.338955762008280e-01 0.000000000000000e+00
					6.254216821506210e-01 9.577627637008279e-01 0.000000000000000e+00
					5.708396026882763e-01 8.475940796260348e-01 0.000000000000000e+00
					8.338955762008280e-01 8.338955762008280e-01 0.000000000000000e+00
					7.611194702510350e-01 7.611194702510350e-01 0.000000000000000e+00
					5.708396026882763e-01 8.475940796260348e-01 0.000000000000000e+00
					5.213955762008280e-01 7.509753516011041e-01 0.000000000000000e+00
					7.611194702510350e-01 7.611194702510350e-01 0.000000000000000e+00
					6.951941016011041e-01 6.951941016011041e-01 0.000000000000000e+00
					5.213955762008280e-01 7.509753516011041e-01 0.000000000000000e+00
					4.770896026882762e-01 6.679065796260349e-01 0.000000000000000e+00
					6.951941016011041e-01 6.951941016011041e-01 0.000000000000000e+00
					6.361194702510350e-01 6.361194702510350e-01 0.000000000000000e+00
					4.770896026882762e-01 6.679065796260349e-01 0.000000000000000e+00
					4.379216821506210e-01 5.983877637008280e-01 0.000000000000000e+00
					6.361194702510350e-01 6.361194702510350e-01 0.000000000000000e+00
					5.838955762008280e-01 5.838955762008280e-01 0.000000000000000e+00
					4.379216821506210e-01 5.983877637008280e-01 0.000000000000000e+00
					4.038918145878622e-01 5.424189038254830e-01 0.000000000000000e+00
					5.838955762008280e-01 5.838955762008280e-01 0.000000000000000e+00
					5.385224194504830e-01 5.385224194504830e-01 0.000000000000000e+00
					4.038918145878622e-01 5.424189038254830e-01 0.000000000000000e+00
					3.750000000000000e-01 5.000000000000000e-01 0.000000000000000e+00
					5.385224194504830e-01 5.385224194504830e-01 0.000000000000000e+00
					5.000000000000000e-01 5.000000000000000e-01 0.000000000000000e+00
				</DataArray>
			</Points>
			<Cells>
				<DataArray Name="connectivity" type="UInt32" format="ascii">
					0 1 3 2 4 5 7 6 8 9 11 10 12 13 15 14 16 17 19 18 20 21 23 22 24 25 27 26 28 29 31 30 32 33 35 34 36 37 39 38 40 41 43 42 44 45 47 46 48 49 51 50 52 53 55 54 56 57 59 58 60 61 63 62 64 65 67 66 68 69 71 70 72 73 75 74 76 77 79 78 80 81 83 82 84 85 87 86 88 89 91 90 92 93 95 94 96 97 99 98 100 101 103 102 104 105 107 106 108 109 111 110 112 113 115 114 116 117 119 118 120 121 123 122 124 125 127 126 128 129 131 130 132 133 135 134 136 137 139 138 140 141 143 142 144 145 147 146 148 149 151 150 152 153 155 154 156 157 159 158 160 161 163 162 164 165 167 166 168 169 171 170 172 173 175 174 176 177 179 178 180 181 183 182 184 185 187 186 188 189 191 190 192 193 195 194 196 197 199 198 200 201 203 202 204 205 207 206 208 209 211 210 212 213 215 214 216 217 219 218 220 221 223 222 224 225 227 226 228 229 231 230 232 233 235 234 236 237 239 238 240 241 243 242 244 245 247 246 248 249 251 250 252 253 255 254 
				</DataArray>
				<DataArray Name="offsets" type="UInt32" format="ascii">
					4 8 12 16 20 24 28 32 36 40 44 48 52 56 60 64 68 72 76 80 84 88 92 96 100 104 108 112 116 120 124 128 132 136 140 144 148 152 156 160 164 168 172 176 180 184 188 192 196 200 204 208 212 216 220 224 228 232 236 240 244 248 252 256 
				</DataArray>
				<DataArray Name="types" type="UInt8" format="ascii">
					9 9 9 9 9 9 9 9 9 9 9 9 9 9 9 9 9 9 9 9 9 9 9 9 9 9 9 9 9 9 9 9 9 9 9 9 9 9 9 9 9 9 9 9 9 9 9 9 9 9 9 9 9 9 9 9 9 9 9 9 9 9 9 9 
				</DataArray>
			</Cells>
			<PointData Vectors="solution ">
				<DataArray Name="solution" type="Float64" NumberOfComponents="1" format="ascii">
					0.000000000000000e+00 3.246902479214790e-02 0.000000000000000e+00 1.108771433277741e-01 3.246902479214790e-02 3.684461730750901e-01 1.108771433277741e-01 1.074270956650224e+00 3.684461730750901e-01 1.317043526812058e+00 1.074270956650224e+00 3.350157054782401e+00 1.317043526812058e+00 2.935783031318199e+00 3.350157054782401e+00 6.581799948611147e+00 2.935783031318199e+00 5.060143049940431e+00 6.581799948611147e+00 1.011270211225147e+01 5.060143049940431e+00 7.429092318528760e+00 1.011270211225147e+01 1.341232113187395e+01 7.429092318528760e+00 9.788372433169616e+00 1.341232113187395e+01 1.620293812853764e+01 9.788372433169616e+00 1.194421848878492e+01 1.620293812853764e+01 1.841347385989737e+01 0.000000000000000e+00 1.108771433277741e-01 0.000000000000000e+00 2.806743442149400e-01 1.108771433277741e-01 1.074270956650224e+00 2.806743442149400e-01 2.341835558865323e+00 1.074270956650224e+00 3.350157054782401e+00 2.341835558865323e+00 6.629641705624914e+00 3.350157054782401e+00 6.581799948611147e+00 6.629641705624914e+00 1.194866568392909e+01 6.581799948611147e+00 1.011270211225147e+01 1.194866568392909e+01 1.695751893623999e+01 1.011270211225147e+01 1.341232113187395e+01 1.695751893623999e+01 2.094614812608058e+01 1.341232113187395e+01 1.620293812853764e+01 2.094614812608058e+01 2.380452593580666e+01 1.620293812853764e+01 1.841347385989737e+01 2.380452593580666e+01 2.573508212721228e+01 0.000000000000000e+00 2.806743442149400e-01 0.000000000000000e+00 5.503305859942712e-01 2.806743442149400e-01 2.341835558865323e+00 5.503305859942712e-01 4.022678068806370e+00 2.341835558865323e+00 6.629641705624914e+00 4.022678068806370e+00 1.064258934571519e+01 6.629641705624914e+00 1.194866568392909e+01 1.064258934571519e+01 1.813033173605856e+01 1.194866568392909e+01 1.695751893623999e+01 1.813033173605856e+01 2.444172998294005e+01 1.695751893623999e+01 2.094614812608058e+01 2.444172998294005e+01 2.882879535848443e+01 2.094614812608058e+01 2.380452593580666e+01 2.882879535848443e+01 3.148565710211210e+01 2.380452593580666e+01 2.573508212721228e+01 3.148565710211210e+01 3.294970740623963e+01 0.000000000000000e+00 5.503305859942712e-01 0.000000000000000e+00 8.070552858621483e-01 5.503305859942712e-01 4.022678068806370e+00 8.070552858621483e-01 5.530594804883176e+00 4.022678068806370e+00 1.064258934571519e+01 5.530594804883176e+00 1.412171160026242e+01 1.064258934571519e+01 1.813033173605856e+01 1.412171160026242e+01 2.335636441134893e+01 1.813033173605856e+01 2.444172998294005e+01 2.335636441134893e+01 3.065833875020243e+01 2.444172998294005e+01 2.882879535848443e+01 3.065833875020243e+01 3.530963437048784e+01 2.882879535848443e+01 3.148565710211210e+01 3.530963437048784e+01 3.777751369194914e+01 3.148565710211210e+01 3.294970740623963e+01 3.777751369194914e+01 3.886521191733701e+01 0.000000000000000e+00 8.070552858621483e-01 0.000000000000000e+00 8.689462794159269e-01 8.070552858621483e-01 5.530594804883176e+00 8.689462794159269e-01 6.104176908141582e+00 5.530594804883176e+00 1.412171160026242e+01 6.104176908141582e+00 1.557220160352999e+01 1.412171160026242e+01 2.335636441134893e+01 1.557220160352999e+01 2.566761225978724e+01 2.335636441134893e+01 3.065833875020243e+01 2.566761225978724e+01 3.359515260278047e+01 3.065833875020243e+01 3.530963437048784e+01 3.359515260278047e+01 3.860338823546232e+01 3.530963437048784e+01 3.777751369194914e+01 3.860338823546232e+01 4.121499951391863e+01 3.777751369194914e+01 3.886521191733701e+01 4.121499951391863e+01 4.230846132630838e+01 0.000000000000000e+00 8.689462794159269e-01 0.000000000000000e+00 6.989751031935465e-01 8.689462794159269e-01 6.104176908141582e+00 6.989751031935465e-01 5.392129041441702e+00 6.104176908141582e+00 1.557220160352999e+01 5.392129041441702e+00 1.419384102025305e+01 1.557220160352999e+01 2.566761225978724e+01 1.419384102025305e+01 2.394867560516171e+01 2.566761225978724e+01 3.359515260278047e+01 2.394867560516171e+01 3.203705379809536e+01 3.359515260278047e+01 3.860338823546232e+01 3.203705379809536e+01 3.755806567869933e+01 3.860338823546232e+01 4.121499951391863e+01 3.755806567869933e+01 4.078926964052002e+01 4.121499951391863e+01 4.230846132630838e+01 4.078926964052002e+01 4.243048276827653e+01 0.000000000000000e+00 6.989751031935465e-01 0.000000000000000e+00 4.351840102667127e-01 6.989751031935465e-01 5.392129041441702e+00 4.351840102667127e-01 3.752974887250428e+00 5.392129041441702e+00 1.419384102025305e+01 3.752974887250428e+00 1.049485936324766e+01 1.419384102025305e+01 2.394867560516171e+01 1.049485936324766e+01 1.867605569208855e+01 2.394867560516171e+01 3.203705379809536e+01 1.867605569208855e+01 2.626003050176201e+01 3.203705379809536e+01 3.755806567869933e+01 2.626003050176201e+01 3.220264928815727e+01 3.755806567869933e+01 4.078926964052002e+01 3.220264928815727e+01 3.634247712499582e+01 4.078926964052002e+01 4.243048276827653e+01 3.634247712499582e+01 3.898219769452589e+01 0.000000000000000e+00 4.351840102667127e-01 0.000000000000000e+00 2.016052923337300e-01 4.351840102667127e-01 3.752974887250428e+00 2.016052923337300e-01 1.954056411217658e+00 3.752974887250428e+00 1.049485936324766e+01 1.954056411217658e+00 6.037906829504154e+00 1.049485936324766e+01 1.867605569208855e+01 6.037906829504154e+00 1.179450361280968e+01 1.867605569208855e+01 2.626003050176201e+01 1.179450361280968e+01 1.806149555564264e+01 2.626003050176201e+01 3.220264928815727e+01 1.806149555564264e+01 2.388502020017890e+01 3.220264928815727e+01 3.634247712499582e+01 2.388502020017890e+01 2.873881817771384e+01 3.634247712499582e+01 3.898219769452589e+01 2.873881817771384e+01 3.246720770646670e+01 
				</DataArray>
			</PointData>
			<CellData>
			</CellData>
		</Piece>
	</UnstructuredGrid>
</VTKFile>