<?xml version="1.0"?>
<VTKFile type="UnstructuredGrid" byte_order="LittleEndian">
	<UnstructuredGrid>
		<Piece NumberOfPoints="256" NumberOfCells="64">
			<Points>
				<DataArray type="Float64" NumberOfComponents="3" format="ascii">
					-1.000000000000000e+00 1.000000000000000e+00 0.000000000000000e+00
					-9.135224194504830e-01 9.135224194504830e-01 0.000000000000000e+00
					-7.500000000000000e-01 1.218750000000000e+00 0.000000000000000e+00
					-6.851418145878623e-01 1.081481403825483e+00 0.000000000000000e+00
					-9.135224194504830e-01 9.135224194504830e-01 0.000000000000000e+00
					-8.338955762008280e-01 8.338955762008280e-01 0.000000000000000e+00
					-6.851418145878623e-01 1.081481403825483e+00 0.000000000000000e+00
					-6.254216821506210e-01 9.577627637008281e-01 0.000000000000000e+00
					-8.338955762008280e-01 8.338955762008280e-01 0.000000000000000e+00
					-7.611194702510350e-01 7.611194702510350e-01 0.000000000000000e+00
					-6.254216821506210e-01 9.577627637008281e-01 0.000000000000000e+00
					-5.708396026882763e-01 8.475940796260351e-01 0.000000000000000e+00
					-7.611194702510350e-01 7.611194702510350e-01 0.000000000000000e+00
					-6.951941016011041e-01 6.951941016011041e-01 0.000000000000000e+00
					-5.708396026882763e-01 8.475940796260351e-01 0.000000000000000e+00
					-5.213955762008280e-01 7.509753516011042e-01 0.000000000000000e+00
					-6.951941016011041e-01 6.951941016011041e-01 0.000000000000000e+00
					-6.361194702510350e-01 6.361194702510350e-01 0.000000000000000e+00
					-5.213955762008280e-01 7.509753516011042e-01 0.000000000000000e+00
					-4.770896026882763e-01 6.679065796260351e-01 0.000000000000000e+00
					-6.361194702510350e-01 6.361194702510350e-01 0.000000000000000e+00
					-5.838955762008280e-01 5.838955762008280e-01 0.000000000000000e+00
					-4.770896026882763e-01 6.679065796260351e-01 0.000000000000000e+00
					-4.379216821506210e-01 5.983877637008280e-01 0.000000000000000e+00
					-5.838955762008280e-01 5.838955762008280e-01 0.000000000000000e+00
					-5.385224194504830e-01 5.385224194504830e-01 0.000000000000000e+00
					-4.379216821506210e-01 5.983877637008280e-01 0.000000000000000e+00
					-4.038918145878622e-01 5.424189038254830e-01 0.000000000000000e+00
					-5.385224194504830e-01 5.385224194504830e-01 0.000000000000000e+00
					-5.000000000000000e-01 5.000000000000000e-01 0.000000000000000e+00
					-4.038918145878622e-01 5.424189038254830e-01 0.000000000000000e+00
					-3.750000000000000e-01 5.000000000000000e-01 0.000000000000000e+00
					-7.500000000000000e-01 1.218750000000000e+00 0.000000000000000e+00
					-6.851418145878623e-01 1.081481403825483e+00 0.000000000000000e+00
					-5.000000000000000e-01 1.375000000000000e+00 0.000000000000000e+00
					-4.567612097252415e-01 1.201452106950483e+00 0.000000000000000e+00
					-6.851418145878623e-01 1.081481403825483e+00 0.000000000000000e+00
					-6.254216821506210e-01 9.577627637008281e-01 0.000000000000000e+00
					-4.567612097252415e-01 1.201452106950483e+00 0.000000000000000e+00
					-4.169477881004140e-01 1.046239326200828e+00 0.000000000000000e+00
					-6.254216821506210e-01 9.577627637008281e-01 0.000000000000000e+00
					-5.708396026882763e-01 8.475940796260351e-01 0.000000000000000e+00
					-4.169477881004140e-01 1.046239326200828e+00 0.000000000000000e+00
					-3.805597351255176e-01 9.093616577510352e-01 0.000000000000000e+00
					-5.708396026882763e-01 8.475940796260351e-01 0.000000000000000e+00
					-5.213955762008280e-01 7.509753516011042e-01 0.000000000000000e+00
					-3.805597351255176e-01 9.093616577510352e-01 0.000000000000000e+00
					-3.475970508005520e-01 7.908191016011042e-01 0.000000000000000e+00
					-5.213955762008280e-01 7.509753516011042e-01 0.000000000000000e+00
					-4.770896026882763e-01 6.679065796260351e-01 0.000000000000000e+00
					-3.475970508005520e-01 7.908191016011042e-01 0.000000000000000e+00
					-3.180597351255176e-01 6.906116577510353e-01 0.000000000000000e+00
					-4.770896026882763e-01 6.679065796260351e-01 0.000000000000000e+00
					-4.379216821506210e-01 5.983877637008280e-01 0.000000000000000e+00
					-3.180597351255176e-01 6.906116577510353e-01 0.000000000000000e+00
					-2.919477881004140e-01 6.087393262008280e-01 0.000000000000000e+00
					-4.379216821506210e-01 5.983877637008280e-01 0.000000000000000e+00
					-4.038918145878622e-01 5.424189038254830e-01 0.000000000000000e+00
					-2.919477881004140e-01 6.087393262008280e-01 0.000000000000000e+00
					-2.692612097252415e-01 5.452021069504830e-01 0.000000000000000e+00
					-4.038918145878622e-01 5.424189038254830e-01 0.000000000000000e+00
					-3.750000000000000e-01 5.000000000000000e-01 0.000000000000000e+00
					-2.692612097252415e-01 5.452021069504830e-01 0.000000000000000e+00
					-2.500000000000000e-01 5.000000000000000e-01 0.000000000000000e+00
					-5.000000000000000e-01 1.375000000000000e+00 0.000000000000000e+00
					-4.567612097252415e-01 1.201452106950483e+00 0.000000000000000e+00
					-2.499999999999999e-01 1.468750000000000e+00 0.000000000000000e+00
					-2.283806048626207e-01 1.273434528825483e+00 0.000000000000000e+00
					-4.567612097252415e-01 1.201452106950483e+00 0.000000000000000e+00
					-4.169477881004140e-01 1.046239326200828e+00 0.000000000000000e+00
					-2.283806048626207e-01 1.273434528825483e+00 0.000000000000000e+00
					-2.084738940502069e-01 1.099325263700828e+00 0.000000000000000e+00
					-4.169477881004140e-01 1.046239326200828e+00 0.000000000000000e+00
					-3.805597351255176e-01 9.093616577510352e-01 0.000000000000000e+00
					-2.084738940502069e-01 1.099325263700828e+00 0.000000000000000e+00
					-1.902798675627587e-01 9.464222046260351e-01 0.000000000000000e+00
					-3.805597351255176e-01 9.093616577510352e-01 0.000000000000000e+00
					-3.475970508005520e-01 7.908191016011042e-01 0.000000000000000e+00
					-1.902798675627587e-01 9.464222046260351e-01 0.000000000000000e+00
					-1.737985254002760e-01 8.147253516011042e-01 0.000000000000000e+00
					-3.475970508005520e-01 7.908191016011042e-01 0.000000000000000e+00
					-3.180597351255176e-01 6.906116577510353e-01 0.000000000000000e+00
					-1.737985254002760e-01 8.147253516011042e-01 0.000000000000000e+00
					-1.590298675627587e-01 7.042347046260352e-01 0.000000000000000e+00
					-3.180597351255176e-01 6.906116577510353e-01 0.000000000000000e+00
					-2.919477881004140e-01 6.087393262008280e-01 0.000000000000000e+00
					-1.590298675627587e-01 7.042347046260352e-01 0.000000000000000e+00
					-1.459738940502070e-01 6.149502637008282e-01 0.000000000000000e+00
					-2.919477881004140e-01 6.087393262008280e-01 0.000000000000000e+00
					-2.692612097252415e-01 5.452021069504830e-01 0.000000000000000e+00
					-1.459738940502070e-01 6.149502637008282e-01 0.000000000000000e+00
					-1.346306048626207e-01 5.468720288254829e-01 0.000000000000000e+00
					-2.692612097252415e-01 5.452021069504830e-01 0.000000000000000e+00
					-2.500000000000000e-01 5.000000000000000e-01 0.000000000000000e+00
					-1.346306048626207e-01 5.468720288254829e-01 0.000000000000000e+00
					-1.250000000000000e-01 5.000000000000000e-01 0.000000000000000e+00
					-2.499999999999999e-01 1.468750000000000e+00 0.000000000000000e+00
					-2.283806048626207e-01 1.273434528825483e+00 0.000000000000000e+00
					6.938893903907228e-17 1.500000000000000e+00 0.000000000000000e+00
					1.249000902703301e-16 1.297428669450483e+00 0.000000000000000e+00
					-2.283806048626207e-01 1.273434528825483e+00 0.000000000000000e+00
					-2.084738940502069e-01 1.099325263700828e+00 0.000000000000000e+00
					1.249000902703301e-16 1.297428669450483e+00 0.000000000000000e+00
					5.551115123125783e-17 1.117020576200828e+00 0.000000000000000e+00
					-2.084738940502069e-01 1.099325263700828e+00 0.000000000000000e+00
					-1.902798675627587e-01 9.464222046260351e-01 0.000000000000000e+00
					5.551115123125783e-17 1.117020576200828e+00 0.000000000000000e+00
					5.551115123125783e-17 9.587757202510351e-01 0.000000000000000e+00
					-1.902798675627587e-01 9.464222046260351e-01 0.000000000000000e+00
					-1.737985254002760e-01 8.147253516011042e-01 0.000000000000000e+00
					5.551115123125783e-17 9.587757202510351e-01 0.000000000000000e+00
					1.387778780781446e-17 8.226941016011042e-01 0.000000000000000e+00
					-1.737985254002760e-01 8.147253516011042e-01 0.000000000000000e+00
					-1.590298675627587e-01 7.042347046260352e-01 0.000000000000000e+00
					1.387778780781446e-17 8.226941016011042e-01 0.000000000000000e+00
					4.163336342344337e-17 7.087757202510352e-01 0.000000000000000e+00
					-1.590298675627587e-01 7.042347046260352e-01 0.000000000000000e+00
					-1.459738940502070e-01 6.149502637008282e-01 0.000000000000000e+00
					4.163336342344337e-17 7.087757202510352e-01 0.000000000000000e+00
					4.857225732735060e-17 6.170205762008282e-01 0.000000000000000e+00
					-1.459738940502070e-01 6.149502637008282e-01 0.000000000000000e+00
					-1.346306048626207e-01 5.468720288254829e-01 0.000000000000000e+00
					4.857225732735060e-17 6.170205762008282e-01 0.000000000000000e+00
					3.469446951953614e-17 5.474286694504830e-01 0.000000000000000e+00
					-1.346306048626207e-01 5.468720288254829e-01 0.000000000000000e+00
					-1.250000000000000e-01 5.000000000000000e-01 0.000000000000000e+00
					3.469446951953614e-17 5.474286694504830e-01 0.000000000000000e+00
					3.469446951953614e-17 5.000000000000000e-01 0.000000000000000e+00
					6.938893903907228e-17 1.500000000000000e+00 0.000000000000000e+00
					1.249000902703301e-16 1.297428669450483e+00 0.000000000000000e+00
					2.500000000000001e-01 1.468750000000000e+00 0.000000000000000e+00
					2.283806048626209e-01 1.273434528825483e+00 0.000000000000000e+00
					1.249000902703301e-16 1.297428669450483e+00 0.000000000000000e+00
					5.551115123125783e-17 1.117020576200828e+00 0.000000000000000e+00
					2.283806048626209e-01 1.273434528825483e+00 0.000000000000000e+00
					2.084738940502071e-01 1.099325263700828e+00 0.000000000000000e+00
					5.551115123125783e-17 1.117020576200828e+00 0.000000000000000e+00
					5.551115123125783e-17 9.587757202510351e-01 0.000000000000000e+00
					2.084738940502071e-01 1.099325263700828e+00 0.000000000000000e+00
					1.902798675627588e-01 9.464222046260350e-01 0.000000000000000e+00
					5.551115123125783e-17 9.587757202510351e-01 0.000000000000000e+00
					1.387778780781446e-17 8.226941016011042e-01 0.000000000000000e+00
					1.902798675627588e-01 9.464222046260350e-01 0.000000000000000e+00
					1.737985254002760e-01 8.147253516011042e-01 0.000000000000000e+00
					1.387778780781446e-17 8.226941016011042e-01 0.000000000000000e+00
					4.163336342344337e-17 7.087757202510352e-01 0.000000000000000e+00
					1.737985254002760e-01 8.147253516011042e-01 0.000000000000000e+00
					1.590298675627588e-01 7.042347046260351e-01 0.000000000000000e+00
					4.163336342344337e-17 7.087757202510352e-01 0.000000000000000e+00
					4.857225732735060e-17 6.170205762008282e-01 0.000000000000000e+00
					1.590298675627588e-01 7.042347046260351e-01 0.000000000000000e+00
					1.459738940502071e-01 6.149502637008282e-01 0.000000000000000e+00
					4.857225732735060e-17 6.170205762008282e-01 0.000000000000000e+00
					3.469446951953614e-17 5.474286694504830e-01 0.000000000000000e+00
					1.459738940502071e-01 6.149502637008282e-01 0.000000000000000e+00
					1.346306048626208e-01 5.468720288254829e-01 0.000000000000000e+00
					3.469446951953614e-17 5.474286694504830e-01 0.000000000000000e+00
					3.469446951953614e-17 5.000000000000000e-01 0.000000000000000e+00
					1.346306048626208e-01 5.468720288254829e-01 0.000000000000000e+00
					1.250000000000001e-01 5.000000000000000e-01 0.000000000000000e+00
					2.500000000000001e-01 1.468750000000000e+00 0.000000000000000e+00
					2.283806048626209e-01 1.273434528825483e+00 0.000000000000000e+00
					5.000000000000001e-01 1.375000000000000e+00 0.000000000000000e+00
					4.567612097252416e-01 1.201452106950483e+00 0.000000000000000e+00
					2.283806048626209e-01 1.273434528825483e+00 0.000000000000000e+00
					2.084738940502071e-01 1.099325263700828e+00 0.000000000000000e+00
					4.567612097252416e-01 1.201452106950483e+00 0.000000000000000e+00
					4.169477881004141e-01 1.046239326200828e+00 0.000000000000000e+00
					2.084738940502071e-01 1.099325263700828e+00 0.000000000000000e+00
					1.902798675627588e-01 9.464222046260350e-01 0.000000000000000e+00
					4.169477881004141e-01 1.046239326200828e+00 0.000000000000000e+00
					3.805597351255176e-01 9.093616577510349e-01 0.000000000000000e+00
					1.902798675627588e-01 9.464222046260350e-01 0.000000000000000e+00
					1.737985254002760e-01 8.147253516011042e-01 0.000000000000000e+00
					3.805597351255176e-01 9.093616577510349e-01 0.000000000000000e+00
					3.475970508005520e-01 7.908191016011041e-01 0.000000000000000e+00
					1.737985254002760e-01 8.147253516011042e-01 0.000000000000000e+00
					1.590298675627588e-01 7.042347046260351e-01 0.000000000000000e+00
					3.475970508005520e-01 7.908191016011041e-01 0.000000000000000e+00
					3.180597351255176e-01 6.906116577510351e-01 0.000000000000000e+00
					1.590298675627588e-01 7.042347046260351e-01 0.000000000000000e+00
					1.459738940502071e-01 6.149502637008282e-01 0.000000000000000e+00
					3.180597351255176e-01 6.906116577510351e-01 0.000000000000000e+00
					2.919477881004141e-01 6.087393262008280e-01 0.000000000000000e+00
					1.459738940502071e-01 6.149502637008282e-01 0.000000000000000e+00
					1.346306048626208e-01 5.468720288254829e-01 0.000000000000000e+00
					2.919477881004141e-01 6.087393262008280e-01 0.000000000000000e+00
					2.692612097252415e-01 5.452021069504830e-01 0.000000000000000e+00
					1.346306048626208e-01 5.468720288254829e-01 0.000000000000000e+00
					1.250000000000001e-01 5.000000000000000e-01 0.000000000000000e+00
					2.692612097252415e-01 5.452021069504830e-01 0.000000000000000e+00
					2.500000000000001e-01 5.000000000000000e-01 0.000000000000000e+00
					5.000000000000001e-01 1.375000000000000e+00 0.000000000000000e+00
					4.567612097252416e-01 1.201452106950483e+00 0.000000000000000e+00
					7.500000000000000e-01 1.218750000000000e+00 0.000000000000000e+00
					6.851418145878623e-01 1.081481403825483e+00 0.000000000000000e+00
					4.567612097252416e-01 1.201452106950483e+00 0.000000000000000e+00
					4.169477881004141e-01 1.046239326200828e+00 0.000000000000000e+00
					6.851418145878623e-01 1.081481403825483e+00 0.000000000000000e+00
					6.254216821506210e-01 9.577627637008279e-01 0.000000000000000e+00
					4.169477881004141e-01 1.046239326200828e+00 0.000000000000000e+00
					3.805597351255176e-01 9.093616577510349e-01 0.000000000000000e+00
					6.254216821506210e-01 9.577627637008279e-01 0.000000000000000e+00
					5.708396026882763e-01 8.475940796260348e-01 0.000000000000000e+00
					3.805597351255176e-01 9.093616577510349e-01 0.000000000000000e+00
					3.475970508005520e-01 7.908191016011041e-01 0.000000000000000e+00
					5.708396026882763e-01 8.475940796260348e-01 0.000000000000000e+00
					5.213955762008280e-01 7.509753516011041e-01 0.000000000000000e+00
					3.475970508005520e-01 7.908191016011041e-01 0.000000000000000e+00
					3.180597351255176e-01 6.906116577510351e-01 0.000000000000000e+00
					5.213955762008280e-01 7.509753516011041e-01 0.000000000000000e+00
					4.770896026882762e-01 6.679065796260349e-01 0.000000000000000e+00
					3.180597351255176e-01 6.906116577510351e-01 0.000000000000000e+00
					2.919477881004141e-01 6.087393262008280e-01 0.000000000000000e+00
					4.770896026882762e-01 6.679065796260349e-01 0.000000000000000e+00
					4.379216821506210e-01 5.983877637008280e-01 0.000000000000000e+00
					2.919477881004141e-01 6.087393262008280e-01 0.000000000000000e+00
					2.692612097252415e-01 5.452021069504830e-01 0.000000000000000e+00
					4.379216821506210e-01 5.983877637008280e-01 0.000000000000000e+00
					4.038918145878622e-01 5.424189038254830e-01 0.000000000000000e+00
					2.692612097252415e-01 5.452021069504830e-01 0.000000000000000e+00
					2.500000000000001e-01 5.000000000000000e-01 0.000000000000000e+00
					4.038918145878622e-01 5.424189038254830e-01 0.000000000000000e+00
					3.750000000000000e-01 5.000000000000000e-01 0.000000000000000e+00
					7.500000000000000e-01 1.218750000000000e+00 0.000000000000000e+00
					6.851418145878623e-01 1.081481403825483e+00 0.000000000000000e+00
					1.000000000000000e+00 1.000000000000000e+00 0.000000000000000e+00
					9.135224194504830e-01 9.135224194504830e-01 0.000000000000000e+00
					6.851418145878623e-01 1.081481403825483e+00 0.000000000000000e+00
					6.254216821506210e-01 9.577627637008279e-01 0.000000000000000e+00
					9.135224194504830e-01 9.135224194504830e-01 0.000000000000000e+00
					8.338955762008280e-01 8.338955762008280e-01 0.000000000000000e+00
					6.254216821506210e-01 9.577627637008279e-01 0.000000000000000e+00
					5.708396026882763e-01 8.475940796260348e-01 0.000000000000000e+00
					8.338955762008280e-01 8.338955762008280e-01 0.000000000000000e+00
					7.611194702510350e-01 7.611194702510350e-01 0.000000000000000e+00
					5.708396026882763e-01 8.475940796260348e-01 0.000000000000000e+00
					5.213955762008280e-01 7.509753516011041e-01 0.000000000000000e+00
					7.611194702510350e-01 7.611194702510350e-01 0.000000000000000e+00
					6.951941016011041e-01 6.951941016011041e-01 0.000000000000000e+00
					5.213955762008280e-01 7.509753516011041e-01 0.000000000000000e+00
					4.770896026882762e-01 6.679065796260349e-01 0.000000000000000e+00
					6.951941016011041e-01 6.951941016011041e-01 0.000000000000000e+00
					6.361194702510350e-01 6.361194702510350e-01 0.000000000000000e+00
					4.770896026882762e-01 6.679065796260349e-01 0.000000000000000e+00
					4.379216821506210e-01 5.983877637008280e-01 0.000000000000000e+00
					6.361194702510350e-01 6.361194702510350e-01 0.000000000000000e+00
					5.838955762008280e-01 5.838955762008280e-01 0.000000000000000e+00
					4.379216821506210e-01 5.983877637008280e-01 0.000000000000000e+00
					4.038918145878622e-01 5.424189038254830e-01 0.000000000000000e+00
					5.838955762008280e-01 5.838955762008280e-01 0.000000000000000e+00
					5.385224194504830e-01 5.385224194504830e-01 0.000000000000000e+00
					4.038918145878622e-01 5.424189038254830e-01 0.000000000000000e+00
					3.750000000000000e-01 5.000000000000000e-01 0.000000000000000e+00
					5.385224194504830e-01 5.385224194504830e-01 0.000000000000000e+00
					5.000000000000000e-01 5.000000000000000e-01 0.000000000000000e+00
				</DataArray>
			</Points>
			<Cells>
				<DataArray Name="connectivity" type="UInt32" format="ascii">
					0 1 3 2 4 5 7 6 8 9 11 10 12 13 15 14 16 17 19 18 20 21 23 22 24 25 27 26 28 29 31 30 32 33 35 34 36 37 39 38 40 41 43 42 44 45 47 46 48 49 51 50 52 53 55 54 56 57 59 58 60 61 63 62 64 65 67 66 68 69 71 70 72 73 75 74 76 77 79 78 80 81 83 82 84 85 87 86 88 89 91 90 92 93 95 94 96 97 99 98 100 101 103 102 104 105 107 106 108 109 111 110 112 113 115 114 116 117 119 118 120 121 123 122 124 125 127 126 128 129 131 130 132 133 135 134 136 137 139 138 140 141 143 142 144 145 147 146 148 149 151 150 152 153 155 154 156 157 159 158 160 161 163 162 164 165 167 166 168 169 171 170 172 173 175 174 176 177 179 178 180 181 183 182 184 185 187 186 188 189 191 190 192 193 195 194 196 197 199 198 200 201 203 202 204 205 207 206 208 209 211 210 212 213 215 214 216 217 219 218 220 221 223 222 224 225 227 226 228 229 231 230 232 233 235 234 236 237 239 238 240 241 243 242 244 245 247 246 248 249 251 250 252 253 255 254 
				</DataArray>
				<DataArray Name="offsets" type="UInt32" format="ascii">
					4 8 12 16 20 24 28 32 36 40 44 48 52 56 60 64 68 72 76 80 84 88 92 96 100 104 108 112 116 120 124 128 132 136 140 144 148 152 156 160 164 168 172 176 180 184 188 192 196 200 204 208 212 216 220 224 228 232 236 240 244 248 252 256 
				</DataArray>
				<DataArray Name="types" type="UInt8" format="ascii">
					9 9 9 9 9 9 9 9 9 9 9 9 9 9 9 9 9 9 9 9 9 9 9 9 9 9 9 9 9 9 9 9 9 9 9 9 9 9 9 9 9 9 9 9 9 9 9 9 9 9 9 9 9 9 9 9 9 9 9 9 9 9 9 9 
				</DataArray>
			</Cells>
			<PointData Vectors="solution ">
				<DataArray Name="solution" type="Float64" NumberOfComponents="1" format="ascii">
					0.000000000000000e+00 3.244931384273652e-02 0.000000000000000e+00 1.108867800525757e-01 3.244931384273652e-02 3.684076910230433e-01 1.108867800525757e-01 1.074303321248117e+00 3.684076910230433e-01 1.317005696561591e+00 1.074303321248117e+00 3.350226843095475e+00 1.317005696561591e+00 2.935770461590589e+00 3.350226843095475e+00 6.581922692454434e+00 2.935770461590589e+00 5.060175833136531e+00 6.581922692454434e+00 1.011288972239683e+01 5.060175833136531e+00 7.429181811801526e+00 1.011288972239683e+01 1.341257905335179e+01 7.429181811801526e+00 9.788521097303530e+00 1.341257905335179e+01 1.620326560922217e+01 9.788521097303530e+00 1.194442046443608e+01 1.620326560922217e+01 1.841386721053002e+01 0.000000000000000e+00 1.108867800525757e-01 0.000000000000000e+00 2.806956541260703e-01 1.108867800525757e-01 1.074303321248117e+00 2.806956541260703e-01 2.341910736284241e+00 1.074303321248117e+00 3.350226843095475e+00 2.341910736284241e+00 6.629793189024433e+00 3.350226843095475e+00 6.581922692454434e+00 6.629793189024433e+00 1.194890931966929e+01 6.581922692454434e+00 1.011288972239683e+01 1.194890931966929e+01 1.695786358840881e+01 1.011288972239683e+01 1.341257905335179e+01 1.695786358840881e+01 2.094659501670655e+01 1.341257905335179e+01 1.620326560922217e+01 2.094659501670655e+01 2.380506873910981e+01 1.620326560922217e+01 1.841386721053002e+01 2.380506873910981e+01 2.573570787032453e+01 0.000000000000000e+00 2.806956541260703e-01 0.000000000000000e+00 5.503596993609783e-01 2.806956541260703e-01 2.341910736284241e+00 5.503596993609783e-01 4.022785149229973e+00 2.341910736284241e+00 6.629793189024433e+00 4.022785149229973e+00 1.064280930140017e+01 6.629793189024433e+00 1.194890931966929e+01 1.064280930140017e+01 1.813068670836461e+01 1.194890931966929e+01 1.695786358840881e+01 1.813068670836461e+01 2.444222977248631e+01 1.695786358840881e+01 2.094659501670655e+01 2.444222977248631e+01 2.882943740813504e+01 2.094659501670655e+01 2.380506873910981e+01 2.882943740813504e+01 3.148642665710026e+01 2.380506873910981e+01 2.573570787032453e+01 3.148642665710026e+01 3.295057835186081e+01 0.000000000000000e+00 5.503596993609783e-01 0.000000000000000e+00 8.070904515169376e-01 5.503596993609783e-01 4.022785149229973e+00 8.070904515169376e-01 5.530727139809907e+00 4.022785149229973e+00 1.064280930140017e+01 5.530727139809907e+00 1.412198753718159e+01 1.064280930140017e+01 1.813068670836461e+01 1.412198753718159e+01 2.335681361356075e+01 1.813068670836461e+01 2.444222977248631e+01 2.335681361356075e+01 3.065897362258110e+01 2.444222977248631e+01 2.882943740813504e+01 3.065897362258110e+01 3.531044968778322e+01 2.882943740813504e+01 3.148642665710026e+01 3.531044968778322e+01 3.777848743460241e+01 3.148642665710026e+01 3.295057835186081e+01 3.777848743460241e+01 3.886630641852319e+01 0.000000000000000e+00 8.070904515169376e-01 0.000000000000000e+00 8.689863680337513e-01 8.070904515169376e-01 5.530727139809907e+00 8.689863680337513e-01 6.104327780949356e+00 5.530727139809907e+00 1.412198753718159e+01 6.104327780949356e+00 1.557251683985530e+01 1.412198753718159e+01 2.335681361356075e+01 1.557251683985530e+01 2.566812721040665e+01 2.335681361356075e+01 3.065897362258110e+01 2.566812721040665e+01 3.359588260289537e+01 3.065897362258110e+01 3.531044968778322e+01 3.359588260289537e+01 3.860432761293399e+01 3.531044968778322e+01 3.777848743460241e+01 3.860432761293399e+01 4.121612060948063e+01 3.777848743460241e+01 3.886630641852319e+01 4.121612060948063e+01 4.230971812121976e+01 0.000000000000000e+00 8.689863680337513e-01 0.000000000000000e+00 6.990179690076586e-01 8.689863680337513e-01 6.104327780949356e+00 6.990179690076586e-01 5.392286264927553e+00 6.104327780949356e+00 1.557251683985530e+01 5.392286264927553e+00 1.419416797679136e+01 1.557251683985530e+01 2.566812721040665e+01 1.419416797679136e+01 2.394921227823590e+01 2.566812721040665e+01 3.359588260289537e+01 2.394921227823590e+01 3.203781819704730e+01 3.359588260289537e+01 3.860432761293399e+01 3.203781819704730e+01 3.755905270237211e+01 3.860432761293399e+01 4.121612060948063e+01 3.755905270237211e+01 4.079045122029121e+01 4.121612060948063e+01 4.230971812121976e+01 4.079045122029121e+01 4.243181794120255e+01 0.000000000000000e+00 6.990179690076586e-01 0.000000000000000e+00 4.352191557459769e-01 6.990179690076586e-01 5.392286264927553e+00 4.352191557459769e-01 3.753100597434367e+00 5.392286264927553e+00 1.419416797679136e+01 3.753100597434367e+00 1.049513880457299e+01 1.419416797679136e+01 2.394921227823590e+01 1.049513880457299e+01 1.867654192980799e+01 2.394921227823590e+01 3.203781819704730e+01 1.867654192980799e+01 2.626075005041069e+01 3.203781819704730e+01 3.755905270237211e+01 2.626075005041069e+01 3.220359829432647e+01 3.755905270237211e+01 4.079045122029121e+01 3.220359829432647e+01 3.634363292005706e+01 4.079045122029121e+01 4.243181794120255e+01 3.634363292005706e+01 3.898351640349584e+01 0.000000000000000e+00 4.352191557459769e-01 0.000000000000000e+00 2.015332126018340e-01 4.352191557459769e-01 3.753100597434367e+00 2.015332126018340e-01 1.953995357798813e+00 3.753100597434367e+00 1.049513880457299e+01 1.953995357798813e+00 6.037977954136235e+00 1.049513880457299e+01 1.867654192980799e+01 6.037977954136235e+00 1.179479612995859e+01 1.867654192980799e+01 2.626075005041069e+01 1.179479612995859e+01 1.806204434513475e+01 2.626075005041069e+01 3.220359829432647e+01 1.806204434513475e+01 2.388581942205155e+01 3.220359829432647e+01 3.634363292005706e+01 2.388581942205155e+01 2.873983835758091e+01 3.634363292005706e+01 3.898351640349584e+01 2.873983835758091e+01 3.246841595926174e+01 
				</DataArray>
			</PointData>
			<CellData>
			</CellData>
		</Piece>
	</UnstructuredGrid>
</VTKFile>