<?xml version="1.0"?>
<VTKFile type="UnstructuredGrid" byte_order="LittleEndian">
	<UnstructuredGrid>
		<Piece NumberOfPoints="256" NumberOfCells="64">
			<Points>
				<DataArray type="Float64" NumberOfComponents="3" format="ascii">
					1.000000000000000e+00 -1.000000000000000e+00 0.000000000000000e+00
					1.218750000000000e+00 -7.500000000000000e-01 0.000000000000000e+00
					9.135224194504830e-01 -9.135224194504830e-01 0.000000000000000e+00
					1.081481403825483e+00 -6.851418145878623e-01 0.000000000000000e+00
					1.218750000000000e+00 -7.500000000000000e-01 0.000000000000000e+00
					1.375000000000000e+00 -5.000000000000000e-01 0.000000000000000e+00
					1.081481403825483e+00 -6.851418145878623e-01 0.000000000000000e+00
					1.201452106950483e+00 -4.567612097252415e-01 0.000000000000000e+00
					1.375000000000000e+00 -5.000000000000000e-01 0.000000000000000e+00
					1.468750000000000e+00 -2.499999999999999e-01 0.000000000000000e+00
					1.201452106950483e+00 -4.567612097252415e-01 0.000000000000000e+00
					1.273434528825483e+00 -2.283806048626207e-01 0.000000000000000e+00
					1.468750000000000e+00 -2.499999999999999e-01 0.000000000000000e+00
					1.500000000000000e+00 6.938893903907228e-17 0.000000000000000e+00
					1.273434528825483e+00 -2.283806048626207e-01 0.000000000000000e+00
					1.297428669450483e+00 6.581107186987012e-17 0.000000000000000e+00
					1.500000000000000e+00 6.938893903907228e-17 0.000000000000000e+00
					1.468750000000000e+00 2.500000000000001e-01 0.000000000000000e+00
					1.297428669450483e+00 6.581107186987012e-17 0.000000000000000e+00
					1.273434528825483e+00 2.283806048626209e-01 0.000000000000000e+00
					1.468750000000000e+00 2.500000000000001e-01 0.000000000000000e+00
					1.375000000000000e+00 5.000000000000001e-01 0.000000000000000e+00
					1.273434528825483e+00 2.283806048626209e-01 0.000000000000000e+00
					1.201452106950483e+00 4.567612097252416e-01 0.000000000000000e+00
					1.375000000000000e+00 5.000000000000001e-01 0.000000000000000e+00
					1.218750000000000e+00 7.500000000000000e-01 0.000000000000000e+00
					1.201452106950483e+00 4.567612097252416e-01 0.000000000000000e+00
					1.081481403825483e+00 6.851418145878623e-01 0.000000000000000e+00
					1.218750000000000e+00 7.500000000000000e-01 0.000000000000000e+00
					1.000000000000000e+00 1.000000000000000e+00 0.000000000000000e+00
					1.081481403825483e+00 6.851418145878623e-01 0.000000000000000e+00
					9.135224194504830e-01 9.135224194504830e-01 0.000000000000000e+00
					9.135224194504830e-01 -9.135224194504830e-01 0.000000000000000e+00
					1.081481403825483e+00 -6.851418145878623e-01 0.000000000000000e+00
					8.338955762008280e-01 -8.338955762008280e-01 0.000000000000000e+00
					9.577627637008281e-01 -6.254216821506211e-01 0.000000000000000e+00
					1.081481403825483e+00 -6.851418145878623e-01 0.000000000000000e+00
					1.201452106950483e+00 -4.567612097252415e-01 0.000000000000000e+00
					9.577627637008281e-01 -6.254216821506211e-01 0.000000000000000e+00
					1.046239326200828e+00 -4.169477881004140e-01 0.000000000000000e+00
					1.201452106950483e+00 -4.567612097252415e-01 0.000000000000000e+00
					1.273434528825483e+00 -2.283806048626207e-01 0.000000000000000e+00
					1.046239326200828e+00 -4.169477881004140e-01 0.000000000000000e+00
					1.099325263700828e+00 -2.084738940502070e-01 0.000000000000000e+00
					1.273434528825483e+00 -2.283806048626207e-01 0.000000000000000e+00
					1.297428669450483e+00 6.581107186987012e-17 0.000000000000000e+00
					1.099325263700828e+00 -2.084738940502070e-01 0.000000000000000e+00
					1.117020576200828e+00 6.201636426617085e-17 0.000000000000000e+00
					1.297428669450483e+00 6.581107186987012e-17 0.000000000000000e+00
					1.273434528825483e+00 2.283806048626209e-01 0.000000000000000e+00
					1.117020576200828e+00 6.201636426617085e-17 0.000000000000000e+00
					1.099325263700828e+00 2.084738940502071e-01 0.000000000000000e+00
					1.273434528825483e+00 2.283806048626209e-01 0.000000000000000e+00
					1.201452106950483e+00 4.567612097252416e-01 0.000000000000000e+00
					1.099325263700828e+00 2.084738940502071e-01 0.000000000000000e+00
					1.046239326200828e+00 4.169477881004141e-01 0.000000000000000e+00
					1.201452106950483e+00 4.567612097252416e-01 0.000000000000000e+00
					1.081481403825483e+00 6.851418145878623e-01 0.000000000000000e+00
					1.046239326200828e+00 4.169477881004141e-01 0.000000000000000e+00
					9.577627637008281e-01 6.254216821506211e-01 0.000000000000000e+00
					1.081481403825483e+00 6.851418145878623e-01 0.000000000000000e+00
					9.135224194504830e-01 9.135224194504830e-01 0.000000000000000e+00
					9.577627637008281e-01 6.254216821506211e-01 0.000000000000000e+00
					8.338955762008280e-01 8.338955762008280e-01 0.000000000000000e+00
					8.338955762008280e-01 -8.338955762008280e-01 0.000000000000000e+00
					9.577627637008281e-01 -6.254216821506211e-01 0.000000000000000e+00
					7.611194702510350e-01 -7.611194702510350e-01 0.000000000000000e+00
					8.475940796260349e-01 -5.708396026882762e-01 0.000000000000000e+00
					9.577627637008281e-01 -6.254216821506211e-01 0.000000000000000e+00
					1.046239326200828e+00 -4.169477881004140e-01 0.000000000000000e+00
					8.475940796260349e-01 -5.708396026882762e-01 0.000000000000000e+00
					9.093616577510351e-01 -3.805597351255174e-01 0.000000000000000e+00
					1.046239326200828e+00 -4.169477881004140e-01 0.000000000000000e+00
					1.099325263700828e+00 -2.084738940502070e-01 0.000000000000000e+00
					9.093616577510351e-01 -3.805597351255174e-01 0.000000000000000e+00
					9.464222046260349e-01 -1.902798675627587e-01 0.000000000000000e+00
					1.099325263700828e+00 -2.084738940502070e-01 0.000000000000000e+00
					1.117020576200828e+00 6.201636426617085e-17 0.000000000000000e+00
					9.464222046260349e-01 -1.902798675627587e-01 0.000000000000000e+00
					9.587757202510351e-01 5.800481622797449e-17 0.000000000000000e+00
					1.117020576200828e+00 6.201636426617085e-17 0.000000000000000e+00
					1.099325263700828e+00 2.084738940502071e-01 0.000000000000000e+00
					9.587757202510351e-01 5.800481622797449e-17 0.000000000000000e+00
					9.464222046260349e-01 1.902798675627588e-01 0.000000000000000e+00
					1.099325263700828e+00 2.084738940502071e-01 0.000000000000000e+00
					1.046239326200828e+00 4.169477881004141e-01 0.000000000000000e+00
					9.464222046260349e-01 1.902798675627588e-01 0.000000000000000e+00
					9.093616577510349e-01 3.805597351255176e-01 0.000000000000000e+00
					1.046239326200828e+00 4.169477881004141e-01 0.000000000000000e+00
					9.577627637008281e-01 6.254216821506211e-01 0.000000000000000e+00
					9.093616577510349e-01 3.805597351255176e-01 0.000000000000000e+00
					8.475940796260348e-01 5.708396026882762e-01 0.000000000000000e+00
					9.577627637008281e-01 6.254216821506211e-01 0.000000000000000e+00
					8.338955762008280e-01 8.338955762008280e-01 0.000000000000000e+00
					8.475940796260348e-01 5.708396026882762e-01 0.000000000000000e+00
					7.611194702510350e-01 7.611194702510350e-01 0.000000000000000e+00
					7.611194702510350e-01 -7.611194702510350e-01 0.000000000000000e+00
					8.475940796260349e-01 -5.708396026882762e-01 0.000000000000000e+00
					6.951941016011041e-01 -6.951941016011041e-01 0.000000000000000e+00
					7.509753516011040e-01 -5.213955762008279e-01 0.000000000000000e+00
					8.475940796260349e-01 -5.708396026882762e-01 0.000000000000000e+00
					9.093616577510351e-01 -3.805597351255174e-01 0.000000000000000e+00
					7.509753516011040e-01 -5.213955762008279e-01 0.000000000000000e+00
					7.908191016011041e-01 -3.475970508005519e-01 0.000000000000000e+00
					9.093616577510351e-01 -3.805597351255174e-01 0.000000000000000e+00
					9.464222046260349e-01 -1.902798675627587e-01 0.000000000000000e+00
					7.908191016011041e-01 -3.475970508005519e-01 0.000000000000000e+00
					8.147253516011039e-01 -1.737985254002760e-01 0.000000000000000e+00
					9.464222046260349e-01 -1.902798675627587e-01 0.000000000000000e+00
					9.587757202510351e-01 5.800481622797449e-17 0.000000000000000e+00
					8.147253516011039e-01 -1.737985254002760e-01 0.000000000000000e+00
					8.226941016011040e-01 5.377642775528102e-17 0.000000000000000e+00
					9.587757202510351e-01 5.800481622797449e-17 0.000000000000000e+00
					9.464222046260349e-01 1.902798675627588e-01 0.000000000000000e+00
					8.226941016011040e-01 5.377642775528102e-17 0.000000000000000e+00
					8.147253516011039e-01 1.737985254002761e-01 0.000000000000000e+00
					9.464222046260349e-01 1.902798675627588e-01 0.000000000000000e+00
					9.093616577510349e-01 3.805597351255176e-01 0.000000000000000e+00
					8.147253516011039e-01 1.737985254002761e-01 0.000000000000000e+00
					7.908191016011039e-01 3.475970508005521e-01 0.000000000000000e+00
					9.093616577510349e-01 3.805597351255176e-01 0.000000000000000e+00
					8.475940796260348e-01 5.708396026882762e-01 0.000000000000000e+00
					7.908191016011039e-01 3.475970508005521e-01 0.000000000000000e+00
					7.509753516011040e-01 5.213955762008279e-01 0.000000000000000e+00
					8.475940796260348e-01 5.708396026882762e-01 0.000000000000000e+00
					7.611194702510350e-01 7.611194702510350e-01 0.000000000000000e+00
					7.509753516011040e-01 5.213955762008279e-01 0.000000000000000e+00
					6.951941016011041e-01 6.951941016011041e-01 0.000000000000000e+00
					6.951941016011041e-01 -6.951941016011041e-01 0.000000000000000e+00
					7.509753516011040e-01 -5.213955762008279e-01 0.000000000000000e+00
					6.361194702510350e-01 -6.361194702510350e-01 0.000000000000000e+00
					6.679065796260349e-01 -4.770896026882761e-01 0.000000000000000e+00
					7.509753516011040e-01 -5.213955762008279e-01 0.000000000000000e+00
					7.908191016011041e-01 -3.475970508005519e-01 0.000000000000000e+00
					6.679065796260349e-01 -4.770896026882761e-01 0.000000000000000e+00
					6.906116577510349e-01 -3.180597351255174e-01 0.000000000000000e+00
					7.908191016011041e-01 -3.475970508005519e-01 0.000000000000000e+00
					8.147253516011039e-01 -1.737985254002760e-01 0.000000000000000e+00
					6.906116577510349e-01 -3.180597351255174e-01 0.000000000000000e+00
					7.042347046260349e-01 -1.590298675627587e-01 0.000000000000000e+00
					8.147253516011039e-01 -1.737985254002760e-01 0.000000000000000e+00
					8.226941016011040e-01 5.377642775528102e-17 0.000000000000000e+00
					7.042347046260349e-01 -1.590298675627587e-01 0.000000000000000e+00
					7.087757202510350e-01 4.933119884809045e-17 0.000000000000000e+00
					8.226941016011040e-01 5.377642775528102e-17 0.000000000000000e+00
					8.147253516011039e-01 1.737985254002761e-01 0.000000000000000e+00
					7.087757202510350e-01 4.933119884809045e-17 0.000000000000000e+00
					7.042347046260349e-01 1.590298675627588e-01 0.000000000000000e+00
					8.147253516011039e-01 1.737985254002761e-01 0.000000000000000e+00
					7.908191016011039e-01 3.475970508005521e-01 0.000000000000000e+00
					7.042347046260349e-01 1.590298675627588e-01 0.000000000000000e+00
					6.906116577510348e-01 3.180597351255176e-01 0.000000000000000e+00
					7.908191016011039e-01 3.475970508005521e-01 0.000000000000000e+00
					7.509753516011040e-01 5.213955762008279e-01 0.000000000000000e+00
					6.906116577510348e-01 3.180597351255176e-01 0.000000000000000e+00
					6.679065796260349e-01 4.770896026882761e-01 0.000000000000000e+00
					7.509753516011040e-01 5.213955762008279e-01 0.000000000000000e+00
					6.951941016011041e-01 6.951941016011041e-01 0.000000000000000e+00
					6.679065796260349e-01 4.770896026882761e-01 0.000000000000000e+00
					6.361194702510350e-01 6.361194702510350e-01 0.000000000000000e+00
					6.361194702510350e-01 -6.361194702510350e-01 0.000000000000000e+00
					6.679065796260349e-01 -4.770896026882761e-01 0.000000000000000e+00
					5.838955762008280e-01 -5.838955762008280e-01 0.000000000000000e+00
					5.983877637008279e-01 -4.379216821506209e-01 0.000000000000000e+00
					6.679065796260349e-01 -4.770896026882761e-01 0.000000000000000e+00
					6.906116577510349e-01 -3.180597351255174e-01 0.000000000000000e+00
					5.983877637008279e-01 -4.379216821506209e-01 0.000000000000000e+00
					6.087393262008280e-01 -2.919477881004139e-01 0.000000000000000e+00
					6.906116577510349e-01 -3.180597351255174e-01 0.000000000000000e+00
					7.042347046260349e-01 -1.590298675627587e-01 0.000000000000000e+00
					6.087393262008280e-01 -2.919477881004139e-01 0.000000000000000e+00
					6.149502637008278e-01 -1.459738940502070e-01 0.000000000000000e+00
					7.042347046260349e-01 -1.590298675627587e-01 0.000000000000000e+00
					7.087757202510350e-01 4.933119884809045e-17 0.000000000000000e+00
					6.149502637008278e-01 -1.459738940502070e-01 0.000000000000000e+00
					6.170205762008280e-01 4.466912950640279e-17 0.000000000000000e+00
					7.087757202510350e-01 4.933119884809045e-17 0.000000000000000e+00
					7.042347046260349e-01 1.590298675627588e-01 0.000000000000000e+00
					6.170205762008280e-01 4.466912950640279e-17 0.000000000000000e+00
					6.149502637008278e-01 1.459738940502071e-01 0.000000000000000e+00
					7.042347046260349e-01 1.590298675627588e-01 0.000000000000000e+00
					6.906116577510348e-01 3.180597351255176e-01 0.000000000000000e+00
					6.149502637008278e-01 1.459738940502071e-01 0.000000000000000e+00
					6.087393262008279e-01 2.919477881004141e-01 0.000000000000000e+00
					6.906116577510348e-01 3.180597351255176e-01 0.000000000000000e+00
					6.679065796260349e-01 4.770896026882761e-01 0.000000000000000e+00
					6.087393262008279e-01 2.919477881004141e-01 0.000000000000000e+00
					5.983877637008279e-01 4.379216821506209e-01 0.000000000000000e+00
					6.679065796260349e-01 4.770896026882761e-01 0.000000000000000e+00
					6.361194702510350e-01 6.361194702510350e-01 0.000000000000000e+00
					5.983877637008279e-01 4.379216821506209e-01 0.000000000000000e+00
					5.838955762008280e-01 5.838955762008280e-01 0.000000000000000e+00
					5.838955762008280e-01 -5.838955762008280e-01 0.000000000000000e+00
					5.983877637008279e-01 -4.379216821506209e-01 0.000000000000000e+00
					5.385224194504830e-01 -5.385224194504830e-01 0.000000000000000e+00
					5.424189038254829e-01 -4.038918145878622e-01 0.000000000000000e+00
					5.983877637008279e-01 -4.379216821506209e-01 0.000000000000000e+00
					6.087393262008280e-01 -2.919477881004139e-01 0.000000000000000e+00
					5.424189038254829e-01 -4.038918145878622e-01 0.000000000000000e+00
					5.452021069504830e-01 -2.692612097252415e-01 0.000000000000000e+00
					6.087393262008280e-01 -2.919477881004139e-01 0.000000000000000e+00
					6.149502637008278e-01 -1.459738940502070e-01 0.000000000000000e+00
					5.452021069504830e-01 -2.692612097252415e-01 0.000000000000000e+00
					5.468720288254829e-01 -1.346306048626207e-01 0.000000000000000e+00
					6.149502637008278e-01 -1.459738940502070e-01 0.000000000000000e+00
					6.170205762008280e-01 4.466912950640279e-17 0.000000000000000e+00
					5.468720288254829e-01 -1.346306048626207e-01 0.000000000000000e+00
					5.474286694504829e-01 3.979021973021801e-17 0.000000000000000e+00
					6.170205762008280e-01 4.466912950640279e-17 0.000000000000000e+00
					6.149502637008278e-01 1.459738940502071e-01 0.000000000000000e+00
					5.474286694504829e-01 3.979021973021801e-17 0.000000000000000e+00
					5.468720288254829e-01 1.346306048626208e-01 0.000000000000000e+00
					6.149502637008278e-01 1.459738940502071e-01 0.000000000000000e+00
					6.087393262008279e-01 2.919477881004141e-01 0.000000000000000e+00
					5.468720288254829e-01 1.346306048626208e-01 0.000000000000000e+00
					5.452021069504830e-01 2.692612097252415e-01 0.000000000000000e+00
					6.087393262008279e-01 2.919477881004141e-01 0.000000000000000e+00
					5.983877637008279e-01 4.379216821506209e-01 0.000000000000000e+00
					5.452021069504830e-01 2.692612097252415e-01 0.000000000000000e+00
					5.424189038254829e-01 4.038918145878622e-01 0.000000000000000e+00
					5.983877637008279e-01 4.379216821506209e-01 0.000000000000000e+00
					5.838955762008280e-01 5.838955762008280e-01 0.000000000000000e+00
					5.424189038254829e-01 4.038918145878622e-01 0.000000000000000e+00
					5.385224194504830e-01 5.385224194504830e-01 0.000000000000000e+00
					5.385224194504830e-01 -5.385224194504830e-01 0.000000000000000e+00
					5.424189038254829e-01 -4.038918145878622e-01 0.000000000000000e+00
					5.000000000000000e-01 -5.000000000000000e-01 0.000000000000000e+00
					5.000000000000000e-01 -3.750000000000000e-01 0.000000000000000e+00
					5.424189038254829e-01 -4.038918145878622e-01 0.000000000000000e+00
					5.452021069504830e-01 -2.692612097252415e-01 0.000000000000000e+00
					5.000000000000000e-01 -3.750000000000000e-01 0.000000000000000e+00
					5.000000000000000e-01 -2.500000000000000e-01 0.000000000000000e+00
					5.452021069504830e-01 -2.692612097252415e-01 0.000000000000000e+00
					5.468720288254829e-01 -1.346306048626207e-01 0.000000000000000e+00
					5.000000000000000e-01 -2.500000000000000e-01 0.000000000000000e+00
					5.000000000000000e-01 -1.250000000000000e-01 0.000000000000000e+00
					5.468720288254829e-01 -1.346306048626207e-01 0.000000000000000e+00
					5.474286694504829e-01 3.979021973021801e-17 0.000000000000000e+00
					5.000000000000000e-01 -1.250000000000000e-01 0.000000000000000e+00
					5.000000000000000e-01 3.469446951953614e-17 0.000000000000000e+00
					5.474286694504829e-01 3.979021973021801e-17 0.000000000000000e+00
					5.468720288254829e-01 1.346306048626208e-01 0.000000000000000e+00
					5.000000000000000e-01 3.469446951953614e-17 0.000000000000000e+00
					5.000000000000000e-01 1.250000000000001e-01 0.000000000000000e+00
					5.468720288254829e-01 1.346306048626208e-01 0.000000000000000e+00
					5.452021069504830e-01 2.692612097252415e-01 0.000000000000000e+00
					5.000000000000000e-01 1.250000000000001e-01 0.000000000000000e+00
					5.000000000000000e-01 2.500000000000001e-01 0.000000000000000e+00
					5.452021069504830e-01 2.692612097252415e-01 0.000000000000000e+00
					5.424189038254829e-01 4.038918145878622e-01 0.000000000000000e+00
					5.000000000000000e-01 2.500000000000001e-01 0.000000000000000e+00
					5.000000000000000e-01 3.750000000000000e-01 0.000000000000000e+00
					5.424189038254829e-01 4.038918145878622e-01 0.000000000000000e+00
					5.385224194504830e-01 5.385224194504830e-01 0.000000000000000e+00
					5.000000000000000e-01 3.750000000000000e-01 0.000000000000000e+00
					5.000000000000000e-01 5.000000000000000e-01 0.000000000000000e+00
				</DataArray>
			</Points>
			<Cells>
				<DataArray Name="connectivity" type="UInt32" format="ascii">
					0 1 3 2 4 5 7 6 8 9 11 10 12 13 15 14 16 17 19 18 20 21 23 22 24 25 27 26 28 29 31 30 32 33 35 34 36 37 39 38 40 41 43 42 44 45 47 46 48 49 51 50 52 53 55 54 56 57 59 58 60 61 63 62 64 65 67 66 68 69 71 70 72 73 75 74 76 77 79 78 80 81 83 82 84 85 87 86 88 89 91 90 92 93 95 94 96 97 99 98 100 101 103 102 104 105 107 106 108 109 111 110 112 113 115 114 116 117 119 118 120 121 123 122 124 125 127 126 128 129 131 130 132 133 135 134 136 137 139 138 140 141 143 142 144 145 147 146 148 149 151 150 152 153 155 154 156 157 159 158 160 161 163 162 164 165 167 166 168 169 171 170 172 173 175 174 176 177 179 178 180 181 183 182 184 185 187 186 188 189 191 190 192 193 195 194 196 197 199 198 200 201 203 202 204 205 207 206 208 209 211 210 212 213 215 214 216 217 219 218 220 221 223 222 224 225 227 226 228 229 231 230 232 233 235 234 236 237 239 238 240 241 243 242 244 245 247 246 248 249 251 250 252 253 255 254 
				</DataArray>
				<DataArray Name="offsets" type="UInt32" format="ascii">
					4 8 12 16 20 24 28 32 36 40 44 48 52 56 60 64 68 72 76 80 84 88 92 96 100 104 108 112 116 120 124 128 132 136 140 144 148 152 156 160 164 168 172 176 180 184 188 192 196 200 204 208 212 216 220 224 228 232 236 240 244 248 252 256 
				</DataArray>
				<DataArray Name="types" type="UInt8" format="ascii">
					9 9 9 9 9 9 9 9 9 9 9 9 9 9 9 9 9 9 9 9 9 9 9 9 9 9 9 9 9 9 9 9 9 9 9 9 9 9 9 9 9 9 9 9 9 9 9 9 9 9 9 9 9 9 9 9 9 9 9 9 9 9 9 9 
				</DataArray>
			</Cells>
			<PointData Vectors="solution ">
				<DataArray Name="solution" type="Float64" NumberOfComponents="1" format="ascii">
					0.000000000000000e+00 0.000000000000000e+00 6.414800314230966e-03 2.030544729941877e-02 0.000000000000000e+00 0.000000000000000e+00 2.030544729941877e-02 5.482527086550165e-02 0.000000000000000e+00 0.000000000000000e+00 5.482527086550165e-02 1.235525423835737e-01 0.000000000000000e+00 0.000000000000000e+00 1.235525423835737e-01 2.208870629291926e-01 0.000000000000000e+00 0.000000000000000e+00 2.208870629291926e-01 3.055992501911448e-01 0.000000000000000e+00 0.000000000000000e+00 3.055992501911448e-01 3.322594763753745e-01 0.000000000000000e+00 0.000000000000000e+00 3.322594763753745e-01 2.942650516148838e-01 0.000000000000000e+00 0.000000000000000e+00 2.942650516148838e-01 2.073481239057434e-01 6.414800314230966e-03 2.030544729941877e-02 7.329874665341259e-02 2.252059106305326e-01 2.030544729941877e-02 5.482527086550165e-02 2.252059106305326e-01 5.469266324853260e-01 5.482527086550165e-02 1.235525423835737e-01 5.469266324853260e-01 1.092047235746527e+00 1.235525423835737e-01 2.208870629291926e-01 1.092047235746527e+00 1.813326888492179e+00 2.208870629291926e-01 3.055992501911448e-01 1.813326888492179e+00 2.507536418710894e+00 3.055992501911448e-01 3.322594763753745e-01 2.507536418710894e+00 2.877417174661278e+00 3.322594763753745e-01 2.942650516148838e-01 2.877417174661278e+00 2.697513775137629e+00 2.942650516148838e-01 2.073481239057434e-01 2.697513775137629e+00 1.961701016743604e+00 7.329874665341259e-02 2.252059106305326e-01 2.947861420738414e-01 8.201227685615080e-01 2.252059106305326e-01 5.469266324853260e-01 8.201227685615080e-01 1.834806986109907e+00 5.469266324853260e-01 1.092047235746527e+00 1.834806986109907e+00 3.424350333171059e+00 1.092047235746527e+00 1.813326888492179e+00 3.424350333171059e+00 5.422418540989042e+00 1.813326888492179e+00 2.507536418710894e+00 5.422418540989042e+00 7.318974322987344e+00 2.507536418710894e+00 2.877417174661278e+00 7.318974322987344e+00 8.373317002424683e+00 2.877417174661278e+00 2.697513775137629e+00 8.373317002424683e+00 7.968286560511789e+00 2.697513775137629e+00 1.961701016743604e+00 7.968286560511789e+00 6.050009394147249e+00 2.947861420738414e-01 8.201227685615080e-01 7.423915400491755e-01 1.858069606610417e+00 8.201227685615080e-01 1.834806986109907e+00 1.858069606610417e+00 3.842899237938387e+00 1.834806986109907e+00 3.424350333171059e+00 3.842899237938387e+00 6.762407604173909e+00 3.424350333171059e+00 5.422418540989042e+00 6.762407604173909e+00 1.027455696095354e+01 5.422418540989042e+00 7.318974322987344e+00 1.027455696095354e+01 1.353690904665382e+01 7.318974322987344e+00 8.373317002424683e+00 1.353690904665382e+01 1.538964527112048e+01 8.373317002424683e+00 7.968286560511789e+00 1.538964527112048e+01 1.486175967105391e+01 7.968286560511789e+00 6.050009394147249e+00 1.486175967105391e+01 1.181192233091668e+01 7.423915400491755e-01 1.858069606610417e+00 1.433498161182112e+00 3.237234972903456e+00 1.858069606610417e+00 3.842899237938387e+00 3.237234972903456e+00 6.205723041045187e+00 3.842899237938387e+00 6.762407604173909e+00 6.205723041045187e+00 1.033124343830834e+01 6.762407604173909e+00 1.027455696095354e+01 1.033124343830834e+01 1.511389301730215e+01 1.027455696095354e+01 1.353690904665382e+01 1.511389301730215e+01 1.949838046033370e+01 1.353690904665382e+01 1.538964527112048e+01 1.949838046033370e+01 2.209535485616818e+01 1.538964527112048e+01 1.486175967105391e+01 2.209535485616818e+01 2.172133876598382e+01 1.486175967105391e+01 1.181192233091668e+01 2.172133876598382e+01 1.808448009716134e+01 1.433498161182112e+00 3.237234972903456e+00 2.330594964325994e+00 4.781944336963305e+00 3.237234972903456e+00 6.205723041045187e+00 4.781944336963305e+00 8.536881949541083e+00 6.205723041045187e+00 1.033124343830834e+01 8.536881949541083e+00 1.349793078042131e+01 1.033124343830834e+01 1.511389301730215e+01 1.349793078042131e+01 1.908043732477916e+01 1.511389301730215e+01 1.949838046033370e+01 1.908043732477916e+01 2.418135747468691e+01 1.949838046033370e+01 2.209535485616818e+01 2.418135747468691e+01 2.739000929661081e+01 2.209535485616818e+01 2.172133876598382e+01 2.739000929661081e+01 2.745790895722127e+01 2.172133876598382e+01 1.808448009716134e+01 2.745790895722127e+01 2.391352983733224e+01 2.330594964325994e+00 4.781944336963305e+00 3.357573775325642e+00 6.317167832025016e+00 4.781944336963305e+00 8.536881949541083e+00 6.317167832025016e+00 1.057362877776779e+01 8.536881949541083e+00 1.349793078042131e+01 1.057362877776779e+01 1.596029749327946e+01 1.349793078042131e+01 1.908043732477916e+01 1.596029749327946e+01 2.188675979418107e+01 1.908043732477916e+01 2.418135747468691e+01 2.188675979418107e+01 2.732633068788376e+01 2.418135747468691e+01 2.739000929661081e+01 2.732633068788376e+01 3.098867959960261e+01 2.739000929661081e+01 2.745790895722127e+01 3.098867959960261e+01 3.167660906888205e+01 2.745790895722127e+01 2.391352983733224e+01 3.167660906888205e+01 2.877244750440876e+01 3.357573775325642e+00 6.317167832025016e+00 4.420791491570684e+00 7.706853973748629e+00 6.317167832025016e+00 1.057362877776779e+01 7.706853973748629e+00 1.219067484044464e+01 1.057362877776779e+01 1.596029749327946e+01 1.219067484044464e+01 1.767354949857957e+01 1.596029749327946e+01 2.188675979418107e+01 1.767354949857957e+01 2.361150819781943e+01 2.188675979418107e+01 2.732633068788376e+01 2.361150819781943e+01 2.911762747336354e+01 2.732633068788376e+01 3.098867959960261e+01 2.911762747336354e+01 3.308428242604754e+01 3.098867959960261e+01 3.167660906888205e+01 3.308428242604754e+01 3.444233713879255e+01 3.167660906888205e+01 2.877244750440876e+01 3.444233713879255e+01 3.250658427536177e+01 
				</DataArray>
			</PointData>
			<CellData>
			</CellData>
		</Piece>
	</UnstructuredGrid>
</VTKFile>