<?xml version="1.0"?>
<VTKFile type="UnstructuredGrid" byte_order="LittleEndian">
	<UnstructuredGrid>
		<Piece NumberOfPoints="64" NumberOfCells="16">
			<Points>
				<DataArray type="Float64" NumberOfComponents="3" format="ascii">
					-1.000000000000000e+00 -1.000000000000000e+00 0.000000000000000e+00
					-5.000000000000000e-01 -1.375000000000000e+00 0.000000000000000e+00
					-8.338955762008279e-01 -8.338955762008279e-01 0.000000000000000e+00
					-4.169477881004139e-01 -1.046239326200828e+00 0.000000000000000e+00
					-5.000000000000000e-01 -1.375000000000000e+00 0.000000000000000e+00
					5.551115123125783e-17 -1.500000000000000e+00 0.000000000000000e+00
					-4.169477881004139e-01 -1.046239326200828e+00 0.000000000000000e+00
					4.857225732735060e-17 -1.117020576200828e+00 0.000000000000000e+00
					5.551115123125783e-17 -1.500000000000000e+00 0.000000000000000e+00
					5.000000000000000e-01 -1.375000000000000e+00 0.000000000000000e+00
					4.857225732735060e-17 -1.117020576200828e+00 0.000000000000000e+00
					4.169477881004139e-01 -1.046239326200828e+00 0.000000000000000e+00
					5.000000000000000e-01 -1.375000000000000e+00 0.000000000000000e+00
					1.000000000000000e+00 -1.000000000000000e+00 0.000000000000000e+00
					4.169477881004139e-01 -1.046239326200828e+00 0.000000000000000e+00
					8.338955762008279e-01 -8.338955762008279e-01 0.000000000000000e+00
					-8.338955762008279e-01 -8.338955762008279e-01 0.000000000000000e+00
					-4.169477881004139e-01 -1.046239326200828e+00 0.000000000000000e+00
					-6.951941016011038e-01 -6.951941016011038e-01 0.000000000000000e+00
					-3.475970508005519e-01 -7.908191016011039e-01 0.000000000000000e+00
					-4.169477881004139e-01 -1.046239326200828e+00 0.000000000000000e+00
					4.857225732735060e-17 -1.117020576200828e+00 0.000000000000000e+00
					-3.475970508005519e-01 -7.908191016011039e-01 0.000000000000000e+00
					4.163336342344337e-17 -8.226941016011038e-01 0.000000000000000e+00
					4.857225732735060e-17 -1.117020576200828e+00 0.000000000000000e+00
					4.169477881004139e-01 -1.046239326200828e+00 0.000000000000000e+00
					4.163336342344337e-17 -8.226941016011038e-01 0.000000000000000e+00
					3.475970508005519e-01 -7.908191016011039e-01 0.000000000000000e+00
					4.169477881004139e-01 -1.046239326200828e+00 0.000000000000000e+00
					8.338955762008279e-01 -8.338955762008279e-01 0.000000000000000e+00
					3.475970508005519e-01 -7.908191016011039e-01 0.000000000000000e+00
					6.951941016011038e-01 -6.951941016011038e-01 0.000000000000000e+00
					-6.951941016011038e-01 -6.951941016011038e-01 0.000000000000000e+00
					-3.475970508005519e-01 -7.908191016011039e-01 0.000000000000000e+00
					-5.838955762008279e-01 -5.838955762008279e-01 0.000000000000000e+00
					-2.919477881004139e-01 -6.087393262008278e-01 0.000000000000000e+00
					-3.475970508005519e-01 -7.908191016011039e-01 0.000000000000000e+00
					4.163336342344337e-17 -8.226941016011038e-01 0.000000000000000e+00
					-2.919477881004139e-01 -6.087393262008278e-01 0.000000000000000e+00
					3.469446951953614e-17 -6.170205762008278e-01 0.000000000000000e+00
					4.163336342344337e-17 -8.226941016011038e-01 0.000000000000000e+00
					3.475970508005519e-01 -7.908191016011039e-01 0.000000000000000e+00
					3.469446951953614e-17 -6.170205762008278e-01 0.000000000000000e+00
					2.919477881004139e-01 -6.087393262008278e-01 0.000000000000000e+00
					3.475970508005519e-01 -7.908191016011039e-01 0.000000000000000e+00
					6.951941016011038e-01 -6.951941016011038e-01 0.000000000000000e+00
					2.919477881004139e-01 -6.087393262008278e-01 0.000000000000000e+00
					5.838955762008279e-01 -5.838955762008279e-01 0.000000000000000e+00
					-5.838955762008279e-01 -5.838955762008279e-01 0.000000000000000e+00
					-2.919477881004139e-01 -6.087393262008278e-01 0.000000000000000e+00
					-5.000000000000000e-01 -5.000000000000000e-01 0.000000000000000e+00
					-2.500000000000000e-01 -5.000000000000000e-01 0.000000000000000e+00
					-2.919477881004139e-01 -6.087393262008278e-01 0.000000000000000e+00
					3.469446951953614e-17 -6.170205762008278e-01 0.000000000000000e+00
					-2.500000000000000e-01 -5.000000000000000e-01 0.000000000000000e+00
					2.775557561562891e-17 -5.000000000000000e-01 0.000000000000000e+00
					3.469446951953614e-17 -6.170205762008278e-01 0.000000000000000e+00
					2.919477881004139e-01 -6.087393262008278e-01 0.000000000000000e+00
					2.775557561562891e-17 -5.000000000000000e-01 0.000000000000000e+00
					2.500000000000000e-01 -5.000000000000000e-01 0.000000000000000e+00
					2.919477881004139e-01 -6.087393262008278e-01 0.000000000000000e+00
					5.838955762008279e-01 -5.838955762008279e-01 0.000000000000000e+00
					2.500000000000000e-01 -5.000000000000000e-01 0.000000000000000e+00
					5.000000000000000e-01 -5.000000000000000e-01 0.000000000000000e+00
				</DataArray>
			</Points>
			<Cells>
				<DataArray Name="connectivity" type="UInt32" format="ascii">
					0 1 3 2 4 5 7 6 8 9 11 10 12 13 15 14 16 17 19 18 20 21 23 22 24 25 27 26 28 29 31 30 32 33 35 34 36 37 39 38 40 41 43 42 44 45 47 46 48 49 51 50 52 53 55 54 56 57 59 58 60 61 63 62 
				</DataArray>
				<DataArray Name="offsets" type="UInt32" format="ascii">
					4 8 12 16 20 24 28 32 36 40 44 48 52 56 60 64 
				</DataArray>
				<DataArray Name="types" type="UInt8" format="ascii">
					9 9 9 9 9 9 9 9 9 9 9 9 9 9 9 9 
				</DataArray>
			</Cells>
			<PointData Vectors="solution ">
				<DataArray Name="solution" type="Float64" NumberOfComponents="1" format="ascii">
					0.000000000000000e+00 0.000000000000000e+00 1.313220834459764e-02 3.432204365317895e-02 0.000000000000000e+00 0.000000000000000e+00 3.432204365317895e-02 5.927219301362176e-02 0.000000000000000e+00 0.000000000000000e+00 5.927219301362176e-02 7.844074427197151e-02 0.000000000000000e+00 0.000000000000000e+00 7.844074427197151e-02 6.891453239600023e-02 1.313220834459764e-02 3.432204365317895e-02 1.819862063906911e-01 5.039932115596557e-01 3.432204365317895e-02 5.927219301362176e-02 5.039932115596557e-01 8.650900540542232e-01 5.927219301362176e-02 7.844074427197151e-02 8.650900540542232e-01 1.008329402872230e+00 7.844074427197151e-02 6.891453239600023e-02 1.008329402872230e+00 7.307531618148766e-01 1.819862063906911e-01 5.039932115596557e-01 7.194541365230829e-01 1.835684664475769e+00 5.039932115596557e-01 8.650900540542232e-01 1.835684664475769e+00 2.992064973669906e+00 8.650900540542232e-01 1.008329402872230e+00 2.992064973669906e+00 3.288497515448286e+00 1.008329402872230e+00 7.307531618148766e-01 3.288497515448286e+00 2.310035395317735e+00 7.194541365230829e-01 1.835684664475769e+00 1.618694806593985e+00 3.481157014725019e+00 1.835684664475769e+00 2.992064973669906e+00 3.481157014725019e+00 5.255319791187198e+00 2.992064973669906e+00 3.288497515448286e+00 5.255319791187198e+00 5.736847497244591e+00 3.288497515448286e+00 2.310035395317735e+00 5.736847497244591e+00 4.391702659950294e+00 
				</DataArray>
			</PointData>
			<CellData>
			</CellData>
		</Piece>
	</UnstructuredGrid>
</VTKFile>