<?xml version="1.0"?>
<VTKFile type="UnstructuredGrid" byte_order="LittleEndian">
	<UnstructuredGrid>
		<Piece NumberOfPoints="256" NumberOfCells="64">
			<Points>
				<DataArray type="Float64" NumberOfComponents="3" format="ascii">
					-1.000000000000000e+00 -1.000000000000000e+00 0.000000000000000e+00
					-7.500000000000000e-01 -1.218750000000000e+00 0.000000000000000e+00
					-9.135224194504830e-01 -9.135224194504830e-01 0.000000000000000e+00
					-6.851418145878623e-01 -1.081481403825483e+00 0.000000000000000e+00
					-7.500000000000000e-01 -1.218750000000000e+00 0.000000000000000e+00
					-5.000000000000000e-01 -1.375000000000000e+00 0.000000000000000e+00
					-6.851418145878623e-01 -1.081481403825483e+00 0.000000000000000e+00
					-4.567612097252415e-01 -1.201452106950483e+00 0.000000000000000e+00
					-5.000000000000000e-01 -1.375000000000000e+00 0.000000000000000e+00
					-2.499999999999999e-01 -1.468750000000000e+00 0.000000000000000e+00
					-4.567612097252415e-01 -1.201452106950483e+00 0.000000000000000e+00
					-2.283806048626207e-01 -1.273434528825483e+00 0.000000000000000e+00
					-2.499999999999999e-01 -1.468750000000000e+00 0.000000000000000e+00
					6.938893903907228e-17 -1.500000000000000e+00 0.000000000000000e+00
					-2.283806048626207e-01 -1.273434528825483e+00 0.000000000000000e+00
					6.581107186987012e-17 -1.297428669450483e+00 0.000000000000000e+00
					6.938893903907228e-17 -1.500000000000000e+00 0.000000000000000e+00
					2.500000000000001e-01 -1.468750000000000e+00 0.000000000000000e+00
					6.581107186987012e-17 -1.297428669450483e+00 0.000000000000000e+00
					2.283806048626209e-01 -1.273434528825483e+00 0.000000000000000e+00
					2.500000000000001e-01 -1.468750000000000e+00 0.000000000000000e+00
					5.000000000000001e-01 -1.375000000000000e+00 0.000000000000000e+00
					2.283806048626209e-01 -1.273434528825483e+00 0.000000000000000e+00
					4.567612097252416e-01 -1.201452106950483e+00 0.000000000000000e+00
					5.000000000000001e-01 -1.375000000000000e+00 0.000000000000000e+00
					7.500000000000000e-01 -1.218750000000000e+00 0.000000000000000e+00
					4.567612097252416e-01 -1.201452106950483e+00 0.000000000000000e+00
					6.851418145878623e-01 -1.081481403825483e+00 0.000000000000000e+00
					7.500000000000000e-01 -1.218750000000000e+00 0.000000000000000e+00
					1.000000000000000e+00 -1.000000000000000e+00 0.000000000000000e+00
					6.851418145878623e-01 -1.081481403825483e+00 0.000000000000000e+00
					9.135224194504830e-01 -9.135224194504830e-01 0.000000000000000e+00
					-9.135224194504830e-01 -9.135224194504830e-01 0.000000000000000e+00
					-6.851418145878623e-01 -1.081481403825483e+00 0.000000000000000e+00
					-8.338955762008280e-01 -8.338955762008280e-01 0.000000000000000e+00
					-6.254216821506211e-01 -9.577627637008281e-01 0.000000000000000e+00
					-6.851418145878623e-01 -1.081481403825483e+00 0.000000000000000e+00
					-4.567612097252415e-01 -1.201452106950483e+00 0.000000000000000e+00
					-6.254216821506211e-01 -9.577627637008281e-01 0.000000000000000e+00
					-4.169477881004140e-01 -1.046239326200828e+00 0.000000000000000e+00
					-4.567612097252415e-01 -1.201452106950483e+00 0.000000000000000e+00
					-2.283806048626207e-01 -1.273434528825483e+00 0.000000000000000e+00
					-4.169477881004140e-01 -1.046239326200828e+00 0.000000000000000e+00
					-2.084738940502070e-01 -1.099325263700828e+00 0.000000000000000e+00
					-2.283806048626207e-01 -1.273434528825483e+00 0.000000000000000e+00
					6.581107186987012e-17 -1.297428669450483e+00 0.000000000000000e+00
					-2.084738940502070e-01 -1.099325263700828e+00 0.000000000000000e+00
					6.201636426617085e-17 -1.117020576200828e+00 0.000000000000000e+00
					6.581107186987012e-17 -1.297428669450483e+00 0.000000000000000e+00
					2.283806048626209e-01 -1.273434528825483e+00 0.000000000000000e+00
					6.201636426617085e-17 -1.117020576200828e+00 0.000000000000000e+00
					2.084738940502071e-01 -1.099325263700828e+00 0.000000000000000e+00
					2.283806048626209e-01 -1.273434528825483e+00 0.000000000000000e+00
					4.567612097252416e-01 -1.201452106950483e+00 0.000000000000000e+00
					2.084738940502071e-01 -1.099325263700828e+00 0.000000000000000e+00
					4.169477881004141e-01 -1.046239326200828e+00 0.000000000000000e+00
					4.567612097252416e-01 -1.201452106950483e+00 0.000000000000000e+00
					6.851418145878623e-01 -1.081481403825483e+00 0.000000000000000e+00
					4.169477881004141e-01 -1.046239326200828e+00 0.000000000000000e+00
					6.254216821506211e-01 -9.577627637008281e-01 0.000000000000000e+00
					6.851418145878623e-01 -1.081481403825483e+00 0.000000000000000e+00
					9.135224194504830e-01 -9.135224194504830e-01 0.000000000000000e+00
					6.254216821506211e-01 -9.577627637008281e-01 0.000000000000000e+00
					8.338955762008280e-01 -8.338955762008280e-01 0.000000000000000e+00
					-8.338955762008280e-01 -8.338955762008280e-01 0.000000000000000e+00
					-6.254216821506211e-01 -9.577627637008281e-01 0.000000000000000e+00
					-7.611194702510350e-01 -7.611194702510350e-01 0.000000000000000e+00
					-5.708396026882762e-01 -8.475940796260349e-01 0.000000000000000e+00
					-6.254216821506211e-01 -9.577627637008281e-01 0.000000000000000e+00
					-4.169477881004140e-01 -1.046239326200828e+00 0.000000000000000e+00
					-5.708396026882762e-01 -8.475940796260349e-01 0.000000000000000e+00
					-3.805597351255174e-01 -9.093616577510351e-01 0.000000000000000e+00
					-4.169477881004140e-01 -1.046239326200828e+00 0.000000000000000e+00
					-2.084738940502070e-01 -1.099325263700828e+00 0.000000000000000e+00
					-3.805597351255174e-01 -9.093616577510351e-01 0.000000000000000e+00
					-1.902798675627587e-01 -9.464222046260349e-01 0.000000000000000e+00
					-2.084738940502070e-01 -1.099325263700828e+00 0.000000000000000e+00
					6.201636426617085e-17 -1.117020576200828e+00 0.000000000000000e+00
					-1.902798675627587e-01 -9.464222046260349e-01 0.000000000000000e+00
					5.800481622797449e-17 -9.587757202510351e-01 0.000000000000000e+00
					6.201636426617085e-17 -1.117020576200828e+00 0.000000000000000e+00
					2.084738940502071e-01 -1.099325263700828e+00 0.000000000000000e+00
					5.800481622797449e-17 -9.587757202510351e-01 0.000000000000000e+00
					1.902798675627588e-01 -9.464222046260349e-01 0.000000000000000e+00
					2.084738940502071e-01 -1.099325263700828e+00 0.000000000000000e+00
					4.169477881004141e-01 -1.046239326200828e+00 0.000000000000000e+00
					1.902798675627588e-01 -9.464222046260349e-01 0.000000000000000e+00
					3.805597351255176e-01 -9.093616577510349e-01 0.000000000000000e+00
					4.169477881004141e-01 -1.046239326200828e+00 0.000000000000000e+00
					6.254216821506211e-01 -9.577627637008281e-01 0.000000000000000e+00
					3.805597351255176e-01 -9.093616577510349e-01 0.000000000000000e+00
					5.708396026882762e-01 -8.475940796260348e-01 0.000000000000000e+00
					6.254216821506211e-01 -9.577627637008281e-01 0.000000000000000e+00
					8.338955762008280e-01 -8.338955762008280e-01 0.000000000000000e+00
					5.708396026882762e-01 -8.475940796260348e-01 0.000000000000000e+00
					7.611194702510350e-01 -7.611194702510350e-01 0.000000000000000e+00
					-7.611194702510350e-01 -7.611194702510350e-01 0.000000000000000e+00
					-5.708396026882762e-01 -8.475940796260349e-01 0.000000000000000e+00
					-6.951941016011041e-01 -6.951941016011041e-01 0.000000000000000e+00
					-5.213955762008279e-01 -7.509753516011040e-01 0.000000000000000e+00
					-5.708396026882762e-01 -8.475940796260349e-01 0.000000000000000e+00
					-3.805597351255174e-01 -9.093616577510351e-01 0.000000000000000e+00
					-5.213955762008279e-01 -7.509753516011040e-01 0.000000000000000e+00
					-3.475970508005519e-01 -7.908191016011041e-01 0.000000000000000e+00
					-3.805597351255174e-01 -9.093616577510351e-01 0.000000000000000e+00
					-1.902798675627587e-01 -9.464222046260349e-01 0.000000000000000e+00
					-3.475970508005519e-01 -7.908191016011041e-01 0.000000000000000e+00
					-1.737985254002760e-01 -8.147253516011039e-01 0.000000000000000e+00
					-1.902798675627587e-01 -9.464222046260349e-01 0.000000000000000e+00
					5.800481622797449e-17 -9.587757202510351e-01 0.000000000000000e+00
					-1.737985254002760e-01 -8.147253516011039e-01 0.000000000000000e+00
					5.377642775528102e-17 -8.226941016011040e-01 0.000000000000000e+00
					5.800481622797449e-17 -9.587757202510351e-01 0.000000000000000e+00
					1.902798675627588e-01 -9.464222046260349e-01 0.000000000000000e+00
					5.377642775528102e-17 -8.226941016011040e-01 0.000000000000000e+00
					1.737985254002761e-01 -8.147253516011039e-01 0.000000000000000e+00
					1.902798675627588e-01 -9.464222046260349e-01 0.000000000000000e+00
					3.805597351255176e-01 -9.093616577510349e-01 0.000000000000000e+00
					1.737985254002761e-01 -8.147253516011039e-01 0.000000000000000e+00
					3.475970508005521e-01 -7.908191016011039e-01 0.000000000000000e+00
					3.805597351255176e-01 -9.093616577510349e-01 0.000000000000000e+00
					5.708396026882762e-01 -8.475940796260348e-01 0.000000000000000e+00
					3.475970508005521e-01 -7.908191016011039e-01 0.000000000000000e+00
					5.213955762008279e-01 -7.509753516011040e-01 0.000000000000000e+00
					5.708396026882762e-01 -8.475940796260348e-01 0.000000000000000e+00
					7.611194702510350e-01 -7.611194702510350e-01 0.000000000000000e+00
					5.213955762008279e-01 -7.509753516011040e-01 0.000000000000000e+00
					6.951941016011041e-01 -6.951941016011041e-01 0.000000000000000e+00
					-6.951941016011041e-01 -6.951941016011041e-01 0.000000000000000e+00
					-5.213955762008279e-01 -7.509753516011040e-01 0.000000000000000e+00
					-6.361194702510350e-01 -6.361194702510350e-01 0.000000000000000e+00
					-4.770896026882761e-01 -6.679065796260349e-01 0.000000000000000e+00
					-5.213955762008279e-01 -7.509753516011040e-01 0.000000000000000e+00
					-3.475970508005519e-01 -7.908191016011041e-01 0.000000000000000e+00
					-4.770896026882761e-01 -6.679065796260349e-01 0.000000000000000e+00
					-3.180597351255174e-01 -6.906116577510349e-01 0.000000000000000e+00
					-3.475970508005519e-01 -7.908191016011041e-01 0.000000000000000e+00
					-1.737985254002760e-01 -8.147253516011039e-01 0.000000000000000e+00
					-3.180597351255174e-01 -6.906116577510349e-01 0.000000000000000e+00
					-1.590298675627587e-01 -7.042347046260349e-01 0.000000000000000e+00
					-1.737985254002760e-01 -8.147253516011039e-01 0.000000000000000e+00
					5.377642775528102e-17 -8.226941016011040e-01 0.000000000000000e+00
					-1.590298675627587e-01 -7.042347046260349e-01 0.000000000000000e+00
					4.933119884809045e-17 -7.087757202510350e-01 0.000000000000000e+00
					5.377642775528102e-17 -8.226941016011040e-01 0.000000000000000e+00
					1.737985254002761e-01 -8.147253516011039e-01 0.000000000000000e+00
					4.933119884809045e-17 -7.087757202510350e-01 0.000000000000000e+00
					1.590298675627588e-01 -7.042347046260349e-01 0.000000000000000e+00
					1.737985254002761e-01 -8.147253516011039e-01 0.000000000000000e+00
					3.475970508005521e-01 -7.908191016011039e-01 0.000000000000000e+00
					1.590298675627588e-01 -7.042347046260349e-01 0.000000000000000e+00
					3.180597351255176e-01 -6.906116577510348e-01 0.000000000000000e+00
					3.475970508005521e-01 -7.908191016011039e-01 0.000000000000000e+00
					5.213955762008279e-01 -7.509753516011040e-01 0.000000000000000e+00
					3.180597351255176e-01 -6.906116577510348e-01 0.000000000000000e+00
					4.770896026882761e-01 -6.679065796260349e-01 0.000000000000000e+00
					5.213955762008279e-01 -7.509753516011040e-01 0.000000000000000e+00
					6.951941016011041e-01 -6.951941016011041e-01 0.000000000000000e+00
					4.770896026882761e-01 -6.679065796260349e-01 0.000000000000000e+00
					6.361194702510350e-01 -6.361194702510350e-01 0.000000000000000e+00
					-6.361194702510350e-01 -6.361194702510350e-01 0.000000000000000e+00
					-4.770896026882761e-01 -6.679065796260349e-01 0.000000000000000e+00
					-5.838955762008280e-01 -5.838955762008280e-01 0.000000000000000e+00
					-4.379216821506209e-01 -5.983877637008279e-01 0.000000000000000e+00
					-4.770896026882761e-01 -6.679065796260349e-01 0.000000000000000e+00
					-3.180597351255174e-01 -6.906116577510349e-01 0.000000000000000e+00
					-4.379216821506209e-01 -5.983877637008279e-01 0.000000000000000e+00
					-2.919477881004139e-01 -6.087393262008280e-01 0.000000000000000e+00
					-3.180597351255174e-01 -6.906116577510349e-01 0.000000000000000e+00
					-1.590298675627587e-01 -7.042347046260349e-01 0.000000000000000e+00
					-2.919477881004139e-01 -6.087393262008280e-01 0.000000000000000e+00
					-1.459738940502070e-01 -6.149502637008278e-01 0.000000000000000e+00
					-1.590298675627587e-01 -7.042347046260349e-01 0.000000000000000e+00
					4.933119884809045e-17 -7.087757202510350e-01 0.000000000000000e+00
					-1.459738940502070e-01 -6.149502637008278e-01 0.000000000000000e+00
					4.466912950640279e-17 -6.170205762008280e-01 0.000000000000000e+00
					4.933119884809045e-17 -7.087757202510350e-01 0.000000000000000e+00
					1.590298675627588e-01 -7.042347046260349e-01 0.000000000000000e+00
					4.466912950640279e-17 -6.170205762008280e-01 0.000000000000000e+00
					1.459738940502071e-01 -6.149502637008278e-01 0.000000000000000e+00
					1.590298675627588e-01 -7.042347046260349e-01 0.000000000000000e+00
					3.180597351255176e-01 -6.906116577510348e-01 0.000000000000000e+00
					1.459738940502071e-01 -6.149502637008278e-01 0.000000000000000e+00
					2.919477881004141e-01 -6.087393262008279e-01 0.000000000000000e+00
					3.180597351255176e-01 -6.906116577510348e-01 0.000000000000000e+00
					4.770896026882761e-01 -6.679065796260349e-01 0.000000000000000e+00
					2.919477881004141e-01 -6.087393262008279e-01 0.000000000000000e+00
					4.379216821506209e-01 -5.983877637008279e-01 0.000000000000000e+00
					4.770896026882761e-01 -6.679065796260349e-01 0.000000000000000e+00
					6.361194702510350e-01 -6.361194702510350e-01 0.000000000000000e+00
					4.379216821506209e-01 -5.983877637008279e-01 0.000000000000000e+00
					5.838955762008280e-01 -5.838955762008280e-01 0.000000000000000e+00
					-5.838955762008280e-01 -5.838955762008280e-01 0.000000000000000e+00
					-4.379216821506209e-01 -5.983877637008279e-01 0.000000000000000e+00
					-5.385224194504830e-01 -5.385224194504830e-01 0.000000000000000e+00
					-4.038918145878622e-01 -5.424189038254829e-01 0.000000000000000e+00
					-4.379216821506209e-01 -5.983877637008279e-01 0.000000000000000e+00
					-2.919477881004139e-01 -6.087393262008280e-01 0.000000000000000e+00
					-4.038918145878622e-01 -5.424189038254829e-01 0.000000000000000e+00
					-2.692612097252415e-01 -5.452021069504830e-01 0.000000000000000e+00
					-2.919477881004139e-01 -6.087393262008280e-01 0.000000000000000e+00
					-1.459738940502070e-01 -6.149502637008278e-01 0.000000000000000e+00
					-2.692612097252415e-01 -5.452021069504830e-01 0.000000000000000e+00
					-1.346306048626207e-01 -5.468720288254829e-01 0.000000000000000e+00
					-1.459738940502070e-01 -6.149502637008278e-01 0.000000000000000e+00
					4.466912950640279e-17 -6.170205762008280e-01 0.000000000000000e+00
					-1.346306048626207e-01 -5.468720288254829e-01 0.000000000000000e+00
					3.979021973021801e-17 -5.474286694504829e-01 0.000000000000000e+00
					4.466912950640279e-17 -6.170205762008280e-01 0.000000000000000e+00
					1.459738940502071e-01 -6.149502637008278e-01 0.000000000000000e+00
					3.979021973021801e-17 -5.474286694504829e-01 0.000000000000000e+00
					1.346306048626208e-01 -5.468720288254829e-01 0.000000000000000e+00
					1.459738940502071e-01 -6.149502637008278e-01 0.000000000000000e+00
					2.919477881004141e-01 -6.087393262008279e-01 0.000000000000000e+00
					1.346306048626208e-01 -5.468720288254829e-01 0.000000000000000e+00
					2.692612097252415e-01 -5.452021069504830e-01 0.000000000000000e+00
					2.919477881004141e-01 -6.087393262008279e-01 0.000000000000000e+00
					4.379216821506209e-01 -5.983877637008279e-01 0.000000000000000e+00
					2.692612097252415e-01 -5.452021069504830e-01 0.000000000000000e+00
					4.038918145878622e-01 -5.424189038254829e-01 0.000000000000000e+00
					4.379216821506209e-01 -5.983877637008279e-01 0.000000000000000e+00
					5.838955762008280e-01 -5.838955762008280e-01 0.000000000000000e+00
					4.038918145878622e-01 -5.424189038254829e-01 0.000000000000000e+00
					5.385224194504830e-01 -5.385224194504830e-01 0.000000000000000e+00
					-5.385224194504830e-01 -5.385224194504830e-01 0.000000000000000e+00
					-4.038918145878622e-01 -5.424189038254829e-01 0.000000000000000e+00
					-5.000000000000000e-01 -5.000000000000000e-01 0.000000000000000e+00
					-3.750000000000000e-01 -5.000000000000000e-01 0.000000000000000e+00
					-4.038918145878622e-01 -5.424189038254829e-01 0.000000000000000e+00
					-2.692612097252415e-01 -5.452021069504830e-01 0.000000000000000e+00
					-3.750000000000000e-01 -5.000000000000000e-01 0.000000000000000e+00
					-2.500000000000000e-01 -5.000000000000000e-01 0.000000000000000e+00
					-2.692612097252415e-01 -5.452021069504830e-01 0.000000000000000e+00
					-1.346306048626207e-01 -5.468720288254829e-01 0.000000000000000e+00
					-2.500000000000000e-01 -5.000000000000000e-01 0.000000000000000e+00
					-1.250000000000000e-01 -5.000000000000000e-01 0.000000000000000e+00
					-1.346306048626207e-01 -5.468720288254829e-01 0.000000000000000e+00
					3.979021973021801e-17 -5.474286694504829e-01 0.000000000000000e+00
					-1.250000000000000e-01 -5.000000000000000e-01 0.000000000000000e+00
					3.469446951953614e-17 -5.000000000000000e-01 0.000000000000000e+00
					3.979021973021801e-17 -5.474286694504829e-01 0.000000000000000e+00
					1.346306048626208e-01 -5.468720288254829e-01 0.000000000000000e+00
					3.469446951953614e-17 -5.000000000000000e-01 0.000000000000000e+00
					1.250000000000001e-01 -5.000000000000000e-01 0.000000000000000e+00
					1.346306048626208e-01 -5.468720288254829e-01 0.000000000000000e+00
					2.692612097252415e-01 -5.452021069504830e-01 0.000000000000000e+00
					1.250000000000001e-01 -5.000000000000000e-01 0.000000000000000e+00
					2.500000000000001e-01 -5.000000000000000e-01 0.000000000000000e+00
					2.692612097252415e-01 -5.452021069504830e-01 0.000000000000000e+00
					4.038918145878622e-01 -5.424189038254829e-01 0.000000000000000e+00
					2.500000000000001e-01 -5.000000000000000e-01 0.000000000000000e+00
					3.750000000000000e-01 -5.000000000000000e-01 0.000000000000000e+00
					4.038918145878622e-01 -5.424189038254829e-01 0.000000000000000e+00
					5.385224194504830e-01 -5.385224194504830e-01 0.000000000000000e+00
					3.750000000000000e-01 -5.000000000000000e-01 0.000000000000000e+00
					5.000000000000000e-01 -5.000000000000000e-01 0.000000000000000e+00
				</DataArray>
			</Points>
			<Cells>
				<DataArray Name="connectivity" type="UInt32" format="ascii">
					0 1 3 2 4 5 7 6 8 9 11 10 12 13 15 14 16 17 19 18 20 21 23 22 24 25 27 26 28 29 31 30 32 33 35 34 36 37 39 38 40 41 43 42 44 45 47 46 48 49 51 50 52 53 55 54 56 57 59 58 60 61 63 62 64 65 67 66 68 69 71 70 72 73 75 74 76 77 79 78 80 81 83 82 84 85 87 86 88 89 91 90 92 93 95 94 96 97 99 98 100 101 103 102 104 105 107 106 108 109 111 110 112 113 115 114 116 117 119 118 120 121 123 122 124 125 127 126 128 129 131 130 132 133 135 134 136 137 139 138 140 141 143 142 144 145 147 146 148 149 151 150 152 153 155 154 156 157 159 158 160 161 163 162 164 165 167 166 168 169 171 170 172 173 175 174 176 177 179 178 180 181 183 182 184 185 187 186 188 189 191 190 192 193 195 194 196 197 199 198 200 201 203 202 204 205 207 206 208 209 211 210 212 213 215 214 216 217 219 218 220 221 223 222 224 225 227 226 228 229 231 230 232 233 235 234 236 237 239 238 240 241 243 242 244 245 247 246 248 249 251 250 252 253 255 254 
				</DataArray>
				<DataArray Name="offsets" type="UInt32" format="ascii">
					4 8 12 16 20 24 28 32 36 40 44 48 52 56 60 64 68 72 76 80 84 88 92 96 100 104 108 112 116 120 124 128 132 136 140 144 148 152 156 160 164 168 172 176 180 184 188 192 196 200 204 208 212 216 220 224 228 232 236 240 244 248 252 256 
				</DataArray>
				<DataArray Name="types" type="UInt8" format="ascii">
					9 9 9 9 9 9 9 9 9 9 9 9 9 9 9 9 9 9 9 9 9 9 9 9 9 9 9 9 9 9 9 9 9 9 9 9 9 9 9 9 9 9 9 9 9 9 9 9 9 9 9 9 9 9 9 9 9 9 9 9 9 9 9 9 
				</DataArray>
			</Cells>
			<PointData Vectors="solution ">
				<DataArray Name="solution" type="Float64" NumberOfComponents="1" format="ascii">
					0.000000000000000e+00 0.000000000000000e+00 4.245171321599018e-04 1.073534071811486e-03 0.000000000000000e+00 0.000000000000000e+00 1.073534071811486e-03 1.943339210092030e-03 0.000000000000000e+00 0.000000000000000e+00 1.943339210092030e-03 3.036622935048013e-03 0.000000000000000e+00 0.000000000000000e+00 3.036622935048013e-03 4.158301718274258e-03 0.000000000000000e+00 0.000000000000000e+00 4.158301718274258e-03 4.989630728480765e-03 0.000000000000000e+00 0.000000000000000e+00 4.989630728480765e-03 5.379056157856414e-03 0.000000000000000e+00 0.000000000000000e+00 5.379056157856414e-03 5.366120105799052e-03 0.000000000000000e+00 0.000000000000000e+00 5.366120105799052e-03 4.616142548488234e-03 4.245171321599018e-04 1.073534071811486e-03 1.166153958428577e-02 2.189215477278240e-02 1.073534071811486e-03 1.943339210092030e-03 2.189215477278240e-02 3.436471556100752e-02 1.943339210092030e-03 3.036622935048013e-03 3.436471556100752e-02 4.830884795558026e-02 3.036622935048013e-03 4.158301718274258e-03 4.830884795558026e-02 6.226032943885383e-02 4.158301718274258e-03 4.989630728480765e-03 6.226032943885383e-02 7.400397465848188e-02 4.989630728480765e-03 5.379056157856414e-03 7.400397465848188e-02 8.094104319203774e-02 5.379056157856414e-03 5.366120105799052e-03 8.094104319203774e-02 8.007166974093827e-02 5.366120105799052e-03 4.616142548488234e-03 8.007166974093827e-02 6.762170777270683e-02 1.166153958428577e-02 2.189215477278240e-02 5.987174918264819e-02 1.101174843241950e-01 2.189215477278240e-02 3.436471556100752e-02 1.101174843241950e-01 1.719583338992942e-01 3.436471556100752e-02 4.830884795558026e-02 1.719583338992942e-01 2.392014766777150e-01 4.830884795558026e-02 6.226032943885383e-02 2.392014766777150e-01 3.028729601254019e-01 6.226032943885383e-02 7.400397465848188e-02 3.028729601254019e-01 3.513513124896779e-01 7.400397465848188e-02 8.094104319203774e-02 3.513513124896779e-01 3.715345573400681e-01 8.094104319203774e-02 8.007166974093827e-02 3.715345573400681e-01 3.512890277830869e-01 8.007166974093827e-02 6.762170777270683e-02 3.512890277830869e-01 2.842130374883189e-01 5.987174918264819e-02 1.101174843241950e-01 1.775895717310280e-01 3.221647509273848e-01 1.101174843241950e-01 1.719583338992942e-01 3.221647509273848e-01 5.014630607934130e-01 1.719583338992942e-01 2.392014766777150e-01 5.014630607934130e-01 6.934355254929013e-01 2.392014766777150e-01 3.028729601254019e-01 6.934355254929013e-01 8.665358404498053e-01 3.028729601254019e-01 3.513513124896779e-01 8.665358404498053e-01 9.837870155320433e-01 3.513513124896779e-01 3.715345573400681e-01 9.837870155320433e-01 1.010082332017844e+00 3.715345573400681e-01 3.512890277830869e-01 1.010082332017844e+00 9.231295197569251e-01 3.512890277830869e-01 2.842130374883189e-01 9.231295197569251e-01 7.267847664778189e-01 1.775895717310280e-01 3.221647509273848e-01 3.913433582798234e-01 6.935308290439914e-01 3.221647509273848e-01 5.014630607934130e-01 6.935308290439914e-01 1.065723450751173e+00 5.014630607934130e-01 6.934355254929013e-01 1.065723450751173e+00 1.457274896147486e+00 6.934355254929013e-01 8.665358404498053e-01 1.457274896147486e+00 1.796737254122980e+00 8.665358404498053e-01 9.837870155320433e-01 1.796737254122980e+00 2.005821031906802e+00 9.837870155320433e-01 1.010082332017844e+00 2.005821031906802e+00 2.019976826395656e+00 1.010082332017844e+00 9.231295197569251e-01 2.019976826395656e+00 1.812279980196668e+00 9.231295197569251e-01 7.267847664778189e-01 1.812279980196668e+00 1.413229089390510e+00 3.913433582798234e-01 6.935308290439914e-01 7.114483856879548e-01 1.217745365714977e+00 6.935308290439914e-01 1.065723450751173e+00 1.217745365714977e+00 1.829132217408745e+00 1.065723450751173e+00 1.457274896147486e+00 1.829132217408745e+00 2.458947643253587e+00 1.457274896147486e+00 1.796737254122980e+00 2.458947643253587e+00 2.989014169462470e+00 1.796737254122980e+00 2.005821031906802e+00 2.989014169462470e+00 3.296123099762787e+00 2.005821031906802e+00 2.019976826395656e+00 3.296123099762787e+00 3.287662951384639e+00 2.019976826395656e+00 1.812279980196668e+00 3.287662951384639e+00 2.937114313368127e+00 1.812279980196668e+00 1.413229089390510e+00 2.937114313368127e+00 2.306239130437740e+00 7.114483856879548e-01 1.217745365714977e+00 1.127060206941267e+00 1.842810556889593e+00 1.217745365714977e+00 1.829132217408745e+00 1.842810556889593e+00 2.682336265301843e+00 1.829132217408745e+00 2.458947643253587e+00 2.682336265301843e+00 3.527790394999188e+00 2.458947643253587e+00 2.989014169462470e+00 3.527790394999188e+00 4.225737621305933e+00 2.989014169462470e+00 3.296123099762787e+00 4.225737621305933e+00 4.621861141814851e+00 3.296123099762787e+00 3.287662951384639e+00 4.621861141814851e+00 4.605061262069409e+00 3.287662951384639e+00 2.937114313368127e+00 4.605061262069409e+00 4.148095652014130e+00 2.937114313368127e+00 2.306239130437740e+00 4.148095652014130e+00 3.329803397510134e+00 1.127060206941267e+00 1.842810556889593e+00 1.607085734166453e+00 2.483600012273095e+00 1.842810556889593e+00 2.682336265301843e+00 2.483600012273095e+00 3.475979172975989e+00 2.682336265301843e+00 3.527790394999188e+00 3.475979172975989e+00 4.454018306594389e+00 3.527790394999188e+00 4.225737621305933e+00 4.454018306594389e+00 5.256147355578374e+00 4.225737621305933e+00 4.621861141814851e+00 5.256147355578374e+00 5.723339898646362e+00 4.621861141814851e+00 4.605061262069409e+00 5.723339898646362e+00 5.740376778044448e+00 4.605061262069409e+00 4.148095652014130e+00 5.740376778044448e+00 5.273298340825427e+00 4.148095652014130e+00 3.329803397510134e+00 5.273298340825427e+00 4.390446412684767e+00 
				</DataArray>
			</PointData>
			<CellData>
			</CellData>
		</Piece>
	</UnstructuredGrid>
</VTKFile>