<?xml version="1.0"?>
<VTKFile type="UnstructuredGrid" byte_order="LittleEndian">
	<UnstructuredGrid>
		<Piece NumberOfPoints="256" NumberOfCells="64">
			<Points>
				<DataArray type="Float64" NumberOfComponents="3" format="ascii">
					-1.000000000000000e+00 -1.000000000000000e+00 0.000000000000000e+00
					-9.135224194504830e-01 -9.135224194504830e-01 0.000000000000000e+00
					-1.218750000000000e+00 -7.500000000000000e-01 0.000000000000000e+00
					-1.081481403825483e+00 -6.851418145878623e-01 0.000000000000000e+00
					-9.135224194504830e-01 -9.135224194504830e-01 0.000000000000000e+00
					-8.338955762008280e-01 -8.338955762008280e-01 0.000000000000000e+00
					-1.081481403825483e+00 -6.851418145878623e-01 0.000000000000000e+00
					-9.577627637008281e-01 -6.254216821506210e-01 0.000000000000000e+00
					-8.338955762008280e-01 -8.338955762008280e-01 0.000000000000000e+00
					-7.611194702510350e-01 -7.611194702510350e-01 0.000000000000000e+00
					-9.577627637008281e-01 -6.254216821506210e-01 0.000000000000000e+00
					-8.475940796260351e-01 -5.708396026882763e-01 0.000000000000000e+00
					-7.611194702510350e-01 -7.611194702510350e-01 0.000000000000000e+00
					-6.951941016011041e-01 -6.951941016011041e-01 0.000000000000000e+00
					-8.475940796260351e-01 -5.708396026882763e-01 0.000000000000000e+00
					-7.509753516011042e-01 -5.213955762008280e-01 0.000000000000000e+00
					-6.951941016011041e-01 -6.951941016011041e-01 0.000000000000000e+00
					-6.361194702510350e-01 -6.361194702510350e-01 0.000000000000000e+00
					-7.509753516011042e-01 -5.213955762008280e-01 0.000000000000000e+00
					-6.679065796260351e-01 -4.770896026882763e-01 0.000000000000000e+00
					-6.361194702510350e-01 -6.361194702510350e-01 0.000000000000000e+00
					-5.838955762008280e-01 -5.838955762008280e-01 0.000000000000000e+00
					-6.679065796260351e-01 -4.770896026882763e-01 0.000000000000000e+00
					-5.983877637008280e-01 -4.379216821506210e-01 0.000000000000000e+00
					-5.838955762008280e-01 -5.838955762008280e-01 0.000000000000000e+00
					-5.385224194504830e-01 -5.385224194504830e-01 0.000000000000000e+00
					-5.983877637008280e-01 -4.379216821506210e-01 0.000000000000000e+00
					-5.424189038254830e-01 -4.038918145878622e-01 0.000000000000000e+00
					-5.385224194504830e-01 -5.385224194504830e-01 0.000000000000000e+00
					-5.000000000000000e-01 -5.000000000000000e-01 0.000000000000000e+00
					-5.424189038254830e-01 -4.038918145878622e-01 0.000000000000000e+00
					-5.000000000000000e-01 -3.750000000000000e-01 0.000000000000000e+00
					-1.218750000000000e+00 -7.500000000000000e-01 0.000000000000000e+00
					-1.081481403825483e+00 -6.851418145878623e-01 0.000000000000000e+00
					-1.375000000000000e+00 -5.000000000000000e-01 0.000000000000000e+00
					-1.201452106950483e+00 -4.567612097252415e-01 0.000000000000000e+00
					-1.081481403825483e+00 -6.851418145878623e-01 0.000000000000000e+00
					-9.577627637008281e-01 -6.254216821506210e-01 0.000000000000000e+00
					-1.201452106950483e+00 -4.567612097252415e-01 0.000000000000000e+00
					-1.046239326200828e+00 -4.169477881004140e-01 0.000000000000000e+00
					-9.577627637008281e-01 -6.254216821506210e-01 0.000000000000000e+00
					-8.475940796260351e-01 -5.708396026882763e-01 0.000000000000000e+00
					-1.046239326200828e+00 -4.169477881004140e-01 0.000000000000000e+00
					-9.093616577510352e-01 -3.805597351255176e-01 0.000000000000000e+00
					-8.475940796260351e-01 -5.708396026882763e-01 0.000000000000000e+00
					-7.509753516011042e-01 -5.213955762008280e-01 0.000000000000000e+00
					-9.093616577510352e-01 -3.805597351255176e-01 0.000000000000000e+00
					-7.908191016011042e-01 -3.475970508005520e-01 0.000000000000000e+00
					-7.509753516011042e-01 -5.213955762008280e-01 0.000000000000000e+00
					-6.679065796260351e-01 -4.770896026882763e-01 0.000000000000000e+00
					-7.908191016011042e-01 -3.475970508005520e-01 0.000000000000000e+00
					-6.906116577510353e-01 -3.180597351255176e-01 0.000000000000000e+00
					-6.679065796260351e-01 -4.770896026882763e-01 0.000000000000000e+00
					-5.983877637008280e-01 -4.379216821506210e-01 0.000000000000000e+00
					-6.906116577510353e-01 -3.180597351255176e-01 0.000000000000000e+00
					-6.087393262008280e-01 -2.919477881004140e-01 0.000000000000000e+00
					-5.983877637008280e-01 -4.379216821506210e-01 0.000000000000000e+00
					-5.424189038254830e-01 -4.038918145878622e-01 0.000000000000000e+00
					-6.087393262008280e-01 -2.919477881004140e-01 0.000000000000000e+00
					-5.452021069504830e-01 -2.692612097252415e-01 0.000000000000000e+00
					-5.424189038254830e-01 -4.038918145878622e-01 0.000000000000000e+00
					-5.000000000000000e-01 -3.750000000000000e-01 0.000000000000000e+00
					-5.452021069504830e-01 -2.692612097252415e-01 0.000000000000000e+00
					-5.000000000000000e-01 -2.500000000000000e-01 0.000000000000000e+00
					-1.375000000000000e+00 -5.000000000000000e-01 0.000000000000000e+00
					-1.201452106950483e+00 -4.567612097252415e-01 0.000000000000000e+00
					-1.468750000000000e+00 -2.499999999999999e-01 0.000000000000000e+00
					-1.273434528825483e+00 -2.283806048626207e-01 0.000000000000000e+00
					-1.201452106950483e+00 -4.567612097252415e-01 0.000000000000000e+00
					-1.046239326200828e+00 -4.169477881004140e-01 0.000000000000000e+00
					-1.273434528825483e+00 -2.283806048626207e-01 0.000000000000000e+00
					-1.099325263700828e+00 -2.084738940502069e-01 0.000000000000000e+00
					-1.046239326200828e+00 -4.169477881004140e-01 0.000000000000000e+00
					-9.093616577510352e-01 -3.805597351255176e-01 0.000000000000000e+00
					-1.099325263700828e+00 -2.084738940502069e-01 0.000000000000000e+00
					-9.464222046260351e-01 -1.902798675627587e-01 0.000000000000000e+00
					-9.093616577510352e-01 -3.805597351255176e-01 0.000000000000000e+00
					-7.908191016011042e-01 -3.475970508005520e-01 0.000000000000000e+00
					-9.464222046260351e-01 -1.902798675627587e-01 0.000000000000000e+00
					-8.147253516011042e-01 -1.737985254002760e-01 0.000000000000000e+00
					-7.908191016011042e-01 -3.475970508005520e-01 0.000000000000000e+00
					-6.906116577510353e-01 -3.180597351255176e-01 0.000000000000000e+00
					-8.147253516011042e-01 -1.737985254002760e-01 0.000000000000000e+00
					-7.042347046260352e-01 -1.590298675627587e-01 0.000000000000000e+00
					-6.906116577510353e-01 -3.180597351255176e-01 0.000000000000000e+00
					-6.087393262008280e-01 -2.919477881004140e-01 0.000000000000000e+00
					-7.042347046260352e-01 -1.590298675627587e-01 0.000000000000000e+00
					-6.149502637008282e-01 -1.459738940502070e-01 0.000000000000000e+00
					-6.087393262008280e-01 -2.919477881004140e-01 0.000000000000000e+00
					-5.452021069504830e-01 -2.692612097252415e-01 0.000000000000000e+00
					-6.149502637008282e-01 -1.459738940502070e-01 0.000000000000000e+00
					-5.468720288254829e-01 -1.346306048626207e-01 0.000000000000000e+00
					-5.452021069504830e-01 -2.692612097252415e-01 0.000000000000000e+00
					-5.000000000000000e-01 -2.500000000000000e-01 0.000000000000000e+00
					-5.468720288254829e-01 -1.346306048626207e-01 0.000000000000000e+00
					-5.000000000000000e-01 -1.250000000000000e-01 0.000000000000000e+00
					-1.468750000000000e+00 -2.499999999999999e-01 0.000000000000000e+00
					-1.273434528825483e+00 -2.283806048626207e-01 0.000000000000000e+00
					-1.500000000000000e+00 6.938893903907228e-17 0.000000000000000e+00
					-1.297428669450483e+00 1.249000902703301e-16 0.000000000000000e+00
					-1.273434528825483e+00 -2.283806048626207e-01 0.000000000000000e+00
					-1.099325263700828e+00 -2.084738940502069e-01 0.000000000000000e+00
					-1.297428669450483e+00 1.249000902703301e-16 0.000000000000000e+00
					-1.117020576200828e+00 5.551115123125783e-17 0.000000000000000e+00
					-1.099325263700828e+00 -2.084738940502069e-01 0.000000000000000e+00
					-9.464222046260351e-01 -1.902798675627587e-01 0.000000000000000e+00
					-1.117020576200828e+00 5.551115123125783e-17 0.000000000000000e+00
					-9.587757202510351e-01 5.551115123125783e-17 0.000000000000000e+00
					-9.464222046260351e-01 -1.902798675627587e-01 0.000000000000000e+00
					-8.147253516011042e-01 -1.737985254002760e-01 0.000000000000000e+00
					-9.587757202510351e-01 5.551115123125783e-17 0.000000000000000e+00
					-8.226941016011042e-01 1.387778780781446e-17 0.000000000000000e+00
					-8.147253516011042e-01 -1.737985254002760e-01 0.000000000000000e+00
					-7.042347046260352e-01 -1.590298675627587e-01 0.000000000000000e+00
					-8.226941016011042e-01 1.387778780781446e-17 0.000000000000000e+00
					-7.087757202510352e-01 4.163336342344337e-17 0.000000000000000e+00
					-7.042347046260352e-01 -1.590298675627587e-01 0.000000000000000e+00
					-6.149502637008282e-01 -1.459738940502070e-01 0.000000000000000e+00
					-7.087757202510352e-01 4.163336342344337e-17 0.000000000000000e+00
					-6.170205762008282e-01 4.857225732735060e-17 0.000000000000000e+00
					-6.149502637008282e-01 -1.459738940502070e-01 0.000000000000000e+00
					-5.468720288254829e-01 -1.346306048626207e-01 0.000000000000000e+00
					-6.170205762008282e-01 4.857225732735060e-17 0.000000000000000e+00
					-5.474286694504830e-01 3.469446951953614e-17 0.000000000000000e+00
					-5.468720288254829e-01 -1.346306048626207e-01 0.000000000000000e+00
					-5.000000000000000e-01 -1.250000000000000e-01 0.000000000000000e+00
					-5.474286694504830e-01 3.469446951953614e-17 0.000000000000000e+00
					-5.000000000000000e-01 3.469446951953614e-17 0.000000000000000e+00
					-1.500000000000000e+00 6.938893903907228e-17 0.000000000000000e+00
					-1.297428669450483e+00 1.249000902703301e-16 0.000000000000000e+00
					-1.468750000000000e+00 2.500000000000001e-01 0.000000000000000e+00
					-1.273434528825483e+00 2.283806048626209e-01 0.000000000000000e+00
					-1.297428669450483e+00 1.249000902703301e-16 0.000000000000000e+00
					-1.117020576200828e+00 5.551115123125783e-17 0.000000000000000e+00
					-1.273434528825483e+00 2.283806048626209e-01 0.000000000000000e+00
					-1.099325263700828e+00 2.084738940502071e-01 0.000000000000000e+00
					-1.117020576200828e+00 5.551115123125783e-17 0.000000000000000e+00
					-9.587757202510351e-01 5.551115123125783e-17 0.000000000000000e+00
					-1.099325263700828e+00 2.084738940502071e-01 0.000000000000000e+00
					-9.464222046260350e-01 1.902798675627588e-01 0.000000000000000e+00
					-9.587757202510351e-01 5.551115123125783e-17 0.000000000000000e+00
					-8.226941016011042e-01 1.387778780781446e-17 0.000000000000000e+00
					-9.464222046260350e-01 1.902798675627588e-01 0.000000000000000e+00
					-8.147253516011042e-01 1.737985254002760e-01 0.000000000000000e+00
					-8.226941016011042e-01 1.387778780781446e-17 0.000000000000000e+00
					-7.087757202510352e-01 4.163336342344337e-17 0.000000000000000e+00
					-8.147253516011042e-01 1.737985254002760e-01 0.000000000000000e+00
					-7.042347046260351e-01 1.590298675627588e-01 0.000000000000000e+00
					-7.087757202510352e-01 4.163336342344337e-17 0.000000000000000e+00
					-6.170205762008282e-01 4.857225732735060e-17 0.000000000000000e+00
					-7.042347046260351e-01 1.590298675627588e-01 0.000000000000000e+00
					-6.149502637008282e-01 1.459738940502071e-01 0.000000000000000e+00
					-6.170205762008282e-01 4.857225732735060e-17 0.000000000000000e+00
					-5.474286694504830e-01 3.469446951953614e-17 0.000000000000000e+00
					-6.149502637008282e-01 1.459738940502071e-01 0.000000000000000e+00
					-5.468720288254829e-01 1.346306048626208e-01 0.000000000000000e+00
					-5.474286694504830e-01 3.469446951953614e-17 0.000000000000000e+00
					-5.000000000000000e-01 3.469446951953614e-17 0.000000000000000e+00
					-5.468720288254829e-01 1.346306048626208e-01 0.000000000000000e+00
					-5.000000000000000e-01 1.250000000000001e-01 0.000000000000000e+00
					-1.468750000000000e+00 2.500000000000001e-01 0.000000000000000e+00
					-1.273434528825483e+00 2.283806048626209e-01 0.000000000000000e+00
					-1.375000000000000e+00 5.000000000000001e-01 0.000000000000000e+00
					-1.201452106950483e+00 4.567612097252416e-01 0.000000000000000e+00
					-1.273434528825483e+00 2.283806048626209e-01 0.000000000000000e+00
					-1.099325263700828e+00 2.084738940502071e-01 0.000000000000000e+00
					-1.201452106950483e+00 4.567612097252416e-01 0.000000000000000e+00
					-1.046239326200828e+00 4.169477881004141e-01 0.000000000000000e+00
					-1.099325263700828e+00 2.084738940502071e-01 0.000000000000000e+00
					-9.464222046260350e-01 1.902798675627588e-01 0.000000000000000e+00
					-1.046239326200828e+00 4.169477881004141e-01 0.000000000000000e+00
					-9.093616577510349e-01 3.805597351255176e-01 0.000000000000000e+00
					-9.464222046260350e-01 1.902798675627588e-01 0.000000000000000e+00
					-8.147253516011042e-01 1.737985254002760e-01 0.000000000000000e+00
					-9.093616577510349e-01 3.805597351255176e-01 0.000000000000000e+00
					-7.908191016011041e-01 3.475970508005520e-01 0.000000000000000e+00
					-8.147253516011042e-01 1.737985254002760e-01 0.000000000000000e+00
					-7.042347046260351e-01 1.590298675627588e-01 0.000000000000000e+00
					-7.908191016011041e-01 3.475970508005520e-01 0.000000000000000e+00
					-6.906116577510351e-01 3.180597351255176e-01 0.000000000000000e+00
					-7.042347046260351e-01 1.590298675627588e-01 0.000000000000000e+00
					-6.149502637008282e-01 1.459738940502071e-01 0.000000000000000e+00
					-6.906116577510351e-01 3.180597351255176e-01 0.000000000000000e+00
					-6.087393262008280e-01 2.919477881004141e-01 0.000000000000000e+00
					-6.149502637008282e-01 1.459738940502071e-01 0.000000000000000e+00
					-5.468720288254829e-01 1.346306048626208e-01 0.000000000000000e+00
					-6.087393262008280e-01 2.919477881004141e-01 0.000000000000000e+00
					-5.452021069504830e-01 2.692612097252415e-01 0.000000000000000e+00
					-5.468720288254829e-01 1.346306048626208e-01 0.000000000000000e+00
					-5.000000000000000e-01 1.250000000000001e-01 0.000000000000000e+00
					-5.452021069504830e-01 2.692612097252415e-01 0.000000000000000e+00
					-5.000000000000000e-01 2.500000000000001e-01 0.000000000000000e+00
					-1.375000000000000e+00 5.000000000000001e-01 0.000000000000000e+00
					-1.201452106950483e+00 4.567612097252416e-01 0.000000000000000e+00
					-1.218750000000000e+00 7.500000000000000e-01 0.000000000000000e+00
					-1.081481403825483e+00 6.851418145878623e-01 0.000000000000000e+00
					-1.201452106950483e+00 4.567612097252416e-01 0.000000000000000e+00
					-1.046239326200828e+00 4.169477881004141e-01 0.000000000000000e+00
					-1.081481403825483e+00 6.851418145878623e-01 0.000000000000000e+00
					-9.577627637008279e-01 6.254216821506210e-01 0.000000000000000e+00
					-1.046239326200828e+00 4.169477881004141e-01 0.000000000000000e+00
					-9.093616577510349e-01 3.805597351255176e-01 0.000000000000000e+00
					-9.577627637008279e-01 6.254216821506210e-01 0.000000000000000e+00
					-8.475940796260348e-01 5.708396026882763e-01 0.000000000000000e+00
					-9.093616577510349e-01 3.805597351255176e-01 0.000000000000000e+00
					-7.908191016011041e-01 3.475970508005520e-01 0.000000000000000e+00
					-8.475940796260348e-01 5.708396026882763e-01 0.000000000000000e+00
					-7.509753516011041e-01 5.213955762008280e-01 0.000000000000000e+00
					-7.908191016011041e-01 3.475970508005520e-01 0.000000000000000e+00
					-6.906116577510351e-01 3.180597351255176e-01 0.000000000000000e+00
					-7.509753516011041e-01 5.213955762008280e-01 0.000000000000000e+00
					-6.679065796260349e-01 4.770896026882762e-01 0.000000000000000e+00
					-6.906116577510351e-01 3.180597351255176e-01 0.000000000000000e+00
					-6.087393262008280e-01 2.919477881004141e-01 0.000000000000000e+00
					-6.679065796260349e-01 4.770896026882762e-01 0.000000000000000e+00
					-5.983877637008280e-01 4.379216821506210e-01 0.000000000000000e+00
					-6.087393262008280e-01 2.919477881004141e-01 0.000000000000000e+00
					-5.452021069504830e-01 2.692612097252415e-01 0.000000000000000e+00
					-5.983877637008280e-01 4.379216821506210e-01 0.000000000000000e+00
					-5.424189038254830e-01 4.038918145878622e-01 0.000000000000000e+00
					-5.452021069504830e-01 2.692612097252415e-01 0.000000000000000e+00
					-5.000000000000000e-01 2.500000000000001e-01 0.000000000000000e+00
					-5.424189038254830e-01 4.038918145878622e-01 0.000000000000000e+00
					-5.000000000000000e-01 3.750000000000000e-01 0.000000000000000e+00
					-1.218750000000000e+00 7.500000000000000e-01 0.000000000000000e+00
					-1.081481403825483e+00 6.851418145878623e-01 0.000000000000000e+00
					-1.000000000000000e+00 1.000000000000000e+00 0.000000000000000e+00
					-9.135224194504830e-01 9.135224194504830e-01 0.000000000000000e+00
					-1.081481403825483e+00 6.851418145878623e-01 0.000000000000000e+00
					-9.577627637008279e-01 6.254216821506210e-01 0.000000000000000e+00
					-9.135224194504830e-01 9.135224194504830e-01 0.000000000000000e+00
					-8.338955762008280e-01 8.338955762008280e-01 0.000000000000000e+00
					-9.577627637008279e-01 6.254216821506210e-01 0.000000000000000e+00
					-8.475940796260348e-01 5.708396026882763e-01 0.000000000000000e+00
					-8.338955762008280e-01 8.338955762008280e-01 0.000000000000000e+00
					-7.611194702510350e-01 7.611194702510350e-01 0.000000000000000e+00
					-8.475940796260348e-01 5.708396026882763e-01 0.000000000000000e+00
					-7.509753516011041e-01 5.213955762008280e-01 0.000000000000000e+00
					-7.611194702510350e-01 7.611194702510350e-01 0.000000000000000e+00
					-6.951941016011041e-01 6.951941016011041e-01 0.000000000000000e+00
					-7.509753516011041e-01 5.213955762008280e-01 0.000000000000000e+00
					-6.679065796260349e-01 4.770896026882762e-01 0.000000000000000e+00
					-6.951941016011041e-01 6.951941016011041e-01 0.000000000000000e+00
					-6.361194702510350e-01 6.361194702510350e-01 0.000000000000000e+00
					-6.679065796260349e-01 4.770896026882762e-01 0.000000000000000e+00
					-5.983877637008280e-01 4.379216821506210e-01 0.000000000000000e+00
					-6.361194702510350e-01 6.361194702510350e-01 0.000000000000000e+00
					-5.838955762008280e-01 5.838955762008280e-01 0.000000000000000e+00
					-5.983877637008280e-01 4.379216821506210e-01 0.000000000000000e+00
					-5.424189038254830e-01 4.038918145878622e-01 0.000000000000000e+00
					-5.838955762008280e-01 5.838955762008280e-01 0.000000000000000e+00
					-5.385224194504830e-01 5.385224194504830e-01 0.000000000000000e+00
					-5.424189038254830e-01 4.038918145878622e-01 0.000000000000000e+00
					-5.000000000000000e-01 3.750000000000000e-01 0.000000000000000e+00
					-5.385224194504830e-01 5.385224194504830e-01 0.000000000000000e+00
					-5.000000000000000e-01 5.000000000000000e-01 0.000000000000000e+00
				</DataArray>
			</Points>
			<Cells>
				<DataArray Name="connectivity" type="UInt32" format="ascii">
					0 1 3 2 4 5 7 6 8 9 11 10 12 13 15 14 16 17 19 18 20 21 23 22 24 25 27 26 28 29 31 30 32 33 35 34 36 37 39 38 40 41 43 42 44 45 47 46 48 49 51 50 52 53 55 54 56 57 59 58 60 61 63 62 64 65 67 66 68 69 71 70 72 73 75 74 76 77 79 78 80 81 83 82 84 85 87 86 88 89 91 90 92 93 95 94 96 97 99 98 100 101 103 102 104 105 107 106 108 109 111 110 112 113 115 114 116 117 119 118 120 121 123 122 124 125 127 126 128 129 131 130 132 133 135 134 136 137 139 138 140 141 143 142 144 145 147 146 148 149 151 150 152 153 155 154 156 157 159 158 160 161 163 162 164 165 167 166 168 169 171 170 172 173 175 174 176 177 179 178 180 181 183 182 184 185 187 186 188 189 191 190 192 193 195 194 196 197 199 198 200 201 203 202 204 205 207 206 208 209 211 210 212 213 215 214 216 217 219 218 220 221 223 222 224 225 227 226 228 229 231 230 232 233 235 234 236 237 239 238 240 241 243 242 244 245 247 246 248 249 251 250 252 253 255 254 
				</DataArray>
				<DataArray Name="offsets" type="UInt32" format="ascii">
					4 8 12 16 20 24 28 32 36 40 44 48 52 56 60 64 68 72 76 80 84 88 92 96 100 104 108 112 116 120 124 128 132 136 140 144 148 152 156 160 164 168 172 176 180 184 188 192 196 200 204 208 212 216 220 224 228 232 236 240 244 248 252 256 
				</DataArray>
				<DataArray Name="types" type="UInt8" format="ascii">
					9 9 9 9 9 9 9 9 9 9 9 9 9 9 9 9 9 9 9 9 9 9 9 9 9 9 9 9 9 9 9 9 9 9 9 9 9 9 9 9 9 9 9 9 9 9 9 9 9 9 9 9 9 9 9 9 9 9 9 9 9 9 9 9 
				</DataArray>
			</Cells>
			<PointData Vectors="solution ">
				<DataArray Name="solution" type="Float64" NumberOfComponents="1" format="ascii">
					0.000000000000000e+00 8.447072425972451e-04 0.000000000000000e+00 2.184211379664102e-03 8.447072425972451e-04 1.311892652049852e-02 2.184211379664102e-03 3.249295055851417e-02 1.311892652049852e-02 6.272914572746309e-02 3.249295055851417e-02 1.489142955796223e-01 6.272914572746309e-02 1.820064927930783e-01 1.489142955796223e-01 4.107324554616701e-01 1.820064927930783e-01 3.973124454666969e-01 4.107324554616701e-01 8.463345534576738e-01 3.973124454666969e-01 7.188449182376965e-01 8.463345534576738e-01 1.437988890693898e+00 7.188449182376965e-01 1.135700425581192e+00 1.437988890693898e+00 2.125824031707531e+00 1.135700425581192e+00 1.616812140246552e+00 2.125824031707531e+00 2.824014025299871e+00 0.000000000000000e+00 2.184211379664102e-03 0.000000000000000e+00 4.820928272114521e-03 2.184211379664102e-03 3.249295055851417e-02 4.820928272114521e-03 6.684091815362289e-02 3.249295055851417e-02 1.489142955796223e-01 6.684091815362289e-02 2.960523426318701e-01 1.489142955796223e-01 4.107324554616701e-01 2.960523426318701e-01 7.871124864662353e-01 4.107324554616701e-01 8.463345534576738e-01 7.871124864662353e-01 1.554125676958547e+00 8.463345534576738e-01 1.437988890693898e+00 1.554125676958547e+00 2.519050406455200e+00 1.437988890693898e+00 2.125824031707531e+00 2.519050406455200e+00 3.543358466742346e+00 2.125824031707531e+00 2.824014025299871e+00 3.543358466742346e+00 4.472147383853539e+00 0.000000000000000e+00 4.820928272114521e-03 0.000000000000000e+00 9.512766676164089e-03 4.820928272114521e-03 6.684091815362289e-02 9.512766676164089e-03 1.204742961067449e-01 6.684091815362289e-02 2.960523426318701e-01 1.204742961067449e-01 5.141904968574922e-01 2.960523426318701e-01 7.871124864662353e-01 5.141904968574922e-01 1.322490867301242e+00 7.871124864662353e-01 1.554125676958547e+00 1.322490867301242e+00 2.520826344475158e+00 1.554125676958547e+00 2.519050406455200e+00 2.520826344475158e+00 3.937741251344998e+00 2.519050406455200e+00 3.543358466742346e+00 3.937741251344998e+00 5.335200617425590e+00 3.543358466742346e+00 4.472147383853539e+00 5.335200617425590e+00 6.488093315797816e+00 0.000000000000000e+00 9.512766676164089e-03 0.000000000000000e+00 1.625824276842914e-02 9.512766676164089e-03 1.204742961067449e-01 1.625824276842914e-02 1.933750535522255e-01 1.204742961067449e-01 5.141904968574922e-01 1.933750535522255e-01 7.951066327615511e-01 5.141904968574922e-01 1.322490867301242e+00 7.951066327615511e-01 1.979035315237937e+00 1.322490867301242e+00 2.520826344475158e+00 1.979035315237937e+00 3.656722615889134e+00 2.520826344475158e+00 3.937741251344998e+00 3.656722615889134e+00 5.546303573099942e+00 3.937741251344998e+00 5.335200617425590e+00 5.546303573099942e+00 7.311549464883369e+00 5.335200617425590e+00 6.488093315797816e+00 7.311549464883369e+00 8.671764869546076e+00 0.000000000000000e+00 1.625824276842914e-02 0.000000000000000e+00 2.362519954398591e-02 1.625824276842914e-02 1.933750535522255e-01 2.362519954398591e-02 2.772481204654823e-01 1.933750535522255e-01 7.951066327615511e-01 2.772481204654823e-01 1.100537298337055e+00 7.951066327615511e-01 1.979035315237937e+00 1.100537298337055e+00 2.650205231374813e+00 1.979035315237937e+00 3.656722615889134e+00 2.650205231374813e+00 4.762019455181097e+00 3.656722615889134e+00 5.546303573099942e+00 4.762019455181097e+00 7.060277843785188e+00 5.546303573099942e+00 7.311549464883369e+00 7.060277843785188e+00 9.141600805030397e+00 7.311549464883369e+00 8.671764869546076e+00 9.141600805030397e+00 1.069696409167560e+01 0.000000000000000e+00 2.362519954398591e-02 0.000000000000000e+00 2.971922773236874e-02 2.362519954398591e-02 2.772481204654823e-01 2.971922773236874e-02 3.539563435354883e-01 2.772481204654823e-01 1.100537298337055e+00 3.539563435354883e-01 1.356186008511998e+00 1.100537298337055e+00 2.650205231374813e+00 1.356186008511998e+00 3.160829591842084e+00 2.650205231374813e+00 4.762019455181097e+00 3.160829591842084e+00 5.545910432003799e+00 4.762019455181097e+00 7.060277843785188e+00 5.545910432003799e+00 8.098105429923045e+00 7.060277843785188e+00 9.141600805030397e+00 8.098105429923045e+00 1.040297573470754e+01 9.141600805030397e+00 1.069696409167560e+01 1.040297573470754e+01 1.215625855001085e+01 0.000000000000000e+00 2.971922773236874e-02 0.000000000000000e+00 3.353434242530939e-02 2.971922773236874e-02 3.539563435354883e-01 3.353434242530939e-02 3.960305248268673e-01 3.539563435354883e-01 1.356186008511998e+00 3.960305248268673e-01 1.460169488320580e+00 1.356186008511998e+00 3.160829591842084e+00 1.460169488320580e+00 3.305361717145420e+00 3.160829591842084e+00 5.545910432003799e+00 3.305361717145420e+00 5.705027372853341e+00 5.545910432003799e+00 8.098105429923045e+00 5.705027372853341e+00 8.287736161843858e+00 8.098105429923045e+00 1.040297573470754e+01 8.287736161843858e+00 1.069325760270539e+01 1.040297573470754e+01 1.215625855001085e+01 1.069325760270539e+01 1.265568149166631e+01 0.000000000000000e+00 3.353434242530939e-02 0.000000000000000e+00 3.236509476184951e-02 3.353434242530939e-02 3.960305248268673e-01 3.236509476184951e-02 3.683953073069248e-01 3.960305248268673e-01 1.460169488320580e+00 3.683953073069248e-01 1.317024535127540e+00 1.460169488320580e+00 3.305361717145420e+00 1.317024535127540e+00 2.935771002231257e+00 3.305361717145420e+00 5.705027372853341e+00 2.935771002231257e+00 5.060131898260391e+00 5.705027372853341e+00 8.287736161843858e+00 5.060131898260391e+00 7.429086334838175e+00 8.287736161843858e+00 1.069325760270539e+01 7.429086334838175e+00 9.788356131820745e+00 1.069325760270539e+01 1.265568149166631e+01 9.788356131820745e+00 1.194418107242932e+01 
				</DataArray>
			</PointData>
			<CellData>
			</CellData>
		</Piece>
	</UnstructuredGrid>
</VTKFile>