<?xml version="1.0"?>
<VTKFile type="UnstructuredGrid" byte_order="LittleEndian">
	<UnstructuredGrid>
		<Piece NumberOfPoints="256" NumberOfCells="64">
			<Points>
				<DataArray type="Float64" NumberOfComponents="3" format="ascii">
					-1.000000000000000e+00 1.000000000000000e+00 0.000000000000000e+00
					-9.135224194504830e-01 9.135224194504830e-01 0.000000000000000e+00
					-7.500000000000000e-01 1.218750000000000e+00 0.000000000000000e+00
					-6.851418145878623e-01 1.081481403825483e+00 0.000000000000000e+00
					-9.135224194504830e-01 9.135224194504830e-01 0.000000000000000e+00
					-8.338955762008280e-01 8.338955762008280e-01 0.000000000000000e+00
					-6.851418145878623e-01 1.081481403825483e+00 0.000000000000000e+00
					-6.254216821506210e-01 9.577627637008281e-01 0.000000000000000e+00
					-8.338955762008280e-01 8.338955762008280e-01 0.000000000000000e+00
					-7.611194702510350e-01 7.611194702510350e-01 0.000000000000000e+00
					-6.254216821506210e-01 9.577627637008281e-01 0.000000000000000e+00
					-5.708396026882763e-01 8.475940796260351e-01 0.000000000000000e+00
					-7.611194702510350e-01 7.611194702510350e-01 0.000000000000000e+00
					-6.951941016011041e-01 6.951941016011041e-01 0.000000000000000e+00
					-5.708396026882763e-01 8.475940796260351e-01 0.000000000000000e+00
					-5.213955762008280e-01 7.509753516011042e-01 0.000000000000000e+00
					-6.951941016011041e-01 6.951941016011041e-01 0.000000000000000e+00
					-6.361194702510350e-01 6.361194702510350e-01 0.000000000000000e+00
					-5.213955762008280e-01 7.509753516011042e-01 0.000000000000000e+00
					-4.770896026882763e-01 6.679065796260351e-01 0.000000000000000e+00
					-6.361194702510350e-01 6.361194702510350e-01 0.000000000000000e+00
					-5.838955762008280e-01 5.838955762008280e-01 0.000000000000000e+00
					-4.770896026882763e-01 6.679065796260351e-01 0.000000000000000e+00
					-4.379216821506210e-01 5.983877637008280e-01 0.000000000000000e+00
					-5.838955762008280e-01 5.838955762008280e-01 0.000000000000000e+00
					-5.385224194504830e-01 5.385224194504830e-01 0.000000000000000e+00
					-4.379216821506210e-01 5.983877637008280e-01 0.000000000000000e+00
					-4.038918145878622e-01 5.424189038254830e-01 0.000000000000000e+00
					-5.385224194504830e-01 5.385224194504830e-01 0.000000000000000e+00
					-5.000000000000000e-01 5.000000000000000e-01 0.000000000000000e+00
					-4.038918145878622e-01 5.424189038254830e-01 0.000000000000000e+00
					-3.750000000000000e-01 5.000000000000000e-01 0.000000000000000e+00
					-7.500000000000000e-01 1.218750000000000e+00 0.000000000000000e+00
					-6.851418145878623e-01 1.081481403825483e+00 0.000000000000000e+00
					-5.000000000000000e-01 1.375000000000000e+00 0.000000000000000e+00
					-4.567612097252415e-01 1.201452106950483e+00 0.000000000000000e+00
					-6.851418145878623e-01 1.081481403825483e+00 0.000000000000000e+00
					-6.254216821506210e-01 9.577627637008281e-01 0.000000000000000e+00
					-4.567612097252415e-01 1.201452106950483e+00 0.000000000000000e+00
					-4.169477881004140e-01 1.046239326200828e+00 0.000000000000000e+00
					-6.254216821506210e-01 9.577627637008281e-01 0.000000000000000e+00
					-5.708396026882763e-01 8.475940796260351e-01 0.000000000000000e+00
					-4.169477881004140e-01 1.046239326200828e+00 0.000000000000000e+00
					-3.805597351255176e-01 9.093616577510352e-01 0.000000000000000e+00
					-5.708396026882763e-01 8.475940796260351e-01 0.000000000000000e+00
					-5.213955762008280e-01 7.509753516011042e-01 0.000000000000000e+00
					-3.805597351255176e-01 9.093616577510352e-01 0.000000000000000e+00
					-3.475970508005520e-01 7.908191016011042e-01 0.000000000000000e+00
					-5.213955762008280e-01 7.509753516011042e-01 0.000000000000000e+00
					-4.770896026882763e-01 6.679065796260351e-01 0.000000000000000e+00
					-3.475970508005520e-01 7.908191016011042e-01 0.000000000000000e+00
					-3.180597351255176e-01 6.906116577510353e-01 0.000000000000000e+00
					-4.770896026882763e-01 6.679065796260351e-01 0.000000000000000e+00
					-4.379216821506210e-01 5.983877637008280e-01 0.000000000000000e+00
					-3.180597351255176e-01 6.906116577510353e-01 0.000000000000000e+00
					-2.919477881004140e-01 6.087393262008280e-01 0.000000000000000e+00
					-4.379216821506210e-01 5.983877637008280e-01 0.000000000000000e+00
					-4.038918145878622e-01 5.424189038254830e-01 0.000000000000000e+00
					-2.919477881004140e-01 6.087393262008280e-01 0.000000000000000e+00
					-2.692612097252415e-01 5.452021069504830e-01 0.000000000000000e+00
					-4.038918145878622e-01 5.424189038254830e-01 0.000000000000000e+00
					-3.750000000000000e-01 5.000000000000000e-01 0.000000000000000e+00
					-2.692612097252415e-01 5.452021069504830e-01 0.000000000000000e+00
					-2.500000000000000e-01 5.000000000000000e-01 0.000000000000000e+00
					-5.000000000000000e-01 1.375000000000000e+00 0.000000000000000e+00
					-4.567612097252415e-01 1.201452106950483e+00 0.000000000000000e+00
					-2.499999999999999e-01 1.468750000000000e+00 0.000000000000000e+00
					-2.283806048626207e-01 1.273434528825483e+00 0.000000000000000e+00
					-4.567612097252415e-01 1.201452106950483e+00 0.000000000000000e+00
					-4.169477881004140e-01 1.046239326200828e+00 0.000000000000000e+00
					-2.283806048626207e-01 1.273434528825483e+00 0.000000000000000e+00
					-2.084738940502069e-01 1.099325263700828e+00 0.000000000000000e+00
					-4.169477881004140e-01 1.046239326200828e+00 0.000000000000000e+00
					-3.805597351255176e-01 9.093616577510352e-01 0.000000000000000e+00
					-2.084738940502069e-01 1.099325263700828e+00 0.000000000000000e+00
					-1.902798675627587e-01 9.464222046260351e-01 0.000000000000000e+00
					-3.805597351255176e-01 9.093616577510352e-01 0.000000000000000e+00
					-3.475970508005520e-01 7.908191016011042e-01 0.000000000000000e+00
					-1.902798675627587e-01 9.464222046260351e-01 0.000000000000000e+00
					-1.737985254002760e-01 8.147253516011042e-01 0.000000000000000e+00
					-3.475970508005520e-01 7.908191016011042e-01 0.000000000000000e+00
					-3.180597351255176e-01 6.906116577510353e-01 0.000000000000000e+00
					-1.737985254002760e-01 8.147253516011042e-01 0.000000000000000e+00
					-1.590298675627587e-01 7.042347046260352e-01 0.000000000000000e+00
					-3.180597351255176e-01 6.906116577510353e-01 0.000000000000000e+00
					-2.919477881004140e-01 6.087393262008280e-01 0.000000000000000e+00
					-1.590298675627587e-01 7.042347046260352e-01 0.000000000000000e+00
					-1.459738940502070e-01 6.149502637008282e-01 0.000000000000000e+00
					-2.919477881004140e-01 6.087393262008280e-01 0.000000000000000e+00
					-2.692612097252415e-01 5.452021069504830e-01 0.000000000000000e+00
					-1.459738940502070e-01 6.149502637008282e-01 0.000000000000000e+00
					-1.346306048626207e-01 5.468720288254829e-01 0.000000000000000e+00
					-2.692612097252415e-01 5.452021069504830e-01 0.000000000000000e+00
					-2.500000000000000e-01 5.000000000000000e-01 0.000000000000000e+00
					-1.346306048626207e-01 5.468720288254829e-01 0.000000000000000e+00
					-1.250000000000000e-01 5.000000000000000e-01 0.000000000000000e+00
					-2.499999999999999e-01 1.468750000000000e+00 0.000000000000000e+00
					-2.283806048626207e-01 1.273434528825483e+00 0.000000000000000e+00
					6.938893903907228e-17 1.500000000000000e+00 0.000000000000000e+00
					1.249000902703301e-16 1.297428669450483e+00 0.000000000000000e+00
					-2.283806048626207e-01 1.273434528825483e+00 0.000000000000000e+00
					-2.084738940502069e-01 1.099325263700828e+00 0.000000000000000e+00
					1.249000902703301e-16 1.297428669450483e+00 0.000000000000000e+00
					5.551115123125783e-17 1.117020576200828e+00 0.000000000000000e+00
					-2.084738940502069e-01 1.099325263700828e+00 0.000000000000000e+00
					-1.902798675627587e-01 9.464222046260351e-01 0.000000000000000e+00
					5.551115123125783e-17 1.117020576200828e+00 0.000000000000000e+00
					5.551115123125783e-17 9.587757202510351e-01 0.000000000000000e+00
					-1.902798675627587e-01 9.464222046260351e-01 0.000000000000000e+00
					-1.737985254002760e-01 8.147253516011042e-01 0.000000000000000e+00
					5.551115123125783e-17 9.587757202510351e-01 0.000000000000000e+00
					1.387778780781446e-17 8.226941016011042e-01 0.000000000000000e+00
					-1.737985254002760e-01 8.147253516011042e-01 0.000000000000000e+00
					-1.590298675627587e-01 7.042347046260352e-01 0.000000000000000e+00
					1.387778780781446e-17 8.226941016011042e-01 0.000000000000000e+00
					4.163336342344337e-17 7.087757202510352e-01 0.000000000000000e+00
					-1.590298675627587e-01 7.042347046260352e-01 0.000000000000000e+00
					-1.459738940502070e-01 6.149502637008282e-01 0.000000000000000e+00
					4.163336342344337e-17 7.087757202510352e-01 0.000000000000000e+00
					4.857225732735060e-17 6.170205762008282e-01 0.000000000000000e+00
					-1.459738940502070e-01 6.149502637008282e-01 0.000000000000000e+00
					-1.346306048626207e-01 5.468720288254829e-01 0.000000000000000e+00
					4.857225732735060e-17 6.170205762008282e-01 0.000000000000000e+00
					3.469446951953614e-17 5.474286694504830e-01 0.000000000000000e+00
					-1.346306048626207e-01 5.468720288254829e-01 0.000000000000000e+00
					-1.250000000000000e-01 5.000000000000000e-01 0.000000000000000e+00
					3.469446951953614e-17 5.474286694504830e-01 0.000000000000000e+00
					3.469446951953614e-17 5.000000000000000e-01 0.000000000000000e+00
					6.938893903907228e-17 1.500000000000000e+00 0.000000000000000e+00
					1.249000902703301e-16 1.297428669450483e+00 0.000000000000000e+00
					2.500000000000001e-01 1.468750000000000e+00 0.000000000000000e+00
					2.283806048626209e-01 1.273434528825483e+00 0.000000000000000e+00
					1.249000902703301e-16 1.297428669450483e+00 0.000000000000000e+00
					5.551115123125783e-17 1.117020576200828e+00 0.000000000000000e+00
					2.283806048626209e-01 1.273434528825483e+00 0.000000000000000e+00
					2.084738940502071e-01 1.099325263700828e+00 0.000000000000000e+00
					5.551115123125783e-17 1.117020576200828e+00 0.000000000000000e+00
					5.551115123125783e-17 9.587757202510351e-01 0.000000000000000e+00
					2.084738940502071e-01 1.099325263700828e+00 0.000000000000000e+00
					1.902798675627588e-01 9.464222046260350e-01 0.000000000000000e+00
					5.551115123125783e-17 9.587757202510351e-01 0.000000000000000e+00
					1.387778780781446e-17 8.226941016011042e-01 0.000000000000000e+00
					1.902798675627588e-01 9.464222046260350e-01 0.000000000000000e+00
					1.737985254002760e-01 8.147253516011042e-01 0.000000000000000e+00
					1.387778780781446e-17 8.226941016011042e-01 0.000000000000000e+00
					4.163336342344337e-17 7.087757202510352e-01 0.000000000000000e+00
					1.737985254002760e-01 8.147253516011042e-01 0.000000000000000e+00
					1.590298675627588e-01 7.042347046260351e-01 0.000000000000000e+00
					4.163336342344337e-17 7.087757202510352e-01 0.000000000000000e+00
					4.857225732735060e-17 6.170205762008282e-01 0.000000000000000e+00
					1.590298675627588e-01 7.042347046260351e-01 0.000000000000000e+00
					1.459738940502071e-01 6.149502637008282e-01 0.000000000000000e+00
					4.857225732735060e-17 6.170205762008282e-01 0.000000000000000e+00
					3.469446951953614e-17 5.474286694504830e-01 0.000000000000000e+00
					1.459738940502071e-01 6.149502637008282e-01 0.000000000000000e+00
					1.346306048626208e-01 5.468720288254829e-01 0.000000000000000e+00
					3.469446951953614e-17 5.474286694504830e-01 0.000000000000000e+00
					3.469446951953614e-17 5.000000000000000e-01 0.000000000000000e+00
					1.346306048626208e-01 5.468720288254829e-01 0.000000000000000e+00
					1.250000000000001e-01 5.000000000000000e-01 0.000000000000000e+00
					2.500000000000001e-01 1.468750000000000e+00 0.000000000000000e+00
					2.283806048626209e-01 1.273434528825483e+00 0.000000000000000e+00
					5.000000000000001e-01 1.375000000000000e+00 0.000000000000000e+00
					4.567612097252416e-01 1.201452106950483e+00 0.000000000000000e+00
					2.283806048626209e-01 1.273434528825483e+00 0.000000000000000e+00
					2.084738940502071e-01 1.099325263700828e+00 0.000000000000000e+00
					4.567612097252416e-01 1.201452106950483e+00 0.000000000000000e+00
					4.169477881004141e-01 1.046239326200828e+00 0.000000000000000e+00
					2.084738940502071e-01 1.099325263700828e+00 0.000000000000000e+00
					1.902798675627588e-01 9.464222046260350e-01 0.000000000000000e+00
					4.169477881004141e-01 1.046239326200828e+00 0.000000000000000e+00
					3.805597351255176e-01 9.093616577510349e-01 0.000000000000000e+00
					1.902798675627588e-01 9.464222046260350e-01 0.000000000000000e+00
					1.737985254002760e-01 8.147253516011042e-01 0.000000000000000e+00
					3.805597351255176e-01 9.093616577510349e-01 0.000000000000000e+00
					3.475970508005520e-01 7.908191016011041e-01 0.000000000000000e+00
					1.737985254002760e-01 8.147253516011042e-01 0.000000000000000e+00
					1.590298675627588e-01 7.042347046260351e-01 0.000000000000000e+00
					3.475970508005520e-01 7.908191016011041e-01 0.000000000000000e+00
					3.180597351255176e-01 6.906116577510351e-01 0.000000000000000e+00
					1.590298675627588e-01 7.042347046260351e-01 0.000000000000000e+00
					1.459738940502071e-01 6.149502637008282e-01 0.000000000000000e+00
					3.180597351255176e-01 6.906116577510351e-01 0.000000000000000e+00
					2.919477881004141e-01 6.087393262008280e-01 0.000000000000000e+00
					1.459738940502071e-01 6.149502637008282e-01 0.000000000000000e+00
					1.346306048626208e-01 5.468720288254829e-01 0.000000000000000e+00
					2.919477881004141e-01 6.087393262008280e-01 0.000000000000000e+00
					2.692612097252415e-01 5.452021069504830e-01 0.000000000000000e+00
					1.346306048626208e-01 5.468720288254829e-01 0.000000000000000e+00
					1.250000000000001e-01 5.000000000000000e-01 0.000000000000000e+00
					2.692612097252415e-01 5.452021069504830e-01 0.000000000000000e+00
					2.500000000000001e-01 5.000000000000000e-01 0.000000000000000e+00
					5.000000000000001e-01 1.375000000000000e+00 0.000000000000000e+00
					4.567612097252416e-01 1.201452106950483e+00 0.000000000000000e+00
					7.500000000000000e-01 1.218750000000000e+00 0.000000000000000e+00
					6.851418145878623e-01 1.081481403825483e+00 0.000000000000000e+00
					4.567612097252416e-01 1.201452106950483e+00 0.000000000000000e+00
					4.169477881004141e-01 1.046239326200828e+00 0.000000000000000e+00
					6.851418145878623e-01 1.081481403825483e+00 0.000000000000000e+00
					6.254216821506210e-01 9.577627637008279e-01 0.000000000000000e+00
					4.169477881004141e-01 1.046239326200828e+00 0.000000000000000e+00
					3.805597351255176e-01 9.093616577510349e-01 0.000000000000000e+00
					6.254216821506210e-01 9.577627637008279e-01 0.000000000000000e+00
					5.708396026882763e-01 8.475940796260348e-01 0.000000000000000e+00
					3.805597351255176e-01 9.093616577510349e-01 0.000000000000000e+00
					3.475970508005520e-01 7.908191016011041e-01 0.000000000000000e+00
					5.708396026882763e-01 8.475940796260348e-01 0.000000000000000e+00
					5.213955762008280e-01 7.509753516011041e-01 0.000000000000000e+00
					3.475970508005520e-01 7.908191016011041e-01 0.000000000000000e+00
					3.180597351255176e-01 6.906116577510351e-01 0.000000000000000e+00
					5.213955762008280e-01 7.509753516011041e-01 0.000000000000000e+00
					4.770896026882762e-01 6.679065796260349e-01 0.000000000000000e+00
					3.180597351255176e-01 6.906116577510351e-01 0.000000000000000e+00
					2.919477881004141e-01 6.087393262008280e-01 0.000000000000000e+00
					4.770896026882762e-01 6.679065796260349e-01 0.000000000000000e+00
					4.379216821506210e-01 5.983877637008280e-01 0.000000000000000e+00
					2.919477881004141e-01 6.087393262008280e-01 0.000000000000000e+00
					2.692612097252415e-01 5.452021069504830e-01 0.000000000000000e+00
					4.379216821506210e-01 5.983877637008280e-01 0.000000000000000e+00
					4.038918145878622e-01 5.424189038254830e-01 0.000000000000000e+00
					2.692612097252415e-01 5.452021069504830e-01 0.000000000000000e+00
					2.500000000000001e-01 5.000000000000000e-01 0.000000000000000e+00
					4.038918145878622e-01 5.424189038254830e-01 0.000000000000000e+00
					3.750000000000000e-01 5.000000000000000e-01 0.000000000000000e+00
					7.500000000000000e-01 1.218750000000000e+00 0.000000000000000e+00
					6.851418145878623e-01 1.081481403825483e+00 0.000000000000000e+00
					1.000000000000000e+00 1.000000000000000e+00 0.000000000000000e+00
					9.135224194504830e-01 9.135224194504830e-01 0.000000000000000e+00
					6.851418145878623e-01 1.081481403825483e+00 0.000000000000000e+00
					6.254216821506210e-01 9.577627637008279e-01 0.000000000000000e+00
					9.135224194504830e-01 9.135224194504830e-01 0.000000000000000e+00
					8.338955762008280e-01 8.338955762008280e-01 0.000000000000000e+00
					6.254216821506210e-01 9.577627637008279e-01 0.000000000000000e+00
					5.708396026882763e-01 8.475940796260348e-01 0.000000000000000e+00
					8.338955762008280e-01 8.338955762008280e-01 0.000000000000000e+00
					7.611194702510350e-01 7.611194702510350e-01 0.000000000000000e+00
					5.708396026882763e-01 8.475940796260348e-01 0.000000000000000e+00
					5.213955762008280e-01 7.509753516011041e-01 0.000000000000000e+00
					7.611194702510350e-01 7.611194702510350e-01 0.000000000000000e+00
					6.951941016011041e-01 6.951941016011041e-01 0.000000000000000e+00
					5.213955762008280e-01 7.509753516011041e-01 0.000000000000000e+00
					4.770896026882762e-01 6.679065796260349e-01 0.000000000000000e+00
					6.951941016011041e-01 6.951941016011041e-01 0.000000000000000e+00
					6.361194702510350e-01 6.361194702510350e-01 0.000000000000000e+00
					4.770896026882762e-01 6.679065796260349e-01 0.000000000000000e+00
					4.379216821506210e-01 5.983877637008280e-01 0.000000000000000e+00
					6.361194702510350e-01 6.361194702510350e-01 0.000000000000000e+00
					5.838955762008280e-01 5.838955762008280e-01 0.000000000000000e+00
					4.379216821506210e-01 5.983877637008280e-01 0.000000000000000e+00
					4.038918145878622e-01 5.424189038254830e-01 0.000000000000000e+00
					5.838955762008280e-01 5.838955762008280e-01 0.000000000000000e+00
					5.385224194504830e-01 5.385224194504830e-01 0.000000000000000e+00
					4.038918145878622e-01 5.424189038254830e-01 0.000000000000000e+00
					3.750000000000000e-01 5.000000000000000e-01 0.000000000000000e+00
					5.385224194504830e-01 5.385224194504830e-01 0.000000000000000e+00
					5.000000000000000e-01 5.000000000000000e-01 0.000000000000000e+00
				</DataArray>
			</Points>
			<Cells>
				<DataArray Name="connectivity" type="UInt32" format="ascii">
					0 1 3 2 4 5 7 6 8 9 11 10 12 13 15 14 16 17 19 18 20 21 23 22 24 25 27 26 28 29 31 30 32 33 35 34 36 37 39 38 40 41 43 42 44 45 47 46 48 49 51 50 52 53 55 54 56 57 59 58 60 61 63 62 64 65 67 66 68 69 71 70 72 73 75 74 76 77 79 78 80 81 83 82 84 85 87 86 88 89 91 90 92 93 95 94 96 97 99 98 100 101 103 102 104 105 107 106 108 109 111 110 112 113 115 114 116 117 119 118 120 121 123 122 124 125 127 126 128 129 131 130 132 133 135 134 136 137 139 138 140 141 143 142 144 145 147 146 148 149 151 150 152 153 155 154 156 157 159 158 160 161 163 162 164 165 167 166 168 169 171 170 172 173 175 174 176 177 179 178 180 181 183 182 184 185 187 186 188 189 191 190 192 193 195 194 196 197 199 198 200 201 203 202 204 205 207 206 208 209 211 210 212 213 215 214 216 217 219 218 220 221 223 222 224 225 227 226 228 229 231 230 232 233 235 234 236 237 239 238 240 241 243 242 244 245 247 246 248 249 251 250 252 253 255 254 
				</DataArray>
				<DataArray Name="offsets" type="UInt32" format="ascii">
					4 8 12 16 20 24 28 32 36 40 44 48 52 56 60 64 68 72 76 80 84 88 92 96 100 104 108 112 116 120 124 128 132 136 140 144 148 152 156 160 164 168 172 176 180 184 188 192 196 200 204 208 212 216 220 224 228 232 236 240 244 248 252 256 
				</DataArray>
				<DataArray Name="types" type="UInt8" format="ascii">
					9 9 9 9 9 9 9 9 9 9 9 9 9 9 9 9 9 9 9 9 9 9 9 9 9 9 9 9 9 9 9 9 9 9 9 9 9 9 9 9 9 9 9 9 9 9 9 9 9 9 9 9 9 9 9 9 9 9 9 9 9 9 9 9 
				</DataArray>
			</Cells>
			<PointData Vectors="solution ">
				<DataArray Name="solution" type="Float64" NumberOfComponents="1" format="ascii">
					0.000000000000000e+00 3.238537537835233e-02 0.000000000000000e+00 1.109065638982164e-01 3.238537537835233e-02 3.684015413223834e-01 1.109065638982164e-01 1.074294825236800e+00 3.684015413223834e-01 1.317027028584220e+00 1.074294825236800e+00 3.350162395553723e+00 1.317027028584220e+00 2.935776267325732e+00 3.350162395553723e+00 6.581814463974064e+00 2.935776267325732e+00 5.060143769629686e+00 6.581814463974064e+00 1.011272401058916e+01 5.060143769629686e+00 7.429104363077089e+00 1.011272401058916e+01 1.341234827199091e+01 7.429104363077089e+00 9.788383371602169e+00 1.341234827199091e+01 1.620297909298197e+01 9.788383371602169e+00 1.194421582168883e+01 1.620297909298197e+01 1.841350917629054e+01 0.000000000000000e+00 1.109065638982164e-01 0.000000000000000e+00 2.806763291508365e-01 1.109065638982164e-01 1.074294825236800e+00 2.806763291508365e-01 2.341851795105264e+00 1.074294825236800e+00 3.350162395553723e+00 2.341851795105264e+00 6.629658323591894e+00 3.350162395553723e+00 6.581814463974064e+00 6.629658323591894e+00 1.194868926713309e+01 6.581814463974064e+00 1.011272401058916e+01 1.194868926713309e+01 1.695754617581449e+01 1.011272401058916e+01 1.341234827199091e+01 1.695754617581449e+01 2.094617668657474e+01 1.341234827199091e+01 1.620297909298197e+01 2.094617668657474e+01 2.380455007600288e+01 1.620297909298197e+01 1.841350917629054e+01 2.380455007600288e+01 2.573512915412990e+01 0.000000000000000e+00 2.806763291508365e-01 0.000000000000000e+00 5.503333111102312e-01 2.806763291508365e-01 2.341851795105264e+00 5.503333111102312e-01 4.022691089019949e+00 2.341851795105264e+00 6.629658323591894e+00 4.022691089019949e+00 1.064261170622744e+01 6.629658323591894e+00 1.194868926713309e+01 1.064261170622744e+01 1.813036555502097e+01 1.194868926713309e+01 1.695754617581449e+01 1.813036555502097e+01 2.444177715000878e+01 1.695754617581449e+01 2.094617668657474e+01 2.444177715000878e+01 2.882886009363305e+01 2.094617668657474e+01 2.380455007600288e+01 2.882886009363305e+01 3.148573399075520e+01 2.380455007600288e+01 2.573512915412990e+01 3.148573399075520e+01 3.294977668601271e+01 0.000000000000000e+00 5.503333111102312e-01 0.000000000000000e+00 8.070589792095095e-01 5.503333111102312e-01 4.022691089019949e+00 8.070589792095095e-01 5.530610535330363e+00 4.022691089019949e+00 1.064261170622744e+01 5.530610535330363e+00 1.412173979052833e+01 1.064261170622744e+01 1.813036555502097e+01 1.412173979052833e+01 2.335640684263290e+01 1.813036555502097e+01 2.444177715000878e+01 2.335640684263290e+01 3.065839653585771e+01 2.444177715000878e+01 2.882886009363305e+01 3.065839653585771e+01 3.530970768179309e+01 2.882886009363305e+01 3.148573399075520e+01 3.530970768179309e+01 3.777760153525497e+01 3.148573399075520e+01 3.294977668601271e+01 3.777760153525497e+01 3.886531044412813e+01 0.000000000000000e+00 8.070589792095095e-01 0.000000000000000e+00 8.689482459161669e-01 8.070589792095095e-01 5.530610535330363e+00 8.689482459161669e-01 6.104204521432595e+00 5.530610535330363e+00 1.412173979052833e+01 6.104204521432595e+00 1.557223586119938e+01 1.412173979052833e+01 2.335640684263290e+01 1.557223586119938e+01 2.566766149778184e+01 2.335640684263290e+01 3.065839653585771e+01 2.566766149778184e+01 3.359521642937083e+01 3.065839653585771e+01 3.530970768179309e+01 3.359521642937083e+01 3.860346619785852e+01 3.530970768179309e+01 3.777760153525497e+01 3.860346619785852e+01 4.121509111683935e+01 3.777760153525497e+01 3.886531044412813e+01 4.121509111683935e+01 4.230857866860856e+01 0.000000000000000e+00 8.689482459161669e-01 0.000000000000000e+00 6.989797053349720e-01 8.689482459161669e-01 6.104204521432595e+00 6.989797053349720e-01 5.392199144556514e+00 6.104204521432595e+00 1.557223586119938e+01 5.392199144556514e+00 1.419387672031336e+01 1.557223586119938e+01 2.566766149778184e+01 1.419387672031336e+01 2.394872906558846e+01 2.566766149778184e+01 3.359521642937083e+01 2.394872906558846e+01 3.203711978298124e+01 3.359521642937083e+01 3.860346619785852e+01 3.203711978298124e+01 3.755815534949626e+01 3.860346619785852e+01 4.121509111683935e+01 3.755815534949626e+01 4.078938182064198e+01 4.121509111683935e+01 4.230857866860856e+01 4.078938182064198e+01 4.243060982149672e+01 0.000000000000000e+00 6.989797053349720e-01 0.000000000000000e+00 4.353917599851413e-01 6.989797053349720e-01 5.392199144556514e+00 4.353917599851413e-01 3.753118340810596e+00 5.392199144556514e+00 1.419387672031336e+01 3.753118340810596e+00 1.049485340274562e+01 1.419387672031336e+01 2.394872906558846e+01 1.049485340274562e+01 1.867609859696962e+01 2.394872906558846e+01 3.203711978298124e+01 1.867609859696962e+01 2.626008381948425e+01 3.203711978298124e+01 3.755815534949626e+01 2.626008381948425e+01 3.220271356626451e+01 3.755815534949626e+01 4.078938182064198e+01 3.220271356626451e+01 3.634255852943787e+01 4.078938182064198e+01 4.243060982149672e+01 3.634255852943787e+01 3.898230058342244e+01 0.000000000000000e+00 4.353917599851413e-01 0.000000000000000e+00 2.010059882098273e-01 4.353917599851413e-01 3.753118340810596e+00 2.010059882098273e-01 1.953802632271348e+00 3.753118340810596e+00 1.049485340274562e+01 1.953802632271348e+00 6.037840569629807e+00 1.049485340274562e+01 1.867609859696962e+01 6.037840569629807e+00 1.179450015714793e+01 1.867609859696962e+01 2.626008381948425e+01 1.179450015714793e+01 1.806152155142554e+01 2.626008381948425e+01 3.220271356626451e+01 1.806152155142554e+01 2.388509404607713e+01 3.220271356626451e+01 3.634255852943787e+01 2.388509404607713e+01 2.873890810369692e+01 3.634255852943787e+01 3.898230058342244e+01 2.873890810369692e+01 3.246729965636951e+01 
				</DataArray>
			</PointData>
			<CellData>
			</CellData>
		</Piece>
	</UnstructuredGrid>
</VTKFile>