<?xml version="1.0"?>
<VTKFile type="UnstructuredGrid" byte_order="LittleEndian">
	<UnstructuredGrid>
		<Piece NumberOfPoints="256" NumberOfCells="64">
			<Points>
				<DataArray type="Float64" NumberOfComponents="3" format="ascii">
					-1.000000000000000e+00 -1.000000000000000e+00 0.000000000000000e+00
					-7.500000000000000e-01 -1.218750000000000e+00 0.000000000000000e+00
					-9.135224194504830e-01 -9.135224194504830e-01 0.000000000000000e+00
					-6.851418145878623e-01 -1.081481403825483e+00 0.000000000000000e+00
					-7.500000000000000e-01 -1.218750000000000e+00 0.000000000000000e+00
					-5.000000000000000e-01 -1.375000000000000e+00 0.000000000000000e+00
					-6.851418145878623e-01 -1.081481403825483e+00 0.000000000000000e+00
					-4.567612097252415e-01 -1.201452106950483e+00 0.000000000000000e+00
					-5.000000000000000e-01 -1.375000000000000e+00 0.000000000000000e+00
					-2.499999999999999e-01 -1.468750000000000e+00 0.000000000000000e+00
					-4.567612097252415e-01 -1.201452106950483e+00 0.000000000000000e+00
					-2.283806048626207e-01 -1.273434528825483e+00 0.000000000000000e+00
					-2.499999999999999e-01 -1.468750000000000e+00 0.000000000000000e+00
					6.938893903907228e-17 -1.500000000000000e+00 0.000000000000000e+00
					-2.283806048626207e-01 -1.273434528825483e+00 0.000000000000000e+00
					6.581107186987012e-17 -1.297428669450483e+00 0.000000000000000e+00
					6.938893903907228e-17 -1.500000000000000e+00 0.000000000000000e+00
					2.500000000000001e-01 -1.468750000000000e+00 0.000000000000000e+00
					6.581107186987012e-17 -1.297428669450483e+00 0.000000000000000e+00
					2.283806048626209e-01 -1.273434528825483e+00 0.000000000000000e+00
					2.500000000000001e-01 -1.468750000000000e+00 0.000000000000000e+00
					5.000000000000001e-01 -1.375000000000000e+00 0.000000000000000e+00
					2.283806048626209e-01 -1.273434528825483e+00 0.000000000000000e+00
					4.567612097252416e-01 -1.201452106950483e+00 0.000000000000000e+00
					5.000000000000001e-01 -1.375000000000000e+00 0.000000000000000e+00
					7.500000000000000e-01 -1.218750000000000e+00 0.000000000000000e+00
					4.567612097252416e-01 -1.201452106950483e+00 0.000000000000000e+00
					6.851418145878623e-01 -1.081481403825483e+00 0.000000000000000e+00
					7.500000000000000e-01 -1.218750000000000e+00 0.000000000000000e+00
					1.000000000000000e+00 -1.000000000000000e+00 0.000000000000000e+00
					6.851418145878623e-01 -1.081481403825483e+00 0.000000000000000e+00
					9.135224194504830e-01 -9.135224194504830e-01 0.000000000000000e+00
					-9.135224194504830e-01 -9.135224194504830e-01 0.000000000000000e+00
					-6.851418145878623e-01 -1.081481403825483e+00 0.000000000000000e+00
					-8.338955762008280e-01 -8.338955762008280e-01 0.000000000000000e+00
					-6.254216821506211e-01 -9.577627637008281e-01 0.000000000000000e+00
					-6.851418145878623e-01 -1.081481403825483e+00 0.000000000000000e+00
					-4.567612097252415e-01 -1.201452106950483e+00 0.000000000000000e+00
					-6.254216821506211e-01 -9.577627637008281e-01 0.000000000000000e+00
					-4.169477881004140e-01 -1.046239326200828e+00 0.000000000000000e+00
					-4.567612097252415e-01 -1.201452106950483e+00 0.000000000000000e+00
					-2.283806048626207e-01 -1.273434528825483e+00 0.000000000000000e+00
					-4.169477881004140e-01 -1.046239326200828e+00 0.000000000000000e+00
					-2.084738940502070e-01 -1.099325263700828e+00 0.000000000000000e+00
					-2.283806048626207e-01 -1.273434528825483e+00 0.000000000000000e+00
					6.581107186987012e-17 -1.297428669450483e+00 0.000000000000000e+00
					-2.084738940502070e-01 -1.099325263700828e+00 0.000000000000000e+00
					6.201636426617085e-17 -1.117020576200828e+00 0.000000000000000e+00
					6.581107186987012e-17 -1.297428669450483e+00 0.000000000000000e+00
					2.283806048626209e-01 -1.273434528825483e+00 0.000000000000000e+00
					6.201636426617085e-17 -1.117020576200828e+00 0.000000000000000e+00
					2.084738940502071e-01 -1.099325263700828e+00 0.000000000000000e+00
					2.283806048626209e-01 -1.273434528825483e+00 0.000000000000000e+00
					4.567612097252416e-01 -1.201452106950483e+00 0.000000000000000e+00
					2.084738940502071e-01 -1.099325263700828e+00 0.000000000000000e+00
					4.169477881004141e-01 -1.046239326200828e+00 0.000000000000000e+00
					4.567612097252416e-01 -1.201452106950483e+00 0.000000000000000e+00
					6.851418145878623e-01 -1.081481403825483e+00 0.000000000000000e+00
					4.169477881004141e-01 -1.046239326200828e+00 0.000000000000000e+00
					6.254216821506211e-01 -9.577627637008281e-01 0.000000000000000e+00
					6.851418145878623e-01 -1.081481403825483e+00 0.000000000000000e+00
					9.135224194504830e-01 -9.135224194504830e-01 0.000000000000000e+00
					6.254216821506211e-01 -9.577627637008281e-01 0.000000000000000e+00
					8.338955762008280e-01 -8.338955762008280e-01 0.000000000000000e+00
					-8.338955762008280e-01 -8.338955762008280e-01 0.000000000000000e+00
					-6.254216821506211e-01 -9.577627637008281e-01 0.000000000000000e+00
					-7.611194702510350e-01 -7.611194702510350e-01 0.000000000000000e+00
					-5.708396026882762e-01 -8.475940796260349e-01 0.000000000000000e+00
					-6.254216821506211e-01 -9.577627637008281e-01 0.000000000000000e+00
					-4.169477881004140e-01 -1.046239326200828e+00 0.000000000000000e+00
					-5.708396026882762e-01 -8.475940796260349e-01 0.000000000000000e+00
					-3.805597351255174e-01 -9.093616577510351e-01 0.000000000000000e+00
					-4.169477881004140e-01 -1.046239326200828e+00 0.000000000000000e+00
					-2.084738940502070e-01 -1.099325263700828e+00 0.000000000000000e+00
					-3.805597351255174e-01 -9.093616577510351e-01 0.000000000000000e+00
					-1.902798675627587e-01 -9.464222046260349e-01 0.000000000000000e+00
					-2.084738940502070e-01 -1.099325263700828e+00 0.000000000000000e+00
					6.201636426617085e-17 -1.117020576200828e+00 0.000000000000000e+00
					-1.902798675627587e-01 -9.464222046260349e-01 0.000000000000000e+00
					5.800481622797449e-17 -9.587757202510351e-01 0.000000000000000e+00
					6.201636426617085e-17 -1.117020576200828e+00 0.000000000000000e+00
					2.084738940502071e-01 -1.099325263700828e+00 0.000000000000000e+00
					5.800481622797449e-17 -9.587757202510351e-01 0.000000000000000e+00
					1.902798675627588e-01 -9.464222046260349e-01 0.000000000000000e+00
					2.084738940502071e-01 -1.099325263700828e+00 0.000000000000000e+00
					4.169477881004141e-01 -1.046239326200828e+00 0.000000000000000e+00
					1.902798675627588e-01 -9.464222046260349e-01 0.000000000000000e+00
					3.805597351255176e-01 -9.093616577510349e-01 0.000000000000000e+00
					4.169477881004141e-01 -1.046239326200828e+00 0.000000000000000e+00
					6.254216821506211e-01 -9.577627637008281e-01 0.000000000000000e+00
					3.805597351255176e-01 -9.093616577510349e-01 0.000000000000000e+00
					5.708396026882762e-01 -8.475940796260348e-01 0.000000000000000e+00
					6.254216821506211e-01 -9.577627637008281e-01 0.000000000000000e+00
					8.338955762008280e-01 -8.338955762008280e-01 0.000000000000000e+00
					5.708396026882762e-01 -8.475940796260348e-01 0.000000000000000e+00
					7.611194702510350e-01 -7.611194702510350e-01 0.000000000000000e+00
					-7.611194702510350e-01 -7.611194702510350e-01 0.000000000000000e+00
					-5.708396026882762e-01 -8.475940796260349e-01 0.000000000000000e+00
					-6.951941016011041e-01 -6.951941016011041e-01 0.000000000000000e+00
					-5.213955762008279e-01 -7.509753516011040e-01 0.000000000000000e+00
					-5.708396026882762e-01 -8.475940796260349e-01 0.000000000000000e+00
					-3.805597351255174e-01 -9.093616577510351e-01 0.000000000000000e+00
					-5.213955762008279e-01 -7.509753516011040e-01 0.000000000000000e+00
					-3.475970508005519e-01 -7.908191016011041e-01 0.000000000000000e+00
					-3.805597351255174e-01 -9.093616577510351e-01 0.000000000000000e+00
					-1.902798675627587e-01 -9.464222046260349e-01 0.000000000000000e+00
					-3.475970508005519e-01 -7.908191016011041e-01 0.000000000000000e+00
					-1.737985254002760e-01 -8.147253516011039e-01 0.000000000000000e+00
					-1.902798675627587e-01 -9.464222046260349e-01 0.000000000000000e+00
					5.800481622797449e-17 -9.587757202510351e-01 0.000000000000000e+00
					-1.737985254002760e-01 -8.147253516011039e-01 0.000000000000000e+00
					5.377642775528102e-17 -8.226941016011040e-01 0.000000000000000e+00
					5.800481622797449e-17 -9.587757202510351e-01 0.000000000000000e+00
					1.902798675627588e-01 -9.464222046260349e-01 0.000000000000000e+00
					5.377642775528102e-17 -8.226941016011040e-01 0.000000000000000e+00
					1.737985254002761e-01 -8.147253516011039e-01 0.000000000000000e+00
					1.902798675627588e-01 -9.464222046260349e-01 0.000000000000000e+00
					3.805597351255176e-01 -9.093616577510349e-01 0.000000000000000e+00
					1.737985254002761e-01 -8.147253516011039e-01 0.000000000000000e+00
					3.475970508005521e-01 -7.908191016011039e-01 0.000000000000000e+00
					3.805597351255176e-01 -9.093616577510349e-01 0.000000000000000e+00
					5.708396026882762e-01 -8.475940796260348e-01 0.000000000000000e+00
					3.475970508005521e-01 -7.908191016011039e-01 0.000000000000000e+00
					5.213955762008279e-01 -7.509753516011040e-01 0.000000000000000e+00
					5.708396026882762e-01 -8.475940796260348e-01 0.000000000000000e+00
					7.611194702510350e-01 -7.611194702510350e-01 0.000000000000000e+00
					5.213955762008279e-01 -7.509753516011040e-01 0.000000000000000e+00
					6.951941016011041e-01 -6.951941016011041e-01 0.000000000000000e+00
					-6.951941016011041e-01 -6.951941016011041e-01 0.000000000000000e+00
					-5.213955762008279e-01 -7.509753516011040e-01 0.000000000000000e+00
					-6.361194702510350e-01 -6.361194702510350e-01 0.000000000000000e+00
					-4.770896026882761e-01 -6.679065796260349e-01 0.000000000000000e+00
					-5.213955762008279e-01 -7.509753516011040e-01 0.000000000000000e+00
					-3.475970508005519e-01 -7.908191016011041e-01 0.000000000000000e+00
					-4.770896026882761e-01 -6.679065796260349e-01 0.000000000000000e+00
					-3.180597351255174e-01 -6.906116577510349e-01 0.000000000000000e+00
					-3.475970508005519e-01 -7.908191016011041e-01 0.000000000000000e+00
					-1.737985254002760e-01 -8.147253516011039e-01 0.000000000000000e+00
					-3.180597351255174e-01 -6.906116577510349e-01 0.000000000000000e+00
					-1.590298675627587e-01 -7.042347046260349e-01 0.000000000000000e+00
					-1.737985254002760e-01 -8.147253516011039e-01 0.000000000000000e+00
					5.377642775528102e-17 -8.226941016011040e-01 0.000000000000000e+00
					-1.590298675627587e-01 -7.042347046260349e-01 0.000000000000000e+00
					4.933119884809045e-17 -7.087757202510350e-01 0.000000000000000e+00
					5.377642775528102e-17 -8.226941016011040e-01 0.000000000000000e+00
					1.737985254002761e-01 -8.147253516011039e-01 0.000000000000000e+00
					4.933119884809045e-17 -7.087757202510350e-01 0.000000000000000e+00
					1.590298675627588e-01 -7.042347046260349e-01 0.000000000000000e+00
					1.737985254002761e-01 -8.147253516011039e-01 0.000000000000000e+00
					3.475970508005521e-01 -7.908191016011039e-01 0.000000000000000e+00
					1.590298675627588e-01 -7.042347046260349e-01 0.000000000000000e+00
					3.180597351255176e-01 -6.906116577510348e-01 0.000000000000000e+00
					3.475970508005521e-01 -7.908191016011039e-01 0.000000000000000e+00
					5.213955762008279e-01 -7.509753516011040e-01 0.000000000000000e+00
					3.180597351255176e-01 -6.906116577510348e-01 0.000000000000000e+00
					4.770896026882761e-01 -6.679065796260349e-01 0.000000000000000e+00
					5.213955762008279e-01 -7.509753516011040e-01 0.000000000000000e+00
					6.951941016011041e-01 -6.951941016011041e-01 0.000000000000000e+00
					4.770896026882761e-01 -6.679065796260349e-01 0.000000000000000e+00
					6.361194702510350e-01 -6.361194702510350e-01 0.000000000000000e+00
					-6.361194702510350e-01 -6.361194702510350e-01 0.000000000000000e+00
					-4.770896026882761e-01 -6.679065796260349e-01 0.000000000000000e+00
					-5.838955762008280e-01 -5.838955762008280e-01 0.000000000000000e+00
					-4.379216821506209e-01 -5.983877637008279e-01 0.000000000000000e+00
					-4.770896026882761e-01 -6.679065796260349e-01 0.000000000000000e+00
					-3.180597351255174e-01 -6.906116577510349e-01 0.000000000000000e+00
					-4.379216821506209e-01 -5.983877637008279e-01 0.000000000000000e+00
					-2.919477881004139e-01 -6.087393262008280e-01 0.000000000000000e+00
					-3.180597351255174e-01 -6.906116577510349e-01 0.000000000000000e+00
					-1.590298675627587e-01 -7.042347046260349e-01 0.000000000000000e+00
					-2.919477881004139e-01 -6.087393262008280e-01 0.000000000000000e+00
					-1.459738940502070e-01 -6.149502637008278e-01 0.000000000000000e+00
					-1.590298675627587e-01 -7.042347046260349e-01 0.000000000000000e+00
					4.933119884809045e-17 -7.087757202510350e-01 0.000000000000000e+00
					-1.459738940502070e-01 -6.149502637008278e-01 0.000000000000000e+00
					4.466912950640279e-17 -6.170205762008280e-01 0.000000000000000e+00
					4.933119884809045e-17 -7.087757202510350e-01 0.000000000000000e+00
					1.590298675627588e-01 -7.042347046260349e-01 0.000000000000000e+00
					4.466912950640279e-17 -6.170205762008280e-01 0.000000000000000e+00
					1.459738940502071e-01 -6.149502637008278e-01 0.000000000000000e+00
					1.590298675627588e-01 -7.042347046260349e-01 0.000000000000000e+00
					3.180597351255176e-01 -6.906116577510348e-01 0.000000000000000e+00
					1.459738940502071e-01 -6.149502637008278e-01 0.000000000000000e+00
					2.919477881004141e-01 -6.087393262008279e-01 0.000000000000000e+00
					3.180597351255176e-01 -6.906116577510348e-01 0.000000000000000e+00
					4.770896026882761e-01 -6.679065796260349e-01 0.000000000000000e+00
					2.919477881004141e-01 -6.087393262008279e-01 0.000000000000000e+00
					4.379216821506209e-01 -5.983877637008279e-01 0.000000000000000e+00
					4.770896026882761e-01 -6.679065796260349e-01 0.000000000000000e+00
					6.361194702510350e-01 -6.361194702510350e-01 0.000000000000000e+00
					4.379216821506209e-01 -5.983877637008279e-01 0.000000000000000e+00
					5.838955762008280e-01 -5.838955762008280e-01 0.000000000000000e+00
					-5.838955762008280e-01 -5.838955762008280e-01 0.000000000000000e+00
					-4.379216821506209e-01 -5.983877637008279e-01 0.000000000000000e+00
					-5.385224194504830e-01 -5.385224194504830e-01 0.000000000000000e+00
					-4.038918145878622e-01 -5.424189038254829e-01 0.000000000000000e+00
					-4.379216821506209e-01 -5.983877637008279e-01 0.000000000000000e+00
					-2.919477881004139e-01 -6.087393262008280e-01 0.000000000000000e+00
					-4.038918145878622e-01 -5.424189038254829e-01 0.000000000000000e+00
					-2.692612097252415e-01 -5.452021069504830e-01 0.000000000000000e+00
					-2.919477881004139e-01 -6.087393262008280e-01 0.000000000000000e+00
					-1.459738940502070e-01 -6.149502637008278e-01 0.000000000000000e+00
					-2.692612097252415e-01 -5.452021069504830e-01 0.000000000000000e+00
					-1.346306048626207e-01 -5.468720288254829e-01 0.000000000000000e+00
					-1.459738940502070e-01 -6.149502637008278e-01 0.000000000000000e+00
					4.466912950640279e-17 -6.170205762008280e-01 0.000000000000000e+00
					-1.346306048626207e-01 -5.468720288254829e-01 0.000000000000000e+00
					3.979021973021801e-17 -5.474286694504829e-01 0.000000000000000e+00
					4.466912950640279e-17 -6.170205762008280e-01 0.000000000000000e+00
					1.459738940502071e-01 -6.149502637008278e-01 0.000000000000000e+00
					3.979021973021801e-17 -5.474286694504829e-01 0.000000000000000e+00
					1.346306048626208e-01 -5.468720288254829e-01 0.000000000000000e+00
					1.459738940502071e-01 -6.149502637008278e-01 0.000000000000000e+00
					2.919477881004141e-01 -6.087393262008279e-01 0.000000000000000e+00
					1.346306048626208e-01 -5.468720288254829e-01 0.000000000000000e+00
					2.692612097252415e-01 -5.452021069504830e-01 0.000000000000000e+00
					2.919477881004141e-01 -6.087393262008279e-01 0.000000000000000e+00
					4.379216821506209e-01 -5.983877637008279e-01 0.000000000000000e+00
					2.692612097252415e-01 -5.452021069504830e-01 0.000000000000000e+00
					4.038918145878622e-01 -5.424189038254829e-01 0.000000000000000e+00
					4.379216821506209e-01 -5.983877637008279e-01 0.000000000000000e+00
					5.838955762008280e-01 -5.838955762008280e-01 0.000000000000000e+00
					4.038918145878622e-01 -5.424189038254829e-01 0.000000000000000e+00
					5.385224194504830e-01 -5.385224194504830e-01 0.000000000000000e+00
					-5.385224194504830e-01 -5.385224194504830e-01 0.000000000000000e+00
					-4.038918145878622e-01 -5.424189038254829e-01 0.000000000000000e+00
					-5.000000000000000e-01 -5.000000000000000e-01 0.000000000000000e+00
					-3.750000000000000e-01 -5.000000000000000e-01 0.000000000000000e+00
					-4.038918145878622e-01 -5.424189038254829e-01 0.000000000000000e+00
					-2.692612097252415e-01 -5.452021069504830e-01 0.000000000000000e+00
					-3.750000000000000e-01 -5.000000000000000e-01 0.000000000000000e+00
					-2.500000000000000e-01 -5.000000000000000e-01 0.000000000000000e+00
					-2.692612097252415e-01 -5.452021069504830e-01 0.000000000000000e+00
					-1.346306048626207e-01 -5.468720288254829e-01 0.000000000000000e+00
					-2.500000000000000e-01 -5.000000000000000e-01 0.000000000000000e+00
					-1.250000000000000e-01 -5.000000000000000e-01 0.000000000000000e+00
					-1.346306048626207e-01 -5.468720288254829e-01 0.000000000000000e+00
					3.979021973021801e-17 -5.474286694504829e-01 0.000000000000000e+00
					-1.250000000000000e-01 -5.000000000000000e-01 0.000000000000000e+00
					3.469446951953614e-17 -5.000000000000000e-01 0.000000000000000e+00
					3.979021973021801e-17 -5.474286694504829e-01 0.000000000000000e+00
					1.346306048626208e-01 -5.468720288254829e-01 0.000000000000000e+00
					3.469446951953614e-17 -5.000000000000000e-01 0.000000000000000e+00
					1.250000000000001e-01 -5.000000000000000e-01 0.000000000000000e+00
					1.346306048626208e-01 -5.468720288254829e-01 0.000000000000000e+00
					2.692612097252415e-01 -5.452021069504830e-01 0.000000000000000e+00
					1.250000000000001e-01 -5.000000000000000e-01 0.000000000000000e+00
					2.500000000000001e-01 -5.000000000000000e-01 0.000000000000000e+00
					2.692612097252415e-01 -5.452021069504830e-01 0.000000000000000e+00
					4.038918145878622e-01 -5.424189038254829e-01 0.000000000000000e+00
					2.500000000000001e-01 -5.000000000000000e-01 0.000000000000000e+00
					3.750000000000000e-01 -5.000000000000000e-01 0.000000000000000e+00
					4.038918145878622e-01 -5.424189038254829e-01 0.000000000000000e+00
					5.385224194504830e-01 -5.385224194504830e-01 0.000000000000000e+00
					3.750000000000000e-01 -5.000000000000000e-01 0.000000000000000e+00
					5.000000000000000e-01 -5.000000000000000e-01 0.000000000000000e+00
				</DataArray>
			</Points>
			<Cells>
				<DataArray Name="connectivity" type="UInt32" format="ascii">
					0 1 3 2 4 5 7 6 8 9 11 10 12 13 15 14 16 17 19 18 20 21 23 22 24 25 27 26 28 29 31 30 32 33 35 34 36 37 39 38 40 41 43 42 44 45 47 46 48 49 51 50 52 53 55 54 56 57 59 58 60 61 63 62 64 65 67 66 68 69 71 70 72 73 75 74 76 77 79 78 80 81 83 82 84 85 87 86 88 89 91 90 92 93 95 94 96 97 99 98 100 101 103 102 104 105 107 106 108 109 111 110 112 113 115 114 116 117 119 118 120 121 123 122 124 125 127 126 128 129 131 130 132 133 135 134 136 137 139 138 140 141 143 142 144 145 147 146 148 149 151 150 152 153 155 154 156 157 159 158 160 161 163 162 164 165 167 166 168 169 171 170 172 173 175 174 176 177 179 178 180 181 183 182 184 185 187 186 188 189 191 190 192 193 195 194 196 197 199 198 200 201 203 202 204 205 207 206 208 209 211 210 212 213 215 214 216 217 219 218 220 221 223 222 224 225 227 226 228 229 231 230 232 233 235 234 236 237 239 238 240 241 243 242 244 245 247 246 248 249 251 250 252 253 255 254 
				</DataArray>
				<DataArray Name="offsets" type="UInt32" format="ascii">
					4 8 12 16 20 24 28 32 36 40 44 48 52 56 60 64 68 72 76 80 84 88 92 96 100 104 108 112 116 120 124 128 132 136 140 144 148 152 156 160 164 168 172 176 180 184 188 192 196 200 204 208 212 216 220 224 228 232 236 240 244 248 252 256 
				</DataArray>
				<DataArray Name="types" type="UInt8" format="ascii">
					9 9 9 9 9 9 9 9 9 9 9 9 9 9 9 9 9 9 9 9 9 9 9 9 9 9 9 9 9 9 9 9 9 9 9 9 9 9 9 9 9 9 9 9 9 9 9 9 9 9 9 9 9 9 9 9 9 9 9 9 9 9 9 9 
				</DataArray>
			</Cells>
			<PointData Vectors="solution ">
				<DataArray Name="solution" type="Float64" NumberOfComponents="1" format="ascii">
					0.000000000000000e+00 0.000000000000000e+00 1.508485424909589e-03 2.373578128821978e-03 0.000000000000000e+00 0.000000000000000e+00 2.373578128821978e-03 3.402309890564302e-03 0.000000000000000e+00 0.000000000000000e+00 3.402309890564302e-03 4.572799054333759e-03 0.000000000000000e+00 0.000000000000000e+00 4.572799054333759e-03 5.653342252509084e-03 0.000000000000000e+00 0.000000000000000e+00 5.653342252509084e-03 6.320647330584713e-03 0.000000000000000e+00 0.000000000000000e+00 6.320647330584713e-03 6.486536486494692e-03 0.000000000000000e+00 0.000000000000000e+00 6.486536486494692e-03 6.357676520518416e-03 0.000000000000000e+00 0.000000000000000e+00 6.357676520518416e-03 5.899688319635612e-03 1.508485424909589e-03 2.373578128821978e-03 1.544156333886074e-02 2.650080052860213e-02 2.373578128821978e-03 3.402309890564302e-03 2.650080052860213e-02 3.955652272534523e-02 3.402309890564302e-03 4.572799054333759e-03 3.955652272534523e-02 5.380426634185445e-02 4.572799054333759e-03 5.653342252509084e-03 5.380426634185445e-02 6.763230265214908e-02 5.653342252509084e-03 6.320647330584713e-03 6.763230265214908e-02 7.879081212046311e-02 6.320647330584713e-03 6.486536486494692e-03 7.879081212046311e-02 8.496341186779971e-02 6.486536486494692e-03 6.357676520518416e-03 8.496341186779971e-02 8.368703793091020e-02 6.357676520518416e-03 5.899688319635612e-03 8.368703793091020e-02 7.160577441952486e-02 1.544156333886074e-02 2.650080052860213e-02 6.740343107651584e-02 1.192388843349235e-01 2.650080052860213e-02 3.955652272534523e-02 1.192388843349235e-01 1.822153430772317e-01 3.955652272534523e-02 5.380426634185445e-02 1.822153430772317e-01 2.500833554408565e-01 5.380426634185445e-02 6.763230265214908e-02 2.500833554408565e-01 3.135676231117868e-01 6.763230265214908e-02 7.879081212046311e-02 3.135676231117868e-01 3.608744357938456e-01 7.879081212046311e-02 8.496341186779971e-02 3.608744357938456e-01 3.795550296180895e-01 8.496341186779971e-02 8.368703793091020e-02 3.795550296180895e-01 3.584511435226159e-01 8.368703793091020e-02 7.160577441952486e-02 3.584511435226159e-01 2.916305212569546e-01 6.740343107651584e-02 1.192388843349235e-01 1.894345290946806e-01 3.363593478428046e-01 1.192388843349235e-01 1.822153430772317e-01 3.363593478428046e-01 5.172785121098140e-01 1.822153430772317e-01 2.500833554408565e-01 5.172785121098140e-01 7.101873261434215e-01 2.500833554408565e-01 3.135676231117868e-01 7.101873261434215e-01 8.831126132046909e-01 3.135676231117868e-01 3.608744357938456e-01 8.831126132046909e-01 9.985109462073716e-01 3.608744357938456e-01 3.795550296180895e-01 9.985109462073716e-01 1.022473412193211e+00 3.795550296180895e-01 3.584511435226159e-01 1.022473412193211e+00 9.341564395823134e-01 3.584511435226159e-01 2.916305212569546e-01 9.341564395823134e-01 7.377163623516292e-01 1.894345290946806e-01 3.363593478428046e-01 4.076724208229577e-01 7.128444916827315e-01 3.363593478428046e-01 5.172785121098140e-01 7.128444916827315e-01 1.086896155223855e+00 5.172785121098140e-01 7.101873261434215e-01 1.086896155223855e+00 1.479579487098798e+00 7.101873261434215e-01 8.831126132046909e-01 1.479579487098798e+00 1.818967046484020e+00 8.831126132046909e-01 9.985109462073716e-01 1.818967046484020e+00 2.025526602236978e+00 9.985109462073716e-01 1.022473412193211e+00 2.025526602236978e+00 2.036551686992472e+00 1.022473412193211e+00 9.341564395823134e-01 2.036551686992472e+00 1.827047847330606e+00 9.341564395823134e-01 7.377163623516292e-01 1.827047847330606e+00 1.427392882652983e+00 4.076724208229577e-01 7.128444916827315e-01 7.321422570873544e-01 1.241794420673539e+00 7.128444916827315e-01 1.086896155223855e+00 1.241794420673539e+00 1.854989292070414e+00 1.086896155223855e+00 1.479579487098798e+00 1.854989292070414e+00 2.485982450596529e+00 1.479579487098798e+00 1.818967046484020e+00 2.485982450596529e+00 3.015857517371067e+00 1.818967046484020e+00 2.025526602236978e+00 3.015857517371067e+00 3.320139747358469e+00 2.025526602236978e+00 2.036551686992472e+00 3.320139747358469e+00 3.307957071003888e+00 2.036551686992472e+00 1.827047847330606e+00 3.307957071003888e+00 2.955203652180998e+00 1.827047847330606e+00 1.427392882652983e+00 2.955203652180998e+00 2.323269469709859e+00 7.321422570873544e-01 1.241794420673539e+00 1.151867427895113e+00 1.870826848060623e+00 1.241794420673539e+00 1.854989292070414e+00 1.870826848060623e+00 2.711996217092030e+00 1.854989292070414e+00 2.485982450596529e+00 2.711996217092030e+00 3.558610901042933e+00 2.485982450596529e+00 3.015857517371067e+00 3.558610901042933e+00 4.255244658824296e+00 3.015857517371067e+00 3.320139747358469e+00 4.255244658824296e+00 4.649295358592050e+00 3.320139747358469e+00 3.307957071003888e+00 4.649295358592050e+00 4.628514220222515e+00 3.307957071003888e+00 2.955203652180998e+00 4.628514220222515e+00 4.169074773191967e+00 2.955203652180998e+00 2.323269469709859e+00 4.169074773191967e+00 3.349303895183449e+00 1.151867427895113e+00 1.870826848060623e+00 1.635186516572534e+00 2.514683296554620e+00 1.870826848060623e+00 2.711996217092030e+00 2.514683296554620e+00 3.508705624625172e+00 2.711996217092030e+00 3.558610901042933e+00 3.508705624625172e+00 4.486903833643321e+00 3.558610901042933e+00 4.255244658824296e+00 4.486903833643321e+00 5.287443596536736e+00 4.255244658824296e+00 4.649295358592050e+00 5.287443596536736e+00 5.752537552768358e+00 4.649295358592050e+00 4.628514220222515e+00 5.752537552768358e+00 5.766611214959794e+00 4.628514220222515e+00 4.169074773191967e+00 5.766611214959794e+00 5.296730425019039e+00 4.169074773191967e+00 3.349303895183449e+00 5.296730425019039e+00 4.411879008672670e+00 
				</DataArray>
			</PointData>
			<CellData>
			</CellData>
		</Piece>
	</UnstructuredGrid>
</VTKFile>