<?xml version="1.0"?>
<VTKFile type="UnstructuredGrid" byte_order="LittleEndian">
	<UnstructuredGrid>
		<Piece NumberOfPoints="64" NumberOfCells="16">
			<Points>
				<DataArray type="Float64" NumberOfComponents="3" format="ascii">
					-1.000000000000000e+00 1.000000000000000e+00 0.000000000000000e+00
					-8.338955762008279e-01 8.338955762008279e-01 0.000000000000000e+00
					-5.000000000000000e-01 1.375000000000000e+00 0.000000000000000e+00
					-4.169477881004139e-01 1.046239326200828e+00 0.000000000000000e+00
					-8.338955762008279e-01 8.338955762008279e-01 0.000000000000000e+00
					-6.951941016011038e-01 6.951941016011038e-01 0.000000000000000e+00
					-4.169477881004139e-01 1.046239326200828e+00 0.000000000000000e+00
					-3.475970508005519e-01 7.908191016011038e-01 0.000000000000000e+00
					-6.951941016011038e-01 6.951941016011038e-01 0.000000000000000e+00
					-5.838955762008279e-01 5.838955762008279e-01 0.000000000000000e+00
					-3.475970508005519e-01 7.908191016011038e-01 0.000000000000000e+00
					-2.919477881004139e-01 6.087393262008278e-01 0.000000000000000e+00
					-5.838955762008279e-01 5.838955762008279e-01 0.000000000000000e+00
					-5.000000000000000e-01 5.000000000000000e-01 0.000000000000000e+00
					-2.919477881004139e-01 6.087393262008278e-01 0.000000000000000e+00
					-2.500000000000000e-01 5.000000000000000e-01 0.000000000000000e+00
					-5.000000000000000e-01 1.375000000000000e+00 0.000000000000000e+00
					-4.169477881004139e-01 1.046239326200828e+00 0.000000000000000e+00
					5.551115123125783e-17 1.500000000000000e+00 0.000000000000000e+00
					5.551115123125783e-17 1.117020576200828e+00 0.000000000000000e+00
					-4.169477881004139e-01 1.046239326200828e+00 0.000000000000000e+00
					-3.475970508005519e-01 7.908191016011038e-01 0.000000000000000e+00
					5.551115123125783e-17 1.117020576200828e+00 0.000000000000000e+00
					4.163336342344337e-17 8.226941016011038e-01 0.000000000000000e+00
					-3.475970508005519e-01 7.908191016011038e-01 0.000000000000000e+00
					-2.919477881004139e-01 6.087393262008278e-01 0.000000000000000e+00
					4.163336342344337e-17 8.226941016011038e-01 0.000000000000000e+00
					4.163336342344337e-17 6.170205762008278e-01 0.000000000000000e+00
					-2.919477881004139e-01 6.087393262008278e-01 0.000000000000000e+00
					-2.500000000000000e-01 5.000000000000000e-01 0.000000000000000e+00
					4.163336342344337e-17 6.170205762008278e-01 0.000000000000000e+00
					2.775557561562891e-17 5.000000000000000e-01 0.000000000000000e+00
					5.551115123125783e-17 1.500000000000000e+00 0.000000000000000e+00
					5.551115123125783e-17 1.117020576200828e+00 0.000000000000000e+00
					5.000000000000000e-01 1.375000000000000e+00 0.000000000000000e+00
					4.169477881004139e-01 1.046239326200828e+00 0.000000000000000e+00
					5.551115123125783e-17 1.117020576200828e+00 0.000000000000000e+00
					4.163336342344337e-17 8.226941016011038e-01 0.000000000000000e+00
					4.169477881004139e-01 1.046239326200828e+00 0.000000000000000e+00
					3.475970508005519e-01 7.908191016011037e-01 0.000000000000000e+00
					4.163336342344337e-17 8.226941016011038e-01 0.000000000000000e+00
					4.163336342344337e-17 6.170205762008278e-01 0.000000000000000e+00
					3.475970508005519e-01 7.908191016011037e-01 0.000000000000000e+00
					2.919477881004139e-01 6.087393262008278e-01 0.000000000000000e+00
					4.163336342344337e-17 6.170205762008278e-01 0.000000000000000e+00
					2.775557561562891e-17 5.000000000000000e-01 0.000000000000000e+00
					2.919477881004139e-01 6.087393262008278e-01 0.000000000000000e+00
					2.500000000000000e-01 5.000000000000000e-01 0.000000000000000e+00
					5.000000000000000e-01 1.375000000000000e+00 0.000000000000000e+00
					4.169477881004139e-01 1.046239326200828e+00 0.000000000000000e+00
					1.000000000000000e+00 1.000000000000000e+00 0.000000000000000e+00
					8.338955762008279e-01 8.338955762008279e-01 0.000000000000000e+00
					4.169477881004139e-01 1.046239326200828e+00 0.000000000000000e+00
					3.475970508005519e-01 7.908191016011037e-01 0.000000000000000e+00
					8.338955762008279e-01 8.338955762008279e-01 0.000000000000000e+00
					6.951941016011038e-01 6.951941016011038e-01 0.000000000000000e+00
					3.475970508005519e-01 7.908191016011037e-01 0.000000000000000e+00
					2.919477881004139e-01 6.087393262008278e-01 0.000000000000000e+00
					6.951941016011038e-01 6.951941016011038e-01 0.000000000000000e+00
					5.838955762008279e-01 5.838955762008279e-01 0.000000000000000e+00
					2.919477881004139e-01 6.087393262008278e-01 0.000000000000000e+00
					2.500000000000000e-01 5.000000000000000e-01 0.000000000000000e+00
					5.838955762008279e-01 5.838955762008279e-01 0.000000000000000e+00
					5.000000000000000e-01 5.000000000000000e-01 0.000000000000000e+00
				</DataArray>
			</Points>
			<Cells>
				<DataArray Name="connectivity" type="UInt32" format="ascii">
					0 1 3 2 4 5 7 6 8 9 11 10 12 13 15 14 16 17 19 18 20 21 23 22 24 25 27 26 28 29 31 30 32 33 35 34 36 37 39 38 40 41 43 42 44 45 47 46 48 49 51 50 52 53 55 54 56 57 59 58 60 61 63 62 
				</DataArray>
				<DataArray Name="offsets" type="UInt32" format="ascii">
					4 8 12 16 20 24 28 32 36 40 44 48 52 56 60 64 
				</DataArray>
				<DataArray Name="types" type="UInt8" format="ascii">
					9 9 9 9 9 9 9 9 9 9 9 9 9 9 9 9 
				</DataArray>
			</Cells>
			<PointData Vectors="solution ">
				<DataArray Name="solution" type="Float64" NumberOfComponents="1" format="ascii">
					0.000000000000000e+00 3.626863708752652e-01 0.000000000000000e+00 2.363519258763558e+00 3.626863708752652e-01 2.931211669187789e+00 2.363519258763558e+00 1.197042286254983e+01 2.931211669187789e+00 7.419168712099104e+00 1.197042286254983e+01 2.094404791132771e+01 7.419168712099104e+00 1.194349121606207e+01 2.094404791132771e+01 2.573286307583549e+01 0.000000000000000e+00 2.363519258763558e+00 0.000000000000000e+00 5.631692317163630e+00 2.363519258763558e+00 1.197042286254983e+01 5.631692317163630e+00 2.342960014987976e+01 1.197042286254983e+01 2.094404791132771e+01 2.342960014987976e+01 3.533785393658874e+01 2.094404791132771e+01 2.573286307583549e+01 3.533785393658874e+01 3.888213008734390e+01 0.000000000000000e+00 5.631692317163630e+00 0.000000000000000e+00 5.464038445154406e+00 5.631692317163630e+00 2.342960014987976e+01 5.464038445154406e+00 2.401622558060404e+01 2.342960014987976e+01 3.533785393658874e+01 2.401622558060404e+01 3.758047972146547e+01 3.533785393658874e+01 3.888213008734390e+01 3.758047972146547e+01 4.244174276584293e+01 0.000000000000000e+00 5.464038445154406e+00 0.000000000000000e+00 1.967949442994451e+00 5.464038445154406e+00 2.401622558060404e+01 1.967949442994451e+00 1.182519971395948e+01 2.401622558060404e+01 3.758047972146547e+01 1.182519971395948e+01 2.387579674538684e+01 3.758047972146547e+01 4.244174276584293e+01 2.387579674538684e+01 3.246977599449335e+01 
				</DataArray>
			</PointData>
			<CellData>
			</CellData>
		</Piece>
	</UnstructuredGrid>
</VTKFile>