<?xml version="1.0"?>
<VTKFile type="UnstructuredGrid" byte_order="LittleEndian">
	<UnstructuredGrid>
		<Piece NumberOfPoints="64" NumberOfCells="16">
			<Points>
				<DataArray type="Float64" NumberOfComponents="3" format="ascii">
					1.000000000000000e+00 -1.000000000000000e+00 0.000000000000000e+00
					1.375000000000000e+00 -5.000000000000000e-01 0.000000000000000e+00
					8.338955762008279e-01 -8.338955762008279e-01 0.000000000000000e+00
					1.046239326200828e+00 -4.169477881004139e-01 0.000000000000000e+00
					1.375000000000000e+00 -5.000000000000000e-01 0.000000000000000e+00
					1.500000000000000e+00 5.551115123125783e-17 0.000000000000000e+00
					1.046239326200828e+00 -4.169477881004139e-01 0.000000000000000e+00
					1.117020576200828e+00 4.857225732735060e-17 0.000000000000000e+00
					1.500000000000000e+00 5.551115123125783e-17 0.000000000000000e+00
					1.375000000000000e+00 5.000000000000000e-01 0.000000000000000e+00
					1.117020576200828e+00 4.857225732735060e-17 0.000000000000000e+00
					1.046239326200828e+00 4.169477881004139e-01 0.000000000000000e+00
					1.375000000000000e+00 5.000000000000000e-01 0.000000000000000e+00
					1.000000000000000e+00 1.000000000000000e+00 0.000000000000000e+00
					1.046239326200828e+00 4.169477881004139e-01 0.000000000000000e+00
					8.338955762008279e-01 8.338955762008279e-01 0.000000000000000e+00
					8.338955762008279e-01 -8.338955762008279e-01 0.000000000000000e+00
					1.046239326200828e+00 -4.169477881004139e-01 0.000000000000000e+00
					6.951941016011038e-01 -6.951941016011038e-01 0.000000000000000e+00
					7.908191016011039e-01 -3.475970508005519e-01 0.000000000000000e+00
					1.046239326200828e+00 -4.169477881004139e-01 0.000000000000000e+00
					1.117020576200828e+00 4.857225732735060e-17 0.000000000000000e+00
					7.908191016011039e-01 -3.475970508005519e-01 0.000000000000000e+00
					8.226941016011038e-01 4.163336342344337e-17 0.000000000000000e+00
					1.117020576200828e+00 4.857225732735060e-17 0.000000000000000e+00
					1.046239326200828e+00 4.169477881004139e-01 0.000000000000000e+00
					8.226941016011038e-01 4.163336342344337e-17 0.000000000000000e+00
					7.908191016011039e-01 3.475970508005519e-01 0.000000000000000e+00
					1.046239326200828e+00 4.169477881004139e-01 0.000000000000000e+00
					8.338955762008279e-01 8.338955762008279e-01 0.000000000000000e+00
					7.908191016011039e-01 3.475970508005519e-01 0.000000000000000e+00
					6.951941016011038e-01 6.951941016011038e-01 0.000000000000000e+00
					6.951941016011038e-01 -6.951941016011038e-01 0.000000000000000e+00
					7.908191016011039e-01 -3.475970508005519e-01 0.000000000000000e+00
					5.838955762008279e-01 -5.838955762008279e-01 0.000000000000000e+00
					6.087393262008278e-01 -2.919477881004139e-01 0.000000000000000e+00
					7.908191016011039e-01 -3.475970508005519e-01 0.000000000000000e+00
					8.226941016011038e-01 4.163336342344337e-17 0.000000000000000e+00
					6.087393262008278e-01 -2.919477881004139e-01 0.000000000000000e+00
					6.170205762008278e-01 3.469446951953614e-17 0.000000000000000e+00
					8.226941016011038e-01 4.163336342344337e-17 0.000000000000000e+00
					7.908191016011039e-01 3.475970508005519e-01 0.000000000000000e+00
					6.170205762008278e-01 3.469446951953614e-17 0.000000000000000e+00
					6.087393262008278e-01 2.919477881004139e-01 0.000000000000000e+00
					7.908191016011039e-01 3.475970508005519e-01 0.000000000000000e+00
					6.951941016011038e-01 6.951941016011038e-01 0.000000000000000e+00
					6.087393262008278e-01 2.919477881004139e-01 0.000000000000000e+00
					5.838955762008279e-01 5.838955762008279e-01 0.000000000000000e+00
					5.838955762008279e-01 -5.838955762008279e-01 0.000000000000000e+00
					6.087393262008278e-01 -2.919477881004139e-01 0.000000000000000e+00
					5.000000000000000e-01 -5.000000000000000e-01 0.000000000000000e+00
					5.000000000000000e-01 -2.500000000000000e-01 0.000000000000000e+00
					6.087393262008278e-01 -2.919477881004139e-01 0.000000000000000e+00
					6.170205762008278e-01 3.469446951953614e-17 0.000000000000000e+00
					5.000000000000000e-01 -2.500000000000000e-01 0.000000000000000e+00
					5.000000000000000e-01 2.775557561562891e-17 0.000000000000000e+00
					6.170205762008278e-01 3.469446951953614e-17 0.000000000000000e+00
					6.087393262008278e-01 2.919477881004139e-01 0.000000000000000e+00
					5.000000000000000e-01 2.775557561562891e-17 0.000000000000000e+00
					5.000000000000000e-01 2.500000000000000e-01 0.000000000000000e+00
					6.087393262008278e-01 2.919477881004139e-01 0.000000000000000e+00
					5.838955762008279e-01 5.838955762008279e-01 0.000000000000000e+00
					5.000000000000000e-01 2.500000000000000e-01 0.000000000000000e+00
					5.000000000000000e-01 5.000000000000000e-01 0.000000000000000e+00
				</DataArray>
			</Points>
			<Cells>
				<DataArray Name="connectivity" type="UInt32" format="ascii">
					0 1 3 2 4 5 7 6 8 9 11 10 12 13 15 14 16 17 19 18 20 21 23 22 24 25 27 26 28 29 31 30 32 33 35 34 36 37 39 38 40 41 43 42 44 45 47 46 48 49 51 50 52 53 55 54 56 57 59 58 60 61 63 62 
				</DataArray>
				<DataArray Name="offsets" type="UInt32" format="ascii">
					4 8 12 16 20 24 28 32 36 40 44 48 52 56 60 64 
				</DataArray>
				<DataArray Name="types" type="UInt8" format="ascii">
					9 9 9 9 9 9 9 9 9 9 9 9 9 9 9 9 
				</DataArray>
			</Cells>
			<PointData Vectors="solution ">
				<DataArray Name="solution" type="Float64" NumberOfComponents="1" format="ascii">
					0.000000000000000e+00 0.000000000000000e+00 8.761259428792394e-02 5.632404101576152e-01 0.000000000000000e+00 0.000000000000000e+00 5.632404101576152e-01 1.859930132662532e+00 0.000000000000000e+00 0.000000000000000e+00 1.859930132662532e+00 2.990957648099290e+00 0.000000000000000e+00 0.000000000000000e+00 2.990957648099290e+00 2.533495275562891e+00 8.761259428792394e-02 5.632404101576152e-01 7.602534518354208e-01 3.874410872517506e+00 5.632404101576152e-01 1.859930132662532e+00 3.874410872517506e+00 1.035701205623244e+01 1.859930132662532e+00 2.990957648099290e+00 1.035701205623244e+01 1.554325094093100e+01 2.990957648099290e+00 2.533495275562891e+00 1.554325094093100e+01 1.221649588234538e+01 7.602534518354208e-01 3.874410872517506e+00 2.352439778149347e+00 8.544191749276729e+00 3.874410872517506e+00 1.035701205623244e+01 8.544191749276729e+00 1.913634785886901e+01 1.035701205623244e+01 1.554325094093100e+01 1.913634785886901e+01 2.748740005003691e+01 1.554325094093100e+01 1.221649588234538e+01 2.748740005003691e+01 2.399324615824397e+01 2.352439778149347e+00 8.544191749276729e+00 4.406764371786625e+00 1.220394181350845e+01 8.544191749276729e+00 1.913634785886901e+01 1.220394181350845e+01 2.362285818427411e+01 1.913634785886901e+01 2.748740005003691e+01 2.362285818427411e+01 3.313992687470738e+01 2.748740005003691e+01 2.399324615824397e+01 3.313992687470738e+01 3.258211234848527e+01 
				</DataArray>
			</PointData>
			<CellData>
			</CellData>
		</Piece>
	</UnstructuredGrid>
</VTKFile>