<?xml version="1.0"?>
<VTKFile type="UnstructuredGrid" byte_order="LittleEndian">
	<UnstructuredGrid>
		<Piece NumberOfPoints="64" NumberOfCells="16">
			<Points>
				<DataArray type="Float64" NumberOfComponents="3" format="ascii">
					1.000000000000000e+00 -1.000000000000000e+00 0.000000000000000e+00
					1.375000000000000e+00 -5.000000000000000e-01 0.000000000000000e+00
					8.338955762008279e-01 -8.338955762008279e-01 0.000000000000000e+00
					1.046184735125517e+00 -4.169477881004139e-01 0.000000000000000e+00
					1.375000000000000e+00 -5.000000000000000e-01 0.000000000000000e+00
					1.500000000000000e+00 1.387778780781446e-17 0.000000000000000e+00
					1.046184735125517e+00 -4.169477881004139e-01 0.000000000000000e+00
					1.116947788100414e+00 6.938893903907228e-18 0.000000000000000e+00
					1.500000000000000e+00 1.387778780781446e-17 0.000000000000000e+00
					1.375000000000000e+00 5.000000000000000e-01 0.000000000000000e+00
					1.116947788100414e+00 6.938893903907228e-18 0.000000000000000e+00
					1.046184735125518e+00 4.169477881004139e-01 0.000000000000000e+00
					1.375000000000000e+00 5.000000000000000e-01 0.000000000000000e+00
					1.000000000000000e+00 1.000000000000000e+00 0.000000000000000e+00
					1.046184735125518e+00 4.169477881004139e-01 0.000000000000000e+00
					8.338955762008279e-01 8.338955762008279e-01 0.000000000000000e+00
					8.338955762008279e-01 -8.338955762008279e-01 0.000000000000000e+00
					1.046184735125517e+00 -4.169477881004139e-01 0.000000000000000e+00
					6.951941016011038e-01 -6.951941016011038e-01 0.000000000000000e+00
					7.907463135006900e-01 -3.475970508005519e-01 0.000000000000000e+00
					1.046184735125517e+00 -4.169477881004139e-01 0.000000000000000e+00
					1.116947788100414e+00 6.938893903907228e-18 0.000000000000000e+00
					7.907463135006900e-01 -3.475970508005519e-01 0.000000000000000e+00
					8.225970508005519e-01 0.000000000000000e+00 0.000000000000000e+00
					1.116947788100414e+00 6.938893903907228e-18 0.000000000000000e+00
					1.046184735125518e+00 4.169477881004139e-01 0.000000000000000e+00
					8.225970508005519e-01 0.000000000000000e+00 0.000000000000000e+00
					7.907463135006899e-01 3.475970508005519e-01 0.000000000000000e+00
					1.046184735125518e+00 4.169477881004139e-01 0.000000000000000e+00
					8.338955762008279e-01 8.338955762008279e-01 0.000000000000000e+00
					7.907463135006899e-01 3.475970508005519e-01 0.000000000000000e+00
					6.951941016011038e-01 6.951941016011038e-01 0.000000000000000e+00
					6.951941016011038e-01 -6.951941016011038e-01 0.000000000000000e+00
					7.907463135006900e-01 -3.475970508005519e-01 0.000000000000000e+00
					5.838955762008279e-01 -5.838955762008279e-01 0.000000000000000e+00
					6.086847351255175e-01 -2.919477881004139e-01 0.000000000000000e+00
					7.907463135006900e-01 -3.475970508005519e-01 0.000000000000000e+00
					8.225970508005519e-01 0.000000000000000e+00 0.000000000000000e+00
					6.086847351255175e-01 -2.919477881004139e-01 0.000000000000000e+00
					6.169477881004140e-01 6.938893903907228e-18 0.000000000000000e+00
					8.225970508005519e-01 0.000000000000000e+00 0.000000000000000e+00
					7.907463135006899e-01 3.475970508005519e-01 0.000000000000000e+00
					6.169477881004140e-01 6.938893903907228e-18 0.000000000000000e+00
					6.086847351255174e-01 2.919477881004139e-01 0.000000000000000e+00
					7.907463135006899e-01 3.475970508005519e-01 0.000000000000000e+00
					6.951941016011038e-01 6.951941016011038e-01 0.000000000000000e+00
					6.086847351255174e-01 2.919477881004139e-01 0.000000000000000e+00
					5.838955762008279e-01 5.838955762008279e-01 0.000000000000000e+00
					5.838955762008279e-01 -5.838955762008279e-01 0.000000000000000e+00
					6.086847351255175e-01 -2.919477881004139e-01 0.000000000000000e+00
					5.000000000000000e-01 -5.000000000000000e-01 0.000000000000000e+00
					5.000000000000000e-01 -2.500000000000000e-01 0.000000000000000e+00
					6.086847351255175e-01 -2.919477881004139e-01 0.000000000000000e+00
					6.169477881004140e-01 6.938893903907228e-18 0.000000000000000e+00
					5.000000000000000e-01 -2.500000000000000e-01 0.000000000000000e+00
					5.000000000000000e-01 6.938893903907228e-18 0.000000000000000e+00
					6.169477881004140e-01 6.938893903907228e-18 0.000000000000000e+00
					6.086847351255174e-01 2.919477881004139e-01 0.000000000000000e+00
					5.000000000000000e-01 6.938893903907228e-18 0.000000000000000e+00
					5.000000000000000e-01 2.500000000000000e-01 0.000000000000000e+00
					6.086847351255174e-01 2.919477881004139e-01 0.000000000000000e+00
					5.838955762008279e-01 5.838955762008279e-01 0.000000000000000e+00
					5.000000000000000e-01 2.500000000000000e-01 0.000000000000000e+00
					5.000000000000000e-01 5.000000000000000e-01 0.000000000000000e+00
				</DataArray>
			</Points>
			<Cells>
				<DataArray Name="connectivity" type="UInt32" format="ascii">
					0 1 3 2 4 5 7 6 8 9 11 10 12 13 15 14 16 17 19 18 20 21 23 22 24 25 27 26 28 29 31 30 32 33 35 34 36 37 39 38 40 41 43 42 44 45 47 46 48 49 51 50 52 53 55 54 56 57 59 58 60 61 63 62 
				</DataArray>
				<DataArray Name="offsets" type="UInt32" format="ascii">
					4 8 12 16 20 24 28 32 36 40 44 48 52 56 60 64 
				</DataArray>
				<DataArray Name="types" type="UInt8" format="ascii">
					9 9 9 9 9 9 9 9 9 9 9 9 9 9 9 9 
				</DataArray>
			</Cells>
			<PointData Vectors="solution ">
				<DataArray Name="solution" type="Float64" NumberOfComponents="1" format="ascii">
					0.000000000000000e+00 0.000000000000000e+00 2.796207485696606e-01 5.758132005847758e-01 0.000000000000000e+00 0.000000000000000e+00 5.758132005847759e-01 2.152259973346990e+00 0.000000000000000e+00 0.000000000000000e+00 2.152259973346990e+00 3.820451235545849e+00 0.000000000000000e+00 0.000000000000000e+00 3.820451235545849e+00 4.797685713970789e+00 2.796207485696607e-01 5.758132005847759e-01 1.203145863445240e+00 3.795714968975803e+00 5.758132005847760e-01 2.152259973346990e+00 3.795714968975803e+00 1.075420927892979e+01 2.152259973346990e+00 3.820451235545850e+00 1.075420927892979e+01 1.676664568143204e+01 3.820451235545850e+00 4.797685713970790e+00 1.676664568143204e+01 1.493370102134969e+01 1.203145863445240e+00 3.795714968975804e+00 2.750026596185597e+00 8.418988202664007e+00 3.795714968975804e+00 1.075420927892979e+01 8.418988202664009e+00 1.960823136849912e+01 1.075420927892979e+01 1.676664568143205e+01 1.960823136849913e+01 2.841428917383317e+01 1.676664568143205e+01 1.493370102134970e+01 2.841428917383317e+01 2.543288541273359e+01 2.750026596185597e+00 8.418988202664009e+00 4.702875906592881e+00 1.226741639589983e+01 8.418988202664011e+00 1.960823136849913e+01 1.226741639589983e+01 2.412644593581671e+01 1.960823136849913e+01 2.841428917383317e+01 2.412644593581672e+01 3.361509695328675e+01 2.841428917383317e+01 2.543288541273359e+01 3.361509695328676e+01 3.320041952599979e+01 
				</DataArray>
			</PointData>
			<CellData>
			</CellData>
		</Piece>
	</UnstructuredGrid>
</VTKFile>