<?xml version="1.0"?>
<VTKFile type="UnstructuredGrid" byte_order="LittleEndian">
	<UnstructuredGrid>
		<Piece NumberOfPoints="256" NumberOfCells="64">
			<Points>
				<DataArray type="Float64" NumberOfComponents="3" format="ascii">
					-1.000000000000000e+00 1.000000000000000e+00 0.000000000000000e+00
					-9.135224194504830e-01 9.135224194504830e-01 0.000000000000000e+00
					-7.500000000000000e-01 1.218750000000000e+00 0.000000000000000e+00
					-6.851418145878623e-01 1.081462827695690e+00 0.000000000000000e+00
					-9.135224194504830e-01 9.135224194504830e-01 0.000000000000000e+00
					-8.338955762008280e-01 8.338955762008280e-01 0.000000000000000e+00
					-6.851418145878623e-01 1.081462827695690e+00 0.000000000000000e+00
					-6.254216821506210e-01 9.577309189068971e-01 0.000000000000000e+00
					-8.338955762008280e-01 8.338955762008280e-01 0.000000000000000e+00
					-7.611194702510350e-01 7.611194702510350e-01 0.000000000000000e+00
					-6.254216821506210e-01 9.577309189068971e-01 0.000000000000000e+00
					-5.708396026882763e-01 8.475542736336212e-01 0.000000000000000e+00
					-7.611194702510350e-01 7.611194702510350e-01 0.000000000000000e+00
					-6.951941016011041e-01 6.951941016011041e-01 0.000000000000000e+00
					-5.708396026882763e-01 8.475542736336212e-01 0.000000000000000e+00
					-5.213955762008280e-01 7.509328918758627e-01 0.000000000000000e+00
					-6.951941016011041e-01 6.951941016011041e-01 0.000000000000000e+00
					-6.361194702510350e-01 6.361194702510350e-01 0.000000000000000e+00
					-5.213955762008280e-01 7.509328918758627e-01 0.000000000000000e+00
					-4.770896026882763e-01 6.678667736336212e-01 0.000000000000000e+00
					-6.361194702510350e-01 6.361194702510350e-01 0.000000000000000e+00
					-5.838955762008280e-01 5.838955762008280e-01 0.000000000000000e+00
					-4.770896026882763e-01 6.678667736336212e-01 0.000000000000000e+00
					-4.379216821506210e-01 5.983559189068970e-01 0.000000000000000e+00
					-5.838955762008280e-01 5.838955762008280e-01 0.000000000000000e+00
					-5.385224194504830e-01 5.385224194504830e-01 0.000000000000000e+00
					-4.379216821506210e-01 5.983559189068970e-01 0.000000000000000e+00
					-4.038918145878622e-01 5.424003276956899e-01 0.000000000000000e+00
					-5.385224194504830e-01 5.385224194504830e-01 0.000000000000000e+00
					-5.000000000000000e-01 5.000000000000000e-01 0.000000000000000e+00
					-4.038918145878622e-01 5.424003276956899e-01 0.000000000000000e+00
					-3.750000000000000e-01 5.000000000000000e-01 0.000000000000000e+00
					-7.500000000000000e-01 1.218750000000000e+00 0.000000000000000e+00
					-6.851418145878623e-01 1.081462827695690e+00 0.000000000000000e+00
					-5.000000000000000e-01 1.375000000000000e+00 0.000000000000000e+00
					-4.567612097252415e-01 1.201420262156552e+00 0.000000000000000e+00
					-6.851418145878623e-01 1.081462827695690e+00 0.000000000000000e+00
					-6.254216821506210e-01 9.577309189068971e-01 0.000000000000000e+00
					-4.567612097252415e-01 1.201420262156552e+00 0.000000000000000e+00
					-4.169477881004140e-01 1.046184735125518e+00 0.000000000000000e+00
					-6.254216821506210e-01 9.577309189068971e-01 0.000000000000000e+00
					-5.708396026882763e-01 8.475542736336212e-01 0.000000000000000e+00
					-4.169477881004140e-01 1.046184735125518e+00 0.000000000000000e+00
					-3.805597351255176e-01 9.092934189068973e-01 0.000000000000000e+00
					-5.708396026882763e-01 8.475542736336212e-01 0.000000000000000e+00
					-5.213955762008280e-01 7.509328918758627e-01 0.000000000000000e+00
					-3.805597351255176e-01 9.092934189068973e-01 0.000000000000000e+00
					-3.475970508005520e-01 7.907463135006902e-01 0.000000000000000e+00
					-5.213955762008280e-01 7.509328918758627e-01 0.000000000000000e+00
					-4.770896026882763e-01 6.678667736336212e-01 0.000000000000000e+00
					-3.475970508005520e-01 7.907463135006902e-01 0.000000000000000e+00
					-3.180597351255176e-01 6.905434189068972e-01 0.000000000000000e+00
					-4.770896026882763e-01 6.678667736336212e-01 0.000000000000000e+00
					-4.379216821506210e-01 5.983559189068970e-01 0.000000000000000e+00
					-3.180597351255176e-01 6.905434189068972e-01 0.000000000000000e+00
					-2.919477881004140e-01 6.086847351255176e-01 0.000000000000000e+00
					-4.379216821506210e-01 5.983559189068970e-01 0.000000000000000e+00
					-4.038918145878622e-01 5.424003276956899e-01 0.000000000000000e+00
					-2.919477881004140e-01 6.086847351255176e-01 0.000000000000000e+00
					-2.692612097252415e-01 5.451702621565521e-01 0.000000000000000e+00
					-4.038918145878622e-01 5.424003276956899e-01 0.000000000000000e+00
					-3.750000000000000e-01 5.000000000000000e-01 0.000000000000000e+00
					-2.692612097252415e-01 5.451702621565521e-01 0.000000000000000e+00
					-2.500000000000000e-01 5.000000000000000e-01 0.000000000000000e+00
					-5.000000000000000e-01 1.375000000000000e+00 0.000000000000000e+00
					-4.567612097252415e-01 1.201420262156552e+00 0.000000000000000e+00
					-2.499999999999999e-01 1.468750000000000e+00 0.000000000000000e+00
					-2.283806048626207e-01 1.273394722833070e+00 0.000000000000000e+00
					-4.567612097252415e-01 1.201420262156552e+00 0.000000000000000e+00
					-4.169477881004140e-01 1.046184735125518e+00 0.000000000000000e+00
					-2.283806048626207e-01 1.273394722833070e+00 0.000000000000000e+00
					-2.084738940502069e-01 1.099257024856690e+00 0.000000000000000e+00
					-4.169477881004140e-01 1.046184735125518e+00 0.000000000000000e+00
					-3.805597351255176e-01 9.092934189068973e-01 0.000000000000000e+00
					-2.084738940502069e-01 1.099257024856690e+00 0.000000000000000e+00
					-1.902798675627587e-01 9.463369060708627e-01 0.000000000000000e+00
					-3.805597351255176e-01 9.092934189068973e-01 0.000000000000000e+00
					-3.475970508005520e-01 7.907463135006902e-01 0.000000000000000e+00
					-1.902798675627587e-01 9.463369060708627e-01 0.000000000000000e+00
					-1.737985254002760e-01 8.146343664755867e-01 0.000000000000000e+00
					-3.475970508005520e-01 7.907463135006902e-01 0.000000000000000e+00
					-3.180597351255176e-01 6.905434189068972e-01 0.000000000000000e+00
					-1.737985254002760e-01 8.146343664755867e-01 0.000000000000000e+00
					-1.590298675627587e-01 7.041494060708625e-01 0.000000000000000e+00
					-3.180597351255176e-01 6.905434189068972e-01 0.000000000000000e+00
					-2.919477881004140e-01 6.086847351255176e-01 0.000000000000000e+00
					-1.590298675627587e-01 7.041494060708625e-01 0.000000000000000e+00
					-1.459738940502070e-01 6.148820248566900e-01 0.000000000000000e+00
					-2.919477881004140e-01 6.086847351255176e-01 0.000000000000000e+00
					-2.692612097252415e-01 5.451702621565521e-01 0.000000000000000e+00
					-1.459738940502070e-01 6.148820248566900e-01 0.000000000000000e+00
					-1.346306048626207e-01 5.468322228330693e-01 0.000000000000000e+00
					-2.692612097252415e-01 5.451702621565521e-01 0.000000000000000e+00
					-2.500000000000000e-01 5.000000000000000e-01 0.000000000000000e+00
					-1.346306048626207e-01 5.468322228330693e-01 0.000000000000000e+00
					-1.250000000000000e-01 5.000000000000000e-01 0.000000000000000e+00
					-2.499999999999999e-01 1.468750000000000e+00 0.000000000000000e+00
					-2.283806048626207e-01 1.273394722833070e+00 0.000000000000000e+00
					6.938893903907228e-17 1.500000000000000e+00 0.000000000000000e+00
					1.249000902703301e-16 1.297386209725242e+00 0.000000000000000e+00
					-2.283806048626207e-01 1.273394722833070e+00 0.000000000000000e+00
					-2.084738940502069e-01 1.099257024856690e+00 0.000000000000000e+00
					1.249000902703301e-16 1.297386209725242e+00 0.000000000000000e+00
					5.551115123125783e-17 1.116947788100415e+00 0.000000000000000e+00
					-2.084738940502069e-01 1.099257024856690e+00 0.000000000000000e+00
					-1.902798675627587e-01 9.463369060708627e-01 0.000000000000000e+00
					5.551115123125783e-17 1.116947788100415e+00 0.000000000000000e+00
					5.551115123125783e-17 9.586847351255179e-01 0.000000000000000e+00
					-1.902798675627587e-01 9.463369060708627e-01 0.000000000000000e+00
					-1.737985254002760e-01 8.146343664755867e-01 0.000000000000000e+00
					5.551115123125783e-17 9.586847351255179e-01 0.000000000000000e+00
					1.387778780781446e-17 8.225970508005522e-01 0.000000000000000e+00
					-1.737985254002760e-01 8.146343664755867e-01 0.000000000000000e+00
					-1.590298675627587e-01 7.041494060708625e-01 0.000000000000000e+00
					1.387778780781446e-17 8.225970508005522e-01 0.000000000000000e+00
					4.163336342344337e-17 7.086847351255177e-01 0.000000000000000e+00
					-1.590298675627587e-01 7.041494060708625e-01 0.000000000000000e+00
					-1.459738940502070e-01 6.148820248566900e-01 0.000000000000000e+00
					4.163336342344337e-17 7.086847351255177e-01 0.000000000000000e+00
					4.857225732735060e-17 6.169477881004141e-01 0.000000000000000e+00
					-1.459738940502070e-01 6.148820248566900e-01 0.000000000000000e+00
					-1.346306048626207e-01 5.468322228330693e-01 0.000000000000000e+00
					4.857225732735060e-17 6.169477881004141e-01 0.000000000000000e+00
					3.469446951953614e-17 5.473862097252417e-01 0.000000000000000e+00
					-1.346306048626207e-01 5.468322228330693e-01 0.000000000000000e+00
					-1.250000000000000e-01 5.000000000000000e-01 0.000000000000000e+00
					3.469446951953614e-17 5.473862097252417e-01 0.000000000000000e+00
					3.469446951953614e-17 5.000000000000000e-01 0.000000000000000e+00
					6.938893903907228e-17 1.500000000000000e+00 0.000000000000000e+00
					1.249000902703301e-16 1.297386209725242e+00 0.000000000000000e+00
					2.500000000000001e-01 1.468750000000000e+00 0.000000000000000e+00
					2.283806048626209e-01 1.273394722833070e+00 0.000000000000000e+00
					1.249000902703301e-16 1.297386209725242e+00 0.000000000000000e+00
					5.551115123125783e-17 1.116947788100415e+00 0.000000000000000e+00
					2.283806048626209e-01 1.273394722833070e+00 0.000000000000000e+00
					2.084738940502071e-01 1.099257024856690e+00 0.000000000000000e+00
					5.551115123125783e-17 1.116947788100415e+00 0.000000000000000e+00
					5.551115123125783e-17 9.586847351255179e-01 0.000000000000000e+00
					2.084738940502071e-01 1.099257024856690e+00 0.000000000000000e+00
					1.902798675627588e-01 9.463369060708626e-01 0.000000000000000e+00
					5.551115123125783e-17 9.586847351255179e-01 0.000000000000000e+00
					1.387778780781446e-17 8.225970508005522e-01 0.000000000000000e+00
					1.902798675627588e-01 9.463369060708626e-01 0.000000000000000e+00
					1.737985254002760e-01 8.146343664755867e-01 0.000000000000000e+00
					1.387778780781446e-17 8.225970508005522e-01 0.000000000000000e+00
					4.163336342344337e-17 7.086847351255177e-01 0.000000000000000e+00
					1.737985254002760e-01 8.146343664755867e-01 0.000000000000000e+00
					1.590298675627588e-01 7.041494060708625e-01 0.000000000000000e+00
					4.163336342344337e-17 7.086847351255177e-01 0.000000000000000e+00
					4.857225732735060e-17 6.169477881004141e-01 0.000000000000000e+00
					1.590298675627588e-01 7.041494060708625e-01 0.000000000000000e+00
					1.459738940502071e-01 6.148820248566900e-01 0.000000000000000e+00
					4.857225732735060e-17 6.169477881004141e-01 0.000000000000000e+00
					3.469446951953614e-17 5.473862097252417e-01 0.000000000000000e+00
					1.459738940502071e-01 6.148820248566900e-01 0.000000000000000e+00
					1.346306048626208e-01 5.468322228330692e-01 0.000000000000000e+00
					3.469446951953614e-17 5.473862097252417e-01 0.000000000000000e+00
					3.469446951953614e-17 5.000000000000000e-01 0.000000000000000e+00
					1.346306048626208e-01 5.468322228330692e-01 0.000000000000000e+00
					1.250000000000001e-01 5.000000000000000e-01 0.000000000000000e+00
					2.500000000000001e-01 1.468750000000000e+00 0.000000000000000e+00
					2.283806048626209e-01 1.273394722833070e+00 0.000000000000000e+00
					5.000000000000001e-01 1.375000000000000e+00 0.000000000000000e+00
					4.567612097252416e-01 1.201420262156552e+00 0.000000000000000e+00
					2.283806048626209e-01 1.273394722833070e+00 0.000000000000000e+00
					2.084738940502071e-01 1.099257024856690e+00 0.000000000000000e+00
					4.567612097252416e-01 1.201420262156552e+00 0.000000000000000e+00
					4.169477881004141e-01 1.046184735125518e+00 0.000000000000000e+00
					2.084738940502071e-01 1.099257024856690e+00 0.000000000000000e+00
					1.902798675627588e-01 9.463369060708626e-01 0.000000000000000e+00
					4.169477881004141e-01 1.046184735125518e+00 0.000000000000000e+00
					3.805597351255176e-01 9.092934189068971e-01 0.000000000000000e+00
					1.902798675627588e-01 9.463369060708626e-01 0.000000000000000e+00
					1.737985254002760e-01 8.146343664755867e-01 0.000000000000000e+00
					3.805597351255176e-01 9.092934189068971e-01 0.000000000000000e+00
					3.475970508005520e-01 7.907463135006902e-01 0.000000000000000e+00
					1.737985254002760e-01 8.146343664755867e-01 0.000000000000000e+00
					1.590298675627588e-01 7.041494060708625e-01 0.000000000000000e+00
					3.475970508005520e-01 7.907463135006902e-01 0.000000000000000e+00
					3.180597351255176e-01 6.905434189068970e-01 0.000000000000000e+00
					1.590298675627588e-01 7.041494060708625e-01 0.000000000000000e+00
					1.459738940502071e-01 6.148820248566900e-01 0.000000000000000e+00
					3.180597351255176e-01 6.905434189068970e-01 0.000000000000000e+00
					2.919477881004141e-01 6.086847351255177e-01 0.000000000000000e+00
					1.459738940502071e-01 6.148820248566900e-01 0.000000000000000e+00
					1.346306048626208e-01 5.468322228330692e-01 0.000000000000000e+00
					2.919477881004141e-01 6.086847351255177e-01 0.000000000000000e+00
					2.692612097252415e-01 5.451702621565520e-01 0.000000000000000e+00
					1.346306048626208e-01 5.468322228330692e-01 0.000000000000000e+00
					1.250000000000001e-01 5.000000000000000e-01 0.000000000000000e+00
					2.692612097252415e-01 5.451702621565520e-01 0.000000000000000e+00
					2.500000000000001e-01 5.000000000000000e-01 0.000000000000000e+00
					5.000000000000001e-01 1.375000000000000e+00 0.000000000000000e+00
					4.567612097252416e-01 1.201420262156552e+00 0.000000000000000e+00
					7.500000000000000e-01 1.218750000000000e+00 0.000000000000000e+00
					6.851418145878623e-01 1.081462827695690e+00 0.000000000000000e+00
					4.567612097252416e-01 1.201420262156552e+00 0.000000000000000e+00
					4.169477881004141e-01 1.046184735125518e+00 0.000000000000000e+00
					6.851418145878623e-01 1.081462827695690e+00 0.000000000000000e+00
					6.254216821506210e-01 9.577309189068970e-01 0.000000000000000e+00
					4.169477881004141e-01 1.046184735125518e+00 0.000000000000000e+00
					3.805597351255176e-01 9.092934189068971e-01 0.000000000000000e+00
					6.254216821506210e-01 9.577309189068970e-01 0.000000000000000e+00
					5.708396026882763e-01 8.475542736336211e-01 0.000000000000000e+00
					3.805597351255176e-01 9.092934189068971e-01 0.000000000000000e+00
					3.475970508005520e-01 7.907463135006902e-01 0.000000000000000e+00
					5.708396026882763e-01 8.475542736336211e-01 0.000000000000000e+00
					5.213955762008280e-01 7.509328918758627e-01 0.000000000000000e+00
					3.475970508005520e-01 7.907463135006902e-01 0.000000000000000e+00
					3.180597351255176e-01 6.905434189068970e-01 0.000000000000000e+00
					5.213955762008280e-01 7.509328918758627e-01 0.000000000000000e+00
					4.770896026882762e-01 6.678667736336211e-01 0.000000000000000e+00
					3.180597351255176e-01 6.905434189068970e-01 0.000000000000000e+00
					2.919477881004141e-01 6.086847351255177e-01 0.000000000000000e+00
					4.770896026882762e-01 6.678667736336211e-01 0.000000000000000e+00
					4.379216821506210e-01 5.983559189068970e-01 0.000000000000000e+00
					2.919477881004141e-01 6.086847351255177e-01 0.000000000000000e+00
					2.692612097252415e-01 5.451702621565520e-01 0.000000000000000e+00
					4.379216821506210e-01 5.983559189068970e-01 0.000000000000000e+00
					4.038918145878622e-01 5.424003276956899e-01 0.000000000000000e+00
					2.692612097252415e-01 5.451702621565520e-01 0.000000000000000e+00
					2.500000000000001e-01 5.000000000000000e-01 0.000000000000000e+00
					4.038918145878622e-01 5.424003276956899e-01 0.000000000000000e+00
					3.750000000000000e-01 5.000000000000000e-01 0.000000000000000e+00
					7.500000000000000e-01 1.218750000000000e+00 0.000000000000000e+00
					6.851418145878623e-01 1.081462827695690e+00 0.000000000000000e+00
					1.000000000000000e+00 1.000000000000000e+00 0.000000000000000e+00
					9.135224194504830e-01 9.135224194504830e-01 0.000000000000000e+00
					6.851418145878623e-01 1.081462827695690e+00 0.000000000000000e+00
					6.254216821506210e-01 9.577309189068970e-01 0.000000000000000e+00
					9.135224194504830e-01 9.135224194504830e-01 0.000000000000000e+00
					8.338955762008280e-01 8.338955762008280e-01 0.000000000000000e+00
					6.254216821506210e-01 9.577309189068970e-01 0.000000000000000e+00
					5.708396026882763e-01 8.475542736336211e-01 0.000000000000000e+00
					8.338955762008280e-01 8.338955762008280e-01 0.000000000000000e+00
					7.611194702510350e-01 7.611194702510350e-01 0.000000000000000e+00
					5.708396026882763e-01 8.475542736336211e-01 0.000000000000000e+00
					5.213955762008280e-01 7.509328918758627e-01 0.000000000000000e+00
					7.611194702510350e-01 7.611194702510350e-01 0.000000000000000e+00
					6.951941016011041e-01 6.951941016011041e-01 0.000000000000000e+00
					5.213955762008280e-01 7.509328918758627e-01 0.000000000000000e+00
					4.770896026882762e-01 6.678667736336211e-01 0.000000000000000e+00
					6.951941016011041e-01 6.951941016011041e-01 0.000000000000000e+00
					6.361194702510350e-01 6.361194702510350e-01 0.000000000000000e+00
					4.770896026882762e-01 6.678667736336211e-01 0.000000000000000e+00
					4.379216821506210e-01 5.983559189068970e-01 0.000000000000000e+00
					6.361194702510350e-01 6.361194702510350e-01 0.000000000000000e+00
					5.838955762008280e-01 5.838955762008280e-01 0.000000000000000e+00
					4.379216821506210e-01 5.983559189068970e-01 0.000000000000000e+00
					4.038918145878622e-01 5.424003276956899e-01 0.000000000000000e+00
					5.838955762008280e-01 5.838955762008280e-01 0.000000000000000e+00
					5.385224194504830e-01 5.385224194504830e-01 0.000000000000000e+00
					4.038918145878622e-01 5.424003276956899e-01 0.000000000000000e+00
					3.750000000000000e-01 5.000000000000000e-01 0.000000000000000e+00
					5.385224194504830e-01 5.385224194504830e-01 0.000000000000000e+00
					5.000000000000000e-01 5.000000000000000e-01 0.000000000000000e+00
				</DataArray>
			</Points>
			<Cells>
				<DataArray Name="connectivity" type="UInt32" format="ascii">
					0 1 3 2 4 5 7 6 8 9 11 10 12 13 15 14 16 17 19 18 20 21 23 22 24 25 27 26 28 29 31 30 32 33 35 34 36 37 39 38 40 41 43 42 44 45 47 46 48 49 51 50 52 53 55 54 56 57 59 58 60 61 63 62 64 65 67 66 68 69 71 70 72 73 75 74 76 77 79 78 80 81 83 82 84 85 87 86 88 89 91 90 92 93 95 94 96 97 99 98 100 101 103 102 104 105 107 106 108 109 111 110 112 113 115 114 116 117 119 118 120 121 123 122 124 125 127 126 128 129 131 130 132 133 135 134 136 137 139 138 140 141 143 142 144 145 147 146 148 149 151 150 152 153 155 154 156 157 159 158 160 161 163 162 164 165 167 166 168 169 171 170 172 173 175 174 176 177 179 178 180 181 183 182 184 185 187 186 188 189 191 190 192 193 195 194 196 197 199 198 200 201 203 202 204 205 207 206 208 209 211 210 212 213 215 214 216 217 219 218 220 221 223 222 224 225 227 226 228 229 231 230 232 233 235 234 236 237 239 238 240 241 243 242 244 245 247 246 248 249 251 250 252 253 255 254 
				</DataArray>
				<DataArray Name="offsets" type="UInt32" format="ascii">
					4 8 12 16 20 24 28 32 36 40 44 48 52 56 60 64 68 72 76 80 84 88 92 96 100 104 108 112 116 120 124 128 132 136 140 144 148 152 156 160 164 168 172 176 180 184 188 192 196 200 204 208 212 216 220 224 228 232 236 240 244 248 252 256 
				</DataArray>
				<DataArray Name="types" type="UInt8" format="ascii">
					9 9 9 9 9 9 9 9 9 9 9 9 9 9 9 9 9 9 9 9 9 9 9 9 9 9 9 9 9 9 9 9 9 9 9 9 9 9 9 9 9 9 9 9 9 9 9 9 9 9 9 9 9 9 9 9 9 9 9 9 9 9 9 9 
				</DataArray>
			</Cells>
			<PointData Vectors="solution ">
				<DataArray Name="solution" type="Float64" NumberOfComponents="1" format="ascii">
					0.000000000000000e+00 3.246324296491895e-02 0.000000000000000e+00 1.105176463886823e-01 3.246324296491895e-02 3.681875042603041e-01 1.105176463886823e-01 1.074007891040624e+00 3.681875042603041e-01 1.317023510148850e+00 1.074007891040624e+00 3.350456760450442e+00 1.317023510148850e+00 2.935555910263551e+00 3.350456760450442e+00 6.582647253101898e+00 2.935555910263551e+00 5.060398611883551e+00 6.582647253101898e+00 1.011379624215877e+01 5.060398611883551e+00 7.428615725348870e+00 1.011379624215877e+01 1.341337776200633e+01 7.428615725348870e+00 9.788857868715660e+00 1.341337776200633e+01 1.620377786568569e+01 9.788857868715660e+00 1.194464596332369e+01 1.620377786568569e+01 1.841411218679160e+01 0.000000000000000e+00 1.105176463886823e-01 0.000000000000000e+00 2.808941972359109e-01 1.105176463886823e-01 1.074007891040624e+00 2.808941972359109e-01 2.341767616848155e+00 1.074007891040624e+00 3.350456760450442e+00 2.341767616848155e+00 6.630458670152534e+00 3.350456760450442e+00 6.582647253101898e+00 6.630458670152535e+00 1.195062199989582e+01 6.582647253101898e+00 1.011379624215877e+01 1.195062199989582e+01 1.695995935232583e+01 1.011379624215877e+01 1.341337776200633e+01 1.695995935232584e+01 2.094830993461469e+01 1.341337776200633e+01 1.620377786568569e+01 2.094830993461469e+01 2.380597076321674e+01 1.620377786568569e+01 1.841411218679160e+01 2.380597076321674e+01 2.573542948180462e+01 0.000000000000000e+00 2.808941972359109e-01 0.000000000000000e+00 5.512321004447942e-01 2.808941972359109e-01 2.341767616848155e+00 5.512321004447943e-01 4.022296691515738e+00 2.341767616848155e+00 6.630458670152534e+00 4.022296691515738e+00 1.064350587842338e+01 6.630458670152535e+00 1.195062199989582e+01 1.064350587842338e+01 1.813310674320344e+01 1.195062199989582e+01 1.695995935232583e+01 1.813310674320344e+01 2.444517188971073e+01 1.695995935232584e+01 2.094830993461469e+01 2.444517188971073e+01 2.883164452452628e+01 2.094830993461469e+01 2.380597076321674e+01 2.883164452452628e+01 3.148723574334623e+01 2.380597076321674e+01 2.573542948180462e+01 3.148723574334623e+01 3.294986000794052e+01 0.000000000000000e+00 5.512321004447942e-01 0.000000000000000e+00 8.082943827248500e-01 5.512321004447943e-01 4.022296691515739e+00 8.082943827248501e-01 5.529726496437110e+00 4.022296691515739e+00 1.064350587842338e+01 5.529726496437111e+00 1.412248602318564e+01 1.064350587842338e+01 1.813310674320344e+01 1.412248602318564e+01 2.335953630735473e+01 1.813310674320344e+01 2.444517188971073e+01 2.335953630735473e+01 3.066236234001803e+01 2.444517188971073e+01 2.883164452452628e+01 3.066236234001803e+01 3.531298860990110e+01 2.883164452452628e+01 3.148723574334623e+01 3.531298860990110e+01 3.777947496202999e+01 3.148723574334623e+01 3.294986000794052e+01 3.777947496202999e+01 3.886523964360568e+01 0.000000000000000e+00 8.082943827248500e-01 0.000000000000000e+00 8.703867640929538e-01 8.082943827248501e-01 5.529726496437110e+00 8.703867640929538e-01 6.103217639399792e+00 5.529726496437111e+00 1.412248602318564e+01 6.103217639399792e+00 1.557268306345937e+01 1.412248602318564e+01 2.335953630735473e+01 1.557268306345937e+01 2.567049618079337e+01 2.335953630735473e+01 3.066236234001803e+01 2.567049618079337e+01 3.359903108719848e+01 3.066236234001803e+01 3.531298860990110e+01 3.359903108719848e+01 3.860671212543997e+01 3.531298860990110e+01 3.777947496202999e+01 3.860671212543997e+01 4.121699237297023e+01 3.777947496202999e+01 3.886523964360568e+01 4.121699237297023e+01 4.230860104113101e+01 0.000000000000000e+00 8.703867640929538e-01 0.000000000000000e+00 7.003051792141028e-01 8.703867640929538e-01 6.103217639399792e+00 7.003051792141030e-01 5.391553353766210e+00 6.103217639399792e+00 1.557268306345937e+01 5.391553353766210e+00 1.419389511792678e+01 1.557268306345937e+01 2.567049618079337e+01 1.419389511792678e+01 2.395052472565747e+01 2.567049618079337e+01 3.359903108719848e+01 2.395052472565747e+01 3.203998668197825e+01 3.359903108719848e+01 3.860671212543997e+01 3.203998668197825e+01 3.756084971396628e+01 3.860671212543997e+01 4.121699237297023e+01 3.756084971396628e+01 4.079119409852831e+01 4.121699237297023e+01 4.230860104113101e+01 4.079119409852831e+01 4.243084485435513e+01 0.000000000000000e+00 7.003051792141028e-01 0.000000000000000e+00 4.350461093691718e-01 7.003051792141030e-01 5.391553353766210e+00 4.350461093691718e-01 3.752034597078835e+00 5.391553353766210e+00 1.419389511792678e+01 3.752034597078835e+00 1.049404420008383e+01 1.419389511792678e+01 2.395052472565747e+01 1.049404420008383e+01 1.867621297725988e+01 2.395052472565747e+01 3.203998668197825e+01 1.867621297725988e+01 2.626129901652318e+01 3.203998668197825e+01 3.756084971396628e+01 2.626129901652318e+01 3.220460753878243e+01 3.756084971396628e+01 4.079119409852831e+01 3.220460753878243e+01 3.634433483918923e+01 4.079119409852831e+01 4.243084485435513e+01 3.634433483918923e+01 3.898310728152450e+01 0.000000000000000e+00 4.350461093691718e-01 0.000000000000000e+00 2.016433425032026e-01 4.350461093691718e-01 3.752034597078835e+00 2.016433425032026e-01 1.952132183769121e+00 3.752034597078835e+00 1.049404420008383e+01 1.952132183769121e+00 6.035251296144061e+00 1.049404420008383e+01 1.867621297725988e+01 6.035251296144061e+00 1.179128192626256e+01 1.867621297725988e+01 2.626129901652318e+01 1.179128192626256e+01 1.805963136607566e+01 2.626129901652318e+01 3.220460753878243e+01 1.805963136607566e+01 2.388327757863132e+01 3.220460753878243e+01 3.634433483918923e+01 2.388327757863132e+01 2.874004088712575e+01 3.634433483918923e+01 3.898310728152450e+01 2.874004088712575e+01 3.246949206808016e+01 
				</DataArray>
			</PointData>
			<CellData>
			</CellData>
		</Piece>
	</UnstructuredGrid>
</VTKFile>