<?xml version="1.0"?>
<VTKFile type="UnstructuredGrid" byte_order="LittleEndian">
	<UnstructuredGrid>
		<Piece NumberOfPoints="64" NumberOfCells="16">
			<Points>
				<DataArray type="Float64" NumberOfComponents="3" format="ascii">
					-1.000000000000000e+00 -1.000000000000000e+00 0.000000000000000e+00
					-8.338955762008279e-01 -8.338955762008279e-01 0.000000000000000e+00
					-1.375000000000000e+00 -5.000000000000000e-01 0.000000000000000e+00
					-1.046184735125518e+00 -4.169477881004139e-01 0.000000000000000e+00
					-8.338955762008279e-01 -8.338955762008279e-01 0.000000000000000e+00
					-6.951941016011038e-01 -6.951941016011038e-01 0.000000000000000e+00
					-1.046184735125518e+00 -4.169477881004139e-01 0.000000000000000e+00
					-7.907463135006900e-01 -3.475970508005519e-01 0.000000000000000e+00
					-6.951941016011038e-01 -6.951941016011038e-01 0.000000000000000e+00
					-5.838955762008279e-01 -5.838955762008279e-01 0.000000000000000e+00
					-7.907463135006900e-01 -3.475970508005519e-01 0.000000000000000e+00
					-6.086847351255175e-01 -2.919477881004139e-01 0.000000000000000e+00
					-5.838955762008279e-01 -5.838955762008279e-01 0.000000000000000e+00
					-5.000000000000000e-01 -5.000000000000000e-01 0.000000000000000e+00
					-6.086847351255175e-01 -2.919477881004139e-01 0.000000000000000e+00
					-5.000000000000000e-01 -2.500000000000000e-01 0.000000000000000e+00
					-1.375000000000000e+00 -5.000000000000000e-01 0.000000000000000e+00
					-1.046184735125518e+00 -4.169477881004139e-01 0.000000000000000e+00
					-1.500000000000000e+00 5.551115123125783e-17 0.000000000000000e+00
					-1.116947788100414e+00 5.551115123125783e-17 0.000000000000000e+00
					-1.046184735125518e+00 -4.169477881004139e-01 0.000000000000000e+00
					-7.907463135006900e-01 -3.475970508005519e-01 0.000000000000000e+00
					-1.116947788100414e+00 5.551115123125783e-17 0.000000000000000e+00
					-8.225970508005521e-01 4.163336342344337e-17 0.000000000000000e+00
					-7.907463135006900e-01 -3.475970508005519e-01 0.000000000000000e+00
					-6.086847351255175e-01 -2.919477881004139e-01 0.000000000000000e+00
					-8.225970508005521e-01 4.163336342344337e-17 0.000000000000000e+00
					-6.169477881004140e-01 4.163336342344337e-17 0.000000000000000e+00
					-6.086847351255175e-01 -2.919477881004139e-01 0.000000000000000e+00
					-5.000000000000000e-01 -2.500000000000000e-01 0.000000000000000e+00
					-6.169477881004140e-01 4.163336342344337e-17 0.000000000000000e+00
					-5.000000000000000e-01 2.775557561562891e-17 0.000000000000000e+00
					-1.500000000000000e+00 5.551115123125783e-17 0.000000000000000e+00
					-1.116947788100414e+00 5.551115123125783e-17 0.000000000000000e+00
					-1.375000000000000e+00 5.000000000000000e-01 0.000000000000000e+00
					-1.046184735125517e+00 4.169477881004139e-01 0.000000000000000e+00
					-1.116947788100414e+00 5.551115123125783e-17 0.000000000000000e+00
					-8.225970508005521e-01 4.163336342344337e-17 0.000000000000000e+00
					-1.046184735125517e+00 4.169477881004139e-01 0.000000000000000e+00
					-7.907463135006900e-01 3.475970508005519e-01 0.000000000000000e+00
					-8.225970508005521e-01 4.163336342344337e-17 0.000000000000000e+00
					-6.169477881004140e-01 4.163336342344337e-17 0.000000000000000e+00
					-7.907463135006900e-01 3.475970508005519e-01 0.000000000000000e+00
					-6.086847351255174e-01 2.919477881004139e-01 0.000000000000000e+00
					-6.169477881004140e-01 4.163336342344337e-17 0.000000000000000e+00
					-5.000000000000000e-01 2.775557561562891e-17 0.000000000000000e+00
					-6.086847351255174e-01 2.919477881004139e-01 0.000000000000000e+00
					-5.000000000000000e-01 2.500000000000000e-01 0.000000000000000e+00
					-1.375000000000000e+00 5.000000000000000e-01 0.000000000000000e+00
					-1.046184735125517e+00 4.169477881004139e-01 0.000000000000000e+00
					-1.000000000000000e+00 1.000000000000000e+00 0.000000000000000e+00
					-8.338955762008279e-01 8.338955762008279e-01 0.000000000000000e+00
					-1.046184735125517e+00 4.169477881004139e-01 0.000000000000000e+00
					-7.907463135006900e-01 3.475970508005519e-01 0.000000000000000e+00
					-8.338955762008279e-01 8.338955762008279e-01 0.000000000000000e+00
					-6.951941016011038e-01 6.951941016011038e-01 0.000000000000000e+00
					-7.907463135006900e-01 3.475970508005519e-01 0.000000000000000e+00
					-6.086847351255174e-01 2.919477881004139e-01 0.000000000000000e+00
					-6.951941016011038e-01 6.951941016011038e-01 0.000000000000000e+00
					-5.838955762008279e-01 5.838955762008279e-01 0.000000000000000e+00
					-6.086847351255174e-01 2.919477881004139e-01 0.000000000000000e+00
					-5.000000000000000e-01 2.500000000000000e-01 0.000000000000000e+00
					-5.838955762008279e-01 5.838955762008279e-01 0.000000000000000e+00
					-5.000000000000000e-01 5.000000000000000e-01 0.000000000000000e+00
				</DataArray>
			</Points>
			<Cells>
				<DataArray Name="connectivity" type="UInt32" format="ascii">
					0 1 3 2 4 5 7 6 8 9 11 10 12 13 15 14 16 17 19 18 20 21 23 22 24 25 27 26 28 29 31 30 32 33 35 34 36 37 39 38 40 41 43 42 44 45 47 46 48 49 51 50 52 53 55 54 56 57 59 58 60 61 63 62 
				</DataArray>
				<DataArray Name="offsets" type="UInt32" format="ascii">
					4 8 12 16 20 24 28 32 36 40 44 48 52 56 60 64 
				</DataArray>
				<DataArray Name="types" type="UInt8" format="ascii">
					9 9 9 9 9 9 9 9 9 9 9 9 9 9 9 9 
				</DataArray>
			</Cells>
			<PointData Vectors="solution ">
				<DataArray Name="solution" type="Float64" NumberOfComponents="1" format="ascii">
					0.000000000000000e+00 1.358866374152158e-02 0.000000000000000e+00 6.691195374752741e-02 1.358866374152158e-02 1.813411486792034e-01 6.691195374752743e-02 7.872350368051408e-01 1.813411486792034e-01 7.184725836960756e-01 7.872350368051408e-01 2.519579083810441e+00 7.184725836960756e-01 1.616352840321489e+00 2.519579083810441e+00 4.471874756452140e+00 0.000000000000000e+00 6.691195374752743e-02 0.000000000000000e+00 1.938067969462827e-01 6.691195374752743e-02 7.872350368051408e-01 1.938067969462828e-01 1.979951439063064e+00 7.872350368051408e-01 2.519579083810441e+00 1.979951439063065e+00 5.547451173072303e+00 2.519579083810441e+00 4.471874756452141e+00 5.547451173072303e+00 8.671773402012876e+00 0.000000000000000e+00 1.938067969462827e-01 0.000000000000000e+00 3.548633518405507e-01 1.938067969462828e-01 1.979951439063064e+00 3.548633518405507e-01 3.162153938528651e+00 1.979951439063065e+00 5.547451173072303e+00 3.162153938528651e+00 8.099610675954438e+00 5.547451173072303e+00 8.671773402012876e+00 8.099610675954438e+00 1.215649011216837e+01 0.000000000000000e+00 3.548633518405507e-01 0.000000000000000e+00 3.713213180961311e-01 3.548633518405507e-01 3.162153938528651e+00 3.713213180961312e-01 2.933534800279309e+00 3.162153938528651e+00 8.099610675954438e+00 2.933534800279309e+00 7.428067595489052e+00 8.099610675954438e+00 1.215649011216837e+01 7.428067595489052e+00 1.194512691912848e+01 
				</DataArray>
			</PointData>
			<CellData>
			</CellData>
		</Piece>
	</UnstructuredGrid>
</VTKFile>