<?xml version="1.0"?>
<VTKFile type="UnstructuredGrid" byte_order="LittleEndian">
	<UnstructuredGrid>
		<Piece NumberOfPoints="256" NumberOfCells="64">
			<Points>
				<DataArray type="Float64" NumberOfComponents="3" format="ascii">
					-1.000000000000000e+00 -1.000000000000000e+00 0.000000000000000e+00
					-9.135224194504830e-01 -9.135224194504830e-01 0.000000000000000e+00
					-1.218750000000000e+00 -7.500000000000000e-01 0.000000000000000e+00
					-1.081462827695690e+00 -6.851418145878623e-01 0.000000000000000e+00
					-9.135224194504830e-01 -9.135224194504830e-01 0.000000000000000e+00
					-8.338955762008280e-01 -8.338955762008280e-01 0.000000000000000e+00
					-1.081462827695690e+00 -6.851418145878623e-01 0.000000000000000e+00
					-9.577309189068971e-01 -6.254216821506210e-01 0.000000000000000e+00
					-8.338955762008280e-01 -8.338955762008280e-01 0.000000000000000e+00
					-7.611194702510350e-01 -7.611194702510350e-01 0.000000000000000e+00
					-9.577309189068971e-01 -6.254216821506210e-01 0.000000000000000e+00
					-8.475542736336212e-01 -5.708396026882763e-01 0.000000000000000e+00
					-7.611194702510350e-01 -7.611194702510350e-01 0.000000000000000e+00
					-6.951941016011041e-01 -6.951941016011041e-01 0.000000000000000e+00
					-8.475542736336212e-01 -5.708396026882763e-01 0.000000000000000e+00
					-7.509328918758627e-01 -5.213955762008280e-01 0.000000000000000e+00
					-6.951941016011041e-01 -6.951941016011041e-01 0.000000000000000e+00
					-6.361194702510350e-01 -6.361194702510350e-01 0.000000000000000e+00
					-7.509328918758627e-01 -5.213955762008280e-01 0.000000000000000e+00
					-6.678667736336212e-01 -4.770896026882763e-01 0.000000000000000e+00
					-6.361194702510350e-01 -6.361194702510350e-01 0.000000000000000e+00
					-5.838955762008280e-01 -5.838955762008280e-01 0.000000000000000e+00
					-6.678667736336212e-01 -4.770896026882763e-01 0.000000000000000e+00
					-5.983559189068970e-01 -4.379216821506210e-01 0.000000000000000e+00
					-5.838955762008280e-01 -5.838955762008280e-01 0.000000000000000e+00
					-5.385224194504830e-01 -5.385224194504830e-01 0.000000000000000e+00
					-5.983559189068970e-01 -4.379216821506210e-01 0.000000000000000e+00
					-5.424003276956899e-01 -4.038918145878622e-01 0.000000000000000e+00
					-5.385224194504830e-01 -5.385224194504830e-01 0.000000000000000e+00
					-5.000000000000000e-01 -5.000000000000000e-01 0.000000000000000e+00
					-5.424003276956899e-01 -4.038918145878622e-01 0.000000000000000e+00
					-5.000000000000000e-01 -3.750000000000000e-01 0.000000000000000e+00
					-1.218750000000000e+00 -7.500000000000000e-01 0.000000000000000e+00
					-1.081462827695690e+00 -6.851418145878623e-01 0.000000000000000e+00
					-1.375000000000000e+00 -5.000000000000000e-01 0.000000000000000e+00
					-1.201420262156552e+00 -4.567612097252415e-01 0.000000000000000e+00
					-1.081462827695690e+00 -6.851418145878623e-01 0.000000000000000e+00
					-9.577309189068971e-01 -6.254216821506210e-01 0.000000000000000e+00
					-1.201420262156552e+00 -4.567612097252415e-01 0.000000000000000e+00
					-1.046184735125518e+00 -4.169477881004140e-01 0.000000000000000e+00
					-9.577309189068971e-01 -6.254216821506210e-01 0.000000000000000e+00
					-8.475542736336212e-01 -5.708396026882763e-01 0.000000000000000e+00
					-1.046184735125518e+00 -4.169477881004140e-01 0.000000000000000e+00
					-9.092934189068973e-01 -3.805597351255176e-01 0.000000000000000e+00
					-8.475542736336212e-01 -5.708396026882763e-01 0.000000000000000e+00
					-7.509328918758627e-01 -5.213955762008280e-01 0.000000000000000e+00
					-9.092934189068973e-01 -3.805597351255176e-01 0.000000000000000e+00
					-7.907463135006902e-01 -3.475970508005520e-01 0.000000000000000e+00
					-7.509328918758627e-01 -5.213955762008280e-01 0.000000000000000e+00
					-6.678667736336212e-01 -4.770896026882763e-01 0.000000000000000e+00
					-7.907463135006902e-01 -3.475970508005520e-01 0.000000000000000e+00
					-6.905434189068972e-01 -3.180597351255176e-01 0.000000000000000e+00
					-6.678667736336212e-01 -4.770896026882763e-01 0.000000000000000e+00
					-5.983559189068970e-01 -4.379216821506210e-01 0.000000000000000e+00
					-6.905434189068972e-01 -3.180597351255176e-01 0.000000000000000e+00
					-6.086847351255176e-01 -2.919477881004140e-01 0.000000000000000e+00
					-5.983559189068970e-01 -4.379216821506210e-01 0.000000000000000e+00
					-5.424003276956899e-01 -4.038918145878622e-01 0.000000000000000e+00
					-6.086847351255176e-01 -2.919477881004140e-01 0.000000000000000e+00
					-5.451702621565521e-01 -2.692612097252415e-01 0.000000000000000e+00
					-5.424003276956899e-01 -4.038918145878622e-01 0.000000000000000e+00
					-5.000000000000000e-01 -3.750000000000000e-01 0.000000000000000e+00
					-5.451702621565521e-01 -2.692612097252415e-01 0.000000000000000e+00
					-5.000000000000000e-01 -2.500000000000000e-01 0.000000000000000e+00
					-1.375000000000000e+00 -5.000000000000000e-01 0.000000000000000e+00
					-1.201420262156552e+00 -4.567612097252415e-01 0.000000000000000e+00
					-1.468750000000000e+00 -2.499999999999999e-01 0.000000000000000e+00
					-1.273394722833070e+00 -2.283806048626207e-01 0.000000000000000e+00
					-1.201420262156552e+00 -4.567612097252415e-01 0.000000000000000e+00
					-1.046184735125518e+00 -4.169477881004140e-01 0.000000000000000e+00
					-1.273394722833070e+00 -2.283806048626207e-01 0.000000000000000e+00
					-1.099257024856690e+00 -2.084738940502069e-01 0.000000000000000e+00
					-1.046184735125518e+00 -4.169477881004140e-01 0.000000000000000e+00
					-9.092934189068973e-01 -3.805597351255176e-01 0.000000000000000e+00
					-1.099257024856690e+00 -2.084738940502069e-01 0.000000000000000e+00
					-9.463369060708627e-01 -1.902798675627587e-01 0.000000000000000e+00
					-9.092934189068973e-01 -3.805597351255176e-01 0.000000000000000e+00
					-7.907463135006902e-01 -3.475970508005520e-01 0.000000000000000e+00
					-9.463369060708627e-01 -1.902798675627587e-01 0.000000000000000e+00
					-8.146343664755867e-01 -1.737985254002760e-01 0.000000000000000e+00
					-7.907463135006902e-01 -3.475970508005520e-01 0.000000000000000e+00
					-6.905434189068972e-01 -3.180597351255176e-01 0.000000000000000e+00
					-8.146343664755867e-01 -1.737985254002760e-01 0.000000000000000e+00
					-7.041494060708625e-01 -1.590298675627587e-01 0.000000000000000e+00
					-6.905434189068972e-01 -3.180597351255176e-01 0.000000000000000e+00
					-6.086847351255176e-01 -2.919477881004140e-01 0.000000000000000e+00
					-7.041494060708625e-01 -1.590298675627587e-01 0.000000000000000e+00
					-6.148820248566900e-01 -1.459738940502070e-01 0.000000000000000e+00
					-6.086847351255176e-01 -2.919477881004140e-01 0.000000000000000e+00
					-5.451702621565521e-01 -2.692612097252415e-01 0.000000000000000e+00
					-6.148820248566900e-01 -1.459738940502070e-01 0.000000000000000e+00
					-5.468322228330693e-01 -1.346306048626207e-01 0.000000000000000e+00
					-5.451702621565521e-01 -2.692612097252415e-01 0.000000000000000e+00
					-5.000000000000000e-01 -2.500000000000000e-01 0.000000000000000e+00
					-5.468322228330693e-01 -1.346306048626207e-01 0.000000000000000e+00
					-5.000000000000000e-01 -1.250000000000000e-01 0.000000000000000e+00
					-1.468750000000000e+00 -2.499999999999999e-01 0.000000000000000e+00
					-1.273394722833070e+00 -2.283806048626207e-01 0.000000000000000e+00
					-1.500000000000000e+00 6.938893903907228e-17 0.000000000000000e+00
					-1.297386209725242e+00 1.249000902703301e-16 0.000000000000000e+00
					-1.273394722833070e+00 -2.283806048626207e-01 0.000000000000000e+00
					-1.099257024856690e+00 -2.084738940502069e-01 0.000000000000000e+00
					-1.297386209725242e+00 1.249000902703301e-16 0.000000000000000e+00
					-1.116947788100415e+00 5.551115123125783e-17 0.000000000000000e+00
					-1.099257024856690e+00 -2.084738940502069e-01 0.000000000000000e+00
					-9.463369060708627e-01 -1.902798675627587e-01 0.000000000000000e+00
					-1.116947788100415e+00 5.551115123125783e-17 0.000000000000000e+00
					-9.586847351255179e-01 5.551115123125783e-17 0.000000000000000e+00
					-9.463369060708627e-01 -1.902798675627587e-01 0.000000000000000e+00
					-8.146343664755867e-01 -1.737985254002760e-01 0.000000000000000e+00
					-9.586847351255179e-01 5.551115123125783e-17 0.000000000000000e+00
					-8.225970508005522e-01 1.387778780781446e-17 0.000000000000000e+00
					-8.146343664755867e-01 -1.737985254002760e-01 0.000000000000000e+00
					-7.041494060708625e-01 -1.590298675627587e-01 0.000000000000000e+00
					-8.225970508005522e-01 1.387778780781446e-17 0.000000000000000e+00
					-7.086847351255177e-01 4.163336342344337e-17 0.000000000000000e+00
					-7.041494060708625e-01 -1.590298675627587e-01 0.000000000000000e+00
					-6.148820248566900e-01 -1.459738940502070e-01 0.000000000000000e+00
					-7.086847351255177e-01 4.163336342344337e-17 0.000000000000000e+00
					-6.169477881004141e-01 4.857225732735060e-17 0.000000000000000e+00
					-6.148820248566900e-01 -1.459738940502070e-01 0.000000000000000e+00
					-5.468322228330693e-01 -1.346306048626207e-01 0.000000000000000e+00
					-6.169477881004141e-01 4.857225732735060e-17 0.000000000000000e+00
					-5.473862097252417e-01 3.469446951953614e-17 0.000000000000000e+00
					-5.468322228330693e-01 -1.346306048626207e-01 0.000000000000000e+00
					-5.000000000000000e-01 -1.250000000000000e-01 0.000000000000000e+00
					-5.473862097252417e-01 3.469446951953614e-17 0.000000000000000e+00
					-5.000000000000000e-01 3.469446951953614e-17 0.000000000000000e+00
					-1.500000000000000e+00 6.938893903907228e-17 0.000000000000000e+00
					-1.297386209725242e+00 1.249000902703301e-16 0.000000000000000e+00
					-1.468750000000000e+00 2.500000000000001e-01 0.000000000000000e+00
					-1.273394722833070e+00 2.283806048626209e-01 0.000000000000000e+00
					-1.297386209725242e+00 1.249000902703301e-16 0.000000000000000e+00
					-1.116947788100415e+00 5.551115123125783e-17 0.000000000000000e+00
					-1.273394722833070e+00 2.283806048626209e-01 0.000000000000000e+00
					-1.099257024856690e+00 2.084738940502071e-01 0.000000000000000e+00
					-1.116947788100415e+00 5.551115123125783e-17 0.000000000000000e+00
					-9.586847351255179e-01 5.551115123125783e-17 0.000000000000000e+00
					-1.099257024856690e+00 2.084738940502071e-01 0.000000000000000e+00
					-9.463369060708626e-01 1.902798675627588e-01 0.000000000000000e+00
					-9.586847351255179e-01 5.551115123125783e-17 0.000000000000000e+00
					-8.225970508005522e-01 1.387778780781446e-17 0.000000000000000e+00
					-9.463369060708626e-01 1.902798675627588e-01 0.000000000000000e+00
					-8.146343664755867e-01 1.737985254002760e-01 0.000000000000000e+00
					-8.225970508005522e-01 1.387778780781446e-17 0.000000000000000e+00
					-7.086847351255177e-01 4.163336342344337e-17 0.000000000000000e+00
					-8.146343664755867e-01 1.737985254002760e-01 0.000000000000000e+00
					-7.041494060708625e-01 1.590298675627588e-01 0.000000000000000e+00
					-7.086847351255177e-01 4.163336342344337e-17 0.000000000000000e+00
					-6.169477881004141e-01 4.857225732735060e-17 0.000000000000000e+00
					-7.041494060708625e-01 1.590298675627588e-01 0.000000000000000e+00
					-6.148820248566900e-01 1.459738940502071e-01 0.000000000000000e+00
					-6.169477881004141e-01 4.857225732735060e-17 0.000000000000000e+00
					-5.473862097252417e-01 3.469446951953614e-17 0.000000000000000e+00
					-6.148820248566900e-01 1.459738940502071e-01 0.000000000000000e+00
					-5.468322228330692e-01 1.346306048626208e-01 0.000000000000000e+00
					-5.473862097252417e-01 3.469446951953614e-17 0.000000000000000e+00
					-5.000000000000000e-01 3.469446951953614e-17 0.000000000000000e+00
					-5.468322228330692e-01 1.346306048626208e-01 0.000000000000000e+00
					-5.000000000000000e-01 1.250000000000001e-01 0.000000000000000e+00
					-1.468750000000000e+00 2.500000000000001e-01 0.000000000000000e+00
					-1.273394722833070e+00 2.283806048626209e-01 0.000000000000000e+00
					-1.375000000000000e+00 5.000000000000001e-01 0.000000000000000e+00
					-1.201420262156552e+00 4.567612097252416e-01 0.000000000000000e+00
					-1.273394722833070e+00 2.283806048626209e-01 0.000000000000000e+00
					-1.099257024856690e+00 2.084738940502071e-01 0.000000000000000e+00
					-1.201420262156552e+00 4.567612097252416e-01 0.000000000000000e+00
					-1.046184735125518e+00 4.169477881004141e-01 0.000000000000000e+00
					-1.099257024856690e+00 2.084738940502071e-01 0.000000000000000e+00
					-9.463369060708626e-01 1.902798675627588e-01 0.000000000000000e+00
					-1.046184735125518e+00 4.169477881004141e-01 0.000000000000000e+00
					-9.092934189068971e-01 3.805597351255176e-01 0.000000000000000e+00
					-9.463369060708626e-01 1.902798675627588e-01 0.000000000000000e+00
					-8.146343664755867e-01 1.737985254002760e-01 0.000000000000000e+00
					-9.092934189068971e-01 3.805597351255176e-01 0.000000000000000e+00
					-7.907463135006902e-01 3.475970508005520e-01 0.000000000000000e+00
					-8.146343664755867e-01 1.737985254002760e-01 0.000000000000000e+00
					-7.041494060708625e-01 1.590298675627588e-01 0.000000000000000e+00
					-7.907463135006902e-01 3.475970508005520e-01 0.000000000000000e+00
					-6.905434189068970e-01 3.180597351255176e-01 0.000000000000000e+00
					-7.041494060708625e-01 1.590298675627588e-01 0.000000000000000e+00
					-6.148820248566900e-01 1.459738940502071e-01 0.000000000000000e+00
					-6.905434189068970e-01 3.180597351255176e-01 0.000000000000000e+00
					-6.086847351255177e-01 2.919477881004141e-01 0.000000000000000e+00
					-6.148820248566900e-01 1.459738940502071e-01 0.000000000000000e+00
					-5.468322228330692e-01 1.346306048626208e-01 0.000000000000000e+00
					-6.086847351255177e-01 2.919477881004141e-01 0.000000000000000e+00
					-5.451702621565520e-01 2.692612097252415e-01 0.000000000000000e+00
					-5.468322228330692e-01 1.346306048626208e-01 0.000000000000000e+00
					-5.000000000000000e-01 1.250000000000001e-01 0.000000000000000e+00
					-5.451702621565520e-01 2.692612097252415e-01 0.000000000000000e+00
					-5.000000000000000e-01 2.500000000000001e-01 0.000000000000000e+00
					-1.375000000000000e+00 5.000000000000001e-01 0.000000000000000e+00
					-1.201420262156552e+00 4.567612097252416e-01 0.000000000000000e+00
					-1.218750000000000e+00 7.500000000000000e-01 0.000000000000000e+00
					-1.081462827695690e+00 6.851418145878623e-01 0.000000000000000e+00
					-1.201420262156552e+00 4.567612097252416e-01 0.000000000000000e+00
					-1.046184735125518e+00 4.169477881004141e-01 0.000000000000000e+00
					-1.081462827695690e+00 6.851418145878623e-01 0.000000000000000e+00
					-9.577309189068970e-01 6.254216821506210e-01 0.000000000000000e+00
					-1.046184735125518e+00 4.169477881004141e-01 0.000000000000000e+00
					-9.092934189068971e-01 3.805597351255176e-01 0.000000000000000e+00
					-9.577309189068970e-01 6.254216821506210e-01 0.000000000000000e+00
					-8.475542736336211e-01 5.708396026882763e-01 0.000000000000000e+00
					-9.092934189068971e-01 3.805597351255176e-01 0.000000000000000e+00
					-7.907463135006902e-01 3.475970508005520e-01 0.000000000000000e+00
					-8.475542736336211e-01 5.708396026882763e-01 0.000000000000000e+00
					-7.509328918758627e-01 5.213955762008280e-01 0.000000000000000e+00
					-7.907463135006902e-01 3.475970508005520e-01 0.000000000000000e+00
					-6.905434189068970e-01 3.180597351255176e-01 0.000000000000000e+00
					-7.509328918758627e-01 5.213955762008280e-01 0.000000000000000e+00
					-6.678667736336211e-01 4.770896026882762e-01 0.000000000000000e+00
					-6.905434189068970e-01 3.180597351255176e-01 0.000000000000000e+00
					-6.086847351255177e-01 2.919477881004141e-01 0.000000000000000e+00
					-6.678667736336211e-01 4.770896026882762e-01 0.000000000000000e+00
					-5.983559189068970e-01 4.379216821506210e-01 0.000000000000000e+00
					-6.086847351255177e-01 2.919477881004141e-01 0.000000000000000e+00
					-5.451702621565520e-01 2.692612097252415e-01 0.000000000000000e+00
					-5.983559189068970e-01 4.379216821506210e-01 0.000000000000000e+00
					-5.424003276956899e-01 4.038918145878622e-01 0.000000000000000e+00
					-5.451702621565520e-01 2.692612097252415e-01 0.000000000000000e+00
					-5.000000000000000e-01 2.500000000000001e-01 0.000000000000000e+00
					-5.424003276956899e-01 4.038918145878622e-01 0.000000000000000e+00
					-5.000000000000000e-01 3.750000000000000e-01 0.000000000000000e+00
					-1.218750000000000e+00 7.500000000000000e-01 0.000000000000000e+00
					-1.081462827695690e+00 6.851418145878623e-01 0.000000000000000e+00
					-1.000000000000000e+00 1.000000000000000e+00 0.000000000000000e+00
					-9.135224194504830e-01 9.135224194504830e-01 0.000000000000000e+00
					-1.081462827695690e+00 6.851418145878623e-01 0.000000000000000e+00
					-9.577309189068970e-01 6.254216821506210e-01 0.000000000000000e+00
					-9.135224194504830e-01 9.135224194504830e-01 0.000000000000000e+00
					-8.338955762008280e-01 8.338955762008280e-01 0.000000000000000e+00
					-9.577309189068970e-01 6.254216821506210e-01 0.000000000000000e+00
					-8.475542736336211e-01 5.708396026882763e-01 0.000000000000000e+00
					-8.338955762008280e-01 8.338955762008280e-01 0.000000000000000e+00
					-7.611194702510350e-01 7.611194702510350e-01 0.000000000000000e+00
					-8.475542736336211e-01 5.708396026882763e-01 0.000000000000000e+00
					-7.509328918758627e-01 5.213955762008280e-01 0.000000000000000e+00
					-7.611194702510350e-01 7.611194702510350e-01 0.000000000000000e+00
					-6.951941016011041e-01 6.951941016011041e-01 0.000000000000000e+00
					-7.509328918758627e-01 5.213955762008280e-01 0.000000000000000e+00
					-6.678667736336211e-01 4.770896026882762e-01 0.000000000000000e+00
					-6.951941016011041e-01 6.951941016011041e-01 0.000000000000000e+00
					-6.361194702510350e-01 6.361194702510350e-01 0.000000000000000e+00
					-6.678667736336211e-01 4.770896026882762e-01 0.000000000000000e+00
					-5.983559189068970e-01 4.379216821506210e-01 0.000000000000000e+00
					-6.361194702510350e-01 6.361194702510350e-01 0.000000000000000e+00
					-5.838955762008280e-01 5.838955762008280e-01 0.000000000000000e+00
					-5.983559189068970e-01 4.379216821506210e-01 0.000000000000000e+00
					-5.424003276956899e-01 4.038918145878622e-01 0.000000000000000e+00
					-5.838955762008280e-01 5.838955762008280e-01 0.000000000000000e+00
					-5.385224194504830e-01 5.385224194504830e-01 0.000000000000000e+00
					-5.424003276956899e-01 4.038918145878622e-01 0.000000000000000e+00
					-5.000000000000000e-01 3.750000000000000e-01 0.000000000000000e+00
					-5.385224194504830e-01 5.385224194504830e-01 0.000000000000000e+00
					-5.000000000000000e-01 5.000000000000000e-01 0.000000000000000e+00
				</DataArray>
			</Points>
			<Cells>
				<DataArray Name="connectivity" type="UInt32" format="ascii">
					0 1 3 2 4 5 7 6 8 9 11 10 12 13 15 14 16 17 19 18 20 21 23 22 24 25 27 26 28 29 31 30 32 33 35 34 36 37 39 38 40 41 43 42 44 45 47 46 48 49 51 50 52 53 55 54 56 57 59 58 60 61 63 62 64 65 67 66 68 69 71 70 72 73 75 74 76 77 79 78 80 81 83 82 84 85 87 86 88 89 91 90 92 93 95 94 96 97 99 98 100 101 103 102 104 105 107 106 108 109 111 110 112 113 115 114 116 117 119 118 120 121 123 122 124 125 127 126 128 129 131 130 132 133 135 134 136 137 139 138 140 141 143 142 144 145 147 146 148 149 151 150 152 153 155 154 156 157 159 158 160 161 163 162 164 165 167 166 168 169 171 170 172 173 175 174 176 177 179 178 180 181 183 182 184 185 187 186 188 189 191 190 192 193 195 194 196 197 199 198 200 201 203 202 204 205 207 206 208 209 211 210 212 213 215 214 216 217 219 218 220 221 223 222 224 225 227 226 228 229 231 230 232 233 235 234 236 237 239 238 240 241 243 242 244 245 247 246 248 249 251 250 252 253 255 254 
				</DataArray>
				<DataArray Name="offsets" type="UInt32" format="ascii">
					4 8 12 16 20 24 28 32 36 40 44 48 52 56 60 64 68 72 76 80 84 88 92 96 100 104 108 112 116 120 124 128 132 136 140 144 148 152 156 160 164 168 172 176 180 184 188 192 196 200 204 208 212 216 220 224 228 232 236 240 244 248 252 256 
				</DataArray>
				<DataArray Name="types" type="UInt8" format="ascii">
					9 9 9 9 9 9 9 9 9 9 9 9 9 9 9 9 9 9 9 9 9 9 9 9 9 9 9 9 9 9 9 9 9 9 9 9 9 9 9 9 9 9 9 9 9 9 9 9 9 9 9 9 9 9 9 9 9 9 9 9 9 9 9 9 
				</DataArray>
			</Cells>
			<PointData Vectors="solution ">
				<DataArray Name="solution" type="Float64" NumberOfComponents="1" format="ascii">
					0.000000000000000e+00 7.214082649136578e-04 0.000000000000000e+00 2.163461652909698e-03 7.214082649136578e-04 1.332497862607180e-02 2.163461652909699e-03 3.248275553069662e-02 1.332497862607180e-02 6.237071301442558e-02 3.248275553069662e-02 1.488756839329498e-01 6.237071301442558e-02 1.825119842392933e-01 1.488756839329498e-01 4.107357900005135e-01 1.825119842392933e-01 3.964018551012297e-01 4.107357900005135e-01 8.463102537467438e-01 3.964018551012297e-01 7.198824459550082e-01 8.463102537467438e-01 1.437968009826388e+00 7.198824459550082e-01 1.134476114340205e+00 1.437968009826388e+00 2.125620759825571e+00 1.134476114340205e+00 1.616624739420445e+00 2.125620759825571e+00 2.823795208597203e+00 0.000000000000000e+00 2.163461652909698e-03 0.000000000000000e+00 4.833839194570727e-03 2.163461652909699e-03 3.248275553069662e-02 4.833839194570728e-03 6.688380338820087e-02 3.248275553069662e-02 1.488756839329498e-01 6.688380338820087e-02 2.961372359340673e-01 1.488756839329498e-01 4.107357900005135e-01 2.961372359340673e-01 7.873168396385416e-01 4.107357900005135e-01 8.463102537467438e-01 7.873168396385416e-01 1.554413862054193e+00 8.463102537467438e-01 1.437968009826388e+00 1.554413862054193e+00 2.519378029404298e+00 1.437968009826388e+00 2.125620759825571e+00 2.519378029404298e+00 3.543491070297437e+00 2.125620759825571e+00 2.823795208597203e+00 3.543491070297437e+00 4.472023105241136e+00 0.000000000000000e+00 4.833839194570727e-03 0.000000000000000e+00 9.611764049727987e-03 4.833839194570728e-03 6.688380338820087e-02 9.611764049727989e-03 1.206784647622667e-01 6.688380338820087e-02 2.961372359340673e-01 1.206784647622667e-01 5.145466536878454e-01 2.961372359340673e-01 7.873168396385416e-01 5.145466536878454e-01 1.323088215789931e+00 7.873168396385416e-01 1.554413862054193e+00 1.323088215789931e+00 2.521633952965183e+00 1.554413862054193e+00 2.519378029404298e+00 2.521633952965183e+00 3.938580354972013e+00 2.519378029404298e+00 3.543491070297437e+00 3.938580354972013e+00 5.335743603206650e+00 3.543491070297437e+00 4.472023105241136e+00 5.335743603206650e+00 6.488036335252028e+00 0.000000000000000e+00 9.611764049727987e-03 0.000000000000000e+00 1.648490687270298e-02 9.611764049727989e-03 1.206784647622667e-01 1.648490687270298e-02 1.938047971420008e-01 1.206784647622667e-01 5.145466536878455e-01 1.938047971420008e-01 7.958150994530505e-01 5.145466536878455e-01 1.323088215789931e+00 7.958150994530505e-01 1.980119631379744e+00 1.323088215789931e+00 2.521633952965183e+00 1.980119631379744e+00 3.658102419393326e+00 2.521633952965183e+00 3.938580354972013e+00 3.658102419393326e+00 5.547671884515788e+00 3.938580354972013e+00 5.335743603206650e+00 5.547671884515789e+00 7.312456020888142e+00 5.335743603206650e+00 6.488036335252028e+00 7.312456020888142e+00 8.671842317190469e+00 0.000000000000000e+00 1.648490687270298e-02 0.000000000000000e+00 2.397391372594590e-02 1.648490687270298e-02 1.938047971420008e-01 2.397391372594590e-02 2.778574992600459e-01 1.938047971420008e-01 7.958150994530505e-01 2.778574992600459e-01 1.101533038624285e+00 7.958150994530505e-01 1.980119631379744e+00 1.101533038624285e+00 2.651669679531882e+00 1.980119631379744e+00 3.658102419393326e+00 2.651669679531882e+00 4.763809147900314e+00 3.658102419393326e+00 5.547671884515788e+00 4.763809147900314e+00 7.062018184497262e+00 5.547671884515789e+00 7.312456020888142e+00 7.062018184497262e+00 9.142804500840281e+00 7.312456020888142e+00 8.671842317190469e+00 9.142804500840281e+00 1.069711042953433e+01 0.000000000000000e+00 2.397391372594590e-02 0.000000000000000e+00 3.008383701678429e-02 2.397391372594590e-02 2.778574992600459e-01 3.008383701678429e-02 3.545469618353374e-01 2.778574992600459e-01 1.101533038624285e+00 3.545469618353375e-01 1.357195341188358e+00 1.101533038624285e+00 2.651669679531882e+00 1.357195341188358e+00 3.162319003222152e+00 2.651669679531882e+00 4.763809147900314e+00 3.162319003222152e+00 5.547719652757364e+00 4.763809147900314e+00 7.062018184497262e+00 5.547719652757364e+00 8.099765511928922e+00 7.062018184497262e+00 9.142804500840281e+00 8.099765511928922e+00 1.040410790623101e+01 9.142804500840281e+00 1.069711042953433e+01 1.040410790623101e+01 1.215644659044616e+01 0.000000000000000e+00 3.008383701678429e-02 0.000000000000000e+00 3.365793027147829e-02 3.008383701678429e-02 3.545469618353374e-01 3.365793027147829e-02 3.962936185872654e-01 3.545469618353375e-01 1.357195341188358e+00 3.962936185872654e-01 1.460711384478107e+00 1.357195341188358e+00 3.162319003222152e+00 1.460711384478107e+00 3.306227583012185e+00 3.162319003222153e+00 5.547719652757364e+00 3.306227583012185e+00 5.706235009339035e+00 5.547719652757364e+00 8.099765511928922e+00 5.706235009339035e+00 8.289104734772968e+00 8.099765511928922e+00 1.040410790623101e+01 8.289104734772968e+00 1.069432621393610e+01 1.040410790623101e+01 1.215644659044616e+01 1.069432621393610e+01 1.265576878644457e+01 0.000000000000000e+00 3.365793027147829e-02 0.000000000000000e+00 3.246324296491895e-02 3.365793027147829e-02 3.962936185872654e-01 3.246324296491895e-02 3.681875042603041e-01 3.962936185872654e-01 1.460711384478107e+00 3.681875042603041e-01 1.317023510148850e+00 1.460711384478107e+00 3.306227583012185e+00 1.317023510148850e+00 2.935555910263551e+00 3.306227583012185e+00 5.706235009339035e+00 2.935555910263551e+00 5.060398611883551e+00 5.706235009339035e+00 8.289104734772968e+00 5.060398611883551e+00 7.428615725348870e+00 8.289104734772968e+00 1.069432621393610e+01 7.428615725348870e+00 9.788857868715660e+00 1.069432621393610e+01 1.265576878644457e+01 9.788857868715660e+00 1.194464596332369e+01 
				</DataArray>
			</PointData>
			<CellData>
			</CellData>
		</Piece>
	</UnstructuredGrid>
</VTKFile>