<?xml version="1.0"?>
<VTKFile type="UnstructuredGrid" byte_order="LittleEndian">
	<UnstructuredGrid>
		<Piece NumberOfPoints="64" NumberOfCells="16">
			<Points>
				<DataArray type="Float64" NumberOfComponents="3" format="ascii">
					-1.000000000000000e+00 -1.000000000000000e+00 0.000000000000000e+00
					-5.000000000000000e-01 -1.375000000000000e+00 0.000000000000000e+00
					-8.338955762008279e-01 -8.338955762008279e-01 0.000000000000000e+00
					-4.169477881004139e-01 -1.046184735125518e+00 0.000000000000000e+00
					-5.000000000000000e-01 -1.375000000000000e+00 0.000000000000000e+00
					5.551115123125783e-17 -1.500000000000000e+00 0.000000000000000e+00
					-4.169477881004139e-01 -1.046184735125518e+00 0.000000000000000e+00
					4.857225732735060e-17 -1.116947788100414e+00 0.000000000000000e+00
					5.551115123125783e-17 -1.500000000000000e+00 0.000000000000000e+00
					5.000000000000000e-01 -1.375000000000000e+00 0.000000000000000e+00
					4.857225732735060e-17 -1.116947788100414e+00 0.000000000000000e+00
					4.169477881004139e-01 -1.046184735125518e+00 0.000000000000000e+00
					5.000000000000000e-01 -1.375000000000000e+00 0.000000000000000e+00
					1.000000000000000e+00 -1.000000000000000e+00 0.000000000000000e+00
					4.169477881004139e-01 -1.046184735125518e+00 0.000000000000000e+00
					8.338955762008279e-01 -8.338955762008279e-01 0.000000000000000e+00
					-8.338955762008279e-01 -8.338955762008279e-01 0.000000000000000e+00
					-4.169477881004139e-01 -1.046184735125518e+00 0.000000000000000e+00
					-6.951941016011038e-01 -6.951941016011038e-01 0.000000000000000e+00
					-3.475970508005519e-01 -7.907463135006899e-01 0.000000000000000e+00
					-4.169477881004139e-01 -1.046184735125518e+00 0.000000000000000e+00
					4.857225732735060e-17 -1.116947788100414e+00 0.000000000000000e+00
					-3.475970508005519e-01 -7.907463135006899e-01 0.000000000000000e+00
					4.163336342344337e-17 -8.225970508005520e-01 0.000000000000000e+00
					4.857225732735060e-17 -1.116947788100414e+00 0.000000000000000e+00
					4.169477881004139e-01 -1.046184735125518e+00 0.000000000000000e+00
					4.163336342344337e-17 -8.225970508005520e-01 0.000000000000000e+00
					3.475970508005519e-01 -7.907463135006899e-01 0.000000000000000e+00
					4.169477881004139e-01 -1.046184735125518e+00 0.000000000000000e+00
					8.338955762008279e-01 -8.338955762008279e-01 0.000000000000000e+00
					3.475970508005519e-01 -7.907463135006899e-01 0.000000000000000e+00
					6.951941016011038e-01 -6.951941016011038e-01 0.000000000000000e+00
					-6.951941016011038e-01 -6.951941016011038e-01 0.000000000000000e+00
					-3.475970508005519e-01 -7.907463135006899e-01 0.000000000000000e+00
					-5.838955762008279e-01 -5.838955762008279e-01 0.000000000000000e+00
					-2.919477881004139e-01 -6.086847351255174e-01 0.000000000000000e+00
					-3.475970508005519e-01 -7.907463135006899e-01 0.000000000000000e+00
					4.163336342344337e-17 -8.225970508005520e-01 0.000000000000000e+00
					-2.919477881004139e-01 -6.086847351255174e-01 0.000000000000000e+00
					3.469446951953614e-17 -6.169477881004140e-01 0.000000000000000e+00
					4.163336342344337e-17 -8.225970508005520e-01 0.000000000000000e+00
					3.475970508005519e-01 -7.907463135006899e-01 0.000000000000000e+00
					3.469446951953614e-17 -6.169477881004140e-01 0.000000000000000e+00
					2.919477881004139e-01 -6.086847351255174e-01 0.000000000000000e+00
					3.475970508005519e-01 -7.907463135006899e-01 0.000000000000000e+00
					6.951941016011038e-01 -6.951941016011038e-01 0.000000000000000e+00
					2.919477881004139e-01 -6.086847351255174e-01 0.000000000000000e+00
					5.838955762008279e-01 -5.838955762008279e-01 0.000000000000000e+00
					-5.838955762008279e-01 -5.838955762008279e-01 0.000000000000000e+00
					-2.919477881004139e-01 -6.086847351255174e-01 0.000000000000000e+00
					-5.000000000000000e-01 -5.000000000000000e-01 0.000000000000000e+00
					-2.500000000000000e-01 -5.000000000000000e-01 0.000000000000000e+00
					-2.919477881004139e-01 -6.086847351255174e-01 0.000000000000000e+00
					3.469446951953614e-17 -6.169477881004140e-01 0.000000000000000e+00
					-2.500000000000000e-01 -5.000000000000000e-01 0.000000000000000e+00
					2.775557561562891e-17 -5.000000000000000e-01 0.000000000000000e+00
					3.469446951953614e-17 -6.169477881004140e-01 0.000000000000000e+00
					2.919477881004139e-01 -6.086847351255174e-01 0.000000000000000e+00
					2.775557561562891e-17 -5.000000000000000e-01 0.000000000000000e+00
					2.500000000000000e-01 -5.000000000000000e-01 0.000000000000000e+00
					2.919477881004139e-01 -6.086847351255174e-01 0.000000000000000e+00
					5.838955762008279e-01 -5.838955762008279e-01 0.000000000000000e+00
					2.500000000000000e-01 -5.000000000000000e-01 0.000000000000000e+00
					5.000000000000000e-01 -5.000000000000000e-01 0.000000000000000e+00
				</DataArray>
			</Points>
			<Cells>
				<DataArray Name="connectivity" type="UInt32" format="ascii">
					0 1 3 2 4 5 7 6 8 9 11 10 12 13 15 14 16 17 19 18 20 21 23 22 24 25 27 26 28 29 31 30 32 33 35 34 36 37 39 38 40 41 43 42 44 45 47 46 48 49 51 50 52 53 55 54 56 57 59 58 60 61 63 62 
				</DataArray>
				<DataArray Name="offsets" type="UInt32" format="ascii">
					4 8 12 16 20 24 28 32 36 40 44 48 52 56 60 64 
				</DataArray>
				<DataArray Name="types" type="UInt8" format="ascii">
					9 9 9 9 9 9 9 9 9 9 9 9 9 9 9 9 
				</DataArray>
			</Cells>
			<PointData Vectors="solution ">
				<DataArray Name="solution" type="Float64" NumberOfComponents="1" format="ascii">
					0.000000000000000e+00 0.000000000000000e+00 1.358866374152158e-02 3.567705271078298e-02 0.000000000000000e+00 0.000000000000000e+00 3.567705271078298e-02 6.342739259201248e-02 0.000000000000000e+00 0.000000000000000e+00 6.342739259201248e-02 8.208818480513463e-02 0.000000000000000e+00 0.000000000000000e+00 8.208818480513463e-02 6.938034019356323e-02 1.358866374152158e-02 3.567705271078299e-02 1.813411486792034e-01 5.053477031851308e-01 3.567705271078299e-02 6.342739259201249e-02 5.053477031851308e-01 8.697402780798690e-01 6.342739259201249e-02 8.208818480513463e-02 8.697402780798690e-01 1.012999496947058e+00 8.208818480513463e-02 6.938034019356323e-02 1.012999496947058e+00 7.309648912679485e-01 1.813411486792034e-01 5.053477031851308e-01 7.184725836960756e-01 1.835549620249546e+00 5.053477031851308e-01 8.697402780798690e-01 1.835549620249546e+00 2.993186945282488e+00 8.697402780798690e-01 1.012999496947058e+00 2.993186945282488e+00 3.290921965743938e+00 1.012999496947058e+00 7.309648912679486e-01 3.290921965743938e+00 2.310658953521157e+00 7.184725836960756e-01 1.835549620249546e+00 1.616352840321489e+00 3.482670912130522e+00 1.835549620249546e+00 2.993186945282488e+00 3.482670912130522e+00 5.259717074446436e+00 2.993186945282488e+00 3.290921965743938e+00 5.259717074446436e+00 5.742351621447598e+00 3.290921965743938e+00 2.310658953521157e+00 5.742351621447598e+00 4.394386184255599e+00 
				</DataArray>
			</PointData>
			<CellData>
			</CellData>
		</Piece>
	</UnstructuredGrid>
</VTKFile>