<?xml version="1.0"?>
<VTKFile type="UnstructuredGrid" byte_order="LittleEndian">
	<UnstructuredGrid>
		<Piece NumberOfPoints="64" NumberOfCells="16">
			<Points>
				<DataArray type="Float64" NumberOfComponents="3" format="ascii">
					-1.000000000000000e+00 -1.000000000000000e+00 0.000000000000000e+00
					-5.000000000000000e-01 -1.375000000000000e+00 0.000000000000000e+00
					-8.338955762008279e-01 -8.338955762008279e-01 0.000000000000000e+00
					-4.169477881004139e-01 -1.185458076200828e+00 0.000000000000000e+00
					-5.000000000000000e-01 -1.375000000000000e+00 0.000000000000000e+00
					1.387778780781446e-17 -1.500000000000000e+00 0.000000000000000e+00
					-4.169477881004139e-01 -1.185458076200828e+00 0.000000000000000e+00
					6.938893903907228e-18 -1.302645576200828e+00 0.000000000000000e+00
					1.387778780781446e-17 -1.500000000000000e+00 0.000000000000000e+00
					5.000000000000000e-01 -1.375000000000000e+00 0.000000000000000e+00
					6.938893903907228e-18 -1.302645576200828e+00 0.000000000000000e+00
					4.169477881004139e-01 -1.185458076200828e+00 0.000000000000000e+00
					5.000000000000000e-01 -1.375000000000000e+00 0.000000000000000e+00
					1.000000000000000e+00 -1.000000000000000e+00 0.000000000000000e+00
					4.169477881004139e-01 -1.185458076200828e+00 0.000000000000000e+00
					8.338955762008279e-01 -8.338955762008279e-01 0.000000000000000e+00
					-8.338955762008279e-01 -8.338955762008279e-01 0.000000000000000e+00
					-4.169477881004139e-01 -1.185458076200828e+00 0.000000000000000e+00
					-6.951941016011038e-01 -6.951941016011038e-01 0.000000000000000e+00
					-3.475970508005519e-01 -9.764441016011038e-01 0.000000000000000e+00
					-4.169477881004139e-01 -1.185458076200828e+00 0.000000000000000e+00
					6.938893903907228e-18 -1.302645576200828e+00 0.000000000000000e+00
					-3.475970508005519e-01 -9.764441016011038e-01 0.000000000000000e+00
					0.000000000000000e+00 -1.070194101601104e+00 0.000000000000000e+00
					6.938893903907228e-18 -1.302645576200828e+00 0.000000000000000e+00
					4.169477881004139e-01 -1.185458076200828e+00 0.000000000000000e+00
					0.000000000000000e+00 -1.070194101601104e+00 0.000000000000000e+00
					3.475970508005519e-01 -9.764441016011038e-01 0.000000000000000e+00
					4.169477881004139e-01 -1.185458076200828e+00 0.000000000000000e+00
					8.338955762008279e-01 -8.338955762008279e-01 0.000000000000000e+00
					3.475970508005519e-01 -9.764441016011038e-01 0.000000000000000e+00
					6.951941016011038e-01 -6.951941016011038e-01 0.000000000000000e+00
					-6.951941016011038e-01 -6.951941016011038e-01 0.000000000000000e+00
					-3.475970508005519e-01 -9.764441016011038e-01 0.000000000000000e+00
					-5.838955762008279e-01 -5.838955762008279e-01 0.000000000000000e+00
					-2.919477881004139e-01 -7.479580762008278e-01 0.000000000000000e+00
					-3.475970508005519e-01 -9.764441016011038e-01 0.000000000000000e+00
					0.000000000000000e+00 -1.070194101601104e+00 0.000000000000000e+00
					-2.919477881004139e-01 -7.479580762008278e-01 0.000000000000000e+00
					6.938893903907228e-18 -8.026455762008278e-01 0.000000000000000e+00
					0.000000000000000e+00 -1.070194101601104e+00 0.000000000000000e+00
					3.475970508005519e-01 -9.764441016011038e-01 0.000000000000000e+00
					6.938893903907228e-18 -8.026455762008278e-01 0.000000000000000e+00
					2.919477881004139e-01 -7.479580762008278e-01 0.000000000000000e+00
					3.475970508005519e-01 -9.764441016011038e-01 0.000000000000000e+00
					6.951941016011038e-01 -6.951941016011038e-01 0.000000000000000e+00
					2.919477881004139e-01 -7.479580762008278e-01 0.000000000000000e+00
					5.838955762008279e-01 -5.838955762008279e-01 0.000000000000000e+00
					-5.838955762008279e-01 -5.838955762008279e-01 0.000000000000000e+00
					-2.919477881004139e-01 -7.479580762008278e-01 0.000000000000000e+00
					-5.000000000000000e-01 -5.000000000000000e-01 0.000000000000000e+00
					-2.500000000000000e-01 -5.000000000000000e-01 0.000000000000000e+00
					-2.919477881004139e-01 -7.479580762008278e-01 0.000000000000000e+00
					6.938893903907228e-18 -8.026455762008278e-01 0.000000000000000e+00
					-2.500000000000000e-01 -5.000000000000000e-01 0.000000000000000e+00
					6.938893903907228e-18 -5.000000000000000e-01 0.000000000000000e+00
					6.938893903907228e-18 -8.026455762008278e-01 0.000000000000000e+00
					2.919477881004139e-01 -7.479580762008278e-01 0.000000000000000e+00
					6.938893903907228e-18 -5.000000000000000e-01 0.000000000000000e+00
					2.500000000000000e-01 -5.000000000000000e-01 0.000000000000000e+00
					2.919477881004139e-01 -7.479580762008278e-01 0.000000000000000e+00
					5.838955762008279e-01 -5.838955762008279e-01 0.000000000000000e+00
					2.500000000000000e-01 -5.000000000000000e-01 0.000000000000000e+00
					5.000000000000000e-01 -5.000000000000000e-01 0.000000000000000e+00
				</DataArray>
			</Points>
			<Cells>
				<DataArray Name="connectivity" type="UInt32" format="ascii">
					0 1 3 2 4 5 7 6 8 9 11 10 12 13 15 14 16 17 19 18 20 21 23 22 24 25 27 26 28 29 31 30 32 33 35 34 36 37 39 38 40 41 43 42 44 45 47 46 48 49 51 50 52 53 55 54 56 57 59 58 60 61 63 62 
				</DataArray>
				<DataArray Name="offsets" type="UInt32" format="ascii">
					4 8 12 16 20 24 28 32 36 40 44 48 52 56 60 64 
				</DataArray>
				<DataArray Name="types" type="UInt8" format="ascii">
					9 9 9 9 9 9 9 9 9 9 9 9 9 9 9 9 
				</DataArray>
			</Cells>
			<PointData Vectors="solution ">
				<DataArray Name="solution" type="Float64" NumberOfComponents="1" format="ascii">
					0.000000000000000e+00 0.000000000000000e+00 2.891069061460945e-01 8.224518568924775e-01 0.000000000000000e+00 0.000000000000000e+00 8.224518568924776e-01 8.425061646636796e-01 0.000000000000000e+00 0.000000000000000e+00 8.425061646636797e-01 1.059363576805793e+00 0.000000000000000e+00 0.000000000000000e+00 1.059363576805793e+00 4.862024097670439e-01 2.891069061460945e-01 8.224518568924777e-01 1.025644590760713e+00 2.849746677952045e+00 8.224518568924777e-01 8.425061646636798e-01 2.849746677952046e+00 3.411312650005088e+00 8.425061646636798e-01 1.059363576805793e+00 3.411312650005089e+00 3.675342692498158e+00 1.059363576805793e+00 4.862024097670440e-01 3.675342692498158e+00 1.724866505864617e+00 1.025644590760714e+00 2.849746677952046e+00 2.013438445089575e+00 5.295074711050265e+00 2.849746677952046e+00 3.411312650005089e+00 5.295074711050266e+00 6.991135754053264e+00 3.411312650005089e+00 3.675342692498159e+00 6.991135754053265e+00 6.994237862150226e+00 3.675342692498159e+00 1.724866505864617e+00 6.994237862150228e+00 3.386077586289531e+00 2.013438445089576e+00 5.295074711050266e+00 3.056313741133675e+00 6.736630457759250e+00 5.295074711050266e+00 6.991135754053264e+00 6.736630457759251e+00 9.118580448804590e+00 6.991135754053265e+00 6.994237862150227e+00 9.118580448804590e+00 9.084201739527156e+00 6.994237862150228e+00 3.386077586289532e+00 9.084201739527158e+00 5.139920945065924e+00 
				</DataArray>
			</PointData>
			<CellData>
			</CellData>
		</Piece>
	</UnstructuredGrid>
</VTKFile>