<?xml version="1.0"?>
<VTKFile type="UnstructuredGrid" byte_order="LittleEndian">
	<UnstructuredGrid>
		<Piece NumberOfPoints="256" NumberOfCells="64">
			<Points>
				<DataArray type="Float64" NumberOfComponents="3" format="ascii">
					-1.000000000000000e+00 -1.000000000000000e+00 0.000000000000000e+00
					-7.500000000000000e-01 -1.218750000000000e+00 0.000000000000000e+00
					-9.135224194504830e-01 -9.135224194504830e-01 0.000000000000000e+00
					-6.851418145878622e-01 -1.128854450700483e+00 0.000000000000000e+00
					-7.500000000000000e-01 -1.218750000000000e+00 0.000000000000000e+00
					-5.000000000000000e-01 -1.375000000000000e+00 0.000000000000000e+00
					-6.851418145878622e-01 -1.128854450700483e+00 0.000000000000000e+00
					-4.567612097252415e-01 -1.282663044450483e+00 0.000000000000000e+00
					-5.000000000000000e-01 -1.375000000000000e+00 0.000000000000000e+00
					-2.500000000000000e-01 -1.468750000000000e+00 0.000000000000000e+00
					-4.567612097252415e-01 -1.282663044450483e+00 0.000000000000000e+00
					-2.283806048626207e-01 -1.374948200700483e+00 0.000000000000000e+00
					-2.500000000000000e-01 -1.468750000000000e+00 0.000000000000000e+00
					0.000000000000000e+00 -1.500000000000000e+00 0.000000000000000e+00
					-2.283806048626207e-01 -1.374948200700483e+00 0.000000000000000e+00
					1.040834085586084e-17 -1.405709919450483e+00 0.000000000000000e+00
					0.000000000000000e+00 -1.500000000000000e+00 0.000000000000000e+00
					2.500000000000000e-01 -1.468750000000000e+00 0.000000000000000e+00
					1.040834085586084e-17 -1.405709919450483e+00 0.000000000000000e+00
					2.283806048626208e-01 -1.374948200700483e+00 0.000000000000000e+00
					2.500000000000000e-01 -1.468750000000000e+00 0.000000000000000e+00
					5.000000000000000e-01 -1.375000000000000e+00 0.000000000000000e+00
					2.283806048626208e-01 -1.374948200700483e+00 0.000000000000000e+00
					4.567612097252415e-01 -1.282663044450483e+00 0.000000000000000e+00
					5.000000000000000e-01 -1.375000000000000e+00 0.000000000000000e+00
					7.500000000000000e-01 -1.218750000000000e+00 0.000000000000000e+00
					4.567612097252415e-01 -1.282663044450483e+00 0.000000000000000e+00
					6.851418145878623e-01 -1.128854450700483e+00 0.000000000000000e+00
					7.500000000000000e-01 -1.218750000000000e+00 0.000000000000000e+00
					1.000000000000000e+00 -1.000000000000000e+00 0.000000000000000e+00
					6.851418145878623e-01 -1.128854450700483e+00 0.000000000000000e+00
					9.135224194504830e-01 -9.135224194504830e-01 0.000000000000000e+00
					-9.135224194504830e-01 -9.135224194504830e-01 0.000000000000000e+00
					-6.851418145878622e-01 -1.128854450700483e+00 0.000000000000000e+00
					-8.338955762008279e-01 -8.338955762008279e-01 0.000000000000000e+00
					-6.254216821506209e-01 -1.038973701200828e+00 0.000000000000000e+00
					-6.851418145878622e-01 -1.128854450700483e+00 0.000000000000000e+00
					-4.567612097252415e-01 -1.282663044450483e+00 0.000000000000000e+00
					-6.254216821506209e-01 -1.038973701200828e+00 0.000000000000000e+00
					-4.169477881004140e-01 -1.185458076200828e+00 0.000000000000000e+00
					-4.567612097252415e-01 -1.282663044450483e+00 0.000000000000000e+00
					-2.283806048626207e-01 -1.374948200700483e+00 0.000000000000000e+00
					-4.169477881004140e-01 -1.185458076200828e+00 0.000000000000000e+00
					-2.084738940502070e-01 -1.273348701200828e+00 0.000000000000000e+00
					-2.283806048626207e-01 -1.374948200700483e+00 0.000000000000000e+00
					1.040834085586084e-17 -1.405709919450483e+00 0.000000000000000e+00
					-2.084738940502070e-01 -1.273348701200828e+00 0.000000000000000e+00
					1.734723475976807e-17 -1.302645576200828e+00 0.000000000000000e+00
					1.040834085586084e-17 -1.405709919450483e+00 0.000000000000000e+00
					2.283806048626208e-01 -1.374948200700483e+00 0.000000000000000e+00
					1.734723475976807e-17 -1.302645576200828e+00 0.000000000000000e+00
					2.084738940502070e-01 -1.273348701200828e+00 0.000000000000000e+00
					2.283806048626208e-01 -1.374948200700483e+00 0.000000000000000e+00
					4.567612097252415e-01 -1.282663044450483e+00 0.000000000000000e+00
					2.084738940502070e-01 -1.273348701200828e+00 0.000000000000000e+00
					4.169477881004140e-01 -1.185458076200828e+00 0.000000000000000e+00
					4.567612097252415e-01 -1.282663044450483e+00 0.000000000000000e+00
					6.851418145878623e-01 -1.128854450700483e+00 0.000000000000000e+00
					4.169477881004140e-01 -1.185458076200828e+00 0.000000000000000e+00
					6.254216821506209e-01 -1.038973701200828e+00 0.000000000000000e+00
					6.851418145878623e-01 -1.128854450700483e+00 0.000000000000000e+00
					9.135224194504830e-01 -9.135224194504830e-01 0.000000000000000e+00
					6.254216821506209e-01 -1.038973701200828e+00 0.000000000000000e+00
					8.338955762008279e-01 -8.338955762008279e-01 0.000000000000000e+00
					-8.338955762008279e-01 -8.338955762008279e-01 0.000000000000000e+00
					-6.254216821506209e-01 -1.038973701200828e+00 0.000000000000000e+00
					-7.611194702510349e-01 -7.611194702510349e-01 0.000000000000000e+00
					-5.708396026882762e-01 -9.491077515010351e-01 0.000000000000000e+00
					-6.254216821506209e-01 -1.038973701200828e+00 0.000000000000000e+00
					-4.169477881004140e-01 -1.185458076200828e+00 0.000000000000000e+00
					-5.708396026882762e-01 -9.491077515010351e-01 0.000000000000000e+00
					-3.805597351255174e-01 -1.083385095251035e+00 0.000000000000000e+00
					-4.169477881004140e-01 -1.185458076200828e+00 0.000000000000000e+00
					-2.084738940502070e-01 -1.273348701200828e+00 0.000000000000000e+00
					-3.805597351255174e-01 -1.083385095251035e+00 0.000000000000000e+00
					-1.902798675627587e-01 -1.163951501501035e+00 0.000000000000000e+00
					-2.084738940502070e-01 -1.273348701200828e+00 0.000000000000000e+00
					1.734723475976807e-17 -1.302645576200828e+00 0.000000000000000e+00
					-1.902798675627587e-01 -1.163951501501035e+00 0.000000000000000e+00
					2.428612866367530e-17 -1.190806970251035e+00 0.000000000000000e+00
					1.734723475976807e-17 -1.302645576200828e+00 0.000000000000000e+00
					2.084738940502070e-01 -1.273348701200828e+00 0.000000000000000e+00
					2.428612866367530e-17 -1.190806970251035e+00 0.000000000000000e+00
					1.902798675627587e-01 -1.163951501501035e+00 0.000000000000000e+00
					2.084738940502070e-01 -1.273348701200828e+00 0.000000000000000e+00
					4.169477881004140e-01 -1.185458076200828e+00 0.000000000000000e+00
					1.902798675627587e-01 -1.163951501501035e+00 0.000000000000000e+00
					3.805597351255174e-01 -1.083385095251035e+00 0.000000000000000e+00
					4.169477881004140e-01 -1.185458076200828e+00 0.000000000000000e+00
					6.254216821506209e-01 -1.038973701200828e+00 0.000000000000000e+00
					3.805597351255174e-01 -1.083385095251035e+00 0.000000000000000e+00
					5.708396026882762e-01 -9.491077515010349e-01 0.000000000000000e+00
					6.254216821506209e-01 -1.038973701200828e+00 0.000000000000000e+00
					8.338955762008279e-01 -8.338955762008279e-01 0.000000000000000e+00
					5.708396026882762e-01 -9.491077515010349e-01 0.000000000000000e+00
					7.611194702510349e-01 -7.611194702510349e-01 0.000000000000000e+00
					-7.611194702510349e-01 -7.611194702510349e-01 0.000000000000000e+00
					-5.708396026882762e-01 -9.491077515010351e-01 0.000000000000000e+00
					-6.951941016011038e-01 -6.951941016011038e-01 0.000000000000000e+00
					-5.213955762008279e-01 -8.592566016011041e-01 0.000000000000000e+00
					-5.708396026882762e-01 -9.491077515010351e-01 0.000000000000000e+00
					-3.805597351255174e-01 -1.083385095251035e+00 0.000000000000000e+00
					-5.213955762008279e-01 -8.592566016011041e-01 0.000000000000000e+00
					-3.475970508005519e-01 -9.764441016011041e-01 0.000000000000000e+00
					-3.805597351255174e-01 -1.083385095251035e+00 0.000000000000000e+00
					-1.902798675627587e-01 -1.163951501501035e+00 0.000000000000000e+00
					-3.475970508005519e-01 -9.764441016011041e-01 0.000000000000000e+00
					-1.737985254002760e-01 -1.046756601601104e+00 0.000000000000000e+00
					-1.902798675627587e-01 -1.163951501501035e+00 0.000000000000000e+00
					2.428612866367530e-17 -1.190806970251035e+00 0.000000000000000e+00
					-1.737985254002760e-01 -1.046756601601104e+00 0.000000000000000e+00
					2.428612866367530e-17 -1.070194101601104e+00 0.000000000000000e+00
					2.428612866367530e-17 -1.190806970251035e+00 0.000000000000000e+00
					1.902798675627587e-01 -1.163951501501035e+00 0.000000000000000e+00
					2.428612866367530e-17 -1.070194101601104e+00 0.000000000000000e+00
					1.737985254002760e-01 -1.046756601601104e+00 0.000000000000000e+00
					1.902798675627587e-01 -1.163951501501035e+00 0.000000000000000e+00
					3.805597351255174e-01 -1.083385095251035e+00 0.000000000000000e+00
					1.737985254002760e-01 -1.046756601601104e+00 0.000000000000000e+00
					3.475970508005519e-01 -9.764441016011040e-01 0.000000000000000e+00
					3.805597351255174e-01 -1.083385095251035e+00 0.000000000000000e+00
					5.708396026882762e-01 -9.491077515010349e-01 0.000000000000000e+00
					3.475970508005519e-01 -9.764441016011040e-01 0.000000000000000e+00
					5.213955762008279e-01 -8.592566016011038e-01 0.000000000000000e+00
					5.708396026882762e-01 -9.491077515010349e-01 0.000000000000000e+00
					7.611194702510349e-01 -7.611194702510349e-01 0.000000000000000e+00
					5.213955762008279e-01 -8.592566016011038e-01 0.000000000000000e+00
					6.951941016011038e-01 -6.951941016011038e-01 0.000000000000000e+00
					-6.951941016011038e-01 -6.951941016011038e-01 0.000000000000000e+00
					-5.213955762008279e-01 -8.592566016011041e-01 0.000000000000000e+00
					-6.361194702510349e-01 -6.361194702510349e-01 0.000000000000000e+00
					-4.770896026882762e-01 -7.694202515010350e-01 0.000000000000000e+00
					-5.213955762008279e-01 -8.592566016011041e-01 0.000000000000000e+00
					-3.475970508005519e-01 -9.764441016011041e-01 0.000000000000000e+00
					-4.770896026882762e-01 -7.694202515010350e-01 0.000000000000000e+00
					-3.180597351255174e-01 -8.646350952510350e-01 0.000000000000000e+00
					-3.475970508005519e-01 -9.764441016011041e-01 0.000000000000000e+00
					-1.737985254002760e-01 -1.046756601601104e+00 0.000000000000000e+00
					-3.180597351255174e-01 -8.646350952510350e-01 0.000000000000000e+00
					-1.590298675627587e-01 -9.217640015010350e-01 0.000000000000000e+00
					-1.737985254002760e-01 -1.046756601601104e+00 0.000000000000000e+00
					2.428612866367530e-17 -1.070194101601104e+00 0.000000000000000e+00
					-1.590298675627587e-01 -9.217640015010350e-01 0.000000000000000e+00
					1.734723475976807e-17 -9.408069702510350e-01 0.000000000000000e+00
					2.428612866367530e-17 -1.070194101601104e+00 0.000000000000000e+00
					1.737985254002760e-01 -1.046756601601104e+00 0.000000000000000e+00
					1.734723475976807e-17 -9.408069702510350e-01 0.000000000000000e+00
					1.590298675627587e-01 -9.217640015010350e-01 0.000000000000000e+00
					1.737985254002760e-01 -1.046756601601104e+00 0.000000000000000e+00
					3.475970508005519e-01 -9.764441016011040e-01 0.000000000000000e+00
					1.590298675627587e-01 -9.217640015010350e-01 0.000000000000000e+00
					3.180597351255174e-01 -8.646350952510350e-01 0.000000000000000e+00
					3.475970508005519e-01 -9.764441016011040e-01 0.000000000000000e+00
					5.213955762008279e-01 -8.592566016011038e-01 0.000000000000000e+00
					3.180597351255174e-01 -8.646350952510350e-01 0.000000000000000e+00
					4.770896026882762e-01 -7.694202515010349e-01 0.000000000000000e+00
					5.213955762008279e-01 -8.592566016011038e-01 0.000000000000000e+00
					6.951941016011038e-01 -6.951941016011038e-01 0.000000000000000e+00
					4.770896026882762e-01 -7.694202515010349e-01 0.000000000000000e+00
					6.361194702510349e-01 -6.361194702510349e-01 0.000000000000000e+00
					-6.361194702510349e-01 -6.361194702510349e-01 0.000000000000000e+00
					-4.770896026882762e-01 -7.694202515010350e-01 0.000000000000000e+00
					-5.838955762008278e-01 -5.838955762008278e-01 0.000000000000000e+00
					-4.379216821506209e-01 -6.795987012008280e-01 0.000000000000000e+00
					-4.770896026882762e-01 -7.694202515010350e-01 0.000000000000000e+00
					-3.180597351255174e-01 -8.646350952510350e-01 0.000000000000000e+00
					-4.379216821506209e-01 -6.795987012008280e-01 0.000000000000000e+00
					-2.919477881004139e-01 -7.479580762008280e-01 0.000000000000000e+00
					-3.180597351255174e-01 -8.646350952510350e-01 0.000000000000000e+00
					-1.590298675627587e-01 -9.217640015010350e-01 0.000000000000000e+00
					-2.919477881004139e-01 -7.479580762008280e-01 0.000000000000000e+00
					-1.459738940502069e-01 -7.889737012008280e-01 0.000000000000000e+00
					-1.590298675627587e-01 -9.217640015010350e-01 0.000000000000000e+00
					1.734723475976807e-17 -9.408069702510350e-01 0.000000000000000e+00
					-1.459738940502069e-01 -7.889737012008280e-01 0.000000000000000e+00
					1.040834085586084e-17 -8.026455762008280e-01 0.000000000000000e+00
					1.734723475976807e-17 -9.408069702510350e-01 0.000000000000000e+00
					1.590298675627587e-01 -9.217640015010350e-01 0.000000000000000e+00
					1.040834085586084e-17 -8.026455762008280e-01 0.000000000000000e+00
					1.459738940502070e-01 -7.889737012008280e-01 0.000000000000000e+00
					1.590298675627587e-01 -9.217640015010350e-01 0.000000000000000e+00
					3.180597351255174e-01 -8.646350952510350e-01 0.000000000000000e+00
					1.459738940502070e-01 -7.889737012008280e-01 0.000000000000000e+00
					2.919477881004139e-01 -7.479580762008280e-01 0.000000000000000e+00
					3.180597351255174e-01 -8.646350952510350e-01 0.000000000000000e+00
					4.770896026882762e-01 -7.694202515010349e-01 0.000000000000000e+00
					2.919477881004139e-01 -7.479580762008280e-01 0.000000000000000e+00
					4.379216821506209e-01 -6.795987012008278e-01 0.000000000000000e+00
					4.770896026882762e-01 -7.694202515010349e-01 0.000000000000000e+00
					6.361194702510349e-01 -6.361194702510349e-01 0.000000000000000e+00
					4.379216821506209e-01 -6.795987012008278e-01 0.000000000000000e+00
					5.838955762008278e-01 -5.838955762008278e-01 0.000000000000000e+00
					-5.838955762008278e-01 -5.838955762008278e-01 0.000000000000000e+00
					-4.379216821506209e-01 -6.795987012008280e-01 0.000000000000000e+00
					-5.385224194504830e-01 -5.385224194504830e-01 0.000000000000000e+00
					-4.038918145878622e-01 -5.897919507004830e-01 0.000000000000000e+00
					-4.379216821506209e-01 -6.795987012008280e-01 0.000000000000000e+00
					-2.919477881004139e-01 -7.479580762008280e-01 0.000000000000000e+00
					-4.038918145878622e-01 -5.897919507004830e-01 0.000000000000000e+00
					-2.692612097252414e-01 -6.264130444504830e-01 0.000000000000000e+00
					-2.919477881004139e-01 -7.479580762008280e-01 0.000000000000000e+00
					-1.459738940502069e-01 -7.889737012008280e-01 0.000000000000000e+00
					-2.692612097252414e-01 -6.264130444504830e-01 0.000000000000000e+00
					-1.346306048626207e-01 -6.483857007004830e-01 0.000000000000000e+00
					-1.459738940502069e-01 -7.889737012008280e-01 0.000000000000000e+00
					1.040834085586084e-17 -8.026455762008280e-01 0.000000000000000e+00
					-1.346306048626207e-01 -6.483857007004830e-01 0.000000000000000e+00
					3.469446951953614e-18 -6.557099194504830e-01 0.000000000000000e+00
					1.040834085586084e-17 -8.026455762008280e-01 0.000000000000000e+00
					1.459738940502070e-01 -7.889737012008280e-01 0.000000000000000e+00
					3.469446951953614e-18 -6.557099194504830e-01 0.000000000000000e+00
					1.346306048626207e-01 -6.483857007004830e-01 0.000000000000000e+00
					1.459738940502070e-01 -7.889737012008280e-01 0.000000000000000e+00
					2.919477881004139e-01 -7.479580762008280e-01 0.000000000000000e+00
					1.346306048626207e-01 -6.483857007004830e-01 0.000000000000000e+00
					2.692612097252414e-01 -6.264130444504828e-01 0.000000000000000e+00
					2.919477881004139e-01 -7.479580762008280e-01 0.000000000000000e+00
					4.379216821506209e-01 -6.795987012008278e-01 0.000000000000000e+00
					2.692612097252414e-01 -6.264130444504828e-01 0.000000000000000e+00
					4.038918145878622e-01 -5.897919507004828e-01 0.000000000000000e+00
					4.379216821506209e-01 -6.795987012008278e-01 0.000000000000000e+00
					5.838955762008278e-01 -5.838955762008278e-01 0.000000000000000e+00
					4.038918145878622e-01 -5.897919507004828e-01 0.000000000000000e+00
					5.385224194504830e-01 -5.385224194504830e-01 0.000000000000000e+00
					-5.385224194504830e-01 -5.385224194504830e-01 0.000000000000000e+00
					-4.038918145878622e-01 -5.897919507004830e-01 0.000000000000000e+00
					-5.000000000000000e-01 -5.000000000000000e-01 0.000000000000000e+00
					-3.750000000000000e-01 -5.000000000000000e-01 0.000000000000000e+00
					-4.038918145878622e-01 -5.897919507004830e-01 0.000000000000000e+00
					-2.692612097252414e-01 -6.264130444504830e-01 0.000000000000000e+00
					-3.750000000000000e-01 -5.000000000000000e-01 0.000000000000000e+00
					-2.500000000000000e-01 -5.000000000000000e-01 0.000000000000000e+00
					-2.692612097252414e-01 -6.264130444504830e-01 0.000000000000000e+00
					-1.346306048626207e-01 -6.483857007004830e-01 0.000000000000000e+00
					-2.500000000000000e-01 -5.000000000000000e-01 0.000000000000000e+00
					-1.250000000000000e-01 -5.000000000000000e-01 0.000000000000000e+00
					-1.346306048626207e-01 -6.483857007004830e-01 0.000000000000000e+00
					3.469446951953614e-18 -6.557099194504830e-01 0.000000000000000e+00
					-1.250000000000000e-01 -5.000000000000000e-01 0.000000000000000e+00
					0.000000000000000e+00 -5.000000000000000e-01 0.000000000000000e+00
					3.469446951953614e-18 -6.557099194504830e-01 0.000000000000000e+00
					1.346306048626207e-01 -6.483857007004830e-01 0.000000000000000e+00
					0.000000000000000e+00 -5.000000000000000e-01 0.000000000000000e+00
					1.250000000000000e-01 -5.000000000000000e-01 0.000000000000000e+00
					1.346306048626207e-01 -6.483857007004830e-01 0.000000000000000e+00
					2.692612097252414e-01 -6.264130444504828e-01 0.000000000000000e+00
					1.250000000000000e-01 -5.000000000000000e-01 0.000000000000000e+00
					2.500000000000000e-01 -5.000000000000000e-01 0.000000000000000e+00
					2.692612097252414e-01 -6.264130444504828e-01 0.000000000000000e+00
					4.038918145878622e-01 -5.897919507004828e-01 0.000000000000000e+00
					2.500000000000000e-01 -5.000000000000000e-01 0.000000000000000e+00
					3.750000000000000e-01 -5.000000000000000e-01 0.000000000000000e+00
					4.038918145878622e-01 -5.897919507004828e-01 0.000000000000000e+00
					5.385224194504830e-01 -5.385224194504830e-01 0.000000000000000e+00
					3.750000000000000e-01 -5.000000000000000e-01 0.000000000000000e+00
					5.000000000000000e-01 -5.000000000000000e-01 0.000000000000000e+00
				</DataArray>
			</Points>
			<Cells>
				<DataArray Name="connectivity" type="UInt32" format="ascii">
					0 1 3 2 4 5 7 6 8 9 11 10 12 13 15 14 16 17 19 18 20 21 23 22 24 25 27 26 28 29 31 30 32 33 35 34 36 37 39 38 40 41 43 42 44 45 47 46 48 49 51 50 52 53 55 54 56 57 59 58 60 61 63 62 64 65 67 66 68 69 71 70 72 73 75 74 76 77 79 78 80 81 83 82 84 85 87 86 88 89 91 90 92 93 95 94 96 97 99 98 100 101 103 102 104 105 107 106 108 109 111 110 112 113 115 114 116 117 119 118 120 121 123 122 124 125 127 126 128 129 131 130 132 133 135 134 136 137 139 138 140 141 143 142 144 145 147 146 148 149 151 150 152 153 155 154 156 157 159 158 160 161 163 162 164 165 167 166 168 169 171 170 172 173 175 174 176 177 179 178 180 181 183 182 184 185 187 186 188 189 191 190 192 193 195 194 196 197 199 198 200 201 203 202 204 205 207 206 208 209 211 210 212 213 215 214 216 217 219 218 220 221 223 222 224 225 227 226 228 229 231 230 232 233 235 234 236 237 239 238 240 241 243 242 244 245 247 246 248 249 251 250 252 253 255 254 
				</DataArray>
				<DataArray Name="offsets" type="UInt32" format="ascii">
					4 8 12 16 20 24 28 32 36 40 44 48 52 56 60 64 68 72 76 80 84 88 92 96 100 104 108 112 116 120 124 128 132 136 140 144 148 152 156 160 164 168 172 176 180 184 188 192 196 200 204 208 212 216 220 224 228 232 236 240 244 248 252 256 
				</DataArray>
				<DataArray Name="types" type="UInt8" format="ascii">
					9 9 9 9 9 9 9 9 9 9 9 9 9 9 9 9 9 9 9 9 9 9 9 9 9 9 9 9 9 9 9 9 9 9 9 9 9 9 9 9 9 9 9 9 9 9 9 9 9 9 9 9 9 9 9 9 9 9 9 9 9 9 9 9 
				</DataArray>
			</Cells>
			<PointData Vectors="solution ">
				<DataArray Name="solution" type="Float64" NumberOfComponents="1" format="ascii">
					0.000000000000000e+00 0.000000000000000e+00 3.280965268163784e-01 2.682704619882766e-01 0.000000000000000e+00 0.000000000000000e+00 2.682704619882766e-01 1.575652494112395e-01 0.000000000000000e+00 0.000000000000000e+00 1.575652494112395e-01 9.162249852553668e-02 0.000000000000000e+00 0.000000000000000e+00 9.162249852553669e-02 5.769878867193878e-02 0.000000000000000e+00 0.000000000000000e+00 5.769878867193878e-02 3.816382226296058e-02 0.000000000000000e+00 0.000000000000000e+00 3.816382226296058e-02 1.274878727670315e-02 0.000000000000000e+00 0.000000000000000e+00 1.274878727670316e-02 -4.915026228514902e-02 0.000000000000000e+00 0.000000000000000e+00 -4.915026228514902e-02 -1.769921438978718e-01 3.280965268163784e-01 2.682704619882767e-01 1.161893436265956e+00 9.519259764049181e-01 2.682704619882767e-01 1.575652494112395e-01 9.519259764049181e-01 6.050628455466694e-01 1.575652494112395e-01 9.162249852553669e-02 6.050628455466696e-01 3.714019140321666e-01 9.162249852553669e-02 5.769878867193878e-02 3.714019140321667e-01 2.387036343411254e-01 5.769878867193880e-02 3.816382226296059e-02 2.387036343411255e-01 1.491730998692915e-01 3.816382226296059e-02 1.274878727670316e-02 1.491730998692915e-01 3.939360322707953e-02 1.274878727670316e-02 -4.915026228514903e-02 3.939360322707953e-02 -1.835259879492670e-01 -4.915026228514903e-02 -1.769921438978719e-01 -1.835259879492670e-01 -5.813049515743623e-01 1.161893436265957e+00 9.519259764049182e-01 2.284676146610048e+00 1.910332568237305e+00 9.519259764049182e-01 6.050628455466696e-01 1.910332568237305e+00 1.297324681644000e+00 6.050628455466696e-01 3.714019140321667e-01 1.297324681644001e+00 8.379644935993170e-01 3.714019140321667e-01 2.387036343411255e-01 8.379644935993170e-01 5.445067192574405e-01 2.387036343411255e-01 1.491730998692915e-01 5.445067192574408e-01 3.251195415926556e-01 1.491730998692916e-01 3.939360322707953e-02 3.251195415926556e-01 7.302648542665451e-02 3.939360322707953e-02 -1.835259879492671e-01 7.302648542665449e-02 -3.565319411906333e-01 -1.835259879492671e-01 -5.813049515743623e-01 -3.565319411906333e-01 -1.033216221717105e+00 2.284676146610049e+00 1.910332568237305e+00 3.498534690777076e+00 3.032887774195014e+00 1.910332568237306e+00 1.297324681644001e+00 3.032887774195014e+00 2.186299321473916e+00 1.297324681644001e+00 8.379644935993170e-01 2.186299321473916e+00 1.477656791627579e+00 8.379644935993171e-01 5.445067192574408e-01 1.477656791627579e+00 9.679108471335860e-01 5.445067192574408e-01 3.251195415926556e-01 9.679108471335860e-01 5.626240551163985e-01 3.251195415926557e-01 7.302648542665451e-02 5.626240551163985e-01 1.337012056107666e-01 7.302648542665453e-02 -3.565319411906334e-01 1.337012056107666e-01 -4.885026430947016e-01 -3.565319411906334e-01 -1.033216221717105e+00 -4.885026430947016e-01 -1.374248065908155e+00 3.498534690777077e+00 3.032887774195015e+00 4.633066822835167e+00 4.221831199069331e+00 3.032887774195015e+00 2.186299321473916e+00 4.221831199069331e+00 3.226808879817023e+00 2.186299321473917e+00 1.477656791627580e+00 3.226808879817023e+00 2.271751122666037e+00 1.477656791627580e+00 9.679108471335861e-01 2.271751122666037e+00 1.506910665710330e+00 9.679108471335861e-01 5.626240551163985e-01 1.506910665710330e+00 8.835347882005999e-01 5.626240551163986e-01 1.337012056107666e-01 8.835347882005999e-01 2.868381084579352e-01 1.337012056107666e-01 -4.885026430947016e-01 2.868381084579352e-01 -4.695211843464567e-01 -4.885026430947016e-01 -1.374248065908155e+00 -4.695211843464568e-01 -1.476828625040144e+00 4.633066822835168e+00 4.221831199069332e+00 5.572961844546551e+00 5.387404277258526e+00 4.221831199069332e+00 3.226808879817023e+00 5.387404277258527e+00 4.376763199059765e+00 3.226808879817023e+00 2.271751122666037e+00 4.376763199059766e+00 3.213747767371449e+00 2.271751122666037e+00 1.506910665710331e+00 3.213747767371449e+00 2.188609770411255e+00 1.506910665710331e+00 8.835347882005999e-01 2.188609770411256e+00 1.366700455754129e+00 8.835347882006002e-01 2.868381084579352e-01 1.366700455754130e+00 6.546172327304886e-01 2.868381084579352e-01 -4.695211843464568e-01 6.546172327304887e-01 -1.746693868235251e-01 -4.695211843464568e-01 -1.476828625040144e+00 -1.746693868235251e-01 -1.274509439308983e+00 5.572961844546553e+00 5.387404277258527e+00 6.308056021241288e+00 6.442355405173902e+00 5.387404277258528e+00 4.376763199059766e+00 6.442355405173903e+00 5.591594686277105e+00 4.376763199059766e+00 3.213747767371449e+00 5.591594686277107e+00 4.332967184170697e+00 3.213747767371449e+00 2.188609770411256e+00 4.332967184170698e+00 3.114926306723226e+00 2.188609770411256e+00 1.366700455754130e+00 3.114926306723226e+00 2.174167893918988e+00 1.366700455754130e+00 6.546172327304887e-01 2.174167893918988e+00 1.393234446435301e+00 6.546172327304887e-01 -1.746693868235251e-01 1.393234446435302e+00 4.860623809796220e-01 -1.746693868235251e-01 -1.274509439308983e+00 4.860623809796221e-01 -8.164881251845010e-01 6.308056021241289e+00 6.442355405173903e+00 6.849488984553728e+00 7.260746126840580e+00 6.442355405173904e+00 5.591594686277107e+00 7.260746126840582e+00 6.791831807431076e+00 5.591594686277107e+00 4.332967184170698e+00 6.791831807431077e+00 5.799548651854896e+00 4.332967184170699e+00 3.114926306723226e+00 5.799548651854897e+00 4.657959188945517e+00 3.114926306723226e+00 2.174167893918988e+00 4.657959188945517e+00 3.612006292941317e+00 2.174167893918988e+00 1.393234446435302e+00 3.612006292941317e+00 2.598931966777171e+00 1.393234446435302e+00 4.860623809796220e-01 2.598931966777172e+00 1.407298271637914e+00 4.860623809796221e-01 -8.164881251845011e-01 1.407298271637914e+00 -1.764139483802332e-01 
				</DataArray>
			</PointData>
			<CellData>
			</CellData>
		</Piece>
	</UnstructuredGrid>
</VTKFile>