<?xml version="1.0"?>
<VTKFile type="UnstructuredGrid" byte_order="LittleEndian">
	<UnstructuredGrid>
		<Piece NumberOfPoints="64" NumberOfCells="16">
			<Points>
				<DataArray type="Float64" NumberOfComponents="3" format="ascii">
					1.000000000000000e+00 -1.000000000000000e+00 0.000000000000000e+00
					1.375000000000000e+00 -5.000000000000000e-01 0.000000000000000e+00
					8.338955762008279e-01 -8.338955762008279e-01 0.000000000000000e+00
					1.185458076200828e+00 -4.169477881004139e-01 0.000000000000000e+00
					1.375000000000000e+00 -5.000000000000000e-01 0.000000000000000e+00
					1.500000000000000e+00 1.387778780781446e-17 0.000000000000000e+00
					1.185458076200828e+00 -4.169477881004139e-01 0.000000000000000e+00
					1.302645576200828e+00 6.938893903907228e-18 0.000000000000000e+00
					1.500000000000000e+00 1.387778780781446e-17 0.000000000000000e+00
					1.375000000000000e+00 5.000000000000000e-01 0.000000000000000e+00
					1.302645576200828e+00 6.938893903907228e-18 0.000000000000000e+00
					1.185458076200828e+00 4.169477881004139e-01 0.000000000000000e+00
					1.375000000000000e+00 5.000000000000000e-01 0.000000000000000e+00
					1.000000000000000e+00 1.000000000000000e+00 0.000000000000000e+00
					1.185458076200828e+00 4.169477881004139e-01 0.000000000000000e+00
					8.338955762008279e-01 8.338955762008279e-01 0.000000000000000e+00
					8.338955762008279e-01 -8.338955762008279e-01 0.000000000000000e+00
					1.185458076200828e+00 -4.169477881004139e-01 0.000000000000000e+00
					6.951941016011038e-01 -6.951941016011038e-01 0.000000000000000e+00
					9.764441016011038e-01 -3.475970508005519e-01 0.000000000000000e+00
					1.185458076200828e+00 -4.169477881004139e-01 0.000000000000000e+00
					1.302645576200828e+00 6.938893903907228e-18 0.000000000000000e+00
					9.764441016011038e-01 -3.475970508005519e-01 0.000000000000000e+00
					1.070194101601104e+00 0.000000000000000e+00 0.000000000000000e+00
					1.302645576200828e+00 6.938893903907228e-18 0.000000000000000e+00
					1.185458076200828e+00 4.169477881004139e-01 0.000000000000000e+00
					1.070194101601104e+00 0.000000000000000e+00 0.000000000000000e+00
					9.764441016011038e-01 3.475970508005519e-01 0.000000000000000e+00
					1.185458076200828e+00 4.169477881004139e-01 0.000000000000000e+00
					8.338955762008279e-01 8.338955762008279e-01 0.000000000000000e+00
					9.764441016011038e-01 3.475970508005519e-01 0.000000000000000e+00
					6.951941016011038e-01 6.951941016011038e-01 0.000000000000000e+00
					6.951941016011038e-01 -6.951941016011038e-01 0.000000000000000e+00
					9.764441016011038e-01 -3.475970508005519e-01 0.000000000000000e+00
					5.838955762008279e-01 -5.838955762008279e-01 0.000000000000000e+00
					7.479580762008278e-01 -2.919477881004139e-01 0.000000000000000e+00
					9.764441016011038e-01 -3.475970508005519e-01 0.000000000000000e+00
					1.070194101601104e+00 0.000000000000000e+00 0.000000000000000e+00
					7.479580762008278e-01 -2.919477881004139e-01 0.000000000000000e+00
					8.026455762008278e-01 6.938893903907228e-18 0.000000000000000e+00
					1.070194101601104e+00 0.000000000000000e+00 0.000000000000000e+00
					9.764441016011038e-01 3.475970508005519e-01 0.000000000000000e+00
					8.026455762008278e-01 6.938893903907228e-18 0.000000000000000e+00
					7.479580762008278e-01 2.919477881004139e-01 0.000000000000000e+00
					9.764441016011038e-01 3.475970508005519e-01 0.000000000000000e+00
					6.951941016011038e-01 6.951941016011038e-01 0.000000000000000e+00
					7.479580762008278e-01 2.919477881004139e-01 0.000000000000000e+00
					5.838955762008279e-01 5.838955762008279e-01 0.000000000000000e+00
					5.838955762008279e-01 -5.838955762008279e-01 0.000000000000000e+00
					7.479580762008278e-01 -2.919477881004139e-01 0.000000000000000e+00
					5.000000000000000e-01 -5.000000000000000e-01 0.000000000000000e+00
					5.000000000000000e-01 -2.500000000000000e-01 0.000000000000000e+00
					7.479580762008278e-01 -2.919477881004139e-01 0.000000000000000e+00
					8.026455762008278e-01 6.938893903907228e-18 0.000000000000000e+00
					5.000000000000000e-01 -2.500000000000000e-01 0.000000000000000e+00
					5.000000000000000e-01 6.938893903907228e-18 0.000000000000000e+00
					8.026455762008278e-01 6.938893903907228e-18 0.000000000000000e+00
					7.479580762008278e-01 2.919477881004139e-01 0.000000000000000e+00
					5.000000000000000e-01 6.938893903907228e-18 0.000000000000000e+00
					5.000000000000000e-01 2.500000000000000e-01 0.000000000000000e+00
					7.479580762008278e-01 2.919477881004139e-01 0.000000000000000e+00
					5.838955762008279e-01 5.838955762008279e-01 0.000000000000000e+00
					5.000000000000000e-01 2.500000000000000e-01 0.000000000000000e+00
					5.000000000000000e-01 5.000000000000000e-01 0.000000000000000e+00
				</DataArray>
			</Points>
			<Cells>
				<DataArray Name="connectivity" type="UInt32" format="ascii">
					0 1 3 2 4 5 7 6 8 9 11 10 12 13 15 14 16 17 19 18 20 21 23 22 24 25 27 26 28 29 31 30 32 33 35 34 36 37 39 38 40 41 43 42 44 45 47 46 48 49 51 50 52 53 55 54 56 57 59 58 60 61 63 62 
				</DataArray>
				<DataArray Name="offsets" type="UInt32" format="ascii">
					4 8 12 16 20 24 28 32 36 40 44 48 52 56 60 64 
				</DataArray>
				<DataArray Name="types" type="UInt8" format="ascii">
					9 9 9 9 9 9 9 9 9 9 9 9 9 9 9 9 
				</DataArray>
			</Cells>
			<PointData Vectors="solution ">
				<DataArray Name="solution" type="Float64" NumberOfComponents="1" format="ascii">
					0.000000000000000e+00 0.000000000000000e+00 4.862024097670439e-01 -4.321109960979371e-01 0.000000000000000e+00 0.000000000000000e+00 -4.321109960979372e-01 -3.752490145961990e-01 0.000000000000000e+00 0.000000000000000e+00 -3.752490145961990e-01 -7.558471761396810e-01 0.000000000000000e+00 0.000000000000000e+00 -7.558471761396812e-01 8.816589353769559e-01 4.862024097670440e-01 -4.321109960979372e-01 1.724866505864617e+00 -3.688892399145604e-01 -4.321109960979372e-01 -3.752490145961990e-01 -3.688892399145606e-01 -3.499833333473086e-01 -3.752490145961990e-01 -7.558471761396812e-01 -3.499833333473087e-01 3.905311354951090e-01 -7.558471761396816e-01 8.816589353769561e-01 3.905311354951090e-01 3.127799908409530e+00 1.724866505864617e+00 -3.688892399145605e-01 3.386077586289531e+00 2.394428751945250e+00 -3.688892399145606e-01 -3.499833333473087e-01 2.394428751945251e+00 4.292667953715100e+00 -3.499833333473086e-01 3.905311354951092e-01 4.292667953715100e+00 5.841746371254545e+00 3.905311354951091e-01 3.127799908409530e+00 5.841746371254546e+00 6.140169294671801e+00 3.386077586289532e+00 2.394428751945250e+00 5.139920945065924e+00 8.617010589091798e+00 2.394428751945251e+00 4.292667953715100e+00 8.617010589091800e+00 1.369433000567548e+01 4.292667953715100e+00 5.841746371254546e+00 1.369433000567549e+01 1.332722878433779e+01 5.841746371254547e+00 6.140169294671802e+00 1.332722878433779e+01 9.320513713715130e+00 
				</DataArray>
			</PointData>
			<CellData>
			</CellData>
		</Piece>
	</UnstructuredGrid>
</VTKFile>