<?xml version="1.0"?>
<VTKFile type="UnstructuredGrid" byte_order="LittleEndian">
	<UnstructuredGrid>
		<Piece NumberOfPoints="64" NumberOfCells="16">
			<Points>
				<DataArray type="Float64" NumberOfComponents="3" format="ascii">
					1.000000000000000e+00 -1.000000000000000e+00 0.000000000000000e+00
					1.375000000000000e+00 -5.000000000000000e-01 0.000000000000000e+00
					8.338955762008279e-01 -8.338955762008279e-01 0.000000000000000e+00
					1.044833076200828e+00 -4.169477881004139e-01 0.000000000000000e+00
					1.375000000000000e+00 -5.000000000000000e-01 0.000000000000000e+00
					1.500000000000000e+00 5.551115123125783e-17 0.000000000000000e+00
					1.044833076200828e+00 -4.169477881004139e-01 0.000000000000000e+00
					1.115145576200828e+00 4.857225732735060e-17 0.000000000000000e+00
					1.500000000000000e+00 5.551115123125783e-17 0.000000000000000e+00
					1.375000000000000e+00 5.000000000000000e-01 0.000000000000000e+00
					1.115145576200828e+00 4.857225732735060e-17 0.000000000000000e+00
					1.044833076200828e+00 4.169477881004139e-01 0.000000000000000e+00
					1.375000000000000e+00 5.000000000000000e-01 0.000000000000000e+00
					1.000000000000000e+00 1.000000000000000e+00 0.000000000000000e+00
					1.044833076200828e+00 4.169477881004139e-01 0.000000000000000e+00
					8.338955762008279e-01 8.338955762008279e-01 0.000000000000000e+00
					8.338955762008279e-01 -8.338955762008279e-01 0.000000000000000e+00
					1.044833076200828e+00 -4.169477881004139e-01 0.000000000000000e+00
					6.951941016011038e-01 -6.951941016011038e-01 0.000000000000000e+00
					7.889441016011038e-01 -3.475970508005519e-01 0.000000000000000e+00
					1.044833076200828e+00 -4.169477881004139e-01 0.000000000000000e+00
					1.115145576200828e+00 4.857225732735060e-17 0.000000000000000e+00
					7.889441016011038e-01 -3.475970508005519e-01 0.000000000000000e+00
					8.201941016011038e-01 4.163336342344337e-17 0.000000000000000e+00
					1.115145576200828e+00 4.857225732735060e-17 0.000000000000000e+00
					1.044833076200828e+00 4.169477881004139e-01 0.000000000000000e+00
					8.201941016011038e-01 4.163336342344337e-17 0.000000000000000e+00
					7.889441016011038e-01 3.475970508005519e-01 0.000000000000000e+00
					1.044833076200828e+00 4.169477881004139e-01 0.000000000000000e+00
					8.338955762008279e-01 8.338955762008279e-01 0.000000000000000e+00
					7.889441016011038e-01 3.475970508005519e-01 0.000000000000000e+00
					6.951941016011038e-01 6.951941016011038e-01 0.000000000000000e+00
					6.951941016011038e-01 -6.951941016011038e-01 0.000000000000000e+00
					7.889441016011038e-01 -3.475970508005519e-01 0.000000000000000e+00
					5.838955762008279e-01 -5.838955762008279e-01 0.000000000000000e+00
					6.073330762008279e-01 -2.919477881004139e-01 0.000000000000000e+00
					7.889441016011038e-01 -3.475970508005519e-01 0.000000000000000e+00
					8.201941016011038e-01 4.163336342344337e-17 0.000000000000000e+00
					6.073330762008279e-01 -2.919477881004139e-01 0.000000000000000e+00
					6.151455762008279e-01 3.469446951953614e-17 0.000000000000000e+00
					8.201941016011038e-01 4.163336342344337e-17 0.000000000000000e+00
					7.889441016011038e-01 3.475970508005519e-01 0.000000000000000e+00
					6.151455762008279e-01 3.469446951953614e-17 0.000000000000000e+00
					6.073330762008279e-01 2.919477881004139e-01 0.000000000000000e+00
					7.889441016011038e-01 3.475970508005519e-01 0.000000000000000e+00
					6.951941016011038e-01 6.951941016011038e-01 0.000000000000000e+00
					6.073330762008279e-01 2.919477881004139e-01 0.000000000000000e+00
					5.838955762008279e-01 5.838955762008279e-01 0.000000000000000e+00
					5.838955762008279e-01 -5.838955762008279e-01 0.000000000000000e+00
					6.073330762008279e-01 -2.919477881004139e-01 0.000000000000000e+00
					5.000000000000000e-01 -5.000000000000000e-01 0.000000000000000e+00
					5.000000000000000e-01 -2.500000000000000e-01 0.000000000000000e+00
					6.073330762008279e-01 -2.919477881004139e-01 0.000000000000000e+00
					6.151455762008279e-01 3.469446951953614e-17 0.000000000000000e+00
					5.000000000000000e-01 -2.500000000000000e-01 0.000000000000000e+00
					5.000000000000000e-01 2.775557561562891e-17 0.000000000000000e+00
					6.151455762008279e-01 3.469446951953614e-17 0.000000000000000e+00
					6.073330762008279e-01 2.919477881004139e-01 0.000000000000000e+00
					5.000000000000000e-01 2.775557561562891e-17 0.000000000000000e+00
					5.000000000000000e-01 2.500000000000000e-01 0.000000000000000e+00
					6.073330762008279e-01 2.919477881004139e-01 0.000000000000000e+00
					5.838955762008279e-01 5.838955762008279e-01 0.000000000000000e+00
					5.000000000000000e-01 2.500000000000000e-01 0.000000000000000e+00
					5.000000000000000e-01 5.000000000000000e-01 0.000000000000000e+00
				</DataArray>
			</Points>
			<Cells>
				<DataArray Name="connectivity" type="UInt32" format="ascii">
					0 1 3 2 4 5 7 6 8 9 11 10 12 13 15 14 16 17 19 18 20 21 23 22 24 25 27 26 28 29 31 30 32 33 35 34 36 37 39 38 40 41 43 42 44 45 47 46 48 49 51 50 52 53 55 54 56 57 59 58 60 61 63 62 
				</DataArray>
				<DataArray Name="offsets" type="UInt32" format="ascii">
					4 8 12 16 20 24 28 32 36 40 44 48 52 56 60 64 
				</DataArray>
				<DataArray Name="types" type="UInt8" format="ascii">
					9 9 9 9 9 9 9 9 9 9 9 9 9 9 9 9 
				</DataArray>
			</Cells>
			<PointData Vectors="solution ">
				<DataArray Name="solution" type="Float64" NumberOfComponents="1" format="ascii">
					0.000000000000000e+00 0.000000000000000e+00 6.813273243391885e-02 5.504428790200813e-01 0.000000000000000e+00 0.000000000000000e+00 5.504428790200813e-01 1.854662991579570e+00 0.000000000000000e+00 0.000000000000000e+00 1.854662991579570e+00 2.933883402728347e+00 0.000000000000000e+00 0.000000000000000e+00 2.933883402728347e+00 1.965340483961917e+00 6.813273243391885e-02 5.504428790200813e-01 7.299230515266750e-01 3.861523382179083e+00 5.504428790200813e-01 1.854662991579570e+00 3.861523382179083e+00 1.038235440231727e+01 1.854662991579570e+00 2.933883402728347e+00 1.038235440231727e+01 1.552117051121822e+01 2.933883402728347e+00 1.965340483961917e+00 1.552117051121822e+01 1.184815594969056e+01 7.299230515266750e-01 3.861523382179083e+00 2.309939614202481e+00 8.533181724348642e+00 3.861523382179083e+00 1.038235440231727e+01 8.533181724348642e+00 1.912707765303777e+01 1.038235440231727e+01 1.552117051121822e+01 1.912707765303777e+01 2.744563910664848e+01 1.552117051121822e+01 1.184815594969056e+01 2.744563910664848e+01 2.389783716199804e+01 2.309939614202481e+00 8.533181724348642e+00 4.390055993892864e+00 1.214608623126652e+01 8.533181724348642e+00 1.912707765303777e+01 1.214608623126652e+01 2.355949761141956e+01 1.912707765303777e+01 2.744563910664848e+01 2.355949761141956e+01 3.304189045311362e+01 2.744563910664848e+01 2.389783716199804e+01 3.304189045311362e+01 3.243991374490216e+01 
				</DataArray>
			</PointData>
			<CellData>
			</CellData>
		</Piece>
	</UnstructuredGrid>
</VTKFile>