1 0
2 0
3 0
4 0
5 0
6 0
7 0
8 0
9 0
10 0
11 0
12 0
13 0
14 0
15 0
16 0
17 0
18 0
19 0
20 0
21 0
22 0
23 0
24 0
25 0
26 0
27 0
28 0
29 0
30 0
31 0
32 0
33 0
34 0
35 0
36 0
37 0
38 0
39 0
40 0
41 0
42 0
43 0
44 0
45 0
46 0
47 0
48 0
49 0
50 0
51 0
52 0
53 0
54 0
55 0
56 0
57 0
58 0
59 0
60 0
61 0
62 0
63 0
64 0
65 0
66 0
67 0
68 0
69 0
70 0
71 0
72 0
73 0
74 0
75 0
76 0
77 0
78 0
79 0
80 0
81 0
82 0
83 0
84 0
85 0
86 0
87 0
88 0
89 0
90 0
91 0
92 0
93 0
94 0
95 0
96 0
97 0
98 0
99 0
100 0
101 0
102 0
103 0
104 0
105 0
106 0
107 0
108 0
109 0
110 0
111 0
112 0
113 0
114 0
115 0
116 0
117 0
118 0
119 0
120 0
121 0
122 0
123 0
124 0
125 0
126 0
127 0
128 0
129 0
130 0
131 0
132 0
133 0
134 0
135 0
136 0
137 0
138 0
139 0
140 0
141 0
142 0
143 0
144 0
145 0
146 0
147 0
148 0
149 0
150 0
151 0
152 0
153 0
154 0
155 0
156 0
157 0
158 0
159 0
160 0
161 0
162 0
163 0
164 0
165 0
166 0
167 0
168 0
169 0
170 0
171 0
172 0
173 0
174 0
175 0
176 0
177 0
178 0
179 0
180 0
181 0
182 0
183 0
184 0
185 0
186 0
187 0
188 0
189 0
190 0
191 0
192 0
193 0
194 0
195 0
196 0
197 0
198 0
199 0
200 0
201 0
202 0
203 0
204 0
205 0
206 0
207 0
208 0
209 0
210 0
211 0
212 0
213 0
214 0
215 0
216 0
217 0
218 0
219 0
220 0
221 0
222 0
223 0
224 0
225 0
226 0
227 0
228 0
229 0
230 1.000000e-15
231 1.000000e-15
232 1.000000e-15
233 1.898804e-03
234 1.900249e-03
235 1.900249e-03
236 1.901651e-03
237 2.699190e-03
238 2.753853e-03
239 2.753853e-03
240 2.829402e-03
241 3.223126e-03
242 3.324805e-03
243 3.324805e-03
244 3.405871e-03
245 7.789736e-03
246 7.792160e-03
247 7.792160e-03
248 7.794523e-03
249 2.171622e-02
250 2.171754e-02
251 2.171754e-02
252 2.171887e-02
253 1.259240e-01
254 1.259242e-01
255 1.259242e-01
256 1.259245e-01
257 1.634730e-01
258 1.641112e-01
259 1.641112e-01
260 1.661047e-01
261 1.673096e-01
262 1.688101e-01
263 1.688101e-01
264 1.688763e-01
265 1.702265e-01
266 1.732064e-01
267 1.732064e-01
268 1.768400e-01
269 1.844119e-01
270 1.844176e-01
271 1.844176e-01
272 1.844784e-01
273 1.978877e-01
274 2.025180e-01
275 2.025180e-01
276 2.058369e-01
277 2.058371e-01
278 2.058463e-01
279 2.058463e-01
280 2.102763e-01
281 2.104140e-01
282 2.150645e-01
283 2.150645e-01
284 2.150645e-01
285 2.150666e-01
286 2.167816e-01
287 2.167816e-01
288 2.196098e-01
289 2.272949e-01
290 2.272981e-01
291 2.272981e-01
292 2.273094e-01
293 2.284371e-01
294 2.291847e-01
295 2.291847e-01
296 2.293614e-01
297 2.294285e-01
298 2.295048e-01
299 2.295048e-01
300 2.298976e-01
301 2.326479e-01
302 2.328864e-01
303 2.328864e-01
304 2.332079e-01
305 2.375973e-01
306 2.379748e-01
307 2.379748e-01
308 2.383599e-01
309 2.396588e-01
310 2.398348e-01
311 2.398348e-01
312 2.399635e-01
313 2.444170e-01
314 2.444178e-01
315 2.444178e-01
316 2.444186e-01
