<?xml version="1.0"?>
<VTKFile type="UnstructuredGrid" byte_order="LittleEndian">
	<UnstructuredGrid>
		<Piece NumberOfPoints="256" NumberOfCells="64">
			<Points>
				<DataArray type="Float64" NumberOfComponents="3" format="ascii">
					-1.000000000000000e+00 -1.000000000000000e+00 0.000000000000000e+00
					-7.500000000000000e-01 -1.218750000000000e+00 0.000000000000000e+00
					-9.135224194504830e-01 -9.135224194504830e-01 0.000000000000000e+00
					-6.851418145878623e-01 -1.081002888200483e+00 0.000000000000000e+00
					-7.500000000000000e-01 -1.218750000000000e+00 0.000000000000000e+00
					-5.000000000000000e-01 -1.375000000000000e+00 0.000000000000000e+00
					-6.851418145878623e-01 -1.081002888200483e+00 0.000000000000000e+00
					-4.567612097252415e-01 -1.200631794450484e+00 0.000000000000000e+00
					-5.000000000000000e-01 -1.375000000000000e+00 0.000000000000000e+00
					-2.499999999999999e-01 -1.468750000000000e+00 0.000000000000000e+00
					-4.567612097252415e-01 -1.200631794450484e+00 0.000000000000000e+00
					-2.283806048626207e-01 -1.272409138200483e+00 0.000000000000000e+00
					-2.499999999999999e-01 -1.468750000000000e+00 0.000000000000000e+00
					6.938893903907228e-17 -1.500000000000000e+00 0.000000000000000e+00
					-2.283806048626207e-01 -1.272409138200483e+00 0.000000000000000e+00
					6.581107186987012e-17 -1.296334919450483e+00 0.000000000000000e+00
					6.938893903907228e-17 -1.500000000000000e+00 0.000000000000000e+00
					2.500000000000001e-01 -1.468750000000000e+00 0.000000000000000e+00
					6.581107186987012e-17 -1.296334919450483e+00 0.000000000000000e+00
					2.283806048626209e-01 -1.272409138200483e+00 0.000000000000000e+00
					2.500000000000001e-01 -1.468750000000000e+00 0.000000000000000e+00
					5.000000000000001e-01 -1.375000000000000e+00 0.000000000000000e+00
					2.283806048626209e-01 -1.272409138200483e+00 0.000000000000000e+00
					4.567612097252416e-01 -1.200631794450483e+00 0.000000000000000e+00
					5.000000000000001e-01 -1.375000000000000e+00 0.000000000000000e+00
					7.500000000000000e-01 -1.218750000000000e+00 0.000000000000000e+00
					4.567612097252416e-01 -1.200631794450483e+00 0.000000000000000e+00
					6.851418145878623e-01 -1.081002888200483e+00 0.000000000000000e+00
					7.500000000000000e-01 -1.218750000000000e+00 0.000000000000000e+00
					1.000000000000000e+00 -1.000000000000000e+00 0.000000000000000e+00
					6.851418145878623e-01 -1.081002888200483e+00 0.000000000000000e+00
					9.135224194504830e-01 -9.135224194504830e-01 0.000000000000000e+00
					-9.135224194504830e-01 -9.135224194504830e-01 0.000000000000000e+00
					-6.851418145878623e-01 -1.081002888200483e+00 0.000000000000000e+00
					-8.338955762008280e-01 -8.338955762008280e-01 0.000000000000000e+00
					-6.254216821506211e-01 -9.569424512008281e-01 0.000000000000000e+00
					-6.851418145878623e-01 -1.081002888200483e+00 0.000000000000000e+00
					-4.567612097252415e-01 -1.200631794450484e+00 0.000000000000000e+00
					-6.254216821506211e-01 -9.569424512008281e-01 0.000000000000000e+00
					-4.169477881004140e-01 -1.044833076200828e+00 0.000000000000000e+00
					-4.567612097252415e-01 -1.200631794450484e+00 0.000000000000000e+00
					-2.283806048626207e-01 -1.272409138200483e+00 0.000000000000000e+00
					-4.169477881004140e-01 -1.044833076200828e+00 0.000000000000000e+00
					-2.084738940502070e-01 -1.097567451200828e+00 0.000000000000000e+00
					-2.283806048626207e-01 -1.272409138200483e+00 0.000000000000000e+00
					6.581107186987012e-17 -1.296334919450483e+00 0.000000000000000e+00
					-2.084738940502070e-01 -1.097567451200828e+00 0.000000000000000e+00
					6.201636426617085e-17 -1.115145576200828e+00 0.000000000000000e+00
					6.581107186987012e-17 -1.296334919450483e+00 0.000000000000000e+00
					2.283806048626209e-01 -1.272409138200483e+00 0.000000000000000e+00
					6.201636426617085e-17 -1.115145576200828e+00 0.000000000000000e+00
					2.084738940502071e-01 -1.097567451200828e+00 0.000000000000000e+00
					2.283806048626209e-01 -1.272409138200483e+00 0.000000000000000e+00
					4.567612097252416e-01 -1.200631794450483e+00 0.000000000000000e+00
					2.084738940502071e-01 -1.097567451200828e+00 0.000000000000000e+00
					4.169477881004141e-01 -1.044833076200828e+00 0.000000000000000e+00
					4.567612097252416e-01 -1.200631794450483e+00 0.000000000000000e+00
					6.851418145878623e-01 -1.081002888200483e+00 0.000000000000000e+00
					4.169477881004141e-01 -1.044833076200828e+00 0.000000000000000e+00
					6.254216821506211e-01 -9.569424512008281e-01 0.000000000000000e+00
					6.851418145878623e-01 -1.081002888200483e+00 0.000000000000000e+00
					9.135224194504830e-01 -9.135224194504830e-01 0.000000000000000e+00
					6.254216821506211e-01 -9.569424512008281e-01 0.000000000000000e+00
					8.338955762008280e-01 -8.338955762008280e-01 0.000000000000000e+00
					-8.338955762008280e-01 -8.338955762008280e-01 0.000000000000000e+00
					-6.254216821506211e-01 -9.569424512008281e-01 0.000000000000000e+00
					-7.611194702510350e-01 -7.611194702510350e-01 0.000000000000000e+00
					-5.708396026882762e-01 -8.465686890010350e-01 0.000000000000000e+00
					-6.254216821506211e-01 -9.569424512008281e-01 0.000000000000000e+00
					-4.169477881004140e-01 -1.044833076200828e+00 0.000000000000000e+00
					-5.708396026882762e-01 -8.465686890010350e-01 0.000000000000000e+00
					-3.805597351255174e-01 -9.076038452510352e-01 0.000000000000000e+00
					-4.169477881004140e-01 -1.044833076200828e+00 0.000000000000000e+00
					-2.084738940502070e-01 -1.097567451200828e+00 0.000000000000000e+00
					-3.805597351255174e-01 -9.076038452510352e-01 0.000000000000000e+00
					-1.902798675627587e-01 -9.442249390010351e-01 0.000000000000000e+00
					-2.084738940502070e-01 -1.097567451200828e+00 0.000000000000000e+00
					6.201636426617085e-17 -1.115145576200828e+00 0.000000000000000e+00
					-1.902798675627587e-01 -9.442249390010351e-01 0.000000000000000e+00
					5.800481622797449e-17 -9.564319702510350e-01 0.000000000000000e+00
					6.201636426617085e-17 -1.115145576200828e+00 0.000000000000000e+00
					2.084738940502071e-01 -1.097567451200828e+00 0.000000000000000e+00
					5.800481622797449e-17 -9.564319702510350e-01 0.000000000000000e+00
					1.902798675627588e-01 -9.442249390010350e-01 0.000000000000000e+00
					2.084738940502071e-01 -1.097567451200828e+00 0.000000000000000e+00
					4.169477881004141e-01 -1.044833076200828e+00 0.000000000000000e+00
					1.902798675627588e-01 -9.442249390010350e-01 0.000000000000000e+00
					3.805597351255176e-01 -9.076038452510350e-01 0.000000000000000e+00
					4.169477881004141e-01 -1.044833076200828e+00 0.000000000000000e+00
					6.254216821506211e-01 -9.569424512008281e-01 0.000000000000000e+00
					3.805597351255176e-01 -9.076038452510350e-01 0.000000000000000e+00
					5.708396026882762e-01 -8.465686890010350e-01 0.000000000000000e+00
					6.254216821506211e-01 -9.569424512008281e-01 0.000000000000000e+00
					8.338955762008280e-01 -8.338955762008280e-01 0.000000000000000e+00
					5.708396026882762e-01 -8.465686890010350e-01 0.000000000000000e+00
					7.611194702510350e-01 -7.611194702510350e-01 0.000000000000000e+00
					-7.611194702510350e-01 -7.611194702510350e-01 0.000000000000000e+00
					-5.708396026882762e-01 -8.465686890010350e-01 0.000000000000000e+00
					-6.951941016011041e-01 -6.951941016011041e-01 0.000000000000000e+00
					-5.213955762008279e-01 -7.498816016011041e-01 0.000000000000000e+00
					-5.708396026882762e-01 -8.465686890010350e-01 0.000000000000000e+00
					-3.805597351255174e-01 -9.076038452510352e-01 0.000000000000000e+00
					-5.213955762008279e-01 -7.498816016011041e-01 0.000000000000000e+00
					-3.475970508005519e-01 -7.889441016011042e-01 0.000000000000000e+00
					-3.805597351255174e-01 -9.076038452510352e-01 0.000000000000000e+00
					-1.902798675627587e-01 -9.442249390010351e-01 0.000000000000000e+00
					-3.475970508005519e-01 -7.889441016011042e-01 0.000000000000000e+00
					-1.737985254002760e-01 -8.123816016011042e-01 0.000000000000000e+00
					-1.902798675627587e-01 -9.442249390010351e-01 0.000000000000000e+00
					5.800481622797449e-17 -9.564319702510350e-01 0.000000000000000e+00
					-1.737985254002760e-01 -8.123816016011042e-01 0.000000000000000e+00
					5.377642775528102e-17 -8.201941016011041e-01 0.000000000000000e+00
					5.800481622797449e-17 -9.564319702510350e-01 0.000000000000000e+00
					1.902798675627588e-01 -9.442249390010350e-01 0.000000000000000e+00
					5.377642775528102e-17 -8.201941016011041e-01 0.000000000000000e+00
					1.737985254002761e-01 -8.123816016011041e-01 0.000000000000000e+00
					1.902798675627588e-01 -9.442249390010350e-01 0.000000000000000e+00
					3.805597351255176e-01 -9.076038452510350e-01 0.000000000000000e+00
					1.737985254002761e-01 -8.123816016011041e-01 0.000000000000000e+00
					3.475970508005521e-01 -7.889441016011040e-01 0.000000000000000e+00
					3.805597351255176e-01 -9.076038452510350e-01 0.000000000000000e+00
					5.708396026882762e-01 -8.465686890010350e-01 0.000000000000000e+00
					3.475970508005521e-01 -7.889441016011040e-01 0.000000000000000e+00
					5.213955762008279e-01 -7.498816016011041e-01 0.000000000000000e+00
					5.708396026882762e-01 -8.465686890010350e-01 0.000000000000000e+00
					7.611194702510350e-01 -7.611194702510350e-01 0.000000000000000e+00
					5.213955762008279e-01 -7.498816016011041e-01 0.000000000000000e+00
					6.951941016011041e-01 -6.951941016011041e-01 0.000000000000000e+00
					-6.951941016011041e-01 -6.951941016011041e-01 0.000000000000000e+00
					-5.213955762008279e-01 -7.498816016011041e-01 0.000000000000000e+00
					-6.361194702510350e-01 -6.361194702510350e-01 0.000000000000000e+00
					-4.770896026882761e-01 -6.668811890010350e-01 0.000000000000000e+00
					-5.213955762008279e-01 -7.498816016011041e-01 0.000000000000000e+00
					-3.475970508005519e-01 -7.889441016011042e-01 0.000000000000000e+00
					-4.770896026882761e-01 -6.668811890010350e-01 0.000000000000000e+00
					-3.180597351255174e-01 -6.888538452510350e-01 0.000000000000000e+00
					-3.475970508005519e-01 -7.889441016011042e-01 0.000000000000000e+00
					-1.737985254002760e-01 -8.123816016011042e-01 0.000000000000000e+00
					-3.180597351255174e-01 -6.888538452510350e-01 0.000000000000000e+00
					-1.590298675627587e-01 -7.020374390010350e-01 0.000000000000000e+00
					-1.737985254002760e-01 -8.123816016011042e-01 0.000000000000000e+00
					5.377642775528102e-17 -8.201941016011041e-01 0.000000000000000e+00
					-1.590298675627587e-01 -7.020374390010350e-01 0.000000000000000e+00
					4.933119884809045e-17 -7.064319702510350e-01 0.000000000000000e+00
					5.377642775528102e-17 -8.201941016011041e-01 0.000000000000000e+00
					1.737985254002761e-01 -8.123816016011041e-01 0.000000000000000e+00
					4.933119884809045e-17 -7.064319702510350e-01 0.000000000000000e+00
					1.590298675627588e-01 -7.020374390010350e-01 0.000000000000000e+00
					1.737985254002761e-01 -8.123816016011041e-01 0.000000000000000e+00
					3.475970508005521e-01 -7.889441016011040e-01 0.000000000000000e+00
					1.590298675627588e-01 -7.020374390010350e-01 0.000000000000000e+00
					3.180597351255176e-01 -6.888538452510349e-01 0.000000000000000e+00
					3.475970508005521e-01 -7.889441016011040e-01 0.000000000000000e+00
					5.213955762008279e-01 -7.498816016011041e-01 0.000000000000000e+00
					3.180597351255176e-01 -6.888538452510349e-01 0.000000000000000e+00
					4.770896026882761e-01 -6.668811890010350e-01 0.000000000000000e+00
					5.213955762008279e-01 -7.498816016011041e-01 0.000000000000000e+00
					6.951941016011041e-01 -6.951941016011041e-01 0.000000000000000e+00
					4.770896026882761e-01 -6.668811890010350e-01 0.000000000000000e+00
					6.361194702510350e-01 -6.361194702510350e-01 0.000000000000000e+00
					-6.361194702510350e-01 -6.361194702510350e-01 0.000000000000000e+00
					-4.770896026882761e-01 -6.668811890010350e-01 0.000000000000000e+00
					-5.838955762008280e-01 -5.838955762008280e-01 0.000000000000000e+00
					-4.379216821506209e-01 -5.975674512008280e-01 0.000000000000000e+00
					-4.770896026882761e-01 -6.668811890010350e-01 0.000000000000000e+00
					-3.180597351255174e-01 -6.888538452510350e-01 0.000000000000000e+00
					-4.379216821506209e-01 -5.975674512008280e-01 0.000000000000000e+00
					-2.919477881004139e-01 -6.073330762008280e-01 0.000000000000000e+00
					-3.180597351255174e-01 -6.888538452510350e-01 0.000000000000000e+00
					-1.590298675627587e-01 -7.020374390010350e-01 0.000000000000000e+00
					-2.919477881004139e-01 -6.073330762008280e-01 0.000000000000000e+00
					-1.459738940502070e-01 -6.131924512008280e-01 0.000000000000000e+00
					-1.590298675627587e-01 -7.020374390010350e-01 0.000000000000000e+00
					4.933119884809045e-17 -7.064319702510350e-01 0.000000000000000e+00
					-1.459738940502070e-01 -6.131924512008280e-01 0.000000000000000e+00
					4.466912950640279e-17 -6.151455762008280e-01 0.000000000000000e+00
					4.933119884809045e-17 -7.064319702510350e-01 0.000000000000000e+00
					1.590298675627588e-01 -7.020374390010350e-01 0.000000000000000e+00
					4.466912950640279e-17 -6.151455762008280e-01 0.000000000000000e+00
					1.459738940502071e-01 -6.131924512008280e-01 0.000000000000000e+00
					1.590298675627588e-01 -7.020374390010350e-01 0.000000000000000e+00
					3.180597351255176e-01 -6.888538452510349e-01 0.000000000000000e+00
					1.459738940502071e-01 -6.131924512008280e-01 0.000000000000000e+00
					2.919477881004141e-01 -6.073330762008280e-01 0.000000000000000e+00
					3.180597351255176e-01 -6.888538452510349e-01 0.000000000000000e+00
					4.770896026882761e-01 -6.668811890010350e-01 0.000000000000000e+00
					2.919477881004141e-01 -6.073330762008280e-01 0.000000000000000e+00
					4.379216821506209e-01 -5.975674512008280e-01 0.000000000000000e+00
					4.770896026882761e-01 -6.668811890010350e-01 0.000000000000000e+00
					6.361194702510350e-01 -6.361194702510350e-01 0.000000000000000e+00
					4.379216821506209e-01 -5.975674512008280e-01 0.000000000000000e+00
					5.838955762008280e-01 -5.838955762008280e-01 0.000000000000000e+00
					-5.838955762008280e-01 -5.838955762008280e-01 0.000000000000000e+00
					-4.379216821506209e-01 -5.975674512008280e-01 0.000000000000000e+00
					-5.385224194504830e-01 -5.385224194504830e-01 0.000000000000000e+00
					-4.038918145878622e-01 -5.419403882004830e-01 0.000000000000000e+00
					-4.379216821506209e-01 -5.975674512008280e-01 0.000000000000000e+00
					-2.919477881004139e-01 -6.073330762008280e-01 0.000000000000000e+00
					-4.038918145878622e-01 -5.419403882004830e-01 0.000000000000000e+00
					-2.692612097252415e-01 -5.443817944504830e-01 0.000000000000000e+00
					-2.919477881004139e-01 -6.073330762008280e-01 0.000000000000000e+00
					-1.459738940502070e-01 -6.131924512008280e-01 0.000000000000000e+00
					-2.692612097252415e-01 -5.443817944504830e-01 0.000000000000000e+00
					-1.346306048626207e-01 -5.458466382004830e-01 0.000000000000000e+00
					-1.459738940502070e-01 -6.131924512008280e-01 0.000000000000000e+00
					4.466912950640279e-17 -6.151455762008280e-01 0.000000000000000e+00
					-1.346306048626207e-01 -5.458466382004830e-01 0.000000000000000e+00
					3.979021973021801e-17 -5.463349194504830e-01 0.000000000000000e+00
					4.466912950640279e-17 -6.151455762008280e-01 0.000000000000000e+00
					1.459738940502071e-01 -6.131924512008280e-01 0.000000000000000e+00
					3.979021973021801e-17 -5.463349194504830e-01 0.000000000000000e+00
					1.346306048626208e-01 -5.458466382004830e-01 0.000000000000000e+00
					1.459738940502071e-01 -6.131924512008280e-01 0.000000000000000e+00
					2.919477881004141e-01 -6.073330762008280e-01 0.000000000000000e+00
					1.346306048626208e-01 -5.458466382004830e-01 0.000000000000000e+00
					2.692612097252415e-01 -5.443817944504830e-01 0.000000000000000e+00
					2.919477881004141e-01 -6.073330762008280e-01 0.000000000000000e+00
					4.379216821506209e-01 -5.975674512008280e-01 0.000000000000000e+00
					2.692612097252415e-01 -5.443817944504830e-01 0.000000000000000e+00
					4.038918145878622e-01 -5.419403882004830e-01 0.000000000000000e+00
					4.379216821506209e-01 -5.975674512008280e-01 0.000000000000000e+00
					5.838955762008280e-01 -5.838955762008280e-01 0.000000000000000e+00
					4.038918145878622e-01 -5.419403882004830e-01 0.000000000000000e+00
					5.385224194504830e-01 -5.385224194504830e-01 0.000000000000000e+00
					-5.385224194504830e-01 -5.385224194504830e-01 0.000000000000000e+00
					-4.038918145878622e-01 -5.419403882004830e-01 0.000000000000000e+00
					-5.000000000000000e-01 -5.000000000000000e-01 0.000000000000000e+00
					-3.750000000000000e-01 -5.000000000000000e-01 0.000000000000000e+00
					-4.038918145878622e-01 -5.419403882004830e-01 0.000000000000000e+00
					-2.692612097252415e-01 -5.443817944504830e-01 0.000000000000000e+00
					-3.750000000000000e-01 -5.000000000000000e-01 0.000000000000000e+00
					-2.500000000000000e-01 -5.000000000000000e-01 0.000000000000000e+00
					-2.692612097252415e-01 -5.443817944504830e-01 0.000000000000000e+00
					-1.346306048626207e-01 -5.458466382004830e-01 0.000000000000000e+00
					-2.500000000000000e-01 -5.000000000000000e-01 0.000000000000000e+00
					-1.250000000000000e-01 -5.000000000000000e-01 0.000000000000000e+00
					-1.346306048626207e-01 -5.458466382004830e-01 0.000000000000000e+00
					3.979021973021801e-17 -5.463349194504830e-01 0.000000000000000e+00
					-1.250000000000000e-01 -5.000000000000000e-01 0.000000000000000e+00
					3.469446951953614e-17 -5.000000000000000e-01 0.000000000000000e+00
					3.979021973021801e-17 -5.463349194504830e-01 0.000000000000000e+00
					1.346306048626208e-01 -5.458466382004830e-01 0.000000000000000e+00
					3.469446951953614e-17 -5.000000000000000e-01 0.000000000000000e+00
					1.250000000000001e-01 -5.000000000000000e-01 0.000000000000000e+00
					1.346306048626208e-01 -5.458466382004830e-01 0.000000000000000e+00
					2.692612097252415e-01 -5.443817944504830e-01 0.000000000000000e+00
					1.250000000000001e-01 -5.000000000000000e-01 0.000000000000000e+00
					2.500000000000001e-01 -5.000000000000000e-01 0.000000000000000e+00
					2.692612097252415e-01 -5.443817944504830e-01 0.000000000000000e+00
					4.038918145878622e-01 -5.419403882004830e-01 0.000000000000000e+00
					2.500000000000001e-01 -5.000000000000000e-01 0.000000000000000e+00
					3.750000000000000e-01 -5.000000000000000e-01 0.000000000000000e+00
					4.038918145878622e-01 -5.419403882004830e-01 0.000000000000000e+00
					5.385224194504830e-01 -5.385224194504830e-01 0.000000000000000e+00
					3.750000000000000e-01 -5.000000000000000e-01 0.000000000000000e+00
					5.000000000000000e-01 -5.000000000000000e-01 0.000000000000000e+00
				</DataArray>
			</Points>
			<Cells>
				<DataArray Name="connectivity" type="UInt32" format="ascii">
					0 1 3 2 4 5 7 6 8 9 11 10 12 13 15 14 16 17 19 18 20 21 23 22 24 25 27 26 28 29 31 30 32 33 35 34 36 37 39 38 40 41 43 42 44 45 47 46 48 49 51 50 52 53 55 54 56 57 59 58 60 61 63 62 64 65 67 66 68 69 71 70 72 73 75 74 76 77 79 78 80 81 83 82 84 85 87 86 88 89 91 90 92 93 95 94 96 97 99 98 100 101 103 102 104 105 107 106 108 109 111 110 112 113 115 114 116 117 119 118 120 121 123 122 124 125 127 126 128 129 131 130 132 133 135 134 136 137 139 138 140 141 143 142 144 145 147 146 148 149 151 150 152 153 155 154 156 157 159 158 160 161 163 162 164 165 167 166 168 169 171 170 172 173 175 174 176 177 179 178 180 181 183 182 184 185 187 186 188 189 191 190 192 193 195 194 196 197 199 198 200 201 203 202 204 205 207 206 208 209 211 210 212 213 215 214 216 217 219 218 220 221 223 222 224 225 227 226 228 229 231 230 232 233 235 234 236 237 239 238 240 241 243 242 244 245 247 246 248 249 251 250 252 253 255 254 
				</DataArray>
				<DataArray Name="offsets" type="UInt32" format="ascii">
					4 8 12 16 20 24 28 32 36 40 44 48 52 56 60 64 68 72 76 80 84 88 92 96 100 104 108 112 116 120 124 128 132 136 140 144 148 152 156 160 164 168 172 176 180 184 188 192 196 200 204 208 212 216 220 224 228 232 236 240 244 248 252 256 
				</DataArray>
				<DataArray Name="types" type="UInt8" format="ascii">
					9 9 9 9 9 9 9 9 9 9 9 9 9 9 9 9 9 9 9 9 9 9 9 9 9 9 9 9 9 9 9 9 9 9 9 9 9 9 9 9 9 9 9 9 9 9 9 9 9 9 9 9 9 9 9 9 9 9 9 9 9 9 9 9 
				</DataArray>
			</Cells>
			<PointData Vectors="solution ">
				<DataArray Name="solution" type="Float64" NumberOfComponents="1" format="ascii">
					0.000000000000000e+00 0.000000000000000e+00 8.464158860811430e-04 1.475591128430562e-03 0.000000000000000e+00 0.000000000000000e+00 1.475591128430562e-03 2.308788161547625e-03 0.000000000000000e+00 0.000000000000000e+00 2.308788161547625e-03 3.385898347464734e-03 0.000000000000000e+00 0.000000000000000e+00 3.385898347464734e-03 4.503884318156509e-03 0.000000000000000e+00 0.000000000000000e+00 4.503884318156509e-03 5.333725279486978e-03 0.000000000000000e+00 0.000000000000000e+00 5.333725279486978e-03 5.729116804903507e-03 0.000000000000000e+00 0.000000000000000e+00 5.729116804903507e-03 5.779183590024129e-03 0.000000000000000e+00 0.000000000000000e+00 5.779183590024129e-03 5.248384027632980e-03 8.464158860811430e-04 1.475591128430562e-03 1.312439196559172e-02 2.352623504770804e-02 1.475591128430562e-03 2.308788161547625e-03 2.352623504770804e-02 3.617931180063212e-02 2.308788161547625e-03 3.385898347464734e-03 3.617931180063212e-02 5.036848000742179e-02 3.385898347464734e-03 4.503884318156509e-03 5.036848000742179e-02 6.455179162869293e-02 4.503884318156509e-03 5.333725279486978e-03 6.455179162869293e-02 7.640255250537674e-02 5.333725279486978e-03 5.729116804903507e-03 7.640255250537674e-02 8.324185412734991e-02 5.729116804903507e-03 5.779183590024129e-03 8.324185412734991e-02 8.212251368426796e-02 5.779183590024129e-03 5.248384027632980e-03 8.212251368426796e-02 6.958031322220901e-02 1.312439196559172e-02 2.352623504770804e-02 6.273913089850591e-02 1.139468013632625e-01 2.352623504770804e-02 3.617931180063212e-02 1.139468013632625e-01 1.771075926084270e-01 3.617931180063212e-02 5.036848000742179e-02 1.771075926084270e-01 2.458710832285169e-01 5.036848000742179e-02 6.455179162869293e-02 2.458710832285169e-01 3.107964824021980e-01 6.455179162869293e-02 7.640255250537674e-02 3.107964824021980e-01 3.596874806081769e-01 7.640255250537674e-02 8.324185412734991e-02 3.596874806081769e-01 3.790256327632562e-01 8.324185412734991e-02 8.212251368426796e-02 3.790256327632562e-01 3.567788826349766e-01 8.212251368426796e-02 6.958031322220901e-02 3.567788826349766e-01 2.875234227189299e-01 6.273913089850591e-02 1.139468013632625e-01 1.820211381985004e-01 3.290851830776391e-01 1.139468013632625e-01 1.771075926084270e-01 3.290851830776391e-01 5.119834254304857e-01 1.771075926084270e-01 2.458710832285169e-01 5.119834254304857e-01 7.080019492724137e-01 2.458710832285169e-01 3.107964824021980e-01 7.080019492724137e-01 8.842448652495785e-01 3.107964824021980e-01 3.596874806081769e-01 8.842448652495785e-01 1.002218129143270e+00 3.596874806081769e-01 3.790256327632562e-01 1.002218129143270e+00 1.025903439987078e+00 3.790256327632562e-01 3.567788826349766e-01 1.025903439987078e+00 9.334838137875576e-01 3.567788826349766e-01 2.875234227189299e-01 9.334838137875576e-01 7.310701142589697e-01 1.820211381985004e-01 3.290851830776391e-01 3.973323380170301e-01 7.037996542713907e-01 3.290851830776391e-01 5.119834254304857e-01 7.037996542713907e-01 1.082125259550574e+00 5.119834254304857e-01 7.080019492724137e-01 1.082125259550574e+00 1.480428341739865e+00 7.080019492724137e-01 8.842448652495785e-01 1.480428341739865e+00 1.824879607196533e+00 8.842448652495785e-01 1.002218129143270e+00 1.824879607196533e+00 2.034699160404386e+00 1.002218129143270e+00 1.025903439987078e+00 2.034699160404386e+00 2.044076784414519e+00 1.025903439987078e+00 9.334838137875576e-01 2.044076784414519e+00 1.827149580483445e+00 9.334838137875576e-01 7.310701142589697e-01 1.827149580483445e+00 1.417951805240624e+00 3.973323380170301e-01 7.037996542713907e-01 7.188719995396733e-01 1.230383283185347e+00 7.037996542713907e-01 1.082125259550574e+00 1.230383283185347e+00 1.848900871939031e+00 1.082125259550574e+00 1.480428341739865e+00 1.848900871939031e+00 2.486372237688012e+00 1.480428341739865e+00 1.824879607196533e+00 2.486372237688012e+00 3.021794900258310e+00 1.824879607196533e+00 2.034699160404386e+00 3.021794900258310e+00 3.329235814339640e+00 2.034699160404386e+00 2.044076784414519e+00 3.329235814339640e+00 3.314886457031641e+00 2.044076784414519e+00 1.827149580483445e+00 3.314886457031641e+00 2.953558703281167e+00 1.827149580483445e+00 1.417951805240624e+00 2.953558703281167e+00 2.310888266722498e+00 7.188719995396733e-01 1.230383283185347e+00 1.135737338934590e+00 1.855318305749604e+00 1.230383283185347e+00 1.848900871939031e+00 1.855318305749604e+00 2.699681100207230e+00 1.848900871939031e+00 2.486372237688012e+00 2.699681100207230e+00 3.550140745761750e+00 2.486372237688012e+00 3.021794900258310e+00 3.550140745761750e+00 4.251273618336647e+00 3.021794900258310e+00 3.329235814339640e+00 4.251273618336647e+00 4.647005063407792e+00 3.329235814339640e+00 3.314886457031641e+00 4.647005063407792e+00 4.625590205010647e+00 3.314886457031641e+00 2.953558703281167e+00 4.625590205010647e+00 4.160827671323426e+00 2.953558703281167e+00 2.310888266722498e+00 4.160827671323426e+00 3.333984958443327e+00 1.135737338934590e+00 1.855318305749604e+00 1.616849305359566e+00 2.492191084270537e+00 1.855318305749604e+00 2.699681100207230e+00 2.492191084270537e+00 3.482915220573933e+00 2.699681100207230e+00 3.550140745761750e+00 3.482915220573933e+00 4.459165568793427e+00 3.550140745761750e+00 4.251273618336647e+00 4.459165568793427e+00 5.259621230612595e+00 4.251273618336647e+00 4.647005063407792e+00 5.259621230612595e+00 5.725556917133947e+00 4.647005063407792e+00 4.625590205010647e+00 5.725556917133947e+00 5.742088595838334e+00 4.625590205010647e+00 4.160827671323426e+00 5.742088595838334e+00 5.275527992917194e+00 4.160827671323426e+00 3.333984958443327e+00 5.275527992917194e+00 4.394115992507665e+00 
				</DataArray>
			</PointData>
			<CellData>
			</CellData>
		</Piece>
	</UnstructuredGrid>
</VTKFile>