<?xml version="1.0"?>
<VTKFile type="UnstructuredGrid" byte_order="LittleEndian">
	<UnstructuredGrid>
		<Piece NumberOfPoints="64" NumberOfCells="16">
			<Points>
				<DataArray type="Float64" NumberOfComponents="3" format="ascii">
					-5.000000000000000e-01 -5.000000000000000e-01 0.000000000000000e+00
					-2.500000000000000e-01 -5.000000000000000e-01 0.000000000000000e+00
					-5.000000000000000e-01 -2.500000000000000e-01 0.000000000000000e+00
					-2.500000000000000e-01 -2.500000000000000e-01 0.000000000000000e+00
					-2.500000000000000e-01 -5.000000000000000e-01 0.000000000000000e+00
					2.775557561562891e-17 -5.000000000000000e-01 0.000000000000000e+00
					-2.500000000000000e-01 -2.500000000000000e-01 0.000000000000000e+00
					2.775557561562891e-17 -2.500000000000000e-01 0.000000000000000e+00
					2.775557561562891e-17 -5.000000000000000e-01 0.000000000000000e+00
					2.500000000000000e-01 -5.000000000000000e-01 0.000000000000000e+00
					2.775557561562891e-17 -2.500000000000000e-01 0.000000000000000e+00
					2.500000000000000e-01 -2.500000000000000e-01 0.000000000000000e+00
					2.500000000000000e-01 -5.000000000000000e-01 0.000000000000000e+00
					5.000000000000000e-01 -5.000000000000000e-01 0.000000000000000e+00
					2.500000000000000e-01 -2.500000000000000e-01 0.000000000000000e+00
					5.000000000000000e-01 -2.500000000000000e-01 0.000000000000000e+00
					-5.000000000000000e-01 -2.500000000000000e-01 0.000000000000000e+00
					-2.500000000000000e-01 -2.500000000000000e-01 0.000000000000000e+00
					-5.000000000000000e-01 2.775557561562891e-17 0.000000000000000e+00
					-2.500000000000000e-01 2.775557561562891e-17 0.000000000000000e+00
					-2.500000000000000e-01 -2.500000000000000e-01 0.000000000000000e+00
					2.775557561562891e-17 -2.500000000000000e-01 0.000000000000000e+00
					-2.500000000000000e-01 2.775557561562891e-17 0.000000000000000e+00
					2.775557561562891e-17 2.775557561562891e-17 0.000000000000000e+00
					2.775557561562891e-17 -2.500000000000000e-01 0.000000000000000e+00
					2.500000000000000e-01 -2.500000000000000e-01 0.000000000000000e+00
					2.775557561562891e-17 2.775557561562891e-17 0.000000000000000e+00
					2.500000000000000e-01 2.775557561562891e-17 0.000000000000000e+00
					2.500000000000000e-01 -2.500000000000000e-01 0.000000000000000e+00
					5.000000000000000e-01 -2.500000000000000e-01 0.000000000000000e+00
					2.500000000000000e-01 2.775557561562891e-17 0.000000000000000e+00
					5.000000000000000e-01 2.775557561562891e-17 0.000000000000000e+00
					-5.000000000000000e-01 2.775557561562891e-17 0.000000000000000e+00
					-2.500000000000000e-01 2.775557561562891e-17 0.000000000000000e+00
					-5.000000000000000e-01 2.500000000000000e-01 0.000000000000000e+00
					-2.500000000000000e-01 2.500000000000000e-01 0.000000000000000e+00
					-2.500000000000000e-01 2.775557561562891e-17 0.000000000000000e+00
					2.775557561562891e-17 2.775557561562891e-17 0.000000000000000e+00
					-2.500000000000000e-01 2.500000000000000e-01 0.000000000000000e+00
					2.775557561562891e-17 2.500000000000000e-01 0.000000000000000e+00
					2.775557561562891e-17 2.775557561562891e-17 0.000000000000000e+00
					2.500000000000000e-01 2.775557561562891e-17 0.000000000000000e+00
					2.775557561562891e-17 2.500000000000000e-01 0.000000000000000e+00
					2.500000000000000e-01 2.500000000000000e-01 0.000000000000000e+00
					2.500000000000000e-01 2.775557561562891e-17 0.000000000000000e+00
					5.000000000000000e-01 2.775557561562891e-17 0.000000000000000e+00
					2.500000000000000e-01 2.500000000000000e-01 0.000000000000000e+00
					5.000000000000000e-01 2.500000000000000e-01 0.000000000000000e+00
					-5.000000000000000e-01 2.500000000000000e-01 0.000000000000000e+00
					-2.500000000000000e-01 2.500000000000000e-01 0.000000000000000e+00
					-5.000000000000000e-01 5.000000000000000e-01 0.000000000000000e+00
					-2.500000000000000e-01 5.000000000000000e-01 0.000000000000000e+00
					-2.500000000000000e-01 2.500000000000000e-01 0.000000000000000e+00
					2.775557561562891e-17 2.500000000000000e-01 0.000000000000000e+00
					-2.500000000000000e-01 5.000000000000000e-01 0.000000000000000e+00
					2.775557561562891e-17 5.000000000000000e-01 0.000000000000000e+00
					2.775557561562891e-17 2.500000000000000e-01 0.000000000000000e+00
					2.500000000000000e-01 2.500000000000000e-01 0.000000000000000e+00
					2.775557561562891e-17 5.000000000000000e-01 0.000000000000000e+00
					2.500000000000000e-01 5.000000000000000e-01 0.000000000000000e+00
					2.500000000000000e-01 2.500000000000000e-01 0.000000000000000e+00
					5.000000000000000e-01 2.500000000000000e-01 0.000000000000000e+00
					2.500000000000000e-01 5.000000000000000e-01 0.000000000000000e+00
					5.000000000000000e-01 5.000000000000000e-01 0.000000000000000e+00
				</DataArray>
			</Points>
			<Cells>
				<DataArray Name="connectivity" type="UInt32" format="ascii">
					0 1 3 2 4 5 7 6 8 9 11 10 12 13 15 14 16 17 19 18 20 21 23 22 24 25 27 26 28 29 31 30 32 33 35 34 36 37 39 38 40 41 43 42 44 45 47 46 48 49 51 50 52 53 55 54 56 57 59 58 60 61 63 62 
				</DataArray>
				<DataArray Name="offsets" type="UInt32" format="ascii">
					4 8 12 16 20 24 28 32 36 40 44 48 52 56 60 64 
				</DataArray>
				<DataArray Name="types" type="UInt8" format="ascii">
					9 9 9 9 9 9 9 9 9 9 9 9 9 9 9 9 
				</DataArray>
			</Cells>
			<PointData Vectors="solution ">
				<DataArray Name="solution" type="Float64" NumberOfComponents="1" format="ascii">
					1.615756345970334e+00 3.476029964889282e+00 4.465928886046488e+00 9.083937564038528e+00 3.476029964889282e+00 5.248751657314819e+00 9.083937564038528e+00 1.349129967791625e+01 5.248751657314819e+00 5.729896006630515e+00 1.349129967791625e+01 1.497690763794623e+01 5.729896006630515e+00 4.385175660484506e+00 1.497690763794623e+01 1.213886919777104e+01 4.465928886046488e+00 9.083937564038528e+00 8.659799572968074e+00 1.732974318987765e+01 9.083937564038528e+00 1.349129967791625e+01 1.732974318987765e+01 2.561220747461723e+01 1.349129967791625e+01 1.497690763794623e+01 2.561220747461723e+01 2.857522023732316e+01 1.497690763794623e+01 1.213886919777104e+01 2.857522023732316e+01 2.354991082142157e+01 8.659799572968074e+00 1.732974318987765e+01 1.214532694939811e+01 2.470740983270765e+01 1.732974318987765e+01 2.561220747461723e+01 2.470740983270765e+01 3.669788691764095e+01 2.561220747461723e+01 2.857522023732316e+01 3.669788691764095e+01 4.074063436083294e+01 2.857522023732316e+01 2.354991082142157e+01 4.074063436083294e+01 3.303086287267663e+01 1.214532694939811e+01 2.470740983270765e+01 1.192818246842580e+01 2.571683503302391e+01 2.470740983270765e+01 3.669788691764095e+01 2.571683503302391e+01 3.885758988228692e+01 3.669788691764095e+01 4.074063436083294e+01 3.885758988228692e+01 4.241796746464330e+01 4.074063436083294e+01 3.303086287267663e+01 4.241796746464330e+01 3.242956596673306e+01 
				</DataArray>
			</PointData>
			<CellData>
			</CellData>
		</Piece>
	</UnstructuredGrid>
</VTKFile>