<?xml version="1.0"?>
<VTKFile type="UnstructuredGrid" byte_order="LittleEndian">
	<UnstructuredGrid>
		<Piece NumberOfPoints="64" NumberOfCells="16">
			<Points>
				<DataArray type="Float64" NumberOfComponents="3" format="ascii">
					-1.000000000000000e+00 -1.000000000000000e+00 0.000000000000000e+00
					-8.338955762008279e-01 -8.338955762008279e-01 0.000000000000000e+00
					-1.375000000000000e+00 -5.000000000000000e-01 0.000000000000000e+00
					-1.044833076200828e+00 -4.169477881004139e-01 0.000000000000000e+00
					-8.338955762008279e-01 -8.338955762008279e-01 0.000000000000000e+00
					-6.951941016011038e-01 -6.951941016011038e-01 0.000000000000000e+00
					-1.044833076200828e+00 -4.169477881004139e-01 0.000000000000000e+00
					-7.889441016011038e-01 -3.475970508005519e-01 0.000000000000000e+00
					-6.951941016011038e-01 -6.951941016011038e-01 0.000000000000000e+00
					-5.838955762008279e-01 -5.838955762008279e-01 0.000000000000000e+00
					-7.889441016011038e-01 -3.475970508005519e-01 0.000000000000000e+00
					-6.073330762008280e-01 -2.919477881004139e-01 0.000000000000000e+00
					-5.838955762008279e-01 -5.838955762008279e-01 0.000000000000000e+00
					-5.000000000000000e-01 -5.000000000000000e-01 0.000000000000000e+00
					-6.073330762008280e-01 -2.919477881004139e-01 0.000000000000000e+00
					-5.000000000000000e-01 -2.500000000000000e-01 0.000000000000000e+00
					-1.375000000000000e+00 -5.000000000000000e-01 0.000000000000000e+00
					-1.044833076200828e+00 -4.169477881004139e-01 0.000000000000000e+00
					-1.500000000000000e+00 5.551115123125783e-17 0.000000000000000e+00
					-1.115145576200828e+00 5.551115123125783e-17 0.000000000000000e+00
					-1.044833076200828e+00 -4.169477881004139e-01 0.000000000000000e+00
					-7.889441016011038e-01 -3.475970508005519e-01 0.000000000000000e+00
					-1.115145576200828e+00 5.551115123125783e-17 0.000000000000000e+00
					-8.201941016011040e-01 4.163336342344337e-17 0.000000000000000e+00
					-7.889441016011038e-01 -3.475970508005519e-01 0.000000000000000e+00
					-6.073330762008280e-01 -2.919477881004139e-01 0.000000000000000e+00
					-8.201941016011040e-01 4.163336342344337e-17 0.000000000000000e+00
					-6.151455762008280e-01 4.163336342344337e-17 0.000000000000000e+00
					-6.073330762008280e-01 -2.919477881004139e-01 0.000000000000000e+00
					-5.000000000000000e-01 -2.500000000000000e-01 0.000000000000000e+00
					-6.151455762008280e-01 4.163336342344337e-17 0.000000000000000e+00
					-5.000000000000000e-01 2.775557561562891e-17 0.000000000000000e+00
					-1.500000000000000e+00 5.551115123125783e-17 0.000000000000000e+00
					-1.115145576200828e+00 5.551115123125783e-17 0.000000000000000e+00
					-1.375000000000000e+00 5.000000000000000e-01 0.000000000000000e+00
					-1.044833076200828e+00 4.169477881004139e-01 0.000000000000000e+00
					-1.115145576200828e+00 5.551115123125783e-17 0.000000000000000e+00
					-8.201941016011040e-01 4.163336342344337e-17 0.000000000000000e+00
					-1.044833076200828e+00 4.169477881004139e-01 0.000000000000000e+00
					-7.889441016011038e-01 3.475970508005519e-01 0.000000000000000e+00
					-8.201941016011040e-01 4.163336342344337e-17 0.000000000000000e+00
					-6.151455762008280e-01 4.163336342344337e-17 0.000000000000000e+00
					-7.889441016011038e-01 3.475970508005519e-01 0.000000000000000e+00
					-6.073330762008279e-01 2.919477881004139e-01 0.000000000000000e+00
					-6.151455762008280e-01 4.163336342344337e-17 0.000000000000000e+00
					-5.000000000000000e-01 2.775557561562891e-17 0.000000000000000e+00
					-6.073330762008279e-01 2.919477881004139e-01 0.000000000000000e+00
					-5.000000000000000e-01 2.500000000000000e-01 0.000000000000000e+00
					-1.375000000000000e+00 5.000000000000000e-01 0.000000000000000e+00
					-1.044833076200828e+00 4.169477881004139e-01 0.000000000000000e+00
					-1.000000000000000e+00 1.000000000000000e+00 0.000000000000000e+00
					-8.338955762008279e-01 8.338955762008279e-01 0.000000000000000e+00
					-1.044833076200828e+00 4.169477881004139e-01 0.000000000000000e+00
					-7.889441016011038e-01 3.475970508005519e-01 0.000000000000000e+00
					-8.338955762008279e-01 8.338955762008279e-01 0.000000000000000e+00
					-6.951941016011038e-01 6.951941016011038e-01 0.000000000000000e+00
					-7.889441016011038e-01 3.475970508005519e-01 0.000000000000000e+00
					-6.073330762008279e-01 2.919477881004139e-01 0.000000000000000e+00
					-6.951941016011038e-01 6.951941016011038e-01 0.000000000000000e+00
					-5.838955762008279e-01 5.838955762008279e-01 0.000000000000000e+00
					-6.073330762008279e-01 2.919477881004139e-01 0.000000000000000e+00
					-5.000000000000000e-01 2.500000000000000e-01 0.000000000000000e+00
					-5.838955762008279e-01 5.838955762008279e-01 0.000000000000000e+00
					-5.000000000000000e-01 5.000000000000000e-01 0.000000000000000e+00
				</DataArray>
			</Points>
			<Cells>
				<DataArray Name="connectivity" type="UInt32" format="ascii">
					0 1 3 2 4 5 7 6 8 9 11 10 12 13 15 14 16 17 19 18 20 21 23 22 24 25 27 26 28 29 31 30 32 33 35 34 36 37 39 38 40 41 43 42 44 45 47 46 48 49 51 50 52 53 55 54 56 57 59 58 60 61 63 62 
				</DataArray>
				<DataArray Name="offsets" type="UInt32" format="ascii">
					4 8 12 16 20 24 28 32 36 40 44 48 52 56 60 64 
				</DataArray>
				<DataArray Name="types" type="UInt8" format="ascii">
					9 9 9 9 9 9 9 9 9 9 9 9 9 9 9 9 
				</DataArray>
			</Cells>
			<PointData Vectors="solution ">
				<DataArray Name="solution" type="Float64" NumberOfComponents="1" format="ascii">
					0.000000000000000e+00 1.309226217633670e-02 0.000000000000000e+00 6.686117731728342e-02 1.309226217633670e-02 1.814535755373250e-01 6.686117731728342e-02 7.966250053324542e-01 1.814535755373250e-01 7.186928944557023e-01 7.966250053324542e-01 2.535956144165943e+00 7.186928944557023e-01 1.618750051377086e+00 2.535956144165943e+00 4.470102873643915e+00 0.000000000000000e+00 6.686117731728342e-02 0.000000000000000e+00 1.913449758782103e-01 6.686117731728342e-02 7.966250053324542e-01 1.913449758782103e-01 2.007856315169215e+00 7.966250053324542e-01 2.535956144165943e+00 2.007856315169215e+00 5.591722647686507e+00 2.535956144165943e+00 4.470102873643915e+00 5.591722647686507e+00 8.664839572812998e+00 0.000000000000000e+00 1.913449758782103e-01 0.000000000000000e+00 3.533517404676577e-01 1.913449758782103e-01 2.007856315169215e+00 3.533517404676577e-01 3.192791707072907e+00 2.007856315169215e+00 5.591722647686507e+00 3.192791707072907e+00 8.143406760159516e+00 5.591722647686507e+00 8.664839572812998e+00 8.143406760159516e+00 1.215063829481189e+01 0.000000000000000e+00 3.533517404676577e-01 0.000000000000000e+00 3.585416704694220e-01 3.533517404676577e-01 3.192791707072907e+00 3.585416704694220e-01 2.931546651883080e+00 3.192791707072907e+00 8.143406760159516e+00 2.931546651883080e+00 7.425659986214141e+00 8.143406760159516e+00 1.215063829481189e+01 7.425659986214141e+00 1.193251363235687e+01 
				</DataArray>
			</PointData>
			<CellData>
			</CellData>
		</Piece>
	</UnstructuredGrid>
</VTKFile>