<?xml version="1.0"?>
<VTKFile type="UnstructuredGrid" byte_order="LittleEndian">
	<UnstructuredGrid>
		<Piece NumberOfPoints="256" NumberOfCells="64">
			<Points>
				<DataArray type="Float64" NumberOfComponents="3" format="ascii">
					-1.000000000000000e+00 -1.000000000000000e+00 0.000000000000000e+00
					-9.135224194504830e-01 -9.135224194504830e-01 0.000000000000000e+00
					-1.218750000000000e+00 -7.500000000000000e-01 0.000000000000000e+00
					-1.081002888200483e+00 -6.851418145878623e-01 0.000000000000000e+00
					-9.135224194504830e-01 -9.135224194504830e-01 0.000000000000000e+00
					-8.338955762008280e-01 -8.338955762008280e-01 0.000000000000000e+00
					-1.081002888200483e+00 -6.851418145878623e-01 0.000000000000000e+00
					-9.569424512008280e-01 -6.254216821506210e-01 0.000000000000000e+00
					-8.338955762008280e-01 -8.338955762008280e-01 0.000000000000000e+00
					-7.611194702510350e-01 -7.611194702510350e-01 0.000000000000000e+00
					-9.569424512008280e-01 -6.254216821506210e-01 0.000000000000000e+00
					-8.465686890010351e-01 -5.708396026882763e-01 0.000000000000000e+00
					-7.611194702510350e-01 -7.611194702510350e-01 0.000000000000000e+00
					-6.951941016011041e-01 -6.951941016011041e-01 0.000000000000000e+00
					-8.465686890010351e-01 -5.708396026882763e-01 0.000000000000000e+00
					-7.498816016011042e-01 -5.213955762008280e-01 0.000000000000000e+00
					-6.951941016011041e-01 -6.951941016011041e-01 0.000000000000000e+00
					-6.361194702510350e-01 -6.361194702510350e-01 0.000000000000000e+00
					-7.498816016011042e-01 -5.213955762008280e-01 0.000000000000000e+00
					-6.668811890010351e-01 -4.770896026882763e-01 0.000000000000000e+00
					-6.361194702510350e-01 -6.361194702510350e-01 0.000000000000000e+00
					-5.838955762008280e-01 -5.838955762008280e-01 0.000000000000000e+00
					-6.668811890010351e-01 -4.770896026882763e-01 0.000000000000000e+00
					-5.975674512008280e-01 -4.379216821506210e-01 0.000000000000000e+00
					-5.838955762008280e-01 -5.838955762008280e-01 0.000000000000000e+00
					-5.385224194504830e-01 -5.385224194504830e-01 0.000000000000000e+00
					-5.975674512008280e-01 -4.379216821506210e-01 0.000000000000000e+00
					-5.419403882004830e-01 -4.038918145878622e-01 0.000000000000000e+00
					-5.385224194504830e-01 -5.385224194504830e-01 0.000000000000000e+00
					-5.000000000000000e-01 -5.000000000000000e-01 0.000000000000000e+00
					-5.419403882004830e-01 -4.038918145878622e-01 0.000000000000000e+00
					-5.000000000000000e-01 -3.750000000000000e-01 0.000000000000000e+00
					-1.218750000000000e+00 -7.500000000000000e-01 0.000000000000000e+00
					-1.081002888200483e+00 -6.851418145878623e-01 0.000000000000000e+00
					-1.375000000000000e+00 -5.000000000000000e-01 0.000000000000000e+00
					-1.200631794450483e+00 -4.567612097252415e-01 0.000000000000000e+00
					-1.081002888200483e+00 -6.851418145878623e-01 0.000000000000000e+00
					-9.569424512008280e-01 -6.254216821506210e-01 0.000000000000000e+00
					-1.200631794450483e+00 -4.567612097252415e-01 0.000000000000000e+00
					-1.044833076200828e+00 -4.169477881004140e-01 0.000000000000000e+00
					-9.569424512008280e-01 -6.254216821506210e-01 0.000000000000000e+00
					-8.465686890010351e-01 -5.708396026882763e-01 0.000000000000000e+00
					-1.044833076200828e+00 -4.169477881004140e-01 0.000000000000000e+00
					-9.076038452510351e-01 -3.805597351255176e-01 0.000000000000000e+00
					-8.465686890010351e-01 -5.708396026882763e-01 0.000000000000000e+00
					-7.498816016011042e-01 -5.213955762008280e-01 0.000000000000000e+00
					-9.076038452510351e-01 -3.805597351255176e-01 0.000000000000000e+00
					-7.889441016011043e-01 -3.475970508005520e-01 0.000000000000000e+00
					-7.498816016011042e-01 -5.213955762008280e-01 0.000000000000000e+00
					-6.668811890010351e-01 -4.770896026882763e-01 0.000000000000000e+00
					-7.889441016011043e-01 -3.475970508005520e-01 0.000000000000000e+00
					-6.888538452510351e-01 -3.180597351255176e-01 0.000000000000000e+00
					-6.668811890010351e-01 -4.770896026882763e-01 0.000000000000000e+00
					-5.975674512008280e-01 -4.379216821506210e-01 0.000000000000000e+00
					-6.888538452510351e-01 -3.180597351255176e-01 0.000000000000000e+00
					-6.073330762008280e-01 -2.919477881004140e-01 0.000000000000000e+00
					-5.975674512008280e-01 -4.379216821506210e-01 0.000000000000000e+00
					-5.419403882004830e-01 -4.038918145878622e-01 0.000000000000000e+00
					-6.073330762008280e-01 -2.919477881004140e-01 0.000000000000000e+00
					-5.443817944504830e-01 -2.692612097252415e-01 0.000000000000000e+00
					-5.419403882004830e-01 -4.038918145878622e-01 0.000000000000000e+00
					-5.000000000000000e-01 -3.750000000000000e-01 0.000000000000000e+00
					-5.443817944504830e-01 -2.692612097252415e-01 0.000000000000000e+00
					-5.000000000000000e-01 -2.500000000000000e-01 0.000000000000000e+00
					-1.375000000000000e+00 -5.000000000000000e-01 0.000000000000000e+00
					-1.200631794450483e+00 -4.567612097252415e-01 0.000000000000000e+00
					-1.468750000000000e+00 -2.499999999999999e-01 0.000000000000000e+00
					-1.272409138200483e+00 -2.283806048626207e-01 0.000000000000000e+00
					-1.200631794450483e+00 -4.567612097252415e-01 0.000000000000000e+00
					-1.044833076200828e+00 -4.169477881004140e-01 0.000000000000000e+00
					-1.272409138200483e+00 -2.283806048626207e-01 0.000000000000000e+00
					-1.097567451200828e+00 -2.084738940502069e-01 0.000000000000000e+00
					-1.044833076200828e+00 -4.169477881004140e-01 0.000000000000000e+00
					-9.076038452510351e-01 -3.805597351255176e-01 0.000000000000000e+00
					-1.097567451200828e+00 -2.084738940502069e-01 0.000000000000000e+00
					-9.442249390010350e-01 -1.902798675627587e-01 0.000000000000000e+00
					-9.076038452510351e-01 -3.805597351255176e-01 0.000000000000000e+00
					-7.889441016011043e-01 -3.475970508005520e-01 0.000000000000000e+00
					-9.442249390010350e-01 -1.902798675627587e-01 0.000000000000000e+00
					-8.123816016011043e-01 -1.737985254002760e-01 0.000000000000000e+00
					-7.889441016011043e-01 -3.475970508005520e-01 0.000000000000000e+00
					-6.888538452510351e-01 -3.180597351255176e-01 0.000000000000000e+00
					-8.123816016011043e-01 -1.737985254002760e-01 0.000000000000000e+00
					-7.020374390010350e-01 -1.590298675627587e-01 0.000000000000000e+00
					-6.888538452510351e-01 -3.180597351255176e-01 0.000000000000000e+00
					-6.073330762008280e-01 -2.919477881004140e-01 0.000000000000000e+00
					-7.020374390010350e-01 -1.590298675627587e-01 0.000000000000000e+00
					-6.131924512008280e-01 -1.459738940502070e-01 0.000000000000000e+00
					-6.073330762008280e-01 -2.919477881004140e-01 0.000000000000000e+00
					-5.443817944504830e-01 -2.692612097252415e-01 0.000000000000000e+00
					-6.131924512008280e-01 -1.459738940502070e-01 0.000000000000000e+00
					-5.458466382004830e-01 -1.346306048626207e-01 0.000000000000000e+00
					-5.443817944504830e-01 -2.692612097252415e-01 0.000000000000000e+00
					-5.000000000000000e-01 -2.500000000000000e-01 0.000000000000000e+00
					-5.458466382004830e-01 -1.346306048626207e-01 0.000000000000000e+00
					-5.000000000000000e-01 -1.250000000000000e-01 0.000000000000000e+00
					-1.468750000000000e+00 -2.499999999999999e-01 0.000000000000000e+00
					-1.272409138200483e+00 -2.283806048626207e-01 0.000000000000000e+00
					-1.500000000000000e+00 6.938893903907228e-17 0.000000000000000e+00
					-1.296334919450483e+00 1.249000902703301e-16 0.000000000000000e+00
					-1.272409138200483e+00 -2.283806048626207e-01 0.000000000000000e+00
					-1.097567451200828e+00 -2.084738940502069e-01 0.000000000000000e+00
					-1.296334919450483e+00 1.249000902703301e-16 0.000000000000000e+00
					-1.115145576200828e+00 5.551115123125783e-17 0.000000000000000e+00
					-1.097567451200828e+00 -2.084738940502069e-01 0.000000000000000e+00
					-9.442249390010350e-01 -1.902798675627587e-01 0.000000000000000e+00
					-1.115145576200828e+00 5.551115123125783e-17 0.000000000000000e+00
					-9.564319702510350e-01 5.551115123125783e-17 0.000000000000000e+00
					-9.442249390010350e-01 -1.902798675627587e-01 0.000000000000000e+00
					-8.123816016011043e-01 -1.737985254002760e-01 0.000000000000000e+00
					-9.564319702510350e-01 5.551115123125783e-17 0.000000000000000e+00
					-8.201941016011043e-01 1.387778780781446e-17 0.000000000000000e+00
					-8.123816016011043e-01 -1.737985254002760e-01 0.000000000000000e+00
					-7.020374390010350e-01 -1.590298675627587e-01 0.000000000000000e+00
					-8.201941016011043e-01 1.387778780781446e-17 0.000000000000000e+00
					-7.064319702510352e-01 4.163336342344337e-17 0.000000000000000e+00
					-7.020374390010350e-01 -1.590298675627587e-01 0.000000000000000e+00
					-6.131924512008280e-01 -1.459738940502070e-01 0.000000000000000e+00
					-7.064319702510352e-01 4.163336342344337e-17 0.000000000000000e+00
					-6.151455762008280e-01 4.857225732735060e-17 0.000000000000000e+00
					-6.131924512008280e-01 -1.459738940502070e-01 0.000000000000000e+00
					-5.458466382004830e-01 -1.346306048626207e-01 0.000000000000000e+00
					-6.151455762008280e-01 4.857225732735060e-17 0.000000000000000e+00
					-5.463349194504830e-01 3.469446951953614e-17 0.000000000000000e+00
					-5.458466382004830e-01 -1.346306048626207e-01 0.000000000000000e+00
					-5.000000000000000e-01 -1.250000000000000e-01 0.000000000000000e+00
					-5.463349194504830e-01 3.469446951953614e-17 0.000000000000000e+00
					-5.000000000000000e-01 3.469446951953614e-17 0.000000000000000e+00
					-1.500000000000000e+00 6.938893903907228e-17 0.000000000000000e+00
					-1.296334919450483e+00 1.249000902703301e-16 0.000000000000000e+00
					-1.468750000000000e+00 2.500000000000001e-01 0.000000000000000e+00
					-1.272409138200483e+00 2.283806048626209e-01 0.000000000000000e+00
					-1.296334919450483e+00 1.249000902703301e-16 0.000000000000000e+00
					-1.115145576200828e+00 5.551115123125783e-17 0.000000000000000e+00
					-1.272409138200483e+00 2.283806048626209e-01 0.000000000000000e+00
					-1.097567451200828e+00 2.084738940502071e-01 0.000000000000000e+00
					-1.115145576200828e+00 5.551115123125783e-17 0.000000000000000e+00
					-9.564319702510350e-01 5.551115123125783e-17 0.000000000000000e+00
					-1.097567451200828e+00 2.084738940502071e-01 0.000000000000000e+00
					-9.442249390010350e-01 1.902798675627588e-01 0.000000000000000e+00
					-9.564319702510350e-01 5.551115123125783e-17 0.000000000000000e+00
					-8.201941016011043e-01 1.387778780781446e-17 0.000000000000000e+00
					-9.442249390010350e-01 1.902798675627588e-01 0.000000000000000e+00
					-8.123816016011041e-01 1.737985254002760e-01 0.000000000000000e+00
					-8.201941016011043e-01 1.387778780781446e-17 0.000000000000000e+00
					-7.064319702510352e-01 4.163336342344337e-17 0.000000000000000e+00
					-8.123816016011041e-01 1.737985254002760e-01 0.000000000000000e+00
					-7.020374390010352e-01 1.590298675627588e-01 0.000000000000000e+00
					-7.064319702510352e-01 4.163336342344337e-17 0.000000000000000e+00
					-6.151455762008280e-01 4.857225732735060e-17 0.000000000000000e+00
					-7.020374390010352e-01 1.590298675627588e-01 0.000000000000000e+00
					-6.131924512008280e-01 1.459738940502071e-01 0.000000000000000e+00
					-6.151455762008280e-01 4.857225732735060e-17 0.000000000000000e+00
					-5.463349194504830e-01 3.469446951953614e-17 0.000000000000000e+00
					-6.131924512008280e-01 1.459738940502071e-01 0.000000000000000e+00
					-5.458466382004830e-01 1.346306048626208e-01 0.000000000000000e+00
					-5.463349194504830e-01 3.469446951953614e-17 0.000000000000000e+00
					-5.000000000000000e-01 3.469446951953614e-17 0.000000000000000e+00
					-5.458466382004830e-01 1.346306048626208e-01 0.000000000000000e+00
					-5.000000000000000e-01 1.250000000000001e-01 0.000000000000000e+00
					-1.468750000000000e+00 2.500000000000001e-01 0.000000000000000e+00
					-1.272409138200483e+00 2.283806048626209e-01 0.000000000000000e+00
					-1.375000000000000e+00 5.000000000000001e-01 0.000000000000000e+00
					-1.200631794450483e+00 4.567612097252416e-01 0.000000000000000e+00
					-1.272409138200483e+00 2.283806048626209e-01 0.000000000000000e+00
					-1.097567451200828e+00 2.084738940502071e-01 0.000000000000000e+00
					-1.200631794450483e+00 4.567612097252416e-01 0.000000000000000e+00
					-1.044833076200828e+00 4.169477881004141e-01 0.000000000000000e+00
					-1.097567451200828e+00 2.084738940502071e-01 0.000000000000000e+00
					-9.442249390010350e-01 1.902798675627588e-01 0.000000000000000e+00
					-1.044833076200828e+00 4.169477881004141e-01 0.000000000000000e+00
					-9.076038452510350e-01 3.805597351255176e-01 0.000000000000000e+00
					-9.442249390010350e-01 1.902798675627588e-01 0.000000000000000e+00
					-8.123816016011041e-01 1.737985254002760e-01 0.000000000000000e+00
					-9.076038452510350e-01 3.805597351255176e-01 0.000000000000000e+00
					-7.889441016011041e-01 3.475970508005520e-01 0.000000000000000e+00
					-8.123816016011041e-01 1.737985254002760e-01 0.000000000000000e+00
					-7.020374390010352e-01 1.590298675627588e-01 0.000000000000000e+00
					-7.889441016011041e-01 3.475970508005520e-01 0.000000000000000e+00
					-6.888538452510351e-01 3.180597351255176e-01 0.000000000000000e+00
					-7.020374390010352e-01 1.590298675627588e-01 0.000000000000000e+00
					-6.131924512008280e-01 1.459738940502071e-01 0.000000000000000e+00
					-6.888538452510351e-01 3.180597351255176e-01 0.000000000000000e+00
					-6.073330762008280e-01 2.919477881004141e-01 0.000000000000000e+00
					-6.131924512008280e-01 1.459738940502071e-01 0.000000000000000e+00
					-5.458466382004830e-01 1.346306048626208e-01 0.000000000000000e+00
					-6.073330762008280e-01 2.919477881004141e-01 0.000000000000000e+00
					-5.443817944504830e-01 2.692612097252415e-01 0.000000000000000e+00
					-5.458466382004830e-01 1.346306048626208e-01 0.000000000000000e+00
					-5.000000000000000e-01 1.250000000000001e-01 0.000000000000000e+00
					-5.443817944504830e-01 2.692612097252415e-01 0.000000000000000e+00
					-5.000000000000000e-01 2.500000000000001e-01 0.000000000000000e+00
					-1.375000000000000e+00 5.000000000000001e-01 0.000000000000000e+00
					-1.200631794450483e+00 4.567612097252416e-01 0.000000000000000e+00
					-1.218750000000000e+00 7.500000000000000e-01 0.000000000000000e+00
					-1.081002888200483e+00 6.851418145878623e-01 0.000000000000000e+00
					-1.200631794450483e+00 4.567612097252416e-01 0.000000000000000e+00
					-1.044833076200828e+00 4.169477881004141e-01 0.000000000000000e+00
					-1.081002888200483e+00 6.851418145878623e-01 0.000000000000000e+00
					-9.569424512008280e-01 6.254216821506210e-01 0.000000000000000e+00
					-1.044833076200828e+00 4.169477881004141e-01 0.000000000000000e+00
					-9.076038452510350e-01 3.805597351255176e-01 0.000000000000000e+00
					-9.569424512008280e-01 6.254216821506210e-01 0.000000000000000e+00
					-8.465686890010349e-01 5.708396026882763e-01 0.000000000000000e+00
					-9.076038452510350e-01 3.805597351255176e-01 0.000000000000000e+00
					-7.889441016011041e-01 3.475970508005520e-01 0.000000000000000e+00
					-8.465686890010349e-01 5.708396026882763e-01 0.000000000000000e+00
					-7.498816016011041e-01 5.213955762008280e-01 0.000000000000000e+00
					-7.889441016011041e-01 3.475970508005520e-01 0.000000000000000e+00
					-6.888538452510351e-01 3.180597351255176e-01 0.000000000000000e+00
					-7.498816016011041e-01 5.213955762008280e-01 0.000000000000000e+00
					-6.668811890010349e-01 4.770896026882762e-01 0.000000000000000e+00
					-6.888538452510351e-01 3.180597351255176e-01 0.000000000000000e+00
					-6.073330762008280e-01 2.919477881004141e-01 0.000000000000000e+00
					-6.668811890010349e-01 4.770896026882762e-01 0.000000000000000e+00
					-5.975674512008280e-01 4.379216821506210e-01 0.000000000000000e+00
					-6.073330762008280e-01 2.919477881004141e-01 0.000000000000000e+00
					-5.443817944504830e-01 2.692612097252415e-01 0.000000000000000e+00
					-5.975674512008280e-01 4.379216821506210e-01 0.000000000000000e+00
					-5.419403882004830e-01 4.038918145878622e-01 0.000000000000000e+00
					-5.443817944504830e-01 2.692612097252415e-01 0.000000000000000e+00
					-5.000000000000000e-01 2.500000000000001e-01 0.000000000000000e+00
					-5.419403882004830e-01 4.038918145878622e-01 0.000000000000000e+00
					-5.000000000000000e-01 3.750000000000000e-01 0.000000000000000e+00
					-1.218750000000000e+00 7.500000000000000e-01 0.000000000000000e+00
					-1.081002888200483e+00 6.851418145878623e-01 0.000000000000000e+00
					-1.000000000000000e+00 1.000000000000000e+00 0.000000000000000e+00
					-9.135224194504830e-01 9.135224194504830e-01 0.000000000000000e+00
					-1.081002888200483e+00 6.851418145878623e-01 0.000000000000000e+00
					-9.569424512008280e-01 6.254216821506210e-01 0.000000000000000e+00
					-9.135224194504830e-01 9.135224194504830e-01 0.000000000000000e+00
					-8.338955762008280e-01 8.338955762008280e-01 0.000000000000000e+00
					-9.569424512008280e-01 6.254216821506210e-01 0.000000000000000e+00
					-8.465686890010349e-01 5.708396026882763e-01 0.000000000000000e+00
					-8.338955762008280e-01 8.338955762008280e-01 0.000000000000000e+00
					-7.611194702510350e-01 7.611194702510350e-01 0.000000000000000e+00
					-8.465686890010349e-01 5.708396026882763e-01 0.000000000000000e+00
					-7.498816016011041e-01 5.213955762008280e-01 0.000000000000000e+00
					-7.611194702510350e-01 7.611194702510350e-01 0.000000000000000e+00
					-6.951941016011041e-01 6.951941016011041e-01 0.000000000000000e+00
					-7.498816016011041e-01 5.213955762008280e-01 0.000000000000000e+00
					-6.668811890010349e-01 4.770896026882762e-01 0.000000000000000e+00
					-6.951941016011041e-01 6.951941016011041e-01 0.000000000000000e+00
					-6.361194702510350e-01 6.361194702510350e-01 0.000000000000000e+00
					-6.668811890010349e-01 4.770896026882762e-01 0.000000000000000e+00
					-5.975674512008280e-01 4.379216821506210e-01 0.000000000000000e+00
					-6.361194702510350e-01 6.361194702510350e-01 0.000000000000000e+00
					-5.838955762008280e-01 5.838955762008280e-01 0.000000000000000e+00
					-5.975674512008280e-01 4.379216821506210e-01 0.000000000000000e+00
					-5.419403882004830e-01 4.038918145878622e-01 0.000000000000000e+00
					-5.838955762008280e-01 5.838955762008280e-01 0.000000000000000e+00
					-5.385224194504830e-01 5.385224194504830e-01 0.000000000000000e+00
					-5.419403882004830e-01 4.038918145878622e-01 0.000000000000000e+00
					-5.000000000000000e-01 3.750000000000000e-01 0.000000000000000e+00
					-5.385224194504830e-01 5.385224194504830e-01 0.000000000000000e+00
					-5.000000000000000e-01 5.000000000000000e-01 0.000000000000000e+00
				</DataArray>
			</Points>
			<Cells>
				<DataArray Name="connectivity" type="UInt32" format="ascii">
					0 1 3 2 4 5 7 6 8 9 11 10 12 13 15 14 16 17 19 18 20 21 23 22 24 25 27 26 28 29 31 30 32 33 35 34 36 37 39 38 40 41 43 42 44 45 47 46 48 49 51 50 52 53 55 54 56 57 59 58 60 61 63 62 64 65 67 66 68 69 71 70 72 73 75 74 76 77 79 78 80 81 83 82 84 85 87 86 88 89 91 90 92 93 95 94 96 97 99 98 100 101 103 102 104 105 107 106 108 109 111 110 112 113 115 114 116 117 119 118 120 121 123 122 124 125 127 126 128 129 131 130 132 133 135 134 136 137 139 138 140 141 143 142 144 145 147 146 148 149 151 150 152 153 155 154 156 157 159 158 160 161 163 162 164 165 167 166 168 169 171 170 172 173 175 174 176 177 179 178 180 181 183 182 184 185 187 186 188 189 191 190 192 193 195 194 196 197 199 198 200 201 203 202 204 205 207 206 208 209 211 210 212 213 215 214 216 217 219 218 220 221 223 222 224 225 227 226 228 229 231 230 232 233 235 234 236 237 239 238 240 241 243 242 244 245 247 246 248 249 251 250 252 253 255 254 
				</DataArray>
				<DataArray Name="offsets" type="UInt32" format="ascii">
					4 8 12 16 20 24 28 32 36 40 44 48 52 56 60 64 68 72 76 80 84 88 92 96 100 104 108 112 116 120 124 128 132 136 140 144 148 152 156 160 164 168 172 176 180 184 188 192 196 200 204 208 212 216 220 224 228 232 236 240 244 248 252 256 
				</DataArray>
				<DataArray Name="types" type="UInt8" format="ascii">
					9 9 9 9 9 9 9 9 9 9 9 9 9 9 9 9 9 9 9 9 9 9 9 9 9 9 9 9 9 9 9 9 9 9 9 9 9 9 9 9 9 9 9 9 9 9 9 9 9 9 9 9 9 9 9 9 9 9 9 9 9 9 9 9 
				</DataArray>
			</Cells>
			<PointData Vectors="solution ">
				<DataArray Name="solution" type="Float64" NumberOfComponents="1" format="ascii">
					0.000000000000000e+00 -3.192555191379460e-03 0.000000000000000e+00 -1.008990151260136e-03 -3.192555191379460e-03 -1.390236916282155e-03 -1.008990151260136e-03 2.098743490220321e-02 -1.390236916282155e-03 3.404774312562103e-02 2.098743490220321e-02 1.263342716333274e-01 3.404774312562103e-02 1.375034126150175e-01 1.263342716333274e-01 3.762045599123610e-01 1.375034126150175e-01 3.370592164327755e-01 3.762045599123610e-01 8.000642085496580e-01 3.370592164327755e-01 6.441615956521438e-01 8.000642085496580e-01 1.380549959444925e+00 6.441615956521438e-01 1.048523105624168e+00 1.380549959444925e+00 2.057927260030854e+00 1.048523105624168e+00 1.518685006763170e+00 2.057927260030854e+00 2.746536793374291e+00 0.000000000000000e+00 -1.008990151260136e-03 0.000000000000000e+00 3.214834923614556e-03 -1.008990151260136e-03 2.098743490220321e-02 3.214834923614556e-03 6.126893285137842e-02 2.098743490220321e-02 1.263342716333274e-01 6.126893285137842e-02 2.862654972824500e-01 1.263342716333274e-01 3.762045599123610e-01 2.862654972824500e-01 7.739767170384340e-01 3.762045599123610e-01 8.000642085496580e-01 7.739767170384340e-01 1.537670194239405e+00 8.000642085496580e-01 1.380549959444925e+00 1.537670194239405e+00 2.497404639486385e+00 1.380549959444925e+00 2.057927260030854e+00 2.497404639486385e+00 3.512896217792681e+00 2.057927260030854e+00 2.746536793374291e+00 3.512896217792681e+00 4.428374089980760e+00 0.000000000000000e+00 3.214834923614556e-03 0.000000000000000e+00 9.538101474398104e-03 3.214834923614556e-03 6.126893285137842e-02 9.538101474398104e-03 1.220788330426463e-01 6.126893285137842e-02 2.862654972824500e-01 1.220788330426463e-01 5.215919298374059e-01 2.862654972824500e-01 7.739767170384340e-01 5.215919298374059e-01 1.339539731861175e+00 7.739767170384340e-01 1.537670194239405e+00 1.339539731861175e+00 2.546953037787715e+00 1.537670194239405e+00 2.497404639486385e+00 2.546953037787715e+00 3.966645581203886e+00 2.497404639486385e+00 3.512896217792681e+00 3.966645581203886e+00 5.356571934245546e+00 3.512896217792681e+00 4.428374089980760e+00 5.356571934245546e+00 6.490433772255918e+00 0.000000000000000e+00 9.538101474398104e-03 0.000000000000000e+00 1.791111073534457e-02 9.538101474398104e-03 1.220788330426463e-01 1.791111073534457e-02 2.026719269462028e-01 1.220788330426463e-01 5.215919298374059e-01 2.026719269462028e-01 8.216939444522322e-01 5.215919298374059e-01 1.339539731861175e+00 8.216939444522322e-01 2.030392296991679e+00 1.339539731861175e+00 2.546953037787715e+00 2.030392296991679e+00 3.731707328789011e+00 2.546953037787715e+00 3.966645581203886e+00 3.731707328789011e+00 5.633873381814749e+00 3.966645581203886e+00 5.356571934245546e+00 5.633873381814749e+00 7.394310774061806e+00 5.356571934245546e+00 6.490433772255918e+00 7.394310774061806e+00 8.730787732525537e+00 0.000000000000000e+00 1.791111073534457e-02 0.000000000000000e+00 2.682793406404959e-02 1.791111073534457e-02 2.026719269462028e-01 2.682793406404959e-02 2.935201416136166e-01 2.026719269462028e-01 8.216939444522322e-01 2.935201416136166e-01 1.144052415717106e+00 8.216939444522322e-01 2.030392296991679e+00 1.144052415717106e+00 2.731659770582801e+00 2.030392296991679e+00 3.731707328789011e+00 2.731659770582801e+00 4.880631786628468e+00 3.731707328789011e+00 5.633873381814749e+00 4.880631786628468e+00 7.202392632352995e+00 5.633873381814749e+00 7.394310774061806e+00 7.202392632352995e+00 9.285125218643826e+00 7.394310774061806e+00 8.730787732525537e+00 9.285125218643826e+00 1.081737403307755e+01 0.000000000000000e+00 2.682793406404959e-02 0.000000000000000e+00 3.387833018406854e-02 2.682793406404959e-02 2.935201416136166e-01 3.387833018406854e-02 3.734059293815238e-01 2.935201416136166e-01 1.144052415717106e+00 3.734059293815238e-01 1.406643125227855e+00 1.144052415717106e+00 2.731659770582801e+00 1.406643125227855e+00 3.255327077133046e+00 2.731659770582801e+00 4.880631786628468e+00 3.255327077133046e+00 5.686506602986988e+00 4.880631786628468e+00 7.202392632352995e+00 5.686506602986988e+00 8.273317634684531e+00 7.202392632352995e+00 9.285125218643826e+00 8.273317634684531e+00 1.059143869188753e+01 9.285125218643826e+00 1.081737403307755e+01 1.059143869188753e+01 1.233240859610504e+01 0.000000000000000e+00 3.387833018406854e-02 0.000000000000000e+00 3.557475303456357e-02 3.387833018406854e-02 3.734059293815238e-01 3.557475303456357e-02 4.065968068486497e-01 3.734059293815238e-01 1.406643125227855e+00 4.065968068486497e-01 1.493695281087307e+00 1.406643125227855e+00 3.255327077133046e+00 1.493695281087307e+00 3.378022011950716e+00 3.255327077133046e+00 5.686506602986988e+00 3.378022011950716e+00 5.826111260279061e+00 5.686506602986988e+00 8.273317634684531e+00 5.826111260279061e+00 8.454990929289002e+00 8.273317634684531e+00 1.059143869188753e+01 8.454990929289002e+00 1.089294003510731e+01 1.059143869188753e+01 1.233240859610504e+01 1.089294003510731e+01 1.286711619913494e+01 0.000000000000000e+00 3.557475303456357e-02 0.000000000000000e+00 1.762406782440339e-02 3.557475303456357e-02 4.065968068486497e-01 1.762406782440339e-02 3.345883698317160e-01 4.065968068486497e-01 1.493695281087307e+00 3.345883698317160e-01 1.283776076223683e+00 1.493695281087307e+00 3.378022011950716e+00 1.283776076223683e+00 2.928007641722925e+00 3.378022011950716e+00 5.826111260279061e+00 2.928007641722925e+00 5.097907995517282e+00 5.826111260279061e+00 8.454990929289002e+00 5.097907995517282e+00 7.523750101020212e+00 8.454990929289002e+00 1.089294003510731e+01 7.523750101020212e+00 9.942470048324950e+00 1.089294003510731e+01 1.286711619913494e+01 9.942470048324950e+00 1.215213141320016e+01 
				</DataArray>
			</PointData>
			<CellData>
			</CellData>
		</Piece>
	</UnstructuredGrid>
</VTKFile>