<?xml version="1.0"?>
<VTKFile type="UnstructuredGrid" byte_order="LittleEndian">
	<UnstructuredGrid>
		<Piece NumberOfPoints="256" NumberOfCells="64">
			<Points>
				<DataArray type="Float64" NumberOfComponents="3" format="ascii">
					1.000000000000000e+00 -1.000000000000000e+00 0.000000000000000e+00
					1.218750000000000e+00 -7.500000000000000e-01 0.000000000000000e+00
					9.135224194504830e-01 -9.135224194504830e-01 0.000000000000000e+00
					1.081002888200483e+00 -6.851418145878623e-01 0.000000000000000e+00
					1.218750000000000e+00 -7.500000000000000e-01 0.000000000000000e+00
					1.375000000000000e+00 -5.000000000000000e-01 0.000000000000000e+00
					1.081002888200483e+00 -6.851418145878623e-01 0.000000000000000e+00
					1.200631794450484e+00 -4.567612097252415e-01 0.000000000000000e+00
					1.375000000000000e+00 -5.000000000000000e-01 0.000000000000000e+00
					1.468750000000000e+00 -2.499999999999999e-01 0.000000000000000e+00
					1.200631794450484e+00 -4.567612097252415e-01 0.000000000000000e+00
					1.272409138200483e+00 -2.283806048626207e-01 0.000000000000000e+00
					1.468750000000000e+00 -2.499999999999999e-01 0.000000000000000e+00
					1.500000000000000e+00 6.938893903907228e-17 0.000000000000000e+00
					1.272409138200483e+00 -2.283806048626207e-01 0.000000000000000e+00
					1.296334919450483e+00 6.581107186987012e-17 0.000000000000000e+00
					1.500000000000000e+00 6.938893903907228e-17 0.000000000000000e+00
					1.468750000000000e+00 2.500000000000001e-01 0.000000000000000e+00
					1.296334919450483e+00 6.581107186987012e-17 0.000000000000000e+00
					1.272409138200483e+00 2.283806048626209e-01 0.000000000000000e+00
					1.468750000000000e+00 2.500000000000001e-01 0.000000000000000e+00
					1.375000000000000e+00 5.000000000000001e-01 0.000000000000000e+00
					1.272409138200483e+00 2.283806048626209e-01 0.000000000000000e+00
					1.200631794450483e+00 4.567612097252416e-01 0.000000000000000e+00
					1.375000000000000e+00 5.000000000000001e-01 0.000000000000000e+00
					1.218750000000000e+00 7.500000000000000e-01 0.000000000000000e+00
					1.200631794450483e+00 4.567612097252416e-01 0.000000000000000e+00
					1.081002888200483e+00 6.851418145878623e-01 0.000000000000000e+00
					1.218750000000000e+00 7.500000000000000e-01 0.000000000000000e+00
					1.000000000000000e+00 1.000000000000000e+00 0.000000000000000e+00
					1.081002888200483e+00 6.851418145878623e-01 0.000000000000000e+00
					9.135224194504830e-01 9.135224194504830e-01 0.000000000000000e+00
					9.135224194504830e-01 -9.135224194504830e-01 0.000000000000000e+00
					1.081002888200483e+00 -6.851418145878623e-01 0.000000000000000e+00
					8.338955762008280e-01 -8.338955762008280e-01 0.000000000000000e+00
					9.569424512008281e-01 -6.254216821506211e-01 0.000000000000000e+00
					1.081002888200483e+00 -6.851418145878623e-01 0.000000000000000e+00
					1.200631794450484e+00 -4.567612097252415e-01 0.000000000000000e+00
					9.569424512008281e-01 -6.254216821506211e-01 0.000000000000000e+00
					1.044833076200828e+00 -4.169477881004140e-01 0.000000000000000e+00
					1.200631794450484e+00 -4.567612097252415e-01 0.000000000000000e+00
					1.272409138200483e+00 -2.283806048626207e-01 0.000000000000000e+00
					1.044833076200828e+00 -4.169477881004140e-01 0.000000000000000e+00
					1.097567451200828e+00 -2.084738940502070e-01 0.000000000000000e+00
					1.272409138200483e+00 -2.283806048626207e-01 0.000000000000000e+00
					1.296334919450483e+00 6.581107186987012e-17 0.000000000000000e+00
					1.097567451200828e+00 -2.084738940502070e-01 0.000000000000000e+00
					1.115145576200828e+00 6.201636426617085e-17 0.000000000000000e+00
					1.296334919450483e+00 6.581107186987012e-17 0.000000000000000e+00
					1.272409138200483e+00 2.283806048626209e-01 0.000000000000000e+00
					1.115145576200828e+00 6.201636426617085e-17 0.000000000000000e+00
					1.097567451200828e+00 2.084738940502071e-01 0.000000000000000e+00
					1.272409138200483e+00 2.283806048626209e-01 0.000000000000000e+00
					1.200631794450483e+00 4.567612097252416e-01 0.000000000000000e+00
					1.097567451200828e+00 2.084738940502071e-01 0.000000000000000e+00
					1.044833076200828e+00 4.169477881004141e-01 0.000000000000000e+00
					1.200631794450483e+00 4.567612097252416e-01 0.000000000000000e+00
					1.081002888200483e+00 6.851418145878623e-01 0.000000000000000e+00
					1.044833076200828e+00 4.169477881004141e-01 0.000000000000000e+00
					9.569424512008281e-01 6.254216821506211e-01 0.000000000000000e+00
					1.081002888200483e+00 6.851418145878623e-01 0.000000000000000e+00
					9.135224194504830e-01 9.135224194504830e-01 0.000000000000000e+00
					9.569424512008281e-01 6.254216821506211e-01 0.000000000000000e+00
					8.338955762008280e-01 8.338955762008280e-01 0.000000000000000e+00
					8.338955762008280e-01 -8.338955762008280e-01 0.000000000000000e+00
					9.569424512008281e-01 -6.254216821506211e-01 0.000000000000000e+00
					7.611194702510350e-01 -7.611194702510350e-01 0.000000000000000e+00
					8.465686890010350e-01 -5.708396026882762e-01 0.000000000000000e+00
					9.569424512008281e-01 -6.254216821506211e-01 0.000000000000000e+00
					1.044833076200828e+00 -4.169477881004140e-01 0.000000000000000e+00
					8.465686890010350e-01 -5.708396026882762e-01 0.000000000000000e+00
					9.076038452510352e-01 -3.805597351255174e-01 0.000000000000000e+00
					1.044833076200828e+00 -4.169477881004140e-01 0.000000000000000e+00
					1.097567451200828e+00 -2.084738940502070e-01 0.000000000000000e+00
					9.076038452510352e-01 -3.805597351255174e-01 0.000000000000000e+00
					9.442249390010351e-01 -1.902798675627587e-01 0.000000000000000e+00
					1.097567451200828e+00 -2.084738940502070e-01 0.000000000000000e+00
					1.115145576200828e+00 6.201636426617085e-17 0.000000000000000e+00
					9.442249390010351e-01 -1.902798675627587e-01 0.000000000000000e+00
					9.564319702510350e-01 5.800481622797449e-17 0.000000000000000e+00
					1.115145576200828e+00 6.201636426617085e-17 0.000000000000000e+00
					1.097567451200828e+00 2.084738940502071e-01 0.000000000000000e+00
					9.564319702510350e-01 5.800481622797449e-17 0.000000000000000e+00
					9.442249390010350e-01 1.902798675627588e-01 0.000000000000000e+00
					1.097567451200828e+00 2.084738940502071e-01 0.000000000000000e+00
					1.044833076200828e+00 4.169477881004141e-01 0.000000000000000e+00
					9.442249390010350e-01 1.902798675627588e-01 0.000000000000000e+00
					9.076038452510350e-01 3.805597351255176e-01 0.000000000000000e+00
					1.044833076200828e+00 4.169477881004141e-01 0.000000000000000e+00
					9.569424512008281e-01 6.254216821506211e-01 0.000000000000000e+00
					9.076038452510350e-01 3.805597351255176e-01 0.000000000000000e+00
					8.465686890010350e-01 5.708396026882762e-01 0.000000000000000e+00
					9.569424512008281e-01 6.254216821506211e-01 0.000000000000000e+00
					8.338955762008280e-01 8.338955762008280e-01 0.000000000000000e+00
					8.465686890010350e-01 5.708396026882762e-01 0.000000000000000e+00
					7.611194702510350e-01 7.611194702510350e-01 0.000000000000000e+00
					7.611194702510350e-01 -7.611194702510350e-01 0.000000000000000e+00
					8.465686890010350e-01 -5.708396026882762e-01 0.000000000000000e+00
					6.951941016011041e-01 -6.951941016011041e-01 0.000000000000000e+00
					7.498816016011041e-01 -5.213955762008279e-01 0.000000000000000e+00
					8.465686890010350e-01 -5.708396026882762e-01 0.000000000000000e+00
					9.076038452510352e-01 -3.805597351255174e-01 0.000000000000000e+00
					7.498816016011041e-01 -5.213955762008279e-01 0.000000000000000e+00
					7.889441016011042e-01 -3.475970508005519e-01 0.000000000000000e+00
					9.076038452510352e-01 -3.805597351255174e-01 0.000000000000000e+00
					9.442249390010351e-01 -1.902798675627587e-01 0.000000000000000e+00
					7.889441016011042e-01 -3.475970508005519e-01 0.000000000000000e+00
					8.123816016011042e-01 -1.737985254002760e-01 0.000000000000000e+00
					9.442249390010351e-01 -1.902798675627587e-01 0.000000000000000e+00
					9.564319702510350e-01 5.800481622797449e-17 0.000000000000000e+00
					8.123816016011042e-01 -1.737985254002760e-01 0.000000000000000e+00
					8.201941016011041e-01 5.377642775528102e-17 0.000000000000000e+00
					9.564319702510350e-01 5.800481622797449e-17 0.000000000000000e+00
					9.442249390010350e-01 1.902798675627588e-01 0.000000000000000e+00
					8.201941016011041e-01 5.377642775528102e-17 0.000000000000000e+00
					8.123816016011041e-01 1.737985254002761e-01 0.000000000000000e+00
					9.442249390010350e-01 1.902798675627588e-01 0.000000000000000e+00
					9.076038452510350e-01 3.805597351255176e-01 0.000000000000000e+00
					8.123816016011041e-01 1.737985254002761e-01 0.000000000000000e+00
					7.889441016011040e-01 3.475970508005521e-01 0.000000000000000e+00
					9.076038452510350e-01 3.805597351255176e-01 0.000000000000000e+00
					8.465686890010350e-01 5.708396026882762e-01 0.000000000000000e+00
					7.889441016011040e-01 3.475970508005521e-01 0.000000000000000e+00
					7.498816016011041e-01 5.213955762008279e-01 0.000000000000000e+00
					8.465686890010350e-01 5.708396026882762e-01 0.000000000000000e+00
					7.611194702510350e-01 7.611194702510350e-01 0.000000000000000e+00
					7.498816016011041e-01 5.213955762008279e-01 0.000000000000000e+00
					6.951941016011041e-01 6.951941016011041e-01 0.000000000000000e+00
					6.951941016011041e-01 -6.951941016011041e-01 0.000000000000000e+00
					7.498816016011041e-01 -5.213955762008279e-01 0.000000000000000e+00
					6.361194702510350e-01 -6.361194702510350e-01 0.000000000000000e+00
					6.668811890010350e-01 -4.770896026882761e-01 0.000000000000000e+00
					7.498816016011041e-01 -5.213955762008279e-01 0.000000000000000e+00
					7.889441016011042e-01 -3.475970508005519e-01 0.000000000000000e+00
					6.668811890010350e-01 -4.770896026882761e-01 0.000000000000000e+00
					6.888538452510350e-01 -3.180597351255174e-01 0.000000000000000e+00
					7.889441016011042e-01 -3.475970508005519e-01 0.000000000000000e+00
					8.123816016011042e-01 -1.737985254002760e-01 0.000000000000000e+00
					6.888538452510350e-01 -3.180597351255174e-01 0.000000000000000e+00
					7.020374390010350e-01 -1.590298675627587e-01 0.000000000000000e+00
					8.123816016011042e-01 -1.737985254002760e-01 0.000000000000000e+00
					8.201941016011041e-01 5.377642775528102e-17 0.000000000000000e+00
					7.020374390010350e-01 -1.590298675627587e-01 0.000000000000000e+00
					7.064319702510350e-01 4.933119884809045e-17 0.000000000000000e+00
					8.201941016011041e-01 5.377642775528102e-17 0.000000000000000e+00
					8.123816016011041e-01 1.737985254002761e-01 0.000000000000000e+00
					7.064319702510350e-01 4.933119884809045e-17 0.000000000000000e+00
					7.020374390010350e-01 1.590298675627588e-01 0.000000000000000e+00
					8.123816016011041e-01 1.737985254002761e-01 0.000000000000000e+00
					7.889441016011040e-01 3.475970508005521e-01 0.000000000000000e+00
					7.020374390010350e-01 1.590298675627588e-01 0.000000000000000e+00
					6.888538452510349e-01 3.180597351255176e-01 0.000000000000000e+00
					7.889441016011040e-01 3.475970508005521e-01 0.000000000000000e+00
					7.498816016011041e-01 5.213955762008279e-01 0.000000000000000e+00
					6.888538452510349e-01 3.180597351255176e-01 0.000000000000000e+00
					6.668811890010350e-01 4.770896026882761e-01 0.000000000000000e+00
					7.498816016011041e-01 5.213955762008279e-01 0.000000000000000e+00
					6.951941016011041e-01 6.951941016011041e-01 0.000000000000000e+00
					6.668811890010350e-01 4.770896026882761e-01 0.000000000000000e+00
					6.361194702510350e-01 6.361194702510350e-01 0.000000000000000e+00
					6.361194702510350e-01 -6.361194702510350e-01 0.000000000000000e+00
					6.668811890010350e-01 -4.770896026882761e-01 0.000000000000000e+00
					5.838955762008280e-01 -5.838955762008280e-01 0.000000000000000e+00
					5.975674512008280e-01 -4.379216821506209e-01 0.000000000000000e+00
					6.668811890010350e-01 -4.770896026882761e-01 0.000000000000000e+00
					6.888538452510350e-01 -3.180597351255174e-01 0.000000000000000e+00
					5.975674512008280e-01 -4.379216821506209e-01 0.000000000000000e+00
					6.073330762008280e-01 -2.919477881004139e-01 0.000000000000000e+00
					6.888538452510350e-01 -3.180597351255174e-01 0.000000000000000e+00
					7.020374390010350e-01 -1.590298675627587e-01 0.000000000000000e+00
					6.073330762008280e-01 -2.919477881004139e-01 0.000000000000000e+00
					6.131924512008280e-01 -1.459738940502070e-01 0.000000000000000e+00
					7.020374390010350e-01 -1.590298675627587e-01 0.000000000000000e+00
					7.064319702510350e-01 4.933119884809045e-17 0.000000000000000e+00
					6.131924512008280e-01 -1.459738940502070e-01 0.000000000000000e+00
					6.151455762008280e-01 4.466912950640279e-17 0.000000000000000e+00
					7.064319702510350e-01 4.933119884809045e-17 0.000000000000000e+00
					7.020374390010350e-01 1.590298675627588e-01 0.000000000000000e+00
					6.151455762008280e-01 4.466912950640279e-17 0.000000000000000e+00
					6.131924512008280e-01 1.459738940502071e-01 0.000000000000000e+00
					7.020374390010350e-01 1.590298675627588e-01 0.000000000000000e+00
					6.888538452510349e-01 3.180597351255176e-01 0.000000000000000e+00
					6.131924512008280e-01 1.459738940502071e-01 0.000000000000000e+00
					6.073330762008280e-01 2.919477881004141e-01 0.000000000000000e+00
					6.888538452510349e-01 3.180597351255176e-01 0.000000000000000e+00
					6.668811890010350e-01 4.770896026882761e-01 0.000000000000000e+00
					6.073330762008280e-01 2.919477881004141e-01 0.000000000000000e+00
					5.975674512008280e-01 4.379216821506209e-01 0.000000000000000e+00
					6.668811890010350e-01 4.770896026882761e-01 0.000000000000000e+00
					6.361194702510350e-01 6.361194702510350e-01 0.000000000000000e+00
					5.975674512008280e-01 4.379216821506209e-01 0.000000000000000e+00
					5.838955762008280e-01 5.838955762008280e-01 0.000000000000000e+00
					5.838955762008280e-01 -5.838955762008280e-01 0.000000000000000e+00
					5.975674512008280e-01 -4.379216821506209e-01 0.000000000000000e+00
					5.385224194504830e-01 -5.385224194504830e-01 0.000000000000000e+00
					5.419403882004830e-01 -4.038918145878622e-01 0.000000000000000e+00
					5.975674512008280e-01 -4.379216821506209e-01 0.000000000000000e+00
					6.073330762008280e-01 -2.919477881004139e-01 0.000000000000000e+00
					5.419403882004830e-01 -4.038918145878622e-01 0.000000000000000e+00
					5.443817944504830e-01 -2.692612097252415e-01 0.000000000000000e+00
					6.073330762008280e-01 -2.919477881004139e-01 0.000000000000000e+00
					6.131924512008280e-01 -1.459738940502070e-01 0.000000000000000e+00
					5.443817944504830e-01 -2.692612097252415e-01 0.000000000000000e+00
					5.458466382004830e-01 -1.346306048626207e-01 0.000000000000000e+00
					6.131924512008280e-01 -1.459738940502070e-01 0.000000000000000e+00
					6.151455762008280e-01 4.466912950640279e-17 0.000000000000000e+00
					5.458466382004830e-01 -1.346306048626207e-01 0.000000000000000e+00
					5.463349194504830e-01 3.979021973021801e-17 0.000000000000000e+00
					6.151455762008280e-01 4.466912950640279e-17 0.000000000000000e+00
					6.131924512008280e-01 1.459738940502071e-01 0.000000000000000e+00
					5.463349194504830e-01 3.979021973021801e-17 0.000000000000000e+00
					5.458466382004830e-01 1.346306048626208e-01 0.000000000000000e+00
					6.131924512008280e-01 1.459738940502071e-01 0.000000000000000e+00
					6.073330762008280e-01 2.919477881004141e-01 0.000000000000000e+00
					5.458466382004830e-01 1.346306048626208e-01 0.000000000000000e+00
					5.443817944504830e-01 2.692612097252415e-01 0.000000000000000e+00
					6.073330762008280e-01 2.919477881004141e-01 0.000000000000000e+00
					5.975674512008280e-01 4.379216821506209e-01 0.000000000000000e+00
					5.443817944504830e-01 2.692612097252415e-01 0.000000000000000e+00
					5.419403882004830e-01 4.038918145878622e-01 0.000000000000000e+00
					5.975674512008280e-01 4.379216821506209e-01 0.000000000000000e+00
					5.838955762008280e-01 5.838955762008280e-01 0.000000000000000e+00
					5.419403882004830e-01 4.038918145878622e-01 0.000000000000000e+00
					5.385224194504830e-01 5.385224194504830e-01 0.000000000000000e+00
					5.385224194504830e-01 -5.385224194504830e-01 0.000000000000000e+00
					5.419403882004830e-01 -4.038918145878622e-01 0.000000000000000e+00
					5.000000000000000e-01 -5.000000000000000e-01 0.000000000000000e+00
					5.000000000000000e-01 -3.750000000000000e-01 0.000000000000000e+00
					5.419403882004830e-01 -4.038918145878622e-01 0.000000000000000e+00
					5.443817944504830e-01 -2.692612097252415e-01 0.000000000000000e+00
					5.000000000000000e-01 -3.750000000000000e-01 0.000000000000000e+00
					5.000000000000000e-01 -2.500000000000000e-01 0.000000000000000e+00
					5.443817944504830e-01 -2.692612097252415e-01 0.000000000000000e+00
					5.458466382004830e-01 -1.346306048626207e-01 0.000000000000000e+00
					5.000000000000000e-01 -2.500000000000000e-01 0.000000000000000e+00
					5.000000000000000e-01 -1.250000000000000e-01 0.000000000000000e+00
					5.458466382004830e-01 -1.346306048626207e-01 0.000000000000000e+00
					5.463349194504830e-01 3.979021973021801e-17 0.000000000000000e+00
					5.000000000000000e-01 -1.250000000000000e-01 0.000000000000000e+00
					5.000000000000000e-01 3.469446951953614e-17 0.000000000000000e+00
					5.463349194504830e-01 3.979021973021801e-17 0.000000000000000e+00
					5.458466382004830e-01 1.346306048626208e-01 0.000000000000000e+00
					5.000000000000000e-01 3.469446951953614e-17 0.000000000000000e+00
					5.000000000000000e-01 1.250000000000001e-01 0.000000000000000e+00
					5.458466382004830e-01 1.346306048626208e-01 0.000000000000000e+00
					5.443817944504830e-01 2.692612097252415e-01 0.000000000000000e+00
					5.000000000000000e-01 1.250000000000001e-01 0.000000000000000e+00
					5.000000000000000e-01 2.500000000000001e-01 0.000000000000000e+00
					5.443817944504830e-01 2.692612097252415e-01 0.000000000000000e+00
					5.419403882004830e-01 4.038918145878622e-01 0.000000000000000e+00
					5.000000000000000e-01 2.500000000000001e-01 0.000000000000000e+00
					5.000000000000000e-01 3.750000000000000e-01 0.000000000000000e+00
					5.419403882004830e-01 4.038918145878622e-01 0.000000000000000e+00
					5.385224194504830e-01 5.385224194504830e-01 0.000000000000000e+00
					5.000000000000000e-01 3.750000000000000e-01 0.000000000000000e+00
					5.000000000000000e-01 5.000000000000000e-01 0.000000000000000e+00
				</DataArray>
			</Points>
			<Cells>
				<DataArray Name="connectivity" type="UInt32" format="ascii">
					0 1 3 2 4 5 7 6 8 9 11 10 12 13 15 14 16 17 19 18 20 21 23 22 24 25 27 26 28 29 31 30 32 33 35 34 36 37 39 38 40 41 43 42 44 45 47 46 48 49 51 50 52 53 55 54 56 57 59 58 60 61 63 62 64 65 67 66 68 69 71 70 72 73 75 74 76 77 79 78 80 81 83 82 84 85 87 86 88 89 91 90 92 93 95 94 96 97 99 98 100 101 103 102 104 105 107 106 108 109 111 110 112 113 115 114 116 117 119 118 120 121 123 122 124 125 127 126 128 129 131 130 132 133 135 134 136 137 139 138 140 141 143 142 144 145 147 146 148 149 151 150 152 153 155 154 156 157 159 158 160 161 163 162 164 165 167 166 168 169 171 170 172 173 175 174 176 177 179 178 180 181 183 182 184 185 187 186 188 189 191 190 192 193 195 194 196 197 199 198 200 201 203 202 204 205 207 206 208 209 211 210 212 213 215 214 216 217 219 218 220 221 223 222 224 225 227 226 228 229 231 230 232 233 235 234 236 237 239 238 240 241 243 242 244 245 247 246 248 249 251 250 252 253 255 254 
				</DataArray>
				<DataArray Name="offsets" type="UInt32" format="ascii">
					4 8 12 16 20 24 28 32 36 40 44 48 52 56 60 64 68 72 76 80 84 88 92 96 100 104 108 112 116 120 124 128 132 136 140 144 148 152 156 160 164 168 172 176 180 184 188 192 196 200 204 208 212 216 220 224 228 232 236 240 244 248 252 256 
				</DataArray>
				<DataArray Name="types" type="UInt8" format="ascii">
					9 9 9 9 9 9 9 9 9 9 9 9 9 9 9 9 9 9 9 9 9 9 9 9 9 9 9 9 9 9 9 9 9 9 9 9 9 9 9 9 9 9 9 9 9 9 9 9 9 9 9 9 9 9 9 9 9 9 9 9 9 9 9 9 
				</DataArray>
			</Cells>
			<PointData Vectors="solution ">
				<DataArray Name="solution" type="Float64" NumberOfComponents="1" format="ascii">
					0.000000000000000e+00 0.000000000000000e+00 5.256700679511106e-03 1.922637540435236e-02 0.000000000000000e+00 0.000000000000000e+00 1.922637540435236e-02 5.435586746496107e-02 0.000000000000000e+00 0.000000000000000e+00 5.435586746496107e-02 1.244651789195162e-01 0.000000000000000e+00 0.000000000000000e+00 1.244651789195162e-01 2.236919149307042e-01 0.000000000000000e+00 0.000000000000000e+00 2.236919149307042e-01 3.097858358200523e-01 0.000000000000000e+00 0.000000000000000e+00 3.097858358200523e-01 3.360605903091562e-01 0.000000000000000e+00 0.000000000000000e+00 3.360605903091562e-01 2.950714551228567e-01 0.000000000000000e+00 0.000000000000000e+00 2.950714551228567e-01 2.021959736085838e-01 5.256700679511106e-03 1.922637540435236e-02 6.957703855742846e-02 2.224659037430113e-01 1.922637540435236e-02 5.435586746496107e-02 2.224659037430113e-01 5.491681467197049e-01 5.435586746496107e-02 1.244651789195162e-01 5.491681467197049e-01 1.104186404211839e+00 1.244651789195162e-01 2.236919149307042e-01 1.104186404211839e+00 1.838205294063646e+00 2.236919149307042e-01 3.097858358200523e-01 1.838205294063646e+00 2.541789449254148e+00 3.097858358200523e-01 3.360605903091562e-01 2.541789449254148e+00 2.909617821681093e+00 3.360605903091562e-01 2.950714551228567e-01 2.909617821681093e+00 2.712586546772057e+00 2.950714551228567e-01 2.021959736085838e-01 2.712586546772057e+00 1.954442975002089e+00 6.957703855742846e-02 2.224659037430113e-01 2.875033294167596e-01 8.163156032167856e-01 2.224659037430113e-01 5.491681467197049e-01 8.163156032167856e-01 1.843876125187115e+00 5.491681467197049e-01 1.104186404211839e+00 1.843876125187115e+00 3.457068827982270e+00 1.104186404211839e+00 1.838205294063646e+00 3.457068827982270e+00 5.483922263158986e+00 1.838205294063646e+00 2.541789449254148e+00 5.483922263158986e+00 7.400515830486249e+00 2.541789449254148e+00 2.909617821681093e+00 7.400515830486249e+00 8.449558630269445e+00 2.909617821681093e+00 2.712586546772057e+00 8.449558630269445e+00 8.007550321761695e+00 2.712586546772057e+00 1.954442975002089e+00 8.007550321761695e+00 6.037775958754754e+00 2.875033294167596e-01 8.163156032167856e-01 7.310412876187068e-01 1.852871411282073e+00 8.163156032167856e-01 1.843876125187115e+00 1.852871411282073e+00 3.856975092267880e+00 1.843876125187115e+00 3.457068827982270e+00 3.856975092267880e+00 6.809446857523536e+00 3.457068827982270e+00 5.483922263158986e+00 6.809446857523536e+00 1.035969505761350e+01 5.483922263158986e+00 7.400515830486249e+00 1.035969505761350e+01 1.364732145678120e+01 7.400515830486249e+00 8.449558630269445e+00 1.364732145678120e+01 1.549229864906683e+01 8.449558630269445e+00 8.007550321761695e+00 1.549229864906683e+01 1.491557541705504e+01 8.007550321761695e+00 6.037775958754754e+00 1.491557541705504e+01 1.179404125675494e+01 7.310412876187068e-01 1.852871411282073e+00 1.417908813601100e+00 3.228869238530367e+00 1.852871411282073e+00 3.856975092267880e+00 3.228869238530367e+00 6.217528454856649e+00 3.856975092267880e+00 6.809446857523536e+00 6.217528454856649e+00 1.037539048979678e+01 6.809446857523536e+00 1.035969505761350e+01 1.037539048979678e+01 1.519374404397333e+01 1.035969505761350e+01 1.364732145678120e+01 1.519374404397333e+01 1.960126214636543e+01 1.364732145678120e+01 1.549229864906683e+01 1.960126214636543e+01 2.219089565116543e+01 1.549229864906683e+01 1.491557541705504e+01 2.219089565116543e+01 2.177082972952686e+01 1.491557541705504e+01 1.179404125675494e+01 2.177082972952686e+01 1.806080917114204e+01 1.417908813601100e+00 3.228869238530367e+00 2.310812286958293e+00 4.767983015565016e+00 3.228869238530367e+00 6.217528454856649e+00 4.767983015565016e+00 8.538127874369799e+00 6.217528454856649e+00 1.037539048979678e+01 8.538127874369799e+00 1.352268164425458e+01 1.037539048979678e+01 1.519374404397333e+01 1.352268164425458e+01 1.913008607699956e+01 1.519374404397333e+01 1.960126214636543e+01 1.913008607699956e+01 2.424708340990097e+01 1.960126214636543e+01 2.219089565116543e+01 2.424708340990097e+01 2.745072867908451e+01 2.219089565116543e+01 2.177082972952686e+01 2.745072867908451e+01 2.748587479308226e+01 2.177082972952686e+01 1.806080917114204e+01 2.748587479308226e+01 2.388440924001211e+01 2.310812286958293e+00 4.767983015565016e+00 3.333900239112451e+00 6.295435938995491e+00 4.767983015565016e+00 8.538127874369799e+00 6.295435938995491e+00 1.055838483064567e+01 8.538127874369799e+00 1.352268164425458e+01 1.055838483064567e+01 1.595597608155934e+01 1.352268164425458e+01 1.913008607699956e+01 1.595597608155934e+01 2.189353457614735e+01 1.913008607699956e+01 2.424708340990097e+01 2.189353457614735e+01 2.734097169142727e+01 2.424708340990097e+01 2.745072867908451e+01 2.734097169142727e+01 3.100101324927567e+01 2.745072867908451e+01 2.748587479308226e+01 3.100101324927567e+01 3.167250707914069e+01 2.748587479308226e+01 2.388440924001211e+01 3.167250707914069e+01 2.873854106172119e+01 3.333900239112451e+00 6.295435938995491e+00 4.394107751939614e+00 7.675886110053726e+00 6.295435938995491e+00 1.055838483064567e+01 7.675886110053726e+00 1.215618816852835e+01 1.055838483064567e+01 1.595597608155934e+01 1.215618816852835e+01 1.763645748882375e+01 1.595597608155934e+01 2.189353457614735e+01 1.763645748882375e+01 2.357279937984006e+01 2.189353457614735e+01 2.734097169142727e+01 2.357279937984006e+01 2.907827362053479e+01 2.734097169142727e+01 3.100101324927567e+01 2.907827362053479e+01 3.304525622935985e+01 3.100101324927567e+01 3.167250707914069e+01 3.304525622935985e+01 3.440207398048095e+01 3.167250707914069e+01 2.873854106172119e+01 3.440207398048095e+01 3.246908125540002e+01 
				</DataArray>
			</PointData>
			<CellData>
			</CellData>
		</Piece>
	</UnstructuredGrid>
</VTKFile>