<?xml version="1.0"?>
<VTKFile type="UnstructuredGrid" byte_order="LittleEndian">
	<UnstructuredGrid>
		<Piece NumberOfPoints="256" NumberOfCells="64">
			<Points>
				<DataArray type="Float64" NumberOfComponents="3" format="ascii">
					-5.000000000000000e-01 -5.000000000000000e-01 0.000000000000000e+00
					-3.750000000000000e-01 -5.000000000000000e-01 0.000000000000000e+00
					-5.000000000000000e-01 -3.750000000000000e-01 0.000000000000000e+00
					-3.750000000000000e-01 -3.750000000000000e-01 0.000000000000000e+00
					-3.750000000000000e-01 -5.000000000000000e-01 0.000000000000000e+00
					-2.500000000000000e-01 -5.000000000000000e-01 0.000000000000000e+00
					-3.750000000000000e-01 -3.750000000000000e-01 0.000000000000000e+00
					-2.500000000000000e-01 -3.750000000000000e-01 0.000000000000000e+00
					-2.500000000000000e-01 -5.000000000000000e-01 0.000000000000000e+00
					-1.250000000000000e-01 -5.000000000000000e-01 0.000000000000000e+00
					-2.500000000000000e-01 -3.750000000000000e-01 0.000000000000000e+00
					-1.250000000000000e-01 -3.750000000000000e-01 0.000000000000000e+00
					-1.250000000000000e-01 -5.000000000000000e-01 0.000000000000000e+00
					3.469446951953614e-17 -5.000000000000000e-01 0.000000000000000e+00
					-1.250000000000000e-01 -3.750000000000000e-01 0.000000000000000e+00
					3.469446951953615e-17 -3.750000000000000e-01 0.000000000000000e+00
					3.469446951953614e-17 -5.000000000000000e-01 0.000000000000000e+00
					1.250000000000001e-01 -5.000000000000000e-01 0.000000000000000e+00
					3.469446951953615e-17 -3.750000000000000e-01 0.000000000000000e+00
					1.250000000000001e-01 -3.750000000000000e-01 0.000000000000000e+00
					1.250000000000001e-01 -5.000000000000000e-01 0.000000000000000e+00
					2.500000000000001e-01 -5.000000000000000e-01 0.000000000000000e+00
					1.250000000000001e-01 -3.750000000000000e-01 0.000000000000000e+00
					2.500000000000001e-01 -3.750000000000000e-01 0.000000000000000e+00
					2.500000000000001e-01 -5.000000000000000e-01 0.000000000000000e+00
					3.750000000000000e-01 -5.000000000000000e-01 0.000000000000000e+00
					2.500000000000001e-01 -3.750000000000000e-01 0.000000000000000e+00
					3.750000000000000e-01 -3.750000000000000e-01 0.000000000000000e+00
					3.750000000000000e-01 -5.000000000000000e-01 0.000000000000000e+00
					5.000000000000000e-01 -5.000000000000000e-01 0.000000000000000e+00
					3.750000000000000e-01 -3.750000000000000e-01 0.000000000000000e+00
					5.000000000000000e-01 -3.750000000000000e-01 0.000000000000000e+00
					-5.000000000000000e-01 -3.750000000000000e-01 0.000000000000000e+00
					-3.750000000000000e-01 -3.750000000000000e-01 0.000000000000000e+00
					-5.000000000000000e-01 -2.500000000000000e-01 0.000000000000000e+00
					-3.750000000000001e-01 -2.500000000000000e-01 0.000000000000000e+00
					-3.750000000000000e-01 -3.750000000000000e-01 0.000000000000000e+00
					-2.500000000000000e-01 -3.750000000000000e-01 0.000000000000000e+00
					-3.750000000000001e-01 -2.500000000000000e-01 0.000000000000000e+00
					-2.500000000000000e-01 -2.500000000000000e-01 0.000000000000000e+00
					-2.500000000000000e-01 -3.750000000000000e-01 0.000000000000000e+00
					-1.250000000000000e-01 -3.750000000000000e-01 0.000000000000000e+00
					-2.500000000000000e-01 -2.500000000000000e-01 0.000000000000000e+00
					-1.250000000000000e-01 -2.500000000000000e-01 0.000000000000000e+00
					-1.250000000000000e-01 -3.750000000000000e-01 0.000000000000000e+00
					3.469446951953615e-17 -3.750000000000000e-01 0.000000000000000e+00
					-1.250000000000000e-01 -2.500000000000000e-01 0.000000000000000e+00
					3.469446951953615e-17 -2.500000000000000e-01 0.000000000000000e+00
					3.469446951953615e-17 -3.750000000000000e-01 0.000000000000000e+00
					1.250000000000001e-01 -3.750000000000000e-01 0.000000000000000e+00
					3.469446951953615e-17 -2.500000000000000e-01 0.000000000000000e+00
					1.250000000000001e-01 -2.500000000000000e-01 0.000000000000000e+00
					1.250000000000001e-01 -3.750000000000000e-01 0.000000000000000e+00
					2.500000000000001e-01 -3.750000000000000e-01 0.000000000000000e+00
					1.250000000000001e-01 -2.500000000000000e-01 0.000000000000000e+00
					2.500000000000001e-01 -2.500000000000000e-01 0.000000000000000e+00
					2.500000000000001e-01 -3.750000000000000e-01 0.000000000000000e+00
					3.750000000000000e-01 -3.750000000000000e-01 0.000000000000000e+00
					2.500000000000001e-01 -2.500000000000000e-01 0.000000000000000e+00
					3.750000000000001e-01 -2.500000000000000e-01 0.000000000000000e+00
					3.750000000000000e-01 -3.750000000000000e-01 0.000000000000000e+00
					5.000000000000000e-01 -3.750000000000000e-01 0.000000000000000e+00
					3.750000000000001e-01 -2.500000000000000e-01 0.000000000000000e+00
					5.000000000000000e-01 -2.500000000000000e-01 0.000000000000000e+00
					-5.000000000000000e-01 -2.500000000000000e-01 0.000000000000000e+00
					-3.750000000000001e-01 -2.500000000000000e-01 0.000000000000000e+00
					-5.000000000000000e-01 -1.250000000000000e-01 0.000000000000000e+00
					-3.750000000000001e-01 -1.250000000000000e-01 0.000000000000000e+00
					-3.750000000000001e-01 -2.500000000000000e-01 0.000000000000000e+00
					-2.500000000000000e-01 -2.500000000000000e-01 0.000000000000000e+00
					-3.750000000000001e-01 -1.250000000000000e-01 0.000000000000000e+00
					-2.500000000000000e-01 -1.250000000000000e-01 0.000000000000000e+00
					-2.500000000000000e-01 -2.500000000000000e-01 0.000000000000000e+00
					-1.250000000000000e-01 -2.500000000000000e-01 0.000000000000000e+00
					-2.500000000000000e-01 -1.250000000000000e-01 0.000000000000000e+00
					-1.250000000000000e-01 -1.250000000000000e-01 0.000000000000000e+00
					-1.250000000000000e-01 -2.500000000000000e-01 0.000000000000000e+00
					3.469446951953615e-17 -2.500000000000000e-01 0.000000000000000e+00
					-1.250000000000000e-01 -1.250000000000000e-01 0.000000000000000e+00
					3.469446951953615e-17 -1.250000000000000e-01 0.000000000000000e+00
					3.469446951953615e-17 -2.500000000000000e-01 0.000000000000000e+00
					1.250000000000001e-01 -2.500000000000000e-01 0.000000000000000e+00
					3.469446951953615e-17 -1.250000000000000e-01 0.000000000000000e+00
					1.250000000000001e-01 -1.250000000000000e-01 0.000000000000000e+00
					1.250000000000001e-01 -2.500000000000000e-01 0.000000000000000e+00
					2.500000000000001e-01 -2.500000000000000e-01 0.000000000000000e+00
					1.250000000000001e-01 -1.250000000000000e-01 0.000000000000000e+00
					2.500000000000001e-01 -1.250000000000000e-01 0.000000000000000e+00
					2.500000000000001e-01 -2.500000000000000e-01 0.000000000000000e+00
					3.750000000000001e-01 -2.500000000000000e-01 0.000000000000000e+00
					2.500000000000001e-01 -1.250000000000000e-01 0.000000000000000e+00
					3.750000000000001e-01 -1.250000000000000e-01 0.000000000000000e+00
					3.750000000000001e-01 -2.500000000000000e-01 0.000000000000000e+00
					5.000000000000000e-01 -2.500000000000000e-01 0.000000000000000e+00
					3.750000000000001e-01 -1.250000000000000e-01 0.000000000000000e+00
					5.000000000000000e-01 -1.250000000000000e-01 0.000000000000000e+00
					-5.000000000000000e-01 -1.250000000000000e-01 0.000000000000000e+00
					-3.750000000000001e-01 -1.250000000000000e-01 0.000000000000000e+00
					-5.000000000000000e-01 3.469446951953614e-17 0.000000000000000e+00
					-3.750000000000001e-01 3.469446951953614e-17 0.000000000000000e+00
					-3.750000000000001e-01 -1.250000000000000e-01 0.000000000000000e+00
					-2.500000000000000e-01 -1.250000000000000e-01 0.000000000000000e+00
					-3.750000000000001e-01 3.469446951953614e-17 0.000000000000000e+00
					-2.500000000000000e-01 3.469446951953614e-17 0.000000000000000e+00
					-2.500000000000000e-01 -1.250000000000000e-01 0.000000000000000e+00
					-1.250000000000000e-01 -1.250000000000000e-01 0.000000000000000e+00
					-2.500000000000000e-01 3.469446951953614e-17 0.000000000000000e+00
					-1.250000000000000e-01 3.469446951953614e-17 0.000000000000000e+00
					-1.250000000000000e-01 -1.250000000000000e-01 0.000000000000000e+00
					3.469446951953615e-17 -1.250000000000000e-01 0.000000000000000e+00
					-1.250000000000000e-01 3.469446951953614e-17 0.000000000000000e+00
					3.469446951953615e-17 3.469446951953614e-17 0.000000000000000e+00
					3.469446951953615e-17 -1.250000000000000e-01 0.000000000000000e+00
					1.250000000000001e-01 -1.250000000000000e-01 0.000000000000000e+00
					3.469446951953615e-17 3.469446951953614e-17 0.000000000000000e+00
					1.250000000000001e-01 3.469446951953614e-17 0.000000000000000e+00
					1.250000000000001e-01 -1.250000000000000e-01 0.000000000000000e+00
					2.500000000000001e-01 -1.250000000000000e-01 0.000000000000000e+00
					1.250000000000001e-01 3.469446951953614e-17 0.000000000000000e+00
					2.500000000000001e-01 3.469446951953614e-17 0.000000000000000e+00
					2.500000000000001e-01 -1.250000000000000e-01 0.000000000000000e+00
					3.750000000000001e-01 -1.250000000000000e-01 0.000000000000000e+00
					2.500000000000001e-01 3.469446951953614e-17 0.000000000000000e+00
					3.750000000000001e-01 3.469446951953614e-17 0.000000000000000e+00
					3.750000000000001e-01 -1.250000000000000e-01 0.000000000000000e+00
					5.000000000000000e-01 -1.250000000000000e-01 0.000000000000000e+00
					3.750000000000001e-01 3.469446951953614e-17 0.000000000000000e+00
					5.000000000000000e-01 3.469446951953614e-17 0.000000000000000e+00
					-5.000000000000000e-01 3.469446951953614e-17 0.000000000000000e+00
					-3.750000000000001e-01 3.469446951953614e-17 0.000000000000000e+00
					-5.000000000000000e-01 1.250000000000001e-01 0.000000000000000e+00
					-3.750000000000000e-01 1.250000000000001e-01 0.000000000000000e+00
					-3.750000000000001e-01 3.469446951953614e-17 0.000000000000000e+00
					-2.500000000000000e-01 3.469446951953614e-17 0.000000000000000e+00
					-3.750000000000000e-01 1.250000000000001e-01 0.000000000000000e+00
					-2.500000000000000e-01 1.250000000000001e-01 0.000000000000000e+00
					-2.500000000000000e-01 3.469446951953614e-17 0.000000000000000e+00
					-1.250000000000000e-01 3.469446951953614e-17 0.000000000000000e+00
					-2.500000000000000e-01 1.250000000000001e-01 0.000000000000000e+00
					-1.250000000000000e-01 1.250000000000001e-01 0.000000000000000e+00
					-1.250000000000000e-01 3.469446951953614e-17 0.000000000000000e+00
					3.469446951953615e-17 3.469446951953614e-17 0.000000000000000e+00
					-1.250000000000000e-01 1.250000000000001e-01 0.000000000000000e+00
					3.469446951953615e-17 1.250000000000001e-01 0.000000000000000e+00
					3.469446951953615e-17 3.469446951953614e-17 0.000000000000000e+00
					1.250000000000001e-01 3.469446951953614e-17 0.000000000000000e+00
					3.469446951953615e-17 1.250000000000001e-01 0.000000000000000e+00
					1.250000000000001e-01 1.250000000000001e-01 0.000000000000000e+00
					1.250000000000001e-01 3.469446951953614e-17 0.000000000000000e+00
					2.500000000000001e-01 3.469446951953614e-17 0.000000000000000e+00
					1.250000000000001e-01 1.250000000000001e-01 0.000000000000000e+00
					2.500000000000001e-01 1.250000000000001e-01 0.000000000000000e+00
					2.500000000000001e-01 3.469446951953614e-17 0.000000000000000e+00
					3.750000000000001e-01 3.469446951953614e-17 0.000000000000000e+00
					2.500000000000001e-01 1.250000000000001e-01 0.000000000000000e+00
					3.750000000000000e-01 1.250000000000001e-01 0.000000000000000e+00
					3.750000000000001e-01 3.469446951953614e-17 0.000000000000000e+00
					5.000000000000000e-01 3.469446951953614e-17 0.000000000000000e+00
					3.750000000000000e-01 1.250000000000001e-01 0.000000000000000e+00
					5.000000000000000e-01 1.250000000000001e-01 0.000000000000000e+00
					-5.000000000000000e-01 1.250000000000001e-01 0.000000000000000e+00
					-3.750000000000000e-01 1.250000000000001e-01 0.000000000000000e+00
					-5.000000000000000e-01 2.500000000000001e-01 0.000000000000000e+00
					-3.750000000000000e-01 2.500000000000001e-01 0.000000000000000e+00
					-3.750000000000000e-01 1.250000000000001e-01 0.000000000000000e+00
					-2.500000000000000e-01 1.250000000000001e-01 0.000000000000000e+00
					-3.750000000000000e-01 2.500000000000001e-01 0.000000000000000e+00
					-2.500000000000000e-01 2.500000000000001e-01 0.000000000000000e+00
					-2.500000000000000e-01 1.250000000000001e-01 0.000000000000000e+00
					-1.250000000000000e-01 1.250000000000001e-01 0.000000000000000e+00
					-2.500000000000000e-01 2.500000000000001e-01 0.000000000000000e+00
					-1.250000000000000e-01 2.500000000000001e-01 0.000000000000000e+00
					-1.250000000000000e-01 1.250000000000001e-01 0.000000000000000e+00
					3.469446951953615e-17 1.250000000000001e-01 0.000000000000000e+00
					-1.250000000000000e-01 2.500000000000001e-01 0.000000000000000e+00
					3.469446951953615e-17 2.500000000000001e-01 0.000000000000000e+00
					3.469446951953615e-17 1.250000000000001e-01 0.000000000000000e+00
					1.250000000000001e-01 1.250000000000001e-01 0.000000000000000e+00
					3.469446951953615e-17 2.500000000000001e-01 0.000000000000000e+00
					1.250000000000001e-01 2.500000000000001e-01 0.000000000000000e+00
					1.250000000000001e-01 1.250000000000001e-01 0.000000000000000e+00
					2.500000000000001e-01 1.250000000000001e-01 0.000000000000000e+00
					1.250000000000001e-01 2.500000000000001e-01 0.000000000000000e+00
					2.500000000000001e-01 2.500000000000001e-01 0.000000000000000e+00
					2.500000000000001e-01 1.250000000000001e-01 0.000000000000000e+00
					3.750000000000000e-01 1.250000000000001e-01 0.000000000000000e+00
					2.500000000000001e-01 2.500000000000001e-01 0.000000000000000e+00
					3.750000000000000e-01 2.500000000000001e-01 0.000000000000000e+00
					3.750000000000000e-01 1.250000000000001e-01 0.000000000000000e+00
					5.000000000000000e-01 1.250000000000001e-01 0.000000000000000e+00
					3.750000000000000e-01 2.500000000000001e-01 0.000000000000000e+00
					5.000000000000000e-01 2.500000000000001e-01 0.000000000000000e+00
					-5.000000000000000e-01 2.500000000000001e-01 0.000000000000000e+00
					-3.750000000000000e-01 2.500000000000001e-01 0.000000000000000e+00
					-5.000000000000000e-01 3.750000000000000e-01 0.000000000000000e+00
					-3.750000000000000e-01 3.750000000000000e-01 0.000000000000000e+00
					-3.750000000000000e-01 2.500000000000001e-01 0.000000000000000e+00
					-2.500000000000000e-01 2.500000000000001e-01 0.000000000000000e+00
					-3.750000000000000e-01 3.750000000000000e-01 0.000000000000000e+00
					-2.500000000000000e-01 3.750000000000000e-01 0.000000000000000e+00
					-2.500000000000000e-01 2.500000000000001e-01 0.000000000000000e+00
					-1.250000000000000e-01 2.500000000000001e-01 0.000000000000000e+00
					-2.500000000000000e-01 3.750000000000000e-01 0.000000000000000e+00
					-1.250000000000000e-01 3.750000000000000e-01 0.000000000000000e+00
					-1.250000000000000e-01 2.500000000000001e-01 0.000000000000000e+00
					3.469446951953615e-17 2.500000000000001e-01 0.000000000000000e+00
					-1.250000000000000e-01 3.750000000000000e-01 0.000000000000000e+00
					3.469446951953614e-17 3.750000000000000e-01 0.000000000000000e+00
					3.469446951953615e-17 2.500000000000001e-01 0.000000000000000e+00
					1.250000000000001e-01 2.500000000000001e-01 0.000000000000000e+00
					3.469446951953614e-17 3.750000000000000e-01 0.000000000000000e+00
					1.250000000000001e-01 3.750000000000000e-01 0.000000000000000e+00
					1.250000000000001e-01 2.500000000000001e-01 0.000000000000000e+00
					2.500000000000001e-01 2.500000000000001e-01 0.000000000000000e+00
					1.250000000000001e-01 3.750000000000000e-01 0.000000000000000e+00
					2.500000000000001e-01 3.750000000000000e-01 0.000000000000000e+00
					2.500000000000001e-01 2.500000000000001e-01 0.000000000000000e+00
					3.750000000000000e-01 2.500000000000001e-01 0.000000000000000e+00
					2.500000000000001e-01 3.750000000000000e-01 0.000000000000000e+00
					3.750000000000000e-01 3.750000000000000e-01 0.000000000000000e+00
					3.750000000000000e-01 2.500000000000001e-01 0.000000000000000e+00
					5.000000000000000e-01 2.500000000000001e-01 0.000000000000000e+00
					3.750000000000000e-01 3.750000000000000e-01 0.000000000000000e+00
					5.000000000000000e-01 3.750000000000000e-01 0.000000000000000e+00
					-5.000000000000000e-01 3.750000000000000e-01 0.000000000000000e+00
					-3.750000000000000e-01 3.750000000000000e-01 0.000000000000000e+00
					-5.000000000000000e-01 5.000000000000000e-01 0.000000000000000e+00
					-3.750000000000000e-01 5.000000000000000e-01 0.000000000000000e+00
					-3.750000000000000e-01 3.750000000000000e-01 0.000000000000000e+00
					-2.500000000000000e-01 3.750000000000000e-01 0.000000000000000e+00
					-3.750000000000000e-01 5.000000000000000e-01 0.000000000000000e+00
					-2.500000000000000e-01 5.000000000000000e-01 0.000000000000000e+00
					-2.500000000000000e-01 3.750000000000000e-01 0.000000000000000e+00
					-1.250000000000000e-01 3.750000000000000e-01 0.000000000000000e+00
					-2.500000000000000e-01 5.000000000000000e-01 0.000000000000000e+00
					-1.250000000000000e-01 5.000000000000000e-01 0.000000000000000e+00
					-1.250000000000000e-01 3.750000000000000e-01 0.000000000000000e+00
					3.469446951953614e-17 3.750000000000000e-01 0.000000000000000e+00
					-1.250000000000000e-01 5.000000000000000e-01 0.000000000000000e+00
					3.469446951953614e-17 5.000000000000000e-01 0.000000000000000e+00
					3.469446951953614e-17 3.750000000000000e-01 0.000000000000000e+00
					1.250000000000001e-01 3.750000000000000e-01 0.000000000000000e+00
					3.469446951953614e-17 5.000000000000000e-01 0.000000000000000e+00
					1.250000000000001e-01 5.000000000000000e-01 0.000000000000000e+00
					1.250000000000001e-01 3.750000000000000e-01 0.000000000000000e+00
					2.500000000000001e-01 3.750000000000000e-01 0.000000000000000e+00
					1.250000000000001e-01 5.000000000000000e-01 0.000000000000000e+00
					2.500000000000001e-01 5.000000000000000e-01 0.000000000000000e+00
					2.500000000000001e-01 3.750000000000000e-01 0.000000000000000e+00
					3.750000000000000e-01 3.750000000000000e-01 0.000000000000000e+00
					2.500000000000001e-01 5.000000000000000e-01 0.000000000000000e+00
					3.750000000000000e-01 5.000000000000000e-01 0.000000000000000e+00
					3.750000000000000e-01 3.750000000000000e-01 0.000000000000000e+00
					5.000000000000000e-01 3.750000000000000e-01 0.000000000000000e+00
					3.750000000000000e-01 5.000000000000000e-01 0.000000000000000e+00
					5.000000000000000e-01 5.000000000000000e-01 0.000000000000000e+00
				</DataArray>
			</Points>
			<Cells>
				<DataArray Name="connectivity" type="UInt32" format="ascii">
					0 1 3 2 4 5 7 6 8 9 11 10 12 13 15 14 16 17 19 18 20 21 23 22 24 25 27 26 28 29 31 30 32 33 35 34 36 37 39 38 40 41 43 42 44 45 47 46 48 49 51 50 52 53 55 54 56 57 59 58 60 61 63 62 64 65 67 66 68 69 71 70 72 73 75 74 76 77 79 78 80 81 83 82 84 85 87 86 88 89 91 90 92 93 95 94 96 97 99 98 100 101 103 102 104 105 107 106 108 109 111 110 112 113 115 114 116 117 119 118 120 121 123 122 124 125 127 126 128 129 131 130 132 133 135 134 136 137 139 138 140 141 143 142 144 145 147 146 148 149 151 150 152 153 155 154 156 157 159 158 160 161 163 162 164 165 167 166 168 169 171 170 172 173 175 174 176 177 179 178 180 181 183 182 184 185 187 186 188 189 191 190 192 193 195 194 196 197 199 198 200 201 203 202 204 205 207 206 208 209 211 210 212 213 215 214 216 217 219 218 220 221 223 222 224 225 227 226 228 229 231 230 232 233 235 234 236 237 239 238 240 241 243 242 244 245 247 246 248 249 251 250 252 253 255 254 
				</DataArray>
				<DataArray Name="offsets" type="UInt32" format="ascii">
					4 8 12 16 20 24 28 32 36 40 44 48 52 56 60 64 68 72 76 80 84 88 92 96 100 104 108 112 116 120 124 128 132 136 140 144 148 152 156 160 164 168 172 176 180 184 188 192 196 200 204 208 212 216 220 224 228 232 236 240 244 248 252 256 
				</DataArray>
				<DataArray Name="types" type="UInt8" format="ascii">
					9 9 9 9 9 9 9 9 9 9 9 9 9 9 9 9 9 9 9 9 9 9 9 9 9 9 9 9 9 9 9 9 9 9 9 9 9 9 9 9 9 9 9 9 9 9 9 9 9 9 9 9 9 9 9 9 9 9 9 9 9 9 9 9 
				</DataArray>
			</Cells>
			<PointData Vectors="solution ">
				<DataArray Name="solution" type="Float64" NumberOfComponents="1" format="ascii">
					1.615873582849057e+00 2.491328825043202e+00 2.823274495476953e+00 4.260695727267947e+00 2.491328825043202e+00 3.482221988700558e+00 4.260695727267947e+00 5.873841403593228e+00 3.482221988700558e+00 4.458652798091490e+00 5.873841403593228e+00 7.463110076069000e+00 4.458652798091490e+00 5.259275582666113e+00 7.463110076069000e+00 8.781328384562055e+00 5.259275582666113e+00 5.725335776190132e+00 8.781328384562055e+00 9.583134797093406e+00 5.725335776190132e+00 5.741914186788989e+00 9.583134797093406e+00 9.685041520954510e+00 5.741914186788989e+00 5.275306121807414e+00 9.685041520954510e+00 9.021126540367135e+00 5.275306121807414e+00 4.393775498947091e+00 9.021126540367135e+00 7.676447499339076e+00 2.823274495476953e+00 4.260695727267947e+00 4.471752813906688e+00 6.656164336766281e+00 4.260695727267947e+00 5.873841403593228e+00 6.656164336766281e+00 9.095113968263268e+00 5.873841403593228e+00 7.463110076069000e+00 9.095113968263268e+00 1.149837386724942e+01 7.463110076069000e+00 8.781328384562055e+00 1.149837386724942e+01 1.350750391719205e+01 8.781328384562055e+00 9.583134797093406e+00 1.350750391719205e+01 1.476455026811455e+01 9.583134797093406e+00 9.685041520954510e+00 1.476455026811455e+01 1.499614079388427e+01 9.685041520954510e+00 9.021126540367135e+00 1.499614079388427e+01 1.409265965924870e+01 9.021126540367135e+00 7.676447499339076e+00 1.409265965924870e+01 1.215817185211639e+01 4.471752813906688e+00 6.656164336766281e+00 6.488154729686830e+00 9.583342504162882e+00 6.656164336766281e+00 9.095113968263268e+00 9.583342504162882e+00 1.302960466328656e+01 9.095113968263268e+00 1.149837386724942e+01 1.302960466328656e+01 1.642618779637385e+01 1.149837386724942e+01 1.350750391719205e+01 1.642618779637385e+01 1.927879048721739e+01 1.350750391719205e+01 1.476455026811455e+01 1.927879048721739e+01 2.109206650569890e+01 1.476455026811455e+01 1.499614079388427e+01 2.109206650569890e+01 2.148323071228134e+01 1.499614079388427e+01 1.409265965924870e+01 2.148323071228134e+01 2.028995413149207e+01 1.409265965924870e+01 1.215817185211639e+01 2.028995413149207e+01 1.764020094849479e+01 6.488154729686830e+00 9.583342504162882e+00 8.672395721135697e+00 1.277763633868486e+01 9.583342504162882e+00 1.302960466328656e+01 1.277763633868486e+01 1.734450503110196e+01 1.302960466328656e+01 1.642618779637385e+01 1.734450503110196e+01 2.184597250684251e+01 1.642618779637385e+01 1.927879048721739e+01 2.184597250684251e+01 2.563221910842497e+01 1.927879048721739e+01 2.109206650569890e+01 2.563221910842497e+01 2.805131593726518e+01 2.109206650569890e+01 2.148323071228134e+01 2.805131593726518e+01 2.859756798074232e+01 2.148323071228134e+01 2.028995413149207e+01 2.859756798074232e+01 2.705280301158979e+01 2.028995413149207e+01 1.764020094849479e+01 2.705280301158979e+01 2.357856446797112e+01 8.672395721135697e+00 1.277763633868486e+01 1.069819456271964e+01 1.580121880442588e+01 1.277763633868486e+01 1.734450503110196e+01 1.580121880442588e+01 2.148315629869095e+01 1.734450503110196e+01 2.184597250684251e+01 2.148315629869095e+01 2.708326983568488e+01 2.184597250684251e+01 2.563221910842497e+01 2.708326983568488e+01 3.178654497764702e+01 2.563221910842497e+01 2.805131593726518e+01 3.178654497764702e+01 3.477626703319613e+01 2.805131593726518e+01 2.859756798074232e+01 3.477626703319613e+01 3.542135024534413e+01 2.859756798074232e+01 2.705280301158979e+01 3.542135024534413e+01 3.345426782670521e+01 2.705280301158979e+01 2.357856446797112e+01 3.345426782670521e+01 2.908616397623217e+01 1.069819456271964e+01 1.580121880442588e+01 1.215805904120100e+01 1.809580969265216e+01 1.580121880442588e+01 2.148315629869095e+01 1.809580969265216e+01 2.472571026677247e+01 2.148315629869095e+01 2.708326983568488e+01 2.472571026677247e+01 3.125878040190318e+01 2.708326983568488e+01 3.178654497764702e+01 3.125878040190318e+01 3.672053657738937e+01 3.178654497764702e+01 3.477626703319613e+01 3.672053657738937e+01 4.013788630695154e+01 3.477626703319613e+01 3.542135024534413e+01 4.013788630695154e+01 4.076775105782200e+01 3.542135024534413e+01 3.345426782670521e+01 4.076775105782200e+01 3.831241130269343e+01 3.345426782670521e+01 2.908616397623217e+01 3.831241130269343e+01 3.305518039025573e+01 1.215805904120100e+01 1.809580969265216e+01 1.265781461702487e+01 1.909994753149912e+01 1.809580969265216e+01 2.472571026677247e+01 1.909994753149912e+01 2.633029426806225e+01 2.472571026677247e+01 3.125878040190318e+01 2.633029426806225e+01 3.345383417107477e+01 3.125878040190318e+01 3.672053657738937e+01 3.345383417107477e+01 3.936254486137839e+01 3.672053657738937e+01 4.013788630695154e+01 3.936254486137839e+01 4.295665615380860e+01 4.013788630695154e+01 4.076775105782200e+01 4.295665615380860e+01 4.341376323326217e+01 4.076775105782200e+01 3.831241130269343e+01 4.341376323326217e+01 4.043862527845837e+01 3.831241130269343e+01 3.305518039025573e+01 4.043862527845837e+01 3.441397170733090e+01 1.265781461702487e+01 1.909994753149912e+01 1.194638511713213e+01 1.841748166628469e+01 1.909994753149912e+01 2.633029426806225e+01 1.841748166628469e+01 2.574140560334144e+01 2.633029426806225e+01 3.345383417107477e+01 2.574140560334144e+01 3.295851242236920e+01 3.345383417107477e+01 3.936254486137839e+01 3.295851242236920e+01 3.887626874638480e+01 3.936254486137839e+01 4.295665615380860e+01 3.887626874638480e+01 4.232117465958510e+01 4.295665615380860e+01 4.341376323326217e+01 4.232117465958510e+01 4.244395200469954e+01 4.341376323326217e+01 4.043862527845837e+01 4.244395200469954e+01 3.899550702911124e+01 4.043862527845837e+01 3.441397170733090e+01 3.899550702911124e+01 3.247945571383182e+01 
				</DataArray>
			</PointData>
			<CellData>
			</CellData>
		</Piece>
	</UnstructuredGrid>
</VTKFile>