<?xml version="1.0"?>
<VTKFile type="UnstructuredGrid" byte_order="LittleEndian">
	<UnstructuredGrid>
		<Piece NumberOfPoints="64" NumberOfCells="16">
			<Points>
				<DataArray type="Float64" NumberOfComponents="3" format="ascii">
					1.000000000000000e+00 -1.000000000000000e+00 0.000000000000000e+00
					1.375000000000000e+00 -5.000000000000000e-01 0.000000000000000e+00
					8.338955762008279e-01 -8.338955762008279e-01 0.000000000000000e+00
					1.044833076200828e+00 -4.169477881004139e-01 0.000000000000000e+00
					1.375000000000000e+00 -5.000000000000000e-01 0.000000000000000e+00
					1.500000000000000e+00 5.551115123125783e-17 0.000000000000000e+00
					1.044833076200828e+00 -4.169477881004139e-01 0.000000000000000e+00
					1.115145576200828e+00 4.857225732735060e-17 0.000000000000000e+00
					1.500000000000000e+00 5.551115123125783e-17 0.000000000000000e+00
					1.375000000000000e+00 5.000000000000000e-01 0.000000000000000e+00
					1.115145576200828e+00 4.857225732735060e-17 0.000000000000000e+00
					1.044833076200828e+00 4.169477881004139e-01 0.000000000000000e+00
					1.375000000000000e+00 5.000000000000000e-01 0.000000000000000e+00
					1.000000000000000e+00 1.000000000000000e+00 0.000000000000000e+00
					1.044833076200828e+00 4.169477881004139e-01 0.000000000000000e+00
					8.338955762008279e-01 8.338955762008279e-01 0.000000000000000e+00
					8.338955762008279e-01 -8.338955762008279e-01 0.000000000000000e+00
					1.044833076200828e+00 -4.169477881004139e-01 0.000000000000000e+00
					6.951941016011038e-01 -6.951941016011038e-01 0.000000000000000e+00
					7.889441016011038e-01 -3.475970508005519e-01 0.000000000000000e+00
					1.044833076200828e+00 -4.169477881004139e-01 0.000000000000000e+00
					1.115145576200828e+00 4.857225732735060e-17 0.000000000000000e+00
					7.889441016011038e-01 -3.475970508005519e-01 0.000000000000000e+00
					8.201941016011038e-01 4.163336342344337e-17 0.000000000000000e+00
					1.115145576200828e+00 4.857225732735060e-17 0.000000000000000e+00
					1.044833076200828e+00 4.169477881004139e-01 0.000000000000000e+00
					8.201941016011038e-01 4.163336342344337e-17 0.000000000000000e+00
					7.889441016011038e-01 3.475970508005519e-01 0.000000000000000e+00
					1.044833076200828e+00 4.169477881004139e-01 0.000000000000000e+00
					8.338955762008279e-01 8.338955762008279e-01 0.000000000000000e+00
					7.889441016011038e-01 3.475970508005519e-01 0.000000000000000e+00
					6.951941016011038e-01 6.951941016011038e-01 0.000000000000000e+00
					6.951941016011038e-01 -6.951941016011038e-01 0.000000000000000e+00
					7.889441016011038e-01 -3.475970508005519e-01 0.000000000000000e+00
					5.838955762008279e-01 -5.838955762008279e-01 0.000000000000000e+00
					6.073330762008279e-01 -2.919477881004139e-01 0.000000000000000e+00
					7.889441016011038e-01 -3.475970508005519e-01 0.000000000000000e+00
					8.201941016011038e-01 4.163336342344337e-17 0.000000000000000e+00
					6.073330762008279e-01 -2.919477881004139e-01 0.000000000000000e+00
					6.151455762008279e-01 3.469446951953614e-17 0.000000000000000e+00
					8.201941016011038e-01 4.163336342344337e-17 0.000000000000000e+00
					7.889441016011038e-01 3.475970508005519e-01 0.000000000000000e+00
					6.151455762008279e-01 3.469446951953614e-17 0.000000000000000e+00
					6.073330762008279e-01 2.919477881004139e-01 0.000000000000000e+00
					7.889441016011038e-01 3.475970508005519e-01 0.000000000000000e+00
					6.951941016011038e-01 6.951941016011038e-01 0.000000000000000e+00
					6.073330762008279e-01 2.919477881004139e-01 0.000000000000000e+00
					5.838955762008279e-01 5.838955762008279e-01 0.000000000000000e+00
					5.838955762008279e-01 -5.838955762008279e-01 0.000000000000000e+00
					6.073330762008279e-01 -2.919477881004139e-01 0.000000000000000e+00
					5.000000000000000e-01 -5.000000000000000e-01 0.000000000000000e+00
					5.000000000000000e-01 -2.500000000000000e-01 0.000000000000000e+00
					6.073330762008279e-01 -2.919477881004139e-01 0.000000000000000e+00
					6.151455762008279e-01 3.469446951953614e-17 0.000000000000000e+00
					5.000000000000000e-01 -2.500000000000000e-01 0.000000000000000e+00
					5.000000000000000e-01 2.775557561562891e-17 0.000000000000000e+00
					6.151455762008279e-01 3.469446951953614e-17 0.000000000000000e+00
					6.073330762008279e-01 2.919477881004139e-01 0.000000000000000e+00
					5.000000000000000e-01 2.775557561562891e-17 0.000000000000000e+00
					5.000000000000000e-01 2.500000000000000e-01 0.000000000000000e+00
					6.073330762008279e-01 2.919477881004139e-01 0.000000000000000e+00
					5.838955762008279e-01 5.838955762008279e-01 0.000000000000000e+00
					5.000000000000000e-01 2.500000000000000e-01 0.000000000000000e+00
					5.000000000000000e-01 5.000000000000000e-01 0.000000000000000e+00
				</DataArray>
			</Points>
			<Cells>
				<DataArray Name="connectivity" type="UInt32" format="ascii">
					0 1 3 2 4 5 7 6 8 9 11 10 12 13 15 14 16 17 19 18 20 21 23 22 24 25 27 26 28 29 31 30 32 33 35 34 36 37 39 38 40 41 43 42 44 45 47 46 48 49 51 50 52 53 55 54 56 57 59 58 60 61 63 62 
				</DataArray>
				<DataArray Name="offsets" type="UInt32" format="ascii">
					4 8 12 16 20 24 28 32 36 40 44 48 52 56 60 64 
				</DataArray>
				<DataArray Name="types" type="UInt8" format="ascii">
					9 9 9 9 9 9 9 9 9 9 9 9 9 9 9 9 
				</DataArray>
			</Cells>
			<PointData Vectors="solution ">
				<DataArray Name="solution" type="Float64" NumberOfComponents="1" format="ascii">
					0.000000000000000e+00 0.000000000000000e+00 2.998180873442335e-02 6.076484483073935e-01 0.000000000000000e+00 0.000000000000000e+00 6.076484483073935e-01 2.017792155466883e+00 0.000000000000000e+00 0.000000000000000e+00 2.017792155466883e+00 3.181961025600690e+00 0.000000000000000e+00 0.000000000000000e+00 3.181961025600690e+00 1.860870778614697e+00 2.998180873442335e-02 6.076484483073935e-01 6.429867908796362e-01 4.032948847924137e+00 6.076484483073935e-01 2.017792155466883e+00 4.032948847924137e+00 1.092584429722014e+01 2.017792155466883e+00 3.181961025600690e+00 1.092584429722014e+01 1.640807561786911e+01 3.181961025600690e+00 1.860870778614697e+00 1.640807561786911e+01 1.244020422324537e+01 6.429867908796362e-01 4.032948847924137e+00 2.212938547233454e+00 8.823053912539986e+00 4.032948847924137e+00 1.092584429722014e+01 8.823053912539986e+00 2.006471716748663e+01 1.092584429722014e+01 1.640807561786911e+01 2.006471716748663e+01 2.905064224527397e+01 1.640807561786911e+01 1.244020422324537e+01 2.905064224527397e+01 2.551067909716428e+01 2.212938547233454e+00 8.823053912539986e+00 4.309965483555744e+00 1.253531991328109e+01 8.823053912539986e+00 2.006471716748663e+01 1.253531991328109e+01 2.474789869459264e+01 2.006471716748663e+01 2.905064224527397e+01 2.474789869459264e+01 3.509999571796370e+01 2.905064224527397e+01 2.551067909716428e+01 3.509999571796370e+01 3.489144621720642e+01 
				</DataArray>
			</PointData>
			<CellData>
			</CellData>
		</Piece>
	</UnstructuredGrid>
</VTKFile>