<?xml version="1.0"?>
<VTKFile type="UnstructuredGrid" byte_order="LittleEndian">
	<UnstructuredGrid>
		<Piece NumberOfPoints="256" NumberOfCells="64">
			<Points>
				<DataArray type="Float64" NumberOfComponents="3" format="ascii">
					-5.000000000000000e-01 -5.000000000000000e-01 0.000000000000000e+00
					-3.750000000000000e-01 -5.000000000000000e-01 0.000000000000000e+00
					-5.000000000000000e-01 -3.750000000000000e-01 0.000000000000000e+00
					-3.750000000000000e-01 -3.750000000000000e-01 0.000000000000000e+00
					-3.750000000000000e-01 -5.000000000000000e-01 0.000000000000000e+00
					-2.500000000000000e-01 -5.000000000000000e-01 0.000000000000000e+00
					-3.750000000000000e-01 -3.750000000000000e-01 0.000000000000000e+00
					-2.500000000000000e-01 -3.750000000000000e-01 0.000000000000000e+00
					-2.500000000000000e-01 -5.000000000000000e-01 0.000000000000000e+00
					-1.250000000000000e-01 -5.000000000000000e-01 0.000000000000000e+00
					-2.500000000000000e-01 -3.750000000000000e-01 0.000000000000000e+00
					-1.250000000000000e-01 -3.750000000000000e-01 0.000000000000000e+00
					-1.250000000000000e-01 -5.000000000000000e-01 0.000000000000000e+00
					3.469446951953614e-17 -5.000000000000000e-01 0.000000000000000e+00
					-1.250000000000000e-01 -3.750000000000000e-01 0.000000000000000e+00
					3.469446951953615e-17 -3.750000000000000e-01 0.000000000000000e+00
					3.469446951953614e-17 -5.000000000000000e-01 0.000000000000000e+00
					1.250000000000001e-01 -5.000000000000000e-01 0.000000000000000e+00
					3.469446951953615e-17 -3.750000000000000e-01 0.000000000000000e+00
					1.250000000000001e-01 -3.750000000000000e-01 0.000000000000000e+00
					1.250000000000001e-01 -5.000000000000000e-01 0.000000000000000e+00
					2.500000000000001e-01 -5.000000000000000e-01 0.000000000000000e+00
					1.250000000000001e-01 -3.750000000000000e-01 0.000000000000000e+00
					2.500000000000001e-01 -3.750000000000000e-01 0.000000000000000e+00
					2.500000000000001e-01 -5.000000000000000e-01 0.000000000000000e+00
					3.750000000000000e-01 -5.000000000000000e-01 0.000000000000000e+00
					2.500000000000001e-01 -3.750000000000000e-01 0.000000000000000e+00
					3.750000000000000e-01 -3.750000000000000e-01 0.000000000000000e+00
					3.750000000000000e-01 -5.000000000000000e-01 0.000000000000000e+00
					5.000000000000000e-01 -5.000000000000000e-01 0.000000000000000e+00
					3.750000000000000e-01 -3.750000000000000e-01 0.000000000000000e+00
					5.000000000000000e-01 -3.750000000000000e-01 0.000000000000000e+00
					-5.000000000000000e-01 -3.750000000000000e-01 0.000000000000000e+00
					-3.750000000000000e-01 -3.750000000000000e-01 0.000000000000000e+00
					-5.000000000000000e-01 -2.500000000000000e-01 0.000000000000000e+00
					-3.750000000000001e-01 -2.500000000000000e-01 0.000000000000000e+00
					-3.750000000000000e-01 -3.750000000000000e-01 0.000000000000000e+00
					-2.500000000000000e-01 -3.750000000000000e-01 0.000000000000000e+00
					-3.750000000000001e-01 -2.500000000000000e-01 0.000000000000000e+00
					-2.500000000000000e-01 -2.500000000000000e-01 0.000000000000000e+00
					-2.500000000000000e-01 -3.750000000000000e-01 0.000000000000000e+00
					-1.250000000000000e-01 -3.750000000000000e-01 0.000000000000000e+00
					-2.500000000000000e-01 -2.500000000000000e-01 0.000000000000000e+00
					-1.250000000000000e-01 -2.500000000000000e-01 0.000000000000000e+00
					-1.250000000000000e-01 -3.750000000000000e-01 0.000000000000000e+00
					3.469446951953615e-17 -3.750000000000000e-01 0.000000000000000e+00
					-1.250000000000000e-01 -2.500000000000000e-01 0.000000000000000e+00
					3.469446951953615e-17 -2.500000000000000e-01 0.000000000000000e+00
					3.469446951953615e-17 -3.750000000000000e-01 0.000000000000000e+00
					1.250000000000001e-01 -3.750000000000000e-01 0.000000000000000e+00
					3.469446951953615e-17 -2.500000000000000e-01 0.000000000000000e+00
					1.250000000000001e-01 -2.500000000000000e-01 0.000000000000000e+00
					1.250000000000001e-01 -3.750000000000000e-01 0.000000000000000e+00
					2.500000000000001e-01 -3.750000000000000e-01 0.000000000000000e+00
					1.250000000000001e-01 -2.500000000000000e-01 0.000000000000000e+00
					2.500000000000001e-01 -2.500000000000000e-01 0.000000000000000e+00
					2.500000000000001e-01 -3.750000000000000e-01 0.000000000000000e+00
					3.750000000000000e-01 -3.750000000000000e-01 0.000000000000000e+00
					2.500000000000001e-01 -2.500000000000000e-01 0.000000000000000e+00
					3.750000000000001e-01 -2.500000000000000e-01 0.000000000000000e+00
					3.750000000000000e-01 -3.750000000000000e-01 0.000000000000000e+00
					5.000000000000000e-01 -3.750000000000000e-01 0.000000000000000e+00
					3.750000000000001e-01 -2.500000000000000e-01 0.000000000000000e+00
					5.000000000000000e-01 -2.500000000000000e-01 0.000000000000000e+00
					-5.000000000000000e-01 -2.500000000000000e-01 0.000000000000000e+00
					-3.750000000000001e-01 -2.500000000000000e-01 0.000000000000000e+00
					-5.000000000000000e-01 -1.250000000000000e-01 0.000000000000000e+00
					-3.750000000000001e-01 -1.250000000000000e-01 0.000000000000000e+00
					-3.750000000000001e-01 -2.500000000000000e-01 0.000000000000000e+00
					-2.500000000000000e-01 -2.500000000000000e-01 0.000000000000000e+00
					-3.750000000000001e-01 -1.250000000000000e-01 0.000000000000000e+00
					-2.500000000000000e-01 -1.250000000000000e-01 0.000000000000000e+00
					-2.500000000000000e-01 -2.500000000000000e-01 0.000000000000000e+00
					-1.250000000000000e-01 -2.500000000000000e-01 0.000000000000000e+00
					-2.500000000000000e-01 -1.250000000000000e-01 0.000000000000000e+00
					-1.250000000000000e-01 -1.250000000000000e-01 0.000000000000000e+00
					-1.250000000000000e-01 -2.500000000000000e-01 0.000000000000000e+00
					3.469446951953615e-17 -2.500000000000000e-01 0.000000000000000e+00
					-1.250000000000000e-01 -1.250000000000000e-01 0.000000000000000e+00
					3.469446951953615e-17 -1.250000000000000e-01 0.000000000000000e+00
					3.469446951953615e-17 -2.500000000000000e-01 0.000000000000000e+00
					1.250000000000001e-01 -2.500000000000000e-01 0.000000000000000e+00
					3.469446951953615e-17 -1.250000000000000e-01 0.000000000000000e+00
					1.250000000000001e-01 -1.250000000000000e-01 0.000000000000000e+00
					1.250000000000001e-01 -2.500000000000000e-01 0.000000000000000e+00
					2.500000000000001e-01 -2.500000000000000e-01 0.000000000000000e+00
					1.250000000000001e-01 -1.250000000000000e-01 0.000000000000000e+00
					2.500000000000001e-01 -1.250000000000000e-01 0.000000000000000e+00
					2.500000000000001e-01 -2.500000000000000e-01 0.000000000000000e+00
					3.750000000000001e-01 -2.500000000000000e-01 0.000000000000000e+00
					2.500000000000001e-01 -1.250000000000000e-01 0.000000000000000e+00
					3.750000000000001e-01 -1.250000000000000e-01 0.000000000000000e+00
					3.750000000000001e-01 -2.500000000000000e-01 0.000000000000000e+00
					5.000000000000000e-01 -2.500000000000000e-01 0.000000000000000e+00
					3.750000000000001e-01 -1.250000000000000e-01 0.000000000000000e+00
					5.000000000000000e-01 -1.250000000000000e-01 0.000000000000000e+00
					-5.000000000000000e-01 -1.250000000000000e-01 0.000000000000000e+00
					-3.750000000000001e-01 -1.250000000000000e-01 0.000000000000000e+00
					-5.000000000000000e-01 3.469446951953614e-17 0.000000000000000e+00
					-3.750000000000001e-01 3.469446951953614e-17 0.000000000000000e+00
					-3.750000000000001e-01 -1.250000000000000e-01 0.000000000000000e+00
					-2.500000000000000e-01 -1.250000000000000e-01 0.000000000000000e+00
					-3.750000000000001e-01 3.469446951953614e-17 0.000000000000000e+00
					-2.500000000000000e-01 3.469446951953614e-17 0.000000000000000e+00
					-2.500000000000000e-01 -1.250000000000000e-01 0.000000000000000e+00
					-1.250000000000000e-01 -1.250000000000000e-01 0.000000000000000e+00
					-2.500000000000000e-01 3.469446951953614e-17 0.000000000000000e+00
					-1.250000000000000e-01 3.469446951953614e-17 0.000000000000000e+00
					-1.250000000000000e-01 -1.250000000000000e-01 0.000000000000000e+00
					3.469446951953615e-17 -1.250000000000000e-01 0.000000000000000e+00
					-1.250000000000000e-01 3.469446951953614e-17 0.000000000000000e+00
					3.469446951953615e-17 3.469446951953614e-17 0.000000000000000e+00
					3.469446951953615e-17 -1.250000000000000e-01 0.000000000000000e+00
					1.250000000000001e-01 -1.250000000000000e-01 0.000000000000000e+00
					3.469446951953615e-17 3.469446951953614e-17 0.000000000000000e+00
					1.250000000000001e-01 3.469446951953614e-17 0.000000000000000e+00
					1.250000000000001e-01 -1.250000000000000e-01 0.000000000000000e+00
					2.500000000000001e-01 -1.250000000000000e-01 0.000000000000000e+00
					1.250000000000001e-01 3.469446951953614e-17 0.000000000000000e+00
					2.500000000000001e-01 3.469446951953614e-17 0.000000000000000e+00
					2.500000000000001e-01 -1.250000000000000e-01 0.000000000000000e+00
					3.750000000000001e-01 -1.250000000000000e-01 0.000000000000000e+00
					2.500000000000001e-01 3.469446951953614e-17 0.000000000000000e+00
					3.750000000000001e-01 3.469446951953614e-17 0.000000000000000e+00
					3.750000000000001e-01 -1.250000000000000e-01 0.000000000000000e+00
					5.000000000000000e-01 -1.250000000000000e-01 0.000000000000000e+00
					3.750000000000001e-01 3.469446951953614e-17 0.000000000000000e+00
					5.000000000000000e-01 3.469446951953614e-17 0.000000000000000e+00
					-5.000000000000000e-01 3.469446951953614e-17 0.000000000000000e+00
					-3.750000000000001e-01 3.469446951953614e-17 0.000000000000000e+00
					-5.000000000000000e-01 1.250000000000001e-01 0.000000000000000e+00
					-3.750000000000000e-01 1.250000000000001e-01 0.000000000000000e+00
					-3.750000000000001e-01 3.469446951953614e-17 0.000000000000000e+00
					-2.500000000000000e-01 3.469446951953614e-17 0.000000000000000e+00
					-3.750000000000000e-01 1.250000000000001e-01 0.000000000000000e+00
					-2.500000000000000e-01 1.250000000000001e-01 0.000000000000000e+00
					-2.500000000000000e-01 3.469446951953614e-17 0.000000000000000e+00
					-1.250000000000000e-01 3.469446951953614e-17 0.000000000000000e+00
					-2.500000000000000e-01 1.250000000000001e-01 0.000000000000000e+00
					-1.250000000000000e-01 1.250000000000001e-01 0.000000000000000e+00
					-1.250000000000000e-01 3.469446951953614e-17 0.000000000000000e+00
					3.469446951953615e-17 3.469446951953614e-17 0.000000000000000e+00
					-1.250000000000000e-01 1.250000000000001e-01 0.000000000000000e+00
					3.469446951953615e-17 1.250000000000001e-01 0.000000000000000e+00
					3.469446951953615e-17 3.469446951953614e-17 0.000000000000000e+00
					1.250000000000001e-01 3.469446951953614e-17 0.000000000000000e+00
					3.469446951953615e-17 1.250000000000001e-01 0.000000000000000e+00
					1.250000000000001e-01 1.250000000000001e-01 0.000000000000000e+00
					1.250000000000001e-01 3.469446951953614e-17 0.000000000000000e+00
					2.500000000000001e-01 3.469446951953614e-17 0.000000000000000e+00
					1.250000000000001e-01 1.250000000000001e-01 0.000000000000000e+00
					2.500000000000001e-01 1.250000000000001e-01 0.000000000000000e+00
					2.500000000000001e-01 3.469446951953614e-17 0.000000000000000e+00
					3.750000000000001e-01 3.469446951953614e-17 0.000000000000000e+00
					2.500000000000001e-01 1.250000000000001e-01 0.000000000000000e+00
					3.750000000000000e-01 1.250000000000001e-01 0.000000000000000e+00
					3.750000000000001e-01 3.469446951953614e-17 0.000000000000000e+00
					5.000000000000000e-01 3.469446951953614e-17 0.000000000000000e+00
					3.750000000000000e-01 1.250000000000001e-01 0.000000000000000e+00
					5.000000000000000e-01 1.250000000000001e-01 0.000000000000000e+00
					-5.000000000000000e-01 1.250000000000001e-01 0.000000000000000e+00
					-3.750000000000000e-01 1.250000000000001e-01 0.000000000000000e+00
					-5.000000000000000e-01 2.500000000000001e-01 0.000000000000000e+00
					-3.750000000000000e-01 2.500000000000001e-01 0.000000000000000e+00
					-3.750000000000000e-01 1.250000000000001e-01 0.000000000000000e+00
					-2.500000000000000e-01 1.250000000000001e-01 0.000000000000000e+00
					-3.750000000000000e-01 2.500000000000001e-01 0.000000000000000e+00
					-2.500000000000000e-01 2.500000000000001e-01 0.000000000000000e+00
					-2.500000000000000e-01 1.250000000000001e-01 0.000000000000000e+00
					-1.250000000000000e-01 1.250000000000001e-01 0.000000000000000e+00
					-2.500000000000000e-01 2.500000000000001e-01 0.000000000000000e+00
					-1.250000000000000e-01 2.500000000000001e-01 0.000000000000000e+00
					-1.250000000000000e-01 1.250000000000001e-01 0.000000000000000e+00
					3.469446951953615e-17 1.250000000000001e-01 0.000000000000000e+00
					-1.250000000000000e-01 2.500000000000001e-01 0.000000000000000e+00
					3.469446951953615e-17 2.500000000000001e-01 0.000000000000000e+00
					3.469446951953615e-17 1.250000000000001e-01 0.000000000000000e+00
					1.250000000000001e-01 1.250000000000001e-01 0.000000000000000e+00
					3.469446951953615e-17 2.500000000000001e-01 0.000000000000000e+00
					1.250000000000001e-01 2.500000000000001e-01 0.000000000000000e+00
					1.250000000000001e-01 1.250000000000001e-01 0.000000000000000e+00
					2.500000000000001e-01 1.250000000000001e-01 0.000000000000000e+00
					1.250000000000001e-01 2.500000000000001e-01 0.000000000000000e+00
					2.500000000000001e-01 2.500000000000001e-01 0.000000000000000e+00
					2.500000000000001e-01 1.250000000000001e-01 0.000000000000000e+00
					3.750000000000000e-01 1.250000000000001e-01 0.000000000000000e+00
					2.500000000000001e-01 2.500000000000001e-01 0.000000000000000e+00
					3.750000000000000e-01 2.500000000000001e-01 0.000000000000000e+00
					3.750000000000000e-01 1.250000000000001e-01 0.000000000000000e+00
					5.000000000000000e-01 1.250000000000001e-01 0.000000000000000e+00
					3.750000000000000e-01 2.500000000000001e-01 0.000000000000000e+00
					5.000000000000000e-01 2.500000000000001e-01 0.000000000000000e+00
					-5.000000000000000e-01 2.500000000000001e-01 0.000000000000000e+00
					-3.750000000000000e-01 2.500000000000001e-01 0.000000000000000e+00
					-5.000000000000000e-01 3.750000000000000e-01 0.000000000000000e+00
					-3.750000000000000e-01 3.750000000000000e-01 0.000000000000000e+00
					-3.750000000000000e-01 2.500000000000001e-01 0.000000000000000e+00
					-2.500000000000000e-01 2.500000000000001e-01 0.000000000000000e+00
					-3.750000000000000e-01 3.750000000000000e-01 0.000000000000000e+00
					-2.500000000000000e-01 3.750000000000000e-01 0.000000000000000e+00
					-2.500000000000000e-01 2.500000000000001e-01 0.000000000000000e+00
					-1.250000000000000e-01 2.500000000000001e-01 0.000000000000000e+00
					-2.500000000000000e-01 3.750000000000000e-01 0.000000000000000e+00
					-1.250000000000000e-01 3.750000000000000e-01 0.000000000000000e+00
					-1.250000000000000e-01 2.500000000000001e-01 0.000000000000000e+00
					3.469446951953615e-17 2.500000000000001e-01 0.000000000000000e+00
					-1.250000000000000e-01 3.750000000000000e-01 0.000000000000000e+00
					3.469446951953614e-17 3.750000000000000e-01 0.000000000000000e+00
					3.469446951953615e-17 2.500000000000001e-01 0.000000000000000e+00
					1.250000000000001e-01 2.500000000000001e-01 0.000000000000000e+00
					3.469446951953614e-17 3.750000000000000e-01 0.000000000000000e+00
					1.250000000000001e-01 3.750000000000000e-01 0.000000000000000e+00
					1.250000000000001e-01 2.500000000000001e-01 0.000000000000000e+00
					2.500000000000001e-01 2.500000000000001e-01 0.000000000000000e+00
					1.250000000000001e-01 3.750000000000000e-01 0.000000000000000e+00
					2.500000000000001e-01 3.750000000000000e-01 0.000000000000000e+00
					2.500000000000001e-01 2.500000000000001e-01 0.000000000000000e+00
					3.750000000000000e-01 2.500000000000001e-01 0.000000000000000e+00
					2.500000000000001e-01 3.750000000000000e-01 0.000000000000000e+00
					3.750000000000000e-01 3.750000000000000e-01 0.000000000000000e+00
					3.750000000000000e-01 2.500000000000001e-01 0.000000000000000e+00
					5.000000000000000e-01 2.500000000000001e-01 0.000000000000000e+00
					3.750000000000000e-01 3.750000000000000e-01 0.000000000000000e+00
					5.000000000000000e-01 3.750000000000000e-01 0.000000000000000e+00
					-5.000000000000000e-01 3.750000000000000e-01 0.000000000000000e+00
					-3.750000000000000e-01 3.750000000000000e-01 0.000000000000000e+00
					-5.000000000000000e-01 5.000000000000000e-01 0.000000000000000e+00
					-3.750000000000000e-01 5.000000000000000e-01 0.000000000000000e+00
					-3.750000000000000e-01 3.750000000000000e-01 0.000000000000000e+00
					-2.500000000000000e-01 3.750000000000000e-01 0.000000000000000e+00
					-3.750000000000000e-01 5.000000000000000e-01 0.000000000000000e+00
					-2.500000000000000e-01 5.000000000000000e-01 0.000000000000000e+00
					-2.500000000000000e-01 3.750000000000000e-01 0.000000000000000e+00
					-1.250000000000000e-01 3.750000000000000e-01 0.000000000000000e+00
					-2.500000000000000e-01 5.000000000000000e-01 0.000000000000000e+00
					-1.250000000000000e-01 5.000000000000000e-01 0.000000000000000e+00
					-1.250000000000000e-01 3.750000000000000e-01 0.000000000000000e+00
					3.469446951953614e-17 3.750000000000000e-01 0.000000000000000e+00
					-1.250000000000000e-01 5.000000000000000e-01 0.000000000000000e+00
					3.469446951953614e-17 5.000000000000000e-01 0.000000000000000e+00
					3.469446951953614e-17 3.750000000000000e-01 0.000000000000000e+00
					1.250000000000001e-01 3.750000000000000e-01 0.000000000000000e+00
					3.469446951953614e-17 5.000000000000000e-01 0.000000000000000e+00
					1.250000000000001e-01 5.000000000000000e-01 0.000000000000000e+00
					1.250000000000001e-01 3.750000000000000e-01 0.000000000000000e+00
					2.500000000000001e-01 3.750000000000000e-01 0.000000000000000e+00
					1.250000000000001e-01 5.000000000000000e-01 0.000000000000000e+00
					2.500000000000001e-01 5.000000000000000e-01 0.000000000000000e+00
					2.500000000000001e-01 3.750000000000000e-01 0.000000000000000e+00
					3.750000000000000e-01 3.750000000000000e-01 0.000000000000000e+00
					2.500000000000001e-01 5.000000000000000e-01 0.000000000000000e+00
					3.750000000000000e-01 5.000000000000000e-01 0.000000000000000e+00
					3.750000000000000e-01 3.750000000000000e-01 0.000000000000000e+00
					5.000000000000000e-01 3.750000000000000e-01 0.000000000000000e+00
					3.750000000000000e-01 5.000000000000000e-01 0.000000000000000e+00
					5.000000000000000e-01 5.000000000000000e-01 0.000000000000000e+00
				</DataArray>
			</Points>
			<Cells>
				<DataArray Name="connectivity" type="UInt32" format="ascii">
					0 1 3 2 4 5 7 6 8 9 11 10 12 13 15 14 16 17 19 18 20 21 23 22 24 25 27 26 28 29 31 30 32 33 35 34 36 37 39 38 40 41 43 42 44 45 47 46 48 49 51 50 52 53 55 54 56 57 59 58 60 61 63 62 64 65 67 66 68 69 71 70 72 73 75 74 76 77 79 78 80 81 83 82 84 85 87 86 88 89 91 90 92 93 95 94 96 97 99 98 100 101 103 102 104 105 107 106 108 109 111 110 112 113 115 114 116 117 119 118 120 121 123 122 124 125 127 126 128 129 131 130 132 133 135 134 136 137 139 138 140 141 143 142 144 145 147 146 148 149 151 150 152 153 155 154 156 157 159 158 160 161 163 162 164 165 167 166 168 169 171 170 172 173 175 174 176 177 179 178 180 181 183 182 184 185 187 186 188 189 191 190 192 193 195 194 196 197 199 198 200 201 203 202 204 205 207 206 208 209 211 210 212 213 215 214 216 217 219 218 220 221 223 222 224 225 227 226 228 229 231 230 232 233 235 234 236 237 239 238 240 241 243 242 244 245 247 246 248 249 251 250 252 253 255 254 
				</DataArray>
				<DataArray Name="offsets" type="UInt32" format="ascii">
					4 8 12 16 20 24 28 32 36 40 44 48 52 56 60 64 68 72 76 80 84 88 92 96 100 104 108 112 116 120 124 128 132 136 140 144 148 152 156 160 164 168 172 176 180 184 188 192 196 200 204 208 212 216 220 224 228 232 236 240 244 248 252 256 
				</DataArray>
				<DataArray Name="types" type="UInt8" format="ascii">
					9 9 9 9 9 9 9 9 9 9 9 9 9 9 9 9 9 9 9 9 9 9 9 9 9 9 9 9 9 9 9 9 9 9 9 9 9 9 9 9 9 9 9 9 9 9 9 9 9 9 9 9 9 9 9 9 9 9 9 9 9 9 9 9 
				</DataArray>
			</Cells>
			<PointData Vectors="solution ">
				<DataArray Name="solution" type="Float64" NumberOfComponents="1" format="ascii">
					1.518685006763170e+00 2.405597632451689e+00 2.746536793374291e+00 4.221137190671358e+00 2.405597632451689e+00 3.412694767630694e+00 4.221137190671358e+00 5.867236892416107e+00 3.412694767630694e+00 4.406581813519344e+00 5.867236892416107e+00 7.486716981072080e+00 4.406581813519344e+00 5.223530485818458e+00 7.486716981072080e+00 8.831405759927478e+00 5.223530485818458e+00 5.701869577293834e+00 8.831405759927478e+00 9.653729228178779e+00 5.701869577293834e+00 5.723471845928938e+00 9.653729228178779e+00 9.767093059983262e+00 5.723471845928938e+00 5.251771251084707e+00 9.767093059983262e+00 9.101152159485913e+00 5.251771251084707e+00 4.355324756063708e+00 9.101152159485913e+00 7.733088589699571e+00 2.746536793374291e+00 4.221137190671358e+00 4.428374089980760e+00 6.668205791345528e+00 4.221137190671358e+00 5.867236892416107e+00 6.668205791345528e+00 9.156500486855846e+00 5.867236892416107e+00 7.486716981072080e+00 9.156500486855846e+00 1.160447581147616e+01 7.486716981072080e+00 8.831405759927478e+00 1.160447581147616e+01 1.365304055689980e+01 8.831405759927478e+00 9.653729228178779e+00 1.365304055689980e+01 1.494240468455909e+01 9.653729228178779e+00 9.767093059983262e+00 1.494240468455909e+01 1.519646955509208e+01 9.767093059983262e+00 9.101152159485913e+00 1.519646955509208e+01 1.430132410999269e+01 9.101152159485913e+00 7.733088589699571e+00 1.430132410999269e+01 1.235302985535716e+01 4.428374089980760e+00 6.668205791345528e+00 6.490433772255918e+00 9.655562481873968e+00 6.668205791345528e+00 9.156500486855846e+00 9.655562481873968e+00 1.316697548714058e+01 9.156500486855846e+00 1.160447581147616e+01 1.316697548714058e+01 1.662423795122299e+01 1.160447581147616e+01 1.365304055689980e+01 1.662423795122299e+01 1.953175262516768e+01 1.365304055689980e+01 1.494240468455909e+01 1.953175262516768e+01 2.139235830072757e+01 1.494240468455909e+01 1.519646955509208e+01 2.139235830072757e+01 2.182151878239131e+01 1.519646955509208e+01 1.430132410999269e+01 2.182151878239131e+01 2.065481502560598e+01 1.430132410999269e+01 1.235302985535716e+01 2.065481502560598e+01 1.801572696640726e+01 6.490433772255918e+00 9.655562481873968e+00 8.730787732525537e+00 1.291831894260759e+01 9.655562481873968e+00 1.316697548714058e+01 1.291831894260759e+01 1.756680217032469e+01 1.316697548714058e+01 1.662423795122299e+01 1.756680217032469e+01 2.214713034772054e+01 1.662423795122299e+01 1.953175262516768e+01 2.214713034772054e+01 2.600639782427830e+01 1.953175262516768e+01 2.139235830072757e+01 2.600639782427830e+01 2.849021262966331e+01 2.139235830072757e+01 2.182151878239131e+01 2.849021262966331e+01 2.909240356218855e+01 2.182151878239131e+01 2.065481502560598e+01 2.909240356218855e+01 2.759681696606939e+01 2.065481502560598e+01 1.801572696640726e+01 2.759681696606939e+01 2.416814586257777e+01 8.730787732525537e+00 1.291831894260759e+01 1.081737403307755e+01 1.601552704447955e+01 1.291831894260759e+01 1.756680217032469e+01 1.601552704447955e+01 2.179874336180214e+01 1.756680217032469e+01 2.214713034772054e+01 2.179874336180214e+01 2.750009170268193e+01 2.214713034772054e+01 2.600639782427830e+01 2.750009170268193e+01 3.229800077552218e+01 2.600639782427830e+01 2.849021262966331e+01 3.229800077552218e+01 3.537118025965749e+01 2.849021262966331e+01 2.909240356218855e+01 3.537118025965749e+01 3.608866841868132e+01 2.909240356218855e+01 2.759681696606939e+01 3.608866841868132e+01 3.419021448687444e+01 2.759681696606939e+01 2.416814586257777e+01 3.419021448687444e+01 2.990218583810315e+01 1.081737403307755e+01 1.601552704447955e+01 1.233240859610504e+01 1.838311136483828e+01 1.601552704447955e+01 2.179874336180214e+01 1.838311136483828e+01 2.514139082788630e+01 2.179874336180214e+01 2.750009170268193e+01 2.514139082788630e+01 3.180596734366977e+01 2.750009170268193e+01 3.229800077552218e+01 3.180596734366977e+01 3.738991067325966e+01 3.229800077552218e+01 3.537118025965749e+01 3.738991067325966e+01 4.091062100067864e+01 3.537118025965749e+01 3.608866841868132e+01 4.091062100067864e+01 4.162306909541701e+01 3.608866841868132e+01 3.419021448687444e+01 4.162306909541701e+01 3.924091583169631e+01 3.419021448687444e+01 2.990218583810315e+01 3.924091583169631e+01 3.407845665007659e+01 1.233240859610504e+01 1.838311136483828e+01 1.286711619913494e+01 1.945137100143144e+01 1.838311136483828e+01 2.514139082788630e+01 1.945137100143144e+01 2.685078576939189e+01 2.514139082788630e+01 3.180596734366977e+01 2.685078576939189e+01 3.415015718269701e+01 3.180596734366977e+01 3.738991067325966e+01 3.415015718269701e+01 4.021989827569424e+01 3.738991067325966e+01 4.091062100067864e+01 4.021989827569424e+01 4.394111727114766e+01 4.091062100067864e+01 4.162306909541701e+01 4.394111727114766e+01 4.448151767737352e+01 4.162306909541701e+01 3.924091583169631e+01 4.448151767737352e+01 4.155464627674556e+01 3.924091583169631e+01 3.407845665007659e+01 4.155464627674556e+01 3.558765546568237e+01 1.286711619913494e+01 1.945137100143144e+01 1.215213141320016e+01 1.881339061932930e+01 1.945137100143144e+01 2.685078576939189e+01 1.881339061932930e+01 2.636846479735337e+01 2.685078576939189e+01 3.415015718269701e+01 2.636846479735337e+01 3.382930347021565e+01 3.415015718269701e+01 4.021989827569424e+01 3.382930347021565e+01 3.996846401720073e+01 4.021989827569424e+01 4.394111727114766e+01 3.996846401720073e+01 4.357679348127090e+01 4.394111727114766e+01 4.448151767737352e+01 4.357679348127090e+01 4.377796290717980e+01 4.448151767737352e+01 4.155464627674556e+01 4.377796290717980e+01 4.031431474457354e+01 4.155464627674556e+01 3.558765546568237e+01 4.031431474457354e+01 3.369870338976043e+01 
				</DataArray>
			</PointData>
			<CellData>
			</CellData>
		</Piece>
	</UnstructuredGrid>
</VTKFile>