<?xml version="1.0"?>
<VTKFile type="UnstructuredGrid" byte_order="LittleEndian">
	<UnstructuredGrid>
		<Piece NumberOfPoints="256" NumberOfCells="64">
			<Points>
				<DataArray type="Float64" NumberOfComponents="3" format="ascii">
					1.000000000000000e+00 -1.000000000000000e+00 0.000000000000000e+00
					1.218750000000000e+00 -7.500000000000000e-01 0.000000000000000e+00
					9.135224194504830e-01 -9.135224194504830e-01 0.000000000000000e+00
					1.081002888200483e+00 -6.851418145878623e-01 0.000000000000000e+00
					1.218750000000000e+00 -7.500000000000000e-01 0.000000000000000e+00
					1.375000000000000e+00 -5.000000000000000e-01 0.000000000000000e+00
					1.081002888200483e+00 -6.851418145878623e-01 0.000000000000000e+00
					1.200631794450484e+00 -4.567612097252415e-01 0.000000000000000e+00
					1.375000000000000e+00 -5.000000000000000e-01 0.000000000000000e+00
					1.468750000000000e+00 -2.499999999999999e-01 0.000000000000000e+00
					1.200631794450484e+00 -4.567612097252415e-01 0.000000000000000e+00
					1.272409138200483e+00 -2.283806048626207e-01 0.000000000000000e+00
					1.468750000000000e+00 -2.499999999999999e-01 0.000000000000000e+00
					1.500000000000000e+00 6.938893903907228e-17 0.000000000000000e+00
					1.272409138200483e+00 -2.283806048626207e-01 0.000000000000000e+00
					1.296334919450483e+00 6.581107186987012e-17 0.000000000000000e+00
					1.500000000000000e+00 6.938893903907228e-17 0.000000000000000e+00
					1.468750000000000e+00 2.500000000000001e-01 0.000000000000000e+00
					1.296334919450483e+00 6.581107186987012e-17 0.000000000000000e+00
					1.272409138200483e+00 2.283806048626209e-01 0.000000000000000e+00
					1.468750000000000e+00 2.500000000000001e-01 0.000000000000000e+00
					1.375000000000000e+00 5.000000000000001e-01 0.000000000000000e+00
					1.272409138200483e+00 2.283806048626209e-01 0.000000000000000e+00
					1.200631794450483e+00 4.567612097252416e-01 0.000000000000000e+00
					1.375000000000000e+00 5.000000000000001e-01 0.000000000000000e+00
					1.218750000000000e+00 7.500000000000000e-01 0.000000000000000e+00
					1.200631794450483e+00 4.567612097252416e-01 0.000000000000000e+00
					1.081002888200483e+00 6.851418145878623e-01 0.000000000000000e+00
					1.218750000000000e+00 7.500000000000000e-01 0.000000000000000e+00
					1.000000000000000e+00 1.000000000000000e+00 0.000000000000000e+00
					1.081002888200483e+00 6.851418145878623e-01 0.000000000000000e+00
					9.135224194504830e-01 9.135224194504830e-01 0.000000000000000e+00
					9.135224194504830e-01 -9.135224194504830e-01 0.000000000000000e+00
					1.081002888200483e+00 -6.851418145878623e-01 0.000000000000000e+00
					8.338955762008280e-01 -8.338955762008280e-01 0.000000000000000e+00
					9.569424512008281e-01 -6.254216821506211e-01 0.000000000000000e+00
					1.081002888200483e+00 -6.851418145878623e-01 0.000000000000000e+00
					1.200631794450484e+00 -4.567612097252415e-01 0.000000000000000e+00
					9.569424512008281e-01 -6.254216821506211e-01 0.000000000000000e+00
					1.044833076200828e+00 -4.169477881004140e-01 0.000000000000000e+00
					1.200631794450484e+00 -4.567612097252415e-01 0.000000000000000e+00
					1.272409138200483e+00 -2.283806048626207e-01 0.000000000000000e+00
					1.044833076200828e+00 -4.169477881004140e-01 0.000000000000000e+00
					1.097567451200828e+00 -2.084738940502070e-01 0.000000000000000e+00
					1.272409138200483e+00 -2.283806048626207e-01 0.000000000000000e+00
					1.296334919450483e+00 6.581107186987012e-17 0.000000000000000e+00
					1.097567451200828e+00 -2.084738940502070e-01 0.000000000000000e+00
					1.115145576200828e+00 6.201636426617085e-17 0.000000000000000e+00
					1.296334919450483e+00 6.581107186987012e-17 0.000000000000000e+00
					1.272409138200483e+00 2.283806048626209e-01 0.000000000000000e+00
					1.115145576200828e+00 6.201636426617085e-17 0.000000000000000e+00
					1.097567451200828e+00 2.084738940502071e-01 0.000000000000000e+00
					1.272409138200483e+00 2.283806048626209e-01 0.000000000000000e+00
					1.200631794450483e+00 4.567612097252416e-01 0.000000000000000e+00
					1.097567451200828e+00 2.084738940502071e-01 0.000000000000000e+00
					1.044833076200828e+00 4.169477881004141e-01 0.000000000000000e+00
					1.200631794450483e+00 4.567612097252416e-01 0.000000000000000e+00
					1.081002888200483e+00 6.851418145878623e-01 0.000000000000000e+00
					1.044833076200828e+00 4.169477881004141e-01 0.000000000000000e+00
					9.569424512008281e-01 6.254216821506211e-01 0.000000000000000e+00
					1.081002888200483e+00 6.851418145878623e-01 0.000000000000000e+00
					9.135224194504830e-01 9.135224194504830e-01 0.000000000000000e+00
					9.569424512008281e-01 6.254216821506211e-01 0.000000000000000e+00
					8.338955762008280e-01 8.338955762008280e-01 0.000000000000000e+00
					8.338955762008280e-01 -8.338955762008280e-01 0.000000000000000e+00
					9.569424512008281e-01 -6.254216821506211e-01 0.000000000000000e+00
					7.611194702510350e-01 -7.611194702510350e-01 0.000000000000000e+00
					8.465686890010350e-01 -5.708396026882762e-01 0.000000000000000e+00
					9.569424512008281e-01 -6.254216821506211e-01 0.000000000000000e+00
					1.044833076200828e+00 -4.169477881004140e-01 0.000000000000000e+00
					8.465686890010350e-01 -5.708396026882762e-01 0.000000000000000e+00
					9.076038452510352e-01 -3.805597351255174e-01 0.000000000000000e+00
					1.044833076200828e+00 -4.169477881004140e-01 0.000000000000000e+00
					1.097567451200828e+00 -2.084738940502070e-01 0.000000000000000e+00
					9.076038452510352e-01 -3.805597351255174e-01 0.000000000000000e+00
					9.442249390010351e-01 -1.902798675627587e-01 0.000000000000000e+00
					1.097567451200828e+00 -2.084738940502070e-01 0.000000000000000e+00
					1.115145576200828e+00 6.201636426617085e-17 0.000000000000000e+00
					9.442249390010351e-01 -1.902798675627587e-01 0.000000000000000e+00
					9.564319702510350e-01 5.800481622797449e-17 0.000000000000000e+00
					1.115145576200828e+00 6.201636426617085e-17 0.000000000000000e+00
					1.097567451200828e+00 2.084738940502071e-01 0.000000000000000e+00
					9.564319702510350e-01 5.800481622797449e-17 0.000000000000000e+00
					9.442249390010350e-01 1.902798675627588e-01 0.000000000000000e+00
					1.097567451200828e+00 2.084738940502071e-01 0.000000000000000e+00
					1.044833076200828e+00 4.169477881004141e-01 0.000000000000000e+00
					9.442249390010350e-01 1.902798675627588e-01 0.000000000000000e+00
					9.076038452510350e-01 3.805597351255176e-01 0.000000000000000e+00
					1.044833076200828e+00 4.169477881004141e-01 0.000000000000000e+00
					9.569424512008281e-01 6.254216821506211e-01 0.000000000000000e+00
					9.076038452510350e-01 3.805597351255176e-01 0.000000000000000e+00
					8.465686890010350e-01 5.708396026882762e-01 0.000000000000000e+00
					9.569424512008281e-01 6.254216821506211e-01 0.000000000000000e+00
					8.338955762008280e-01 8.338955762008280e-01 0.000000000000000e+00
					8.465686890010350e-01 5.708396026882762e-01 0.000000000000000e+00
					7.611194702510350e-01 7.611194702510350e-01 0.000000000000000e+00
					7.611194702510350e-01 -7.611194702510350e-01 0.000000000000000e+00
					8.465686890010350e-01 -5.708396026882762e-01 0.000000000000000e+00
					6.951941016011041e-01 -6.951941016011041e-01 0.000000000000000e+00
					7.498816016011041e-01 -5.213955762008279e-01 0.000000000000000e+00
					8.465686890010350e-01 -5.708396026882762e-01 0.000000000000000e+00
					9.076038452510352e-01 -3.805597351255174e-01 0.000000000000000e+00
					7.498816016011041e-01 -5.213955762008279e-01 0.000000000000000e+00
					7.889441016011042e-01 -3.475970508005519e-01 0.000000000000000e+00
					9.076038452510352e-01 -3.805597351255174e-01 0.000000000000000e+00
					9.442249390010351e-01 -1.902798675627587e-01 0.000000000000000e+00
					7.889441016011042e-01 -3.475970508005519e-01 0.000000000000000e+00
					8.123816016011042e-01 -1.737985254002760e-01 0.000000000000000e+00
					9.442249390010351e-01 -1.902798675627587e-01 0.000000000000000e+00
					9.564319702510350e-01 5.800481622797449e-17 0.000000000000000e+00
					8.123816016011042e-01 -1.737985254002760e-01 0.000000000000000e+00
					8.201941016011041e-01 5.377642775528102e-17 0.000000000000000e+00
					9.564319702510350e-01 5.800481622797449e-17 0.000000000000000e+00
					9.442249390010350e-01 1.902798675627588e-01 0.000000000000000e+00
					8.201941016011041e-01 5.377642775528102e-17 0.000000000000000e+00
					8.123816016011041e-01 1.737985254002761e-01 0.000000000000000e+00
					9.442249390010350e-01 1.902798675627588e-01 0.000000000000000e+00
					9.076038452510350e-01 3.805597351255176e-01 0.000000000000000e+00
					8.123816016011041e-01 1.737985254002761e-01 0.000000000000000e+00
					7.889441016011040e-01 3.475970508005521e-01 0.000000000000000e+00
					9.076038452510350e-01 3.805597351255176e-01 0.000000000000000e+00
					8.465686890010350e-01 5.708396026882762e-01 0.000000000000000e+00
					7.889441016011040e-01 3.475970508005521e-01 0.000000000000000e+00
					7.498816016011041e-01 5.213955762008279e-01 0.000000000000000e+00
					8.465686890010350e-01 5.708396026882762e-01 0.000000000000000e+00
					7.611194702510350e-01 7.611194702510350e-01 0.000000000000000e+00
					7.498816016011041e-01 5.213955762008279e-01 0.000000000000000e+00
					6.951941016011041e-01 6.951941016011041e-01 0.000000000000000e+00
					6.951941016011041e-01 -6.951941016011041e-01 0.000000000000000e+00
					7.498816016011041e-01 -5.213955762008279e-01 0.000000000000000e+00
					6.361194702510350e-01 -6.361194702510350e-01 0.000000000000000e+00
					6.668811890010350e-01 -4.770896026882761e-01 0.000000000000000e+00
					7.498816016011041e-01 -5.213955762008279e-01 0.000000000000000e+00
					7.889441016011042e-01 -3.475970508005519e-01 0.000000000000000e+00
					6.668811890010350e-01 -4.770896026882761e-01 0.000000000000000e+00
					6.888538452510350e-01 -3.180597351255174e-01 0.000000000000000e+00
					7.889441016011042e-01 -3.475970508005519e-01 0.000000000000000e+00
					8.123816016011042e-01 -1.737985254002760e-01 0.000000000000000e+00
					6.888538452510350e-01 -3.180597351255174e-01 0.000000000000000e+00
					7.020374390010350e-01 -1.590298675627587e-01 0.000000000000000e+00
					8.123816016011042e-01 -1.737985254002760e-01 0.000000000000000e+00
					8.201941016011041e-01 5.377642775528102e-17 0.000000000000000e+00
					7.020374390010350e-01 -1.590298675627587e-01 0.000000000000000e+00
					7.064319702510350e-01 4.933119884809045e-17 0.000000000000000e+00
					8.201941016011041e-01 5.377642775528102e-17 0.000000000000000e+00
					8.123816016011041e-01 1.737985254002761e-01 0.000000000000000e+00
					7.064319702510350e-01 4.933119884809045e-17 0.000000000000000e+00
					7.020374390010350e-01 1.590298675627588e-01 0.000000000000000e+00
					8.123816016011041e-01 1.737985254002761e-01 0.000000000000000e+00
					7.889441016011040e-01 3.475970508005521e-01 0.000000000000000e+00
					7.020374390010350e-01 1.590298675627588e-01 0.000000000000000e+00
					6.888538452510349e-01 3.180597351255176e-01 0.000000000000000e+00
					7.889441016011040e-01 3.475970508005521e-01 0.000000000000000e+00
					7.498816016011041e-01 5.213955762008279e-01 0.000000000000000e+00
					6.888538452510349e-01 3.180597351255176e-01 0.000000000000000e+00
					6.668811890010350e-01 4.770896026882761e-01 0.000000000000000e+00
					7.498816016011041e-01 5.213955762008279e-01 0.000000000000000e+00
					6.951941016011041e-01 6.951941016011041e-01 0.000000000000000e+00
					6.668811890010350e-01 4.770896026882761e-01 0.000000000000000e+00
					6.361194702510350e-01 6.361194702510350e-01 0.000000000000000e+00
					6.361194702510350e-01 -6.361194702510350e-01 0.000000000000000e+00
					6.668811890010350e-01 -4.770896026882761e-01 0.000000000000000e+00
					5.838955762008280e-01 -5.838955762008280e-01 0.000000000000000e+00
					5.975674512008280e-01 -4.379216821506209e-01 0.000000000000000e+00
					6.668811890010350e-01 -4.770896026882761e-01 0.000000000000000e+00
					6.888538452510350e-01 -3.180597351255174e-01 0.000000000000000e+00
					5.975674512008280e-01 -4.379216821506209e-01 0.000000000000000e+00
					6.073330762008280e-01 -2.919477881004139e-01 0.000000000000000e+00
					6.888538452510350e-01 -3.180597351255174e-01 0.000000000000000e+00
					7.020374390010350e-01 -1.590298675627587e-01 0.000000000000000e+00
					6.073330762008280e-01 -2.919477881004139e-01 0.000000000000000e+00
					6.131924512008280e-01 -1.459738940502070e-01 0.000000000000000e+00
					7.020374390010350e-01 -1.590298675627587e-01 0.000000000000000e+00
					7.064319702510350e-01 4.933119884809045e-17 0.000000000000000e+00
					6.131924512008280e-01 -1.459738940502070e-01 0.000000000000000e+00
					6.151455762008280e-01 4.466912950640279e-17 0.000000000000000e+00
					7.064319702510350e-01 4.933119884809045e-17 0.000000000000000e+00
					7.020374390010350e-01 1.590298675627588e-01 0.000000000000000e+00
					6.151455762008280e-01 4.466912950640279e-17 0.000000000000000e+00
					6.131924512008280e-01 1.459738940502071e-01 0.000000000000000e+00
					7.020374390010350e-01 1.590298675627588e-01 0.000000000000000e+00
					6.888538452510349e-01 3.180597351255176e-01 0.000000000000000e+00
					6.131924512008280e-01 1.459738940502071e-01 0.000000000000000e+00
					6.073330762008280e-01 2.919477881004141e-01 0.000000000000000e+00
					6.888538452510349e-01 3.180597351255176e-01 0.000000000000000e+00
					6.668811890010350e-01 4.770896026882761e-01 0.000000000000000e+00
					6.073330762008280e-01 2.919477881004141e-01 0.000000000000000e+00
					5.975674512008280e-01 4.379216821506209e-01 0.000000000000000e+00
					6.668811890010350e-01 4.770896026882761e-01 0.000000000000000e+00
					6.361194702510350e-01 6.361194702510350e-01 0.000000000000000e+00
					5.975674512008280e-01 4.379216821506209e-01 0.000000000000000e+00
					5.838955762008280e-01 5.838955762008280e-01 0.000000000000000e+00
					5.838955762008280e-01 -5.838955762008280e-01 0.000000000000000e+00
					5.975674512008280e-01 -4.379216821506209e-01 0.000000000000000e+00
					5.385224194504830e-01 -5.385224194504830e-01 0.000000000000000e+00
					5.419403882004830e-01 -4.038918145878622e-01 0.000000000000000e+00
					5.975674512008280e-01 -4.379216821506209e-01 0.000000000000000e+00
					6.073330762008280e-01 -2.919477881004139e-01 0.000000000000000e+00
					5.419403882004830e-01 -4.038918145878622e-01 0.000000000000000e+00
					5.443817944504830e-01 -2.692612097252415e-01 0.000000000000000e+00
					6.073330762008280e-01 -2.919477881004139e-01 0.000000000000000e+00
					6.131924512008280e-01 -1.459738940502070e-01 0.000000000000000e+00
					5.443817944504830e-01 -2.692612097252415e-01 0.000000000000000e+00
					5.458466382004830e-01 -1.346306048626207e-01 0.000000000000000e+00
					6.131924512008280e-01 -1.459738940502070e-01 0.000000000000000e+00
					6.151455762008280e-01 4.466912950640279e-17 0.000000000000000e+00
					5.458466382004830e-01 -1.346306048626207e-01 0.000000000000000e+00
					5.463349194504830e-01 3.979021973021801e-17 0.000000000000000e+00
					6.151455762008280e-01 4.466912950640279e-17 0.000000000000000e+00
					6.131924512008280e-01 1.459738940502071e-01 0.000000000000000e+00
					5.463349194504830e-01 3.979021973021801e-17 0.000000000000000e+00
					5.458466382004830e-01 1.346306048626208e-01 0.000000000000000e+00
					6.131924512008280e-01 1.459738940502071e-01 0.000000000000000e+00
					6.073330762008280e-01 2.919477881004141e-01 0.000000000000000e+00
					5.458466382004830e-01 1.346306048626208e-01 0.000000000000000e+00
					5.443817944504830e-01 2.692612097252415e-01 0.000000000000000e+00
					6.073330762008280e-01 2.919477881004141e-01 0.000000000000000e+00
					5.975674512008280e-01 4.379216821506209e-01 0.000000000000000e+00
					5.443817944504830e-01 2.692612097252415e-01 0.000000000000000e+00
					5.419403882004830e-01 4.038918145878622e-01 0.000000000000000e+00
					5.975674512008280e-01 4.379216821506209e-01 0.000000000000000e+00
					5.838955762008280e-01 5.838955762008280e-01 0.000000000000000e+00
					5.419403882004830e-01 4.038918145878622e-01 0.000000000000000e+00
					5.385224194504830e-01 5.385224194504830e-01 0.000000000000000e+00
					5.385224194504830e-01 -5.385224194504830e-01 0.000000000000000e+00
					5.419403882004830e-01 -4.038918145878622e-01 0.000000000000000e+00
					5.000000000000000e-01 -5.000000000000000e-01 0.000000000000000e+00
					5.000000000000000e-01 -3.750000000000000e-01 0.000000000000000e+00
					5.419403882004830e-01 -4.038918145878622e-01 0.000000000000000e+00
					5.443817944504830e-01 -2.692612097252415e-01 0.000000000000000e+00
					5.000000000000000e-01 -3.750000000000000e-01 0.000000000000000e+00
					5.000000000000000e-01 -2.500000000000000e-01 0.000000000000000e+00
					5.443817944504830e-01 -2.692612097252415e-01 0.000000000000000e+00
					5.458466382004830e-01 -1.346306048626207e-01 0.000000000000000e+00
					5.000000000000000e-01 -2.500000000000000e-01 0.000000000000000e+00
					5.000000000000000e-01 -1.250000000000000e-01 0.000000000000000e+00
					5.458466382004830e-01 -1.346306048626207e-01 0.000000000000000e+00
					5.463349194504830e-01 3.979021973021801e-17 0.000000000000000e+00
					5.000000000000000e-01 -1.250000000000000e-01 0.000000000000000e+00
					5.000000000000000e-01 3.469446951953614e-17 0.000000000000000e+00
					5.463349194504830e-01 3.979021973021801e-17 0.000000000000000e+00
					5.458466382004830e-01 1.346306048626208e-01 0.000000000000000e+00
					5.000000000000000e-01 3.469446951953614e-17 0.000000000000000e+00
					5.000000000000000e-01 1.250000000000001e-01 0.000000000000000e+00
					5.458466382004830e-01 1.346306048626208e-01 0.000000000000000e+00
					5.443817944504830e-01 2.692612097252415e-01 0.000000000000000e+00
					5.000000000000000e-01 1.250000000000001e-01 0.000000000000000e+00
					5.000000000000000e-01 2.500000000000001e-01 0.000000000000000e+00
					5.443817944504830e-01 2.692612097252415e-01 0.000000000000000e+00
					5.419403882004830e-01 4.038918145878622e-01 0.000000000000000e+00
					5.000000000000000e-01 2.500000000000001e-01 0.000000000000000e+00
					5.000000000000000e-01 3.750000000000000e-01 0.000000000000000e+00
					5.419403882004830e-01 4.038918145878622e-01 0.000000000000000e+00
					5.385224194504830e-01 5.385224194504830e-01 0.000000000000000e+00
					5.000000000000000e-01 3.750000000000000e-01 0.000000000000000e+00
					5.000000000000000e-01 5.000000000000000e-01 0.000000000000000e+00
				</DataArray>
			</Points>
			<Cells>
				<DataArray Name="connectivity" type="UInt32" format="ascii">
					0 1 3 2 4 5 7 6 8 9 11 10 12 13 15 14 16 17 19 18 20 21 23 22 24 25 27 26 28 29 31 30 32 33 35 34 36 37 39 38 40 41 43 42 44 45 47 46 48 49 51 50 52 53 55 54 56 57 59 58 60 61 63 62 64 65 67 66 68 69 71 70 72 73 75 74 76 77 79 78 80 81 83 82 84 85 87 86 88 89 91 90 92 93 95 94 96 97 99 98 100 101 103 102 104 105 107 106 108 109 111 110 112 113 115 114 116 117 119 118 120 121 123 122 124 125 127 126 128 129 131 130 132 133 135 134 136 137 139 138 140 141 143 142 144 145 147 146 148 149 151 150 152 153 155 154 156 157 159 158 160 161 163 162 164 165 167 166 168 169 171 170 172 173 175 174 176 177 179 178 180 181 183 182 184 185 187 186 188 189 191 190 192 193 195 194 196 197 199 198 200 201 203 202 204 205 207 206 208 209 211 210 212 213 215 214 216 217 219 218 220 221 223 222 224 225 227 226 228 229 231 230 232 233 235 234 236 237 239 238 240 241 243 242 244 245 247 246 248 249 251 250 252 253 255 254 
				</DataArray>
				<DataArray Name="offsets" type="UInt32" format="ascii">
					4 8 12 16 20 24 28 32 36 40 44 48 52 56 60 64 68 72 76 80 84 88 92 96 100 104 108 112 116 120 124 128 132 136 140 144 148 152 156 160 164 168 172 176 180 184 188 192 196 200 204 208 212 216 220 224 228 232 236 240 244 248 252 256 
				</DataArray>
				<DataArray Name="types" type="UInt8" format="ascii">
					9 9 9 9 9 9 9 9 9 9 9 9 9 9 9 9 9 9 9 9 9 9 9 9 9 9 9 9 9 9 9 9 9 9 9 9 9 9 9 9 9 9 9 9 9 9 9 9 9 9 9 9 9 9 9 9 9 9 9 9 9 9 9 9 
				</DataArray>
			</Cells>
			<PointData Vectors="solution ">
				<DataArray Name="solution" type="Float64" NumberOfComponents="1" format="ascii">
					0.000000000000000e+00 0.000000000000000e+00 5.185373324124057e-03 1.914297839654516e-02 0.000000000000000e+00 0.000000000000000e+00 1.914297839654516e-02 5.423194159865291e-02 0.000000000000000e+00 0.000000000000000e+00 5.423194159865291e-02 1.243029285121025e-01 0.000000000000000e+00 0.000000000000000e+00 1.243029285121025e-01 2.234938982466441e-01 0.000000000000000e+00 0.000000000000000e+00 2.234938982466441e-01 3.095457619690016e-01 0.000000000000000e+00 0.000000000000000e+00 3.095457619690016e-01 3.357786024793854e-01 0.000000000000000e+00 0.000000000000000e+00 3.357786024793854e-01 2.951922603986744e-01 0.000000000000000e+00 0.000000000000000e+00 2.951922603986744e-01 2.005773606383347e-01 5.185373324124057e-03 1.914297839654516e-02 6.935231095186280e-02 2.221599324834099e-01 1.914297839654516e-02 5.423194159865291e-02 2.221599324834099e-01 5.487327076278126e-01 5.423194159865291e-02 1.243029285121025e-01 5.487327076278126e-01 1.103606943228417e+00 1.243029285121025e-01 2.234938982466441e-01 1.103606943228417e+00 1.837496507156285e+00 2.234938982466441e-01 3.095457619690016e-01 1.837496507156285e+00 2.540979729556737e+00 3.095457619690016e-01 3.357786024793854e-01 2.540979729556737e+00 2.908803951029949e+00 3.357786024793854e-01 2.951922603986744e-01 2.908803951029949e+00 2.711964527242073e+00 2.951922603986744e-01 2.005773606383347e-01 2.711964527242073e+00 1.952811377213955e+00 6.935231095186280e-02 2.221599324834099e-01 2.870598050305315e-01 8.157089232555197e-01 2.221599324834099e-01 5.487327076278126e-01 8.157089232555197e-01 1.843014113822922e+00 5.487327076278126e-01 1.103606943228417e+00 1.843014113822922e+00 3.455919412944222e+00 1.103606943228417e+00 1.837496507156285e+00 3.455919412944222e+00 5.482512351509807e+00 1.837496507156285e+00 2.540979729556737e+00 5.482512351509807e+00 7.398872451659992e+00 2.540979729556737e+00 2.908803951029949e+00 7.398872451659992e+00 8.447712202450417e+00 2.908803951029949e+00 2.711964527242073e+00 8.447712202450417e+00 8.005645941525344e+00 2.711964527242073e+00 1.952811377213955e+00 8.005645941525344e+00 6.035997087417243e+00 2.870598050305315e-01 8.157089232555197e-01 7.303290805876350e-01 1.851933826246003e+00 8.157089232555197e-01 1.843014113822922e+00 1.851933826246003e+00 3.855639230649622e+00 1.843014113822922e+00 3.455919412944222e+00 3.855639230649622e+00 6.807671222136040e+00 3.455919412944222e+00 5.482512351509807e+00 6.807671222136040e+00 1.035752833725710e+01 5.482512351509807e+00 7.398872451659992e+00 1.035752833725710e+01 1.364480620890614e+01 7.398872451659992e+00 8.447712202450417e+00 1.364480620890614e+01 1.548942725493726e+01 8.447712202450417e+00 8.005645941525344e+00 1.548942725493726e+01 1.491256095653780e+01 8.005645941525344e+00 6.035997087417243e+00 1.491256095653780e+01 1.179172923270907e+01 7.303290805876350e-01 1.851933826246003e+00 1.416912216893581e+00 3.227590235038895e+00 1.851933826246003e+00 3.855639230649622e+00 3.227590235038895e+00 6.215719740417063e+00 3.855639230649622e+00 6.807671222136040e+00 6.215719740417063e+00 1.037301187720257e+01 6.807671222136040e+00 1.035752833725710e+01 1.037301187720257e+01 1.519086679136523e+01 1.035752833725710e+01 1.364480620890614e+01 1.519086679136523e+01 1.959795275914805e+01 1.364480620890614e+01 1.548942725493726e+01 1.959795275914805e+01 2.218714144414920e+01 1.548942725493726e+01 1.491256095653780e+01 2.218714144414920e+01 2.176663934874370e+01 1.491256095653780e+01 1.179172923270907e+01 2.176663934874370e+01 1.805783150042447e+01 1.416912216893581e+00 3.227590235038895e+00 2.309544473059163e+00 4.766359286315716e+00 3.227590235038895e+00 6.215719740417063e+00 4.766359286315716e+00 8.535895159222063e+00 6.215719740417063e+00 1.037301187720257e+01 8.535895159222063e+00 1.351978817151681e+01 1.037301187720257e+01 1.519086679136523e+01 1.351978817151681e+01 1.912660519397018e+01 1.519086679136523e+01 1.959795275914805e+01 1.912660519397018e+01 2.424309024033450e+01 1.959795275914805e+01 2.218714144414920e+01 2.424309024033450e+01 2.744641842845886e+01 2.218714144414920e+01 2.176663934874370e+01 2.744641842845886e+01 2.748061864336123e+01 2.176663934874370e+01 1.805783150042447e+01 2.748061864336123e+01 2.388056304636877e+01 2.309544473059163e+00 4.766359286315716e+00 3.332346176331354e+00 6.293504636549928e+00 4.766359286315716e+00 8.535895159222063e+00 6.293504636549928e+00 1.055581422692814e+01 8.535895159222063e+00 1.351978817151681e+01 1.055581422692814e+01 1.595270220769322e+01 1.351978817151681e+01 1.912660519397018e+01 1.595270220769322e+01 2.188958531361237e+01 1.912660519397018e+01 2.424309024033450e+01 2.188958531361237e+01 2.733644427596376e+01 2.424309024033450e+01 2.744641842845886e+01 2.733644427596376e+01 3.099615578098190e+01 2.744641842845886e+01 2.748061864336123e+01 3.099615578098190e+01 3.166668413307687e+01 2.748061864336123e+01 2.388056304636877e+01 3.166668413307687e+01 2.873364855590859e+01 3.332346176331354e+00 6.293504636549928e+00 4.392200695319584e+00 7.673428015254693e+00 6.293504636549928e+00 1.055581422692814e+01 7.673428015254693e+00 1.215311516413768e+01 1.055581422692814e+01 1.595270220769322e+01 1.215311516413768e+01 1.763271213086956e+01 1.595270220769322e+01 2.188958531361237e+01 1.763271213086956e+01 2.356842761809204e+01 2.188958531361237e+01 2.733644427596376e+01 2.356842761809204e+01 2.907332647676693e+01 2.733644427596376e+01 3.099615578098190e+01 2.907332647676693e+01 3.303971362405477e+01 3.099615578098190e+01 3.166668413307687e+01 3.303971362405477e+01 3.439650204924330e+01 3.166668413307687e+01 2.873364855590859e+01 3.439650204924330e+01 3.246149513767650e+01 
				</DataArray>
			</PointData>
			<CellData>
			</CellData>
		</Piece>
	</UnstructuredGrid>
</VTKFile>