<?xml version="1.0"?>
<VTKFile type="UnstructuredGrid" byte_order="LittleEndian">
	<UnstructuredGrid>
		<Piece NumberOfPoints="16" NumberOfCells="4">
			<Points>
				<DataArray type="Float64" NumberOfComponents="3" format="ascii">
					-5.000000000000000e-01 -5.000000000000000e-01 0.000000000000000e+00
					0.000000000000000e+00 -5.000000000000000e-01 0.000000000000000e+00
					-5.000000000000000e-01 0.000000000000000e+00 0.000000000000000e+00
					0.000000000000000e+00 0.000000000000000e+00 0.000000000000000e+00
					0.000000000000000e+00 -5.000000000000000e-01 0.000000000000000e+00
					5.000000000000000e-01 -5.000000000000000e-01 0.000000000000000e+00
					0.000000000000000e+00 0.000000000000000e+00 0.000000000000000e+00
					5.000000000000000e-01 0.000000000000000e+00 0.000000000000000e+00
					-5.000000000000000e-01 0.000000000000000e+00 0.000000000000000e+00
					0.000000000000000e+00 0.000000000000000e+00 0.000000000000000e+00
					-5.000000000000000e-01 5.000000000000000e-01 0.000000000000000e+00
					0.000000000000000e+00 5.000000000000000e-01 0.000000000000000e+00
					0.000000000000000e+00 0.000000000000000e+00 0.000000000000000e+00
					5.000000000000000e-01 0.000000000000000e+00 0.000000000000000e+00
					0.000000000000000e+00 5.000000000000000e-01 0.000000000000000e+00
					5.000000000000000e-01 5.000000000000000e-01 0.000000000000000e+00
				</DataArray>
			</Points>
			<Cells>
				<DataArray Name="connectivity" type="UInt32" format="ascii">
					0 1 3 2 4 5 7 6 8 9 11 10 12 13 15 14 
				</DataArray>
				<DataArray Name="offsets" type="UInt32" format="ascii">
					4 8 12 16 
				</DataArray>
				<DataArray Name="types" type="UInt8" format="ascii">
					9 9 9 9 
				</DataArray>
			</Cells>
			<PointData Vectors="solution ">
				<DataArray Name="solution" type="Float64" NumberOfComponents="1" format="ascii">
					1.624461454084938e+00 5.221673209590779e+00 8.674912888498969e+00 2.568994716360579e+01 5.221673209590779e+00 4.381768126769543e+00 2.568994716360579e+01 2.369612053499821e+01 8.674912888498969e+00 2.568994716360579e+01 1.199201672215809e+01 3.925735717625123e+01 2.568994716360579e+01 2.369612053499821e+01 3.925735717625123e+01 3.250238946168586e+01 
				</DataArray>
			</PointData>
			<CellData>
			</CellData>
		</Piece>
	</UnstructuredGrid>
</VTKFile>