<?xml version="1.0"?>
<VTKFile type="UnstructuredGrid" byte_order="LittleEndian">
	<UnstructuredGrid>
		<Piece NumberOfPoints="256" NumberOfCells="64">
			<Points>
				<DataArray type="Float64" NumberOfComponents="3" format="ascii">
					-1.000000000000000e+00 1.000000000000000e+00 0.000000000000000e+00
					-9.135224194504830e-01 9.135224194504830e-01 0.000000000000000e+00
					-7.500000000000000e-01 1.218750000000000e+00 0.000000000000000e+00
					-6.851418145878623e-01 1.081002888200483e+00 0.000000000000000e+00
					-9.135224194504830e-01 9.135224194504830e-01 0.000000000000000e+00
					-8.338955762008280e-01 8.338955762008280e-01 0.000000000000000e+00
					-6.851418145878623e-01 1.081002888200483e+00 0.000000000000000e+00
					-6.254216821506210e-01 9.569424512008280e-01 0.000000000000000e+00
					-8.338955762008280e-01 8.338955762008280e-01 0.000000000000000e+00
					-7.611194702510350e-01 7.611194702510350e-01 0.000000000000000e+00
					-6.254216821506210e-01 9.569424512008280e-01 0.000000000000000e+00
					-5.708396026882763e-01 8.465686890010351e-01 0.000000000000000e+00
					-7.611194702510350e-01 7.611194702510350e-01 0.000000000000000e+00
					-6.951941016011041e-01 6.951941016011041e-01 0.000000000000000e+00
					-5.708396026882763e-01 8.465686890010351e-01 0.000000000000000e+00
					-5.213955762008280e-01 7.498816016011042e-01 0.000000000000000e+00
					-6.951941016011041e-01 6.951941016011041e-01 0.000000000000000e+00
					-6.361194702510350e-01 6.361194702510350e-01 0.000000000000000e+00
					-5.213955762008280e-01 7.498816016011042e-01 0.000000000000000e+00
					-4.770896026882763e-01 6.668811890010351e-01 0.000000000000000e+00
					-6.361194702510350e-01 6.361194702510350e-01 0.000000000000000e+00
					-5.838955762008280e-01 5.838955762008280e-01 0.000000000000000e+00
					-4.770896026882763e-01 6.668811890010351e-01 0.000000000000000e+00
					-4.379216821506210e-01 5.975674512008280e-01 0.000000000000000e+00
					-5.838955762008280e-01 5.838955762008280e-01 0.000000000000000e+00
					-5.385224194504830e-01 5.385224194504830e-01 0.000000000000000e+00
					-4.379216821506210e-01 5.975674512008280e-01 0.000000000000000e+00
					-4.038918145878622e-01 5.419403882004830e-01 0.000000000000000e+00
					-5.385224194504830e-01 5.385224194504830e-01 0.000000000000000e+00
					-5.000000000000000e-01 5.000000000000000e-01 0.000000000000000e+00
					-4.038918145878622e-01 5.419403882004830e-01 0.000000000000000e+00
					-3.750000000000000e-01 5.000000000000000e-01 0.000000000000000e+00
					-7.500000000000000e-01 1.218750000000000e+00 0.000000000000000e+00
					-6.851418145878623e-01 1.081002888200483e+00 0.000000000000000e+00
					-5.000000000000000e-01 1.375000000000000e+00 0.000000000000000e+00
					-4.567612097252415e-01 1.200631794450483e+00 0.000000000000000e+00
					-6.851418145878623e-01 1.081002888200483e+00 0.000000000000000e+00
					-6.254216821506210e-01 9.569424512008280e-01 0.000000000000000e+00
					-4.567612097252415e-01 1.200631794450483e+00 0.000000000000000e+00
					-4.169477881004140e-01 1.044833076200828e+00 0.000000000000000e+00
					-6.254216821506210e-01 9.569424512008280e-01 0.000000000000000e+00
					-5.708396026882763e-01 8.465686890010351e-01 0.000000000000000e+00
					-4.169477881004140e-01 1.044833076200828e+00 0.000000000000000e+00
					-3.805597351255176e-01 9.076038452510351e-01 0.000000000000000e+00
					-5.708396026882763e-01 8.465686890010351e-01 0.000000000000000e+00
					-5.213955762008280e-01 7.498816016011042e-01 0.000000000000000e+00
					-3.805597351255176e-01 9.076038452510351e-01 0.000000000000000e+00
					-3.475970508005520e-01 7.889441016011043e-01 0.000000000000000e+00
					-5.213955762008280e-01 7.498816016011042e-01 0.000000000000000e+00
					-4.770896026882763e-01 6.668811890010351e-01 0.000000000000000e+00
					-3.475970508005520e-01 7.889441016011043e-01 0.000000000000000e+00
					-3.180597351255176e-01 6.888538452510351e-01 0.000000000000000e+00
					-4.770896026882763e-01 6.668811890010351e-01 0.000000000000000e+00
					-4.379216821506210e-01 5.975674512008280e-01 0.000000000000000e+00
					-3.180597351255176e-01 6.888538452510351e-01 0.000000000000000e+00
					-2.919477881004140e-01 6.073330762008280e-01 0.000000000000000e+00
					-4.379216821506210e-01 5.975674512008280e-01 0.000000000000000e+00
					-4.038918145878622e-01 5.419403882004830e-01 0.000000000000000e+00
					-2.919477881004140e-01 6.073330762008280e-01 0.000000000000000e+00
					-2.692612097252415e-01 5.443817944504830e-01 0.000000000000000e+00
					-4.038918145878622e-01 5.419403882004830e-01 0.000000000000000e+00
					-3.750000000000000e-01 5.000000000000000e-01 0.000000000000000e+00
					-2.692612097252415e-01 5.443817944504830e-01 0.000000000000000e+00
					-2.500000000000000e-01 5.000000000000000e-01 0.000000000000000e+00
					-5.000000000000000e-01 1.375000000000000e+00 0.000000000000000e+00
					-4.567612097252415e-01 1.200631794450483e+00 0.000000000000000e+00
					-2.499999999999999e-01 1.468750000000000e+00 0.000000000000000e+00
					-2.283806048626207e-01 1.272409138200483e+00 0.000000000000000e+00
					-4.567612097252415e-01 1.200631794450483e+00 0.000000000000000e+00
					-4.169477881004140e-01 1.044833076200828e+00 0.000000000000000e+00
					-2.283806048626207e-01 1.272409138200483e+00 0.000000000000000e+00
					-2.084738940502069e-01 1.097567451200828e+00 0.000000000000000e+00
					-4.169477881004140e-01 1.044833076200828e+00 0.000000000000000e+00
					-3.805597351255176e-01 9.076038452510351e-01 0.000000000000000e+00
					-2.084738940502069e-01 1.097567451200828e+00 0.000000000000000e+00
					-1.902798675627587e-01 9.442249390010350e-01 0.000000000000000e+00
					-3.805597351255176e-01 9.076038452510351e-01 0.000000000000000e+00
					-3.475970508005520e-01 7.889441016011043e-01 0.000000000000000e+00
					-1.902798675627587e-01 9.442249390010350e-01 0.000000000000000e+00
					-1.737985254002760e-01 8.123816016011043e-01 0.000000000000000e+00
					-3.475970508005520e-01 7.889441016011043e-01 0.000000000000000e+00
					-3.180597351255176e-01 6.888538452510351e-01 0.000000000000000e+00
					-1.737985254002760e-01 8.123816016011043e-01 0.000000000000000e+00
					-1.590298675627587e-01 7.020374390010350e-01 0.000000000000000e+00
					-3.180597351255176e-01 6.888538452510351e-01 0.000000000000000e+00
					-2.919477881004140e-01 6.073330762008280e-01 0.000000000000000e+00
					-1.590298675627587e-01 7.020374390010350e-01 0.000000000000000e+00
					-1.459738940502070e-01 6.131924512008280e-01 0.000000000000000e+00
					-2.919477881004140e-01 6.073330762008280e-01 0.000000000000000e+00
					-2.692612097252415e-01 5.443817944504830e-01 0.000000000000000e+00
					-1.459738940502070e-01 6.131924512008280e-01 0.000000000000000e+00
					-1.346306048626207e-01 5.458466382004830e-01 0.000000000000000e+00
					-2.692612097252415e-01 5.443817944504830e-01 0.000000000000000e+00
					-2.500000000000000e-01 5.000000000000000e-01 0.000000000000000e+00
					-1.346306048626207e-01 5.458466382004830e-01 0.000000000000000e+00
					-1.250000000000000e-01 5.000000000000000e-01 0.000000000000000e+00
					-2.499999999999999e-01 1.468750000000000e+00 0.000000000000000e+00
					-2.283806048626207e-01 1.272409138200483e+00 0.000000000000000e+00
					6.938893903907228e-17 1.500000000000000e+00 0.000000000000000e+00
					1.249000902703301e-16 1.296334919450483e+00 0.000000000000000e+00
					-2.283806048626207e-01 1.272409138200483e+00 0.000000000000000e+00
					-2.084738940502069e-01 1.097567451200828e+00 0.000000000000000e+00
					1.249000902703301e-16 1.296334919450483e+00 0.000000000000000e+00
					5.551115123125783e-17 1.115145576200828e+00 0.000000000000000e+00
					-2.084738940502069e-01 1.097567451200828e+00 0.000000000000000e+00
					-1.902798675627587e-01 9.442249390010350e-01 0.000000000000000e+00
					5.551115123125783e-17 1.115145576200828e+00 0.000000000000000e+00
					5.551115123125783e-17 9.564319702510350e-01 0.000000000000000e+00
					-1.902798675627587e-01 9.442249390010350e-01 0.000000000000000e+00
					-1.737985254002760e-01 8.123816016011043e-01 0.000000000000000e+00
					5.551115123125783e-17 9.564319702510350e-01 0.000000000000000e+00
					1.387778780781446e-17 8.201941016011043e-01 0.000000000000000e+00
					-1.737985254002760e-01 8.123816016011043e-01 0.000000000000000e+00
					-1.590298675627587e-01 7.020374390010350e-01 0.000000000000000e+00
					1.387778780781446e-17 8.201941016011043e-01 0.000000000000000e+00
					4.163336342344337e-17 7.064319702510352e-01 0.000000000000000e+00
					-1.590298675627587e-01 7.020374390010350e-01 0.000000000000000e+00
					-1.459738940502070e-01 6.131924512008280e-01 0.000000000000000e+00
					4.163336342344337e-17 7.064319702510352e-01 0.000000000000000e+00
					4.857225732735060e-17 6.151455762008280e-01 0.000000000000000e+00
					-1.459738940502070e-01 6.131924512008280e-01 0.000000000000000e+00
					-1.346306048626207e-01 5.458466382004830e-01 0.000000000000000e+00
					4.857225732735060e-17 6.151455762008280e-01 0.000000000000000e+00
					3.469446951953614e-17 5.463349194504830e-01 0.000000000000000e+00
					-1.346306048626207e-01 5.458466382004830e-01 0.000000000000000e+00
					-1.250000000000000e-01 5.000000000000000e-01 0.000000000000000e+00
					3.469446951953614e-17 5.463349194504830e-01 0.000000000000000e+00
					3.469446951953614e-17 5.000000000000000e-01 0.000000000000000e+00
					6.938893903907228e-17 1.500000000000000e+00 0.000000000000000e+00
					1.249000902703301e-16 1.296334919450483e+00 0.000000000000000e+00
					2.500000000000001e-01 1.468750000000000e+00 0.000000000000000e+00
					2.283806048626209e-01 1.272409138200483e+00 0.000000000000000e+00
					1.249000902703301e-16 1.296334919450483e+00 0.000000000000000e+00
					5.551115123125783e-17 1.115145576200828e+00 0.000000000000000e+00
					2.283806048626209e-01 1.272409138200483e+00 0.000000000000000e+00
					2.084738940502071e-01 1.097567451200828e+00 0.000000000000000e+00
					5.551115123125783e-17 1.115145576200828e+00 0.000000000000000e+00
					5.551115123125783e-17 9.564319702510350e-01 0.000000000000000e+00
					2.084738940502071e-01 1.097567451200828e+00 0.000000000000000e+00
					1.902798675627588e-01 9.442249390010350e-01 0.000000000000000e+00
					5.551115123125783e-17 9.564319702510350e-01 0.000000000000000e+00
					1.387778780781446e-17 8.201941016011043e-01 0.000000000000000e+00
					1.902798675627588e-01 9.442249390010350e-01 0.000000000000000e+00
					1.737985254002760e-01 8.123816016011041e-01 0.000000000000000e+00
					1.387778780781446e-17 8.201941016011043e-01 0.000000000000000e+00
					4.163336342344337e-17 7.064319702510352e-01 0.000000000000000e+00
					1.737985254002760e-01 8.123816016011041e-01 0.000000000000000e+00
					1.590298675627588e-01 7.020374390010352e-01 0.000000000000000e+00
					4.163336342344337e-17 7.064319702510352e-01 0.000000000000000e+00
					4.857225732735060e-17 6.151455762008280e-01 0.000000000000000e+00
					1.590298675627588e-01 7.020374390010352e-01 0.000000000000000e+00
					1.459738940502071e-01 6.131924512008280e-01 0.000000000000000e+00
					4.857225732735060e-17 6.151455762008280e-01 0.000000000000000e+00
					3.469446951953614e-17 5.463349194504830e-01 0.000000000000000e+00
					1.459738940502071e-01 6.131924512008280e-01 0.000000000000000e+00
					1.346306048626208e-01 5.458466382004830e-01 0.000000000000000e+00
					3.469446951953614e-17 5.463349194504830e-01 0.000000000000000e+00
					3.469446951953614e-17 5.000000000000000e-01 0.000000000000000e+00
					1.346306048626208e-01 5.458466382004830e-01 0.000000000000000e+00
					1.250000000000001e-01 5.000000000000000e-01 0.000000000000000e+00
					2.500000000000001e-01 1.468750000000000e+00 0.000000000000000e+00
					2.283806048626209e-01 1.272409138200483e+00 0.000000000000000e+00
					5.000000000000001e-01 1.375000000000000e+00 0.000000000000000e+00
					4.567612097252416e-01 1.200631794450483e+00 0.000000000000000e+00
					2.283806048626209e-01 1.272409138200483e+00 0.000000000000000e+00
					2.084738940502071e-01 1.097567451200828e+00 0.000000000000000e+00
					4.567612097252416e-01 1.200631794450483e+00 0.000000000000000e+00
					4.169477881004141e-01 1.044833076200828e+00 0.000000000000000e+00
					2.084738940502071e-01 1.097567451200828e+00 0.000000000000000e+00
					1.902798675627588e-01 9.442249390010350e-01 0.000000000000000e+00
					4.169477881004141e-01 1.044833076200828e+00 0.000000000000000e+00
					3.805597351255176e-01 9.076038452510350e-01 0.000000000000000e+00
					1.902798675627588e-01 9.442249390010350e-01 0.000000000000000e+00
					1.737985254002760e-01 8.123816016011041e-01 0.000000000000000e+00
					3.805597351255176e-01 9.076038452510350e-01 0.000000000000000e+00
					3.475970508005520e-01 7.889441016011041e-01 0.000000000000000e+00
					1.737985254002760e-01 8.123816016011041e-01 0.000000000000000e+00
					1.590298675627588e-01 7.020374390010352e-01 0.000000000000000e+00
					3.475970508005520e-01 7.889441016011041e-01 0.000000000000000e+00
					3.180597351255176e-01 6.888538452510351e-01 0.000000000000000e+00
					1.590298675627588e-01 7.020374390010352e-01 0.000000000000000e+00
					1.459738940502071e-01 6.131924512008280e-01 0.000000000000000e+00
					3.180597351255176e-01 6.888538452510351e-01 0.000000000000000e+00
					2.919477881004141e-01 6.073330762008280e-01 0.000000000000000e+00
					1.459738940502071e-01 6.131924512008280e-01 0.000000000000000e+00
					1.346306048626208e-01 5.458466382004830e-01 0.000000000000000e+00
					2.919477881004141e-01 6.073330762008280e-01 0.000000000000000e+00
					2.692612097252415e-01 5.443817944504830e-01 0.000000000000000e+00
					1.346306048626208e-01 5.458466382004830e-01 0.000000000000000e+00
					1.250000000000001e-01 5.000000000000000e-01 0.000000000000000e+00
					2.692612097252415e-01 5.443817944504830e-01 0.000000000000000e+00
					2.500000000000001e-01 5.000000000000000e-01 0.000000000000000e+00
					5.000000000000001e-01 1.375000000000000e+00 0.000000000000000e+00
					4.567612097252416e-01 1.200631794450483e+00 0.000000000000000e+00
					7.500000000000000e-01 1.218750000000000e+00 0.000000000000000e+00
					6.851418145878623e-01 1.081002888200483e+00 0.000000000000000e+00
					4.567612097252416e-01 1.200631794450483e+00 0.000000000000000e+00
					4.169477881004141e-01 1.044833076200828e+00 0.000000000000000e+00
					6.851418145878623e-01 1.081002888200483e+00 0.000000000000000e+00
					6.254216821506210e-01 9.569424512008280e-01 0.000000000000000e+00
					4.169477881004141e-01 1.044833076200828e+00 0.000000000000000e+00
					3.805597351255176e-01 9.076038452510350e-01 0.000000000000000e+00
					6.254216821506210e-01 9.569424512008280e-01 0.000000000000000e+00
					5.708396026882763e-01 8.465686890010349e-01 0.000000000000000e+00
					3.805597351255176e-01 9.076038452510350e-01 0.000000000000000e+00
					3.475970508005520e-01 7.889441016011041e-01 0.000000000000000e+00
					5.708396026882763e-01 8.465686890010349e-01 0.000000000000000e+00
					5.213955762008280e-01 7.498816016011041e-01 0.000000000000000e+00
					3.475970508005520e-01 7.889441016011041e-01 0.000000000000000e+00
					3.180597351255176e-01 6.888538452510351e-01 0.000000000000000e+00
					5.213955762008280e-01 7.498816016011041e-01 0.000000000000000e+00
					4.770896026882762e-01 6.668811890010349e-01 0.000000000000000e+00
					3.180597351255176e-01 6.888538452510351e-01 0.000000000000000e+00
					2.919477881004141e-01 6.073330762008280e-01 0.000000000000000e+00
					4.770896026882762e-01 6.668811890010349e-01 0.000000000000000e+00
					4.379216821506210e-01 5.975674512008280e-01 0.000000000000000e+00
					2.919477881004141e-01 6.073330762008280e-01 0.000000000000000e+00
					2.692612097252415e-01 5.443817944504830e-01 0.000000000000000e+00
					4.379216821506210e-01 5.975674512008280e-01 0.000000000000000e+00
					4.038918145878622e-01 5.419403882004830e-01 0.000000000000000e+00
					2.692612097252415e-01 5.443817944504830e-01 0.000000000000000e+00
					2.500000000000001e-01 5.000000000000000e-01 0.000000000000000e+00
					4.038918145878622e-01 5.419403882004830e-01 0.000000000000000e+00
					3.750000000000000e-01 5.000000000000000e-01 0.000000000000000e+00
					7.500000000000000e-01 1.218750000000000e+00 0.000000000000000e+00
					6.851418145878623e-01 1.081002888200483e+00 0.000000000000000e+00
					1.000000000000000e+00 1.000000000000000e+00 0.000000000000000e+00
					9.135224194504830e-01 9.135224194504830e-01 0.000000000000000e+00
					6.851418145878623e-01 1.081002888200483e+00 0.000000000000000e+00
					6.254216821506210e-01 9.569424512008280e-01 0.000000000000000e+00
					9.135224194504830e-01 9.135224194504830e-01 0.000000000000000e+00
					8.338955762008280e-01 8.338955762008280e-01 0.000000000000000e+00
					6.254216821506210e-01 9.569424512008280e-01 0.000000000000000e+00
					5.708396026882763e-01 8.465686890010349e-01 0.000000000000000e+00
					8.338955762008280e-01 8.338955762008280e-01 0.000000000000000e+00
					7.611194702510350e-01 7.611194702510350e-01 0.000000000000000e+00
					5.708396026882763e-01 8.465686890010349e-01 0.000000000000000e+00
					5.213955762008280e-01 7.498816016011041e-01 0.000000000000000e+00
					7.611194702510350e-01 7.611194702510350e-01 0.000000000000000e+00
					6.951941016011041e-01 6.951941016011041e-01 0.000000000000000e+00
					5.213955762008280e-01 7.498816016011041e-01 0.000000000000000e+00
					4.770896026882762e-01 6.668811890010349e-01 0.000000000000000e+00
					6.951941016011041e-01 6.951941016011041e-01 0.000000000000000e+00
					6.361194702510350e-01 6.361194702510350e-01 0.000000000000000e+00
					4.770896026882762e-01 6.668811890010349e-01 0.000000000000000e+00
					4.379216821506210e-01 5.975674512008280e-01 0.000000000000000e+00
					6.361194702510350e-01 6.361194702510350e-01 0.000000000000000e+00
					5.838955762008280e-01 5.838955762008280e-01 0.000000000000000e+00
					4.379216821506210e-01 5.975674512008280e-01 0.000000000000000e+00
					4.038918145878622e-01 5.419403882004830e-01 0.000000000000000e+00
					5.838955762008280e-01 5.838955762008280e-01 0.000000000000000e+00
					5.385224194504830e-01 5.385224194504830e-01 0.000000000000000e+00
					4.038918145878622e-01 5.419403882004830e-01 0.000000000000000e+00
					3.750000000000000e-01 5.000000000000000e-01 0.000000000000000e+00
					5.385224194504830e-01 5.385224194504830e-01 0.000000000000000e+00
					5.000000000000000e-01 5.000000000000000e-01 0.000000000000000e+00
				</DataArray>
			</Points>
			<Cells>
				<DataArray Name="connectivity" type="UInt32" format="ascii">
					0 1 3 2 4 5 7 6 8 9 11 10 12 13 15 14 16 17 19 18 20 21 23 22 24 25 27 26 28 29 31 30 32 33 35 34 36 37 39 38 40 41 43 42 44 45 47 46 48 49 51 50 52 53 55 54 56 57 59 58 60 61 63 62 64 65 67 66 68 69 71 70 72 73 75 74 76 77 79 78 80 81 83 82 84 85 87 86 88 89 91 90 92 93 95 94 96 97 99 98 100 101 103 102 104 105 107 106 108 109 111 110 112 113 115 114 116 117 119 118 120 121 123 122 124 125 127 126 128 129 131 130 132 133 135 134 136 137 139 138 140 141 143 142 144 145 147 146 148 149 151 150 152 153 155 154 156 157 159 158 160 161 163 162 164 165 167 166 168 169 171 170 172 173 175 174 176 177 179 178 180 181 183 182 184 185 187 186 188 189 191 190 192 193 195 194 196 197 199 198 200 201 203 202 204 205 207 206 208 209 211 210 212 213 215 214 216 217 219 218 220 221 223 222 224 225 227 226 228 229 231 230 232 233 235 234 236 237 239 238 240 241 243 242 244 245 247 246 248 249 251 250 252 253 255 254 
				</DataArray>
				<DataArray Name="offsets" type="UInt32" format="ascii">
					4 8 12 16 20 24 28 32 36 40 44 48 52 56 60 64 68 72 76 80 84 88 92 96 100 104 108 112 116 120 124 128 132 136 140 144 148 152 156 160 164 168 172 176 180 184 188 192 196 200 204 208 212 216 220 224 228 232 236 240 244 248 252 256 
				</DataArray>
				<DataArray Name="types" type="UInt8" format="ascii">
					9 9 9 9 9 9 9 9 9 9 9 9 9 9 9 9 9 9 9 9 9 9 9 9 9 9 9 9 9 9 9 9 9 9 9 9 9 9 9 9 9 9 9 9 9 9 9 9 9 9 9 9 9 9 9 9 9 9 9 9 9 9 9 9 
				</DataArray>
			</Cells>
			<PointData Vectors="solution ">
				<DataArray Name="solution" type="Float64" NumberOfComponents="1" format="ascii">
					0.000000000000000e+00 3.238916862769582e-02 0.000000000000000e+00 1.119101866781523e-01 3.238916862769582e-02 3.684081698063777e-01 1.119101866781523e-01 1.081926996556683e+00 3.684081698063777e-01 1.317031061438087e+00 1.081926996556683e+00 3.367814421534934e+00 1.317031061438087e+00 2.935778520888263e+00 3.367814421534934e+00 6.605813687851450e+00 2.935778520888263e+00 5.060146823685464e+00 6.605813687851450e+00 1.013592992267092e+01 5.060146823685464e+00 7.429104184535753e+00 1.013592992267092e+01 1.342900126398246e+01 7.429104184535753e+00 9.788368457953215e+00 1.342900126398246e+01 1.621086077179573e+01 9.788368457953215e+00 1.194419147445875e+01 1.621086077179573e+01 1.841346815835573e+01 0.000000000000000e+00 1.119101866781523e-01 0.000000000000000e+00 2.846024715754494e-01 1.119101866781523e-01 1.081926996556683e+00 2.846024715754494e-01 2.368539514274153e+00 1.081926996556683e+00 3.367814421534934e+00 2.368539514274153e+00 6.685899676599789e+00 3.367814421534934e+00 6.605813687851450e+00 6.685899676599789e+00 1.201808212820350e+01 6.605813687851450e+00 1.013592992267092e+01 1.201808212820350e+01 1.701816369757861e+01 1.013592992267092e+01 1.342900126398246e+01 1.701816369757861e+01 2.098536320696684e+01 1.342900126398246e+01 1.621086077179573e+01 2.098536320696684e+01 2.382126820206341e+01 1.621086077179573e+01 1.841346815835573e+01 2.382126820206341e+01 2.573508075625154e+01 0.000000000000000e+00 2.846024715754494e-01 0.000000000000000e+00 5.591704895553741e-01 2.846024715754494e-01 2.368539514274153e+00 5.591704895553741e-01 4.077345031679571e+00 2.368539514274153e+00 6.685899676599789e+00 4.077345031679571e+00 1.075110506004701e+01 6.685899676599789e+00 1.201808212820350e+01 1.075110506004701e+01 1.825635457675883e+01 1.201808212820350e+01 1.701816369757861e+01 1.825635457675883e+01 2.454497439791552e+01 1.701816369757861e+01 2.098536320696684e+01 2.454497439791552e+01 2.889118344655692e+01 2.098536320696684e+01 2.382126820206341e+01 2.889118344655692e+01 3.151049902407192e+01 2.382126820206341e+01 2.573508075625154e+01 3.151049902407192e+01 3.294973151367132e+01 0.000000000000000e+00 5.591704895553741e-01 0.000000000000000e+00 8.204349740125043e-01 5.591704895553741e-01 4.077345031679571e+00 8.204349740125043e-01 5.609382509697744e+00 4.077345031679571e+00 1.075110506004701e+01 5.609382509697744e+00 1.427323429121868e+01 1.075110506004701e+01 1.825635457675883e+01 1.427323429121868e+01 2.352703483379860e+01 1.825635457675883e+01 2.454497439791552e+01 2.352703483379860e+01 3.079390108157344e+01 2.454497439791552e+01 2.889118344655692e+01 3.079390108157344e+01 3.538900814428079e+01 2.889118344655692e+01 3.151049902407192e+01 3.538900814428079e+01 3.780811957065852e+01 3.151049902407192e+01 3.294973151367132e+01 3.780811957065852e+01 3.886526719213731e+01 0.000000000000000e+00 8.204349740125043e-01 0.000000000000000e+00 8.829049178558062e-01 8.204349740125043e-01 5.609382509697744e+00 8.829049178558062e-01 6.187141051236081e+00 5.609382509697744e+00 1.427323429121868e+01 6.187141051236081e+00 1.573099530847450e+01 1.427323429121868e+01 2.352703483379860e+01 1.573099530847450e+01 2.584604171467655e+01 2.352703483379860e+01 3.079390108157344e+01 2.584604171467655e+01 3.373707122433527e+01 3.079390108157344e+01 3.538900814428079e+01 3.373707122433527e+01 3.868692709599939e+01 3.538900814428079e+01 3.780811957065852e+01 3.868692709599939e+01 4.124751310749060e+01 3.780811957065852e+01 3.886526719213731e+01 4.124751310749060e+01 4.230852920501825e+01 0.000000000000000e+00 8.829049178558062e-01 0.000000000000000e+00 7.087554904560279e-01 8.829049178558062e-01 6.187141051236081e+00 7.087554904560279e-01 5.453655151501043e+00 6.187141051236081e+00 1.573099530847450e+01 5.453655151501043e+00 1.431430794627962e+01 1.573099530847450e+01 2.584604171467655e+01 1.431430794627962e+01 2.408782955395798e+01 2.584604171467655e+01 3.373707122433527e+01 2.408782955395798e+01 3.215164909797848e+01 3.373707122433527e+01 3.868692709599939e+01 3.215164909797848e+01 3.762842186029359e+01 3.868692709599939e+01 4.124751310749060e+01 3.762842186029359e+01 4.081802828917565e+01 4.124751310749060e+01 4.230852920501825e+01 4.081802828917565e+01 4.243053857956122e+01 0.000000000000000e+00 7.087554904560279e-01 0.000000000000000e+00 4.393187812304229e-01 7.087554904560279e-01 5.453655151501043e+00 4.393187812304229e-01 3.779784320098491e+00 5.453655151501043e+00 1.431430794627962e+01 3.779784320098491e+00 1.055016313942418e+01 1.431430794627962e+01 2.408782955395798e+01 1.055016313942418e+01 1.874419297772463e+01 2.408782955395798e+01 3.215164909797848e+01 1.874419297772463e+01 2.632031525153337e+01 3.215164909797848e+01 3.762842186029359e+01 2.632031525153337e+01 3.224266200923898e+01 3.762842186029359e+01 4.081802828917565e+01 3.224266200923898e+01 3.636021596498101e+01 4.081802828917565e+01 4.243053857956122e+01 3.636021596498101e+01 3.898219811777857e+01 0.000000000000000e+00 4.393187812304229e-01 0.000000000000000e+00 2.010139729058272e-01 4.393187812304229e-01 3.779784320098491e+00 2.010139729058272e-01 1.953821567958838e+00 3.779784320098491e+00 1.055016313942418e+01 1.953821567958838e+00 6.037850856778073e+00 1.055016313942418e+01 1.874419297772463e+01 6.037850856778073e+00 1.179450833183952e+01 1.874419297772463e+01 2.632031525153337e+01 1.179450833183952e+01 1.806151412191134e+01 2.632031525153337e+01 3.224266200923898e+01 1.806151412191134e+01 2.388504079453075e+01 3.224266200923898e+01 3.636021596498101e+01 2.388504079453075e+01 2.873879647193959e+01 3.636021596498101e+01 3.898219811777857e+01 2.873879647193959e+01 3.246716900163030e+01 
				</DataArray>
			</PointData>
			<CellData>
			</CellData>
		</Piece>
	</UnstructuredGrid>
</VTKFile>