<?xml version="1.0"?>
<VTKFile type="UnstructuredGrid" byte_order="LittleEndian">
	<UnstructuredGrid>
		<Piece NumberOfPoints="256" NumberOfCells="64">
			<Points>
				<DataArray type="Float64" NumberOfComponents="3" format="ascii">
					-1.000000000000000e+00 1.000000000000000e+00 0.000000000000000e+00
					-9.135224194504830e-01 9.135224194504830e-01 0.000000000000000e+00
					-7.500000000000000e-01 1.218750000000000e+00 0.000000000000000e+00
					-6.851418145878623e-01 1.081002888200483e+00 0.000000000000000e+00
					-9.135224194504830e-01 9.135224194504830e-01 0.000000000000000e+00
					-8.338955762008280e-01 8.338955762008280e-01 0.000000000000000e+00
					-6.851418145878623e-01 1.081002888200483e+00 0.000000000000000e+00
					-6.254216821506210e-01 9.569424512008280e-01 0.000000000000000e+00
					-8.338955762008280e-01 8.338955762008280e-01 0.000000000000000e+00
					-7.611194702510350e-01 7.611194702510350e-01 0.000000000000000e+00
					-6.254216821506210e-01 9.569424512008280e-01 0.000000000000000e+00
					-5.708396026882763e-01 8.465686890010351e-01 0.000000000000000e+00
					-7.611194702510350e-01 7.611194702510350e-01 0.000000000000000e+00
					-6.951941016011041e-01 6.951941016011041e-01 0.000000000000000e+00
					-5.708396026882763e-01 8.465686890010351e-01 0.000000000000000e+00
					-5.213955762008280e-01 7.498816016011042e-01 0.000000000000000e+00
					-6.951941016011041e-01 6.951941016011041e-01 0.000000000000000e+00
					-6.361194702510350e-01 6.361194702510350e-01 0.000000000000000e+00
					-5.213955762008280e-01 7.498816016011042e-01 0.000000000000000e+00
					-4.770896026882763e-01 6.668811890010351e-01 0.000000000000000e+00
					-6.361194702510350e-01 6.361194702510350e-01 0.000000000000000e+00
					-5.838955762008280e-01 5.838955762008280e-01 0.000000000000000e+00
					-4.770896026882763e-01 6.668811890010351e-01 0.000000000000000e+00
					-4.379216821506210e-01 5.975674512008280e-01 0.000000000000000e+00
					-5.838955762008280e-01 5.838955762008280e-01 0.000000000000000e+00
					-5.385224194504830e-01 5.385224194504830e-01 0.000000000000000e+00
					-4.379216821506210e-01 5.975674512008280e-01 0.000000000000000e+00
					-4.038918145878622e-01 5.419403882004830e-01 0.000000000000000e+00
					-5.385224194504830e-01 5.385224194504830e-01 0.000000000000000e+00
					-5.000000000000000e-01 5.000000000000000e-01 0.000000000000000e+00
					-4.038918145878622e-01 5.419403882004830e-01 0.000000000000000e+00
					-3.750000000000000e-01 5.000000000000000e-01 0.000000000000000e+00
					-7.500000000000000e-01 1.218750000000000e+00 0.000000000000000e+00
					-6.851418145878623e-01 1.081002888200483e+00 0.000000000000000e+00
					-5.000000000000000e-01 1.375000000000000e+00 0.000000000000000e+00
					-4.567612097252415e-01 1.200631794450483e+00 0.000000000000000e+00
					-6.851418145878623e-01 1.081002888200483e+00 0.000000000000000e+00
					-6.254216821506210e-01 9.569424512008280e-01 0.000000000000000e+00
					-4.567612097252415e-01 1.200631794450483e+00 0.000000000000000e+00
					-4.169477881004140e-01 1.044833076200828e+00 0.000000000000000e+00
					-6.254216821506210e-01 9.569424512008280e-01 0.000000000000000e+00
					-5.708396026882763e-01 8.465686890010351e-01 0.000000000000000e+00
					-4.169477881004140e-01 1.044833076200828e+00 0.000000000000000e+00
					-3.805597351255176e-01 9.076038452510351e-01 0.000000000000000e+00
					-5.708396026882763e-01 8.465686890010351e-01 0.000000000000000e+00
					-5.213955762008280e-01 7.498816016011042e-01 0.000000000000000e+00
					-3.805597351255176e-01 9.076038452510351e-01 0.000000000000000e+00
					-3.475970508005520e-01 7.889441016011043e-01 0.000000000000000e+00
					-5.213955762008280e-01 7.498816016011042e-01 0.000000000000000e+00
					-4.770896026882763e-01 6.668811890010351e-01 0.000000000000000e+00
					-3.475970508005520e-01 7.889441016011043e-01 0.000000000000000e+00
					-3.180597351255176e-01 6.888538452510351e-01 0.000000000000000e+00
					-4.770896026882763e-01 6.668811890010351e-01 0.000000000000000e+00
					-4.379216821506210e-01 5.975674512008280e-01 0.000000000000000e+00
					-3.180597351255176e-01 6.888538452510351e-01 0.000000000000000e+00
					-2.919477881004140e-01 6.073330762008280e-01 0.000000000000000e+00
					-4.379216821506210e-01 5.975674512008280e-01 0.000000000000000e+00
					-4.038918145878622e-01 5.419403882004830e-01 0.000000000000000e+00
					-2.919477881004140e-01 6.073330762008280e-01 0.000000000000000e+00
					-2.692612097252415e-01 5.443817944504830e-01 0.000000000000000e+00
					-4.038918145878622e-01 5.419403882004830e-01 0.000000000000000e+00
					-3.750000000000000e-01 5.000000000000000e-01 0.000000000000000e+00
					-2.692612097252415e-01 5.443817944504830e-01 0.000000000000000e+00
					-2.500000000000000e-01 5.000000000000000e-01 0.000000000000000e+00
					-5.000000000000000e-01 1.375000000000000e+00 0.000000000000000e+00
					-4.567612097252415e-01 1.200631794450483e+00 0.000000000000000e+00
					-2.499999999999999e-01 1.468750000000000e+00 0.000000000000000e+00
					-2.283806048626207e-01 1.272409138200483e+00 0.000000000000000e+00
					-4.567612097252415e-01 1.200631794450483e+00 0.000000000000000e+00
					-4.169477881004140e-01 1.044833076200828e+00 0.000000000000000e+00
					-2.283806048626207e-01 1.272409138200483e+00 0.000000000000000e+00
					-2.084738940502069e-01 1.097567451200828e+00 0.000000000000000e+00
					-4.169477881004140e-01 1.044833076200828e+00 0.000000000000000e+00
					-3.805597351255176e-01 9.076038452510351e-01 0.000000000000000e+00
					-2.084738940502069e-01 1.097567451200828e+00 0.000000000000000e+00
					-1.902798675627587e-01 9.442249390010350e-01 0.000000000000000e+00
					-3.805597351255176e-01 9.076038452510351e-01 0.000000000000000e+00
					-3.475970508005520e-01 7.889441016011043e-01 0.000000000000000e+00
					-1.902798675627587e-01 9.442249390010350e-01 0.000000000000000e+00
					-1.737985254002760e-01 8.123816016011043e-01 0.000000000000000e+00
					-3.475970508005520e-01 7.889441016011043e-01 0.000000000000000e+00
					-3.180597351255176e-01 6.888538452510351e-01 0.000000000000000e+00
					-1.737985254002760e-01 8.123816016011043e-01 0.000000000000000e+00
					-1.590298675627587e-01 7.020374390010350e-01 0.000000000000000e+00
					-3.180597351255176e-01 6.888538452510351e-01 0.000000000000000e+00
					-2.919477881004140e-01 6.073330762008280e-01 0.000000000000000e+00
					-1.590298675627587e-01 7.020374390010350e-01 0.000000000000000e+00
					-1.459738940502070e-01 6.131924512008280e-01 0.000000000000000e+00
					-2.919477881004140e-01 6.073330762008280e-01 0.000000000000000e+00
					-2.692612097252415e-01 5.443817944504830e-01 0.000000000000000e+00
					-1.459738940502070e-01 6.131924512008280e-01 0.000000000000000e+00
					-1.346306048626207e-01 5.458466382004830e-01 0.000000000000000e+00
					-2.692612097252415e-01 5.443817944504830e-01 0.000000000000000e+00
					-2.500000000000000e-01 5.000000000000000e-01 0.000000000000000e+00
					-1.346306048626207e-01 5.458466382004830e-01 0.000000000000000e+00
					-1.250000000000000e-01 5.000000000000000e-01 0.000000000000000e+00
					-2.499999999999999e-01 1.468750000000000e+00 0.000000000000000e+00
					-2.283806048626207e-01 1.272409138200483e+00 0.000000000000000e+00
					6.938893903907228e-17 1.500000000000000e+00 0.000000000000000e+00
					1.249000902703301e-16 1.296334919450483e+00 0.000000000000000e+00
					-2.283806048626207e-01 1.272409138200483e+00 0.000000000000000e+00
					-2.084738940502069e-01 1.097567451200828e+00 0.000000000000000e+00
					1.249000902703301e-16 1.296334919450483e+00 0.000000000000000e+00
					5.551115123125783e-17 1.115145576200828e+00 0.000000000000000e+00
					-2.084738940502069e-01 1.097567451200828e+00 0.000000000000000e+00
					-1.902798675627587e-01 9.442249390010350e-01 0.000000000000000e+00
					5.551115123125783e-17 1.115145576200828e+00 0.000000000000000e+00
					5.551115123125783e-17 9.564319702510350e-01 0.000000000000000e+00
					-1.902798675627587e-01 9.442249390010350e-01 0.000000000000000e+00
					-1.737985254002760e-01 8.123816016011043e-01 0.000000000000000e+00
					5.551115123125783e-17 9.564319702510350e-01 0.000000000000000e+00
					1.387778780781446e-17 8.201941016011043e-01 0.000000000000000e+00
					-1.737985254002760e-01 8.123816016011043e-01 0.000000000000000e+00
					-1.590298675627587e-01 7.020374390010350e-01 0.000000000000000e+00
					1.387778780781446e-17 8.201941016011043e-01 0.000000000000000e+00
					4.163336342344337e-17 7.064319702510352e-01 0.000000000000000e+00
					-1.590298675627587e-01 7.020374390010350e-01 0.000000000000000e+00
					-1.459738940502070e-01 6.131924512008280e-01 0.000000000000000e+00
					4.163336342344337e-17 7.064319702510352e-01 0.000000000000000e+00
					4.857225732735060e-17 6.151455762008280e-01 0.000000000000000e+00
					-1.459738940502070e-01 6.131924512008280e-01 0.000000000000000e+00
					-1.346306048626207e-01 5.458466382004830e-01 0.000000000000000e+00
					4.857225732735060e-17 6.151455762008280e-01 0.000000000000000e+00
					3.469446951953614e-17 5.463349194504830e-01 0.000000000000000e+00
					-1.346306048626207e-01 5.458466382004830e-01 0.000000000000000e+00
					-1.250000000000000e-01 5.000000000000000e-01 0.000000000000000e+00
					3.469446951953614e-17 5.463349194504830e-01 0.000000000000000e+00
					3.469446951953614e-17 5.000000000000000e-01 0.000000000000000e+00
					6.938893903907228e-17 1.500000000000000e+00 0.000000000000000e+00
					1.249000902703301e-16 1.296334919450483e+00 0.000000000000000e+00
					2.500000000000001e-01 1.468750000000000e+00 0.000000000000000e+00
					2.283806048626209e-01 1.272409138200483e+00 0.000000000000000e+00
					1.249000902703301e-16 1.296334919450483e+00 0.000000000000000e+00
					5.551115123125783e-17 1.115145576200828e+00 0.000000000000000e+00
					2.283806048626209e-01 1.272409138200483e+00 0.000000000000000e+00
					2.084738940502071e-01 1.097567451200828e+00 0.000000000000000e+00
					5.551115123125783e-17 1.115145576200828e+00 0.000000000000000e+00
					5.551115123125783e-17 9.564319702510350e-01 0.000000000000000e+00
					2.084738940502071e-01 1.097567451200828e+00 0.000000000000000e+00
					1.902798675627588e-01 9.442249390010350e-01 0.000000000000000e+00
					5.551115123125783e-17 9.564319702510350e-01 0.000000000000000e+00
					1.387778780781446e-17 8.201941016011043e-01 0.000000000000000e+00
					1.902798675627588e-01 9.442249390010350e-01 0.000000000000000e+00
					1.737985254002760e-01 8.123816016011041e-01 0.000000000000000e+00
					1.387778780781446e-17 8.201941016011043e-01 0.000000000000000e+00
					4.163336342344337e-17 7.064319702510352e-01 0.000000000000000e+00
					1.737985254002760e-01 8.123816016011041e-01 0.000000000000000e+00
					1.590298675627588e-01 7.020374390010352e-01 0.000000000000000e+00
					4.163336342344337e-17 7.064319702510352e-01 0.000000000000000e+00
					4.857225732735060e-17 6.151455762008280e-01 0.000000000000000e+00
					1.590298675627588e-01 7.020374390010352e-01 0.000000000000000e+00
					1.459738940502071e-01 6.131924512008280e-01 0.000000000000000e+00
					4.857225732735060e-17 6.151455762008280e-01 0.000000000000000e+00
					3.469446951953614e-17 5.463349194504830e-01 0.000000000000000e+00
					1.459738940502071e-01 6.131924512008280e-01 0.000000000000000e+00
					1.346306048626208e-01 5.458466382004830e-01 0.000000000000000e+00
					3.469446951953614e-17 5.463349194504830e-01 0.000000000000000e+00
					3.469446951953614e-17 5.000000000000000e-01 0.000000000000000e+00
					1.346306048626208e-01 5.458466382004830e-01 0.000000000000000e+00
					1.250000000000001e-01 5.000000000000000e-01 0.000000000000000e+00
					2.500000000000001e-01 1.468750000000000e+00 0.000000000000000e+00
					2.283806048626209e-01 1.272409138200483e+00 0.000000000000000e+00
					5.000000000000001e-01 1.375000000000000e+00 0.000000000000000e+00
					4.567612097252416e-01 1.200631794450483e+00 0.000000000000000e+00
					2.283806048626209e-01 1.272409138200483e+00 0.000000000000000e+00
					2.084738940502071e-01 1.097567451200828e+00 0.000000000000000e+00
					4.567612097252416e-01 1.200631794450483e+00 0.000000000000000e+00
					4.169477881004141e-01 1.044833076200828e+00 0.000000000000000e+00
					2.084738940502071e-01 1.097567451200828e+00 0.000000000000000e+00
					1.902798675627588e-01 9.442249390010350e-01 0.000000000000000e+00
					4.169477881004141e-01 1.044833076200828e+00 0.000000000000000e+00
					3.805597351255176e-01 9.076038452510350e-01 0.000000000000000e+00
					1.902798675627588e-01 9.442249390010350e-01 0.000000000000000e+00
					1.737985254002760e-01 8.123816016011041e-01 0.000000000000000e+00
					3.805597351255176e-01 9.076038452510350e-01 0.000000000000000e+00
					3.475970508005520e-01 7.889441016011041e-01 0.000000000000000e+00
					1.737985254002760e-01 8.123816016011041e-01 0.000000000000000e+00
					1.590298675627588e-01 7.020374390010352e-01 0.000000000000000e+00
					3.475970508005520e-01 7.889441016011041e-01 0.000000000000000e+00
					3.180597351255176e-01 6.888538452510351e-01 0.000000000000000e+00
					1.590298675627588e-01 7.020374390010352e-01 0.000000000000000e+00
					1.459738940502071e-01 6.131924512008280e-01 0.000000000000000e+00
					3.180597351255176e-01 6.888538452510351e-01 0.000000000000000e+00
					2.919477881004141e-01 6.073330762008280e-01 0.000000000000000e+00
					1.459738940502071e-01 6.131924512008280e-01 0.000000000000000e+00
					1.346306048626208e-01 5.458466382004830e-01 0.000000000000000e+00
					2.919477881004141e-01 6.073330762008280e-01 0.000000000000000e+00
					2.692612097252415e-01 5.443817944504830e-01 0.000000000000000e+00
					1.346306048626208e-01 5.458466382004830e-01 0.000000000000000e+00
					1.250000000000001e-01 5.000000000000000e-01 0.000000000000000e+00
					2.692612097252415e-01 5.443817944504830e-01 0.000000000000000e+00
					2.500000000000001e-01 5.000000000000000e-01 0.000000000000000e+00
					5.000000000000001e-01 1.375000000000000e+00 0.000000000000000e+00
					4.567612097252416e-01 1.200631794450483e+00 0.000000000000000e+00
					7.500000000000000e-01 1.218750000000000e+00 0.000000000000000e+00
					6.851418145878623e-01 1.081002888200483e+00 0.000000000000000e+00
					4.567612097252416e-01 1.200631794450483e+00 0.000000000000000e+00
					4.169477881004141e-01 1.044833076200828e+00 0.000000000000000e+00
					6.851418145878623e-01 1.081002888200483e+00 0.000000000000000e+00
					6.254216821506210e-01 9.569424512008280e-01 0.000000000000000e+00
					4.169477881004141e-01 1.044833076200828e+00 0.000000000000000e+00
					3.805597351255176e-01 9.076038452510350e-01 0.000000000000000e+00
					6.254216821506210e-01 9.569424512008280e-01 0.000000000000000e+00
					5.708396026882763e-01 8.465686890010349e-01 0.000000000000000e+00
					3.805597351255176e-01 9.076038452510350e-01 0.000000000000000e+00
					3.475970508005520e-01 7.889441016011041e-01 0.000000000000000e+00
					5.708396026882763e-01 8.465686890010349e-01 0.000000000000000e+00
					5.213955762008280e-01 7.498816016011041e-01 0.000000000000000e+00
					3.475970508005520e-01 7.889441016011041e-01 0.000000000000000e+00
					3.180597351255176e-01 6.888538452510351e-01 0.000000000000000e+00
					5.213955762008280e-01 7.498816016011041e-01 0.000000000000000e+00
					4.770896026882762e-01 6.668811890010349e-01 0.000000000000000e+00
					3.180597351255176e-01 6.888538452510351e-01 0.000000000000000e+00
					2.919477881004141e-01 6.073330762008280e-01 0.000000000000000e+00
					4.770896026882762e-01 6.668811890010349e-01 0.000000000000000e+00
					4.379216821506210e-01 5.975674512008280e-01 0.000000000000000e+00
					2.919477881004141e-01 6.073330762008280e-01 0.000000000000000e+00
					2.692612097252415e-01 5.443817944504830e-01 0.000000000000000e+00
					4.379216821506210e-01 5.975674512008280e-01 0.000000000000000e+00
					4.038918145878622e-01 5.419403882004830e-01 0.000000000000000e+00
					2.692612097252415e-01 5.443817944504830e-01 0.000000000000000e+00
					2.500000000000001e-01 5.000000000000000e-01 0.000000000000000e+00
					4.038918145878622e-01 5.419403882004830e-01 0.000000000000000e+00
					3.750000000000000e-01 5.000000000000000e-01 0.000000000000000e+00
					7.500000000000000e-01 1.218750000000000e+00 0.000000000000000e+00
					6.851418145878623e-01 1.081002888200483e+00 0.000000000000000e+00
					1.000000000000000e+00 1.000000000000000e+00 0.000000000000000e+00
					9.135224194504830e-01 9.135224194504830e-01 0.000000000000000e+00
					6.851418145878623e-01 1.081002888200483e+00 0.000000000000000e+00
					6.254216821506210e-01 9.569424512008280e-01 0.000000000000000e+00
					9.135224194504830e-01 9.135224194504830e-01 0.000000000000000e+00
					8.338955762008280e-01 8.338955762008280e-01 0.000000000000000e+00
					6.254216821506210e-01 9.569424512008280e-01 0.000000000000000e+00
					5.708396026882763e-01 8.465686890010349e-01 0.000000000000000e+00
					8.338955762008280e-01 8.338955762008280e-01 0.000000000000000e+00
					7.611194702510350e-01 7.611194702510350e-01 0.000000000000000e+00
					5.708396026882763e-01 8.465686890010349e-01 0.000000000000000e+00
					5.213955762008280e-01 7.498816016011041e-01 0.000000000000000e+00
					7.611194702510350e-01 7.611194702510350e-01 0.000000000000000e+00
					6.951941016011041e-01 6.951941016011041e-01 0.000000000000000e+00
					5.213955762008280e-01 7.498816016011041e-01 0.000000000000000e+00
					4.770896026882762e-01 6.668811890010349e-01 0.000000000000000e+00
					6.951941016011041e-01 6.951941016011041e-01 0.000000000000000e+00
					6.361194702510350e-01 6.361194702510350e-01 0.000000000000000e+00
					4.770896026882762e-01 6.668811890010349e-01 0.000000000000000e+00
					4.379216821506210e-01 5.975674512008280e-01 0.000000000000000e+00
					6.361194702510350e-01 6.361194702510350e-01 0.000000000000000e+00
					5.838955762008280e-01 5.838955762008280e-01 0.000000000000000e+00
					4.379216821506210e-01 5.975674512008280e-01 0.000000000000000e+00
					4.038918145878622e-01 5.419403882004830e-01 0.000000000000000e+00
					5.838955762008280e-01 5.838955762008280e-01 0.000000000000000e+00
					5.385224194504830e-01 5.385224194504830e-01 0.000000000000000e+00
					4.038918145878622e-01 5.419403882004830e-01 0.000000000000000e+00
					3.750000000000000e-01 5.000000000000000e-01 0.000000000000000e+00
					5.385224194504830e-01 5.385224194504830e-01 0.000000000000000e+00
					5.000000000000000e-01 5.000000000000000e-01 0.000000000000000e+00
				</DataArray>
			</Points>
			<Cells>
				<DataArray Name="connectivity" type="UInt32" format="ascii">
					0 1 3 2 4 5 7 6 8 9 11 10 12 13 15 14 16 17 19 18 20 21 23 22 24 25 27 26 28 29 31 30 32 33 35 34 36 37 39 38 40 41 43 42 44 45 47 46 48 49 51 50 52 53 55 54 56 57 59 58 60 61 63 62 64 65 67 66 68 69 71 70 72 73 75 74 76 77 79 78 80 81 83 82 84 85 87 86 88 89 91 90 92 93 95 94 96 97 99 98 100 101 103 102 104 105 107 106 108 109 111 110 112 113 115 114 116 117 119 118 120 121 123 122 124 125 127 126 128 129 131 130 132 133 135 134 136 137 139 138 140 141 143 142 144 145 147 146 148 149 151 150 152 153 155 154 156 157 159 158 160 161 163 162 164 165 167 166 168 169 171 170 172 173 175 174 176 177 179 178 180 181 183 182 184 185 187 186 188 189 191 190 192 193 195 194 196 197 199 198 200 201 203 202 204 205 207 206 208 209 211 210 212 213 215 214 216 217 219 218 220 221 223 222 224 225 227 226 228 229 231 230 232 233 235 234 236 237 239 238 240 241 243 242 244 245 247 246 248 249 251 250 252 253 255 254 
				</DataArray>
				<DataArray Name="offsets" type="UInt32" format="ascii">
					4 8 12 16 20 24 28 32 36 40 44 48 52 56 60 64 68 72 76 80 84 88 92 96 100 104 108 112 116 120 124 128 132 136 140 144 148 152 156 160 164 168 172 176 180 184 188 192 196 200 204 208 212 216 220 224 228 232 236 240 244 248 252 256 
				</DataArray>
				<DataArray Name="types" type="UInt8" format="ascii">
					9 9 9 9 9 9 9 9 9 9 9 9 9 9 9 9 9 9 9 9 9 9 9 9 9 9 9 9 9 9 9 9 9 9 9 9 9 9 9 9 9 9 9 9 9 9 9 9 9 9 9 9 9 9 9 9 9 9 9 9 9 9 9 9 
				</DataArray>
			</Cells>
			<PointData Vectors="solution ">
				<DataArray Name="solution" type="Float64" NumberOfComponents="1" format="ascii">
					0.000000000000000e+00 3.242806759540792e-02 0.000000000000000e+00 1.114856101983005e-01 3.242806759540793e-02 3.682909615404220e-01 1.114856101983005e-01 1.081386134538998e+00 3.682909615404220e-01 1.316959173826369e+00 1.081386134538998e+00 3.367501258379864e+00 1.316959173826369e+00 2.935826588220145e+00 3.367501258379864e+00 6.605848355884375e+00 2.935826588220145e+00 5.060208513017313e+00 6.605848355884375e+00 1.013626395612123e+01 5.060208513017313e+00 7.429134948198116e+00 1.013626395612123e+01 1.342959352387629e+01 7.429134948198116e+00 9.788650030335301e+00 1.342959352387629e+01 1.621153966171652e+01 9.788650030335301e+00 1.194486447387203e+01 1.621153966171652e+01 1.841432314799348e+01 0.000000000000000e+00 1.114856101983005e-01 0.000000000000000e+00 2.846795959063250e-01 1.114856101983005e-01 1.081386134538998e+00 2.846795959063250e-01 2.367450563430488e+00 1.081386134538998e+00 3.367501258379864e+00 2.367450563430489e+00 6.684606532189943e+00 3.367501258379864e+00 6.605848355884376e+00 6.684606532189943e+00 1.201749545770400e+01 6.605848355884376e+00 1.013626395612123e+01 1.201749545770400e+01 1.701845721375795e+01 1.013626395612123e+01 1.342959352387629e+01 1.701845721375795e+01 2.098626274041413e+01 1.342959352387629e+01 1.621153966171652e+01 2.098626274041413e+01 2.382232368937303e+01 1.621153966171652e+01 1.841432314799348e+01 2.382232368937303e+01 2.573567429576135e+01 0.000000000000000e+00 2.846795959063250e-01 0.000000000000000e+00 5.597411630147795e-01 2.846795959063250e-01 2.367450563430488e+00 5.597411630147797e-01 4.074817389994692e+00 2.367450563430489e+00 6.684606532189943e+00 4.074817389994692e+00 1.074785529751180e+01 6.684606532189943e+00 1.201749545770400e+01 1.074785529751180e+01 1.825439147956890e+01 1.201749545770400e+01 1.701845721375795e+01 1.825439147956890e+01 2.454464196832794e+01 1.701845721375795e+01 2.098626274041413e+01 2.454464196832794e+01 2.889190165789106e+01 2.098626274041413e+01 2.382232368937303e+01 2.889190165789107e+01 3.151148061347509e+01 2.382232368937303e+01 2.573567429576135e+01 3.151148061347509e+01 3.295012236117409e+01 0.000000000000000e+00 5.597411630147795e-01 0.000000000000000e+00 8.211600812880555e-01 5.597411630147797e-01 4.074817389994692e+00 8.211600812880555e-01 5.605382793426790e+00 4.074817389994692e+00 1.074785529751180e+01 5.605382793426790e+00 1.426813068032384e+01 1.074785529751180e+01 1.825439147956890e+01 1.426813068032384e+01 2.352371688849833e+01 1.825439147956890e+01 2.454464196832794e+01 2.352371688849833e+01 3.079289548149926e+01 2.454464196832794e+01 2.889190165789106e+01 3.079289548149927e+01 3.538954591330491e+01 2.889190165789107e+01 3.151148061347509e+01 3.538954591330491e+01 3.780910131086342e+01 3.151148061347509e+01 3.295012236117409e+01 3.780910131086342e+01 3.886550992917461e+01 0.000000000000000e+00 8.211600812880555e-01 0.000000000000000e+00 8.838089553439097e-01 8.211600812880555e-01 5.605382793426790e+00 8.838089553439097e-01 6.182868513728616e+00 5.605382793426790e+00 1.426813068032384e+01 6.182868513728616e+00 1.572528890724398e+01 1.426813068032384e+01 2.352371688849834e+01 1.572528890724398e+01 2.584210378465952e+01 2.352371688849834e+01 3.079289548149926e+01 2.584210378465952e+01 3.373564143569080e+01 3.079289548149927e+01 3.538954591330491e+01 3.373564143569080e+01 3.868725802263288e+01 3.538954591330491e+01 3.780910131086342e+01 3.868725802263288e+01 4.124847087210463e+01 3.780910131086342e+01 3.886550992917461e+01 4.124847087210463e+01 4.230882633754530e+01 0.000000000000000e+00 8.838089553439098e-01 0.000000000000000e+00 7.097136665491426e-01 8.838089553439098e-01 6.182868513728616e+00 7.097136665491426e-01 5.450595101709620e+00 6.182868513728616e+00 1.572528890724398e+01 5.450595101709621e+00 1.430966913704632e+01 1.572528890724398e+01 2.584210378465952e+01 1.430966913704632e+01 2.408436492373036e+01 2.584210378465952e+01 3.373564143569080e+01 2.408436492373036e+01 3.215029483611692e+01 3.373564143569080e+01 3.868725802263288e+01 3.215029483611692e+01 3.762868017747952e+01 3.868725802263288e+01 4.124847087210463e+01 3.762868017747952e+01 4.081901441168974e+01 4.124847087210463e+01 4.230882633754530e+01 4.081901441168974e+01 4.243105534777713e+01 0.000000000000000e+00 7.097136665491426e-01 0.000000000000000e+00 4.388177853917302e-01 7.097136665491426e-01 5.450595101709620e+00 4.388177853917302e-01 3.777674972742941e+00 5.450595101709621e+00 1.430966913704632e+01 3.777674972742941e+00 1.054723832108643e+01 1.430966913704632e+01 2.408436492373036e+01 1.054723832108643e+01 1.874178347814498e+01 2.408436492373036e+01 3.215029483611692e+01 1.874178347814498e+01 2.631937175779333e+01 3.215029483611692e+01 3.762868017747952e+01 2.631937175779333e+01 3.224327045926141e+01 3.762868017747952e+01 4.081901441168974e+01 3.224327045926141e+01 3.636153495931036e+01 4.081901441168974e+01 4.243105534777713e+01 3.636153495931036e+01 3.898328124411051e+01 0.000000000000000e+00 4.388177853917302e-01 0.000000000000000e+00 2.015783807552002e-01 4.388177853917302e-01 3.777674972742941e+00 2.015783807552002e-01 1.952266001704134e+00 3.777674972742941e+00 1.054723832108643e+01 1.952266001704134e+00 6.035092338585987e+00 1.054723832108643e+01 1.874178347814498e+01 6.035092338585988e+00 1.179164028715130e+01 1.874178347814498e+01 2.631937175779333e+01 1.179164028715130e+01 1.805923251841236e+01 2.631937175779333e+01 3.224327045926141e+01 1.805923251841236e+01 2.388399729613446e+01 3.224327045926141e+01 3.636153495931036e+01 2.388399729613446e+01 2.873958668354892e+01 3.636153495931036e+01 3.898328124411051e+01 2.873958668354892e+01 3.246971193500077e+01 
				</DataArray>
			</PointData>
			<CellData>
			</CellData>
		</Piece>
	</UnstructuredGrid>
</VTKFile>