<?xml version="1.0"?>
<VTKFile type="UnstructuredGrid" byte_order="LittleEndian">
	<UnstructuredGrid>
		<Piece NumberOfPoints="64" NumberOfCells="16">
			<Points>
				<DataArray type="Float64" NumberOfComponents="3" format="ascii">
					-5.000000000000000e-01 -5.000000000000000e-01 0.000000000000000e+00
					-2.500000000000000e-01 -5.000000000000000e-01 0.000000000000000e+00
					-5.000000000000000e-01 -2.500000000000000e-01 0.000000000000000e+00
					-2.500000000000000e-01 -2.500000000000000e-01 0.000000000000000e+00
					-2.500000000000000e-01 -5.000000000000000e-01 0.000000000000000e+00
					2.775557561562891e-17 -5.000000000000000e-01 0.000000000000000e+00
					-2.500000000000000e-01 -2.500000000000000e-01 0.000000000000000e+00
					2.775557561562891e-17 -2.500000000000000e-01 0.000000000000000e+00
					2.775557561562891e-17 -5.000000000000000e-01 0.000000000000000e+00
					2.500000000000000e-01 -5.000000000000000e-01 0.000000000000000e+00
					2.775557561562891e-17 -2.500000000000000e-01 0.000000000000000e+00
					2.500000000000000e-01 -2.500000000000000e-01 0.000000000000000e+00
					2.500000000000000e-01 -5.000000000000000e-01 0.000000000000000e+00
					5.000000000000000e-01 -5.000000000000000e-01 0.000000000000000e+00
					2.500000000000000e-01 -2.500000000000000e-01 0.000000000000000e+00
					5.000000000000000e-01 -2.500000000000000e-01 0.000000000000000e+00
					-5.000000000000000e-01 -2.500000000000000e-01 0.000000000000000e+00
					-2.500000000000000e-01 -2.500000000000000e-01 0.000000000000000e+00
					-5.000000000000000e-01 2.775557561562891e-17 0.000000000000000e+00
					-2.500000000000000e-01 2.775557561562891e-17 0.000000000000000e+00
					-2.500000000000000e-01 -2.500000000000000e-01 0.000000000000000e+00
					2.775557561562891e-17 -2.500000000000000e-01 0.000000000000000e+00
					-2.500000000000000e-01 2.775557561562891e-17 0.000000000000000e+00
					2.775557561562891e-17 2.775557561562891e-17 0.000000000000000e+00
					2.775557561562891e-17 -2.500000000000000e-01 0.000000000000000e+00
					2.500000000000000e-01 -2.500000000000000e-01 0.000000000000000e+00
					2.775557561562891e-17 2.775557561562891e-17 0.000000000000000e+00
					2.500000000000000e-01 2.775557561562891e-17 0.000000000000000e+00
					2.500000000000000e-01 -2.500000000000000e-01 0.000000000000000e+00
					5.000000000000000e-01 -2.500000000000000e-01 0.000000000000000e+00
					2.500000000000000e-01 2.775557561562891e-17 0.000000000000000e+00
					5.000000000000000e-01 2.775557561562891e-17 0.000000000000000e+00
					-5.000000000000000e-01 2.775557561562891e-17 0.000000000000000e+00
					-2.500000000000000e-01 2.775557561562891e-17 0.000000000000000e+00
					-5.000000000000000e-01 2.500000000000000e-01 0.000000000000000e+00
					-2.500000000000000e-01 2.500000000000000e-01 0.000000000000000e+00
					-2.500000000000000e-01 2.775557561562891e-17 0.000000000000000e+00
					2.775557561562891e-17 2.775557561562891e-17 0.000000000000000e+00
					-2.500000000000000e-01 2.500000000000000e-01 0.000000000000000e+00
					2.775557561562891e-17 2.500000000000000e-01 0.000000000000000e+00
					2.775557561562891e-17 2.775557561562891e-17 0.000000000000000e+00
					2.500000000000000e-01 2.775557561562891e-17 0.000000000000000e+00
					2.775557561562891e-17 2.500000000000000e-01 0.000000000000000e+00
					2.500000000000000e-01 2.500000000000000e-01 0.000000000000000e+00
					2.500000000000000e-01 2.775557561562891e-17 0.000000000000000e+00
					5.000000000000000e-01 2.775557561562891e-17 0.000000000000000e+00
					2.500000000000000e-01 2.500000000000000e-01 0.000000000000000e+00
					5.000000000000000e-01 2.500000000000000e-01 0.000000000000000e+00
					-5.000000000000000e-01 2.500000000000000e-01 0.000000000000000e+00
					-2.500000000000000e-01 2.500000000000000e-01 0.000000000000000e+00
					-5.000000000000000e-01 5.000000000000000e-01 0.000000000000000e+00
					-2.500000000000000e-01 5.000000000000000e-01 0.000000000000000e+00
					-2.500000000000000e-01 2.500000000000000e-01 0.000000000000000e+00
					2.775557561562891e-17 2.500000000000000e-01 0.000000000000000e+00
					-2.500000000000000e-01 5.000000000000000e-01 0.000000000000000e+00
					2.775557561562891e-17 5.000000000000000e-01 0.000000000000000e+00
					2.775557561562891e-17 2.500000000000000e-01 0.000000000000000e+00
					2.500000000000000e-01 2.500000000000000e-01 0.000000000000000e+00
					2.775557561562891e-17 5.000000000000000e-01 0.000000000000000e+00
					2.500000000000000e-01 5.000000000000000e-01 0.000000000000000e+00
					2.500000000000000e-01 2.500000000000000e-01 0.000000000000000e+00
					5.000000000000000e-01 2.500000000000000e-01 0.000000000000000e+00
					2.500000000000000e-01 5.000000000000000e-01 0.000000000000000e+00
					5.000000000000000e-01 5.000000000000000e-01 0.000000000000000e+00
				</DataArray>
			</Points>
			<Cells>
				<DataArray Name="connectivity" type="UInt32" format="ascii">
					0 1 3 2 4 5 7 6 8 9 11 10 12 13 15 14 16 17 19 18 20 21 23 22 24 25 27 26 28 29 31 30 32 33 35 34 36 37 39 38 40 41 43 42 44 45 47 46 48 49 51 50 52 53 55 54 56 57 59 58 60 61 63 62 
				</DataArray>
				<DataArray Name="offsets" type="UInt32" format="ascii">
					4 8 12 16 20 24 28 32 36 40 44 48 52 56 60 64 
				</DataArray>
				<DataArray Name="types" type="UInt8" format="ascii">
					9 9 9 9 9 9 9 9 9 9 9 9 9 9 9 9 
				</DataArray>
			</Cells>
			<PointData Vectors="solution ">
				<DataArray Name="solution" type="Float64" NumberOfComponents="1" format="ascii">
					1.615888698674083e+00 3.482139839551916e+00 4.470718628433581e+00 9.092867403025060e+00 3.482139839551916e+00 5.259009233316412e+00 9.092867403025060e+00 1.350454316753937e+01 5.259009233316412e+00 5.741756098632485e+00 1.350454316753937e+01 1.499305221842495e+01 5.741756098632485e+00 4.393732052911805e+00 1.499305221842495e+01 1.215537675467580e+01 4.470718628433581e+00 9.092867403025060e+00 8.669538196695543e+00 1.733950923914033e+01 9.092867403025060e+00 1.350454316753937e+01 1.733950923914033e+01 2.562577051768471e+01 1.350454316753937e+01 1.499305221842495e+01 2.562577051768471e+01 2.859047103994639e+01 1.499305221842495e+01 1.215537675467580e+01 2.859047103994639e+01 2.357096888198596e+01 8.669538196695543e+00 1.733950923914033e+01 1.215353255865118e+01 2.471782318461785e+01 1.733950923914033e+01 2.562577051768471e+01 2.471782318461785e+01 3.671009521630310e+01 2.562577051768471e+01 2.859047103994639e+01 3.671009521630310e+01 4.075614253717018e+01 2.859047103994639e+01 2.357096888198596e+01 4.075614253717018e+01 3.304279714883711e+01 1.215353255865118e+01 2.471782318461785e+01 1.194168229626070e+01 2.573123086916279e+01 2.471782318461785e+01 3.671009521630310e+01 2.573123086916279e+01 3.886117997546802e+01 3.671009521630310e+01 4.075614253717018e+01 3.886117997546802e+01 4.242748894750471e+01 4.075614253717018e+01 3.304279714883711e+01 4.242748894750471e+01 3.246739077161086e+01 
				</DataArray>
			</PointData>
			<CellData>
			</CellData>
		</Piece>
	</UnstructuredGrid>
</VTKFile>