<?xml version="1.0"?>
<VTKFile type="UnstructuredGrid" byte_order="LittleEndian">
	<UnstructuredGrid>
		<Piece NumberOfPoints="256" NumberOfCells="64">
			<Points>
				<DataArray type="Float64" NumberOfComponents="3" format="ascii">
					1.000000000000000e+00 -1.000000000000000e+00 0.000000000000000e+00
					1.218750000000000e+00 -7.500000000000000e-01 0.000000000000000e+00
					9.135224194504830e-01 -9.135224194504830e-01 0.000000000000000e+00
					1.081002888200483e+00 -6.851418145878623e-01 0.000000000000000e+00
					1.218750000000000e+00 -7.500000000000000e-01 0.000000000000000e+00
					1.375000000000000e+00 -5.000000000000000e-01 0.000000000000000e+00
					1.081002888200483e+00 -6.851418145878623e-01 0.000000000000000e+00
					1.200631794450484e+00 -4.567612097252415e-01 0.000000000000000e+00
					1.375000000000000e+00 -5.000000000000000e-01 0.000000000000000e+00
					1.468750000000000e+00 -2.499999999999999e-01 0.000000000000000e+00
					1.200631794450484e+00 -4.567612097252415e-01 0.000000000000000e+00
					1.272409138200483e+00 -2.283806048626207e-01 0.000000000000000e+00
					1.468750000000000e+00 -2.499999999999999e-01 0.000000000000000e+00
					1.500000000000000e+00 6.938893903907228e-17 0.000000000000000e+00
					1.272409138200483e+00 -2.283806048626207e-01 0.000000000000000e+00
					1.296334919450483e+00 6.581107186987012e-17 0.000000000000000e+00
					1.500000000000000e+00 6.938893903907228e-17 0.000000000000000e+00
					1.468750000000000e+00 2.500000000000001e-01 0.000000000000000e+00
					1.296334919450483e+00 6.581107186987012e-17 0.000000000000000e+00
					1.272409138200483e+00 2.283806048626209e-01 0.000000000000000e+00
					1.468750000000000e+00 2.500000000000001e-01 0.000000000000000e+00
					1.375000000000000e+00 5.000000000000001e-01 0.000000000000000e+00
					1.272409138200483e+00 2.283806048626209e-01 0.000000000000000e+00
					1.200631794450483e+00 4.567612097252416e-01 0.000000000000000e+00
					1.375000000000000e+00 5.000000000000001e-01 0.000000000000000e+00
					1.218750000000000e+00 7.500000000000000e-01 0.000000000000000e+00
					1.200631794450483e+00 4.567612097252416e-01 0.000000000000000e+00
					1.081002888200483e+00 6.851418145878623e-01 0.000000000000000e+00
					1.218750000000000e+00 7.500000000000000e-01 0.000000000000000e+00
					1.000000000000000e+00 1.000000000000000e+00 0.000000000000000e+00
					1.081002888200483e+00 6.851418145878623e-01 0.000000000000000e+00
					9.135224194504830e-01 9.135224194504830e-01 0.000000000000000e+00
					9.135224194504830e-01 -9.135224194504830e-01 0.000000000000000e+00
					1.081002888200483e+00 -6.851418145878623e-01 0.000000000000000e+00
					8.338955762008280e-01 -8.338955762008280e-01 0.000000000000000e+00
					9.569424512008281e-01 -6.254216821506211e-01 0.000000000000000e+00
					1.081002888200483e+00 -6.851418145878623e-01 0.000000000000000e+00
					1.200631794450484e+00 -4.567612097252415e-01 0.000000000000000e+00
					9.569424512008281e-01 -6.254216821506211e-01 0.000000000000000e+00
					1.044833076200828e+00 -4.169477881004140e-01 0.000000000000000e+00
					1.200631794450484e+00 -4.567612097252415e-01 0.000000000000000e+00
					1.272409138200483e+00 -2.283806048626207e-01 0.000000000000000e+00
					1.044833076200828e+00 -4.169477881004140e-01 0.000000000000000e+00
					1.097567451200828e+00 -2.084738940502070e-01 0.000000000000000e+00
					1.272409138200483e+00 -2.283806048626207e-01 0.000000000000000e+00
					1.296334919450483e+00 6.581107186987012e-17 0.000000000000000e+00
					1.097567451200828e+00 -2.084738940502070e-01 0.000000000000000e+00
					1.115145576200828e+00 6.201636426617085e-17 0.000000000000000e+00
					1.296334919450483e+00 6.581107186987012e-17 0.000000000000000e+00
					1.272409138200483e+00 2.283806048626209e-01 0.000000000000000e+00
					1.115145576200828e+00 6.201636426617085e-17 0.000000000000000e+00
					1.097567451200828e+00 2.084738940502071e-01 0.000000000000000e+00
					1.272409138200483e+00 2.283806048626209e-01 0.000000000000000e+00
					1.200631794450483e+00 4.567612097252416e-01 0.000000000000000e+00
					1.097567451200828e+00 2.084738940502071e-01 0.000000000000000e+00
					1.044833076200828e+00 4.169477881004141e-01 0.000000000000000e+00
					1.200631794450483e+00 4.567612097252416e-01 0.000000000000000e+00
					1.081002888200483e+00 6.851418145878623e-01 0.000000000000000e+00
					1.044833076200828e+00 4.169477881004141e-01 0.000000000000000e+00
					9.569424512008281e-01 6.254216821506211e-01 0.000000000000000e+00
					1.081002888200483e+00 6.851418145878623e-01 0.000000000000000e+00
					9.135224194504830e-01 9.135224194504830e-01 0.000000000000000e+00
					9.569424512008281e-01 6.254216821506211e-01 0.000000000000000e+00
					8.338955762008280e-01 8.338955762008280e-01 0.000000000000000e+00
					8.338955762008280e-01 -8.338955762008280e-01 0.000000000000000e+00
					9.569424512008281e-01 -6.254216821506211e-01 0.000000000000000e+00
					7.611194702510350e-01 -7.611194702510350e-01 0.000000000000000e+00
					8.465686890010350e-01 -5.708396026882762e-01 0.000000000000000e+00
					9.569424512008281e-01 -6.254216821506211e-01 0.000000000000000e+00
					1.044833076200828e+00 -4.169477881004140e-01 0.000000000000000e+00
					8.465686890010350e-01 -5.708396026882762e-01 0.000000000000000e+00
					9.076038452510352e-01 -3.805597351255174e-01 0.000000000000000e+00
					1.044833076200828e+00 -4.169477881004140e-01 0.000000000000000e+00
					1.097567451200828e+00 -2.084738940502070e-01 0.000000000000000e+00
					9.076038452510352e-01 -3.805597351255174e-01 0.000000000000000e+00
					9.442249390010351e-01 -1.902798675627587e-01 0.000000000000000e+00
					1.097567451200828e+00 -2.084738940502070e-01 0.000000000000000e+00
					1.115145576200828e+00 6.201636426617085e-17 0.000000000000000e+00
					9.442249390010351e-01 -1.902798675627587e-01 0.000000000000000e+00
					9.564319702510350e-01 5.800481622797449e-17 0.000000000000000e+00
					1.115145576200828e+00 6.201636426617085e-17 0.000000000000000e+00
					1.097567451200828e+00 2.084738940502071e-01 0.000000000000000e+00
					9.564319702510350e-01 5.800481622797449e-17 0.000000000000000e+00
					9.442249390010350e-01 1.902798675627588e-01 0.000000000000000e+00
					1.097567451200828e+00 2.084738940502071e-01 0.000000000000000e+00
					1.044833076200828e+00 4.169477881004141e-01 0.000000000000000e+00
					9.442249390010350e-01 1.902798675627588e-01 0.000000000000000e+00
					9.076038452510350e-01 3.805597351255176e-01 0.000000000000000e+00
					1.044833076200828e+00 4.169477881004141e-01 0.000000000000000e+00
					9.569424512008281e-01 6.254216821506211e-01 0.000000000000000e+00
					9.076038452510350e-01 3.805597351255176e-01 0.000000000000000e+00
					8.465686890010350e-01 5.708396026882762e-01 0.000000000000000e+00
					9.569424512008281e-01 6.254216821506211e-01 0.000000000000000e+00
					8.338955762008280e-01 8.338955762008280e-01 0.000000000000000e+00
					8.465686890010350e-01 5.708396026882762e-01 0.000000000000000e+00
					7.611194702510350e-01 7.611194702510350e-01 0.000000000000000e+00
					7.611194702510350e-01 -7.611194702510350e-01 0.000000000000000e+00
					8.465686890010350e-01 -5.708396026882762e-01 0.000000000000000e+00
					6.951941016011041e-01 -6.951941016011041e-01 0.000000000000000e+00
					7.498816016011041e-01 -5.213955762008279e-01 0.000000000000000e+00
					8.465686890010350e-01 -5.708396026882762e-01 0.000000000000000e+00
					9.076038452510352e-01 -3.805597351255174e-01 0.000000000000000e+00
					7.498816016011041e-01 -5.213955762008279e-01 0.000000000000000e+00
					7.889441016011042e-01 -3.475970508005519e-01 0.000000000000000e+00
					9.076038452510352e-01 -3.805597351255174e-01 0.000000000000000e+00
					9.442249390010351e-01 -1.902798675627587e-01 0.000000000000000e+00
					7.889441016011042e-01 -3.475970508005519e-01 0.000000000000000e+00
					8.123816016011042e-01 -1.737985254002760e-01 0.000000000000000e+00
					9.442249390010351e-01 -1.902798675627587e-01 0.000000000000000e+00
					9.564319702510350e-01 5.800481622797449e-17 0.000000000000000e+00
					8.123816016011042e-01 -1.737985254002760e-01 0.000000000000000e+00
					8.201941016011041e-01 5.377642775528102e-17 0.000000000000000e+00
					9.564319702510350e-01 5.800481622797449e-17 0.000000000000000e+00
					9.442249390010350e-01 1.902798675627588e-01 0.000000000000000e+00
					8.201941016011041e-01 5.377642775528102e-17 0.000000000000000e+00
					8.123816016011041e-01 1.737985254002761e-01 0.000000000000000e+00
					9.442249390010350e-01 1.902798675627588e-01 0.000000000000000e+00
					9.076038452510350e-01 3.805597351255176e-01 0.000000000000000e+00
					8.123816016011041e-01 1.737985254002761e-01 0.000000000000000e+00
					7.889441016011040e-01 3.475970508005521e-01 0.000000000000000e+00
					9.076038452510350e-01 3.805597351255176e-01 0.000000000000000e+00
					8.465686890010350e-01 5.708396026882762e-01 0.000000000000000e+00
					7.889441016011040e-01 3.475970508005521e-01 0.000000000000000e+00
					7.498816016011041e-01 5.213955762008279e-01 0.000000000000000e+00
					8.465686890010350e-01 5.708396026882762e-01 0.000000000000000e+00
					7.611194702510350e-01 7.611194702510350e-01 0.000000000000000e+00
					7.498816016011041e-01 5.213955762008279e-01 0.000000000000000e+00
					6.951941016011041e-01 6.951941016011041e-01 0.000000000000000e+00
					6.951941016011041e-01 -6.951941016011041e-01 0.000000000000000e+00
					7.498816016011041e-01 -5.213955762008279e-01 0.000000000000000e+00
					6.361194702510350e-01 -6.361194702510350e-01 0.000000000000000e+00
					6.668811890010350e-01 -4.770896026882761e-01 0.000000000000000e+00
					7.498816016011041e-01 -5.213955762008279e-01 0.000000000000000e+00
					7.889441016011042e-01 -3.475970508005519e-01 0.000000000000000e+00
					6.668811890010350e-01 -4.770896026882761e-01 0.000000000000000e+00
					6.888538452510350e-01 -3.180597351255174e-01 0.000000000000000e+00
					7.889441016011042e-01 -3.475970508005519e-01 0.000000000000000e+00
					8.123816016011042e-01 -1.737985254002760e-01 0.000000000000000e+00
					6.888538452510350e-01 -3.180597351255174e-01 0.000000000000000e+00
					7.020374390010350e-01 -1.590298675627587e-01 0.000000000000000e+00
					8.123816016011042e-01 -1.737985254002760e-01 0.000000000000000e+00
					8.201941016011041e-01 5.377642775528102e-17 0.000000000000000e+00
					7.020374390010350e-01 -1.590298675627587e-01 0.000000000000000e+00
					7.064319702510350e-01 4.933119884809045e-17 0.000000000000000e+00
					8.201941016011041e-01 5.377642775528102e-17 0.000000000000000e+00
					8.123816016011041e-01 1.737985254002761e-01 0.000000000000000e+00
					7.064319702510350e-01 4.933119884809045e-17 0.000000000000000e+00
					7.020374390010350e-01 1.590298675627588e-01 0.000000000000000e+00
					8.123816016011041e-01 1.737985254002761e-01 0.000000000000000e+00
					7.889441016011040e-01 3.475970508005521e-01 0.000000000000000e+00
					7.020374390010350e-01 1.590298675627588e-01 0.000000000000000e+00
					6.888538452510349e-01 3.180597351255176e-01 0.000000000000000e+00
					7.889441016011040e-01 3.475970508005521e-01 0.000000000000000e+00
					7.498816016011041e-01 5.213955762008279e-01 0.000000000000000e+00
					6.888538452510349e-01 3.180597351255176e-01 0.000000000000000e+00
					6.668811890010350e-01 4.770896026882761e-01 0.000000000000000e+00
					7.498816016011041e-01 5.213955762008279e-01 0.000000000000000e+00
					6.951941016011041e-01 6.951941016011041e-01 0.000000000000000e+00
					6.668811890010350e-01 4.770896026882761e-01 0.000000000000000e+00
					6.361194702510350e-01 6.361194702510350e-01 0.000000000000000e+00
					6.361194702510350e-01 -6.361194702510350e-01 0.000000000000000e+00
					6.668811890010350e-01 -4.770896026882761e-01 0.000000000000000e+00
					5.838955762008280e-01 -5.838955762008280e-01 0.000000000000000e+00
					5.975674512008280e-01 -4.379216821506209e-01 0.000000000000000e+00
					6.668811890010350e-01 -4.770896026882761e-01 0.000000000000000e+00
					6.888538452510350e-01 -3.180597351255174e-01 0.000000000000000e+00
					5.975674512008280e-01 -4.379216821506209e-01 0.000000000000000e+00
					6.073330762008280e-01 -2.919477881004139e-01 0.000000000000000e+00
					6.888538452510350e-01 -3.180597351255174e-01 0.000000000000000e+00
					7.020374390010350e-01 -1.590298675627587e-01 0.000000000000000e+00
					6.073330762008280e-01 -2.919477881004139e-01 0.000000000000000e+00
					6.131924512008280e-01 -1.459738940502070e-01 0.000000000000000e+00
					7.020374390010350e-01 -1.590298675627587e-01 0.000000000000000e+00
					7.064319702510350e-01 4.933119884809045e-17 0.000000000000000e+00
					6.131924512008280e-01 -1.459738940502070e-01 0.000000000000000e+00
					6.151455762008280e-01 4.466912950640279e-17 0.000000000000000e+00
					7.064319702510350e-01 4.933119884809045e-17 0.000000000000000e+00
					7.020374390010350e-01 1.590298675627588e-01 0.000000000000000e+00
					6.151455762008280e-01 4.466912950640279e-17 0.000000000000000e+00
					6.131924512008280e-01 1.459738940502071e-01 0.000000000000000e+00
					7.020374390010350e-01 1.590298675627588e-01 0.000000000000000e+00
					6.888538452510349e-01 3.180597351255176e-01 0.000000000000000e+00
					6.131924512008280e-01 1.459738940502071e-01 0.000000000000000e+00
					6.073330762008280e-01 2.919477881004141e-01 0.000000000000000e+00
					6.888538452510349e-01 3.180597351255176e-01 0.000000000000000e+00
					6.668811890010350e-01 4.770896026882761e-01 0.000000000000000e+00
					6.073330762008280e-01 2.919477881004141e-01 0.000000000000000e+00
					5.975674512008280e-01 4.379216821506209e-01 0.000000000000000e+00
					6.668811890010350e-01 4.770896026882761e-01 0.000000000000000e+00
					6.361194702510350e-01 6.361194702510350e-01 0.000000000000000e+00
					5.975674512008280e-01 4.379216821506209e-01 0.000000000000000e+00
					5.838955762008280e-01 5.838955762008280e-01 0.000000000000000e+00
					5.838955762008280e-01 -5.838955762008280e-01 0.000000000000000e+00
					5.975674512008280e-01 -4.379216821506209e-01 0.000000000000000e+00
					5.385224194504830e-01 -5.385224194504830e-01 0.000000000000000e+00
					5.419403882004830e-01 -4.038918145878622e-01 0.000000000000000e+00
					5.975674512008280e-01 -4.379216821506209e-01 0.000000000000000e+00
					6.073330762008280e-01 -2.919477881004139e-01 0.000000000000000e+00
					5.419403882004830e-01 -4.038918145878622e-01 0.000000000000000e+00
					5.443817944504830e-01 -2.692612097252415e-01 0.000000000000000e+00
					6.073330762008280e-01 -2.919477881004139e-01 0.000000000000000e+00
					6.131924512008280e-01 -1.459738940502070e-01 0.000000000000000e+00
					5.443817944504830e-01 -2.692612097252415e-01 0.000000000000000e+00
					5.458466382004830e-01 -1.346306048626207e-01 0.000000000000000e+00
					6.131924512008280e-01 -1.459738940502070e-01 0.000000000000000e+00
					6.151455762008280e-01 4.466912950640279e-17 0.000000000000000e+00
					5.458466382004830e-01 -1.346306048626207e-01 0.000000000000000e+00
					5.463349194504830e-01 3.979021973021801e-17 0.000000000000000e+00
					6.151455762008280e-01 4.466912950640279e-17 0.000000000000000e+00
					6.131924512008280e-01 1.459738940502071e-01 0.000000000000000e+00
					5.463349194504830e-01 3.979021973021801e-17 0.000000000000000e+00
					5.458466382004830e-01 1.346306048626208e-01 0.000000000000000e+00
					6.131924512008280e-01 1.459738940502071e-01 0.000000000000000e+00
					6.073330762008280e-01 2.919477881004141e-01 0.000000000000000e+00
					5.458466382004830e-01 1.346306048626208e-01 0.000000000000000e+00
					5.443817944504830e-01 2.692612097252415e-01 0.000000000000000e+00
					6.073330762008280e-01 2.919477881004141e-01 0.000000000000000e+00
					5.975674512008280e-01 4.379216821506209e-01 0.000000000000000e+00
					5.443817944504830e-01 2.692612097252415e-01 0.000000000000000e+00
					5.419403882004830e-01 4.038918145878622e-01 0.000000000000000e+00
					5.975674512008280e-01 4.379216821506209e-01 0.000000000000000e+00
					5.838955762008280e-01 5.838955762008280e-01 0.000000000000000e+00
					5.419403882004830e-01 4.038918145878622e-01 0.000000000000000e+00
					5.385224194504830e-01 5.385224194504830e-01 0.000000000000000e+00
					5.385224194504830e-01 -5.385224194504830e-01 0.000000000000000e+00
					5.419403882004830e-01 -4.038918145878622e-01 0.000000000000000e+00
					5.000000000000000e-01 -5.000000000000000e-01 0.000000000000000e+00
					5.000000000000000e-01 -3.750000000000000e-01 0.000000000000000e+00
					5.419403882004830e-01 -4.038918145878622e-01 0.000000000000000e+00
					5.443817944504830e-01 -2.692612097252415e-01 0.000000000000000e+00
					5.000000000000000e-01 -3.750000000000000e-01 0.000000000000000e+00
					5.000000000000000e-01 -2.500000000000000e-01 0.000000000000000e+00
					5.443817944504830e-01 -2.692612097252415e-01 0.000000000000000e+00
					5.458466382004830e-01 -1.346306048626207e-01 0.000000000000000e+00
					5.000000000000000e-01 -2.500000000000000e-01 0.000000000000000e+00
					5.000000000000000e-01 -1.250000000000000e-01 0.000000000000000e+00
					5.458466382004830e-01 -1.346306048626207e-01 0.000000000000000e+00
					5.463349194504830e-01 3.979021973021801e-17 0.000000000000000e+00
					5.000000000000000e-01 -1.250000000000000e-01 0.000000000000000e+00
					5.000000000000000e-01 3.469446951953614e-17 0.000000000000000e+00
					5.463349194504830e-01 3.979021973021801e-17 0.000000000000000e+00
					5.458466382004830e-01 1.346306048626208e-01 0.000000000000000e+00
					5.000000000000000e-01 3.469446951953614e-17 0.000000000000000e+00
					5.000000000000000e-01 1.250000000000001e-01 0.000000000000000e+00
					5.458466382004830e-01 1.346306048626208e-01 0.000000000000000e+00
					5.443817944504830e-01 2.692612097252415e-01 0.000000000000000e+00
					5.000000000000000e-01 1.250000000000001e-01 0.000000000000000e+00
					5.000000000000000e-01 2.500000000000001e-01 0.000000000000000e+00
					5.443817944504830e-01 2.692612097252415e-01 0.000000000000000e+00
					5.419403882004830e-01 4.038918145878622e-01 0.000000000000000e+00
					5.000000000000000e-01 2.500000000000001e-01 0.000000000000000e+00
					5.000000000000000e-01 3.750000000000000e-01 0.000000000000000e+00
					5.419403882004830e-01 4.038918145878622e-01 0.000000000000000e+00
					5.385224194504830e-01 5.385224194504830e-01 0.000000000000000e+00
					5.000000000000000e-01 3.750000000000000e-01 0.000000000000000e+00
					5.000000000000000e-01 5.000000000000000e-01 0.000000000000000e+00
				</DataArray>
			</Points>
			<Cells>
				<DataArray Name="connectivity" type="UInt32" format="ascii">
					0 1 3 2 4 5 7 6 8 9 11 10 12 13 15 14 16 17 19 18 20 21 23 22 24 25 27 26 28 29 31 30 32 33 35 34 36 37 39 38 40 41 43 42 44 45 47 46 48 49 51 50 52 53 55 54 56 57 59 58 60 61 63 62 64 65 67 66 68 69 71 70 72 73 75 74 76 77 79 78 80 81 83 82 84 85 87 86 88 89 91 90 92 93 95 94 96 97 99 98 100 101 103 102 104 105 107 106 108 109 111 110 112 113 115 114 116 117 119 118 120 121 123 122 124 125 127 126 128 129 131 130 132 133 135 134 136 137 139 138 140 141 143 142 144 145 147 146 148 149 151 150 152 153 155 154 156 157 159 158 160 161 163 162 164 165 167 166 168 169 171 170 172 173 175 174 176 177 179 178 180 181 183 182 184 185 187 186 188 189 191 190 192 193 195 194 196 197 199 198 200 201 203 202 204 205 207 206 208 209 211 210 212 213 215 214 216 217 219 218 220 221 223 222 224 225 227 226 228 229 231 230 232 233 235 234 236 237 239 238 240 241 243 242 244 245 247 246 248 249 251 250 252 253 255 254 
				</DataArray>
				<DataArray Name="offsets" type="UInt32" format="ascii">
					4 8 12 16 20 24 28 32 36 40 44 48 52 56 60 64 68 72 76 80 84 88 92 96 100 104 108 112 116 120 124 128 132 136 140 144 148 152 156 160 164 168 172 176 180 184 188 192 196 200 204 208 212 216 220 224 228 232 236 240 244 248 252 256 
				</DataArray>
				<DataArray Name="types" type="UInt8" format="ascii">
					9 9 9 9 9 9 9 9 9 9 9 9 9 9 9 9 9 9 9 9 9 9 9 9 9 9 9 9 9 9 9 9 9 9 9 9 9 9 9 9 9 9 9 9 9 9 9 9 9 9 9 9 9 9 9 9 9 9 9 9 9 9 9 9 
				</DataArray>
			</Cells>
			<PointData Vectors="solution ">
				<DataArray Name="solution" type="Float64" NumberOfComponents="1" format="ascii">
					0.000000000000000e+00 0.000000000000000e+00 5.466118406161761e-03 1.939789922200512e-02 0.000000000000000e+00 0.000000000000000e+00 1.939789922200512e-02 5.459096330072869e-02 0.000000000000000e+00 0.000000000000000e+00 5.459096330072869e-02 1.250373296198355e-01 0.000000000000000e+00 0.000000000000000e+00 1.250373296198355e-01 2.247567710269163e-01 0.000000000000000e+00 0.000000000000000e+00 2.247567710269163e-01 3.111923997237351e-01 0.000000000000000e+00 0.000000000000000e+00 3.111923997237351e-01 3.373258053261845e-01 0.000000000000000e+00 0.000000000000000e+00 3.373258053261845e-01 2.953723628068603e-01 0.000000000000000e+00 0.000000000000000e+00 2.953723628068603e-01 2.015718052512624e-01 5.466118406161761e-03 1.939789922200513e-02 7.029681545567171e-02 2.232901801040688e-01 1.939789922200513e-02 5.459096330072869e-02 2.232901801040688e-01 5.498738417544808e-01 5.459096330072869e-02 1.250373296198355e-01 5.498738417544808e-01 1.104605590991580e+00 1.250373296198355e-01 2.247567710269163e-01 1.104605590991580e+00 1.838249796020921e+00 2.247567710269163e-01 3.111923997237351e-01 1.838249796020921e+00 2.541462512667473e+00 3.111923997237351e-01 3.373258053261846e-01 2.541462512667473e+00 2.909063410798238e+00 3.373258053261846e-01 2.953723628068603e-01 2.909063410798238e+00 2.711694652573611e+00 2.953723628068603e-01 2.015718052512624e-01 2.711694652573611e+00 1.952255122451345e+00 7.029681545567171e-02 2.232901801040688e-01 2.889050725724859e-01 8.180493836847401e-01 2.232901801040688e-01 5.498738417544808e-01 8.180493836847402e-01 1.845383886352661e+00 5.498738417544808e-01 1.104605590991580e+00 1.845383886352661e+00 3.457756434333129e+00 1.104605590991580e+00 1.838249796020921e+00 3.457756434333129e+00 5.483487280619528e+00 1.838249796020921e+00 2.541462512667473e+00 5.483487280619528e+00 7.399097747042966e+00 2.541462512667473e+00 2.909063410798239e+00 7.399097747042966e+00 8.447648415685956e+00 2.909063410798239e+00 2.711694652573611e+00 8.447648415685956e+00 8.005502172110251e+00 2.711694652573611e+00 1.952255122451345e+00 8.005502172110251e+00 6.035087692235940e+00 2.889050725724859e-01 8.180493836847401e-01 7.331977389463668e-01 1.855584572856726e+00 8.180493836847402e-01 1.845383886352662e+00 1.855584572856726e+00 3.859499896898525e+00 1.845383886352662e+00 3.457756434333129e+00 3.859499896898525e+00 6.810940294664886e+00 3.457756434333129e+00 5.483487280619528e+00 6.810940294664886e+00 1.035970918025035e+01 5.483487280619528e+00 7.399097747042966e+00 1.035970918025035e+01 1.364601080724415e+01 7.399097747042966e+00 8.447648415685956e+00 1.364601080724415e+01 1.549031000944325e+01 8.447648415685956e+00 8.005502172110253e+00 1.549031000944325e+01 1.491350954273870e+01 8.005502172110253e+00 6.035087692235940e+00 1.491350954273870e+01 1.179165605707141e+01 7.331977389463668e-01 1.855584572856726e+00 1.420788619740905e+00 3.232456584987850e+00 1.855584572856726e+00 3.859499896898525e+00 3.232456584987850e+00 6.221013179236051e+00 3.859499896898525e+00 6.810940294664886e+00 6.221013179236051e+00 1.037781873447000e+01 6.810940294664886e+00 1.035970918025035e+01 1.037781873447000e+01 1.519462626965162e+01 1.035970918025035e+01 1.364601080724415e+01 1.519462626965162e+01 1.960073919657184e+01 1.364601080724415e+01 1.549031000944325e+01 1.960073919657184e+01 2.218965764965166e+01 1.549031000944325e+01 1.491350954273870e+01 2.218965764965166e+01 2.176957317866833e+01 1.491350954273870e+01 1.179165605707141e+01 2.176957317866833e+01 1.805928785838504e+01 1.420788619740905e+00 3.232456584987850e+00 2.314307958093303e+00 4.772251335492346e+00 3.232456584987850e+00 6.221013179236051e+00 4.772251335492347e+00 8.542318037414910e+00 6.221013179236051e+00 1.037781873447000e+01 8.542318037414910e+00 1.352583507759024e+01 1.037781873447000e+01 1.519462626965162e+01 1.352583507759024e+01 1.913175857276530e+01 1.519462626965162e+01 1.960073919657184e+01 1.913175857276530e+01 2.424739045048827e+01 1.960073919657184e+01 2.218965764965166e+01 2.424739045048827e+01 2.745037275059848e+01 2.218965764965166e+01 2.176957317866833e+01 2.745037275059848e+01 2.748563375422549e+01 2.176957317866833e+01 1.805928785838504e+01 2.748563375422549e+01 2.388409252283781e+01 2.314307958093303e+00 4.772251335492346e+00 3.337883294378276e+00 6.300165212633440e+00 4.772251335492347e+00 8.542318037414910e+00 6.300165212633440e+00 1.056296892601804e+01 8.542318037414910e+00 1.352583507759025e+01 1.056296892601804e+01 1.595951360627608e+01 1.352583507759025e+01 1.913175857276530e+01 1.595951360627608e+01 2.189565351667218e+01 1.913175857276530e+01 2.424739045048827e+01 2.189565351667218e+01 2.734177176424311e+01 2.424739045048827e+01 2.745037275059848e+01 2.734177176424311e+01 3.100121594278441e+01 2.745037275059848e+01 2.748563375422549e+01 3.100121594278441e+01 3.167294087082249e+01 2.748563375422549e+01 2.388409252283781e+01 3.167294087082249e+01 2.873970693079207e+01 3.337883294378276e+00 6.300165212633440e+00 4.398398172986209e+00 7.680616591650273e+00 6.300165212633440e+00 1.056296892601804e+01 7.680616591650273e+00 1.216060142205174e+01 1.056296892601804e+01 1.595951360627608e+01 1.216060142205174e+01 1.763980325125181e+01 1.595951360627608e+01 2.189565351667218e+01 1.763980325125181e+01 2.357479676570610e+01 2.189565351667218e+01 2.734177176424311e+01 2.357479676570610e+01 2.907899610001927e+01 2.734177176424311e+01 3.100121594278441e+01 2.907899610001927e+01 3.304536392979766e+01 3.100121594278441e+01 3.167294087082249e+01 3.304536392979766e+01 3.440263808241769e+01 3.167294087082249e+01 2.873970693079207e+01 3.440263808241769e+01 3.246982231900612e+01 
				</DataArray>
			</PointData>
			<CellData>
			</CellData>
		</Piece>
	</UnstructuredGrid>
</VTKFile>