Eigenvalues_0=
[ 0 6.43386990000000e-08 2.07362261000000e-07 2.07362261000000e-07 4.68088854000000e-07 4.65926333100000e-06 4.65926333100000e-06 1.07908745500000e-05 7.77805940250000e-05 9.45623573760000e-05 9.45623573760000e-05 0.000115831062702000 0.196858135930248 0.238845215814514 0.238845215814514 0.244846810247153 0.263433836695984 0.290831006675250 0.290831006675251 0.366576027329022 0.611882542145999 0.621484809072803 0.626152253191298 0.626152253191299 0.716154139490716 0.720748565351270 0.720748565351271 0.726015901338646 ]
;
Eigenvalues_1=
[ 0 0 0 0 0 0 0 0 0 0 0 0 0 0 8.25047300000000e-09 8.25047300000000e-09 1.33107930000000e-08 2.17229870000000e-08 2.17229870000000e-08 2.19816940000000e-08 5.77010390000000e-08 7.13340105500000e-06 8.14415224300000e-06 8.14415224300000e-06 9.53641071200000e-06 3.43600471230000e-05 7.25261214340000e-05 7.25261214350000e-05 9.75000810660000e-05 0.000221167160002000 0.000232347131242000 0.000232347131243000 0.000245559342372000 0.187925082063511 0.188896294441999 0.188896294441999 0.188997332515909 0.203868455138029 0.227772963767170 0.227772963767170 0.255809748070213 0.293833323727859 0.303555919169252 0.303555919169253 0.309005343969343 0.349987709596067 0.367273464735793 0.367273464735793 0.397956982345930 0.416508707176347 0.423794662869782 0.423794662869784 0.424031020273791 0.425659283324650 0.440501814969983 0.440501814969984 0.449745273504313 ]
;
Eigenvalues_2=
[ -1.00000000000000e-15 0 0 0 0 0 0 0 0 0 0 0 0 0 0 0 0 0 0 0 0 0 0 0 0 0 0 0 0 0 0 0 0 0 0 0 0 0 0 0 0 0 0 0 0 0 0 0 0 0 0 0 0 0 0 0 0 0 0 0 0 0 7.67280000000000e-11 7.67290000000000e-11 1.19529000000000e-10 2.54256000000000e-10 2.54257000000000e-10 3.02629000000000e-10 7.22214000000000e-10 1.63531080000000e-08 1.75424830000000e-08 1.75424830000000e-08 1.90819400000000e-08 9.36926750000000e-08 1.75704313000000e-07 1.75704313000000e-07 2.37675973000000e-07 7.04933980000000e-07 7.64663730000000e-07 7.64663730000000e-07 8.85018426000000e-07 2.17356886000000e-06 2.26224653300000e-06 2.26224653400000e-06 2.32088441200000e-06 2.87942766600000e-06 3.28167841800000e-06 3.28167841800000e-06 3.67360096100000e-06 0.000153381620362000 0.000154535451408000 0.000154535451408000 0.000156255411336000 0.000220091401560000 0.000239188070458000 0.000239188070459000 0.000266128051232000 0.000378801407318000 0.000410591611358000 0.000410591611359000 0.000433676607838000 0.00371346158736200 0.00371872232605600 0.00371872232605600 0.00372447442396200 0.132500932580128 0.132700106462588 0.132700106462589 0.132946902443197 0.169074744613879 0.169074744613879 0.170289690267224 0.170434144769687 0.172409089356893 0.175427309615354 0.175427309615355 0.181128107779149 0.182796961782129 0.198044516206424 0.198044516206424 0.210820318524389 0.210987659454838 0.210987659454839 0.211042363001316 0.213368704610030 0.217942541680302 0.227142803853840 0.227142803853840 0.227243089567068 0.227253862445196 0.227847845876140 0.227847845876140 0.231414012700625 0.232395642644626 0.232615136274557 0.232615136274558 0.235238484021212 0.236700525613825 0.239779110109779 0.239779110109780 0.241391156718975 0.242683350971024 0.243250479371129 0.243250479371130 0.243537646968652 ]
;
Eigenvalues_3=
[ -1.00000000000000e-15 0 0 0 0 0 0 0 0 0 0 0 0 0 0 0 0 0 0 0 0 0 0 0 0 0 0 0 0 0 0 0 0 0 0 0 0 0 0 0 0 0 0 0 0 0 0 0 0 0 0 0 0 0 0 0 0 0 0 0 0 0 0 0 0 0 0 0 0 0 0 0 0 0 0 0 0 0 0 0 0 0 0 0 0 0 0 0 0 0 0 0 0 0 0 0 0 0 0 0 0 0 0 0 0 0 0 0 0 0 0 0 0 0 0 0 0 0 0 0 0 0 0 0 0 0 0 0 0 0 0 0 0 0 0 0 0 0 0 0 0 0 0 0 0 0 0 0 0 0 0 0 0 0 0 0 0 0 0 0 0 0 0 0 0 0 0 0 0 0 0 0 0 0 0 0 0 0 0 0 0 0 0 0 0 0 0 0 0 0 0 0 0 0 0 0 0 0 0 0 0 0 0 0 0 0 0 0 1.00000000000000e-15 3.75000000000000e-13 3.75000000000000e-13 3.86000000000000e-13 1.18200000000000e-12 1.18300000000000e-12 1.78800000000000e-12 3.69500000000000e-12 2.08010000000000e-11 4.54350000000000e-11 4.54350000000000e-11 6.41240000000000e-11 2.82687000000000e-10 3.01644000000000e-10 3.01645000000000e-10 3.20091000000000e-10 3.23836900000000e-09 3.23836900000000e-09 3.28518500000000e-09 3.31459100000000e-09 6.85318100000000e-09 7.48458300000000e-09 7.48458300000000e-09 7.98445200000000e-09 1.30780940000000e-08 1.52540490000000e-08 1.52540500000000e-08 1.75201470000000e-08 3.06656020000000e-08 3.07597210000000e-08 3.07597210000000e-08 3.08262460000000e-08 6.31713630000000e-08 6.52468030000000e-08 6.52468030000000e-08 6.76938890000000e-08 1.73400299000000e-07 1.94677021000000e-07 1.94677021000000e-07 2.25142674000000e-07 4.18022873000000e-07 4.95838798000000e-07 4.95838798000000e-07 5.40031634000000e-07 5.82415021000000e-07 6.22717025000000e-07 6.22717026000000e-07 7.50361739000000e-07 1.19962793300000e-06 1.50836000600000e-06 1.50836000700000e-06 1.81460395900000e-06 2.57659451800000e-06 2.75296018300000e-06 2.75296018600000e-06 2.86948945800000e-06 2.01055880490000e-05 2.05209967350000e-05 2.05209967360000e-05 2.09445712970000e-05 8.49839298120000e-05 8.69489990140000e-05 8.69489990170000e-05 9.08658549910000e-05 9.62908541160000e-05 0.000101851220636000 0.000101851220637000 0.000105459052138000 0.000188831809083000 0.000189068195414000 0.000189068195414000 0.000189294982415000 0.000891232550685000 0.000901000655187000 0.000901000655189000 0.000911599098081000 0.00140314965809100 0.00143415067072400 0.00143415067072600 0.00146868104799200 0.00161203994420900 0.00162736754741000 0.00162736754741200 0.00163839237248900 0.00427994116776900 0.00428141371343000 0.00428141371343000 0.00428286667596500 0.0184361444496680 0.0184378034332010 0.0184378034332020 0.0184394786027730 0.0877827326054290 0.0878019744608960 0.0878019744608960 0.0878232239017040 0.0915424453905960 0.0917121134176360 0.0917121134176360 0.0919073879663780 0.0921482627753900 0.0921640312987840 0.0921640312987840 0.0921685430801990 0.106385912864286 0.106391796773287 0.106391796773287 0.106393123133050 0.107996636261042 0.109025540344640 0.109025540344641 0.110357612760959 0.112778592503449 0.112779083523637 0.112779083523637 0.112779737284979 0.114490104803500 0.115790477131318 0.115790477131318 0.116992807818334 0.117576818102615 0.117577304534709 0.117577353254523 0.117577353254523 0.119206711480114 0.119656505247511 0.119656505247511 0.119695414094342 0.119763593208335 0.120028781761903 0.120028781761903 0.120423146347542 0.120644347254579 0.120693304958736 0.120693304958736 0.121036703518767 0.121196558291513 0.121198347626397 0.121198347626398 0.121269031024580 0.121348887282948 0.121946004334758 0.121946004334758 0.122339404520406 0.122389228160375 0.122389271943534 0.122389271943535 0.122390387856892 0.122678083856505 0.122909655206070 0.122909655206070 0.123068273110116 0.123316831094795 0.123380295777078 0.123380295777078 0.123420205074554 0.123979225624773 0.123981106876810 0.123981106876810 0.123982943325769 0.124331421977726 0.124331480802118 0.124331480802119 0.124331539541289 ]
;
