1 0
2 0
3 0
4 0
5 0
6 0
7 0
8 0
9 0
10 0
11 0
12 0
13 0
14 0
15 0
16 0
17 0
18 0
19 0
20 0
21 0
22 0
23 0
24 0
25 0
26 0
27 0
28 0
29 0
30 0
31 0
32 0
33 0
34 0
35 0
36 0
37 0
38 0
39 0
40 0
41 0
42 0
43 0
44 0
45 0
46 0
47 0
48 0
49 0
50 0
51 0
52 0
53 0
54 0
55 0
56 0
57 0
58 0
59 0
60 0
61 0
62 0
63 0
64 0
65 0
66 0
67 0
68 0
69 0
70 0
71 0
72 0
73 0
74 0
75 0
76 0
77 0
78 0
79 0
80 0
81 0
82 0
83 0
84 0
85 0
86 0
87 0
88 0
89 0
90 0
91 0
92 0
93 0
94 0
95 0
96 0
97 0
98 0
99 0
100 0
101 0
102 0
103 0
104 0
105 0
106 0
107 0
108 0
109 0
110 0
111 0
112 0
113 0
114 0
115 0
116 0
117 0
118 0
119 0
120 0
121 0
122 0
123 0
124 0
125 0
126 0
127 0
128 0
129 0
130 0
131 0
132 0
133 0
134 0
135 0
136 0
137 0
138 0
139 0
140 0
141 0
142 0
143 0
144 0
145 0
146 0
147 0
148 0
149 0
150 0
151 0
152 0
153 0
154 0
155 0
156 0
157 0
158 0
159 0
160 0
161 0
162 0
163 0
164 0
165 0
166 0
167 0
168 0
169 0
170 0
171 0
172 0
173 0
174 0
175 0
176 0
177 0
178 0
179 0
180 0
181 0
182 0
183 0
184 0
185 0
186 0
187 0
188 0
189 0
190 0
191 0
192 0
193 0
194 0
195 0
196 0
197 0
198 0
199 0
200 0
201 0
202 0
203 0
204 0
205 0
206 0
207 0
208 1.000000e-15
209 1.000000e-15
210 3.750000e-13
211 3.750000e-13
212 3.860000e-13
213 1.182000e-12
214 1.183000e-12
215 1.788000e-12
216 3.695000e-12
217 2.080100e-11
218 4.543500e-11
219 4.543500e-11
220 6.412400e-11
221 2.826870e-10
222 3.016440e-10
223 3.016450e-10
224 3.200910e-10
225 3.238369e-09
226 3.238369e-09
227 3.285185e-09
228 3.314591e-09
229 6.853181e-09
230 7.484583e-09
231 7.484583e-09
232 7.984452e-09
233 1.307809e-08
234 1.525405e-08
235 1.525405e-08
236 1.752015e-08
237 3.066560e-08
238 3.075972e-08
239 3.075972e-08
240 3.082625e-08
241 6.317136e-08
242 6.524680e-08
243 6.524680e-08
244 6.769389e-08
245 1.734003e-07
246 1.946770e-07
247 1.946770e-07
248 2.251427e-07
249 4.180229e-07
250 4.958388e-07
251 4.958388e-07
252 5.400316e-07
253 5.824150e-07
254 6.227170e-07
255 6.227170e-07
256 7.503617e-07
257 1.199628e-06
258 1.508360e-06
259 1.508360e-06
260 1.814604e-06
261 2.576595e-06
262 2.752960e-06
263 2.752960e-06
264 2.869489e-06
265 2.010559e-05
266 2.052100e-05
267 2.052100e-05
268 2.094457e-05
269 8.498393e-05
270 8.694900e-05
271 8.694900e-05
272 9.086585e-05
273 9.629085e-05
274 1.018512e-04
275 1.018512e-04
276 1.054591e-04
277 1.888318e-04
278 1.890682e-04
279 1.890682e-04
280 1.892950e-04
281 8.912326e-04
282 9.010007e-04
283 9.010007e-04
284 9.115991e-04
285 1.403150e-03
286 1.434151e-03
287 1.434151e-03
288 1.468681e-03
289 1.612040e-03
290 1.627368e-03
291 1.627368e-03
292 1.638392e-03
293 4.279941e-03
294 4.281414e-03
295 4.281414e-03
296 4.282867e-03
297 1.843614e-02
298 1.843780e-02
299 1.843780e-02
300 1.843948e-02
301 8.778273e-02
302 8.780197e-02
303 8.780197e-02
304 8.782322e-02
305 9.154245e-02
306 9.171211e-02
307 9.171211e-02
308 9.190739e-02
309 9.214826e-02
310 9.216403e-02
311 9.216403e-02
312 9.216854e-02
313 1.063859e-01
314 1.063918e-01
315 1.063918e-01
316 1.063931e-01
317 1.079966e-01
318 1.090255e-01
319 1.090255e-01
320 1.103576e-01
321 1.127786e-01
322 1.127791e-01
323 1.127791e-01
324 1.127797e-01
325 1.144901e-01
326 1.157905e-01
327 1.157905e-01
328 1.169928e-01
329 1.175768e-01
330 1.175773e-01
331 1.175774e-01
332 1.175774e-01
333 1.192067e-01
334 1.196565e-01
335 1.196565e-01
336 1.196954e-01
337 1.197636e-01
338 1.200288e-01
339 1.200288e-01
340 1.204231e-01
341 1.206443e-01
342 1.206933e-01
343 1.206933e-01
344 1.210367e-01
345 1.211966e-01
346 1.211983e-01
347 1.211983e-01
348 1.212690e-01
349 1.213489e-01
350 1.219460e-01
351 1.219460e-01
352 1.223394e-01
353 1.223892e-01
354 1.223893e-01
355 1.223893e-01
356 1.223904e-01
357 1.226781e-01
358 1.229097e-01
359 1.229097e-01
360 1.230683e-01
361 1.233168e-01
362 1.233803e-01
363 1.233803e-01
364 1.234202e-01
365 1.239792e-01
366 1.239811e-01
367 1.239811e-01
368 1.239829e-01
369 1.243314e-01
370 1.243315e-01
371 1.243315e-01
372 1.243315e-01
