1 0
2 0
3 0
4 0
5 0
6 0
7 0
8 0
9 0
10 0
11 0
12 0
13 0
14 0
15 0
16 0
17 0
18 0
19 0
20 0
21 0
22 0
23 0
24 0
25 0
26 0
27 0
28 0
29 0
30 0
31 0
32 0
33 0
34 0
35 0
36 0
37 0
38 0
39 0
40 0
41 0
42 0
43 0
44 0
45 0
46 0
47 0
48 0
49 0
50 0
51 0
52 0
53 0
54 0
55 0
56 0
57 0
58 0
59 0
60 0
61 0
62 0
63 0
64 0
65 0
66 0
67 0
68 0
69 0
70 0
71 0
72 0
73 0
74 0
75 0
76 0
77 0
78 0
79 0
80 0
81 0
82 0
83 0
84 0
85 0
86 0
87 0
88 0
89 0
90 0
91 0
92 0
93 0
94 0
95 0
96 0
97 0
98 0
99 0
100 0
101 0
102 0
103 0
104 0
105 0
106 0
107 0
108 0
109 0
110 0
111 0
112 0
113 0
114 0
115 0
116 0
117 0
118 0
119 0
120 0
121 0
122 0
123 0
124 0
125 0
126 0
127 0
128 0
129 0
130 0
131 0
132 0
133 0
134 0
135 0
136 0
137 0
138 0
139 0
140 0
141 0
142 0
143 0
144 0
145 0
146 0
147 0
148 0
149 0
150 0
151 0
152 0
153 0
154 0
155 0
156 0
157 0
158 0
159 0
160 0
161 0
162 0
163 0
164 0
165 0
166 0
167 0
168 0
169 0
170 0
171 0
172 0
173 0
174 0
175 0
176 0
177 0
178 0
179 0
180 0
181 0
182 0
183 0
184 0
185 0
186 0
187 0
188 0
189 0
190 0
191 0
192 0
193 0
194 0
195 0
196 0
197 0
198 0
199 0
200 0
201 0
202 0
203 0
204 0
205 0
206 0
207 0
208 0
209 0
210 0
211 0
212 0
213 0
214 0
215 0
216 0
217 0
218 0
219 0
220 0
221 0
222 0
223 0
224 0
225 0
226 0
227 0
228 0
229 0
230 0
231 0
232 0
233 0
234 0
235 0
236 0
237 0
238 0
239 0
240 0
241 0
242 0
243 0
244 0
245 0
246 0
247 0
248 0
249 0
250 0
251 0
252 0
253 0
254 0
255 0
256 0
257 0
258 0
259 0
260 0
261 0
262 0
263 0
264 0
265 0
266 0
267 0
268 0
269 0
270 0
271 0
272 0
273 0
274 0
275 0
276 0
277 0
278 0
279 0
280 0
281 0
282 0
283 0
284 0
285 0
286 0
287 0
288 0
289 0
290 0
291 0
292 0
293 0
294 0
295 0
296 0
297 0
298 0
299 0
300 0
301 0
302 0
303 0
304 0
305 0
306 0
307 0
308 0
309 0
310 0
311 0
312 0
313 0
314 0
315 0
316 0
317 0
318 0
319 0
320 0
321 0
322 0
323 0
324 0
325 0
326 0
327 0
328 0
329 0
330 0
331 0
332 0
333 0
334 0
335 0
336 0
337 0
338 0
339 0
340 0
341 0
342 0
343 0
344 0
345 0
346 0
347 0
348 0
349 0
350 0
351 0
352 0
353 0
354 0
355 0
356 1.000000e-15
357 1.000000e-15
358 1.000000e-15
359 1.000000e-15
360 1.000000e-15
361 1.000000e-15
362 2.000000e-15
363 2.000000e-15
364 2.000000e-15
365 9.827200e-09
366 9.967975e-09
367 9.967975e-09
368 1.010770e-08
369 1.724290e-07
370 1.762902e-07
371 1.762902e-07
372 1.803825e-07
373 3.906504e-07
374 4.222283e-07
375 4.222283e-07
376 4.692390e-07
377 5.812234e-07
378 6.310294e-07
379 6.310294e-07
380 6.653529e-07
381 6.491669e-06
382 6.551524e-06
383 6.551524e-06
384 6.612906e-06
385 2.836677e-05
386 2.847305e-05
387 2.847305e-05
388 2.859788e-05
389 3.272016e-05
390 3.325690e-05
391 3.325690e-05
392 3.377456e-05
393 5.569836e-05
394 5.575122e-05
395 5.575122e-05
396 5.580211e-05
397 2.935263e-04
398 2.950995e-04
399 2.950995e-04
400 2.967083e-04
401 5.143314e-04
402 5.175141e-04
403 5.175141e-04
404 5.213604e-04
405 6.169042e-04
406 6.271299e-04
407 6.271299e-04
408 6.366980e-04
409 1.550116e-03
410 1.550632e-03
411 1.550632e-03
412 1.551138e-03
413 7.604389e-03
414 7.605184e-03
415 7.605184e-03
416 7.605987e-03
417 7.576929e-02
418 7.577394e-02
419 7.577394e-02
420 7.577871e-02
421 8.718565e-02
422 8.721319e-02
423 8.721319e-02
424 8.724888e-02
425 8.931444e-02
426 8.974352e-02
427 8.974352e-02
428 9.030502e-02
429 9.948421e-02
430 1.004674e-01
431 1.004674e-01
432 1.004727e-01
433 1.005675e-01
434 1.017648e-01
435 1.017648e-01
436 1.050507e-01
437 1.080261e-01
438 1.111027e-01
439 1.111027e-01
440 1.111766e-01
441 1.111780e-01
442 1.111780e-01
443 1.111793e-01
444 1.132814e-01
445 1.170459e-01
446 1.170685e-01
447 1.170685e-01
448 1.170688e-01
449 1.171856e-01
450 1.183996e-01
451 1.183996e-01
452 1.196231e-01
453 1.197997e-01
454 1.198008e-01
455 1.198008e-01
456 1.198411e-01
457 1.204388e-01
458 1.212514e-01
459 1.212514e-01
460 1.214955e-01
461 1.215515e-01
462 1.215855e-01
463 1.215855e-01
464 1.219944e-01
465 1.220478e-01
466 1.220593e-01
467 1.220593e-01
468 1.220595e-01
469 1.223608e-01
470 1.227151e-01
471 1.227151e-01
472 1.227406e-01
473 1.227498e-01
474 1.227876e-01
475 1.227876e-01
476 1.230272e-01
477 1.233653e-01
478 1.234680e-01
479 1.234680e-01
480 1.234681e-01
481 1.234681e-01
482 1.235035e-01
483 1.235035e-01
484 1.236010e-01
485 1.238582e-01
486 1.238933e-01
487 1.238933e-01
488 1.239193e-01
489 1.242022e-01
490 1.242051e-01
491 1.242051e-01
492 1.242078e-01
493 1.245720e-01
494 1.245721e-01
495 1.245721e-01
496 1.245721e-01
