1 0
2 0
3 0
4 0
5 0
6 0
7 0
8 0
9 0
10 0
11 0
12 0
13 0
14 0
15 0
16 0
17 0
18 0
19 0
20 0
21 0
22 0
23 0
24 0
25 0
26 0
27 0
28 0
29 0
30 0
31 0
32 0
33 0
34 0
35 0
36 0
37 0
38 0
39 0
40 0
41 0
42 0
43 0
44 0
45 0
46 0
47 0
48 0
49 0
50 0
51 0
52 0
53 0
54 0
55 0
56 0
57 0
58 0
59 0
60 0
61 0
62 0
63 0
64 0
65 0
66 0
67 0
68 0
69 0
70 0
71 0
72 0
73 0
74 0
75 0
76 0
77 0
78 0
79 0
80 0
81 0
82 0
83 0
84 0
85 0
86 0
87 0
88 0
89 0
90 0
91 0
92 0
93 0
94 0
95 0
96 0
97 0
98 0
99 0
100 0
101 0
102 0
103 0
104 0
105 0
106 0
107 0
108 0
109 0
110 0
111 0
112 0
113 0
114 0
115 0
116 0
117 0
118 0
119 0
120 0
121 0
122 0
123 0
124 0
125 0
126 0
127 0
128 0
129 0
130 0
131 0
132 0
133 0
134 0
135 1.000000e-15
136 1.000000e-15
137 2.770977e-06
138 2.799040e-06
139 2.799040e-06
140 2.827790e-06
141 5.089879e-05
142 5.454661e-05
143 5.454661e-05
144 6.018252e-05
145 8.347269e-05
146 9.433290e-05
147 9.433290e-05
148 1.044609e-04
149 1.535970e-04
150 1.586966e-04
151 1.586966e-04
152 1.625258e-04
153 1.419547e-03
154 1.420152e-03
155 1.420152e-03
156 1.420772e-03
157 8.904694e-02
158 8.905786e-02
159 8.905786e-02
160 8.906847e-02
161 1.454774e-01
162 1.484993e-01
163 1.484993e-01
164 1.515812e-01
165 1.644394e-01
166 1.654760e-01
167 1.654760e-01
168 1.662645e-01
169 1.784603e-01
170 1.848849e-01
171 1.848849e-01
172 1.965994e-01
173 2.003790e-01
174 2.006672e-01
175 2.006672e-01
176 2.008128e-01
177 2.068831e-01
178 2.186649e-01
179 2.186649e-01
180 2.247773e-01
181 2.247905e-01
182 2.247905e-01
183 2.247978e-01
184 2.294741e-01
185 2.299672e-01
186 2.351913e-01
187 2.351913e-01
188 2.353892e-01
189 2.356220e-01
190 2.366770e-01
191 2.366770e-01
192 2.379527e-01
193 2.383317e-01
194 2.385142e-01
195 2.385142e-01
196 2.403800e-01
197 2.414601e-01
198 2.431035e-01
199 2.431035e-01
200 2.440035e-01
201 2.448919e-01
202 2.452003e-01
203 2.452003e-01
204 2.453660e-01
