<?xml version="1.0"?>
<VTKFile type="UnstructuredGrid" byte_order="LittleEndian">
	<UnstructuredGrid>
		<Piece NumberOfPoints="64" NumberOfCells="16">
			<Points>
				<DataArray type="Float64" NumberOfComponents="3" format="ascii">
					-1.000000000000000e+00 -1.000000000000000e+00 0.000000000000000e+00
					-8.338955762008279e-01 -8.338955762008279e-01 0.000000000000000e+00
					-1.375000000000000e+00 -5.000000000000000e-01 0.000000000000000e+00
					-1.046184735125518e+00 -4.169477881004139e-01 0.000000000000000e+00
					-8.338955762008279e-01 -8.338955762008279e-01 0.000000000000000e+00
					-6.951941016011038e-01 -6.951941016011038e-01 0.000000000000000e+00
					-1.046184735125518e+00 -4.169477881004139e-01 0.000000000000000e+00
					-7.907463135006900e-01 -3.475970508005519e-01 0.000000000000000e+00
					-6.951941016011038e-01 -6.951941016011038e-01 0.000000000000000e+00
					-5.838955762008279e-01 -5.838955762008279e-01 0.000000000000000e+00
					-7.907463135006900e-01 -3.475970508005519e-01 0.000000000000000e+00
					-6.086847351255175e-01 -2.919477881004139e-01 0.000000000000000e+00
					-5.838955762008279e-01 -5.838955762008279e-01 0.000000000000000e+00
					-5.000000000000000e-01 -5.000000000000000e-01 0.000000000000000e+00
					-6.086847351255175e-01 -2.919477881004139e-01 0.000000000000000e+00
					-5.000000000000000e-01 -2.500000000000000e-01 0.000000000000000e+00
					-1.375000000000000e+00 -5.000000000000000e-01 0.000000000000000e+00
					-1.046184735125518e+00 -4.169477881004139e-01 0.000000000000000e+00
					-1.500000000000000e+00 5.551115123125783e-17 0.000000000000000e+00
					-1.116947788100414e+00 5.551115123125783e-17 0.000000000000000e+00
					-1.046184735125518e+00 -4.169477881004139e-01 0.000000000000000e+00
					-7.907463135006900e-01 -3.475970508005519e-01 0.000000000000000e+00
					-1.116947788100414e+00 5.551115123125783e-17 0.000000000000000e+00
					-8.225970508005521e-01 4.163336342344337e-17 0.000000000000000e+00
					-7.907463135006900e-01 -3.475970508005519e-01 0.000000000000000e+00
					-6.086847351255175e-01 -2.919477881004139e-01 0.000000000000000e+00
					-8.225970508005521e-01 4.163336342344337e-17 0.000000000000000e+00
					-6.169477881004140e-01 4.163336342344337e-17 0.000000000000000e+00
					-6.086847351255175e-01 -2.919477881004139e-01 0.000000000000000e+00
					-5.000000000000000e-01 -2.500000000000000e-01 0.000000000000000e+00
					-6.169477881004140e-01 4.163336342344337e-17 0.000000000000000e+00
					-5.000000000000000e-01 2.775557561562891e-17 0.000000000000000e+00
					-1.500000000000000e+00 5.551115123125783e-17 0.000000000000000e+00
					-1.116947788100414e+00 5.551115123125783e-17 0.000000000000000e+00
					-1.375000000000000e+00 5.000000000000000e-01 0.000000000000000e+00
					-1.046184735125517e+00 4.169477881004139e-01 0.000000000000000e+00
					-1.116947788100414e+00 5.551115123125783e-17 0.000000000000000e+00
					-8.225970508005521e-01 4.163336342344337e-17 0.000000000000000e+00
					-1.046184735125517e+00 4.169477881004139e-01 0.000000000000000e+00
					-7.907463135006900e-01 3.475970508005519e-01 0.000000000000000e+00
					-8.225970508005521e-01 4.163336342344337e-17 0.000000000000000e+00
					-6.169477881004140e-01 4.163336342344337e-17 0.000000000000000e+00
					-7.907463135006900e-01 3.475970508005519e-01 0.000000000000000e+00
					-6.086847351255174e-01 2.919477881004139e-01 0.000000000000000e+00
					-6.169477881004140e-01 4.163336342344337e-17 0.000000000000000e+00
					-5.000000000000000e-01 2.775557561562891e-17 0.000000000000000e+00
					-6.086847351255174e-01 2.919477881004139e-01 0.000000000000000e+00
					-5.000000000000000e-01 2.500000000000000e-01 0.000000000000000e+00
					-1.375000000000000e+00 5.000000000000000e-01 0.000000000000000e+00
					-1.046184735125517e+00 4.169477881004139e-01 0.000000000000000e+00
					-1.000000000000000e+00 1.000000000000000e+00 0.000000000000000e+00
					-8.338955762008279e-01 8.338955762008279e-01 0.000000000000000e+00
					-1.046184735125517e+00 4.169477881004139e-01 0.000000000000000e+00
					-7.907463135006900e-01 3.475970508005519e-01 0.000000000000000e+00
					-8.338955762008279e-01 8.338955762008279e-01 0.000000000000000e+00
					-6.951941016011038e-01 6.951941016011038e-01 0.000000000000000e+00
					-7.907463135006900e-01 3.475970508005519e-01 0.000000000000000e+00
					-6.086847351255174e-01 2.919477881004139e-01 0.000000000000000e+00
					-6.951941016011038e-01 6.951941016011038e-01 0.000000000000000e+00
					-5.838955762008279e-01 5.838955762008279e-01 0.000000000000000e+00
					-6.086847351255174e-01 2.919477881004139e-01 0.000000000000000e+00
					-5.000000000000000e-01 2.500000000000000e-01 0.000000000000000e+00
					-5.838955762008279e-01 5.838955762008279e-01 0.000000000000000e+00
					-5.000000000000000e-01 5.000000000000000e-01 0.000000000000000e+00
				</DataArray>
			</Points>
			<Cells>
				<DataArray Name="connectivity" type="UInt32" format="ascii">
					0 1 3 2 4 5 7 6 8 9 11 10 12 13 15 14 16 17 19 18 20 21 23 22 24 25 27 26 28 29 31 30 32 33 35 34 36 37 39 38 40 41 43 42 44 45 47 46 48 49 51 50 52 53 55 54 56 57 59 58 60 61 63 62 
				</DataArray>
				<DataArray Name="offsets" type="UInt32" format="ascii">
					4 8 12 16 20 24 28 32 36 40 44 48 52 56 60 64 
				</DataArray>
				<DataArray Name="types" type="UInt8" format="ascii">
					9 9 9 9 9 9 9 9 9 9 9 9 9 9 9 9 
				</DataArray>
			</Cells>
			<PointData Vectors="solution ">
				<DataArray Name="solution" type="Float64" NumberOfComponents="1" format="ascii">
					0.000000000000000e+00 8.934272493381870e-03 0.000000000000000e+00 6.715210816312146e-02 8.934272493381870e-03 1.856607082620444e-01 6.715210816312146e-02 7.875772704531862e-01 1.856607082620444e-01 7.167048305677183e-01 7.875772704531862e-01 2.519490366314727e+00 7.167048305677183e-01 1.616468851296708e+00 2.519490366314727e+00 4.472541886522711e+00 0.000000000000000e+00 6.715210816312146e-02 0.000000000000000e+00 1.937711919718748e-01 6.715210816312146e-02 7.875772704531862e-01 1.937711919718748e-01 1.978741478066285e+00 7.875772704531862e-01 2.519490366314727e+00 1.978741478066285e+00 5.544141638240853e+00 2.519490366314727e+00 4.472541886522711e+00 5.544141638240853e+00 8.671851031529604e+00 0.000000000000000e+00 1.937711919718748e-01 0.000000000000000e+00 3.559176799038192e-01 1.937711919718748e-01 1.978741478066285e+00 3.559176799038192e-01 3.162853949265696e+00 1.978741478066285e+00 5.544141638240853e+00 3.162853949265696e+00 8.102634338472827e+00 5.544141638240853e+00 8.671851031529604e+00 8.102634338472827e+00 1.215512491330118e+01 0.000000000000000e+00 3.559176799038192e-01 0.000000000000000e+00 3.601099298484413e-01 3.559176799038192e-01 3.162853949265696e+00 3.601099298484413e-01 2.945031158541588e+00 3.162853949265696e+00 8.102634338472827e+00 2.945031158541588e+00 7.419779101388530e+00 8.102634338472827e+00 1.215512491330118e+01 7.419779101388530e+00 1.194360690931266e+01 
				</DataArray>
			</PointData>
			<CellData>
			</CellData>
		</Piece>
	</UnstructuredGrid>
</VTKFile>