<?xml version="1.0"?>
<VTKFile type="UnstructuredGrid" byte_order="LittleEndian">
	<UnstructuredGrid>
		<Piece NumberOfPoints="256" NumberOfCells="64">
			<Points>
				<DataArray type="Float64" NumberOfComponents="3" format="ascii">
					-5.000000000000000e-01 -5.000000000000000e-01 0.000000000000000e+00
					-3.750000000000000e-01 -5.000000000000000e-01 0.000000000000000e+00
					-5.000000000000000e-01 -3.750000000000000e-01 0.000000000000000e+00
					-3.750000000000000e-01 -3.750000000000000e-01 0.000000000000000e+00
					-3.750000000000000e-01 -5.000000000000000e-01 0.000000000000000e+00
					-2.500000000000000e-01 -5.000000000000000e-01 0.000000000000000e+00
					-3.750000000000000e-01 -3.750000000000000e-01 0.000000000000000e+00
					-2.500000000000000e-01 -3.750000000000000e-01 0.000000000000000e+00
					-2.500000000000000e-01 -5.000000000000000e-01 0.000000000000000e+00
					-1.250000000000000e-01 -5.000000000000000e-01 0.000000000000000e+00
					-2.500000000000000e-01 -3.750000000000000e-01 0.000000000000000e+00
					-1.250000000000000e-01 -3.750000000000000e-01 0.000000000000000e+00
					-1.250000000000000e-01 -5.000000000000000e-01 0.000000000000000e+00
					3.469446951953614e-17 -5.000000000000000e-01 0.000000000000000e+00
					-1.250000000000000e-01 -3.750000000000000e-01 0.000000000000000e+00
					3.469446951953615e-17 -3.750000000000000e-01 0.000000000000000e+00
					3.469446951953614e-17 -5.000000000000000e-01 0.000000000000000e+00
					1.250000000000001e-01 -5.000000000000000e-01 0.000000000000000e+00
					3.469446951953615e-17 -3.750000000000000e-01 0.000000000000000e+00
					1.250000000000001e-01 -3.750000000000000e-01 0.000000000000000e+00
					1.250000000000001e-01 -5.000000000000000e-01 0.000000000000000e+00
					2.500000000000001e-01 -5.000000000000000e-01 0.000000000000000e+00
					1.250000000000001e-01 -3.750000000000000e-01 0.000000000000000e+00
					2.500000000000001e-01 -3.750000000000000e-01 0.000000000000000e+00
					2.500000000000001e-01 -5.000000000000000e-01 0.000000000000000e+00
					3.750000000000000e-01 -5.000000000000000e-01 0.000000000000000e+00
					2.500000000000001e-01 -3.750000000000000e-01 0.000000000000000e+00
					3.750000000000000e-01 -3.750000000000000e-01 0.000000000000000e+00
					3.750000000000000e-01 -5.000000000000000e-01 0.000000000000000e+00
					5.000000000000000e-01 -5.000000000000000e-01 0.000000000000000e+00
					3.750000000000000e-01 -3.750000000000000e-01 0.000000000000000e+00
					5.000000000000000e-01 -3.750000000000000e-01 0.000000000000000e+00
					-5.000000000000000e-01 -3.750000000000000e-01 0.000000000000000e+00
					-3.750000000000000e-01 -3.750000000000000e-01 0.000000000000000e+00
					-5.000000000000000e-01 -2.500000000000000e-01 0.000000000000000e+00
					-3.750000000000001e-01 -2.500000000000000e-01 0.000000000000000e+00
					-3.750000000000000e-01 -3.750000000000000e-01 0.000000000000000e+00
					-2.500000000000000e-01 -3.750000000000000e-01 0.000000000000000e+00
					-3.750000000000001e-01 -2.500000000000000e-01 0.000000000000000e+00
					-2.500000000000000e-01 -2.500000000000000e-01 0.000000000000000e+00
					-2.500000000000000e-01 -3.750000000000000e-01 0.000000000000000e+00
					-1.250000000000000e-01 -3.750000000000000e-01 0.000000000000000e+00
					-2.500000000000000e-01 -2.500000000000000e-01 0.000000000000000e+00
					-1.250000000000000e-01 -2.500000000000000e-01 0.000000000000000e+00
					-1.250000000000000e-01 -3.750000000000000e-01 0.000000000000000e+00
					3.469446951953615e-17 -3.750000000000000e-01 0.000000000000000e+00
					-1.250000000000000e-01 -2.500000000000000e-01 0.000000000000000e+00
					3.469446951953615e-17 -2.500000000000000e-01 0.000000000000000e+00
					3.469446951953615e-17 -3.750000000000000e-01 0.000000000000000e+00
					1.250000000000001e-01 -3.750000000000000e-01 0.000000000000000e+00
					3.469446951953615e-17 -2.500000000000000e-01 0.000000000000000e+00
					1.250000000000001e-01 -2.500000000000000e-01 0.000000000000000e+00
					1.250000000000001e-01 -3.750000000000000e-01 0.000000000000000e+00
					2.500000000000001e-01 -3.750000000000000e-01 0.000000000000000e+00
					1.250000000000001e-01 -2.500000000000000e-01 0.000000000000000e+00
					2.500000000000001e-01 -2.500000000000000e-01 0.000000000000000e+00
					2.500000000000001e-01 -3.750000000000000e-01 0.000000000000000e+00
					3.750000000000000e-01 -3.750000000000000e-01 0.000000000000000e+00
					2.500000000000001e-01 -2.500000000000000e-01 0.000000000000000e+00
					3.750000000000001e-01 -2.500000000000000e-01 0.000000000000000e+00
					3.750000000000000e-01 -3.750000000000000e-01 0.000000000000000e+00
					5.000000000000000e-01 -3.750000000000000e-01 0.000000000000000e+00
					3.750000000000001e-01 -2.500000000000000e-01 0.000000000000000e+00
					5.000000000000000e-01 -2.500000000000000e-01 0.000000000000000e+00
					-5.000000000000000e-01 -2.500000000000000e-01 0.000000000000000e+00
					-3.750000000000001e-01 -2.500000000000000e-01 0.000000000000000e+00
					-5.000000000000000e-01 -1.250000000000000e-01 0.000000000000000e+00
					-3.750000000000001e-01 -1.250000000000000e-01 0.000000000000000e+00
					-3.750000000000001e-01 -2.500000000000000e-01 0.000000000000000e+00
					-2.500000000000000e-01 -2.500000000000000e-01 0.000000000000000e+00
					-3.750000000000001e-01 -1.250000000000000e-01 0.000000000000000e+00
					-2.500000000000000e-01 -1.250000000000000e-01 0.000000000000000e+00
					-2.500000000000000e-01 -2.500000000000000e-01 0.000000000000000e+00
					-1.250000000000000e-01 -2.500000000000000e-01 0.000000000000000e+00
					-2.500000000000000e-01 -1.250000000000000e-01 0.000000000000000e+00
					-1.250000000000000e-01 -1.250000000000000e-01 0.000000000000000e+00
					-1.250000000000000e-01 -2.500000000000000e-01 0.000000000000000e+00
					3.469446951953615e-17 -2.500000000000000e-01 0.000000000000000e+00
					-1.250000000000000e-01 -1.250000000000000e-01 0.000000000000000e+00
					3.469446951953615e-17 -1.250000000000000e-01 0.000000000000000e+00
					3.469446951953615e-17 -2.500000000000000e-01 0.000000000000000e+00
					1.250000000000001e-01 -2.500000000000000e-01 0.000000000000000e+00
					3.469446951953615e-17 -1.250000000000000e-01 0.000000000000000e+00
					1.250000000000001e-01 -1.250000000000000e-01 0.000000000000000e+00
					1.250000000000001e-01 -2.500000000000000e-01 0.000000000000000e+00
					2.500000000000001e-01 -2.500000000000000e-01 0.000000000000000e+00
					1.250000000000001e-01 -1.250000000000000e-01 0.000000000000000e+00
					2.500000000000001e-01 -1.250000000000000e-01 0.000000000000000e+00
					2.500000000000001e-01 -2.500000000000000e-01 0.000000000000000e+00
					3.750000000000001e-01 -2.500000000000000e-01 0.000000000000000e+00
					2.500000000000001e-01 -1.250000000000000e-01 0.000000000000000e+00
					3.750000000000001e-01 -1.250000000000000e-01 0.000000000000000e+00
					3.750000000000001e-01 -2.500000000000000e-01 0.000000000000000e+00
					5.000000000000000e-01 -2.500000000000000e-01 0.000000000000000e+00
					3.750000000000001e-01 -1.250000000000000e-01 0.000000000000000e+00
					5.000000000000000e-01 -1.250000000000000e-01 0.000000000000000e+00
					-5.000000000000000e-01 -1.250000000000000e-01 0.000000000000000e+00
					-3.750000000000001e-01 -1.250000000000000e-01 0.000000000000000e+00
					-5.000000000000000e-01 3.469446951953614e-17 0.000000000000000e+00
					-3.750000000000001e-01 3.469446951953614e-17 0.000000000000000e+00
					-3.750000000000001e-01 -1.250000000000000e-01 0.000000000000000e+00
					-2.500000000000000e-01 -1.250000000000000e-01 0.000000000000000e+00
					-3.750000000000001e-01 3.469446951953614e-17 0.000000000000000e+00
					-2.500000000000000e-01 3.469446951953614e-17 0.000000000000000e+00
					-2.500000000000000e-01 -1.250000000000000e-01 0.000000000000000e+00
					-1.250000000000000e-01 -1.250000000000000e-01 0.000000000000000e+00
					-2.500000000000000e-01 3.469446951953614e-17 0.000000000000000e+00
					-1.250000000000000e-01 3.469446951953614e-17 0.000000000000000e+00
					-1.250000000000000e-01 -1.250000000000000e-01 0.000000000000000e+00
					3.469446951953615e-17 -1.250000000000000e-01 0.000000000000000e+00
					-1.250000000000000e-01 3.469446951953614e-17 0.000000000000000e+00
					3.469446951953615e-17 3.469446951953614e-17 0.000000000000000e+00
					3.469446951953615e-17 -1.250000000000000e-01 0.000000000000000e+00
					1.250000000000001e-01 -1.250000000000000e-01 0.000000000000000e+00
					3.469446951953615e-17 3.469446951953614e-17 0.000000000000000e+00
					1.250000000000001e-01 3.469446951953614e-17 0.000000000000000e+00
					1.250000000000001e-01 -1.250000000000000e-01 0.000000000000000e+00
					2.500000000000001e-01 -1.250000000000000e-01 0.000000000000000e+00
					1.250000000000001e-01 3.469446951953614e-17 0.000000000000000e+00
					2.500000000000001e-01 3.469446951953614e-17 0.000000000000000e+00
					2.500000000000001e-01 -1.250000000000000e-01 0.000000000000000e+00
					3.750000000000001e-01 -1.250000000000000e-01 0.000000000000000e+00
					2.500000000000001e-01 3.469446951953614e-17 0.000000000000000e+00
					3.750000000000001e-01 3.469446951953614e-17 0.000000000000000e+00
					3.750000000000001e-01 -1.250000000000000e-01 0.000000000000000e+00
					5.000000000000000e-01 -1.250000000000000e-01 0.000000000000000e+00
					3.750000000000001e-01 3.469446951953614e-17 0.000000000000000e+00
					5.000000000000000e-01 3.469446951953614e-17 0.000000000000000e+00
					-5.000000000000000e-01 3.469446951953614e-17 0.000000000000000e+00
					-3.750000000000001e-01 3.469446951953614e-17 0.000000000000000e+00
					-5.000000000000000e-01 1.250000000000001e-01 0.000000000000000e+00
					-3.750000000000000e-01 1.250000000000001e-01 0.000000000000000e+00
					-3.750000000000001e-01 3.469446951953614e-17 0.000000000000000e+00
					-2.500000000000000e-01 3.469446951953614e-17 0.000000000000000e+00
					-3.750000000000000e-01 1.250000000000001e-01 0.000000000000000e+00
					-2.500000000000000e-01 1.250000000000001e-01 0.000000000000000e+00
					-2.500000000000000e-01 3.469446951953614e-17 0.000000000000000e+00
					-1.250000000000000e-01 3.469446951953614e-17 0.000000000000000e+00
					-2.500000000000000e-01 1.250000000000001e-01 0.000000000000000e+00
					-1.250000000000000e-01 1.250000000000001e-01 0.000000000000000e+00
					-1.250000000000000e-01 3.469446951953614e-17 0.000000000000000e+00
					3.469446951953615e-17 3.469446951953614e-17 0.000000000000000e+00
					-1.250000000000000e-01 1.250000000000001e-01 0.000000000000000e+00
					3.469446951953615e-17 1.250000000000001e-01 0.000000000000000e+00
					3.469446951953615e-17 3.469446951953614e-17 0.000000000000000e+00
					1.250000000000001e-01 3.469446951953614e-17 0.000000000000000e+00
					3.469446951953615e-17 1.250000000000001e-01 0.000000000000000e+00
					1.250000000000001e-01 1.250000000000001e-01 0.000000000000000e+00
					1.250000000000001e-01 3.469446951953614e-17 0.000000000000000e+00
					2.500000000000001e-01 3.469446951953614e-17 0.000000000000000e+00
					1.250000000000001e-01 1.250000000000001e-01 0.000000000000000e+00
					2.500000000000001e-01 1.250000000000001e-01 0.000000000000000e+00
					2.500000000000001e-01 3.469446951953614e-17 0.000000000000000e+00
					3.750000000000001e-01 3.469446951953614e-17 0.000000000000000e+00
					2.500000000000001e-01 1.250000000000001e-01 0.000000000000000e+00
					3.750000000000000e-01 1.250000000000001e-01 0.000000000000000e+00
					3.750000000000001e-01 3.469446951953614e-17 0.000000000000000e+00
					5.000000000000000e-01 3.469446951953614e-17 0.000000000000000e+00
					3.750000000000000e-01 1.250000000000001e-01 0.000000000000000e+00
					5.000000000000000e-01 1.250000000000001e-01 0.000000000000000e+00
					-5.000000000000000e-01 1.250000000000001e-01 0.000000000000000e+00
					-3.750000000000000e-01 1.250000000000001e-01 0.000000000000000e+00
					-5.000000000000000e-01 2.500000000000001e-01 0.000000000000000e+00
					-3.750000000000000e-01 2.500000000000001e-01 0.000000000000000e+00
					-3.750000000000000e-01 1.250000000000001e-01 0.000000000000000e+00
					-2.500000000000000e-01 1.250000000000001e-01 0.000000000000000e+00
					-3.750000000000000e-01 2.500000000000001e-01 0.000000000000000e+00
					-2.500000000000000e-01 2.500000000000001e-01 0.000000000000000e+00
					-2.500000000000000e-01 1.250000000000001e-01 0.000000000000000e+00
					-1.250000000000000e-01 1.250000000000001e-01 0.000000000000000e+00
					-2.500000000000000e-01 2.500000000000001e-01 0.000000000000000e+00
					-1.250000000000000e-01 2.500000000000001e-01 0.000000000000000e+00
					-1.250000000000000e-01 1.250000000000001e-01 0.000000000000000e+00
					3.469446951953615e-17 1.250000000000001e-01 0.000000000000000e+00
					-1.250000000000000e-01 2.500000000000001e-01 0.000000000000000e+00
					3.469446951953615e-17 2.500000000000001e-01 0.000000000000000e+00
					3.469446951953615e-17 1.250000000000001e-01 0.000000000000000e+00
					1.250000000000001e-01 1.250000000000001e-01 0.000000000000000e+00
					3.469446951953615e-17 2.500000000000001e-01 0.000000000000000e+00
					1.250000000000001e-01 2.500000000000001e-01 0.000000000000000e+00
					1.250000000000001e-01 1.250000000000001e-01 0.000000000000000e+00
					2.500000000000001e-01 1.250000000000001e-01 0.000000000000000e+00
					1.250000000000001e-01 2.500000000000001e-01 0.000000000000000e+00
					2.500000000000001e-01 2.500000000000001e-01 0.000000000000000e+00
					2.500000000000001e-01 1.250000000000001e-01 0.000000000000000e+00
					3.750000000000000e-01 1.250000000000001e-01 0.000000000000000e+00
					2.500000000000001e-01 2.500000000000001e-01 0.000000000000000e+00
					3.750000000000000e-01 2.500000000000001e-01 0.000000000000000e+00
					3.750000000000000e-01 1.250000000000001e-01 0.000000000000000e+00
					5.000000000000000e-01 1.250000000000001e-01 0.000000000000000e+00
					3.750000000000000e-01 2.500000000000001e-01 0.000000000000000e+00
					5.000000000000000e-01 2.500000000000001e-01 0.000000000000000e+00
					-5.000000000000000e-01 2.500000000000001e-01 0.000000000000000e+00
					-3.750000000000000e-01 2.500000000000001e-01 0.000000000000000e+00
					-5.000000000000000e-01 3.750000000000000e-01 0.000000000000000e+00
					-3.750000000000000e-01 3.750000000000000e-01 0.000000000000000e+00
					-3.750000000000000e-01 2.500000000000001e-01 0.000000000000000e+00
					-2.500000000000000e-01 2.500000000000001e-01 0.000000000000000e+00
					-3.750000000000000e-01 3.750000000000000e-01 0.000000000000000e+00
					-2.500000000000000e-01 3.750000000000000e-01 0.000000000000000e+00
					-2.500000000000000e-01 2.500000000000001e-01 0.000000000000000e+00
					-1.250000000000000e-01 2.500000000000001e-01 0.000000000000000e+00
					-2.500000000000000e-01 3.750000000000000e-01 0.000000000000000e+00
					-1.250000000000000e-01 3.750000000000000e-01 0.000000000000000e+00
					-1.250000000000000e-01 2.500000000000001e-01 0.000000000000000e+00
					3.469446951953615e-17 2.500000000000001e-01 0.000000000000000e+00
					-1.250000000000000e-01 3.750000000000000e-01 0.000000000000000e+00
					3.469446951953614e-17 3.750000000000000e-01 0.000000000000000e+00
					3.469446951953615e-17 2.500000000000001e-01 0.000000000000000e+00
					1.250000000000001e-01 2.500000000000001e-01 0.000000000000000e+00
					3.469446951953614e-17 3.750000000000000e-01 0.000000000000000e+00
					1.250000000000001e-01 3.750000000000000e-01 0.000000000000000e+00
					1.250000000000001e-01 2.500000000000001e-01 0.000000000000000e+00
					2.500000000000001e-01 2.500000000000001e-01 0.000000000000000e+00
					1.250000000000001e-01 3.750000000000000e-01 0.000000000000000e+00
					2.500000000000001e-01 3.750000000000000e-01 0.000000000000000e+00
					2.500000000000001e-01 2.500000000000001e-01 0.000000000000000e+00
					3.750000000000000e-01 2.500000000000001e-01 0.000000000000000e+00
					2.500000000000001e-01 3.750000000000000e-01 0.000000000000000e+00
					3.750000000000000e-01 3.750000000000000e-01 0.000000000000000e+00
					3.750000000000000e-01 2.500000000000001e-01 0.000000000000000e+00
					5.000000000000000e-01 2.500000000000001e-01 0.000000000000000e+00
					3.750000000000000e-01 3.750000000000000e-01 0.000000000000000e+00
					5.000000000000000e-01 3.750000000000000e-01 0.000000000000000e+00
					-5.000000000000000e-01 3.750000000000000e-01 0.000000000000000e+00
					-3.750000000000000e-01 3.750000000000000e-01 0.000000000000000e+00
					-5.000000000000000e-01 5.000000000000000e-01 0.000000000000000e+00
					-3.750000000000000e-01 5.000000000000000e-01 0.000000000000000e+00
					-3.750000000000000e-01 3.750000000000000e-01 0.000000000000000e+00
					-2.500000000000000e-01 3.750000000000000e-01 0.000000000000000e+00
					-3.750000000000000e-01 5.000000000000000e-01 0.000000000000000e+00
					-2.500000000000000e-01 5.000000000000000e-01 0.000000000000000e+00
					-2.500000000000000e-01 3.750000000000000e-01 0.000000000000000e+00
					-1.250000000000000e-01 3.750000000000000e-01 0.000000000000000e+00
					-2.500000000000000e-01 5.000000000000000e-01 0.000000000000000e+00
					-1.250000000000000e-01 5.000000000000000e-01 0.000000000000000e+00
					-1.250000000000000e-01 3.750000000000000e-01 0.000000000000000e+00
					3.469446951953614e-17 3.750000000000000e-01 0.000000000000000e+00
					-1.250000000000000e-01 5.000000000000000e-01 0.000000000000000e+00
					3.469446951953614e-17 5.000000000000000e-01 0.000000000000000e+00
					3.469446951953614e-17 3.750000000000000e-01 0.000000000000000e+00
					1.250000000000001e-01 3.750000000000000e-01 0.000000000000000e+00
					3.469446951953614e-17 5.000000000000000e-01 0.000000000000000e+00
					1.250000000000001e-01 5.000000000000000e-01 0.000000000000000e+00
					1.250000000000001e-01 3.750000000000000e-01 0.000000000000000e+00
					2.500000000000001e-01 3.750000000000000e-01 0.000000000000000e+00
					1.250000000000001e-01 5.000000000000000e-01 0.000000000000000e+00
					2.500000000000001e-01 5.000000000000000e-01 0.000000000000000e+00
					2.500000000000001e-01 3.750000000000000e-01 0.000000000000000e+00
					3.750000000000000e-01 3.750000000000000e-01 0.000000000000000e+00
					2.500000000000001e-01 5.000000000000000e-01 0.000000000000000e+00
					3.750000000000000e-01 5.000000000000000e-01 0.000000000000000e+00
					3.750000000000000e-01 3.750000000000000e-01 0.000000000000000e+00
					5.000000000000000e-01 3.750000000000000e-01 0.000000000000000e+00
					3.750000000000000e-01 5.000000000000000e-01 0.000000000000000e+00
					5.000000000000000e-01 5.000000000000000e-01 0.000000000000000e+00
				</DataArray>
			</Points>
			<Cells>
				<DataArray Name="connectivity" type="UInt32" format="ascii">
					0 1 3 2 4 5 7 6 8 9 11 10 12 13 15 14 16 17 19 18 20 21 23 22 24 25 27 26 28 29 31 30 32 33 35 34 36 37 39 38 40 41 43 42 44 45 47 46 48 49 51 50 52 53 55 54 56 57 59 58 60 61 63 62 64 65 67 66 68 69 71 70 72 73 75 74 76 77 79 78 80 81 83 82 84 85 87 86 88 89 91 90 92 93 95 94 96 97 99 98 100 101 103 102 104 105 107 106 108 109 111 110 112 113 115 114 116 117 119 118 120 121 123 122 124 125 127 126 128 129 131 130 132 133 135 134 136 137 139 138 140 141 143 142 144 145 147 146 148 149 151 150 152 153 155 154 156 157 159 158 160 161 163 162 164 165 167 166 168 169 171 170 172 173 175 174 176 177 179 178 180 181 183 182 184 185 187 186 188 189 191 190 192 193 195 194 196 197 199 198 200 201 203 202 204 205 207 206 208 209 211 210 212 213 215 214 216 217 219 218 220 221 223 222 224 225 227 226 228 229 231 230 232 233 235 234 236 237 239 238 240 241 243 242 244 245 247 246 248 249 251 250 252 253 255 254 
				</DataArray>
				<DataArray Name="offsets" type="UInt32" format="ascii">
					4 8 12 16 20 24 28 32 36 40 44 48 52 56 60 64 68 72 76 80 84 88 92 96 100 104 108 112 116 120 124 128 132 136 140 144 148 152 156 160 164 168 172 176 180 184 188 192 196 200 204 208 212 216 220 224 228 232 236 240 244 248 252 256 
				</DataArray>
				<DataArray Name="types" type="UInt8" format="ascii">
					9 9 9 9 9 9 9 9 9 9 9 9 9 9 9 9 9 9 9 9 9 9 9 9 9 9 9 9 9 9 9 9 9 9 9 9 9 9 9 9 9 9 9 9 9 9 9 9 9 9 9 9 9 9 9 9 9 9 9 9 9 9 9 9 
				</DataArray>
			</Cells>
			<PointData Vectors="solution ">
				<DataArray Name="solution" type="Float64" NumberOfComponents="1" format="ascii">
					1.615665380731434e+00 2.495626969197553e+00 2.830620888307159e+00 4.270414896407730e+00 2.495626969197553e+00 3.487294023549576e+00 4.270414896407730e+00 5.885393131899620e+00 3.487294023549576e+00 4.463393221888387e+00 5.885393131899620e+00 7.456914530792679e+00 4.463393221888387e+00 5.264738019468467e+00 7.456914530792679e+00 8.752343986081515e+00 5.264738019468467e+00 5.729444935092708e+00 8.752343986081515e+00 9.575081084567524e+00 5.729444935092708e+00 5.746247102010667e+00 9.575081084567524e+00 9.695694455864048e+00 5.746247102010667e+00 5.279565690632360e+00 9.695694455864048e+00 9.030310499956103e+00 5.279565690632360e+00 4.396051082590474e+00 9.030310499956103e+00 7.685939936285125e+00 2.830620888307159e+00 4.270414896407730e+00 4.480076786430463e+00 6.665899886134295e+00 4.270414896407730e+00 5.885393131899620e+00 6.665899886134295e+00 9.098004584036104e+00 5.885393131899620e+00 7.456914530792679e+00 9.098004584036104e+00 1.148709875176667e+01 7.456914530792679e+00 8.752343986081515e+00 1.148709875176667e+01 1.348638728574010e+01 8.752343986081515e+00 9.575081084567524e+00 1.348638728574010e+01 1.475349010166792e+01 9.575081084567524e+00 9.695694455864048e+00 1.475349010166792e+01 1.499930387800718e+01 9.695694455864048e+00 9.030310499956103e+00 1.499930387800718e+01 1.410067104345391e+01 9.030310499956103e+00 7.685939936285125e+00 1.410067104345391e+01 1.216831702136741e+01 4.480076786430463e+00 6.665899886134295e+00 6.495502763002216e+00 9.585919483015564e+00 6.665899886134295e+00 9.098004584036104e+00 9.585919483015564e+00 1.302501879130771e+01 9.098004584036104e+00 1.148709875176667e+01 1.302501879130771e+01 1.641452101099684e+01 1.148709875176667e+01 1.348638728574010e+01 1.641452101099684e+01 1.926431161475647e+01 1.348638728574010e+01 1.475349010166792e+01 1.926431161475647e+01 2.108354677308037e+01 1.475349010166792e+01 1.499930387800718e+01 2.108354677308037e+01 2.148448969744643e+01 1.499930387800718e+01 1.410067104345391e+01 2.148448969744643e+01 2.029826753248671e+01 1.410067104345391e+01 1.216831702136741e+01 2.029826753248671e+01 1.764965180619635e+01 6.495502763002216e+00 9.585919483015564e+00 8.678612538551443e+00 1.276934144423094e+01 9.585919483015564e+00 1.302501879130771e+01 1.276934144423094e+01 1.733551713297592e+01 1.302501879130771e+01 1.641452101099684e+01 1.733551713297592e+01 2.183585355737166e+01 1.641452101099684e+01 1.926431161475647e+01 2.183585355737166e+01 2.562279877526031e+01 1.926431161475647e+01 2.108354677308037e+01 2.562279877526031e+01 2.804633335172628e+01 2.108354677308037e+01 2.148448969744643e+01 2.804633335172628e+01 2.859933992666893e+01 2.148448969744643e+01 2.029826753248671e+01 2.859933992666893e+01 2.706077017046141e+01 2.029826753248671e+01 1.764965180619635e+01 2.706077017046141e+01 2.358715543814353e+01 8.678612538551443e+00 1.276934144423094e+01 1.070288996993343e+01 1.579839735924222e+01 1.276934144423094e+01 1.733551713297592e+01 1.579839735924222e+01 2.147761286820264e+01 1.733551713297592e+01 2.183585355737166e+01 2.147761286820264e+01 2.707740148407911e+01 2.183585355737166e+01 2.562279877526031e+01 2.707740148407911e+01 3.178211146899788e+01 2.562279877526031e+01 2.804633335172628e+01 3.178211146899788e+01 3.477480202674365e+01 2.804633335172628e+01 2.859933992666893e+01 3.477480202674365e+01 3.542387290353201e+01 2.859933992666893e+01 2.706077017046141e+01 3.542387290353201e+01 3.346026787667324e+01 2.706077017046141e+01 2.358715543814353e+01 3.346026787667324e+01 2.909547455371207e+01 1.070288996993343e+01 1.579839735924222e+01 1.216272072023691e+01 1.810060076335631e+01 1.579839735924222e+01 2.147761286820264e+01 1.810060076335631e+01 2.472587456614978e+01 2.147761286820264e+01 2.707740148407911e+01 2.472587456614978e+01 3.125802694563230e+01 2.707740148407911e+01 3.178211146899788e+01 3.125802694563230e+01 3.672114645143166e+01 3.178211146899788e+01 3.477480202674365e+01 3.672114645143166e+01 4.013984621686156e+01 3.477480202674365e+01 3.542387290353201e+01 4.013984621686156e+01 4.077203176071232e+01 3.542387290353201e+01 3.346026787667324e+01 4.077203176071232e+01 3.832044814921593e+01 3.346026787667324e+01 2.909547455371207e+01 3.832044814921593e+01 3.306738330519927e+01 1.216272072023691e+01 1.810060076335631e+01 1.266287897607588e+01 1.910463400178877e+01 1.810060076335631e+01 2.472587456614978e+01 1.910463400178877e+01 2.633233892239221e+01 2.472587456614978e+01 3.125802694563230e+01 2.633233892239221e+01 3.345596124372243e+01 3.125802694563230e+01 3.672114645143166e+01 3.345596124372243e+01 3.936714396897101e+01 3.672114645143166e+01 4.013984621686156e+01 3.936714396897101e+01 4.296080209104795e+01 4.013984621686156e+01 4.077203176071232e+01 4.296080209104795e+01 4.341966286280587e+01 4.077203176071232e+01 3.832044814921593e+01 4.341966286280587e+01 4.045024450737709e+01 3.832044814921593e+01 3.306738330519927e+01 4.045024450737709e+01 3.443094108097311e+01 1.266287897607588e+01 1.910463400178877e+01 1.195140870766252e+01 1.842321827089005e+01 1.910463400178877e+01 2.633233892239221e+01 1.842321827089005e+01 2.574504574979784e+01 2.633233892239221e+01 3.345596124372243e+01 2.574504574979784e+01 3.296028391115561e+01 3.345596124372243e+01 3.936714396897101e+01 3.296028391115561e+01 3.887752561327998e+01 3.936714396897101e+01 4.296080209104795e+01 3.887752561327998e+01 4.232453352862525e+01 4.296080209104795e+01 4.341966286280587e+01 4.232453352862525e+01 4.245221739837549e+01 4.341966286280587e+01 4.045024450737709e+01 4.245221739837549e+01 3.901083702538578e+01 4.045024450737709e+01 3.443094108097311e+01 3.901083702538578e+01 3.250187235476181e+01 
				</DataArray>
			</PointData>
			<CellData>
			</CellData>
		</Piece>
	</UnstructuredGrid>
</VTKFile>