<?xml version="1.0"?>
<VTKFile type="UnstructuredGrid" byte_order="LittleEndian">
	<UnstructuredGrid>
		<Piece NumberOfPoints="64" NumberOfCells="16">
			<Points>
				<DataArray type="Float64" NumberOfComponents="3" format="ascii">
					-1.000000000000000e+00 -1.000000000000000e+00 0.000000000000000e+00
					-8.338955762008279e-01 -8.338955762008279e-01 0.000000000000000e+00
					-1.375000000000000e+00 -5.000000000000000e-01 0.000000000000000e+00
					-1.058895576200828e+00 -4.169477881004139e-01 0.000000000000000e+00
					-8.338955762008279e-01 -8.338955762008279e-01 0.000000000000000e+00
					-6.951941016011038e-01 -6.951941016011038e-01 0.000000000000000e+00
					-1.058895576200828e+00 -4.169477881004139e-01 0.000000000000000e+00
					-8.076941016011039e-01 -3.475970508005519e-01 0.000000000000000e+00
					-6.951941016011038e-01 -6.951941016011038e-01 0.000000000000000e+00
					-5.838955762008279e-01 -5.838955762008279e-01 0.000000000000000e+00
					-8.076941016011039e-01 -3.475970508005519e-01 0.000000000000000e+00
					-6.213955762008279e-01 -2.919477881004139e-01 0.000000000000000e+00
					-5.838955762008279e-01 -5.838955762008279e-01 0.000000000000000e+00
					-5.000000000000000e-01 -5.000000000000000e-01 0.000000000000000e+00
					-6.213955762008279e-01 -2.919477881004139e-01 0.000000000000000e+00
					-5.000000000000000e-01 -2.500000000000000e-01 0.000000000000000e+00
					-1.375000000000000e+00 -5.000000000000000e-01 0.000000000000000e+00
					-1.058895576200828e+00 -4.169477881004139e-01 0.000000000000000e+00
					-1.500000000000000e+00 1.387778780781446e-17 0.000000000000000e+00
					-1.133895576200828e+00 2.081668171172169e-17 0.000000000000000e+00
					-1.058895576200828e+00 -4.169477881004139e-01 0.000000000000000e+00
					-8.076941016011039e-01 -3.475970508005519e-01 0.000000000000000e+00
					-1.133895576200828e+00 2.081668171172169e-17 0.000000000000000e+00
					-8.451941016011039e-01 0.000000000000000e+00 0.000000000000000e+00
					-8.076941016011039e-01 -3.475970508005519e-01 0.000000000000000e+00
					-6.213955762008279e-01 -2.919477881004139e-01 0.000000000000000e+00
					-8.451941016011039e-01 0.000000000000000e+00 0.000000000000000e+00
					-6.338955762008278e-01 1.387778780781446e-17 0.000000000000000e+00
					-6.213955762008279e-01 -2.919477881004139e-01 0.000000000000000e+00
					-5.000000000000000e-01 -2.500000000000000e-01 0.000000000000000e+00
					-6.338955762008278e-01 1.387778780781446e-17 0.000000000000000e+00
					-5.000000000000000e-01 6.938893903907228e-18 0.000000000000000e+00
					-1.500000000000000e+00 1.387778780781446e-17 0.000000000000000e+00
					-1.133895576200828e+00 2.081668171172169e-17 0.000000000000000e+00
					-1.375000000000000e+00 5.000000000000000e-01 0.000000000000000e+00
					-1.058895576200828e+00 4.169477881004140e-01 0.000000000000000e+00
					-1.133895576200828e+00 2.081668171172169e-17 0.000000000000000e+00
					-8.451941016011039e-01 0.000000000000000e+00 0.000000000000000e+00
					-1.058895576200828e+00 4.169477881004140e-01 0.000000000000000e+00
					-8.076941016011037e-01 3.475970508005519e-01 0.000000000000000e+00
					-8.451941016011039e-01 0.000000000000000e+00 0.000000000000000e+00
					-6.338955762008278e-01 1.387778780781446e-17 0.000000000000000e+00
					-8.076941016011037e-01 3.475970508005519e-01 0.000000000000000e+00
					-6.213955762008279e-01 2.919477881004139e-01 0.000000000000000e+00
					-6.338955762008278e-01 1.387778780781446e-17 0.000000000000000e+00
					-5.000000000000000e-01 6.938893903907228e-18 0.000000000000000e+00
					-6.213955762008279e-01 2.919477881004139e-01 0.000000000000000e+00
					-5.000000000000000e-01 2.500000000000000e-01 0.000000000000000e+00
					-1.375000000000000e+00 5.000000000000000e-01 0.000000000000000e+00
					-1.058895576200828e+00 4.169477881004140e-01 0.000000000000000e+00
					-1.000000000000000e+00 1.000000000000000e+00 0.000000000000000e+00
					-8.338955762008279e-01 8.338955762008279e-01 0.000000000000000e+00
					-1.058895576200828e+00 4.169477881004140e-01 0.000000000000000e+00
					-8.076941016011037e-01 3.475970508005519e-01 0.000000000000000e+00
					-8.338955762008279e-01 8.338955762008279e-01 0.000000000000000e+00
					-6.951941016011038e-01 6.951941016011038e-01 0.000000000000000e+00
					-8.076941016011037e-01 3.475970508005519e-01 0.000000000000000e+00
					-6.213955762008279e-01 2.919477881004139e-01 0.000000000000000e+00
					-6.951941016011038e-01 6.951941016011038e-01 0.000000000000000e+00
					-5.838955762008279e-01 5.838955762008279e-01 0.000000000000000e+00
					-6.213955762008279e-01 2.919477881004139e-01 0.000000000000000e+00
					-5.000000000000000e-01 2.500000000000000e-01 0.000000000000000e+00
					-5.838955762008279e-01 5.838955762008279e-01 0.000000000000000e+00
					-5.000000000000000e-01 5.000000000000000e-01 0.000000000000000e+00
				</DataArray>
			</Points>
			<Cells>
				<DataArray Name="connectivity" type="UInt32" format="ascii">
					0 1 3 2 4 5 7 6 8 9 11 10 12 13 15 14 16 17 19 18 20 21 23 22 24 25 27 26 28 29 31 30 32 33 35 34 36 37 39 38 40 41 43 42 44 45 47 46 48 49 51 50 52 53 55 54 56 57 59 58 60 61 63 62 
				</DataArray>
				<DataArray Name="offsets" type="UInt32" format="ascii">
					4 8 12 16 20 24 28 32 36 40 44 48 52 56 60 64 
				</DataArray>
				<DataArray Name="types" type="UInt8" format="ascii">
					9 9 9 9 9 9 9 9 9 9 9 9 9 9 9 9 
				</DataArray>
			</Cells>
			<PointData Vectors="solution ">
				<DataArray Name="solution" type="Float64" NumberOfComponents="1" format="ascii">
					0.000000000000000e+00 2.957408967934171e-01 0.000000000000000e+00 1.066723490991195e-01 2.957408967934172e-01 1.049185306217392e+00 1.066723490991196e-01 7.629993806830075e-01 1.049185306217392e+00 2.059666654759814e+00 7.629993806830077e-01 2.268760234568449e+00 2.059666654759814e+00 3.126519635113981e+00 2.268760234568449e+00 4.162007369205003e+00 0.000000000000000e+00 1.066723490991195e-01 0.000000000000000e+00 5.971633672898161e-01 1.066723490991196e-01 7.629993806830077e-01 5.971633672898162e-01 2.241958497446296e+00 7.629993806830077e-01 2.268760234568450e+00 2.241958497446297e+00 4.670500503393303e+00 2.268760234568451e+00 4.162007369205003e+00 4.670500503393303e+00 6.722485329904043e+00 0.000000000000000e+00 5.971633672898162e-01 0.000000000000000e+00 1.036475670804600e+00 5.971633672898163e-01 2.241958497446297e+00 1.036475670804600e+00 3.542926482582052e+00 2.241958497446297e+00 4.670500503393303e+00 3.542926482582053e+00 6.644614277267940e+00 4.670500503393303e+00 6.722485329904043e+00 6.644614277267941e+00 8.711819107912769e+00 0.000000000000000e+00 1.036475670804600e+00 0.000000000000000e+00 6.777443944409580e-01 1.036475670804601e+00 3.542926482582052e+00 6.777443944409581e-01 2.404385892602254e+00 3.542926482582053e+00 6.644614277267941e+00 2.404385892602254e+00 4.720036851364894e+00 6.644614277267942e+00 8.711819107912770e+00 4.720036851364894e+00 7.164809448318177e+00 
				</DataArray>
			</PointData>
			<CellData>
			</CellData>
		</Piece>
	</UnstructuredGrid>
</VTKFile>