1 0
2 0
3 0
4 0
5 0
6 0
7 0
8 0
9 0
10 0
11 0
12 0
13 0
14 0
15 0
16 0
17 0
18 0
19 0
20 0
21 0
22 0
23 0
24 0
25 0
26 0
27 0
28 0
29 0
30 0
31 0
32 0
33 0
34 0
35 0
36 0
37 0
38 7.547570e-10
39 7.547570e-10
40 1.051642e-09
41 1.094209e-09
42 1.148517e-08
43 1.148517e-08
44 6.257944e-08
45 9.449736e-08
46 1.713152e-07
47 1.862045e-07
48 1.862045e-07
49 1.983916e-07
50 3.106127e-07
51 3.106127e-07
52 5.960455e-07
53 1.441964e-05
54 1.441964e-05
55 1.516070e-05
56 1.523648e-05
57 4.794781e-05
58 7.750184e-05
59 7.750184e-05
60 1.022682e-04
61 4.135838e-03
62 4.136581e-03
63 4.136581e-03
64 4.137327e-03
65 1.712454e-01
66 1.712661e-01
67 1.712661e-01
68 1.712676e-01
69 2.139480e-01
70 2.317936e-01
71 2.317936e-01
72 2.534027e-01
73 2.838193e-01
74 2.877939e-01
75 2.877939e-01
76 2.894519e-01
77 3.320273e-01
78 3.345954e-01
79 3.345954e-01
80 3.366867e-01
81 3.502127e-01
82 3.510562e-01
83 3.510562e-01
84 3.540675e-01
85 3.834764e-01
86 3.966781e-01
87 3.966781e-01
88 4.067127e-01
89 4.304567e-01
90 4.314895e-01
91 4.314895e-01
92 4.339103e-01
93 4.429782e-01
94 4.465983e-01
95 4.465983e-01
96 4.487803e-01
