<?xml version="1.0"?>
<VTKFile type="UnstructuredGrid" byte_order="LittleEndian">
	<UnstructuredGrid>
		<Piece NumberOfPoints="256" NumberOfCells="64">
			<Points>
				<DataArray type="Float64" NumberOfComponents="3" format="ascii">
					1.000000000000000e+00 -1.000000000000000e+00 0.000000000000000e+00
					1.218750000000000e+00 -7.500000000000000e-01 0.000000000000000e+00
					9.135224194504830e-01 -9.135224194504830e-01 0.000000000000000e+00
					1.081007673356733e+00 -6.851418145878622e-01 0.000000000000000e+00
					1.218750000000000e+00 -7.500000000000000e-01 0.000000000000000e+00
					1.375000000000000e+00 -5.000000000000000e-01 0.000000000000000e+00
					1.081007673356733e+00 -6.851418145878622e-01 0.000000000000000e+00
					1.200639997575483e+00 -4.567612097252415e-01 0.000000000000000e+00
					1.375000000000000e+00 -5.000000000000000e-01 0.000000000000000e+00
					1.468750000000000e+00 -2.500000000000000e-01 0.000000000000000e+00
					1.200639997575483e+00 -4.567612097252415e-01 0.000000000000000e+00
					1.272419392106733e+00 -2.283806048626207e-01 0.000000000000000e+00
					1.468750000000000e+00 -2.500000000000000e-01 0.000000000000000e+00
					1.500000000000000e+00 0.000000000000000e+00 0.000000000000000e+00
					1.272419392106733e+00 -2.283806048626207e-01 0.000000000000000e+00
					1.296345856950483e+00 1.040834085586084e-17 0.000000000000000e+00
					1.500000000000000e+00 0.000000000000000e+00 0.000000000000000e+00
					1.468750000000000e+00 2.500000000000000e-01 0.000000000000000e+00
					1.296345856950483e+00 1.040834085586084e-17 0.000000000000000e+00
					1.272419392106733e+00 2.283806048626208e-01 0.000000000000000e+00
					1.468750000000000e+00 2.500000000000000e-01 0.000000000000000e+00
					1.375000000000000e+00 5.000000000000000e-01 0.000000000000000e+00
					1.272419392106733e+00 2.283806048626208e-01 0.000000000000000e+00
					1.200639997575483e+00 4.567612097252415e-01 0.000000000000000e+00
					1.375000000000000e+00 5.000000000000000e-01 0.000000000000000e+00
					1.218750000000000e+00 7.500000000000000e-01 0.000000000000000e+00
					1.200639997575483e+00 4.567612097252415e-01 0.000000000000000e+00
					1.081007673356733e+00 6.851418145878623e-01 0.000000000000000e+00
					1.218750000000000e+00 7.500000000000000e-01 0.000000000000000e+00
					1.000000000000000e+00 1.000000000000000e+00 0.000000000000000e+00
					1.081007673356733e+00 6.851418145878623e-01 0.000000000000000e+00
					9.135224194504830e-01 9.135224194504830e-01 0.000000000000000e+00
					9.135224194504830e-01 -9.135224194504830e-01 0.000000000000000e+00
					1.081007673356733e+00 -6.851418145878622e-01 0.000000000000000e+00
					8.338955762008279e-01 -8.338955762008279e-01 0.000000000000000e+00
					9.569506543258280e-01 -6.254216821506209e-01 0.000000000000000e+00
					1.081007673356733e+00 -6.851418145878622e-01 0.000000000000000e+00
					1.200639997575483e+00 -4.567612097252415e-01 0.000000000000000e+00
					9.569506543258280e-01 -6.254216821506209e-01 0.000000000000000e+00
					1.044847138700828e+00 -4.169477881004140e-01 0.000000000000000e+00
					1.200639997575483e+00 -4.567612097252415e-01 0.000000000000000e+00
					1.272419392106733e+00 -2.283806048626207e-01 0.000000000000000e+00
					1.044847138700828e+00 -4.169477881004140e-01 0.000000000000000e+00
					1.097585029325828e+00 -2.084738940502070e-01 0.000000000000000e+00
					1.272419392106733e+00 -2.283806048626207e-01 0.000000000000000e+00
					1.296345856950483e+00 1.040834085586084e-17 0.000000000000000e+00
					1.097585029325828e+00 -2.084738940502070e-01 0.000000000000000e+00
					1.115164326200828e+00 1.734723475976807e-17 0.000000000000000e+00
					1.296345856950483e+00 1.040834085586084e-17 0.000000000000000e+00
					1.272419392106733e+00 2.283806048626208e-01 0.000000000000000e+00
					1.115164326200828e+00 1.734723475976807e-17 0.000000000000000e+00
					1.097585029325828e+00 2.084738940502070e-01 0.000000000000000e+00
					1.272419392106733e+00 2.283806048626208e-01 0.000000000000000e+00
					1.200639997575483e+00 4.567612097252415e-01 0.000000000000000e+00
					1.097585029325828e+00 2.084738940502070e-01 0.000000000000000e+00
					1.044847138700828e+00 4.169477881004140e-01 0.000000000000000e+00
					1.200639997575483e+00 4.567612097252415e-01 0.000000000000000e+00
					1.081007673356733e+00 6.851418145878623e-01 0.000000000000000e+00
					1.044847138700828e+00 4.169477881004140e-01 0.000000000000000e+00
					9.569506543258280e-01 6.254216821506209e-01 0.000000000000000e+00
					1.081007673356733e+00 6.851418145878623e-01 0.000000000000000e+00
					9.135224194504830e-01 9.135224194504830e-01 0.000000000000000e+00
					9.569506543258280e-01 6.254216821506209e-01 0.000000000000000e+00
					8.338955762008279e-01 8.338955762008279e-01 0.000000000000000e+00
					8.338955762008279e-01 -8.338955762008279e-01 0.000000000000000e+00
					9.569506543258280e-01 -6.254216821506209e-01 0.000000000000000e+00
					7.611194702510349e-01 -7.611194702510349e-01 0.000000000000000e+00
					8.465789429072850e-01 -5.708396026882762e-01 0.000000000000000e+00
					9.569506543258280e-01 -6.254216821506209e-01 0.000000000000000e+00
					1.044847138700828e+00 -4.169477881004140e-01 0.000000000000000e+00
					8.465789429072850e-01 -5.708396026882762e-01 0.000000000000000e+00
					9.076214233760350e-01 -3.805597351255174e-01 0.000000000000000e+00
					1.044847138700828e+00 -4.169477881004140e-01 0.000000000000000e+00
					1.097585029325828e+00 -2.084738940502070e-01 0.000000000000000e+00
					9.076214233760350e-01 -3.805597351255174e-01 0.000000000000000e+00
					9.442469116572850e-01 -1.902798675627587e-01 0.000000000000000e+00
					1.097585029325828e+00 -2.084738940502070e-01 0.000000000000000e+00
					1.115164326200828e+00 1.734723475976807e-17 0.000000000000000e+00
					9.442469116572850e-01 -1.902798675627587e-01 0.000000000000000e+00
					9.564554077510350e-01 2.428612866367530e-17 0.000000000000000e+00
					1.115164326200828e+00 1.734723475976807e-17 0.000000000000000e+00
					1.097585029325828e+00 2.084738940502070e-01 0.000000000000000e+00
					9.564554077510350e-01 2.428612866367530e-17 0.000000000000000e+00
					9.442469116572851e-01 1.902798675627587e-01 0.000000000000000e+00
					1.097585029325828e+00 2.084738940502070e-01 0.000000000000000e+00
					1.044847138700828e+00 4.169477881004140e-01 0.000000000000000e+00
					9.442469116572851e-01 1.902798675627587e-01 0.000000000000000e+00
					9.076214233760349e-01 3.805597351255174e-01 0.000000000000000e+00
					1.044847138700828e+00 4.169477881004140e-01 0.000000000000000e+00
					9.569506543258280e-01 6.254216821506209e-01 0.000000000000000e+00
					9.076214233760349e-01 3.805597351255174e-01 0.000000000000000e+00
					8.465789429072850e-01 5.708396026882762e-01 0.000000000000000e+00
					9.569506543258280e-01 6.254216821506209e-01 0.000000000000000e+00
					8.338955762008279e-01 8.338955762008279e-01 0.000000000000000e+00
					8.465789429072850e-01 5.708396026882762e-01 0.000000000000000e+00
					7.611194702510349e-01 7.611194702510349e-01 0.000000000000000e+00
					7.611194702510349e-01 -7.611194702510349e-01 0.000000000000000e+00
					8.465789429072850e-01 -5.708396026882762e-01 0.000000000000000e+00
					6.951941016011038e-01 -6.951941016011038e-01 0.000000000000000e+00
					7.498925391011039e-01 -5.213955762008279e-01 0.000000000000000e+00
					8.465789429072850e-01 -5.708396026882762e-01 0.000000000000000e+00
					9.076214233760350e-01 -3.805597351255174e-01 0.000000000000000e+00
					7.498925391011039e-01 -5.213955762008279e-01 0.000000000000000e+00
					7.889628516011040e-01 -3.475970508005519e-01 0.000000000000000e+00
					9.076214233760350e-01 -3.805597351255174e-01 0.000000000000000e+00
					9.442469116572850e-01 -1.902798675627587e-01 0.000000000000000e+00
					7.889628516011040e-01 -3.475970508005519e-01 0.000000000000000e+00
					8.124050391011038e-01 -1.737985254002760e-01 0.000000000000000e+00
					9.442469116572850e-01 -1.902798675627587e-01 0.000000000000000e+00
					9.564554077510350e-01 2.428612866367530e-17 0.000000000000000e+00
					8.124050391011038e-01 -1.737985254002760e-01 0.000000000000000e+00
					8.202191016011039e-01 2.428612866367530e-17 0.000000000000000e+00
					9.564554077510350e-01 2.428612866367530e-17 0.000000000000000e+00
					9.442469116572851e-01 1.902798675627587e-01 0.000000000000000e+00
					8.202191016011039e-01 2.428612866367530e-17 0.000000000000000e+00
					8.124050391011038e-01 1.737985254002760e-01 0.000000000000000e+00
					9.442469116572851e-01 1.902798675627587e-01 0.000000000000000e+00
					9.076214233760349e-01 3.805597351255174e-01 0.000000000000000e+00
					8.124050391011038e-01 1.737985254002760e-01 0.000000000000000e+00
					7.889628516011039e-01 3.475970508005519e-01 0.000000000000000e+00
					9.076214233760349e-01 3.805597351255174e-01 0.000000000000000e+00
					8.465789429072850e-01 5.708396026882762e-01 0.000000000000000e+00
					7.889628516011039e-01 3.475970508005519e-01 0.000000000000000e+00
					7.498925391011038e-01 5.213955762008279e-01 0.000000000000000e+00
					8.465789429072850e-01 5.708396026882762e-01 0.000000000000000e+00
					7.611194702510349e-01 7.611194702510349e-01 0.000000000000000e+00
					7.498925391011038e-01 5.213955762008279e-01 0.000000000000000e+00
					6.951941016011038e-01 6.951941016011038e-01 0.000000000000000e+00
					6.951941016011038e-01 -6.951941016011038e-01 0.000000000000000e+00
					7.498925391011039e-01 -5.213955762008279e-01 0.000000000000000e+00
					6.361194702510349e-01 -6.361194702510349e-01 0.000000000000000e+00
					6.668914429072847e-01 -4.770896026882762e-01 0.000000000000000e+00
					7.498925391011039e-01 -5.213955762008279e-01 0.000000000000000e+00
					7.889628516011040e-01 -3.475970508005519e-01 0.000000000000000e+00
					6.668914429072847e-01 -4.770896026882762e-01 0.000000000000000e+00
					6.888714233760349e-01 -3.180597351255174e-01 0.000000000000000e+00
					7.889628516011040e-01 -3.475970508005519e-01 0.000000000000000e+00
					8.124050391011038e-01 -1.737985254002760e-01 0.000000000000000e+00
					6.888714233760349e-01 -3.180597351255174e-01 0.000000000000000e+00
					7.020594116572848e-01 -1.590298675627587e-01 0.000000000000000e+00
					8.124050391011038e-01 -1.737985254002760e-01 0.000000000000000e+00
					8.202191016011039e-01 2.428612866367530e-17 0.000000000000000e+00
					7.020594116572848e-01 -1.590298675627587e-01 0.000000000000000e+00
					7.064554077510348e-01 1.734723475976807e-17 0.000000000000000e+00
					8.202191016011039e-01 2.428612866367530e-17 0.000000000000000e+00
					8.124050391011038e-01 1.737985254002760e-01 0.000000000000000e+00
					7.064554077510348e-01 1.734723475976807e-17 0.000000000000000e+00
					7.020594116572849e-01 1.590298675627587e-01 0.000000000000000e+00
					8.124050391011038e-01 1.737985254002760e-01 0.000000000000000e+00
					7.889628516011039e-01 3.475970508005519e-01 0.000000000000000e+00
					7.020594116572849e-01 1.590298675627587e-01 0.000000000000000e+00
					6.888714233760347e-01 3.180597351255174e-01 0.000000000000000e+00
					7.889628516011039e-01 3.475970508005519e-01 0.000000000000000e+00
					7.498925391011038e-01 5.213955762008279e-01 0.000000000000000e+00
					6.888714233760347e-01 3.180597351255174e-01 0.000000000000000e+00
					6.668914429072849e-01 4.770896026882762e-01 0.000000000000000e+00
					7.498925391011038e-01 5.213955762008279e-01 0.000000000000000e+00
					6.951941016011038e-01 6.951941016011038e-01 0.000000000000000e+00
					6.668914429072849e-01 4.770896026882762e-01 0.000000000000000e+00
					6.361194702510349e-01 6.361194702510349e-01 0.000000000000000e+00
					6.361194702510349e-01 -6.361194702510349e-01 0.000000000000000e+00
					6.668914429072847e-01 -4.770896026882762e-01 0.000000000000000e+00
					5.838955762008278e-01 -5.838955762008278e-01 0.000000000000000e+00
					5.975756543258278e-01 -4.379216821506209e-01 0.000000000000000e+00
					6.668914429072847e-01 -4.770896026882762e-01 0.000000000000000e+00
					6.888714233760349e-01 -3.180597351255174e-01 0.000000000000000e+00
					5.975756543258278e-01 -4.379216821506209e-01 0.000000000000000e+00
					6.073471387008278e-01 -2.919477881004139e-01 0.000000000000000e+00
					6.888714233760349e-01 -3.180597351255174e-01 0.000000000000000e+00
					7.020594116572848e-01 -1.590298675627587e-01 0.000000000000000e+00
					6.073471387008278e-01 -2.919477881004139e-01 0.000000000000000e+00
					6.132100293258278e-01 -1.459738940502069e-01 0.000000000000000e+00
					7.020594116572848e-01 -1.590298675627587e-01 0.000000000000000e+00
					7.064554077510348e-01 1.734723475976807e-17 0.000000000000000e+00
					6.132100293258278e-01 -1.459738940502069e-01 0.000000000000000e+00
					6.151643262008277e-01 1.040834085586084e-17 0.000000000000000e+00
					7.064554077510348e-01 1.734723475976807e-17 0.000000000000000e+00
					7.020594116572849e-01 1.590298675627587e-01 0.000000000000000e+00
					6.151643262008277e-01 1.040834085586084e-17 0.000000000000000e+00
					6.132100293258279e-01 1.459738940502070e-01 0.000000000000000e+00
					7.020594116572849e-01 1.590298675627587e-01 0.000000000000000e+00
					6.888714233760347e-01 3.180597351255174e-01 0.000000000000000e+00
					6.132100293258279e-01 1.459738940502070e-01 0.000000000000000e+00
					6.073471387008278e-01 2.919477881004139e-01 0.000000000000000e+00
					6.888714233760347e-01 3.180597351255174e-01 0.000000000000000e+00
					6.668914429072849e-01 4.770896026882762e-01 0.000000000000000e+00
					6.073471387008278e-01 2.919477881004139e-01 0.000000000000000e+00
					5.975756543258278e-01 4.379216821506209e-01 0.000000000000000e+00
					6.668914429072849e-01 4.770896026882762e-01 0.000000000000000e+00
					6.361194702510349e-01 6.361194702510349e-01 0.000000000000000e+00
					5.975756543258278e-01 4.379216821506209e-01 0.000000000000000e+00
					5.838955762008278e-01 5.838955762008278e-01 0.000000000000000e+00
					5.838955762008278e-01 -5.838955762008278e-01 0.000000000000000e+00
					5.975756543258278e-01 -4.379216821506209e-01 0.000000000000000e+00
					5.385224194504830e-01 -5.385224194504830e-01 0.000000000000000e+00
					5.419451733567329e-01 -4.038918145878622e-01 0.000000000000000e+00
					5.975756543258278e-01 -4.379216821506209e-01 0.000000000000000e+00
					6.073471387008278e-01 -2.919477881004139e-01 0.000000000000000e+00
					5.419451733567329e-01 -4.038918145878622e-01 0.000000000000000e+00
					5.443899975754829e-01 -2.692612097252414e-01 0.000000000000000e+00
					6.073471387008278e-01 -2.919477881004139e-01 0.000000000000000e+00
					6.132100293258278e-01 -1.459738940502069e-01 0.000000000000000e+00
					5.443899975754829e-01 -2.692612097252414e-01 0.000000000000000e+00
					5.458568921067329e-01 -1.346306048626207e-01 0.000000000000000e+00
					6.132100293258278e-01 -1.459738940502069e-01 0.000000000000000e+00
					6.151643262008277e-01 1.040834085586084e-17 0.000000000000000e+00
					5.458568921067329e-01 -1.346306048626207e-01 0.000000000000000e+00
					5.463458569504830e-01 3.469446951953614e-18 0.000000000000000e+00
					6.151643262008277e-01 1.040834085586084e-17 0.000000000000000e+00
					6.132100293258279e-01 1.459738940502070e-01 0.000000000000000e+00
					5.463458569504830e-01 3.469446951953614e-18 0.000000000000000e+00
					5.458568921067329e-01 1.346306048626207e-01 0.000000000000000e+00
					6.132100293258279e-01 1.459738940502070e-01 0.000000000000000e+00
					6.073471387008278e-01 2.919477881004139e-01 0.000000000000000e+00
					5.458568921067329e-01 1.346306048626207e-01 0.000000000000000e+00
					5.443899975754829e-01 2.692612097252414e-01 0.000000000000000e+00
					6.073471387008278e-01 2.919477881004139e-01 0.000000000000000e+00
					5.975756543258278e-01 4.379216821506209e-01 0.000000000000000e+00
					5.443899975754829e-01 2.692612097252414e-01 0.000000000000000e+00
					5.419451733567329e-01 4.038918145878622e-01 0.000000000000000e+00
					5.975756543258278e-01 4.379216821506209e-01 0.000000000000000e+00
					5.838955762008278e-01 5.838955762008278e-01 0.000000000000000e+00
					5.419451733567329e-01 4.038918145878622e-01 0.000000000000000e+00
					5.385224194504830e-01 5.385224194504830e-01 0.000000000000000e+00
					5.385224194504830e-01 -5.385224194504830e-01 0.000000000000000e+00
					5.419451733567329e-01 -4.038918145878622e-01 0.000000000000000e+00
					5.000000000000000e-01 -5.000000000000000e-01 0.000000000000000e+00
					5.000000000000000e-01 -3.750000000000000e-01 0.000000000000000e+00
					5.419451733567329e-01 -4.038918145878622e-01 0.000000000000000e+00
					5.443899975754829e-01 -2.692612097252414e-01 0.000000000000000e+00
					5.000000000000000e-01 -3.750000000000000e-01 0.000000000000000e+00
					5.000000000000000e-01 -2.500000000000000e-01 0.000000000000000e+00
					5.443899975754829e-01 -2.692612097252414e-01 0.000000000000000e+00
					5.458568921067329e-01 -1.346306048626207e-01 0.000000000000000e+00
					5.000000000000000e-01 -2.500000000000000e-01 0.000000000000000e+00
					5.000000000000000e-01 -1.250000000000000e-01 0.000000000000000e+00
					5.458568921067329e-01 -1.346306048626207e-01 0.000000000000000e+00
					5.463458569504830e-01 3.469446951953614e-18 0.000000000000000e+00
					5.000000000000000e-01 -1.250000000000000e-01 0.000000000000000e+00
					5.000000000000000e-01 0.000000000000000e+00 0.000000000000000e+00
					5.463458569504830e-01 3.469446951953614e-18 0.000000000000000e+00
					5.458568921067329e-01 1.346306048626207e-01 0.000000000000000e+00
					5.000000000000000e-01 0.000000000000000e+00 0.000000000000000e+00
					5.000000000000000e-01 1.250000000000000e-01 0.000000000000000e+00
					5.458568921067329e-01 1.346306048626207e-01 0.000000000000000e+00
					5.443899975754829e-01 2.692612097252414e-01 0.000000000000000e+00
					5.000000000000000e-01 1.250000000000000e-01 0.000000000000000e+00
					5.000000000000000e-01 2.500000000000000e-01 0.000000000000000e+00
					5.443899975754829e-01 2.692612097252414e-01 0.000000000000000e+00
					5.419451733567329e-01 4.038918145878622e-01 0.000000000000000e+00
					5.000000000000000e-01 2.500000000000000e-01 0.000000000000000e+00
					5.000000000000000e-01 3.750000000000000e-01 0.000000000000000e+00
					5.419451733567329e-01 4.038918145878622e-01 0.000000000000000e+00
					5.385224194504830e-01 5.385224194504830e-01 0.000000000000000e+00
					5.000000000000000e-01 3.750000000000000e-01 0.000000000000000e+00
					5.000000000000000e-01 5.000000000000000e-01 0.000000000000000e+00
				</DataArray>
			</Points>
			<Cells>
				<DataArray Name="connectivity" type="UInt32" format="ascii">
					0 1 3 2 4 5 7 6 8 9 11 10 12 13 15 14 16 17 19 18 20 21 23 22 24 25 27 26 28 29 31 30 32 33 35 34 36 37 39 38 40 41 43 42 44 45 47 46 48 49 51 50 52 53 55 54 56 57 59 58 60 61 63 62 64 65 67 66 68 69 71 70 72 73 75 74 76 77 79 78 80 81 83 82 84 85 87 86 88 89 91 90 92 93 95 94 96 97 99 98 100 101 103 102 104 105 107 106 108 109 111 110 112 113 115 114 116 117 119 118 120 121 123 122 124 125 127 126 128 129 131 130 132 133 135 134 136 137 139 138 140 141 143 142 144 145 147 146 148 149 151 150 152 153 155 154 156 157 159 158 160 161 163 162 164 165 167 166 168 169 171 170 172 173 175 174 176 177 179 178 180 181 183 182 184 185 187 186 188 189 191 190 192 193 195 194 196 197 199 198 200 201 203 202 204 205 207 206 208 209 211 210 212 213 215 214 216 217 219 218 220 221 223 222 224 225 227 226 228 229 231 230 232 233 235 234 236 237 239 238 240 241 243 242 244 245 247 246 248 249 251 250 252 253 255 254 
				</DataArray>
				<DataArray Name="offsets" type="UInt32" format="ascii">
					4 8 12 16 20 24 28 32 36 40 44 48 52 56 60 64 68 72 76 80 84 88 92 96 100 104 108 112 116 120 124 128 132 136 140 144 148 152 156 160 164 168 172 176 180 184 188 192 196 200 204 208 212 216 220 224 228 232 236 240 244 248 252 256 
				</DataArray>
				<DataArray Name="types" type="UInt8" format="ascii">
					9 9 9 9 9 9 9 9 9 9 9 9 9 9 9 9 9 9 9 9 9 9 9 9 9 9 9 9 9 9 9 9 9 9 9 9 9 9 9 9 9 9 9 9 9 9 9 9 9 9 9 9 9 9 9 9 9 9 9 9 9 9 9 9 
				</DataArray>
			</Cells>
			<PointData Vectors="solution ">
				<DataArray Name="solution" type="Float64" NumberOfComponents="1" format="ascii">
					0.000000000000000e+00 0.000000000000000e+00 9.461622753385851e-02 1.146134319029885e-01 0.000000000000000e+00 0.000000000000000e+00 1.146134319029885e-01 1.229067785585974e-01 0.000000000000000e+00 0.000000000000000e+00 1.229067785585974e-01 1.755176763613769e-01 0.000000000000000e+00 0.000000000000000e+00 1.755176763613769e-01 2.667001214540939e-01 0.000000000000000e+00 0.000000000000000e+00 2.667001214540940e-01 3.658664683580651e-01 0.000000000000000e+00 0.000000000000000e+00 3.658664683580651e-01 4.741823087690702e-01 0.000000000000000e+00 0.000000000000000e+00 4.741823087690702e-01 7.189111171343225e-01 0.000000000000000e+00 0.000000000000000e+00 7.189111171343228e-01 1.063512112592471e+00 9.461622753385851e-02 1.146134319029885e-01 3.669092827623345e-01 5.148272540704752e-01 1.146134319029885e-01 1.229067785585974e-01 5.148272540704754e-01 7.714168860779984e-01 1.229067785585974e-01 1.755176763613769e-01 7.714168860779985e-01 1.277624441068990e+00 1.755176763613770e-01 2.667001214540940e-01 1.277624441068990e+00 1.988760823151781e+00 2.667001214540941e-01 3.658664683580651e-01 1.988760823151781e+00 2.733071856327165e+00 3.658664683580652e-01 4.741823087690702e-01 2.733071856327166e+00 3.312159375839089e+00 4.741823087690703e-01 7.189111171343228e-01 3.312159375839089e+00 3.765011296263015e+00 7.189111171343228e-01 1.063512112592471e+00 3.765011296263015e+00 3.943117123118931e+00 3.669092827623345e-01 5.148272540704754e-01 7.995440242038629e-01 1.286201213372938e+00 5.148272540704754e-01 7.714168860779985e-01 1.286201213372938e+00 2.215754030447891e+00 7.714168860779985e-01 1.277624441068990e+00 2.215754030447892e+00 3.764919973026394e+00 1.277624441068991e+00 1.988760823151781e+00 3.764919973026395e+00 5.744107344043385e+00 1.988760823151781e+00 2.733071856327166e+00 5.744107344043385e+00 7.693975947031442e+00 2.733071856327167e+00 3.312159375839089e+00 7.693975947031442e+00 8.967704410304517e+00 3.312159375839089e+00 3.765011296263016e+00 8.967704410304517e+00 9.148216576443547e+00 3.765011296263016e+00 3.943117123118932e+00 9.148216576443547e+00 8.172419195387260e+00 7.995440242038632e-01 1.286201213372938e+00 1.375183512726787e+00 2.398066111208916e+00 1.286201213372938e+00 2.215754030447892e+00 2.398066111208916e+00 4.322811229588462e+00 2.215754030447892e+00 3.764919973026395e+00 4.322811229588463e+00 7.229490088343483e+00 3.764919973026395e+00 5.744107344043385e+00 7.229490088343484e+00 1.069779857671353e+01 5.744107344043386e+00 7.693975947031442e+00 1.069779857671353e+01 1.397264751057172e+01 7.693975947031443e+00 8.967704410304517e+00 1.397264751057172e+01 1.596986681779694e+01 8.967704410304519e+00 9.148216576443549e+00 1.596986681779694e+01 1.570813302599892e+01 9.148216576443549e+00 8.172419195387262e+00 1.570813302599892e+01 1.328502319219871e+01 1.375183512726787e+00 2.398066111208916e+00 2.076489749041344e+00 3.740082474692270e+00 2.398066111208917e+00 4.322811229588463e+00 3.740082474692270e+00 6.732042938410270e+00 4.322811229588464e+00 7.229490088343484e+00 6.732042938410270e+00 1.088398724611401e+01 7.229490088343484e+00 1.069779857671353e+01 1.088398724611401e+01 1.557473680841284e+01 1.069779857671353e+01 1.397264751057172e+01 1.557473680841285e+01 1.991285946002182e+01 1.397264751057172e+01 1.596986681779694e+01 1.991285946002183e+01 2.262089929552448e+01 1.596986681779694e+01 1.570813302599892e+01 2.262089929552448e+01 2.229516581963885e+01 1.570813302599892e+01 1.328502319219871e+01 2.229516581963885e+01 1.881453339203645e+01 2.076489749041345e+00 3.740082474692270e+00 2.886124378199471e+00 5.203264323867947e+00 3.740082474692271e+00 6.732042938410270e+00 5.203264323867947e+00 9.098987403567914e+00 6.732042938410270e+00 1.088398724611401e+01 9.098987403567916e+00 1.409911817002859e+01 1.088398724611401e+01 1.557473680841285e+01 1.409911817002859e+01 1.952751925710874e+01 1.557473680841285e+01 1.991285946002183e+01 1.952751925710874e+01 2.452751559110742e+01 1.991285946002183e+01 2.262089929552448e+01 2.452751559110742e+01 2.785363153333178e+01 2.262089929552448e+01 2.229516581963885e+01 2.785363153333178e+01 2.803628837815616e+01 2.229516581963885e+01 1.881453339203645e+01 2.803628837815616e+01 2.429455206505858e+01 2.886124378199472e+00 5.203264323867947e+00 3.786749376658018e+00 6.701744836209582e+00 5.203264323867947e+00 9.098987403567916e+00 6.701744836209584e+00 1.117122122245536e+01 9.098987403567916e+00 1.409911817002859e+01 1.117122122245536e+01 1.656855199311583e+01 1.409911817002859e+01 1.952751925710874e+01 1.656855199311583e+01 2.229022759663137e+01 1.952751925710875e+01 2.452751559110742e+01 2.229022759663137e+01 2.760108527873853e+01 2.452751559110742e+01 2.785363153333178e+01 2.760108527873853e+01 3.135261377533277e+01 2.785363153333178e+01 2.803628837815616e+01 3.135261377533278e+01 3.232554615171907e+01 2.803628837815616e+01 2.429455206505859e+01 3.232554615171908e+01 2.925867790847936e+01 3.786749376658018e+00 6.701744836209583e+00 4.761028042749231e+00 8.119769137465715e+00 6.701744836209584e+00 1.117122122245536e+01 8.119769137465717e+00 1.279277646188686e+01 1.117122122245536e+01 1.656855199311583e+01 1.279277646188687e+01 1.825199226211948e+01 1.656855199311583e+01 2.229022759663137e+01 1.825199226211949e+01 2.396934562456717e+01 2.229022759663137e+01 2.760108527873853e+01 2.396934562456718e+01 2.932897661285828e+01 2.760108527873854e+01 3.135261377533278e+01 2.932897661285828e+01 3.336389769525517e+01 3.135261377533278e+01 3.232554615171908e+01 3.336389769525518e+01 3.501932350459060e+01 3.232554615171908e+01 2.925867790847937e+01 3.501932350459060e+01 3.324050451041063e+01 
				</DataArray>
			</PointData>
			<CellData>
			</CellData>
		</Piece>
	</UnstructuredGrid>
</VTKFile>