<?xml version="1.0"?>
<VTKFile type="UnstructuredGrid" byte_order="LittleEndian">
	<UnstructuredGrid>
		<Piece NumberOfPoints="16" NumberOfCells="4">
			<Points>
				<DataArray type="Float64" NumberOfComponents="3" format="ascii">
					1.000000000000000e+00 -1.000000000000000e+00 0.000000000000000e+00
					1.500000000000000e+00 0.000000000000000e+00 0.000000000000000e+00
					6.951941016011038e-01 -6.951941016011038e-01 0.000000000000000e+00
					8.202191016011038e-01 0.000000000000000e+00 0.000000000000000e+00
					1.500000000000000e+00 0.000000000000000e+00 0.000000000000000e+00
					1.000000000000000e+00 1.000000000000000e+00 0.000000000000000e+00
					8.202191016011038e-01 0.000000000000000e+00 0.000000000000000e+00
					6.951941016011038e-01 6.951941016011038e-01 0.000000000000000e+00
					6.951941016011038e-01 -6.951941016011038e-01 0.000000000000000e+00
					8.202191016011038e-01 0.000000000000000e+00 0.000000000000000e+00
					5.000000000000000e-01 -5.000000000000000e-01 0.000000000000000e+00
					5.000000000000000e-01 0.000000000000000e+00 0.000000000000000e+00
					8.202191016011038e-01 0.000000000000000e+00 0.000000000000000e+00
					6.951941016011038e-01 6.951941016011038e-01 0.000000000000000e+00
					5.000000000000000e-01 0.000000000000000e+00 0.000000000000000e+00
					5.000000000000000e-01 5.000000000000000e-01 0.000000000000000e+00
				</DataArray>
			</Points>
			<Cells>
				<DataArray Name="connectivity" type="UInt32" format="ascii">
					0 1 3 2 4 5 7 6 8 9 11 10 12 13 15 14 
				</DataArray>
				<DataArray Name="offsets" type="UInt32" format="ascii">
					4 8 12 16 
				</DataArray>
				<DataArray Name="types" type="UInt8" format="ascii">
					9 9 9 9 
				</DataArray>
			</Cells>
			<PointData Vectors="solution ">
				<DataArray Name="solution" type="Float64" NumberOfComponents="1" format="ascii">
					0.000000000000000e+00 0.000000000000000e+00 1.733064091698779e+00 1.155212767817384e+01 0.000000000000000e+00 0.000000000000000e+00 1.155212767817384e+01 1.152580049784171e+01 1.733064091698779e+00 1.155212767817384e+01 5.464891234479327e+00 2.247564421925119e+01 1.155212767817384e+01 1.152580049784171e+01 2.247564421925119e+01 2.922706352463074e+01 
				</DataArray>
			</PointData>
			<CellData>
			</CellData>
		</Piece>
	</UnstructuredGrid>
</VTKFile>