<?xml version="1.0"?>
<VTKFile type="UnstructuredGrid" byte_order="LittleEndian">
	<UnstructuredGrid>
		<Piece NumberOfPoints="64" NumberOfCells="16">
			<Points>
				<DataArray type="Float64" NumberOfComponents="3" format="ascii">
					-1.000000000000000e+00 1.000000000000000e+00 0.000000000000000e+00
					-8.338955762008279e-01 8.338955762008279e-01 0.000000000000000e+00
					-5.000000000000000e-01 1.375000000000000e+00 0.000000000000000e+00
					-4.169477881004139e-01 1.044847138700828e+00 0.000000000000000e+00
					-8.338955762008279e-01 8.338955762008279e-01 0.000000000000000e+00
					-6.951941016011038e-01 6.951941016011038e-01 0.000000000000000e+00
					-4.169477881004139e-01 1.044847138700828e+00 0.000000000000000e+00
					-3.475970508005519e-01 7.889628516011038e-01 0.000000000000000e+00
					-6.951941016011038e-01 6.951941016011038e-01 0.000000000000000e+00
					-5.838955762008279e-01 5.838955762008279e-01 0.000000000000000e+00
					-3.475970508005519e-01 7.889628516011038e-01 0.000000000000000e+00
					-2.919477881004139e-01 6.073471387008278e-01 0.000000000000000e+00
					-5.838955762008279e-01 5.838955762008279e-01 0.000000000000000e+00
					-5.000000000000000e-01 5.000000000000000e-01 0.000000000000000e+00
					-2.919477881004139e-01 6.073471387008278e-01 0.000000000000000e+00
					-2.500000000000000e-01 5.000000000000000e-01 0.000000000000000e+00
					-5.000000000000000e-01 1.375000000000000e+00 0.000000000000000e+00
					-4.169477881004139e-01 1.044847138700828e+00 0.000000000000000e+00
					1.387778780781446e-17 1.500000000000000e+00 0.000000000000000e+00
					2.081668171172169e-17 1.115164326200828e+00 0.000000000000000e+00
					-4.169477881004139e-01 1.044847138700828e+00 0.000000000000000e+00
					-3.475970508005519e-01 7.889628516011038e-01 0.000000000000000e+00
					2.081668171172169e-17 1.115164326200828e+00 0.000000000000000e+00
					0.000000000000000e+00 8.202191016011038e-01 0.000000000000000e+00
					-3.475970508005519e-01 7.889628516011038e-01 0.000000000000000e+00
					-2.919477881004139e-01 6.073471387008278e-01 0.000000000000000e+00
					0.000000000000000e+00 8.202191016011038e-01 0.000000000000000e+00
					1.387778780781446e-17 6.151643262008278e-01 0.000000000000000e+00
					-2.919477881004139e-01 6.073471387008278e-01 0.000000000000000e+00
					-2.500000000000000e-01 5.000000000000000e-01 0.000000000000000e+00
					1.387778780781446e-17 6.151643262008278e-01 0.000000000000000e+00
					6.938893903907228e-18 5.000000000000000e-01 0.000000000000000e+00
					1.387778780781446e-17 1.500000000000000e+00 0.000000000000000e+00
					2.081668171172169e-17 1.115164326200828e+00 0.000000000000000e+00
					5.000000000000000e-01 1.375000000000000e+00 0.000000000000000e+00
					4.169477881004140e-01 1.044847138700828e+00 0.000000000000000e+00
					2.081668171172169e-17 1.115164326200828e+00 0.000000000000000e+00
					0.000000000000000e+00 8.202191016011038e-01 0.000000000000000e+00
					4.169477881004140e-01 1.044847138700828e+00 0.000000000000000e+00
					3.475970508005519e-01 7.889628516011038e-01 0.000000000000000e+00
					0.000000000000000e+00 8.202191016011038e-01 0.000000000000000e+00
					1.387778780781446e-17 6.151643262008278e-01 0.000000000000000e+00
					3.475970508005519e-01 7.889628516011038e-01 0.000000000000000e+00
					2.919477881004139e-01 6.073471387008278e-01 0.000000000000000e+00
					1.387778780781446e-17 6.151643262008278e-01 0.000000000000000e+00
					6.938893903907228e-18 5.000000000000000e-01 0.000000000000000e+00
					2.919477881004139e-01 6.073471387008278e-01 0.000000000000000e+00
					2.500000000000000e-01 5.000000000000000e-01 0.000000000000000e+00
					5.000000000000000e-01 1.375000000000000e+00 0.000000000000000e+00
					4.169477881004140e-01 1.044847138700828e+00 0.000000000000000e+00
					1.000000000000000e+00 1.000000000000000e+00 0.000000000000000e+00
					8.338955762008279e-01 8.338955762008279e-01 0.000000000000000e+00
					4.169477881004140e-01 1.044847138700828e+00 0.000000000000000e+00
					3.475970508005519e-01 7.889628516011038e-01 0.000000000000000e+00
					8.338955762008279e-01 8.338955762008279e-01 0.000000000000000e+00
					6.951941016011038e-01 6.951941016011038e-01 0.000000000000000e+00
					3.475970508005519e-01 7.889628516011038e-01 0.000000000000000e+00
					2.919477881004139e-01 6.073471387008278e-01 0.000000000000000e+00
					6.951941016011038e-01 6.951941016011038e-01 0.000000000000000e+00
					5.838955762008279e-01 5.838955762008279e-01 0.000000000000000e+00
					2.919477881004139e-01 6.073471387008278e-01 0.000000000000000e+00
					2.500000000000000e-01 5.000000000000000e-01 0.000000000000000e+00
					5.838955762008279e-01 5.838955762008279e-01 0.000000000000000e+00
					5.000000000000000e-01 5.000000000000000e-01 0.000000000000000e+00
				</DataArray>
			</Points>
			<Cells>
				<DataArray Name="connectivity" type="UInt32" format="ascii">
					0 1 3 2 4 5 7 6 8 9 11 10 12 13 15 14 16 17 19 18 20 21 23 22 24 25 27 26 28 29 31 30 32 33 35 34 36 37 39 38 40 41 43 42 44 45 47 46 48 49 51 50 52 53 55 54 56 57 59 58 60 61 63 62 
				</DataArray>
				<DataArray Name="offsets" type="UInt32" format="ascii">
					4 8 12 16 20 24 28 32 36 40 44 48 52 56 60 64 
				</DataArray>
				<DataArray Name="types" type="UInt8" format="ascii">
					9 9 9 9 9 9 9 9 9 9 9 9 9 9 9 9 
				</DataArray>
			</Cells>
			<PointData Vectors="solution ">
				<DataArray Name="solution" type="Float64" NumberOfComponents="1" format="ascii">
					0.000000000000000e+00 1.273650171464316e+00 0.000000000000000e+00 2.857387983229712e+00 1.273650171464316e+00 4.457100258336665e+00 2.857387983229712e+00 1.289490073238008e+01 4.457100258336665e+00 8.594099578244474e+00 1.289490073238009e+01 2.187369728552406e+01 8.594099578244478e+00 1.272840298168851e+01 2.187369728552406e+01 2.664088643771280e+01 0.000000000000000e+00 2.857387983229712e+00 0.000000000000000e+00 6.005468274800452e+00 2.857387983229713e+00 1.289490073238009e+01 6.005468274800453e+00 2.395091687448410e+01 1.289490073238009e+01 2.187369728552406e+01 2.395091687448410e+01 3.573850865476616e+01 2.187369728552406e+01 2.664088643771280e+01 3.573850865476616e+01 3.931533718478340e+01 0.000000000000000e+00 6.005468274800453e+00 0.000000000000000e+00 5.837887773968491e+00 6.005468274800454e+00 2.395091687448410e+01 5.837887773968491e+00 2.417289687432358e+01 2.395091687448410e+01 3.573850865476616e+01 2.417289687432358e+01 3.756076292284212e+01 3.573850865476616e+01 3.931533718478341e+01 3.756076292284212e+01 4.225099063866129e+01 0.000000000000000e+00 5.837887773968491e+00 0.000000000000000e+00 3.831592761003147e+00 5.837887773968492e+00 2.417289687432358e+01 3.831592761003148e+00 1.294098106902383e+01 2.417289687432358e+01 3.756076292284212e+01 1.294098106902384e+01 2.375000601810109e+01 3.756076292284212e+01 4.225099063866129e+01 2.375000601810109e+01 3.268040486376680e+01 
				</DataArray>
			</PointData>
			<CellData>
			</CellData>
		</Piece>
	</UnstructuredGrid>
</VTKFile>