<?xml version="1.0"?>
<VTKFile type="UnstructuredGrid" byte_order="LittleEndian">
	<UnstructuredGrid>
		<Piece NumberOfPoints="256" NumberOfCells="64">
			<Points>
				<DataArray type="Float64" NumberOfComponents="3" format="ascii">
					-1.000000000000000e+00 1.000000000000000e+00 0.000000000000000e+00
					-9.135224194504830e-01 9.135224194504830e-01 0.000000000000000e+00
					-7.500000000000000e-01 1.218750000000000e+00 0.000000000000000e+00
					-6.851418145878623e-01 1.081002888200483e+00 0.000000000000000e+00
					-9.135224194504830e-01 9.135224194504830e-01 0.000000000000000e+00
					-8.338955762008280e-01 8.338955762008280e-01 0.000000000000000e+00
					-6.851418145878623e-01 1.081002888200483e+00 0.000000000000000e+00
					-6.254216821506210e-01 9.569424512008280e-01 0.000000000000000e+00
					-8.338955762008280e-01 8.338955762008280e-01 0.000000000000000e+00
					-7.611194702510350e-01 7.611194702510350e-01 0.000000000000000e+00
					-6.254216821506210e-01 9.569424512008280e-01 0.000000000000000e+00
					-5.708396026882763e-01 8.465686890010351e-01 0.000000000000000e+00
					-7.611194702510350e-01 7.611194702510350e-01 0.000000000000000e+00
					-6.951941016011041e-01 6.951941016011041e-01 0.000000000000000e+00
					-5.708396026882763e-01 8.465686890010351e-01 0.000000000000000e+00
					-5.213955762008280e-01 7.498816016011042e-01 0.000000000000000e+00
					-6.951941016011041e-01 6.951941016011041e-01 0.000000000000000e+00
					-6.361194702510350e-01 6.361194702510350e-01 0.000000000000000e+00
					-5.213955762008280e-01 7.498816016011042e-01 0.000000000000000e+00
					-4.770896026882763e-01 6.668811890010351e-01 0.000000000000000e+00
					-6.361194702510350e-01 6.361194702510350e-01 0.000000000000000e+00
					-5.838955762008280e-01 5.838955762008280e-01 0.000000000000000e+00
					-4.770896026882763e-01 6.668811890010351e-01 0.000000000000000e+00
					-4.379216821506210e-01 5.975674512008280e-01 0.000000000000000e+00
					-5.838955762008280e-01 5.838955762008280e-01 0.000000000000000e+00
					-5.385224194504830e-01 5.385224194504830e-01 0.000000000000000e+00
					-4.379216821506210e-01 5.975674512008280e-01 0.000000000000000e+00
					-4.038918145878622e-01 5.419403882004830e-01 0.000000000000000e+00
					-5.385224194504830e-01 5.385224194504830e-01 0.000000000000000e+00
					-5.000000000000000e-01 5.000000000000000e-01 0.000000000000000e+00
					-4.038918145878622e-01 5.419403882004830e-01 0.000000000000000e+00
					-3.750000000000000e-01 5.000000000000000e-01 0.000000000000000e+00
					-7.500000000000000e-01 1.218750000000000e+00 0.000000000000000e+00
					-6.851418145878623e-01 1.081002888200483e+00 0.000000000000000e+00
					-5.000000000000000e-01 1.375000000000000e+00 0.000000000000000e+00
					-4.567612097252415e-01 1.200631794450483e+00 0.000000000000000e+00
					-6.851418145878623e-01 1.081002888200483e+00 0.000000000000000e+00
					-6.254216821506210e-01 9.569424512008280e-01 0.000000000000000e+00
					-4.567612097252415e-01 1.200631794450483e+00 0.000000000000000e+00
					-4.169477881004140e-01 1.044833076200828e+00 0.000000000000000e+00
					-6.254216821506210e-01 9.569424512008280e-01 0.000000000000000e+00
					-5.708396026882763e-01 8.465686890010351e-01 0.000000000000000e+00
					-4.169477881004140e-01 1.044833076200828e+00 0.000000000000000e+00
					-3.805597351255176e-01 9.076038452510351e-01 0.000000000000000e+00
					-5.708396026882763e-01 8.465686890010351e-01 0.000000000000000e+00
					-5.213955762008280e-01 7.498816016011042e-01 0.000000000000000e+00
					-3.805597351255176e-01 9.076038452510351e-01 0.000000000000000e+00
					-3.475970508005520e-01 7.889441016011043e-01 0.000000000000000e+00
					-5.213955762008280e-01 7.498816016011042e-01 0.000000000000000e+00
					-4.770896026882763e-01 6.668811890010351e-01 0.000000000000000e+00
					-3.475970508005520e-01 7.889441016011043e-01 0.000000000000000e+00
					-3.180597351255176e-01 6.888538452510351e-01 0.000000000000000e+00
					-4.770896026882763e-01 6.668811890010351e-01 0.000000000000000e+00
					-4.379216821506210e-01 5.975674512008280e-01 0.000000000000000e+00
					-3.180597351255176e-01 6.888538452510351e-01 0.000000000000000e+00
					-2.919477881004140e-01 6.073330762008280e-01 0.000000000000000e+00
					-4.379216821506210e-01 5.975674512008280e-01 0.000000000000000e+00
					-4.038918145878622e-01 5.419403882004830e-01 0.000000000000000e+00
					-2.919477881004140e-01 6.073330762008280e-01 0.000000000000000e+00
					-2.692612097252415e-01 5.443817944504830e-01 0.000000000000000e+00
					-4.038918145878622e-01 5.419403882004830e-01 0.000000000000000e+00
					-3.750000000000000e-01 5.000000000000000e-01 0.000000000000000e+00
					-2.692612097252415e-01 5.443817944504830e-01 0.000000000000000e+00
					-2.500000000000000e-01 5.000000000000000e-01 0.000000000000000e+00
					-5.000000000000000e-01 1.375000000000000e+00 0.000000000000000e+00
					-4.567612097252415e-01 1.200631794450483e+00 0.000000000000000e+00
					-2.499999999999999e-01 1.468750000000000e+00 0.000000000000000e+00
					-2.283806048626207e-01 1.272409138200483e+00 0.000000000000000e+00
					-4.567612097252415e-01 1.200631794450483e+00 0.000000000000000e+00
					-4.169477881004140e-01 1.044833076200828e+00 0.000000000000000e+00
					-2.283806048626207e-01 1.272409138200483e+00 0.000000000000000e+00
					-2.084738940502069e-01 1.097567451200828e+00 0.000000000000000e+00
					-4.169477881004140e-01 1.044833076200828e+00 0.000000000000000e+00
					-3.805597351255176e-01 9.076038452510351e-01 0.000000000000000e+00
					-2.084738940502069e-01 1.097567451200828e+00 0.000000000000000e+00
					-1.902798675627587e-01 9.442249390010350e-01 0.000000000000000e+00
					-3.805597351255176e-01 9.076038452510351e-01 0.000000000000000e+00
					-3.475970508005520e-01 7.889441016011043e-01 0.000000000000000e+00
					-1.902798675627587e-01 9.442249390010350e-01 0.000000000000000e+00
					-1.737985254002760e-01 8.123816016011043e-01 0.000000000000000e+00
					-3.475970508005520e-01 7.889441016011043e-01 0.000000000000000e+00
					-3.180597351255176e-01 6.888538452510351e-01 0.000000000000000e+00
					-1.737985254002760e-01 8.123816016011043e-01 0.000000000000000e+00
					-1.590298675627587e-01 7.020374390010350e-01 0.000000000000000e+00
					-3.180597351255176e-01 6.888538452510351e-01 0.000000000000000e+00
					-2.919477881004140e-01 6.073330762008280e-01 0.000000000000000e+00
					-1.590298675627587e-01 7.020374390010350e-01 0.000000000000000e+00
					-1.459738940502070e-01 6.131924512008280e-01 0.000000000000000e+00
					-2.919477881004140e-01 6.073330762008280e-01 0.000000000000000e+00
					-2.692612097252415e-01 5.443817944504830e-01 0.000000000000000e+00
					-1.459738940502070e-01 6.131924512008280e-01 0.000000000000000e+00
					-1.346306048626207e-01 5.458466382004830e-01 0.000000000000000e+00
					-2.692612097252415e-01 5.443817944504830e-01 0.000000000000000e+00
					-2.500000000000000e-01 5.000000000000000e-01 0.000000000000000e+00
					-1.346306048626207e-01 5.458466382004830e-01 0.000000000000000e+00
					-1.250000000000000e-01 5.000000000000000e-01 0.000000000000000e+00
					-2.499999999999999e-01 1.468750000000000e+00 0.000000000000000e+00
					-2.283806048626207e-01 1.272409138200483e+00 0.000000000000000e+00
					6.938893903907228e-17 1.500000000000000e+00 0.000000000000000e+00
					1.249000902703301e-16 1.296334919450483e+00 0.000000000000000e+00
					-2.283806048626207e-01 1.272409138200483e+00 0.000000000000000e+00
					-2.084738940502069e-01 1.097567451200828e+00 0.000000000000000e+00
					1.249000902703301e-16 1.296334919450483e+00 0.000000000000000e+00
					5.551115123125783e-17 1.115145576200828e+00 0.000000000000000e+00
					-2.084738940502069e-01 1.097567451200828e+00 0.000000000000000e+00
					-1.902798675627587e-01 9.442249390010350e-01 0.000000000000000e+00
					5.551115123125783e-17 1.115145576200828e+00 0.000000000000000e+00
					5.551115123125783e-17 9.564319702510350e-01 0.000000000000000e+00
					-1.902798675627587e-01 9.442249390010350e-01 0.000000000000000e+00
					-1.737985254002760e-01 8.123816016011043e-01 0.000000000000000e+00
					5.551115123125783e-17 9.564319702510350e-01 0.000000000000000e+00
					1.387778780781446e-17 8.201941016011043e-01 0.000000000000000e+00
					-1.737985254002760e-01 8.123816016011043e-01 0.000000000000000e+00
					-1.590298675627587e-01 7.020374390010350e-01 0.000000000000000e+00
					1.387778780781446e-17 8.201941016011043e-01 0.000000000000000e+00
					4.163336342344337e-17 7.064319702510352e-01 0.000000000000000e+00
					-1.590298675627587e-01 7.020374390010350e-01 0.000000000000000e+00
					-1.459738940502070e-01 6.131924512008280e-01 0.000000000000000e+00
					4.163336342344337e-17 7.064319702510352e-01 0.000000000000000e+00
					4.857225732735060e-17 6.151455762008280e-01 0.000000000000000e+00
					-1.459738940502070e-01 6.131924512008280e-01 0.000000000000000e+00
					-1.346306048626207e-01 5.458466382004830e-01 0.000000000000000e+00
					4.857225732735060e-17 6.151455762008280e-01 0.000000000000000e+00
					3.469446951953614e-17 5.463349194504830e-01 0.000000000000000e+00
					-1.346306048626207e-01 5.458466382004830e-01 0.000000000000000e+00
					-1.250000000000000e-01 5.000000000000000e-01 0.000000000000000e+00
					3.469446951953614e-17 5.463349194504830e-01 0.000000000000000e+00
					3.469446951953614e-17 5.000000000000000e-01 0.000000000000000e+00
					6.938893903907228e-17 1.500000000000000e+00 0.000000000000000e+00
					1.249000902703301e-16 1.296334919450483e+00 0.000000000000000e+00
					2.500000000000001e-01 1.468750000000000e+00 0.000000000000000e+00
					2.283806048626209e-01 1.272409138200483e+00 0.000000000000000e+00
					1.249000902703301e-16 1.296334919450483e+00 0.000000000000000e+00
					5.551115123125783e-17 1.115145576200828e+00 0.000000000000000e+00
					2.283806048626209e-01 1.272409138200483e+00 0.000000000000000e+00
					2.084738940502071e-01 1.097567451200828e+00 0.000000000000000e+00
					5.551115123125783e-17 1.115145576200828e+00 0.000000000000000e+00
					5.551115123125783e-17 9.564319702510350e-01 0.000000000000000e+00
					2.084738940502071e-01 1.097567451200828e+00 0.000000000000000e+00
					1.902798675627588e-01 9.442249390010350e-01 0.000000000000000e+00
					5.551115123125783e-17 9.564319702510350e-01 0.000000000000000e+00
					1.387778780781446e-17 8.201941016011043e-01 0.000000000000000e+00
					1.902798675627588e-01 9.442249390010350e-01 0.000000000000000e+00
					1.737985254002760e-01 8.123816016011041e-01 0.000000000000000e+00
					1.387778780781446e-17 8.201941016011043e-01 0.000000000000000e+00
					4.163336342344337e-17 7.064319702510352e-01 0.000000000000000e+00
					1.737985254002760e-01 8.123816016011041e-01 0.000000000000000e+00
					1.590298675627588e-01 7.020374390010352e-01 0.000000000000000e+00
					4.163336342344337e-17 7.064319702510352e-01 0.000000000000000e+00
					4.857225732735060e-17 6.151455762008280e-01 0.000000000000000e+00
					1.590298675627588e-01 7.020374390010352e-01 0.000000000000000e+00
					1.459738940502071e-01 6.131924512008280e-01 0.000000000000000e+00
					4.857225732735060e-17 6.151455762008280e-01 0.000000000000000e+00
					3.469446951953614e-17 5.463349194504830e-01 0.000000000000000e+00
					1.459738940502071e-01 6.131924512008280e-01 0.000000000000000e+00
					1.346306048626208e-01 5.458466382004830e-01 0.000000000000000e+00
					3.469446951953614e-17 5.463349194504830e-01 0.000000000000000e+00
					3.469446951953614e-17 5.000000000000000e-01 0.000000000000000e+00
					1.346306048626208e-01 5.458466382004830e-01 0.000000000000000e+00
					1.250000000000001e-01 5.000000000000000e-01 0.000000000000000e+00
					2.500000000000001e-01 1.468750000000000e+00 0.000000000000000e+00
					2.283806048626209e-01 1.272409138200483e+00 0.000000000000000e+00
					5.000000000000001e-01 1.375000000000000e+00 0.000000000000000e+00
					4.567612097252416e-01 1.200631794450483e+00 0.000000000000000e+00
					2.283806048626209e-01 1.272409138200483e+00 0.000000000000000e+00
					2.084738940502071e-01 1.097567451200828e+00 0.000000000000000e+00
					4.567612097252416e-01 1.200631794450483e+00 0.000000000000000e+00
					4.169477881004141e-01 1.044833076200828e+00 0.000000000000000e+00
					2.084738940502071e-01 1.097567451200828e+00 0.000000000000000e+00
					1.902798675627588e-01 9.442249390010350e-01 0.000000000000000e+00
					4.169477881004141e-01 1.044833076200828e+00 0.000000000000000e+00
					3.805597351255176e-01 9.076038452510350e-01 0.000000000000000e+00
					1.902798675627588e-01 9.442249390010350e-01 0.000000000000000e+00
					1.737985254002760e-01 8.123816016011041e-01 0.000000000000000e+00
					3.805597351255176e-01 9.076038452510350e-01 0.000000000000000e+00
					3.475970508005520e-01 7.889441016011041e-01 0.000000000000000e+00
					1.737985254002760e-01 8.123816016011041e-01 0.000000000000000e+00
					1.590298675627588e-01 7.020374390010352e-01 0.000000000000000e+00
					3.475970508005520e-01 7.889441016011041e-01 0.000000000000000e+00
					3.180597351255176e-01 6.888538452510351e-01 0.000000000000000e+00
					1.590298675627588e-01 7.020374390010352e-01 0.000000000000000e+00
					1.459738940502071e-01 6.131924512008280e-01 0.000000000000000e+00
					3.180597351255176e-01 6.888538452510351e-01 0.000000000000000e+00
					2.919477881004141e-01 6.073330762008280e-01 0.000000000000000e+00
					1.459738940502071e-01 6.131924512008280e-01 0.000000000000000e+00
					1.346306048626208e-01 5.458466382004830e-01 0.000000000000000e+00
					2.919477881004141e-01 6.073330762008280e-01 0.000000000000000e+00
					2.692612097252415e-01 5.443817944504830e-01 0.000000000000000e+00
					1.346306048626208e-01 5.458466382004830e-01 0.000000000000000e+00
					1.250000000000001e-01 5.000000000000000e-01 0.000000000000000e+00
					2.692612097252415e-01 5.443817944504830e-01 0.000000000000000e+00
					2.500000000000001e-01 5.000000000000000e-01 0.000000000000000e+00
					5.000000000000001e-01 1.375000000000000e+00 0.000000000000000e+00
					4.567612097252416e-01 1.200631794450483e+00 0.000000000000000e+00
					7.500000000000000e-01 1.218750000000000e+00 0.000000000000000e+00
					6.851418145878623e-01 1.081002888200483e+00 0.000000000000000e+00
					4.567612097252416e-01 1.200631794450483e+00 0.000000000000000e+00
					4.169477881004141e-01 1.044833076200828e+00 0.000000000000000e+00
					6.851418145878623e-01 1.081002888200483e+00 0.000000000000000e+00
					6.254216821506210e-01 9.569424512008280e-01 0.000000000000000e+00
					4.169477881004141e-01 1.044833076200828e+00 0.000000000000000e+00
					3.805597351255176e-01 9.076038452510350e-01 0.000000000000000e+00
					6.254216821506210e-01 9.569424512008280e-01 0.000000000000000e+00
					5.708396026882763e-01 8.465686890010349e-01 0.000000000000000e+00
					3.805597351255176e-01 9.076038452510350e-01 0.000000000000000e+00
					3.475970508005520e-01 7.889441016011041e-01 0.000000000000000e+00
					5.708396026882763e-01 8.465686890010349e-01 0.000000000000000e+00
					5.213955762008280e-01 7.498816016011041e-01 0.000000000000000e+00
					3.475970508005520e-01 7.889441016011041e-01 0.000000000000000e+00
					3.180597351255176e-01 6.888538452510351e-01 0.000000000000000e+00
					5.213955762008280e-01 7.498816016011041e-01 0.000000000000000e+00
					4.770896026882762e-01 6.668811890010349e-01 0.000000000000000e+00
					3.180597351255176e-01 6.888538452510351e-01 0.000000000000000e+00
					2.919477881004141e-01 6.073330762008280e-01 0.000000000000000e+00
					4.770896026882762e-01 6.668811890010349e-01 0.000000000000000e+00
					4.379216821506210e-01 5.975674512008280e-01 0.000000000000000e+00
					2.919477881004141e-01 6.073330762008280e-01 0.000000000000000e+00
					2.692612097252415e-01 5.443817944504830e-01 0.000000000000000e+00
					4.379216821506210e-01 5.975674512008280e-01 0.000000000000000e+00
					4.038918145878622e-01 5.419403882004830e-01 0.000000000000000e+00
					2.692612097252415e-01 5.443817944504830e-01 0.000000000000000e+00
					2.500000000000001e-01 5.000000000000000e-01 0.000000000000000e+00
					4.038918145878622e-01 5.419403882004830e-01 0.000000000000000e+00
					3.750000000000000e-01 5.000000000000000e-01 0.000000000000000e+00
					7.500000000000000e-01 1.218750000000000e+00 0.000000000000000e+00
					6.851418145878623e-01 1.081002888200483e+00 0.000000000000000e+00
					1.000000000000000e+00 1.000000000000000e+00 0.000000000000000e+00
					9.135224194504830e-01 9.135224194504830e-01 0.000000000000000e+00
					6.851418145878623e-01 1.081002888200483e+00 0.000000000000000e+00
					6.254216821506210e-01 9.569424512008280e-01 0.000000000000000e+00
					9.135224194504830e-01 9.135224194504830e-01 0.000000000000000e+00
					8.338955762008280e-01 8.338955762008280e-01 0.000000000000000e+00
					6.254216821506210e-01 9.569424512008280e-01 0.000000000000000e+00
					5.708396026882763e-01 8.465686890010349e-01 0.000000000000000e+00
					8.338955762008280e-01 8.338955762008280e-01 0.000000000000000e+00
					7.611194702510350e-01 7.611194702510350e-01 0.000000000000000e+00
					5.708396026882763e-01 8.465686890010349e-01 0.000000000000000e+00
					5.213955762008280e-01 7.498816016011041e-01 0.000000000000000e+00
					7.611194702510350e-01 7.611194702510350e-01 0.000000000000000e+00
					6.951941016011041e-01 6.951941016011041e-01 0.000000000000000e+00
					5.213955762008280e-01 7.498816016011041e-01 0.000000000000000e+00
					4.770896026882762e-01 6.668811890010349e-01 0.000000000000000e+00
					6.951941016011041e-01 6.951941016011041e-01 0.000000000000000e+00
					6.361194702510350e-01 6.361194702510350e-01 0.000000000000000e+00
					4.770896026882762e-01 6.668811890010349e-01 0.000000000000000e+00
					4.379216821506210e-01 5.975674512008280e-01 0.000000000000000e+00
					6.361194702510350e-01 6.361194702510350e-01 0.000000000000000e+00
					5.838955762008280e-01 5.838955762008280e-01 0.000000000000000e+00
					4.379216821506210e-01 5.975674512008280e-01 0.000000000000000e+00
					4.038918145878622e-01 5.419403882004830e-01 0.000000000000000e+00
					5.838955762008280e-01 5.838955762008280e-01 0.000000000000000e+00
					5.385224194504830e-01 5.385224194504830e-01 0.000000000000000e+00
					4.038918145878622e-01 5.419403882004830e-01 0.000000000000000e+00
					3.750000000000000e-01 5.000000000000000e-01 0.000000000000000e+00
					5.385224194504830e-01 5.385224194504830e-01 0.000000000000000e+00
					5.000000000000000e-01 5.000000000000000e-01 0.000000000000000e+00
				</DataArray>
			</Points>
			<Cells>
				<DataArray Name="connectivity" type="UInt32" format="ascii">
					0 1 3 2 4 5 7 6 8 9 11 10 12 13 15 14 16 17 19 18 20 21 23 22 24 25 27 26 28 29 31 30 32 33 35 34 36 37 39 38 40 41 43 42 44 45 47 46 48 49 51 50 52 53 55 54 56 57 59 58 60 61 63 62 64 65 67 66 68 69 71 70 72 73 75 74 76 77 79 78 80 81 83 82 84 85 87 86 88 89 91 90 92 93 95 94 96 97 99 98 100 101 103 102 104 105 107 106 108 109 111 110 112 113 115 114 116 117 119 118 120 121 123 122 124 125 127 126 128 129 131 130 132 133 135 134 136 137 139 138 140 141 143 142 144 145 147 146 148 149 151 150 152 153 155 154 156 157 159 158 160 161 163 162 164 165 167 166 168 169 171 170 172 173 175 174 176 177 179 178 180 181 183 182 184 185 187 186 188 189 191 190 192 193 195 194 196 197 199 198 200 201 203 202 204 205 207 206 208 209 211 210 212 213 215 214 216 217 219 218 220 221 223 222 224 225 227 226 228 229 231 230 232 233 235 234 236 237 239 238 240 241 243 242 244 245 247 246 248 249 251 250 252 253 255 254 
				</DataArray>
				<DataArray Name="offsets" type="UInt32" format="ascii">
					4 8 12 16 20 24 28 32 36 40 44 48 52 56 60 64 68 72 76 80 84 88 92 96 100 104 108 112 116 120 124 128 132 136 140 144 148 152 156 160 164 168 172 176 180 184 188 192 196 200 204 208 212 216 220 224 228 232 236 240 244 248 252 256 
				</DataArray>
				<DataArray Name="types" type="UInt8" format="ascii">
					9 9 9 9 9 9 9 9 9 9 9 9 9 9 9 9 9 9 9 9 9 9 9 9 9 9 9 9 9 9 9 9 9 9 9 9 9 9 9 9 9 9 9 9 9 9 9 9 9 9 9 9 9 9 9 9 9 9 9 9 9 9 9 9 
				</DataArray>
			</Cells>
			<PointData Vectors="solution ">
				<DataArray Name="solution" type="Float64" NumberOfComponents="1" format="ascii">
					0.000000000000000e+00 3.259185568212727e-02 0.000000000000000e+00 1.116038581356179e-01 3.259185568212727e-02 3.684222160161861e-01 1.116038581356179e-01 1.081490105638818e+00 3.684222160161861e-01 1.317016588300345e+00 1.081490105638818e+00 3.367564239875607e+00 1.317016588300345e+00 2.935882297299968e+00 3.367564239875607e+00 6.605905773978284e+00 2.935882297299968e+00 5.060253231972355e+00 6.605905773978284e+00 1.013633274997777e+01 5.060253231972355e+00 7.429192763421318e+00 1.013633274997777e+01 1.342967621564083e+01 7.429192763421318e+00 9.788717739540770e+00 1.342967621564083e+01 1.621164316850897e+01 9.788717739540770e+00 1.194495186019090e+01 1.621164316850897e+01 1.841445436906275e+01 0.000000000000000e+00 1.116038581356179e-01 0.000000000000000e+00 2.848417880947365e-01 1.116038581356179e-01 1.081490105638818e+00 2.848417880947365e-01 2.367554410265548e+00 1.081490105638818e+00 3.367564239875607e+00 2.367554410265548e+00 6.684640034027440e+00 3.367564239875607e+00 6.605905773978284e+00 6.684640034027440e+00 1.201753710304052e+01 6.605905773978284e+00 1.013633274997777e+01 1.201753710304052e+01 1.701853086701538e+01 1.013633274997777e+01 1.342967621564083e+01 1.701853086701538e+01 2.098635632969984e+01 1.342967621564083e+01 1.621164316850897e+01 2.098635632969984e+01 2.382242323585459e+01 1.621164316850897e+01 1.841445436906275e+01 2.382242323585459e+01 2.573579024712707e+01 0.000000000000000e+00 2.848417880947365e-01 0.000000000000000e+00 5.598972887280339e-01 2.848417880947365e-01 2.367554410265548e+00 5.598972887280339e-01 4.074883142988483e+00 2.367554410265548e+00 6.684640034027440e+00 4.074883142988483e+00 1.074784846292255e+01 6.684640034027440e+00 1.201753710304052e+01 1.074784846292255e+01 1.825441794039554e+01 1.201753710304052e+01 1.701853086701538e+01 1.825441794039554e+01 2.454471337034406e+01 1.701853086701538e+01 2.098635632969984e+01 2.454471337034406e+01 2.889199240778265e+01 2.098635632969984e+01 2.382242323585459e+01 2.889199240778265e+01 3.151157115060602e+01 2.382242323585459e+01 2.573579024712707e+01 3.151157115060602e+01 3.295021485845756e+01 0.000000000000000e+00 5.598972887280339e-01 0.000000000000000e+00 8.212994002254741e-01 5.598972887280339e-01 4.074883142988483e+00 8.212994002254741e-01 5.605403965843695e+00 4.074883142988483e+00 1.074784846292255e+01 5.605403965843695e+00 1.426809137289620e+01 1.074784846292255e+01 1.825441794039554e+01 1.426809137289620e+01 2.352373432879317e+01 1.825441794039554e+01 2.454471337034406e+01 2.352373432879317e+01 3.079296385893012e+01 2.454471337034406e+01 2.889199240778265e+01 3.079296385893012e+01 3.538962934288311e+01 2.889199240778265e+01 3.151157115060602e+01 3.538962934288311e+01 3.780917979389657e+01 3.151157115060602e+01 3.295021485845756e+01 3.780917979389657e+01 3.886557969730001e+01 0.000000000000000e+00 8.212994002254741e-01 0.000000000000000e+00 8.839865047215063e-01 8.212994002254741e-01 5.605403965843695e+00 8.839865047215063e-01 6.182886288099160e+00 5.605403965843695e+00 1.426809137289620e+01 6.182886288099160e+00 1.572523759818940e+01 1.426809137289620e+01 2.352373432879317e+01 1.572523759818940e+01 2.584211398355623e+01 2.352373432879317e+01 3.079296385893012e+01 2.584211398355623e+01 3.373570365091273e+01 3.079296385893012e+01 3.538962934288311e+01 3.373570365091273e+01 3.868733364255237e+01 3.538962934288311e+01 3.780917979389657e+01 3.868733364255237e+01 4.124853924196695e+01 3.780917979389657e+01 3.886557969730001e+01 4.124853924196695e+01 4.230886884495726e+01 0.000000000000000e+00 8.839865047215063e-01 0.000000000000000e+00 7.100414658844656e-01 8.839865047215063e-01 6.182886288099160e+00 7.100414658844656e-01 5.450682176428759e+00 6.182886288099160e+00 1.572523759818940e+01 5.450682176428759e+00 1.430963244986508e+01 1.572523759818940e+01 2.584211398355623e+01 1.430963244986508e+01 2.408436509213703e+01 2.584211398355623e+01 3.373570365091273e+01 2.408436509213703e+01 3.215034398822916e+01 3.373570365091273e+01 3.868733364255237e+01 3.215034398822916e+01 3.762874917788326e+01 3.868733364255237e+01 4.124853924196695e+01 3.762874917788326e+01 4.081907544532213e+01 4.124853924196695e+01 4.230886884495726e+01 4.081907544532213e+01 4.243106301231930e+01 0.000000000000000e+00 7.100414658844656e-01 0.000000000000000e+00 4.393117820875999e-01 7.100414658844656e-01 5.450682176428759e+00 4.393117820875999e-01 3.777843083543657e+00 5.450682176428759e+00 1.430963244986508e+01 3.777843083543657e+00 1.054722574433773e+01 1.430963244986508e+01 2.408436509213703e+01 1.054722574433773e+01 1.874177424865339e+01 2.408436509213703e+01 3.215034398822916e+01 1.874177424865339e+01 2.631940644139648e+01 3.215034398822916e+01 3.762874917788326e+01 2.631940644139648e+01 3.224333060495422e+01 3.762874917788326e+01 4.081907544532213e+01 3.224333060495422e+01 3.636157597286213e+01 4.081907544532213e+01 4.243106301231930e+01 3.636157597286213e+01 3.898327675026350e+01 0.000000000000000e+00 4.393117820875999e-01 0.000000000000000e+00 2.033641677091565e-01 4.393117820875999e-01 3.777843083543657e+00 2.033641677091565e-01 1.952287140711507e+00 3.777843083543657e+00 1.054722574433773e+01 1.952287140711507e+00 6.034904610571355e+00 1.054722574433773e+01 1.874177424865339e+01 6.034904610571355e+00 1.179157027676632e+01 1.874177424865339e+01 2.631940644139648e+01 1.179157027676632e+01 1.805921967305626e+01 2.631940644139648e+01 3.224333060495422e+01 1.805921967305626e+01 2.388405667120776e+01 3.224333060495422e+01 3.636157597286213e+01 2.388405667120776e+01 2.873963902453075e+01 3.636157597286213e+01 3.898327675026350e+01 2.873963902453075e+01 3.246977143056870e+01 
				</DataArray>
			</PointData>
			<CellData>
			</CellData>
		</Piece>
	</UnstructuredGrid>
</VTKFile>