<?xml version="1.0"?>
<VTKFile type="UnstructuredGrid" byte_order="LittleEndian">
	<UnstructuredGrid>
		<Piece NumberOfPoints="256" NumberOfCells="64">
			<Points>
				<DataArray type="Float64" NumberOfComponents="3" format="ascii">
					-1.000000000000000e+00 -1.000000000000000e+00 0.000000000000000e+00
					-7.500000000000000e-01 -1.218750000000000e+00 0.000000000000000e+00
					-9.135224194504830e-01 -9.135224194504830e-01 0.000000000000000e+00
					-6.851418145878623e-01 -1.081002888200483e+00 0.000000000000000e+00
					-7.500000000000000e-01 -1.218750000000000e+00 0.000000000000000e+00
					-5.000000000000000e-01 -1.375000000000000e+00 0.000000000000000e+00
					-6.851418145878623e-01 -1.081002888200483e+00 0.000000000000000e+00
					-4.567612097252415e-01 -1.200631794450484e+00 0.000000000000000e+00
					-5.000000000000000e-01 -1.375000000000000e+00 0.000000000000000e+00
					-2.499999999999999e-01 -1.468750000000000e+00 0.000000000000000e+00
					-4.567612097252415e-01 -1.200631794450484e+00 0.000000000000000e+00
					-2.283806048626207e-01 -1.272409138200483e+00 0.000000000000000e+00
					-2.499999999999999e-01 -1.468750000000000e+00 0.000000000000000e+00
					6.938893903907228e-17 -1.500000000000000e+00 0.000000000000000e+00
					-2.283806048626207e-01 -1.272409138200483e+00 0.000000000000000e+00
					6.581107186987012e-17 -1.296334919450483e+00 0.000000000000000e+00
					6.938893903907228e-17 -1.500000000000000e+00 0.000000000000000e+00
					2.500000000000001e-01 -1.468750000000000e+00 0.000000000000000e+00
					6.581107186987012e-17 -1.296334919450483e+00 0.000000000000000e+00
					2.283806048626209e-01 -1.272409138200483e+00 0.000000000000000e+00
					2.500000000000001e-01 -1.468750000000000e+00 0.000000000000000e+00
					5.000000000000001e-01 -1.375000000000000e+00 0.000000000000000e+00
					2.283806048626209e-01 -1.272409138200483e+00 0.000000000000000e+00
					4.567612097252416e-01 -1.200631794450483e+00 0.000000000000000e+00
					5.000000000000001e-01 -1.375000000000000e+00 0.000000000000000e+00
					7.500000000000000e-01 -1.218750000000000e+00 0.000000000000000e+00
					4.567612097252416e-01 -1.200631794450483e+00 0.000000000000000e+00
					6.851418145878623e-01 -1.081002888200483e+00 0.000000000000000e+00
					7.500000000000000e-01 -1.218750000000000e+00 0.000000000000000e+00
					1.000000000000000e+00 -1.000000000000000e+00 0.000000000000000e+00
					6.851418145878623e-01 -1.081002888200483e+00 0.000000000000000e+00
					9.135224194504830e-01 -9.135224194504830e-01 0.000000000000000e+00
					-9.135224194504830e-01 -9.135224194504830e-01 0.000000000000000e+00
					-6.851418145878623e-01 -1.081002888200483e+00 0.000000000000000e+00
					-8.338955762008280e-01 -8.338955762008280e-01 0.000000000000000e+00
					-6.254216821506211e-01 -9.569424512008281e-01 0.000000000000000e+00
					-6.851418145878623e-01 -1.081002888200483e+00 0.000000000000000e+00
					-4.567612097252415e-01 -1.200631794450484e+00 0.000000000000000e+00
					-6.254216821506211e-01 -9.569424512008281e-01 0.000000000000000e+00
					-4.169477881004140e-01 -1.044833076200828e+00 0.000000000000000e+00
					-4.567612097252415e-01 -1.200631794450484e+00 0.000000000000000e+00
					-2.283806048626207e-01 -1.272409138200483e+00 0.000000000000000e+00
					-4.169477881004140e-01 -1.044833076200828e+00 0.000000000000000e+00
					-2.084738940502070e-01 -1.097567451200828e+00 0.000000000000000e+00
					-2.283806048626207e-01 -1.272409138200483e+00 0.000000000000000e+00
					6.581107186987012e-17 -1.296334919450483e+00 0.000000000000000e+00
					-2.084738940502070e-01 -1.097567451200828e+00 0.000000000000000e+00
					6.201636426617085e-17 -1.115145576200828e+00 0.000000000000000e+00
					6.581107186987012e-17 -1.296334919450483e+00 0.000000000000000e+00
					2.283806048626209e-01 -1.272409138200483e+00 0.000000000000000e+00
					6.201636426617085e-17 -1.115145576200828e+00 0.000000000000000e+00
					2.084738940502071e-01 -1.097567451200828e+00 0.000000000000000e+00
					2.283806048626209e-01 -1.272409138200483e+00 0.000000000000000e+00
					4.567612097252416e-01 -1.200631794450483e+00 0.000000000000000e+00
					2.084738940502071e-01 -1.097567451200828e+00 0.000000000000000e+00
					4.169477881004141e-01 -1.044833076200828e+00 0.000000000000000e+00
					4.567612097252416e-01 -1.200631794450483e+00 0.000000000000000e+00
					6.851418145878623e-01 -1.081002888200483e+00 0.000000000000000e+00
					4.169477881004141e-01 -1.044833076200828e+00 0.000000000000000e+00
					6.254216821506211e-01 -9.569424512008281e-01 0.000000000000000e+00
					6.851418145878623e-01 -1.081002888200483e+00 0.000000000000000e+00
					9.135224194504830e-01 -9.135224194504830e-01 0.000000000000000e+00
					6.254216821506211e-01 -9.569424512008281e-01 0.000000000000000e+00
					8.338955762008280e-01 -8.338955762008280e-01 0.000000000000000e+00
					-8.338955762008280e-01 -8.338955762008280e-01 0.000000000000000e+00
					-6.254216821506211e-01 -9.569424512008281e-01 0.000000000000000e+00
					-7.611194702510350e-01 -7.611194702510350e-01 0.000000000000000e+00
					-5.708396026882762e-01 -8.465686890010350e-01 0.000000000000000e+00
					-6.254216821506211e-01 -9.569424512008281e-01 0.000000000000000e+00
					-4.169477881004140e-01 -1.044833076200828e+00 0.000000000000000e+00
					-5.708396026882762e-01 -8.465686890010350e-01 0.000000000000000e+00
					-3.805597351255174e-01 -9.076038452510352e-01 0.000000000000000e+00
					-4.169477881004140e-01 -1.044833076200828e+00 0.000000000000000e+00
					-2.084738940502070e-01 -1.097567451200828e+00 0.000000000000000e+00
					-3.805597351255174e-01 -9.076038452510352e-01 0.000000000000000e+00
					-1.902798675627587e-01 -9.442249390010351e-01 0.000000000000000e+00
					-2.084738940502070e-01 -1.097567451200828e+00 0.000000000000000e+00
					6.201636426617085e-17 -1.115145576200828e+00 0.000000000000000e+00
					-1.902798675627587e-01 -9.442249390010351e-01 0.000000000000000e+00
					5.800481622797449e-17 -9.564319702510350e-01 0.000000000000000e+00
					6.201636426617085e-17 -1.115145576200828e+00 0.000000000000000e+00
					2.084738940502071e-01 -1.097567451200828e+00 0.000000000000000e+00
					5.800481622797449e-17 -9.564319702510350e-01 0.000000000000000e+00
					1.902798675627588e-01 -9.442249390010350e-01 0.000000000000000e+00
					2.084738940502071e-01 -1.097567451200828e+00 0.000000000000000e+00
					4.169477881004141e-01 -1.044833076200828e+00 0.000000000000000e+00
					1.902798675627588e-01 -9.442249390010350e-01 0.000000000000000e+00
					3.805597351255176e-01 -9.076038452510350e-01 0.000000000000000e+00
					4.169477881004141e-01 -1.044833076200828e+00 0.000000000000000e+00
					6.254216821506211e-01 -9.569424512008281e-01 0.000000000000000e+00
					3.805597351255176e-01 -9.076038452510350e-01 0.000000000000000e+00
					5.708396026882762e-01 -8.465686890010350e-01 0.000000000000000e+00
					6.254216821506211e-01 -9.569424512008281e-01 0.000000000000000e+00
					8.338955762008280e-01 -8.338955762008280e-01 0.000000000000000e+00
					5.708396026882762e-01 -8.465686890010350e-01 0.000000000000000e+00
					7.611194702510350e-01 -7.611194702510350e-01 0.000000000000000e+00
					-7.611194702510350e-01 -7.611194702510350e-01 0.000000000000000e+00
					-5.708396026882762e-01 -8.465686890010350e-01 0.000000000000000e+00
					-6.951941016011041e-01 -6.951941016011041e-01 0.000000000000000e+00
					-5.213955762008279e-01 -7.498816016011041e-01 0.000000000000000e+00
					-5.708396026882762e-01 -8.465686890010350e-01 0.000000000000000e+00
					-3.805597351255174e-01 -9.076038452510352e-01 0.000000000000000e+00
					-5.213955762008279e-01 -7.498816016011041e-01 0.000000000000000e+00
					-3.475970508005519e-01 -7.889441016011042e-01 0.000000000000000e+00
					-3.805597351255174e-01 -9.076038452510352e-01 0.000000000000000e+00
					-1.902798675627587e-01 -9.442249390010351e-01 0.000000000000000e+00
					-3.475970508005519e-01 -7.889441016011042e-01 0.000000000000000e+00
					-1.737985254002760e-01 -8.123816016011042e-01 0.000000000000000e+00
					-1.902798675627587e-01 -9.442249390010351e-01 0.000000000000000e+00
					5.800481622797449e-17 -9.564319702510350e-01 0.000000000000000e+00
					-1.737985254002760e-01 -8.123816016011042e-01 0.000000000000000e+00
					5.377642775528102e-17 -8.201941016011041e-01 0.000000000000000e+00
					5.800481622797449e-17 -9.564319702510350e-01 0.000000000000000e+00
					1.902798675627588e-01 -9.442249390010350e-01 0.000000000000000e+00
					5.377642775528102e-17 -8.201941016011041e-01 0.000000000000000e+00
					1.737985254002761e-01 -8.123816016011041e-01 0.000000000000000e+00
					1.902798675627588e-01 -9.442249390010350e-01 0.000000000000000e+00
					3.805597351255176e-01 -9.076038452510350e-01 0.000000000000000e+00
					1.737985254002761e-01 -8.123816016011041e-01 0.000000000000000e+00
					3.475970508005521e-01 -7.889441016011040e-01 0.000000000000000e+00
					3.805597351255176e-01 -9.076038452510350e-01 0.000000000000000e+00
					5.708396026882762e-01 -8.465686890010350e-01 0.000000000000000e+00
					3.475970508005521e-01 -7.889441016011040e-01 0.000000000000000e+00
					5.213955762008279e-01 -7.498816016011041e-01 0.000000000000000e+00
					5.708396026882762e-01 -8.465686890010350e-01 0.000000000000000e+00
					7.611194702510350e-01 -7.611194702510350e-01 0.000000000000000e+00
					5.213955762008279e-01 -7.498816016011041e-01 0.000000000000000e+00
					6.951941016011041e-01 -6.951941016011041e-01 0.000000000000000e+00
					-6.951941016011041e-01 -6.951941016011041e-01 0.000000000000000e+00
					-5.213955762008279e-01 -7.498816016011041e-01 0.000000000000000e+00
					-6.361194702510350e-01 -6.361194702510350e-01 0.000000000000000e+00
					-4.770896026882761e-01 -6.668811890010350e-01 0.000000000000000e+00
					-5.213955762008279e-01 -7.498816016011041e-01 0.000000000000000e+00
					-3.475970508005519e-01 -7.889441016011042e-01 0.000000000000000e+00
					-4.770896026882761e-01 -6.668811890010350e-01 0.000000000000000e+00
					-3.180597351255174e-01 -6.888538452510350e-01 0.000000000000000e+00
					-3.475970508005519e-01 -7.889441016011042e-01 0.000000000000000e+00
					-1.737985254002760e-01 -8.123816016011042e-01 0.000000000000000e+00
					-3.180597351255174e-01 -6.888538452510350e-01 0.000000000000000e+00
					-1.590298675627587e-01 -7.020374390010350e-01 0.000000000000000e+00
					-1.737985254002760e-01 -8.123816016011042e-01 0.000000000000000e+00
					5.377642775528102e-17 -8.201941016011041e-01 0.000000000000000e+00
					-1.590298675627587e-01 -7.020374390010350e-01 0.000000000000000e+00
					4.933119884809045e-17 -7.064319702510350e-01 0.000000000000000e+00
					5.377642775528102e-17 -8.201941016011041e-01 0.000000000000000e+00
					1.737985254002761e-01 -8.123816016011041e-01 0.000000000000000e+00
					4.933119884809045e-17 -7.064319702510350e-01 0.000000000000000e+00
					1.590298675627588e-01 -7.020374390010350e-01 0.000000000000000e+00
					1.737985254002761e-01 -8.123816016011041e-01 0.000000000000000e+00
					3.475970508005521e-01 -7.889441016011040e-01 0.000000000000000e+00
					1.590298675627588e-01 -7.020374390010350e-01 0.000000000000000e+00
					3.180597351255176e-01 -6.888538452510349e-01 0.000000000000000e+00
					3.475970508005521e-01 -7.889441016011040e-01 0.000000000000000e+00
					5.213955762008279e-01 -7.498816016011041e-01 0.000000000000000e+00
					3.180597351255176e-01 -6.888538452510349e-01 0.000000000000000e+00
					4.770896026882761e-01 -6.668811890010350e-01 0.000000000000000e+00
					5.213955762008279e-01 -7.498816016011041e-01 0.000000000000000e+00
					6.951941016011041e-01 -6.951941016011041e-01 0.000000000000000e+00
					4.770896026882761e-01 -6.668811890010350e-01 0.000000000000000e+00
					6.361194702510350e-01 -6.361194702510350e-01 0.000000000000000e+00
					-6.361194702510350e-01 -6.361194702510350e-01 0.000000000000000e+00
					-4.770896026882761e-01 -6.668811890010350e-01 0.000000000000000e+00
					-5.838955762008280e-01 -5.838955762008280e-01 0.000000000000000e+00
					-4.379216821506209e-01 -5.975674512008280e-01 0.000000000000000e+00
					-4.770896026882761e-01 -6.668811890010350e-01 0.000000000000000e+00
					-3.180597351255174e-01 -6.888538452510350e-01 0.000000000000000e+00
					-4.379216821506209e-01 -5.975674512008280e-01 0.000000000000000e+00
					-2.919477881004139e-01 -6.073330762008280e-01 0.000000000000000e+00
					-3.180597351255174e-01 -6.888538452510350e-01 0.000000000000000e+00
					-1.590298675627587e-01 -7.020374390010350e-01 0.000000000000000e+00
					-2.919477881004139e-01 -6.073330762008280e-01 0.000000000000000e+00
					-1.459738940502070e-01 -6.131924512008280e-01 0.000000000000000e+00
					-1.590298675627587e-01 -7.020374390010350e-01 0.000000000000000e+00
					4.933119884809045e-17 -7.064319702510350e-01 0.000000000000000e+00
					-1.459738940502070e-01 -6.131924512008280e-01 0.000000000000000e+00
					4.466912950640279e-17 -6.151455762008280e-01 0.000000000000000e+00
					4.933119884809045e-17 -7.064319702510350e-01 0.000000000000000e+00
					1.590298675627588e-01 -7.020374390010350e-01 0.000000000000000e+00
					4.466912950640279e-17 -6.151455762008280e-01 0.000000000000000e+00
					1.459738940502071e-01 -6.131924512008280e-01 0.000000000000000e+00
					1.590298675627588e-01 -7.020374390010350e-01 0.000000000000000e+00
					3.180597351255176e-01 -6.888538452510349e-01 0.000000000000000e+00
					1.459738940502071e-01 -6.131924512008280e-01 0.000000000000000e+00
					2.919477881004141e-01 -6.073330762008280e-01 0.000000000000000e+00
					3.180597351255176e-01 -6.888538452510349e-01 0.000000000000000e+00
					4.770896026882761e-01 -6.668811890010350e-01 0.000000000000000e+00
					2.919477881004141e-01 -6.073330762008280e-01 0.000000000000000e+00
					4.379216821506209e-01 -5.975674512008280e-01 0.000000000000000e+00
					4.770896026882761e-01 -6.668811890010350e-01 0.000000000000000e+00
					6.361194702510350e-01 -6.361194702510350e-01 0.000000000000000e+00
					4.379216821506209e-01 -5.975674512008280e-01 0.000000000000000e+00
					5.838955762008280e-01 -5.838955762008280e-01 0.000000000000000e+00
					-5.838955762008280e-01 -5.838955762008280e-01 0.000000000000000e+00
					-4.379216821506209e-01 -5.975674512008280e-01 0.000000000000000e+00
					-5.385224194504830e-01 -5.385224194504830e-01 0.000000000000000e+00
					-4.038918145878622e-01 -5.419403882004830e-01 0.000000000000000e+00
					-4.379216821506209e-01 -5.975674512008280e-01 0.000000000000000e+00
					-2.919477881004139e-01 -6.073330762008280e-01 0.000000000000000e+00
					-4.038918145878622e-01 -5.419403882004830e-01 0.000000000000000e+00
					-2.692612097252415e-01 -5.443817944504830e-01 0.000000000000000e+00
					-2.919477881004139e-01 -6.073330762008280e-01 0.000000000000000e+00
					-1.459738940502070e-01 -6.131924512008280e-01 0.000000000000000e+00
					-2.692612097252415e-01 -5.443817944504830e-01 0.000000000000000e+00
					-1.346306048626207e-01 -5.458466382004830e-01 0.000000000000000e+00
					-1.459738940502070e-01 -6.131924512008280e-01 0.000000000000000e+00
					4.466912950640279e-17 -6.151455762008280e-01 0.000000000000000e+00
					-1.346306048626207e-01 -5.458466382004830e-01 0.000000000000000e+00
					3.979021973021801e-17 -5.463349194504830e-01 0.000000000000000e+00
					4.466912950640279e-17 -6.151455762008280e-01 0.000000000000000e+00
					1.459738940502071e-01 -6.131924512008280e-01 0.000000000000000e+00
					3.979021973021801e-17 -5.463349194504830e-01 0.000000000000000e+00
					1.346306048626208e-01 -5.458466382004830e-01 0.000000000000000e+00
					1.459738940502071e-01 -6.131924512008280e-01 0.000000000000000e+00
					2.919477881004141e-01 -6.073330762008280e-01 0.000000000000000e+00
					1.346306048626208e-01 -5.458466382004830e-01 0.000000000000000e+00
					2.692612097252415e-01 -5.443817944504830e-01 0.000000000000000e+00
					2.919477881004141e-01 -6.073330762008280e-01 0.000000000000000e+00
					4.379216821506209e-01 -5.975674512008280e-01 0.000000000000000e+00
					2.692612097252415e-01 -5.443817944504830e-01 0.000000000000000e+00
					4.038918145878622e-01 -5.419403882004830e-01 0.000000000000000e+00
					4.379216821506209e-01 -5.975674512008280e-01 0.000000000000000e+00
					5.838955762008280e-01 -5.838955762008280e-01 0.000000000000000e+00
					4.038918145878622e-01 -5.419403882004830e-01 0.000000000000000e+00
					5.385224194504830e-01 -5.385224194504830e-01 0.000000000000000e+00
					-5.385224194504830e-01 -5.385224194504830e-01 0.000000000000000e+00
					-4.038918145878622e-01 -5.419403882004830e-01 0.000000000000000e+00
					-5.000000000000000e-01 -5.000000000000000e-01 0.000000000000000e+00
					-3.750000000000000e-01 -5.000000000000000e-01 0.000000000000000e+00
					-4.038918145878622e-01 -5.419403882004830e-01 0.000000000000000e+00
					-2.692612097252415e-01 -5.443817944504830e-01 0.000000000000000e+00
					-3.750000000000000e-01 -5.000000000000000e-01 0.000000000000000e+00
					-2.500000000000000e-01 -5.000000000000000e-01 0.000000000000000e+00
					-2.692612097252415e-01 -5.443817944504830e-01 0.000000000000000e+00
					-1.346306048626207e-01 -5.458466382004830e-01 0.000000000000000e+00
					-2.500000000000000e-01 -5.000000000000000e-01 0.000000000000000e+00
					-1.250000000000000e-01 -5.000000000000000e-01 0.000000000000000e+00
					-1.346306048626207e-01 -5.458466382004830e-01 0.000000000000000e+00
					3.979021973021801e-17 -5.463349194504830e-01 0.000000000000000e+00
					-1.250000000000000e-01 -5.000000000000000e-01 0.000000000000000e+00
					3.469446951953614e-17 -5.000000000000000e-01 0.000000000000000e+00
					3.979021973021801e-17 -5.463349194504830e-01 0.000000000000000e+00
					1.346306048626208e-01 -5.458466382004830e-01 0.000000000000000e+00
					3.469446951953614e-17 -5.000000000000000e-01 0.000000000000000e+00
					1.250000000000001e-01 -5.000000000000000e-01 0.000000000000000e+00
					1.346306048626208e-01 -5.458466382004830e-01 0.000000000000000e+00
					2.692612097252415e-01 -5.443817944504830e-01 0.000000000000000e+00
					1.250000000000001e-01 -5.000000000000000e-01 0.000000000000000e+00
					2.500000000000001e-01 -5.000000000000000e-01 0.000000000000000e+00
					2.692612097252415e-01 -5.443817944504830e-01 0.000000000000000e+00
					4.038918145878622e-01 -5.419403882004830e-01 0.000000000000000e+00
					2.500000000000001e-01 -5.000000000000000e-01 0.000000000000000e+00
					3.750000000000000e-01 -5.000000000000000e-01 0.000000000000000e+00
					4.038918145878622e-01 -5.419403882004830e-01 0.000000000000000e+00
					5.385224194504830e-01 -5.385224194504830e-01 0.000000000000000e+00
					3.750000000000000e-01 -5.000000000000000e-01 0.000000000000000e+00
					5.000000000000000e-01 -5.000000000000000e-01 0.000000000000000e+00
				</DataArray>
			</Points>
			<Cells>
				<DataArray Name="connectivity" type="UInt32" format="ascii">
					0 1 3 2 4 5 7 6 8 9 11 10 12 13 15 14 16 17 19 18 20 21 23 22 24 25 27 26 28 29 31 30 32 33 35 34 36 37 39 38 40 41 43 42 44 45 47 46 48 49 51 50 52 53 55 54 56 57 59 58 60 61 63 62 64 65 67 66 68 69 71 70 72 73 75 74 76 77 79 78 80 81 83 82 84 85 87 86 88 89 91 90 92 93 95 94 96 97 99 98 100 101 103 102 104 105 107 106 108 109 111 110 112 113 115 114 116 117 119 118 120 121 123 122 124 125 127 126 128 129 131 130 132 133 135 134 136 137 139 138 140 141 143 142 144 145 147 146 148 149 151 150 152 153 155 154 156 157 159 158 160 161 163 162 164 165 167 166 168 169 171 170 172 173 175 174 176 177 179 178 180 181 183 182 184 185 187 186 188 189 191 190 192 193 195 194 196 197 199 198 200 201 203 202 204 205 207 206 208 209 211 210 212 213 215 214 216 217 219 218 220 221 223 222 224 225 227 226 228 229 231 230 232 233 235 234 236 237 239 238 240 241 243 242 244 245 247 246 248 249 251 250 252 253 255 254 
				</DataArray>
				<DataArray Name="offsets" type="UInt32" format="ascii">
					4 8 12 16 20 24 28 32 36 40 44 48 52 56 60 64 68 72 76 80 84 88 92 96 100 104 108 112 116 120 124 128 132 136 140 144 148 152 156 160 164 168 172 176 180 184 188 192 196 200 204 208 212 216 220 224 228 232 236 240 244 248 252 256 
				</DataArray>
				<DataArray Name="types" type="UInt8" format="ascii">
					9 9 9 9 9 9 9 9 9 9 9 9 9 9 9 9 9 9 9 9 9 9 9 9 9 9 9 9 9 9 9 9 9 9 9 9 9 9 9 9 9 9 9 9 9 9 9 9 9 9 9 9 9 9 9 9 9 9 9 9 9 9 9 9 
				</DataArray>
			</Cells>
			<PointData Vectors="solution ">
				<DataArray Name="solution" type="Float64" NumberOfComponents="1" format="ascii">
					0.000000000000000e+00 0.000000000000000e+00 8.393672401071387e-04 1.482625701949374e-03 0.000000000000000e+00 0.000000000000000e+00 1.482625701949374e-03 2.346452371282931e-03 0.000000000000000e+00 0.000000000000000e+00 2.346452371282931e-03 3.460730766838786e-03 0.000000000000000e+00 0.000000000000000e+00 3.460730766838786e-03 4.611796890728373e-03 0.000000000000000e+00 0.000000000000000e+00 4.611796890728373e-03 5.460319521460848e-03 0.000000000000000e+00 0.000000000000000e+00 5.460319521460848e-03 5.841440761399723e-03 0.000000000000000e+00 0.000000000000000e+00 5.841440761399723e-03 5.826717908154844e-03 0.000000000000000e+00 0.000000000000000e+00 5.826717908154844e-03 5.227899445081061e-03 8.393672401071387e-04 1.482625701949374e-03 1.311211645613130e-02 2.354310788534784e-02 1.482625701949374e-03 2.346452371282931e-03 2.354310788534784e-02 3.626660137262003e-02 2.346452371282931e-03 3.460730766838786e-03 3.626660137262003e-02 5.054906893960253e-02 3.460730766838786e-03 4.611796890728373e-03 5.054906893960253e-02 6.481147797090428e-02 4.611796890728373e-03 5.460319521460848e-03 6.481147797090428e-02 7.669112034633353e-02 5.460319521460848e-03 5.841440761399723e-03 7.669112034633353e-02 8.347955620717944e-02 5.841440761399723e-03 5.826717908154844e-03 8.347955620717944e-02 8.222847386765482e-02 5.826717908154844e-03 5.227899445081061e-03 8.222847386765482e-02 6.952581257597004e-02 1.311211645613130e-02 2.354310788534784e-02 6.271712749230039e-02 1.139547123529284e-01 2.354310788534784e-02 3.626660137262003e-02 1.139547123529284e-01 1.772069452085785e-01 3.626660137262003e-02 5.054906893960253e-02 1.772069452085785e-01 2.460973082307012e-01 5.054906893960253e-02 6.481147797090428e-02 2.460973082307012e-01 3.111304694772354e-01 6.481147797090428e-02 7.669112034633353e-02 3.111304694772354e-01 3.600605798074141e-01 7.669112034633353e-02 8.347955620717944e-02 3.600605798074141e-01 3.793323808710289e-01 8.347955620717944e-02 8.222847386765482e-02 3.793323808710289e-01 3.569071215131058e-01 8.222847386765482e-02 6.952581257597004e-02 3.569071215131058e-01 2.874373751879211e-01 6.271712749230039e-02 1.139547123529284e-01 1.819900396931032e-01 3.290525968783887e-01 1.139547123529284e-01 1.772069452085785e-01 3.290525968783887e-01 5.120321837005494e-01 1.772069452085785e-01 2.460973082307012e-01 5.120321837005494e-01 7.081672034810336e-01 2.460973082307012e-01 3.111304694772354e-01 7.081672034810336e-01 8.845118245051852e-01 3.111304694772354e-01 3.600605798074141e-01 8.845118245051852e-01 1.002531586982259e+00 3.600605798074141e-01 3.793323808710289e-01 1.002531586982259e+00 1.026174514515742e+00 3.793323808710289e-01 3.569071215131058e-01 1.026174514515742e+00 9.335899573179852e-01 3.569071215131058e-01 2.874373751879211e-01 9.335899573179852e-01 7.310126759534706e-01 1.819900396931032e-01 3.290525968783887e-01 3.972839455501312e-01 7.036939079457294e-01 3.290525968783887e-01 5.120321837005494e-01 7.036939079457294e-01 1.082079403334515e+00 5.120321837005494e-01 7.081672034810336e-01 1.082079403334515e+00 1.480452905927169e+00 7.081672034810336e-01 8.845118245051852e-01 1.480452905927169e+00 1.824974742058654e+00 8.845118245051852e-01 1.002531586982259e+00 1.824974742058654e+00 2.034844607231804e+00 1.002531586982259e+00 1.026174514515742e+00 2.034844607231804e+00 2.044236010146668e+00 1.026174514515742e+00 9.335899573179852e-01 2.044236010146668e+00 1.827229751492732e+00 9.335899573179852e-01 7.310126759534706e-01 1.827229751492732e+00 1.417933780488909e+00 3.972839455501312e-01 7.036939079457294e-01 7.187697998626907e-01 1.230190079532942e+00 7.036939079457294e-01 1.082079403334515e+00 1.230190079532942e+00 1.848767484306242e+00 1.082079403334515e+00 1.480452905927169e+00 1.848767484306242e+00 2.486256583648813e+00 1.480452905927169e+00 1.824974742058654e+00 2.486256583648813e+00 3.021724775506032e+00 1.824974742058654e+00 2.034844607231804e+00 3.021724775506032e+00 3.329221555519786e+00 2.034844607231804e+00 2.044236010146668e+00 3.329221555519786e+00 3.314929033391966e+00 2.044236010146668e+00 1.827229751492732e+00 3.314929033391966e+00 2.953656691519247e+00 1.827229751492732e+00 1.417933780488909e+00 2.953656691519247e+00 2.310889774720293e+00 7.187697998626907e-01 1.230190079532942e+00 1.135520757698776e+00 1.855090012028296e+00 1.230190079532942e+00 1.848767484306242e+00 1.855090012028296e+00 2.699512067551815e+00 1.848767484306242e+00 2.486256583648813e+00 2.699512067551815e+00 3.549987055139491e+00 2.486256583648813e+00 3.021724775506032e+00 3.549987055139491e+00 4.251175631879855e+00 3.021724775506032e+00 3.329221555519786e+00 4.251175631879855e+00 4.646977012355443e+00 3.329221555519786e+00 3.314929033391966e+00 4.646977012355443e+00 4.625636649191146e+00 3.314929033391966e+00 2.953656691519247e+00 4.625636649191146e+00 4.160956864306488e+00 2.953656691519247e+00 2.310889774720293e+00 4.160956864306488e+00 3.334035406061830e+00 1.135520757698776e+00 1.855090012028296e+00 1.616487888868759e+00 2.492031246935599e+00 1.855090012028296e+00 2.699512067551815e+00 2.492031246935599e+00 3.482846681025297e+00 2.699512067551815e+00 3.549987055139491e+00 3.482846681025297e+00 4.459204150332407e+00 3.549987055139491e+00 4.251175631879855e+00 4.459204150332407e+00 5.259774621226271e+00 4.251175631879855e+00 4.646977012355443e+00 5.259774621226271e+00 5.725787693418098e+00 4.646977012355443e+00 4.625636649191146e+00 5.725787693418098e+00 5.742345255330029e+00 4.625636649191146e+00 4.160956864306488e+00 5.742345255330029e+00 5.275759738298763e+00 4.160956864306488e+00 3.334035406061830e+00 5.275759738298763e+00 4.394264184113832e+00 
				</DataArray>
			</PointData>
			<CellData>
			</CellData>
		</Piece>
	</UnstructuredGrid>
</VTKFile>