<?xml version="1.0"?>
<VTKFile type="UnstructuredGrid" byte_order="LittleEndian">
	<UnstructuredGrid>
		<Piece NumberOfPoints="256" NumberOfCells="64">
			<Points>
				<DataArray type="Float64" NumberOfComponents="3" format="ascii">
					1.000000000000000e+00 -1.000000000000000e+00 0.000000000000000e+00
					1.218750000000000e+00 -7.500000000000000e-01 0.000000000000000e+00
					9.135224194504830e-01 -9.135224194504830e-01 0.000000000000000e+00
					1.081002888200483e+00 -6.851418145878623e-01 0.000000000000000e+00
					1.218750000000000e+00 -7.500000000000000e-01 0.000000000000000e+00
					1.375000000000000e+00 -5.000000000000000e-01 0.000000000000000e+00
					1.081002888200483e+00 -6.851418145878623e-01 0.000000000000000e+00
					1.200631794450484e+00 -4.567612097252415e-01 0.000000000000000e+00
					1.375000000000000e+00 -5.000000000000000e-01 0.000000000000000e+00
					1.468750000000000e+00 -2.499999999999999e-01 0.000000000000000e+00
					1.200631794450484e+00 -4.567612097252415e-01 0.000000000000000e+00
					1.272409138200483e+00 -2.283806048626207e-01 0.000000000000000e+00
					1.468750000000000e+00 -2.499999999999999e-01 0.000000000000000e+00
					1.500000000000000e+00 6.938893903907228e-17 0.000000000000000e+00
					1.272409138200483e+00 -2.283806048626207e-01 0.000000000000000e+00
					1.296334919450483e+00 6.581107186987012e-17 0.000000000000000e+00
					1.500000000000000e+00 6.938893903907228e-17 0.000000000000000e+00
					1.468750000000000e+00 2.500000000000001e-01 0.000000000000000e+00
					1.296334919450483e+00 6.581107186987012e-17 0.000000000000000e+00
					1.272409138200483e+00 2.283806048626209e-01 0.000000000000000e+00
					1.468750000000000e+00 2.500000000000001e-01 0.000000000000000e+00
					1.375000000000000e+00 5.000000000000001e-01 0.000000000000000e+00
					1.272409138200483e+00 2.283806048626209e-01 0.000000000000000e+00
					1.200631794450483e+00 4.567612097252416e-01 0.000000000000000e+00
					1.375000000000000e+00 5.000000000000001e-01 0.000000000000000e+00
					1.218750000000000e+00 7.500000000000000e-01 0.000000000000000e+00
					1.200631794450483e+00 4.567612097252416e-01 0.000000000000000e+00
					1.081002888200483e+00 6.851418145878623e-01 0.000000000000000e+00
					1.218750000000000e+00 7.500000000000000e-01 0.000000000000000e+00
					1.000000000000000e+00 1.000000000000000e+00 0.000000000000000e+00
					1.081002888200483e+00 6.851418145878623e-01 0.000000000000000e+00
					9.135224194504830e-01 9.135224194504830e-01 0.000000000000000e+00
					9.135224194504830e-01 -9.135224194504830e-01 0.000000000000000e+00
					1.081002888200483e+00 -6.851418145878623e-01 0.000000000000000e+00
					8.338955762008280e-01 -8.338955762008280e-01 0.000000000000000e+00
					9.569424512008281e-01 -6.254216821506211e-01 0.000000000000000e+00
					1.081002888200483e+00 -6.851418145878623e-01 0.000000000000000e+00
					1.200631794450484e+00 -4.567612097252415e-01 0.000000000000000e+00
					9.569424512008281e-01 -6.254216821506211e-01 0.000000000000000e+00
					1.044833076200828e+00 -4.169477881004140e-01 0.000000000000000e+00
					1.200631794450484e+00 -4.567612097252415e-01 0.000000000000000e+00
					1.272409138200483e+00 -2.283806048626207e-01 0.000000000000000e+00
					1.044833076200828e+00 -4.169477881004140e-01 0.000000000000000e+00
					1.097567451200828e+00 -2.084738940502070e-01 0.000000000000000e+00
					1.272409138200483e+00 -2.283806048626207e-01 0.000000000000000e+00
					1.296334919450483e+00 6.581107186987012e-17 0.000000000000000e+00
					1.097567451200828e+00 -2.084738940502070e-01 0.000000000000000e+00
					1.115145576200828e+00 6.201636426617085e-17 0.000000000000000e+00
					1.296334919450483e+00 6.581107186987012e-17 0.000000000000000e+00
					1.272409138200483e+00 2.283806048626209e-01 0.000000000000000e+00
					1.115145576200828e+00 6.201636426617085e-17 0.000000000000000e+00
					1.097567451200828e+00 2.084738940502071e-01 0.000000000000000e+00
					1.272409138200483e+00 2.283806048626209e-01 0.000000000000000e+00
					1.200631794450483e+00 4.567612097252416e-01 0.000000000000000e+00
					1.097567451200828e+00 2.084738940502071e-01 0.000000000000000e+00
					1.044833076200828e+00 4.169477881004141e-01 0.000000000000000e+00
					1.200631794450483e+00 4.567612097252416e-01 0.000000000000000e+00
					1.081002888200483e+00 6.851418145878623e-01 0.000000000000000e+00
					1.044833076200828e+00 4.169477881004141e-01 0.000000000000000e+00
					9.569424512008281e-01 6.254216821506211e-01 0.000000000000000e+00
					1.081002888200483e+00 6.851418145878623e-01 0.000000000000000e+00
					9.135224194504830e-01 9.135224194504830e-01 0.000000000000000e+00
					9.569424512008281e-01 6.254216821506211e-01 0.000000000000000e+00
					8.338955762008280e-01 8.338955762008280e-01 0.000000000000000e+00
					8.338955762008280e-01 -8.338955762008280e-01 0.000000000000000e+00
					9.569424512008281e-01 -6.254216821506211e-01 0.000000000000000e+00
					7.611194702510350e-01 -7.611194702510350e-01 0.000000000000000e+00
					8.465686890010350e-01 -5.708396026882762e-01 0.000000000000000e+00
					9.569424512008281e-01 -6.254216821506211e-01 0.000000000000000e+00
					1.044833076200828e+00 -4.169477881004140e-01 0.000000000000000e+00
					8.465686890010350e-01 -5.708396026882762e-01 0.000000000000000e+00
					9.076038452510352e-01 -3.805597351255174e-01 0.000000000000000e+00
					1.044833076200828e+00 -4.169477881004140e-01 0.000000000000000e+00
					1.097567451200828e+00 -2.084738940502070e-01 0.000000000000000e+00
					9.076038452510352e-01 -3.805597351255174e-01 0.000000000000000e+00
					9.442249390010351e-01 -1.902798675627587e-01 0.000000000000000e+00
					1.097567451200828e+00 -2.084738940502070e-01 0.000000000000000e+00
					1.115145576200828e+00 6.201636426617085e-17 0.000000000000000e+00
					9.442249390010351e-01 -1.902798675627587e-01 0.000000000000000e+00
					9.564319702510350e-01 5.800481622797449e-17 0.000000000000000e+00
					1.115145576200828e+00 6.201636426617085e-17 0.000000000000000e+00
					1.097567451200828e+00 2.084738940502071e-01 0.000000000000000e+00
					9.564319702510350e-01 5.800481622797449e-17 0.000000000000000e+00
					9.442249390010350e-01 1.902798675627588e-01 0.000000000000000e+00
					1.097567451200828e+00 2.084738940502071e-01 0.000000000000000e+00
					1.044833076200828e+00 4.169477881004141e-01 0.000000000000000e+00
					9.442249390010350e-01 1.902798675627588e-01 0.000000000000000e+00
					9.076038452510350e-01 3.805597351255176e-01 0.000000000000000e+00
					1.044833076200828e+00 4.169477881004141e-01 0.000000000000000e+00
					9.569424512008281e-01 6.254216821506211e-01 0.000000000000000e+00
					9.076038452510350e-01 3.805597351255176e-01 0.000000000000000e+00
					8.465686890010350e-01 5.708396026882762e-01 0.000000000000000e+00
					9.569424512008281e-01 6.254216821506211e-01 0.000000000000000e+00
					8.338955762008280e-01 8.338955762008280e-01 0.000000000000000e+00
					8.465686890010350e-01 5.708396026882762e-01 0.000000000000000e+00
					7.611194702510350e-01 7.611194702510350e-01 0.000000000000000e+00
					7.611194702510350e-01 -7.611194702510350e-01 0.000000000000000e+00
					8.465686890010350e-01 -5.708396026882762e-01 0.000000000000000e+00
					6.951941016011041e-01 -6.951941016011041e-01 0.000000000000000e+00
					7.498816016011041e-01 -5.213955762008279e-01 0.000000000000000e+00
					8.465686890010350e-01 -5.708396026882762e-01 0.000000000000000e+00
					9.076038452510352e-01 -3.805597351255174e-01 0.000000000000000e+00
					7.498816016011041e-01 -5.213955762008279e-01 0.000000000000000e+00
					7.889441016011042e-01 -3.475970508005519e-01 0.000000000000000e+00
					9.076038452510352e-01 -3.805597351255174e-01 0.000000000000000e+00
					9.442249390010351e-01 -1.902798675627587e-01 0.000000000000000e+00
					7.889441016011042e-01 -3.475970508005519e-01 0.000000000000000e+00
					8.123816016011042e-01 -1.737985254002760e-01 0.000000000000000e+00
					9.442249390010351e-01 -1.902798675627587e-01 0.000000000000000e+00
					9.564319702510350e-01 5.800481622797449e-17 0.000000000000000e+00
					8.123816016011042e-01 -1.737985254002760e-01 0.000000000000000e+00
					8.201941016011041e-01 5.377642775528102e-17 0.000000000000000e+00
					9.564319702510350e-01 5.800481622797449e-17 0.000000000000000e+00
					9.442249390010350e-01 1.902798675627588e-01 0.000000000000000e+00
					8.201941016011041e-01 5.377642775528102e-17 0.000000000000000e+00
					8.123816016011041e-01 1.737985254002761e-01 0.000000000000000e+00
					9.442249390010350e-01 1.902798675627588e-01 0.000000000000000e+00
					9.076038452510350e-01 3.805597351255176e-01 0.000000000000000e+00
					8.123816016011041e-01 1.737985254002761e-01 0.000000000000000e+00
					7.889441016011040e-01 3.475970508005521e-01 0.000000000000000e+00
					9.076038452510350e-01 3.805597351255176e-01 0.000000000000000e+00
					8.465686890010350e-01 5.708396026882762e-01 0.000000000000000e+00
					7.889441016011040e-01 3.475970508005521e-01 0.000000000000000e+00
					7.498816016011041e-01 5.213955762008279e-01 0.000000000000000e+00
					8.465686890010350e-01 5.708396026882762e-01 0.000000000000000e+00
					7.611194702510350e-01 7.611194702510350e-01 0.000000000000000e+00
					7.498816016011041e-01 5.213955762008279e-01 0.000000000000000e+00
					6.951941016011041e-01 6.951941016011041e-01 0.000000000000000e+00
					6.951941016011041e-01 -6.951941016011041e-01 0.000000000000000e+00
					7.498816016011041e-01 -5.213955762008279e-01 0.000000000000000e+00
					6.361194702510350e-01 -6.361194702510350e-01 0.000000000000000e+00
					6.668811890010350e-01 -4.770896026882761e-01 0.000000000000000e+00
					7.498816016011041e-01 -5.213955762008279e-01 0.000000000000000e+00
					7.889441016011042e-01 -3.475970508005519e-01 0.000000000000000e+00
					6.668811890010350e-01 -4.770896026882761e-01 0.000000000000000e+00
					6.888538452510350e-01 -3.180597351255174e-01 0.000000000000000e+00
					7.889441016011042e-01 -3.475970508005519e-01 0.000000000000000e+00
					8.123816016011042e-01 -1.737985254002760e-01 0.000000000000000e+00
					6.888538452510350e-01 -3.180597351255174e-01 0.000000000000000e+00
					7.020374390010350e-01 -1.590298675627587e-01 0.000000000000000e+00
					8.123816016011042e-01 -1.737985254002760e-01 0.000000000000000e+00
					8.201941016011041e-01 5.377642775528102e-17 0.000000000000000e+00
					7.020374390010350e-01 -1.590298675627587e-01 0.000000000000000e+00
					7.064319702510350e-01 4.933119884809045e-17 0.000000000000000e+00
					8.201941016011041e-01 5.377642775528102e-17 0.000000000000000e+00
					8.123816016011041e-01 1.737985254002761e-01 0.000000000000000e+00
					7.064319702510350e-01 4.933119884809045e-17 0.000000000000000e+00
					7.020374390010350e-01 1.590298675627588e-01 0.000000000000000e+00
					8.123816016011041e-01 1.737985254002761e-01 0.000000000000000e+00
					7.889441016011040e-01 3.475970508005521e-01 0.000000000000000e+00
					7.020374390010350e-01 1.590298675627588e-01 0.000000000000000e+00
					6.888538452510349e-01 3.180597351255176e-01 0.000000000000000e+00
					7.889441016011040e-01 3.475970508005521e-01 0.000000000000000e+00
					7.498816016011041e-01 5.213955762008279e-01 0.000000000000000e+00
					6.888538452510349e-01 3.180597351255176e-01 0.000000000000000e+00
					6.668811890010350e-01 4.770896026882761e-01 0.000000000000000e+00
					7.498816016011041e-01 5.213955762008279e-01 0.000000000000000e+00
					6.951941016011041e-01 6.951941016011041e-01 0.000000000000000e+00
					6.668811890010350e-01 4.770896026882761e-01 0.000000000000000e+00
					6.361194702510350e-01 6.361194702510350e-01 0.000000000000000e+00
					6.361194702510350e-01 -6.361194702510350e-01 0.000000000000000e+00
					6.668811890010350e-01 -4.770896026882761e-01 0.000000000000000e+00
					5.838955762008280e-01 -5.838955762008280e-01 0.000000000000000e+00
					5.975674512008280e-01 -4.379216821506209e-01 0.000000000000000e+00
					6.668811890010350e-01 -4.770896026882761e-01 0.000000000000000e+00
					6.888538452510350e-01 -3.180597351255174e-01 0.000000000000000e+00
					5.975674512008280e-01 -4.379216821506209e-01 0.000000000000000e+00
					6.073330762008280e-01 -2.919477881004139e-01 0.000000000000000e+00
					6.888538452510350e-01 -3.180597351255174e-01 0.000000000000000e+00
					7.020374390010350e-01 -1.590298675627587e-01 0.000000000000000e+00
					6.073330762008280e-01 -2.919477881004139e-01 0.000000000000000e+00
					6.131924512008280e-01 -1.459738940502070e-01 0.000000000000000e+00
					7.020374390010350e-01 -1.590298675627587e-01 0.000000000000000e+00
					7.064319702510350e-01 4.933119884809045e-17 0.000000000000000e+00
					6.131924512008280e-01 -1.459738940502070e-01 0.000000000000000e+00
					6.151455762008280e-01 4.466912950640279e-17 0.000000000000000e+00
					7.064319702510350e-01 4.933119884809045e-17 0.000000000000000e+00
					7.020374390010350e-01 1.590298675627588e-01 0.000000000000000e+00
					6.151455762008280e-01 4.466912950640279e-17 0.000000000000000e+00
					6.131924512008280e-01 1.459738940502071e-01 0.000000000000000e+00
					7.020374390010350e-01 1.590298675627588e-01 0.000000000000000e+00
					6.888538452510349e-01 3.180597351255176e-01 0.000000000000000e+00
					6.131924512008280e-01 1.459738940502071e-01 0.000000000000000e+00
					6.073330762008280e-01 2.919477881004141e-01 0.000000000000000e+00
					6.888538452510349e-01 3.180597351255176e-01 0.000000000000000e+00
					6.668811890010350e-01 4.770896026882761e-01 0.000000000000000e+00
					6.073330762008280e-01 2.919477881004141e-01 0.000000000000000e+00
					5.975674512008280e-01 4.379216821506209e-01 0.000000000000000e+00
					6.668811890010350e-01 4.770896026882761e-01 0.000000000000000e+00
					6.361194702510350e-01 6.361194702510350e-01 0.000000000000000e+00
					5.975674512008280e-01 4.379216821506209e-01 0.000000000000000e+00
					5.838955762008280e-01 5.838955762008280e-01 0.000000000000000e+00
					5.838955762008280e-01 -5.838955762008280e-01 0.000000000000000e+00
					5.975674512008280e-01 -4.379216821506209e-01 0.000000000000000e+00
					5.385224194504830e-01 -5.385224194504830e-01 0.000000000000000e+00
					5.419403882004830e-01 -4.038918145878622e-01 0.000000000000000e+00
					5.975674512008280e-01 -4.379216821506209e-01 0.000000000000000e+00
					6.073330762008280e-01 -2.919477881004139e-01 0.000000000000000e+00
					5.419403882004830e-01 -4.038918145878622e-01 0.000000000000000e+00
					5.443817944504830e-01 -2.692612097252415e-01 0.000000000000000e+00
					6.073330762008280e-01 -2.919477881004139e-01 0.000000000000000e+00
					6.131924512008280e-01 -1.459738940502070e-01 0.000000000000000e+00
					5.443817944504830e-01 -2.692612097252415e-01 0.000000000000000e+00
					5.458466382004830e-01 -1.346306048626207e-01 0.000000000000000e+00
					6.131924512008280e-01 -1.459738940502070e-01 0.000000000000000e+00
					6.151455762008280e-01 4.466912950640279e-17 0.000000000000000e+00
					5.458466382004830e-01 -1.346306048626207e-01 0.000000000000000e+00
					5.463349194504830e-01 3.979021973021801e-17 0.000000000000000e+00
					6.151455762008280e-01 4.466912950640279e-17 0.000000000000000e+00
					6.131924512008280e-01 1.459738940502071e-01 0.000000000000000e+00
					5.463349194504830e-01 3.979021973021801e-17 0.000000000000000e+00
					5.458466382004830e-01 1.346306048626208e-01 0.000000000000000e+00
					6.131924512008280e-01 1.459738940502071e-01 0.000000000000000e+00
					6.073330762008280e-01 2.919477881004141e-01 0.000000000000000e+00
					5.458466382004830e-01 1.346306048626208e-01 0.000000000000000e+00
					5.443817944504830e-01 2.692612097252415e-01 0.000000000000000e+00
					6.073330762008280e-01 2.919477881004141e-01 0.000000000000000e+00
					5.975674512008280e-01 4.379216821506209e-01 0.000000000000000e+00
					5.443817944504830e-01 2.692612097252415e-01 0.000000000000000e+00
					5.419403882004830e-01 4.038918145878622e-01 0.000000000000000e+00
					5.975674512008280e-01 4.379216821506209e-01 0.000000000000000e+00
					5.838955762008280e-01 5.838955762008280e-01 0.000000000000000e+00
					5.419403882004830e-01 4.038918145878622e-01 0.000000000000000e+00
					5.385224194504830e-01 5.385224194504830e-01 0.000000000000000e+00
					5.385224194504830e-01 -5.385224194504830e-01 0.000000000000000e+00
					5.419403882004830e-01 -4.038918145878622e-01 0.000000000000000e+00
					5.000000000000000e-01 -5.000000000000000e-01 0.000000000000000e+00
					5.000000000000000e-01 -3.750000000000000e-01 0.000000000000000e+00
					5.419403882004830e-01 -4.038918145878622e-01 0.000000000000000e+00
					5.443817944504830e-01 -2.692612097252415e-01 0.000000000000000e+00
					5.000000000000000e-01 -3.750000000000000e-01 0.000000000000000e+00
					5.000000000000000e-01 -2.500000000000000e-01 0.000000000000000e+00
					5.443817944504830e-01 -2.692612097252415e-01 0.000000000000000e+00
					5.458466382004830e-01 -1.346306048626207e-01 0.000000000000000e+00
					5.000000000000000e-01 -2.500000000000000e-01 0.000000000000000e+00
					5.000000000000000e-01 -1.250000000000000e-01 0.000000000000000e+00
					5.458466382004830e-01 -1.346306048626207e-01 0.000000000000000e+00
					5.463349194504830e-01 3.979021973021801e-17 0.000000000000000e+00
					5.000000000000000e-01 -1.250000000000000e-01 0.000000000000000e+00
					5.000000000000000e-01 3.469446951953614e-17 0.000000000000000e+00
					5.463349194504830e-01 3.979021973021801e-17 0.000000000000000e+00
					5.458466382004830e-01 1.346306048626208e-01 0.000000000000000e+00
					5.000000000000000e-01 3.469446951953614e-17 0.000000000000000e+00
					5.000000000000000e-01 1.250000000000001e-01 0.000000000000000e+00
					5.458466382004830e-01 1.346306048626208e-01 0.000000000000000e+00
					5.443817944504830e-01 2.692612097252415e-01 0.000000000000000e+00
					5.000000000000000e-01 1.250000000000001e-01 0.000000000000000e+00
					5.000000000000000e-01 2.500000000000001e-01 0.000000000000000e+00
					5.443817944504830e-01 2.692612097252415e-01 0.000000000000000e+00
					5.419403882004830e-01 4.038918145878622e-01 0.000000000000000e+00
					5.000000000000000e-01 2.500000000000001e-01 0.000000000000000e+00
					5.000000000000000e-01 3.750000000000000e-01 0.000000000000000e+00
					5.419403882004830e-01 4.038918145878622e-01 0.000000000000000e+00
					5.385224194504830e-01 5.385224194504830e-01 0.000000000000000e+00
					5.000000000000000e-01 3.750000000000000e-01 0.000000000000000e+00
					5.000000000000000e-01 5.000000000000000e-01 0.000000000000000e+00
				</DataArray>
			</Points>
			<Cells>
				<DataArray Name="connectivity" type="UInt32" format="ascii">
					0 1 3 2 4 5 7 6 8 9 11 10 12 13 15 14 16 17 19 18 20 21 23 22 24 25 27 26 28 29 31 30 32 33 35 34 36 37 39 38 40 41 43 42 44 45 47 46 48 49 51 50 52 53 55 54 56 57 59 58 60 61 63 62 64 65 67 66 68 69 71 70 72 73 75 74 76 77 79 78 80 81 83 82 84 85 87 86 88 89 91 90 92 93 95 94 96 97 99 98 100 101 103 102 104 105 107 106 108 109 111 110 112 113 115 114 116 117 119 118 120 121 123 122 124 125 127 126 128 129 131 130 132 133 135 134 136 137 139 138 140 141 143 142 144 145 147 146 148 149 151 150 152 153 155 154 156 157 159 158 160 161 163 162 164 165 167 166 168 169 171 170 172 173 175 174 176 177 179 178 180 181 183 182 184 185 187 186 188 189 191 190 192 193 195 194 196 197 199 198 200 201 203 202 204 205 207 206 208 209 211 210 212 213 215 214 216 217 219 218 220 221 223 222 224 225 227 226 228 229 231 230 232 233 235 234 236 237 239 238 240 241 243 242 244 245 247 246 248 249 251 250 252 253 255 254 
				</DataArray>
				<DataArray Name="offsets" type="UInt32" format="ascii">
					4 8 12 16 20 24 28 32 36 40 44 48 52 56 60 64 68 72 76 80 84 88 92 96 100 104 108 112 116 120 124 128 132 136 140 144 148 152 156 160 164 168 172 176 180 184 188 192 196 200 204 208 212 216 220 224 228 232 236 240 244 248 252 256 
				</DataArray>
				<DataArray Name="types" type="UInt8" format="ascii">
					9 9 9 9 9 9 9 9 9 9 9 9 9 9 9 9 9 9 9 9 9 9 9 9 9 9 9 9 9 9 9 9 9 9 9 9 9 9 9 9 9 9 9 9 9 9 9 9 9 9 9 9 9 9 9 9 9 9 9 9 9 9 9 9 
				</DataArray>
			</Cells>
			<PointData Vectors="solution ">
				<DataArray Name="solution" type="Float64" NumberOfComponents="1" format="ascii">
					0.000000000000000e+00 0.000000000000000e+00 4.579882496505659e-03 1.921642014829523e-02 0.000000000000000e+00 0.000000000000000e+00 1.921642014829523e-02 5.515231342920740e-02 0.000000000000000e+00 0.000000000000000e+00 5.515231342920740e-02 1.263623334810544e-01 0.000000000000000e+00 0.000000000000000e+00 1.263623334810544e-01 2.268584072943487e-01 0.000000000000000e+00 0.000000000000000e+00 2.268584072943487e-01 3.140961655083725e-01 0.000000000000000e+00 0.000000000000000e+00 3.140961655083725e-01 3.410129284569991e-01 0.000000000000000e+00 0.000000000000000e+00 3.410129284569991e-01 2.990529676437299e-01 0.000000000000000e+00 0.000000000000000e+00 2.990529676437299e-01 1.974882581796573e-01 4.579882496505659e-03 1.921642014829523e-02 6.752793521172556e-02 2.226252058347142e-01 1.921642014829523e-02 5.515231342920740e-02 2.226252058347142e-01 5.517759361324187e-01 5.515231342920740e-02 1.263623334810544e-01 5.517759361324187e-01 1.109412181963193e+00 1.263623334810544e-01 2.268584072943487e-01 1.109412181963193e+00 1.846124399595063e+00 2.268584072943487e-01 3.140961655083725e-01 1.846124399595063e+00 2.552351895436962e+00 3.140961655083725e-01 3.410129284569991e-01 2.552351895436962e+00 2.922341141861852e+00 3.410129284569991e-01 2.990529676437299e-01 2.922341141861852e+00 2.724279958486434e+00 2.990529676437299e-01 1.974882581796573e-01 2.724279958486434e+00 1.948666471771586e+00 6.752793521172556e-02 2.226252058347142e-01 2.840889425299301e-01 8.168862651573834e-01 2.226252058347142e-01 5.517759361324187e-01 8.168862651573834e-01 1.849151978695526e+00 5.517759361324187e-01 1.109412181963193e+00 1.849151978695526e+00 3.467539172186982e+00 1.109412181963193e+00 1.846124399595063e+00 3.467539172186982e+00 5.499850308162646e+00 1.846124399595063e+00 2.552351895436962e+00 5.499850308162646e+00 7.421831900065142e+00 2.552351895436962e+00 2.922341141861852e+00 7.421831900065142e+00 8.475125101394164e+00 2.922341141861852e+00 2.724279958486434e+00 8.475125101394164e+00 8.032451507106984e+00 2.724279958486434e+00 1.948666471771586e+00 8.032451507106984e+00 6.044446557067751e+00 2.840889425299301e-01 8.168862651573834e-01 7.266820054543564e-01 1.854181098438745e+00 8.168862651573834e-01 1.849151978695526e+00 1.854181098438745e+00 3.865524110010284e+00 1.849151978695526e+00 3.467539172186982e+00 3.865524110010284e+00 6.826538660539947e+00 3.467539172186982e+00 5.499850308162646e+00 6.826538660539947e+00 1.038610026866688e+01 5.499850308162646e+00 7.421831900065142e+00 1.038610026866688e+01 1.368292449618517e+01 7.421831900065142e+00 8.475125101394164e+00 1.368292449618517e+01 1.553518452319408e+01 8.475125101394164e+00 8.032451507106984e+00 1.553518452319408e+01 1.495963405985098e+01 8.032451507106984e+00 6.044446557067751e+00 1.495963405985098e+01 1.182309952939798e+01 7.266820054543564e-01 1.854181098438745e+00 1.413182022511421e+00 3.231206879166785e+00 1.854181098438745e+00 3.865524110010284e+00 3.231206879166785e+00 6.229525046835796e+00 3.865524110010284e+00 6.826538660539947e+00 6.229525046835796e+00 1.039938326164022e+01 6.826538660539947e+00 1.038610026866688e+01 1.039938326164022e+01 1.523125755595215e+01 1.038610026866688e+01 1.368292449618517e+01 1.523125755595215e+01 1.965232763380323e+01 1.368292449618517e+01 1.553518452319408e+01 1.965232763380323e+01 2.225305068114603e+01 1.553518452319408e+01 1.495963405985098e+01 2.225305068114603e+01 2.183722419705703e+01 1.495963405985098e+01 1.182309952939798e+01 2.183722419705703e+01 1.811626269230598e+01 1.413182022511421e+00 3.231206879166785e+00 2.306243915072856e+00 4.771556105911791e+00 3.231206879166785e+00 6.229525046835796e+00 4.771556105911791e+00 8.553391068044853e+00 6.229525046835796e+00 1.039938326164022e+01 8.553391068044853e+00 1.355291917231992e+01 1.039938326164022e+01 1.523125755595215e+01 1.355291917231992e+01 1.917762031631355e+01 1.523125755595215e+01 1.965232763380323e+01 1.917762031631355e+01 2.431228819967209e+01 1.965232763380323e+01 2.225305068114603e+01 2.431228819967209e+01 2.753097730319359e+01 2.225305068114603e+01 2.183722419705703e+01 2.753097730319359e+01 2.757419528549448e+01 2.183722419705703e+01 1.811626269230598e+01 2.757419528549448e+01 2.396596030881926e+01 2.306243915072856e+00 4.771556105911791e+00 3.329845795449465e+00 6.300404045012800e+00 4.771556105911791e+00 8.553391068044853e+00 6.300404045012800e+00 1.057656222594054e+01 8.553391068044853e+00 1.355291917231992e+01 1.057656222594054e+01 1.599126197026593e+01 1.355291917231992e+01 1.917762031631355e+01 1.599126197026593e+01 2.194885354393261e+01 1.917762031631355e+01 2.431228819967209e+01 2.194885354393261e+01 2.741714179723635e+01 2.431228819967209e+01 2.753097730319359e+01 2.741714179723635e+01 3.109566270433358e+01 2.753097730319359e+01 2.757419528549448e+01 3.109566270433358e+01 3.177916806108936e+01 2.757419528549448e+01 2.396596030881926e+01 3.177916806108936e+01 2.884378141470219e+01 3.329845795449465e+00 6.300404045012800e+00 4.390534922290456e+00 7.682156055903793e+00 6.300404045012800e+00 1.057656222594054e+01 7.682156055903793e+00 1.217660643790150e+01 1.057656222594054e+01 1.599126197026593e+01 1.217660643790150e+01 1.767515069781834e+01 1.599126197026593e+01 2.194885354393261e+01 1.767515069781834e+01 2.363299508745794e+01 2.194885354393261e+01 2.741714179723635e+01 2.363299508745794e+01 2.916116047269695e+01 2.741714179723635e+01 3.109566270433358e+01 2.916116047269695e+01 3.314902390652543e+01 3.109566270433358e+01 3.177916806108936e+01 3.314902390652543e+01 3.452155868633480e+01 3.177916806108936e+01 2.884378141470219e+01 3.452155868633480e+01 3.259343899877572e+01 
				</DataArray>
			</PointData>
			<CellData>
			</CellData>
		</Piece>
	</UnstructuredGrid>
</VTKFile>