<?xml version="1.0"?>
<VTKFile type="UnstructuredGrid" byte_order="LittleEndian">
	<UnstructuredGrid>
		<Piece NumberOfPoints="256" NumberOfCells="64">
			<Points>
				<DataArray type="Float64" NumberOfComponents="3" format="ascii">
					-1.000000000000000e+00 -1.000000000000000e+00 0.000000000000000e+00
					-7.500000000000000e-01 -1.218750000000000e+00 0.000000000000000e+00
					-9.135224194504830e-01 -9.135224194504830e-01 0.000000000000000e+00
					-6.851418145878623e-01 -1.081002888200483e+00 0.000000000000000e+00
					-7.500000000000000e-01 -1.218750000000000e+00 0.000000000000000e+00
					-5.000000000000000e-01 -1.375000000000000e+00 0.000000000000000e+00
					-6.851418145878623e-01 -1.081002888200483e+00 0.000000000000000e+00
					-4.567612097252415e-01 -1.200631794450484e+00 0.000000000000000e+00
					-5.000000000000000e-01 -1.375000000000000e+00 0.000000000000000e+00
					-2.499999999999999e-01 -1.468750000000000e+00 0.000000000000000e+00
					-4.567612097252415e-01 -1.200631794450484e+00 0.000000000000000e+00
					-2.283806048626207e-01 -1.272409138200483e+00 0.000000000000000e+00
					-2.499999999999999e-01 -1.468750000000000e+00 0.000000000000000e+00
					6.938893903907228e-17 -1.500000000000000e+00 0.000000000000000e+00
					-2.283806048626207e-01 -1.272409138200483e+00 0.000000000000000e+00
					6.581107186987012e-17 -1.296334919450483e+00 0.000000000000000e+00
					6.938893903907228e-17 -1.500000000000000e+00 0.000000000000000e+00
					2.500000000000001e-01 -1.468750000000000e+00 0.000000000000000e+00
					6.581107186987012e-17 -1.296334919450483e+00 0.000000000000000e+00
					2.283806048626209e-01 -1.272409138200483e+00 0.000000000000000e+00
					2.500000000000001e-01 -1.468750000000000e+00 0.000000000000000e+00
					5.000000000000001e-01 -1.375000000000000e+00 0.000000000000000e+00
					2.283806048626209e-01 -1.272409138200483e+00 0.000000000000000e+00
					4.567612097252416e-01 -1.200631794450483e+00 0.000000000000000e+00
					5.000000000000001e-01 -1.375000000000000e+00 0.000000000000000e+00
					7.500000000000000e-01 -1.218750000000000e+00 0.000000000000000e+00
					4.567612097252416e-01 -1.200631794450483e+00 0.000000000000000e+00
					6.851418145878623e-01 -1.081002888200483e+00 0.000000000000000e+00
					7.500000000000000e-01 -1.218750000000000e+00 0.000000000000000e+00
					1.000000000000000e+00 -1.000000000000000e+00 0.000000000000000e+00
					6.851418145878623e-01 -1.081002888200483e+00 0.000000000000000e+00
					9.135224194504830e-01 -9.135224194504830e-01 0.000000000000000e+00
					-9.135224194504830e-01 -9.135224194504830e-01 0.000000000000000e+00
					-6.851418145878623e-01 -1.081002888200483e+00 0.000000000000000e+00
					-8.338955762008280e-01 -8.338955762008280e-01 0.000000000000000e+00
					-6.254216821506211e-01 -9.569424512008281e-01 0.000000000000000e+00
					-6.851418145878623e-01 -1.081002888200483e+00 0.000000000000000e+00
					-4.567612097252415e-01 -1.200631794450484e+00 0.000000000000000e+00
					-6.254216821506211e-01 -9.569424512008281e-01 0.000000000000000e+00
					-4.169477881004140e-01 -1.044833076200828e+00 0.000000000000000e+00
					-4.567612097252415e-01 -1.200631794450484e+00 0.000000000000000e+00
					-2.283806048626207e-01 -1.272409138200483e+00 0.000000000000000e+00
					-4.169477881004140e-01 -1.044833076200828e+00 0.000000000000000e+00
					-2.084738940502070e-01 -1.097567451200828e+00 0.000000000000000e+00
					-2.283806048626207e-01 -1.272409138200483e+00 0.000000000000000e+00
					6.581107186987012e-17 -1.296334919450483e+00 0.000000000000000e+00
					-2.084738940502070e-01 -1.097567451200828e+00 0.000000000000000e+00
					6.201636426617085e-17 -1.115145576200828e+00 0.000000000000000e+00
					6.581107186987012e-17 -1.296334919450483e+00 0.000000000000000e+00
					2.283806048626209e-01 -1.272409138200483e+00 0.000000000000000e+00
					6.201636426617085e-17 -1.115145576200828e+00 0.000000000000000e+00
					2.084738940502071e-01 -1.097567451200828e+00 0.000000000000000e+00
					2.283806048626209e-01 -1.272409138200483e+00 0.000000000000000e+00
					4.567612097252416e-01 -1.200631794450483e+00 0.000000000000000e+00
					2.084738940502071e-01 -1.097567451200828e+00 0.000000000000000e+00
					4.169477881004141e-01 -1.044833076200828e+00 0.000000000000000e+00
					4.567612097252416e-01 -1.200631794450483e+00 0.000000000000000e+00
					6.851418145878623e-01 -1.081002888200483e+00 0.000000000000000e+00
					4.169477881004141e-01 -1.044833076200828e+00 0.000000000000000e+00
					6.254216821506211e-01 -9.569424512008281e-01 0.000000000000000e+00
					6.851418145878623e-01 -1.081002888200483e+00 0.000000000000000e+00
					9.135224194504830e-01 -9.135224194504830e-01 0.000000000000000e+00
					6.254216821506211e-01 -9.569424512008281e-01 0.000000000000000e+00
					8.338955762008280e-01 -8.338955762008280e-01 0.000000000000000e+00
					-8.338955762008280e-01 -8.338955762008280e-01 0.000000000000000e+00
					-6.254216821506211e-01 -9.569424512008281e-01 0.000000000000000e+00
					-7.611194702510350e-01 -7.611194702510350e-01 0.000000000000000e+00
					-5.708396026882762e-01 -8.465686890010350e-01 0.000000000000000e+00
					-6.254216821506211e-01 -9.569424512008281e-01 0.000000000000000e+00
					-4.169477881004140e-01 -1.044833076200828e+00 0.000000000000000e+00
					-5.708396026882762e-01 -8.465686890010350e-01 0.000000000000000e+00
					-3.805597351255174e-01 -9.076038452510352e-01 0.000000000000000e+00
					-4.169477881004140e-01 -1.044833076200828e+00 0.000000000000000e+00
					-2.084738940502070e-01 -1.097567451200828e+00 0.000000000000000e+00
					-3.805597351255174e-01 -9.076038452510352e-01 0.000000000000000e+00
					-1.902798675627587e-01 -9.442249390010351e-01 0.000000000000000e+00
					-2.084738940502070e-01 -1.097567451200828e+00 0.000000000000000e+00
					6.201636426617085e-17 -1.115145576200828e+00 0.000000000000000e+00
					-1.902798675627587e-01 -9.442249390010351e-01 0.000000000000000e+00
					5.800481622797449e-17 -9.564319702510350e-01 0.000000000000000e+00
					6.201636426617085e-17 -1.115145576200828e+00 0.000000000000000e+00
					2.084738940502071e-01 -1.097567451200828e+00 0.000000000000000e+00
					5.800481622797449e-17 -9.564319702510350e-01 0.000000000000000e+00
					1.902798675627588e-01 -9.442249390010350e-01 0.000000000000000e+00
					2.084738940502071e-01 -1.097567451200828e+00 0.000000000000000e+00
					4.169477881004141e-01 -1.044833076200828e+00 0.000000000000000e+00
					1.902798675627588e-01 -9.442249390010350e-01 0.000000000000000e+00
					3.805597351255176e-01 -9.076038452510350e-01 0.000000000000000e+00
					4.169477881004141e-01 -1.044833076200828e+00 0.000000000000000e+00
					6.254216821506211e-01 -9.569424512008281e-01 0.000000000000000e+00
					3.805597351255176e-01 -9.076038452510350e-01 0.000000000000000e+00
					5.708396026882762e-01 -8.465686890010350e-01 0.000000000000000e+00
					6.254216821506211e-01 -9.569424512008281e-01 0.000000000000000e+00
					8.338955762008280e-01 -8.338955762008280e-01 0.000000000000000e+00
					5.708396026882762e-01 -8.465686890010350e-01 0.000000000000000e+00
					7.611194702510350e-01 -7.611194702510350e-01 0.000000000000000e+00
					-7.611194702510350e-01 -7.611194702510350e-01 0.000000000000000e+00
					-5.708396026882762e-01 -8.465686890010350e-01 0.000000000000000e+00
					-6.951941016011041e-01 -6.951941016011041e-01 0.000000000000000e+00
					-5.213955762008279e-01 -7.498816016011041e-01 0.000000000000000e+00
					-5.708396026882762e-01 -8.465686890010350e-01 0.000000000000000e+00
					-3.805597351255174e-01 -9.076038452510352e-01 0.000000000000000e+00
					-5.213955762008279e-01 -7.498816016011041e-01 0.000000000000000e+00
					-3.475970508005519e-01 -7.889441016011042e-01 0.000000000000000e+00
					-3.805597351255174e-01 -9.076038452510352e-01 0.000000000000000e+00
					-1.902798675627587e-01 -9.442249390010351e-01 0.000000000000000e+00
					-3.475970508005519e-01 -7.889441016011042e-01 0.000000000000000e+00
					-1.737985254002760e-01 -8.123816016011042e-01 0.000000000000000e+00
					-1.902798675627587e-01 -9.442249390010351e-01 0.000000000000000e+00
					5.800481622797449e-17 -9.564319702510350e-01 0.000000000000000e+00
					-1.737985254002760e-01 -8.123816016011042e-01 0.000000000000000e+00
					5.377642775528102e-17 -8.201941016011041e-01 0.000000000000000e+00
					5.800481622797449e-17 -9.564319702510350e-01 0.000000000000000e+00
					1.902798675627588e-01 -9.442249390010350e-01 0.000000000000000e+00
					5.377642775528102e-17 -8.201941016011041e-01 0.000000000000000e+00
					1.737985254002761e-01 -8.123816016011041e-01 0.000000000000000e+00
					1.902798675627588e-01 -9.442249390010350e-01 0.000000000000000e+00
					3.805597351255176e-01 -9.076038452510350e-01 0.000000000000000e+00
					1.737985254002761e-01 -8.123816016011041e-01 0.000000000000000e+00
					3.475970508005521e-01 -7.889441016011040e-01 0.000000000000000e+00
					3.805597351255176e-01 -9.076038452510350e-01 0.000000000000000e+00
					5.708396026882762e-01 -8.465686890010350e-01 0.000000000000000e+00
					3.475970508005521e-01 -7.889441016011040e-01 0.000000000000000e+00
					5.213955762008279e-01 -7.498816016011041e-01 0.000000000000000e+00
					5.708396026882762e-01 -8.465686890010350e-01 0.000000000000000e+00
					7.611194702510350e-01 -7.611194702510350e-01 0.000000000000000e+00
					5.213955762008279e-01 -7.498816016011041e-01 0.000000000000000e+00
					6.951941016011041e-01 -6.951941016011041e-01 0.000000000000000e+00
					-6.951941016011041e-01 -6.951941016011041e-01 0.000000000000000e+00
					-5.213955762008279e-01 -7.498816016011041e-01 0.000000000000000e+00
					-6.361194702510350e-01 -6.361194702510350e-01 0.000000000000000e+00
					-4.770896026882761e-01 -6.668811890010350e-01 0.000000000000000e+00
					-5.213955762008279e-01 -7.498816016011041e-01 0.000000000000000e+00
					-3.475970508005519e-01 -7.889441016011042e-01 0.000000000000000e+00
					-4.770896026882761e-01 -6.668811890010350e-01 0.000000000000000e+00
					-3.180597351255174e-01 -6.888538452510350e-01 0.000000000000000e+00
					-3.475970508005519e-01 -7.889441016011042e-01 0.000000000000000e+00
					-1.737985254002760e-01 -8.123816016011042e-01 0.000000000000000e+00
					-3.180597351255174e-01 -6.888538452510350e-01 0.000000000000000e+00
					-1.590298675627587e-01 -7.020374390010350e-01 0.000000000000000e+00
					-1.737985254002760e-01 -8.123816016011042e-01 0.000000000000000e+00
					5.377642775528102e-17 -8.201941016011041e-01 0.000000000000000e+00
					-1.590298675627587e-01 -7.020374390010350e-01 0.000000000000000e+00
					4.933119884809045e-17 -7.064319702510350e-01 0.000000000000000e+00
					5.377642775528102e-17 -8.201941016011041e-01 0.000000000000000e+00
					1.737985254002761e-01 -8.123816016011041e-01 0.000000000000000e+00
					4.933119884809045e-17 -7.064319702510350e-01 0.000000000000000e+00
					1.590298675627588e-01 -7.020374390010350e-01 0.000000000000000e+00
					1.737985254002761e-01 -8.123816016011041e-01 0.000000000000000e+00
					3.475970508005521e-01 -7.889441016011040e-01 0.000000000000000e+00
					1.590298675627588e-01 -7.020374390010350e-01 0.000000000000000e+00
					3.180597351255176e-01 -6.888538452510349e-01 0.000000000000000e+00
					3.475970508005521e-01 -7.889441016011040e-01 0.000000000000000e+00
					5.213955762008279e-01 -7.498816016011041e-01 0.000000000000000e+00
					3.180597351255176e-01 -6.888538452510349e-01 0.000000000000000e+00
					4.770896026882761e-01 -6.668811890010350e-01 0.000000000000000e+00
					5.213955762008279e-01 -7.498816016011041e-01 0.000000000000000e+00
					6.951941016011041e-01 -6.951941016011041e-01 0.000000000000000e+00
					4.770896026882761e-01 -6.668811890010350e-01 0.000000000000000e+00
					6.361194702510350e-01 -6.361194702510350e-01 0.000000000000000e+00
					-6.361194702510350e-01 -6.361194702510350e-01 0.000000000000000e+00
					-4.770896026882761e-01 -6.668811890010350e-01 0.000000000000000e+00
					-5.838955762008280e-01 -5.838955762008280e-01 0.000000000000000e+00
					-4.379216821506209e-01 -5.975674512008280e-01 0.000000000000000e+00
					-4.770896026882761e-01 -6.668811890010350e-01 0.000000000000000e+00
					-3.180597351255174e-01 -6.888538452510350e-01 0.000000000000000e+00
					-4.379216821506209e-01 -5.975674512008280e-01 0.000000000000000e+00
					-2.919477881004139e-01 -6.073330762008280e-01 0.000000000000000e+00
					-3.180597351255174e-01 -6.888538452510350e-01 0.000000000000000e+00
					-1.590298675627587e-01 -7.020374390010350e-01 0.000000000000000e+00
					-2.919477881004139e-01 -6.073330762008280e-01 0.000000000000000e+00
					-1.459738940502070e-01 -6.131924512008280e-01 0.000000000000000e+00
					-1.590298675627587e-01 -7.020374390010350e-01 0.000000000000000e+00
					4.933119884809045e-17 -7.064319702510350e-01 0.000000000000000e+00
					-1.459738940502070e-01 -6.131924512008280e-01 0.000000000000000e+00
					4.466912950640279e-17 -6.151455762008280e-01 0.000000000000000e+00
					4.933119884809045e-17 -7.064319702510350e-01 0.000000000000000e+00
					1.590298675627588e-01 -7.020374390010350e-01 0.000000000000000e+00
					4.466912950640279e-17 -6.151455762008280e-01 0.000000000000000e+00
					1.459738940502071e-01 -6.131924512008280e-01 0.000000000000000e+00
					1.590298675627588e-01 -7.020374390010350e-01 0.000000000000000e+00
					3.180597351255176e-01 -6.888538452510349e-01 0.000000000000000e+00
					1.459738940502071e-01 -6.131924512008280e-01 0.000000000000000e+00
					2.919477881004141e-01 -6.073330762008280e-01 0.000000000000000e+00
					3.180597351255176e-01 -6.888538452510349e-01 0.000000000000000e+00
					4.770896026882761e-01 -6.668811890010350e-01 0.000000000000000e+00
					2.919477881004141e-01 -6.073330762008280e-01 0.000000000000000e+00
					4.379216821506209e-01 -5.975674512008280e-01 0.000000000000000e+00
					4.770896026882761e-01 -6.668811890010350e-01 0.000000000000000e+00
					6.361194702510350e-01 -6.361194702510350e-01 0.000000000000000e+00
					4.379216821506209e-01 -5.975674512008280e-01 0.000000000000000e+00
					5.838955762008280e-01 -5.838955762008280e-01 0.000000000000000e+00
					-5.838955762008280e-01 -5.838955762008280e-01 0.000000000000000e+00
					-4.379216821506209e-01 -5.975674512008280e-01 0.000000000000000e+00
					-5.385224194504830e-01 -5.385224194504830e-01 0.000000000000000e+00
					-4.038918145878622e-01 -5.419403882004830e-01 0.000000000000000e+00
					-4.379216821506209e-01 -5.975674512008280e-01 0.000000000000000e+00
					-2.919477881004139e-01 -6.073330762008280e-01 0.000000000000000e+00
					-4.038918145878622e-01 -5.419403882004830e-01 0.000000000000000e+00
					-2.692612097252415e-01 -5.443817944504830e-01 0.000000000000000e+00
					-2.919477881004139e-01 -6.073330762008280e-01 0.000000000000000e+00
					-1.459738940502070e-01 -6.131924512008280e-01 0.000000000000000e+00
					-2.692612097252415e-01 -5.443817944504830e-01 0.000000000000000e+00
					-1.346306048626207e-01 -5.458466382004830e-01 0.000000000000000e+00
					-1.459738940502070e-01 -6.131924512008280e-01 0.000000000000000e+00
					4.466912950640279e-17 -6.151455762008280e-01 0.000000000000000e+00
					-1.346306048626207e-01 -5.458466382004830e-01 0.000000000000000e+00
					3.979021973021801e-17 -5.463349194504830e-01 0.000000000000000e+00
					4.466912950640279e-17 -6.151455762008280e-01 0.000000000000000e+00
					1.459738940502071e-01 -6.131924512008280e-01 0.000000000000000e+00
					3.979021973021801e-17 -5.463349194504830e-01 0.000000000000000e+00
					1.346306048626208e-01 -5.458466382004830e-01 0.000000000000000e+00
					1.459738940502071e-01 -6.131924512008280e-01 0.000000000000000e+00
					2.919477881004141e-01 -6.073330762008280e-01 0.000000000000000e+00
					1.346306048626208e-01 -5.458466382004830e-01 0.000000000000000e+00
					2.692612097252415e-01 -5.443817944504830e-01 0.000000000000000e+00
					2.919477881004141e-01 -6.073330762008280e-01 0.000000000000000e+00
					4.379216821506209e-01 -5.975674512008280e-01 0.000000000000000e+00
					2.692612097252415e-01 -5.443817944504830e-01 0.000000000000000e+00
					4.038918145878622e-01 -5.419403882004830e-01 0.000000000000000e+00
					4.379216821506209e-01 -5.975674512008280e-01 0.000000000000000e+00
					5.838955762008280e-01 -5.838955762008280e-01 0.000000000000000e+00
					4.038918145878622e-01 -5.419403882004830e-01 0.000000000000000e+00
					5.385224194504830e-01 -5.385224194504830e-01 0.000000000000000e+00
					-5.385224194504830e-01 -5.385224194504830e-01 0.000000000000000e+00
					-4.038918145878622e-01 -5.419403882004830e-01 0.000000000000000e+00
					-5.000000000000000e-01 -5.000000000000000e-01 0.000000000000000e+00
					-3.750000000000000e-01 -5.000000000000000e-01 0.000000000000000e+00
					-4.038918145878622e-01 -5.419403882004830e-01 0.000000000000000e+00
					-2.692612097252415e-01 -5.443817944504830e-01 0.000000000000000e+00
					-3.750000000000000e-01 -5.000000000000000e-01 0.000000000000000e+00
					-2.500000000000000e-01 -5.000000000000000e-01 0.000000000000000e+00
					-2.692612097252415e-01 -5.443817944504830e-01 0.000000000000000e+00
					-1.346306048626207e-01 -5.458466382004830e-01 0.000000000000000e+00
					-2.500000000000000e-01 -5.000000000000000e-01 0.000000000000000e+00
					-1.250000000000000e-01 -5.000000000000000e-01 0.000000000000000e+00
					-1.346306048626207e-01 -5.458466382004830e-01 0.000000000000000e+00
					3.979021973021801e-17 -5.463349194504830e-01 0.000000000000000e+00
					-1.250000000000000e-01 -5.000000000000000e-01 0.000000000000000e+00
					3.469446951953614e-17 -5.000000000000000e-01 0.000000000000000e+00
					3.979021973021801e-17 -5.463349194504830e-01 0.000000000000000e+00
					1.346306048626208e-01 -5.458466382004830e-01 0.000000000000000e+00
					3.469446951953614e-17 -5.000000000000000e-01 0.000000000000000e+00
					1.250000000000001e-01 -5.000000000000000e-01 0.000000000000000e+00
					1.346306048626208e-01 -5.458466382004830e-01 0.000000000000000e+00
					2.692612097252415e-01 -5.443817944504830e-01 0.000000000000000e+00
					1.250000000000001e-01 -5.000000000000000e-01 0.000000000000000e+00
					2.500000000000001e-01 -5.000000000000000e-01 0.000000000000000e+00
					2.692612097252415e-01 -5.443817944504830e-01 0.000000000000000e+00
					4.038918145878622e-01 -5.419403882004830e-01 0.000000000000000e+00
					2.500000000000001e-01 -5.000000000000000e-01 0.000000000000000e+00
					3.750000000000000e-01 -5.000000000000000e-01 0.000000000000000e+00
					4.038918145878622e-01 -5.419403882004830e-01 0.000000000000000e+00
					5.385224194504830e-01 -5.385224194504830e-01 0.000000000000000e+00
					3.750000000000000e-01 -5.000000000000000e-01 0.000000000000000e+00
					5.000000000000000e-01 -5.000000000000000e-01 0.000000000000000e+00
				</DataArray>
			</Points>
			<Cells>
				<DataArray Name="connectivity" type="UInt32" format="ascii">
					0 1 3 2 4 5 7 6 8 9 11 10 12 13 15 14 16 17 19 18 20 21 23 22 24 25 27 26 28 29 31 30 32 33 35 34 36 37 39 38 40 41 43 42 44 45 47 46 48 49 51 50 52 53 55 54 56 57 59 58 60 61 63 62 64 65 67 66 68 69 71 70 72 73 75 74 76 77 79 78 80 81 83 82 84 85 87 86 88 89 91 90 92 93 95 94 96 97 99 98 100 101 103 102 104 105 107 106 108 109 111 110 112 113 115 114 116 117 119 118 120 121 123 122 124 125 127 126 128 129 131 130 132 133 135 134 136 137 139 138 140 141 143 142 144 145 147 146 148 149 151 150 152 153 155 154 156 157 159 158 160 161 163 162 164 165 167 166 168 169 171 170 172 173 175 174 176 177 179 178 180 181 183 182 184 185 187 186 188 189 191 190 192 193 195 194 196 197 199 198 200 201 203 202 204 205 207 206 208 209 211 210 212 213 215 214 216 217 219 218 220 221 223 222 224 225 227 226 228 229 231 230 232 233 235 234 236 237 239 238 240 241 243 242 244 245 247 246 248 249 251 250 252 253 255 254 
				</DataArray>
				<DataArray Name="offsets" type="UInt32" format="ascii">
					4 8 12 16 20 24 28 32 36 40 44 48 52 56 60 64 68 72 76 80 84 88 92 96 100 104 108 112 116 120 124 128 132 136 140 144 148 152 156 160 164 168 172 176 180 184 188 192 196 200 204 208 212 216 220 224 228 232 236 240 244 248 252 256 
				</DataArray>
				<DataArray Name="types" type="UInt8" format="ascii">
					9 9 9 9 9 9 9 9 9 9 9 9 9 9 9 9 9 9 9 9 9 9 9 9 9 9 9 9 9 9 9 9 9 9 9 9 9 9 9 9 9 9 9 9 9 9 9 9 9 9 9 9 9 9 9 9 9 9 9 9 9 9 9 9 
				</DataArray>
			</Cells>
			<PointData Vectors="solution ">
				<DataArray Name="solution" type="Float64" NumberOfComponents="1" format="ascii">
					0.000000000000000e+00 0.000000000000000e+00 7.977265092216751e-04 1.438472984150342e-03 0.000000000000000e+00 0.000000000000000e+00 1.438472984150342e-03 2.304800102010158e-03 0.000000000000000e+00 0.000000000000000e+00 2.304800102010158e-03 3.420796017423763e-03 0.000000000000000e+00 0.000000000000000e+00 3.420796017423763e-03 4.573053742584994e-03 0.000000000000000e+00 0.000000000000000e+00 4.573053742584994e-03 5.422477565137569e-03 0.000000000000000e+00 0.000000000000000e+00 5.422477565137569e-03 5.803095841993302e-03 0.000000000000000e+00 0.000000000000000e+00 5.803095841993302e-03 5.781605091817047e-03 0.000000000000000e+00 0.000000000000000e+00 5.781605091817047e-03 5.163687260144542e-03 7.977265092216751e-04 1.438472984150342e-03 1.296358953067981e-02 2.338980538393338e-02 1.438472984150342e-03 2.304800102010158e-03 2.338980538393338e-02 3.612206816502748e-02 2.304800102010158e-03 3.420796017423763e-03 3.612206816502748e-02 5.041367497536276e-02 3.420796017423763e-03 4.573053742584994e-03 5.041367497536276e-02 6.468322316296998e-02 4.573053742584994e-03 5.422477565137569e-03 6.468322316296998e-02 7.656695837846741e-02 5.422477565137569e-03 5.803095841993302e-03 7.656695837846741e-02 8.335198764855374e-02 5.803095841993302e-03 5.781605091817047e-03 8.335198764855374e-02 8.207728405385893e-02 5.781605091817047e-03 5.163687260144542e-03 8.207728405385893e-02 6.930414597692616e-02 1.296358953067981e-02 2.338980538393338e-02 6.243084303229476e-02 1.136612873837440e-01 2.338980538393338e-02 3.612206816502748e-02 1.136612873837440e-01 1.769334312718498e-01 3.612206816502748e-02 5.041367497536276e-02 1.769334312718498e-01 2.458490828757185e-01 5.041367497536276e-02 6.468322316296998e-02 2.458490828757185e-01 3.109032149474969e-01 6.468322316296998e-02 7.656695837846741e-02 3.109032149474969e-01 3.598449834350754e-01 7.656695837846741e-02 8.335198764855374e-02 3.598449834350754e-01 3.791108317985110e-01 8.335198764855374e-02 8.207728405385893e-02 3.791108317985110e-01 3.566456977496467e-01 8.207728405385893e-02 6.930414597692616e-02 3.566456977496467e-01 2.870813181329618e-01 6.243084303229476e-02 1.136612873837440e-01 1.815545076597027e-01 3.286145285813588e-01 1.136612873837440e-01 1.769334312718498e-01 3.286145285813588e-01 5.116339240157557e-01 1.769334312718498e-01 2.458490828757185e-01 5.116339240157557e-01 7.078213992997564e-01 2.458490828757185e-01 3.109032149474969e-01 7.078213992997564e-01 8.842100574322650e-01 3.109032149474969e-01 3.598449834350754e-01 8.842100574322650e-01 1.002255165142601e+00 3.598449834350754e-01 3.791108317985110e-01 1.002255165142601e+00 1.025891948031272e+00 3.791108317985110e-01 3.566456977496467e-01 1.025891948031272e+00 9.332532187100568e-01 3.566456977496467e-01 2.870813181329618e-01 9.332532187100568e-01 7.305528276148865e-01 1.815545076597027e-01 3.286145285813588e-01 3.967055106356971e-01 7.031262268486478e-01 3.286145285813588e-01 5.116339240157557e-01 7.031262268486478e-01 1.081582112223017e+00 5.116339240157557e-01 7.078213992997564e-01 1.081582112223017e+00 1.480045312875798e+00 7.078213992997564e-01 8.842100574322650e-01 1.480045312875798e+00 1.824641282245170e+00 8.842100574322650e-01 1.002255165142601e+00 1.824641282245170e+00 2.034556463896129e+00 1.002255165142601e+00 1.025891948031272e+00 2.034556463896129e+00 2.043944792593134e+00 1.025891948031272e+00 9.332532187100568e-01 2.043944792593134e+00 1.826872650935279e+00 9.332532187100568e-01 7.305528276148865e-01 1.826872650935279e+00 1.417438335102164e+00 3.967055106356971e-01 7.031262268486478e-01 7.180674611325575e-01 1.229519785039758e+00 7.031262268486478e-01 1.081582112223017e+00 1.229519785039758e+00 1.848208100978084e+00 1.081582112223017e+00 1.480045312875798e+00 1.848208100978084e+00 2.485828473347046e+00 1.480045312875798e+00 1.824641282245170e+00 2.485828473347046e+00 3.021402363891897e+00 1.824641282245170e+00 2.034556463896129e+00 3.021402363891897e+00 3.328968735639194e+00 2.034556463896129e+00 2.043944792593134e+00 3.328968735639194e+00 3.314678832850243e+00 2.043944792593134e+00 1.826872650935279e+00 3.314678832850243e+00 2.953330582871493e+00 1.826872650935279e+00 1.417438335102164e+00 2.953330582871493e+00 2.310416186823135e+00 7.180674611325575e-01 1.229519785039758e+00 1.134711871683479e+00 1.854355151245564e+00 1.229519785039758e+00 1.848208100978084e+00 1.854355151245564e+00 2.698929448912904e+00 1.848208100978084e+00 2.485828473347046e+00 2.698929448912904e+00 3.549570833707793e+00 2.485828473347046e+00 3.021402363891897e+00 3.549570833707793e+00 4.250892822779358e+00 3.021402363891897e+00 3.328968735639194e+00 4.250892822779358e+00 4.646787225176833e+00 3.328968735639194e+00 3.314678832850243e+00 4.646787225176833e+00 4.625459245727041e+00 3.314678832850243e+00 2.953330582871493e+00 4.625459245727041e+00 4.160702030608444e+00 2.953330582871493e+00 2.310416186823135e+00 4.160702030608444e+00 3.333621120095297e+00 1.134711871683479e+00 1.854355151245564e+00 1.615599062177858e+00 2.491271587428383e+00 1.854355151245564e+00 2.698929448912904e+00 2.491271587428383e+00 3.482271083713240e+00 2.698929448912904e+00 3.549570833707793e+00 3.482271083713240e+00 4.458814449727708e+00 3.549570833707793e+00 4.250892822779358e+00 4.458814449727708e+00 5.259538065003528e+00 4.250892822779358e+00 4.646787225176833e+00 5.259538065003528e+00 5.725660984891628e+00 4.646787225176833e+00 4.625459245727041e+00 5.725660984891628e+00 5.742249077807633e+00 4.625459245727041e+00 4.160702030608444e+00 5.742249077807633e+00 5.275596031900971e+00 4.160702030608444e+00 3.333621120095297e+00 5.275596031900971e+00 4.393923568741910e+00 
				</DataArray>
			</PointData>
			<CellData>
			</CellData>
		</Piece>
	</UnstructuredGrid>
</VTKFile>