<?xml version="1.0"?>
<VTKFile type="UnstructuredGrid" byte_order="LittleEndian">
	<UnstructuredGrid>
		<Piece NumberOfPoints="16" NumberOfCells="4">
			<Points>
				<DataArray type="Float64" NumberOfComponents="3" format="ascii">
					-5.000000000000000e-01 -5.000000000000000e-01 0.000000000000000e+00
					0.000000000000000e+00 -5.000000000000000e-01 0.000000000000000e+00
					-5.000000000000000e-01 0.000000000000000e+00 0.000000000000000e+00
					0.000000000000000e+00 0.000000000000000e+00 0.000000000000000e+00
					0.000000000000000e+00 -5.000000000000000e-01 0.000000000000000e+00
					5.000000000000000e-01 -5.000000000000000e-01 0.000000000000000e+00
					0.000000000000000e+00 0.000000000000000e+00 0.000000000000000e+00
					5.000000000000000e-01 0.000000000000000e+00 0.000000000000000e+00
					-5.000000000000000e-01 0.000000000000000e+00 0.000000000000000e+00
					0.000000000000000e+00 0.000000000000000e+00 0.000000000000000e+00
					-5.000000000000000e-01 5.000000000000000e-01 0.000000000000000e+00
					0.000000000000000e+00 5.000000000000000e-01 0.000000000000000e+00
					0.000000000000000e+00 0.000000000000000e+00 0.000000000000000e+00
					5.000000000000000e-01 0.000000000000000e+00 0.000000000000000e+00
					0.000000000000000e+00 5.000000000000000e-01 0.000000000000000e+00
					5.000000000000000e-01 5.000000000000000e-01 0.000000000000000e+00
				</DataArray>
			</Points>
			<Cells>
				<DataArray Name="connectivity" type="UInt32" format="ascii">
					0 1 3 2 4 5 7 6 8 9 11 10 12 13 15 14 
				</DataArray>
				<DataArray Name="offsets" type="UInt32" format="ascii">
					4 8 12 16 
				</DataArray>
				<DataArray Name="types" type="UInt8" format="ascii">
					9 9 9 9 
				</DataArray>
			</Cells>
			<PointData Vectors="solution ">
				<DataArray Name="solution" type="Float64" NumberOfComponents="1" format="ascii">
					1.220051841981292e+00 5.092770252877179e+00 8.877465414799332e+00 2.709711550679889e+01 5.092770252877179e+00 4.209643559161449e+00 2.709711550679889e+01 2.589135925218942e+01 8.877465414799332e+00 2.709711550679889e+01 1.272040989234143e+01 4.322292581083707e+01 2.709711550679889e+01 2.589135925218942e+01 4.322292581083707e+01 3.727583788516407e+01 
				</DataArray>
			</PointData>
			<CellData>
			</CellData>
		</Piece>
	</UnstructuredGrid>
</VTKFile>