<?xml version="1.0"?>
<VTKFile type="UnstructuredGrid" byte_order="LittleEndian">
	<UnstructuredGrid>
		<Piece NumberOfPoints="64" NumberOfCells="16">
			<Points>
				<DataArray type="Float64" NumberOfComponents="3" format="ascii">
					-5.000000000000000e-01 -5.000000000000000e-01 0.000000000000000e+00
					-2.500000000000000e-01 -5.000000000000000e-01 0.000000000000000e+00
					-5.000000000000000e-01 -2.500000000000000e-01 0.000000000000000e+00
					-2.500000000000000e-01 -2.500000000000000e-01 0.000000000000000e+00
					-2.500000000000000e-01 -5.000000000000000e-01 0.000000000000000e+00
					2.775557561562891e-17 -5.000000000000000e-01 0.000000000000000e+00
					-2.500000000000000e-01 -2.500000000000000e-01 0.000000000000000e+00
					2.775557561562891e-17 -2.500000000000000e-01 0.000000000000000e+00
					2.775557561562891e-17 -5.000000000000000e-01 0.000000000000000e+00
					2.500000000000000e-01 -5.000000000000000e-01 0.000000000000000e+00
					2.775557561562891e-17 -2.500000000000000e-01 0.000000000000000e+00
					2.500000000000000e-01 -2.500000000000000e-01 0.000000000000000e+00
					2.500000000000000e-01 -5.000000000000000e-01 0.000000000000000e+00
					5.000000000000000e-01 -5.000000000000000e-01 0.000000000000000e+00
					2.500000000000000e-01 -2.500000000000000e-01 0.000000000000000e+00
					5.000000000000000e-01 -2.500000000000000e-01 0.000000000000000e+00
					-5.000000000000000e-01 -2.500000000000000e-01 0.000000000000000e+00
					-2.500000000000000e-01 -2.500000000000000e-01 0.000000000000000e+00
					-5.000000000000000e-01 2.775557561562891e-17 0.000000000000000e+00
					-2.500000000000000e-01 2.775557561562891e-17 0.000000000000000e+00
					-2.500000000000000e-01 -2.500000000000000e-01 0.000000000000000e+00
					2.775557561562891e-17 -2.500000000000000e-01 0.000000000000000e+00
					-2.500000000000000e-01 2.775557561562891e-17 0.000000000000000e+00
					2.775557561562891e-17 2.775557561562891e-17 0.000000000000000e+00
					2.775557561562891e-17 -2.500000000000000e-01 0.000000000000000e+00
					2.500000000000000e-01 -2.500000000000000e-01 0.000000000000000e+00
					2.775557561562891e-17 2.775557561562891e-17 0.000000000000000e+00
					2.500000000000000e-01 2.775557561562891e-17 0.000000000000000e+00
					2.500000000000000e-01 -2.500000000000000e-01 0.000000000000000e+00
					5.000000000000000e-01 -2.500000000000000e-01 0.000000000000000e+00
					2.500000000000000e-01 2.775557561562891e-17 0.000000000000000e+00
					5.000000000000000e-01 2.775557561562891e-17 0.000000000000000e+00
					-5.000000000000000e-01 2.775557561562891e-17 0.000000000000000e+00
					-2.500000000000000e-01 2.775557561562891e-17 0.000000000000000e+00
					-5.000000000000000e-01 2.500000000000000e-01 0.000000000000000e+00
					-2.500000000000000e-01 2.500000000000000e-01 0.000000000000000e+00
					-2.500000000000000e-01 2.775557561562891e-17 0.000000000000000e+00
					2.775557561562891e-17 2.775557561562891e-17 0.000000000000000e+00
					-2.500000000000000e-01 2.500000000000000e-01 0.000000000000000e+00
					2.775557561562891e-17 2.500000000000000e-01 0.000000000000000e+00
					2.775557561562891e-17 2.775557561562891e-17 0.000000000000000e+00
					2.500000000000000e-01 2.775557561562891e-17 0.000000000000000e+00
					2.775557561562891e-17 2.500000000000000e-01 0.000000000000000e+00
					2.500000000000000e-01 2.500000000000000e-01 0.000000000000000e+00
					2.500000000000000e-01 2.775557561562891e-17 0.000000000000000e+00
					5.000000000000000e-01 2.775557561562891e-17 0.000000000000000e+00
					2.500000000000000e-01 2.500000000000000e-01 0.000000000000000e+00
					5.000000000000000e-01 2.500000000000000e-01 0.000000000000000e+00
					-5.000000000000000e-01 2.500000000000000e-01 0.000000000000000e+00
					-2.500000000000000e-01 2.500000000000000e-01 0.000000000000000e+00
					-5.000000000000000e-01 5.000000000000000e-01 0.000000000000000e+00
					-2.500000000000000e-01 5.000000000000000e-01 0.000000000000000e+00
					-2.500000000000000e-01 2.500000000000000e-01 0.000000000000000e+00
					2.775557561562891e-17 2.500000000000000e-01 0.000000000000000e+00
					-2.500000000000000e-01 5.000000000000000e-01 0.000000000000000e+00
					2.775557561562891e-17 5.000000000000000e-01 0.000000000000000e+00
					2.775557561562891e-17 2.500000000000000e-01 0.000000000000000e+00
					2.500000000000000e-01 2.500000000000000e-01 0.000000000000000e+00
					2.775557561562891e-17 5.000000000000000e-01 0.000000000000000e+00
					2.500000000000000e-01 5.000000000000000e-01 0.000000000000000e+00
					2.500000000000000e-01 2.500000000000000e-01 0.000000000000000e+00
					5.000000000000000e-01 2.500000000000000e-01 0.000000000000000e+00
					2.500000000000000e-01 5.000000000000000e-01 0.000000000000000e+00
					5.000000000000000e-01 5.000000000000000e-01 0.000000000000000e+00
				</DataArray>
			</Points>
			<Cells>
				<DataArray Name="connectivity" type="UInt32" format="ascii">
					0 1 3 2 4 5 7 6 8 9 11 10 12 13 15 14 16 17 19 18 20 21 23 22 24 25 27 26 28 29 31 30 32 33 35 34 36 37 39 38 40 41 43 42 44 45 47 46 48 49 51 50 52 53 55 54 56 57 59 58 60 61 63 62 
				</DataArray>
				<DataArray Name="offsets" type="UInt32" format="ascii">
					4 8 12 16 20 24 28 32 36 40 44 48 52 56 60 64 
				</DataArray>
				<DataArray Name="types" type="UInt8" format="ascii">
					9 9 9 9 9 9 9 9 9 9 9 9 9 9 9 9 
				</DataArray>
			</Cells>
			<PointData Vectors="solution ">
				<DataArray Name="solution" type="Float64" NumberOfComponents="1" format="ascii">
					1.615868583010110e+00 3.482154763475918e+00 4.471725399999179e+00 9.093352688008142e+00 3.482154763475918e+00 5.258536854144350e+00 9.093352688008142e+00 1.350471057197750e+01 5.258536854144350e+00 5.740506950783875e+00 1.350471057197750e+01 1.499285458270749e+01 5.740506950783875e+00 4.393056523413722e+00 1.499285458270749e+01 1.215652593691147e+01 4.471725399999179e+00 9.093352688008142e+00 8.670978097917596e+00 1.734097091484650e+01 9.093352688008142e+00 1.350471057197750e+01 1.734097091484650e+01 2.562691481640270e+01 1.350471057197750e+01 1.499285458270749e+01 2.562691481640270e+01 2.859088473075430e+01 1.499285458270749e+01 1.215652593691147e+01 2.859088473075430e+01 2.357146473916247e+01 8.670978097917596e+00 1.734097091484650e+01 1.215535280493916e+01 2.472046853806764e+01 1.734097091484650e+01 2.562691481640270e+01 2.472046853806764e+01 3.671225703336236e+01 2.562691481640270e+01 2.859088473075430e+01 3.671225703336236e+01 4.075722316440781e+01 2.859088473075430e+01 2.357146473916247e+01 4.075722316440781e+01 3.304357393135450e+01 1.215535280493916e+01 2.472046853806764e+01 1.194395812934529e+01 2.573639020514408e+01 2.472046853806764e+01 3.671225703336236e+01 2.573639020514408e+01 3.886325799895598e+01 3.671225703336236e+01 4.075722316440781e+01 3.886325799895598e+01 4.242542624940020e+01 4.075722316440781e+01 3.304357393135450e+01 4.242542624940020e+01 3.246766185371965e+01 
				</DataArray>
			</PointData>
			<CellData>
			</CellData>
		</Piece>
	</UnstructuredGrid>
</VTKFile>