<?xml version="1.0"?>
<VTKFile type="UnstructuredGrid" byte_order="LittleEndian">
	<UnstructuredGrid>
		<Piece NumberOfPoints="256" NumberOfCells="64">
			<Points>
				<DataArray type="Float64" NumberOfComponents="3" format="ascii">
					-5.000000000000000e-01 -5.000000000000000e-01 0.000000000000000e+00
					-3.750000000000000e-01 -5.000000000000000e-01 0.000000000000000e+00
					-5.000000000000000e-01 -3.750000000000000e-01 0.000000000000000e+00
					-3.750000000000000e-01 -3.750000000000000e-01 0.000000000000000e+00
					-3.750000000000000e-01 -5.000000000000000e-01 0.000000000000000e+00
					-2.500000000000000e-01 -5.000000000000000e-01 0.000000000000000e+00
					-3.750000000000000e-01 -3.750000000000000e-01 0.000000000000000e+00
					-2.500000000000000e-01 -3.750000000000000e-01 0.000000000000000e+00
					-2.500000000000000e-01 -5.000000000000000e-01 0.000000000000000e+00
					-1.250000000000000e-01 -5.000000000000000e-01 0.000000000000000e+00
					-2.500000000000000e-01 -3.750000000000000e-01 0.000000000000000e+00
					-1.250000000000000e-01 -3.750000000000000e-01 0.000000000000000e+00
					-1.250000000000000e-01 -5.000000000000000e-01 0.000000000000000e+00
					3.469446951953614e-17 -5.000000000000000e-01 0.000000000000000e+00
					-1.250000000000000e-01 -3.750000000000000e-01 0.000000000000000e+00
					3.469446951953615e-17 -3.750000000000000e-01 0.000000000000000e+00
					3.469446951953614e-17 -5.000000000000000e-01 0.000000000000000e+00
					1.250000000000001e-01 -5.000000000000000e-01 0.000000000000000e+00
					3.469446951953615e-17 -3.750000000000000e-01 0.000000000000000e+00
					1.250000000000001e-01 -3.750000000000000e-01 0.000000000000000e+00
					1.250000000000001e-01 -5.000000000000000e-01 0.000000000000000e+00
					2.500000000000001e-01 -5.000000000000000e-01 0.000000000000000e+00
					1.250000000000001e-01 -3.750000000000000e-01 0.000000000000000e+00
					2.500000000000001e-01 -3.750000000000000e-01 0.000000000000000e+00
					2.500000000000001e-01 -5.000000000000000e-01 0.000000000000000e+00
					3.750000000000000e-01 -5.000000000000000e-01 0.000000000000000e+00
					2.500000000000001e-01 -3.750000000000000e-01 0.000000000000000e+00
					3.750000000000000e-01 -3.750000000000000e-01 0.000000000000000e+00
					3.750000000000000e-01 -5.000000000000000e-01 0.000000000000000e+00
					5.000000000000000e-01 -5.000000000000000e-01 0.000000000000000e+00
					3.750000000000000e-01 -3.750000000000000e-01 0.000000000000000e+00
					5.000000000000000e-01 -3.750000000000000e-01 0.000000000000000e+00
					-5.000000000000000e-01 -3.750000000000000e-01 0.000000000000000e+00
					-3.750000000000000e-01 -3.750000000000000e-01 0.000000000000000e+00
					-5.000000000000000e-01 -2.500000000000000e-01 0.000000000000000e+00
					-3.750000000000001e-01 -2.500000000000000e-01 0.000000000000000e+00
					-3.750000000000000e-01 -3.750000000000000e-01 0.000000000000000e+00
					-2.500000000000000e-01 -3.750000000000000e-01 0.000000000000000e+00
					-3.750000000000001e-01 -2.500000000000000e-01 0.000000000000000e+00
					-2.500000000000000e-01 -2.500000000000000e-01 0.000000000000000e+00
					-2.500000000000000e-01 -3.750000000000000e-01 0.000000000000000e+00
					-1.250000000000000e-01 -3.750000000000000e-01 0.000000000000000e+00
					-2.500000000000000e-01 -2.500000000000000e-01 0.000000000000000e+00
					-1.250000000000000e-01 -2.500000000000000e-01 0.000000000000000e+00
					-1.250000000000000e-01 -3.750000000000000e-01 0.000000000000000e+00
					3.469446951953615e-17 -3.750000000000000e-01 0.000000000000000e+00
					-1.250000000000000e-01 -2.500000000000000e-01 0.000000000000000e+00
					3.469446951953615e-17 -2.500000000000000e-01 0.000000000000000e+00
					3.469446951953615e-17 -3.750000000000000e-01 0.000000000000000e+00
					1.250000000000001e-01 -3.750000000000000e-01 0.000000000000000e+00
					3.469446951953615e-17 -2.500000000000000e-01 0.000000000000000e+00
					1.250000000000001e-01 -2.500000000000000e-01 0.000000000000000e+00
					1.250000000000001e-01 -3.750000000000000e-01 0.000000000000000e+00
					2.500000000000001e-01 -3.750000000000000e-01 0.000000000000000e+00
					1.250000000000001e-01 -2.500000000000000e-01 0.000000000000000e+00
					2.500000000000001e-01 -2.500000000000000e-01 0.000000000000000e+00
					2.500000000000001e-01 -3.750000000000000e-01 0.000000000000000e+00
					3.750000000000000e-01 -3.750000000000000e-01 0.000000000000000e+00
					2.500000000000001e-01 -2.500000000000000e-01 0.000000000000000e+00
					3.750000000000001e-01 -2.500000000000000e-01 0.000000000000000e+00
					3.750000000000000e-01 -3.750000000000000e-01 0.000000000000000e+00
					5.000000000000000e-01 -3.750000000000000e-01 0.000000000000000e+00
					3.750000000000001e-01 -2.500000000000000e-01 0.000000000000000e+00
					5.000000000000000e-01 -2.500000000000000e-01 0.000000000000000e+00
					-5.000000000000000e-01 -2.500000000000000e-01 0.000000000000000e+00
					-3.750000000000001e-01 -2.500000000000000e-01 0.000000000000000e+00
					-5.000000000000000e-01 -1.250000000000000e-01 0.000000000000000e+00
					-3.750000000000001e-01 -1.250000000000000e-01 0.000000000000000e+00
					-3.750000000000001e-01 -2.500000000000000e-01 0.000000000000000e+00
					-2.500000000000000e-01 -2.500000000000000e-01 0.000000000000000e+00
					-3.750000000000001e-01 -1.250000000000000e-01 0.000000000000000e+00
					-2.500000000000000e-01 -1.250000000000000e-01 0.000000000000000e+00
					-2.500000000000000e-01 -2.500000000000000e-01 0.000000000000000e+00
					-1.250000000000000e-01 -2.500000000000000e-01 0.000000000000000e+00
					-2.500000000000000e-01 -1.250000000000000e-01 0.000000000000000e+00
					-1.250000000000000e-01 -1.250000000000000e-01 0.000000000000000e+00
					-1.250000000000000e-01 -2.500000000000000e-01 0.000000000000000e+00
					3.469446951953615e-17 -2.500000000000000e-01 0.000000000000000e+00
					-1.250000000000000e-01 -1.250000000000000e-01 0.000000000000000e+00
					3.469446951953615e-17 -1.250000000000000e-01 0.000000000000000e+00
					3.469446951953615e-17 -2.500000000000000e-01 0.000000000000000e+00
					1.250000000000001e-01 -2.500000000000000e-01 0.000000000000000e+00
					3.469446951953615e-17 -1.250000000000000e-01 0.000000000000000e+00
					1.250000000000001e-01 -1.250000000000000e-01 0.000000000000000e+00
					1.250000000000001e-01 -2.500000000000000e-01 0.000000000000000e+00
					2.500000000000001e-01 -2.500000000000000e-01 0.000000000000000e+00
					1.250000000000001e-01 -1.250000000000000e-01 0.000000000000000e+00
					2.500000000000001e-01 -1.250000000000000e-01 0.000000000000000e+00
					2.500000000000001e-01 -2.500000000000000e-01 0.000000000000000e+00
					3.750000000000001e-01 -2.500000000000000e-01 0.000000000000000e+00
					2.500000000000001e-01 -1.250000000000000e-01 0.000000000000000e+00
					3.750000000000001e-01 -1.250000000000000e-01 0.000000000000000e+00
					3.750000000000001e-01 -2.500000000000000e-01 0.000000000000000e+00
					5.000000000000000e-01 -2.500000000000000e-01 0.000000000000000e+00
					3.750000000000001e-01 -1.250000000000000e-01 0.000000000000000e+00
					5.000000000000000e-01 -1.250000000000000e-01 0.000000000000000e+00
					-5.000000000000000e-01 -1.250000000000000e-01 0.000000000000000e+00
					-3.750000000000001e-01 -1.250000000000000e-01 0.000000000000000e+00
					-5.000000000000000e-01 3.469446951953614e-17 0.000000000000000e+00
					-3.750000000000001e-01 3.469446951953614e-17 0.000000000000000e+00
					-3.750000000000001e-01 -1.250000000000000e-01 0.000000000000000e+00
					-2.500000000000000e-01 -1.250000000000000e-01 0.000000000000000e+00
					-3.750000000000001e-01 3.469446951953614e-17 0.000000000000000e+00
					-2.500000000000000e-01 3.469446951953614e-17 0.000000000000000e+00
					-2.500000000000000e-01 -1.250000000000000e-01 0.000000000000000e+00
					-1.250000000000000e-01 -1.250000000000000e-01 0.000000000000000e+00
					-2.500000000000000e-01 3.469446951953614e-17 0.000000000000000e+00
					-1.250000000000000e-01 3.469446951953614e-17 0.000000000000000e+00
					-1.250000000000000e-01 -1.250000000000000e-01 0.000000000000000e+00
					3.469446951953615e-17 -1.250000000000000e-01 0.000000000000000e+00
					-1.250000000000000e-01 3.469446951953614e-17 0.000000000000000e+00
					3.469446951953615e-17 3.469446951953614e-17 0.000000000000000e+00
					3.469446951953615e-17 -1.250000000000000e-01 0.000000000000000e+00
					1.250000000000001e-01 -1.250000000000000e-01 0.000000000000000e+00
					3.469446951953615e-17 3.469446951953614e-17 0.000000000000000e+00
					1.250000000000001e-01 3.469446951953614e-17 0.000000000000000e+00
					1.250000000000001e-01 -1.250000000000000e-01 0.000000000000000e+00
					2.500000000000001e-01 -1.250000000000000e-01 0.000000000000000e+00
					1.250000000000001e-01 3.469446951953614e-17 0.000000000000000e+00
					2.500000000000001e-01 3.469446951953614e-17 0.000000000000000e+00
					2.500000000000001e-01 -1.250000000000000e-01 0.000000000000000e+00
					3.750000000000001e-01 -1.250000000000000e-01 0.000000000000000e+00
					2.500000000000001e-01 3.469446951953614e-17 0.000000000000000e+00
					3.750000000000001e-01 3.469446951953614e-17 0.000000000000000e+00
					3.750000000000001e-01 -1.250000000000000e-01 0.000000000000000e+00
					5.000000000000000e-01 -1.250000000000000e-01 0.000000000000000e+00
					3.750000000000001e-01 3.469446951953614e-17 0.000000000000000e+00
					5.000000000000000e-01 3.469446951953614e-17 0.000000000000000e+00
					-5.000000000000000e-01 3.469446951953614e-17 0.000000000000000e+00
					-3.750000000000001e-01 3.469446951953614e-17 0.000000000000000e+00
					-5.000000000000000e-01 1.250000000000001e-01 0.000000000000000e+00
					-3.750000000000000e-01 1.250000000000001e-01 0.000000000000000e+00
					-3.750000000000001e-01 3.469446951953614e-17 0.000000000000000e+00
					-2.500000000000000e-01 3.469446951953614e-17 0.000000000000000e+00
					-3.750000000000000e-01 1.250000000000001e-01 0.000000000000000e+00
					-2.500000000000000e-01 1.250000000000001e-01 0.000000000000000e+00
					-2.500000000000000e-01 3.469446951953614e-17 0.000000000000000e+00
					-1.250000000000000e-01 3.469446951953614e-17 0.000000000000000e+00
					-2.500000000000000e-01 1.250000000000001e-01 0.000000000000000e+00
					-1.250000000000000e-01 1.250000000000001e-01 0.000000000000000e+00
					-1.250000000000000e-01 3.469446951953614e-17 0.000000000000000e+00
					3.469446951953615e-17 3.469446951953614e-17 0.000000000000000e+00
					-1.250000000000000e-01 1.250000000000001e-01 0.000000000000000e+00
					3.469446951953615e-17 1.250000000000001e-01 0.000000000000000e+00
					3.469446951953615e-17 3.469446951953614e-17 0.000000000000000e+00
					1.250000000000001e-01 3.469446951953614e-17 0.000000000000000e+00
					3.469446951953615e-17 1.250000000000001e-01 0.000000000000000e+00
					1.250000000000001e-01 1.250000000000001e-01 0.000000000000000e+00
					1.250000000000001e-01 3.469446951953614e-17 0.000000000000000e+00
					2.500000000000001e-01 3.469446951953614e-17 0.000000000000000e+00
					1.250000000000001e-01 1.250000000000001e-01 0.000000000000000e+00
					2.500000000000001e-01 1.250000000000001e-01 0.000000000000000e+00
					2.500000000000001e-01 3.469446951953614e-17 0.000000000000000e+00
					3.750000000000001e-01 3.469446951953614e-17 0.000000000000000e+00
					2.500000000000001e-01 1.250000000000001e-01 0.000000000000000e+00
					3.750000000000000e-01 1.250000000000001e-01 0.000000000000000e+00
					3.750000000000001e-01 3.469446951953614e-17 0.000000000000000e+00
					5.000000000000000e-01 3.469446951953614e-17 0.000000000000000e+00
					3.750000000000000e-01 1.250000000000001e-01 0.000000000000000e+00
					5.000000000000000e-01 1.250000000000001e-01 0.000000000000000e+00
					-5.000000000000000e-01 1.250000000000001e-01 0.000000000000000e+00
					-3.750000000000000e-01 1.250000000000001e-01 0.000000000000000e+00
					-5.000000000000000e-01 2.500000000000001e-01 0.000000000000000e+00
					-3.750000000000000e-01 2.500000000000001e-01 0.000000000000000e+00
					-3.750000000000000e-01 1.250000000000001e-01 0.000000000000000e+00
					-2.500000000000000e-01 1.250000000000001e-01 0.000000000000000e+00
					-3.750000000000000e-01 2.500000000000001e-01 0.000000000000000e+00
					-2.500000000000000e-01 2.500000000000001e-01 0.000000000000000e+00
					-2.500000000000000e-01 1.250000000000001e-01 0.000000000000000e+00
					-1.250000000000000e-01 1.250000000000001e-01 0.000000000000000e+00
					-2.500000000000000e-01 2.500000000000001e-01 0.000000000000000e+00
					-1.250000000000000e-01 2.500000000000001e-01 0.000000000000000e+00
					-1.250000000000000e-01 1.250000000000001e-01 0.000000000000000e+00
					3.469446951953615e-17 1.250000000000001e-01 0.000000000000000e+00
					-1.250000000000000e-01 2.500000000000001e-01 0.000000000000000e+00
					3.469446951953615e-17 2.500000000000001e-01 0.000000000000000e+00
					3.469446951953615e-17 1.250000000000001e-01 0.000000000000000e+00
					1.250000000000001e-01 1.250000000000001e-01 0.000000000000000e+00
					3.469446951953615e-17 2.500000000000001e-01 0.000000000000000e+00
					1.250000000000001e-01 2.500000000000001e-01 0.000000000000000e+00
					1.250000000000001e-01 1.250000000000001e-01 0.000000000000000e+00
					2.500000000000001e-01 1.250000000000001e-01 0.000000000000000e+00
					1.250000000000001e-01 2.500000000000001e-01 0.000000000000000e+00
					2.500000000000001e-01 2.500000000000001e-01 0.000000000000000e+00
					2.500000000000001e-01 1.250000000000001e-01 0.000000000000000e+00
					3.750000000000000e-01 1.250000000000001e-01 0.000000000000000e+00
					2.500000000000001e-01 2.500000000000001e-01 0.000000000000000e+00
					3.750000000000000e-01 2.500000000000001e-01 0.000000000000000e+00
					3.750000000000000e-01 1.250000000000001e-01 0.000000000000000e+00
					5.000000000000000e-01 1.250000000000001e-01 0.000000000000000e+00
					3.750000000000000e-01 2.500000000000001e-01 0.000000000000000e+00
					5.000000000000000e-01 2.500000000000001e-01 0.000000000000000e+00
					-5.000000000000000e-01 2.500000000000001e-01 0.000000000000000e+00
					-3.750000000000000e-01 2.500000000000001e-01 0.000000000000000e+00
					-5.000000000000000e-01 3.750000000000000e-01 0.000000000000000e+00
					-3.750000000000000e-01 3.750000000000000e-01 0.000000000000000e+00
					-3.750000000000000e-01 2.500000000000001e-01 0.000000000000000e+00
					-2.500000000000000e-01 2.500000000000001e-01 0.000000000000000e+00
					-3.750000000000000e-01 3.750000000000000e-01 0.000000000000000e+00
					-2.500000000000000e-01 3.750000000000000e-01 0.000000000000000e+00
					-2.500000000000000e-01 2.500000000000001e-01 0.000000000000000e+00
					-1.250000000000000e-01 2.500000000000001e-01 0.000000000000000e+00
					-2.500000000000000e-01 3.750000000000000e-01 0.000000000000000e+00
					-1.250000000000000e-01 3.750000000000000e-01 0.000000000000000e+00
					-1.250000000000000e-01 2.500000000000001e-01 0.000000000000000e+00
					3.469446951953615e-17 2.500000000000001e-01 0.000000000000000e+00
					-1.250000000000000e-01 3.750000000000000e-01 0.000000000000000e+00
					3.469446951953614e-17 3.750000000000000e-01 0.000000000000000e+00
					3.469446951953615e-17 2.500000000000001e-01 0.000000000000000e+00
					1.250000000000001e-01 2.500000000000001e-01 0.000000000000000e+00
					3.469446951953614e-17 3.750000000000000e-01 0.000000000000000e+00
					1.250000000000001e-01 3.750000000000000e-01 0.000000000000000e+00
					1.250000000000001e-01 2.500000000000001e-01 0.000000000000000e+00
					2.500000000000001e-01 2.500000000000001e-01 0.000000000000000e+00
					1.250000000000001e-01 3.750000000000000e-01 0.000000000000000e+00
					2.500000000000001e-01 3.750000000000000e-01 0.000000000000000e+00
					2.500000000000001e-01 2.500000000000001e-01 0.000000000000000e+00
					3.750000000000000e-01 2.500000000000001e-01 0.000000000000000e+00
					2.500000000000001e-01 3.750000000000000e-01 0.000000000000000e+00
					3.750000000000000e-01 3.750000000000000e-01 0.000000000000000e+00
					3.750000000000000e-01 2.500000000000001e-01 0.000000000000000e+00
					5.000000000000000e-01 2.500000000000001e-01 0.000000000000000e+00
					3.750000000000000e-01 3.750000000000000e-01 0.000000000000000e+00
					5.000000000000000e-01 3.750000000000000e-01 0.000000000000000e+00
					-5.000000000000000e-01 3.750000000000000e-01 0.000000000000000e+00
					-3.750000000000000e-01 3.750000000000000e-01 0.000000000000000e+00
					-5.000000000000000e-01 5.000000000000000e-01 0.000000000000000e+00
					-3.750000000000000e-01 5.000000000000000e-01 0.000000000000000e+00
					-3.750000000000000e-01 3.750000000000000e-01 0.000000000000000e+00
					-2.500000000000000e-01 3.750000000000000e-01 0.000000000000000e+00
					-3.750000000000000e-01 5.000000000000000e-01 0.000000000000000e+00
					-2.500000000000000e-01 5.000000000000000e-01 0.000000000000000e+00
					-2.500000000000000e-01 3.750000000000000e-01 0.000000000000000e+00
					-1.250000000000000e-01 3.750000000000000e-01 0.000000000000000e+00
					-2.500000000000000e-01 5.000000000000000e-01 0.000000000000000e+00
					-1.250000000000000e-01 5.000000000000000e-01 0.000000000000000e+00
					-1.250000000000000e-01 3.750000000000000e-01 0.000000000000000e+00
					3.469446951953614e-17 3.750000000000000e-01 0.000000000000000e+00
					-1.250000000000000e-01 5.000000000000000e-01 0.000000000000000e+00
					3.469446951953614e-17 5.000000000000000e-01 0.000000000000000e+00
					3.469446951953614e-17 3.750000000000000e-01 0.000000000000000e+00
					1.250000000000001e-01 3.750000000000000e-01 0.000000000000000e+00
					3.469446951953614e-17 5.000000000000000e-01 0.000000000000000e+00
					1.250000000000001e-01 5.000000000000000e-01 0.000000000000000e+00
					1.250000000000001e-01 3.750000000000000e-01 0.000000000000000e+00
					2.500000000000001e-01 3.750000000000000e-01 0.000000000000000e+00
					1.250000000000001e-01 5.000000000000000e-01 0.000000000000000e+00
					2.500000000000001e-01 5.000000000000000e-01 0.000000000000000e+00
					2.500000000000001e-01 3.750000000000000e-01 0.000000000000000e+00
					3.750000000000000e-01 3.750000000000000e-01 0.000000000000000e+00
					2.500000000000001e-01 5.000000000000000e-01 0.000000000000000e+00
					3.750000000000000e-01 5.000000000000000e-01 0.000000000000000e+00
					3.750000000000000e-01 3.750000000000000e-01 0.000000000000000e+00
					5.000000000000000e-01 3.750000000000000e-01 0.000000000000000e+00
					3.750000000000000e-01 5.000000000000000e-01 0.000000000000000e+00
					5.000000000000000e-01 5.000000000000000e-01 0.000000000000000e+00
				</DataArray>
			</Points>
			<Cells>
				<DataArray Name="connectivity" type="UInt32" format="ascii">
					0 1 3 2 4 5 7 6 8 9 11 10 12 13 15 14 16 17 19 18 20 21 23 22 24 25 27 26 28 29 31 30 32 33 35 34 36 37 39 38 40 41 43 42 44 45 47 46 48 49 51 50 52 53 55 54 56 57 59 58 60 61 63 62 64 65 67 66 68 69 71 70 72 73 75 74 76 77 79 78 80 81 83 82 84 85 87 86 88 89 91 90 92 93 95 94 96 97 99 98 100 101 103 102 104 105 107 106 108 109 111 110 112 113 115 114 116 117 119 118 120 121 123 122 124 125 127 126 128 129 131 130 132 133 135 134 136 137 139 138 140 141 143 142 144 145 147 146 148 149 151 150 152 153 155 154 156 157 159 158 160 161 163 162 164 165 167 166 168 169 171 170 172 173 175 174 176 177 179 178 180 181 183 182 184 185 187 186 188 189 191 190 192 193 195 194 196 197 199 198 200 201 203 202 204 205 207 206 208 209 211 210 212 213 215 214 216 217 219 218 220 221 223 222 224 225 227 226 228 229 231 230 232 233 235 234 236 237 239 238 240 241 243 242 244 245 247 246 248 249 251 250 252 253 255 254 
				</DataArray>
				<DataArray Name="offsets" type="UInt32" format="ascii">
					4 8 12 16 20 24 28 32 36 40 44 48 52 56 60 64 68 72 76 80 84 88 92 96 100 104 108 112 116 120 124 128 132 136 140 144 148 152 156 160 164 168 172 176 180 184 188 192 196 200 204 208 212 216 220 224 228 232 236 240 244 248 252 256 
				</DataArray>
				<DataArray Name="types" type="UInt8" format="ascii">
					9 9 9 9 9 9 9 9 9 9 9 9 9 9 9 9 9 9 9 9 9 9 9 9 9 9 9 9 9 9 9 9 9 9 9 9 9 9 9 9 9 9 9 9 9 9 9 9 9 9 9 9 9 9 9 9 9 9 9 9 9 9 9 9 
				</DataArray>
			</Cells>
			<PointData Vectors="solution ">
				<DataArray Name="solution" type="Float64" NumberOfComponents="1" format="ascii">
					1.667167240383512e+00 2.550944798969648e+00 2.878543849080924e+00 4.322751810126758e+00 2.550944798969648e+00 3.546890542789916e+00 4.322751810126758e+00 5.940005820462829e+00 3.546890542789916e+00 4.524593588754085e+00 5.940005820462829e+00 7.530574614434822e+00 4.524593588754085e+00 5.324874117365466e+00 7.530574614434822e+00 8.848373612579607e+00 5.324874117365466e+00 5.789692541500857e+00 8.848373612579607e+00 9.648830543014252e+00 5.789692541500857e+00 5.804341444151222e+00 9.648830543014252e+00 9.748403244467704e+00 5.804341444151222e+00 5.332258647372355e+00 9.748403244467704e+00 9.079683993049128e+00 5.332258647372355e+00 4.441942894803536e+00 9.079683993049128e+00 7.727281148922870e+00 2.878543849080924e+00 4.322751810126758e+00 4.526177148484371e+00 6.716409834763227e+00 4.322751810126758e+00 5.940005820462829e+00 6.716409834763227e+00 9.158605223533845e+00 5.940005820462829e+00 7.530574614434822e+00 9.158605223533845e+00 1.156290211784728e+01 7.530574614434822e+00 8.848373612579607e+00 1.156290211784728e+01 1.357151140499787e+01 8.848373612579607e+00 9.648830543014252e+00 1.357151140499787e+01 1.482703284559184e+01 9.648830543014252e+00 9.748403244467704e+00 1.482703284559184e+01 1.505609211110470e+01 9.748403244467704e+00 9.079683993049128e+00 1.505609211110470e+01 1.414848133711423e+01 9.079683993049128e+00 7.727281148922870e+00 1.414848133711423e+01 1.220765933745152e+01 4.526177148484371e+00 6.716409834763227e+00 6.538936130667810e+00 9.638591670589619e+00 6.716409834763227e+00 9.158605223533845e+00 9.638591670589619e+00 1.308716796257961e+01 9.158605223533845e+00 1.156290211784728e+01 1.308716796257961e+01 1.648417707418903e+01 1.156290211784728e+01 1.357151140499787e+01 1.648417707418903e+01 1.933582287231680e+01 1.357151140499787e+01 1.482703284559184e+01 1.933582287231680e+01 2.114719371111679e+01 1.482703284559184e+01 1.505609211110470e+01 2.114719371111679e+01 2.153561299545505e+01 1.505609211110470e+01 1.414848133711423e+01 2.153561299545505e+01 2.033856288335985e+01 1.414848133711423e+01 1.220765933745152e+01 2.033856288335985e+01 1.768344420362521e+01 6.538936130667810e+00 9.638591670589619e+00 8.717178701032388e+00 1.282573569472625e+01 9.638591670589619e+00 1.308716796257961e+01 1.282573569472625e+01 1.739382638429905e+01 1.308716796257961e+01 1.648417707418903e+01 1.739382638429905e+01 2.189473775712773e+01 1.648417707418903e+01 1.933582287231680e+01 2.189473775712773e+01 2.567923991790395e+01 1.933582287231680e+01 2.114719371111679e+01 2.567923991790395e+01 2.809581616925920e+01 2.114719371111679e+01 2.153561299545505e+01 2.809581616925920e+01 2.863882844677748e+01 2.153561299545505e+01 2.033856288335985e+01 2.863882844677748e+01 2.708989171820453e+01 2.033856288335985e+01 1.768344420362521e+01 2.708989171820453e+01 2.361021715265885e+01 8.717178701032388e+00 1.282573569472625e+01 1.073673508644631e+01 1.584137621410852e+01 1.282573569472625e+01 1.739382638429905e+01 1.584137621410852e+01 2.152291304162556e+01 1.739382638429905e+01 2.189473775712773e+01 2.152291304162556e+01 2.712106987391342e+01 2.189473775712773e+01 2.567923991790395e+01 2.712106987391342e+01 3.182155408510024e+01 2.567923991790395e+01 2.809581616925920e+01 3.182155408510024e+01 3.480811032207777e+01 2.809581616925920e+01 2.863882844677748e+01 3.480811032207777e+01 3.544952713167707e+01 2.863882844677748e+01 2.708989171820453e+01 3.544952713167707e+01 3.347782967960330e+01 2.708989171820453e+01 2.361021715265885e+01 3.347782967960330e+01 2.910418655936964e+01 1.073673508644631e+01 1.584137621410852e+01 1.218996213430894e+01 1.812756890661262e+01 1.584137621410852e+01 2.152291304162556e+01 1.812756890661262e+01 2.475528419404973e+01 2.152291304162556e+01 2.712106987391342e+01 2.475528419404973e+01 3.128472459177697e+01 2.712106987391342e+01 3.182155408510024e+01 3.128472459177697e+01 3.674251916868322e+01 3.182155408510024e+01 3.480811032207777e+01 3.674251916868322e+01 4.015637698802878e+01 3.480811032207777e+01 3.544952713167707e+01 4.015637698802878e+01 4.078279214578179e+01 3.544952713167707e+01 3.347782967960330e+01 4.078279214578179e+01 3.832335179652371e+01 3.347782967960330e+01 2.910418655936964e+01 3.832335179652371e+01 3.306147977999825e+01 1.218996213430894e+01 1.812756890661262e+01 1.268147339616002e+01 1.912287348309638e+01 1.812756890661262e+01 2.475528419404973e+01 1.912287348309638e+01 2.634979416526903e+01 2.475528419404973e+01 3.128472459177697e+01 2.634979416526903e+01 3.346789069623815e+01 3.128472459177697e+01 3.674251916868322e+01 3.346789069623815e+01 3.937131798530649e+01 3.674251916868322e+01 4.015637698802878e+01 3.937131798530649e+01 4.296219881716045e+01 4.015637698802878e+01 4.078279214578179e+01 4.296219881716045e+01 4.341690480065562e+01 4.078279214578179e+01 3.832335179652371e+01 4.341690480065562e+01 4.043895755454498e+01 3.832335179652371e+01 3.306147977999825e+01 4.043895755454498e+01 3.441087274191061e+01 1.268147339616002e+01 1.912287348309638e+01 1.196312872645616e+01 1.843258827386208e+01 1.912287348309638e+01 2.634979416526903e+01 1.843258827386208e+01 2.575189581374371e+01 2.634979416526903e+01 3.346789069623815e+01 2.575189581374371e+01 3.296176038633476e+01 3.346789069623815e+01 3.937131798530649e+01 3.296176038633476e+01 3.887289605636155e+01 3.937131798530649e+01 4.296219881716045e+01 3.887289605636155e+01 4.231505293385743e+01 4.296219881716045e+01 4.341690480065562e+01 4.231505293385743e+01 4.243678405493912e+01 4.341690480065562e+01 4.043895755454498e+01 4.243678405493912e+01 3.898703440381391e+01 4.043895755454498e+01 3.441087274191061e+01 3.898703440381391e+01 3.247227893415337e+01 
				</DataArray>
			</PointData>
			<CellData>
			</CellData>
		</Piece>
	</UnstructuredGrid>
</VTKFile>