<?xml version="1.0"?>
<VTKFile type="UnstructuredGrid" byte_order="LittleEndian">
	<UnstructuredGrid>
		<Piece NumberOfPoints="256" NumberOfCells="64">
			<Points>
				<DataArray type="Float64" NumberOfComponents="3" format="ascii">
					-1.000000000000000e+00 -1.000000000000000e+00 0.000000000000000e+00
					-9.135224194504830e-01 -9.135224194504830e-01 0.000000000000000e+00
					-1.218750000000000e+00 -7.500000000000000e-01 0.000000000000000e+00
					-1.081002888200483e+00 -6.851418145878623e-01 0.000000000000000e+00
					-9.135224194504830e-01 -9.135224194504830e-01 0.000000000000000e+00
					-8.338955762008280e-01 -8.338955762008280e-01 0.000000000000000e+00
					-1.081002888200483e+00 -6.851418145878623e-01 0.000000000000000e+00
					-9.569424512008280e-01 -6.254216821506210e-01 0.000000000000000e+00
					-8.338955762008280e-01 -8.338955762008280e-01 0.000000000000000e+00
					-7.611194702510350e-01 -7.611194702510350e-01 0.000000000000000e+00
					-9.569424512008280e-01 -6.254216821506210e-01 0.000000000000000e+00
					-8.465686890010351e-01 -5.708396026882763e-01 0.000000000000000e+00
					-7.611194702510350e-01 -7.611194702510350e-01 0.000000000000000e+00
					-6.951941016011041e-01 -6.951941016011041e-01 0.000000000000000e+00
					-8.465686890010351e-01 -5.708396026882763e-01 0.000000000000000e+00
					-7.498816016011042e-01 -5.213955762008280e-01 0.000000000000000e+00
					-6.951941016011041e-01 -6.951941016011041e-01 0.000000000000000e+00
					-6.361194702510350e-01 -6.361194702510350e-01 0.000000000000000e+00
					-7.498816016011042e-01 -5.213955762008280e-01 0.000000000000000e+00
					-6.668811890010351e-01 -4.770896026882763e-01 0.000000000000000e+00
					-6.361194702510350e-01 -6.361194702510350e-01 0.000000000000000e+00
					-5.838955762008280e-01 -5.838955762008280e-01 0.000000000000000e+00
					-6.668811890010351e-01 -4.770896026882763e-01 0.000000000000000e+00
					-5.975674512008280e-01 -4.379216821506210e-01 0.000000000000000e+00
					-5.838955762008280e-01 -5.838955762008280e-01 0.000000000000000e+00
					-5.385224194504830e-01 -5.385224194504830e-01 0.000000000000000e+00
					-5.975674512008280e-01 -4.379216821506210e-01 0.000000000000000e+00
					-5.419403882004830e-01 -4.038918145878622e-01 0.000000000000000e+00
					-5.385224194504830e-01 -5.385224194504830e-01 0.000000000000000e+00
					-5.000000000000000e-01 -5.000000000000000e-01 0.000000000000000e+00
					-5.419403882004830e-01 -4.038918145878622e-01 0.000000000000000e+00
					-5.000000000000000e-01 -3.750000000000000e-01 0.000000000000000e+00
					-1.218750000000000e+00 -7.500000000000000e-01 0.000000000000000e+00
					-1.081002888200483e+00 -6.851418145878623e-01 0.000000000000000e+00
					-1.375000000000000e+00 -5.000000000000000e-01 0.000000000000000e+00
					-1.200631794450483e+00 -4.567612097252415e-01 0.000000000000000e+00
					-1.081002888200483e+00 -6.851418145878623e-01 0.000000000000000e+00
					-9.569424512008280e-01 -6.254216821506210e-01 0.000000000000000e+00
					-1.200631794450483e+00 -4.567612097252415e-01 0.000000000000000e+00
					-1.044833076200828e+00 -4.169477881004140e-01 0.000000000000000e+00
					-9.569424512008280e-01 -6.254216821506210e-01 0.000000000000000e+00
					-8.465686890010351e-01 -5.708396026882763e-01 0.000000000000000e+00
					-1.044833076200828e+00 -4.169477881004140e-01 0.000000000000000e+00
					-9.076038452510351e-01 -3.805597351255176e-01 0.000000000000000e+00
					-8.465686890010351e-01 -5.708396026882763e-01 0.000000000000000e+00
					-7.498816016011042e-01 -5.213955762008280e-01 0.000000000000000e+00
					-9.076038452510351e-01 -3.805597351255176e-01 0.000000000000000e+00
					-7.889441016011043e-01 -3.475970508005520e-01 0.000000000000000e+00
					-7.498816016011042e-01 -5.213955762008280e-01 0.000000000000000e+00
					-6.668811890010351e-01 -4.770896026882763e-01 0.000000000000000e+00
					-7.889441016011043e-01 -3.475970508005520e-01 0.000000000000000e+00
					-6.888538452510351e-01 -3.180597351255176e-01 0.000000000000000e+00
					-6.668811890010351e-01 -4.770896026882763e-01 0.000000000000000e+00
					-5.975674512008280e-01 -4.379216821506210e-01 0.000000000000000e+00
					-6.888538452510351e-01 -3.180597351255176e-01 0.000000000000000e+00
					-6.073330762008280e-01 -2.919477881004140e-01 0.000000000000000e+00
					-5.975674512008280e-01 -4.379216821506210e-01 0.000000000000000e+00
					-5.419403882004830e-01 -4.038918145878622e-01 0.000000000000000e+00
					-6.073330762008280e-01 -2.919477881004140e-01 0.000000000000000e+00
					-5.443817944504830e-01 -2.692612097252415e-01 0.000000000000000e+00
					-5.419403882004830e-01 -4.038918145878622e-01 0.000000000000000e+00
					-5.000000000000000e-01 -3.750000000000000e-01 0.000000000000000e+00
					-5.443817944504830e-01 -2.692612097252415e-01 0.000000000000000e+00
					-5.000000000000000e-01 -2.500000000000000e-01 0.000000000000000e+00
					-1.375000000000000e+00 -5.000000000000000e-01 0.000000000000000e+00
					-1.200631794450483e+00 -4.567612097252415e-01 0.000000000000000e+00
					-1.468750000000000e+00 -2.499999999999999e-01 0.000000000000000e+00
					-1.272409138200483e+00 -2.283806048626207e-01 0.000000000000000e+00
					-1.200631794450483e+00 -4.567612097252415e-01 0.000000000000000e+00
					-1.044833076200828e+00 -4.169477881004140e-01 0.000000000000000e+00
					-1.272409138200483e+00 -2.283806048626207e-01 0.000000000000000e+00
					-1.097567451200828e+00 -2.084738940502069e-01 0.000000000000000e+00
					-1.044833076200828e+00 -4.169477881004140e-01 0.000000000000000e+00
					-9.076038452510351e-01 -3.805597351255176e-01 0.000000000000000e+00
					-1.097567451200828e+00 -2.084738940502069e-01 0.000000000000000e+00
					-9.442249390010350e-01 -1.902798675627587e-01 0.000000000000000e+00
					-9.076038452510351e-01 -3.805597351255176e-01 0.000000000000000e+00
					-7.889441016011043e-01 -3.475970508005520e-01 0.000000000000000e+00
					-9.442249390010350e-01 -1.902798675627587e-01 0.000000000000000e+00
					-8.123816016011043e-01 -1.737985254002760e-01 0.000000000000000e+00
					-7.889441016011043e-01 -3.475970508005520e-01 0.000000000000000e+00
					-6.888538452510351e-01 -3.180597351255176e-01 0.000000000000000e+00
					-8.123816016011043e-01 -1.737985254002760e-01 0.000000000000000e+00
					-7.020374390010350e-01 -1.590298675627587e-01 0.000000000000000e+00
					-6.888538452510351e-01 -3.180597351255176e-01 0.000000000000000e+00
					-6.073330762008280e-01 -2.919477881004140e-01 0.000000000000000e+00
					-7.020374390010350e-01 -1.590298675627587e-01 0.000000000000000e+00
					-6.131924512008280e-01 -1.459738940502070e-01 0.000000000000000e+00
					-6.073330762008280e-01 -2.919477881004140e-01 0.000000000000000e+00
					-5.443817944504830e-01 -2.692612097252415e-01 0.000000000000000e+00
					-6.131924512008280e-01 -1.459738940502070e-01 0.000000000000000e+00
					-5.458466382004830e-01 -1.346306048626207e-01 0.000000000000000e+00
					-5.443817944504830e-01 -2.692612097252415e-01 0.000000000000000e+00
					-5.000000000000000e-01 -2.500000000000000e-01 0.000000000000000e+00
					-5.458466382004830e-01 -1.346306048626207e-01 0.000000000000000e+00
					-5.000000000000000e-01 -1.250000000000000e-01 0.000000000000000e+00
					-1.468750000000000e+00 -2.499999999999999e-01 0.000000000000000e+00
					-1.272409138200483e+00 -2.283806048626207e-01 0.000000000000000e+00
					-1.500000000000000e+00 6.938893903907228e-17 0.000000000000000e+00
					-1.296334919450483e+00 1.249000902703301e-16 0.000000000000000e+00
					-1.272409138200483e+00 -2.283806048626207e-01 0.000000000000000e+00
					-1.097567451200828e+00 -2.084738940502069e-01 0.000000000000000e+00
					-1.296334919450483e+00 1.249000902703301e-16 0.000000000000000e+00
					-1.115145576200828e+00 5.551115123125783e-17 0.000000000000000e+00
					-1.097567451200828e+00 -2.084738940502069e-01 0.000000000000000e+00
					-9.442249390010350e-01 -1.902798675627587e-01 0.000000000000000e+00
					-1.115145576200828e+00 5.551115123125783e-17 0.000000000000000e+00
					-9.564319702510350e-01 5.551115123125783e-17 0.000000000000000e+00
					-9.442249390010350e-01 -1.902798675627587e-01 0.000000000000000e+00
					-8.123816016011043e-01 -1.737985254002760e-01 0.000000000000000e+00
					-9.564319702510350e-01 5.551115123125783e-17 0.000000000000000e+00
					-8.201941016011043e-01 1.387778780781446e-17 0.000000000000000e+00
					-8.123816016011043e-01 -1.737985254002760e-01 0.000000000000000e+00
					-7.020374390010350e-01 -1.590298675627587e-01 0.000000000000000e+00
					-8.201941016011043e-01 1.387778780781446e-17 0.000000000000000e+00
					-7.064319702510352e-01 4.163336342344337e-17 0.000000000000000e+00
					-7.020374390010350e-01 -1.590298675627587e-01 0.000000000000000e+00
					-6.131924512008280e-01 -1.459738940502070e-01 0.000000000000000e+00
					-7.064319702510352e-01 4.163336342344337e-17 0.000000000000000e+00
					-6.151455762008280e-01 4.857225732735060e-17 0.000000000000000e+00
					-6.131924512008280e-01 -1.459738940502070e-01 0.000000000000000e+00
					-5.458466382004830e-01 -1.346306048626207e-01 0.000000000000000e+00
					-6.151455762008280e-01 4.857225732735060e-17 0.000000000000000e+00
					-5.463349194504830e-01 3.469446951953614e-17 0.000000000000000e+00
					-5.458466382004830e-01 -1.346306048626207e-01 0.000000000000000e+00
					-5.000000000000000e-01 -1.250000000000000e-01 0.000000000000000e+00
					-5.463349194504830e-01 3.469446951953614e-17 0.000000000000000e+00
					-5.000000000000000e-01 3.469446951953614e-17 0.000000000000000e+00
					-1.500000000000000e+00 6.938893903907228e-17 0.000000000000000e+00
					-1.296334919450483e+00 1.249000902703301e-16 0.000000000000000e+00
					-1.468750000000000e+00 2.500000000000001e-01 0.000000000000000e+00
					-1.272409138200483e+00 2.283806048626209e-01 0.000000000000000e+00
					-1.296334919450483e+00 1.249000902703301e-16 0.000000000000000e+00
					-1.115145576200828e+00 5.551115123125783e-17 0.000000000000000e+00
					-1.272409138200483e+00 2.283806048626209e-01 0.000000000000000e+00
					-1.097567451200828e+00 2.084738940502071e-01 0.000000000000000e+00
					-1.115145576200828e+00 5.551115123125783e-17 0.000000000000000e+00
					-9.564319702510350e-01 5.551115123125783e-17 0.000000000000000e+00
					-1.097567451200828e+00 2.084738940502071e-01 0.000000000000000e+00
					-9.442249390010350e-01 1.902798675627588e-01 0.000000000000000e+00
					-9.564319702510350e-01 5.551115123125783e-17 0.000000000000000e+00
					-8.201941016011043e-01 1.387778780781446e-17 0.000000000000000e+00
					-9.442249390010350e-01 1.902798675627588e-01 0.000000000000000e+00
					-8.123816016011041e-01 1.737985254002760e-01 0.000000000000000e+00
					-8.201941016011043e-01 1.387778780781446e-17 0.000000000000000e+00
					-7.064319702510352e-01 4.163336342344337e-17 0.000000000000000e+00
					-8.123816016011041e-01 1.737985254002760e-01 0.000000000000000e+00
					-7.020374390010352e-01 1.590298675627588e-01 0.000000000000000e+00
					-7.064319702510352e-01 4.163336342344337e-17 0.000000000000000e+00
					-6.151455762008280e-01 4.857225732735060e-17 0.000000000000000e+00
					-7.020374390010352e-01 1.590298675627588e-01 0.000000000000000e+00
					-6.131924512008280e-01 1.459738940502071e-01 0.000000000000000e+00
					-6.151455762008280e-01 4.857225732735060e-17 0.000000000000000e+00
					-5.463349194504830e-01 3.469446951953614e-17 0.000000000000000e+00
					-6.131924512008280e-01 1.459738940502071e-01 0.000000000000000e+00
					-5.458466382004830e-01 1.346306048626208e-01 0.000000000000000e+00
					-5.463349194504830e-01 3.469446951953614e-17 0.000000000000000e+00
					-5.000000000000000e-01 3.469446951953614e-17 0.000000000000000e+00
					-5.458466382004830e-01 1.346306048626208e-01 0.000000000000000e+00
					-5.000000000000000e-01 1.250000000000001e-01 0.000000000000000e+00
					-1.468750000000000e+00 2.500000000000001e-01 0.000000000000000e+00
					-1.272409138200483e+00 2.283806048626209e-01 0.000000000000000e+00
					-1.375000000000000e+00 5.000000000000001e-01 0.000000000000000e+00
					-1.200631794450483e+00 4.567612097252416e-01 0.000000000000000e+00
					-1.272409138200483e+00 2.283806048626209e-01 0.000000000000000e+00
					-1.097567451200828e+00 2.084738940502071e-01 0.000000000000000e+00
					-1.200631794450483e+00 4.567612097252416e-01 0.000000000000000e+00
					-1.044833076200828e+00 4.169477881004141e-01 0.000000000000000e+00
					-1.097567451200828e+00 2.084738940502071e-01 0.000000000000000e+00
					-9.442249390010350e-01 1.902798675627588e-01 0.000000000000000e+00
					-1.044833076200828e+00 4.169477881004141e-01 0.000000000000000e+00
					-9.076038452510350e-01 3.805597351255176e-01 0.000000000000000e+00
					-9.442249390010350e-01 1.902798675627588e-01 0.000000000000000e+00
					-8.123816016011041e-01 1.737985254002760e-01 0.000000000000000e+00
					-9.076038452510350e-01 3.805597351255176e-01 0.000000000000000e+00
					-7.889441016011041e-01 3.475970508005520e-01 0.000000000000000e+00
					-8.123816016011041e-01 1.737985254002760e-01 0.000000000000000e+00
					-7.020374390010352e-01 1.590298675627588e-01 0.000000000000000e+00
					-7.889441016011041e-01 3.475970508005520e-01 0.000000000000000e+00
					-6.888538452510351e-01 3.180597351255176e-01 0.000000000000000e+00
					-7.020374390010352e-01 1.590298675627588e-01 0.000000000000000e+00
					-6.131924512008280e-01 1.459738940502071e-01 0.000000000000000e+00
					-6.888538452510351e-01 3.180597351255176e-01 0.000000000000000e+00
					-6.073330762008280e-01 2.919477881004141e-01 0.000000000000000e+00
					-6.131924512008280e-01 1.459738940502071e-01 0.000000000000000e+00
					-5.458466382004830e-01 1.346306048626208e-01 0.000000000000000e+00
					-6.073330762008280e-01 2.919477881004141e-01 0.000000000000000e+00
					-5.443817944504830e-01 2.692612097252415e-01 0.000000000000000e+00
					-5.458466382004830e-01 1.346306048626208e-01 0.000000000000000e+00
					-5.000000000000000e-01 1.250000000000001e-01 0.000000000000000e+00
					-5.443817944504830e-01 2.692612097252415e-01 0.000000000000000e+00
					-5.000000000000000e-01 2.500000000000001e-01 0.000000000000000e+00
					-1.375000000000000e+00 5.000000000000001e-01 0.000000000000000e+00
					-1.200631794450483e+00 4.567612097252416e-01 0.000000000000000e+00
					-1.218750000000000e+00 7.500000000000000e-01 0.000000000000000e+00
					-1.081002888200483e+00 6.851418145878623e-01 0.000000000000000e+00
					-1.200631794450483e+00 4.567612097252416e-01 0.000000000000000e+00
					-1.044833076200828e+00 4.169477881004141e-01 0.000000000000000e+00
					-1.081002888200483e+00 6.851418145878623e-01 0.000000000000000e+00
					-9.569424512008280e-01 6.254216821506210e-01 0.000000000000000e+00
					-1.044833076200828e+00 4.169477881004141e-01 0.000000000000000e+00
					-9.076038452510350e-01 3.805597351255176e-01 0.000000000000000e+00
					-9.569424512008280e-01 6.254216821506210e-01 0.000000000000000e+00
					-8.465686890010349e-01 5.708396026882763e-01 0.000000000000000e+00
					-9.076038452510350e-01 3.805597351255176e-01 0.000000000000000e+00
					-7.889441016011041e-01 3.475970508005520e-01 0.000000000000000e+00
					-8.465686890010349e-01 5.708396026882763e-01 0.000000000000000e+00
					-7.498816016011041e-01 5.213955762008280e-01 0.000000000000000e+00
					-7.889441016011041e-01 3.475970508005520e-01 0.000000000000000e+00
					-6.888538452510351e-01 3.180597351255176e-01 0.000000000000000e+00
					-7.498816016011041e-01 5.213955762008280e-01 0.000000000000000e+00
					-6.668811890010349e-01 4.770896026882762e-01 0.000000000000000e+00
					-6.888538452510351e-01 3.180597351255176e-01 0.000000000000000e+00
					-6.073330762008280e-01 2.919477881004141e-01 0.000000000000000e+00
					-6.668811890010349e-01 4.770896026882762e-01 0.000000000000000e+00
					-5.975674512008280e-01 4.379216821506210e-01 0.000000000000000e+00
					-6.073330762008280e-01 2.919477881004141e-01 0.000000000000000e+00
					-5.443817944504830e-01 2.692612097252415e-01 0.000000000000000e+00
					-5.975674512008280e-01 4.379216821506210e-01 0.000000000000000e+00
					-5.419403882004830e-01 4.038918145878622e-01 0.000000000000000e+00
					-5.443817944504830e-01 2.692612097252415e-01 0.000000000000000e+00
					-5.000000000000000e-01 2.500000000000001e-01 0.000000000000000e+00
					-5.419403882004830e-01 4.038918145878622e-01 0.000000000000000e+00
					-5.000000000000000e-01 3.750000000000000e-01 0.000000000000000e+00
					-1.218750000000000e+00 7.500000000000000e-01 0.000000000000000e+00
					-1.081002888200483e+00 6.851418145878623e-01 0.000000000000000e+00
					-1.000000000000000e+00 1.000000000000000e+00 0.000000000000000e+00
					-9.135224194504830e-01 9.135224194504830e-01 0.000000000000000e+00
					-1.081002888200483e+00 6.851418145878623e-01 0.000000000000000e+00
					-9.569424512008280e-01 6.254216821506210e-01 0.000000000000000e+00
					-9.135224194504830e-01 9.135224194504830e-01 0.000000000000000e+00
					-8.338955762008280e-01 8.338955762008280e-01 0.000000000000000e+00
					-9.569424512008280e-01 6.254216821506210e-01 0.000000000000000e+00
					-8.465686890010349e-01 5.708396026882763e-01 0.000000000000000e+00
					-8.338955762008280e-01 8.338955762008280e-01 0.000000000000000e+00
					-7.611194702510350e-01 7.611194702510350e-01 0.000000000000000e+00
					-8.465686890010349e-01 5.708396026882763e-01 0.000000000000000e+00
					-7.498816016011041e-01 5.213955762008280e-01 0.000000000000000e+00
					-7.611194702510350e-01 7.611194702510350e-01 0.000000000000000e+00
					-6.951941016011041e-01 6.951941016011041e-01 0.000000000000000e+00
					-7.498816016011041e-01 5.213955762008280e-01 0.000000000000000e+00
					-6.668811890010349e-01 4.770896026882762e-01 0.000000000000000e+00
					-6.951941016011041e-01 6.951941016011041e-01 0.000000000000000e+00
					-6.361194702510350e-01 6.361194702510350e-01 0.000000000000000e+00
					-6.668811890010349e-01 4.770896026882762e-01 0.000000000000000e+00
					-5.975674512008280e-01 4.379216821506210e-01 0.000000000000000e+00
					-6.361194702510350e-01 6.361194702510350e-01 0.000000000000000e+00
					-5.838955762008280e-01 5.838955762008280e-01 0.000000000000000e+00
					-5.975674512008280e-01 4.379216821506210e-01 0.000000000000000e+00
					-5.419403882004830e-01 4.038918145878622e-01 0.000000000000000e+00
					-5.838955762008280e-01 5.838955762008280e-01 0.000000000000000e+00
					-5.385224194504830e-01 5.385224194504830e-01 0.000000000000000e+00
					-5.419403882004830e-01 4.038918145878622e-01 0.000000000000000e+00
					-5.000000000000000e-01 3.750000000000000e-01 0.000000000000000e+00
					-5.385224194504830e-01 5.385224194504830e-01 0.000000000000000e+00
					-5.000000000000000e-01 5.000000000000000e-01 0.000000000000000e+00
				</DataArray>
			</Points>
			<Cells>
				<DataArray Name="connectivity" type="UInt32" format="ascii">
					0 1 3 2 4 5 7 6 8 9 11 10 12 13 15 14 16 17 19 18 20 21 23 22 24 25 27 26 28 29 31 30 32 33 35 34 36 37 39 38 40 41 43 42 44 45 47 46 48 49 51 50 52 53 55 54 56 57 59 58 60 61 63 62 64 65 67 66 68 69 71 70 72 73 75 74 76 77 79 78 80 81 83 82 84 85 87 86 88 89 91 90 92 93 95 94 96 97 99 98 100 101 103 102 104 105 107 106 108 109 111 110 112 113 115 114 116 117 119 118 120 121 123 122 124 125 127 126 128 129 131 130 132 133 135 134 136 137 139 138 140 141 143 142 144 145 147 146 148 149 151 150 152 153 155 154 156 157 159 158 160 161 163 162 164 165 167 166 168 169 171 170 172 173 175 174 176 177 179 178 180 181 183 182 184 185 187 186 188 189 191 190 192 193 195 194 196 197 199 198 200 201 203 202 204 205 207 206 208 209 211 210 212 213 215 214 216 217 219 218 220 221 223 222 224 225 227 226 228 229 231 230 232 233 235 234 236 237 239 238 240 241 243 242 244 245 247 246 248 249 251 250 252 253 255 254 
				</DataArray>
				<DataArray Name="offsets" type="UInt32" format="ascii">
					4 8 12 16 20 24 28 32 36 40 44 48 52 56 60 64 68 72 76 80 84 88 92 96 100 104 108 112 116 120 124 128 132 136 140 144 148 152 156 160 164 168 172 176 180 184 188 192 196 200 204 208 212 216 220 224 228 232 236 240 244 248 252 256 
				</DataArray>
				<DataArray Name="types" type="UInt8" format="ascii">
					9 9 9 9 9 9 9 9 9 9 9 9 9 9 9 9 9 9 9 9 9 9 9 9 9 9 9 9 9 9 9 9 9 9 9 9 9 9 9 9 9 9 9 9 9 9 9 9 9 9 9 9 9 9 9 9 9 9 9 9 9 9 9 9 
				</DataArray>
			</Cells>
			<PointData Vectors="solution ">
				<DataArray Name="solution" type="Float64" NumberOfComponents="1" format="ascii">
					0.000000000000000e+00 8.380406151892522e-04 0.000000000000000e+00 2.194768504446619e-03 8.380406151892522e-04 1.310825317184387e-02 2.194768504446619e-03 3.277887715960304e-02 1.310825317184387e-02 6.271534522790954e-02 3.277887715960304e-02 1.501135007546524e-01 6.271534522790954e-02 1.819946042798253e-01 1.501135007546524e-01 4.135082275323716e-01 1.819946042798253e-01 3.973002598421558e-01 4.135082275323716e-01 8.507746262278901e-01 3.973002598421558e-01 7.188031248237519e-01 8.507746262278901e-01 1.443169374234818e+00 7.188031248237519e-01 1.135574665452487e+00 1.443169374234818e+00 2.129772053649026e+00 1.135574665452487e+00 1.616565021452677e+00 2.129772053649026e+00 2.823938942791918e+00 0.000000000000000e+00 2.194768504446619e-03 0.000000000000000e+00 4.918781593718762e-03 2.194768504446619e-03 3.277887715960304e-02 4.918781593718762e-03 6.790831226934839e-02 3.277887715960304e-02 1.501135007546524e-01 6.790831226934839e-02 3.001249150421864e-01 1.501135007546524e-01 4.135082275323716e-01 3.001249150421864e-01 7.960749161390146e-01 4.135082275323716e-01 8.507746262278901e-01 7.960749161390146e-01 1.567811345208266e+00 8.507746262278901e-01 1.443169374234818e+00 1.567811345208266e+00 2.534317815965049e+00 1.443169374234818e+00 2.129772053649026e+00 2.534317815965049e+00 3.554522063785986e+00 2.129772053649026e+00 2.823938942791918e+00 3.554522063785986e+00 4.472211012310269e+00 0.000000000000000e+00 4.918781593718762e-03 0.000000000000000e+00 9.798130382166582e-03 4.918781593718762e-03 6.790831226934839e-02 9.798130382166582e-03 1.229075118482378e-01 6.790831226934839e-02 3.001249150421864e-01 1.229075118482378e-01 5.229614317709027e-01 3.001249150421864e-01 7.960749161390146e-01 5.229614317709027e-01 1.341063688724252e+00 7.960749161390146e-01 1.567811345208266e+00 1.341063688724252e+00 2.548113984400474e+00 1.567811345208266e+00 2.534317815965049e+00 2.548113984400474e+00 3.967011091898003e+00 2.534317815965049e+00 3.554522063785986e+00 3.967011091898003e+00 5.355827031147083e+00 3.554522063785986e+00 4.472211012310269e+00 5.355827031147083e+00 6.488295275540886e+00 0.000000000000000e+00 9.798130382166582e-03 0.000000000000000e+00 1.681139449733049e-02 9.798130382166582e-03 1.229075118482378e-01 1.681139449733049e-02 1.975642426305964e-01 1.229075118482378e-01 5.229614317709027e-01 1.975642426305964e-01 8.095542601447135e-01 5.229614317709027e-01 1.341063688724252e+00 8.095542601447135e-01 2.008575816597022e+00 1.341063688724252e+00 2.548113984400474e+00 2.008575816597022e+00 3.698730680855249e+00 2.548113984400474e+00 3.967011091898003e+00 3.698730680855249e+00 5.590016677331921e+00 3.967011091898003e+00 5.355827031147083e+00 5.590016677331921e+00 7.341535128653335e+00 5.355827031147083e+00 6.488295275540886e+00 7.341535128653335e+00 8.672097334440437e+00 0.000000000000000e+00 1.681139449733049e-02 0.000000000000000e+00 2.442887070869713e-02 1.681139449733049e-02 1.975642426305964e-01 2.442887070869713e-02 2.829643512585703e-01 1.975642426305964e-01 8.095542601447135e-01 2.829643512585703e-01 1.119485947307800e+00 8.095542601447135e-01 2.008575816597022e+00 1.119485947307800e+00 2.687624750767670e+00 2.008575816597022e+00 3.698730680855249e+00 2.687624750767670e+00 4.813740025289301e+00 3.698730680855249e+00 5.590016677331921e+00 4.813740025289301e+00 7.112898009773888e+00 5.590016677331921e+00 7.341535128653335e+00 7.112898009773888e+00 9.177072493280978e+00 7.341535128653335e+00 8.672097334440437e+00 9.177072493280978e+00 1.069738972098991e+01 0.000000000000000e+00 2.442887070869713e-02 0.000000000000000e+00 3.057768337542736e-02 2.442887070869713e-02 2.829643512585703e-01 3.057768337542736e-02 3.599442031033029e-01 2.829643512585703e-01 1.119485947307800e+00 3.599442031033029e-01 1.375312962557651e+00 1.119485947307800e+00 2.687624750767670e+00 1.375312962557651e+00 3.197367864930628e+00 2.687624750767670e+00 4.813740025289301e+00 3.197367864930628e+00 5.595272409751137e+00 4.813740025289301e+00 7.112898009773888e+00 5.595272409751137e+00 8.147557402539563e+00 7.112898009773888e+00 9.177072493280978e+00 8.147557402539563e+00 1.043606640984885e+01 9.177072493280978e+00 1.069738972098991e+01 1.043606640984885e+01 1.215674269563288e+01 0.000000000000000e+00 3.057768337542736e-02 0.000000000000000e+00 3.402872759958075e-02 3.057768337542736e-02 3.599442031033029e-01 3.402872759958075e-02 4.000205265220261e-01 3.599442031033029e-01 1.375312962557651e+00 4.000205265220261e-01 1.472563833209191e+00 1.375312962557651e+00 3.197367864930628e+00 1.472563833209191e+00 3.328459158988247e+00 3.197367864930628e+00 5.595272409751137e+00 3.328459158988247e+00 5.735951884111513e+00 5.595272409751137e+00 8.147557402539563e+00 5.735951884111513e+00 8.318909200337487e+00 8.147557402539563e+00 1.043606640984885e+01 8.318909200337487e+00 1.071435504789240e+01 1.043606640984885e+01 1.215674269563288e+01 1.071435504789240e+01 1.265603055055774e+01 0.000000000000000e+00 3.402872759958075e-02 0.000000000000000e+00 3.259042544781323e-02 3.402872759958075e-02 4.000205265220261e-01 3.259042544781323e-02 3.684187601058350e-01 4.000205265220261e-01 1.472563833209191e+00 3.684187601058350e-01 1.317013423469735e+00 1.472563833209191e+00 3.328459158988247e+00 1.317013423469735e+00 2.935881801357747e+00 3.328459158988247e+00 5.735951884111513e+00 2.935881801357747e+00 5.060257414933628e+00 5.735951884111513e+00 8.318909200337487e+00 5.060257414933628e+00 7.429202818592799e+00 8.318909200337487e+00 1.071435504789240e+01 7.429202818592799e+00 9.788733767124095e+00 1.071435504789240e+01 1.265603055055774e+01 9.788733767124095e+00 1.194497341163057e+01 
				</DataArray>
			</PointData>
			<CellData>
			</CellData>
		</Piece>
	</UnstructuredGrid>
</VTKFile>