<?xml version="1.0"?>
<VTKFile type="UnstructuredGrid" byte_order="LittleEndian">
	<UnstructuredGrid>
		<Piece NumberOfPoints="64" NumberOfCells="16">
			<Points>
				<DataArray type="Float64" NumberOfComponents="3" format="ascii">
					-1.000000000000000e+00 -1.000000000000000e+00 0.000000000000000e+00
					-5.000000000000000e-01 -1.375000000000000e+00 0.000000000000000e+00
					-8.338955762008279e-01 -8.338955762008279e-01 0.000000000000000e+00
					-4.169477881004139e-01 -1.044833076200828e+00 0.000000000000000e+00
					-5.000000000000000e-01 -1.375000000000000e+00 0.000000000000000e+00
					5.551115123125783e-17 -1.500000000000000e+00 0.000000000000000e+00
					-4.169477881004139e-01 -1.044833076200828e+00 0.000000000000000e+00
					4.857225732735060e-17 -1.115145576200828e+00 0.000000000000000e+00
					5.551115123125783e-17 -1.500000000000000e+00 0.000000000000000e+00
					5.000000000000000e-01 -1.375000000000000e+00 0.000000000000000e+00
					4.857225732735060e-17 -1.115145576200828e+00 0.000000000000000e+00
					4.169477881004139e-01 -1.044833076200828e+00 0.000000000000000e+00
					5.000000000000000e-01 -1.375000000000000e+00 0.000000000000000e+00
					1.000000000000000e+00 -1.000000000000000e+00 0.000000000000000e+00
					4.169477881004139e-01 -1.044833076200828e+00 0.000000000000000e+00
					8.338955762008279e-01 -8.338955762008279e-01 0.000000000000000e+00
					-8.338955762008279e-01 -8.338955762008279e-01 0.000000000000000e+00
					-4.169477881004139e-01 -1.044833076200828e+00 0.000000000000000e+00
					-6.951941016011038e-01 -6.951941016011038e-01 0.000000000000000e+00
					-3.475970508005519e-01 -7.889441016011038e-01 0.000000000000000e+00
					-4.169477881004139e-01 -1.044833076200828e+00 0.000000000000000e+00
					4.857225732735060e-17 -1.115145576200828e+00 0.000000000000000e+00
					-3.475970508005519e-01 -7.889441016011038e-01 0.000000000000000e+00
					4.163336342344337e-17 -8.201941016011038e-01 0.000000000000000e+00
					4.857225732735060e-17 -1.115145576200828e+00 0.000000000000000e+00
					4.169477881004139e-01 -1.044833076200828e+00 0.000000000000000e+00
					4.163336342344337e-17 -8.201941016011038e-01 0.000000000000000e+00
					3.475970508005519e-01 -7.889441016011038e-01 0.000000000000000e+00
					4.169477881004139e-01 -1.044833076200828e+00 0.000000000000000e+00
					8.338955762008279e-01 -8.338955762008279e-01 0.000000000000000e+00
					3.475970508005519e-01 -7.889441016011038e-01 0.000000000000000e+00
					6.951941016011038e-01 -6.951941016011038e-01 0.000000000000000e+00
					-6.951941016011038e-01 -6.951941016011038e-01 0.000000000000000e+00
					-3.475970508005519e-01 -7.889441016011038e-01 0.000000000000000e+00
					-5.838955762008279e-01 -5.838955762008279e-01 0.000000000000000e+00
					-2.919477881004139e-01 -6.073330762008279e-01 0.000000000000000e+00
					-3.475970508005519e-01 -7.889441016011038e-01 0.000000000000000e+00
					4.163336342344337e-17 -8.201941016011038e-01 0.000000000000000e+00
					-2.919477881004139e-01 -6.073330762008279e-01 0.000000000000000e+00
					3.469446951953614e-17 -6.151455762008279e-01 0.000000000000000e+00
					4.163336342344337e-17 -8.201941016011038e-01 0.000000000000000e+00
					3.475970508005519e-01 -7.889441016011038e-01 0.000000000000000e+00
					3.469446951953614e-17 -6.151455762008279e-01 0.000000000000000e+00
					2.919477881004139e-01 -6.073330762008279e-01 0.000000000000000e+00
					3.475970508005519e-01 -7.889441016011038e-01 0.000000000000000e+00
					6.951941016011038e-01 -6.951941016011038e-01 0.000000000000000e+00
					2.919477881004139e-01 -6.073330762008279e-01 0.000000000000000e+00
					5.838955762008279e-01 -5.838955762008279e-01 0.000000000000000e+00
					-5.838955762008279e-01 -5.838955762008279e-01 0.000000000000000e+00
					-2.919477881004139e-01 -6.073330762008279e-01 0.000000000000000e+00
					-5.000000000000000e-01 -5.000000000000000e-01 0.000000000000000e+00
					-2.500000000000000e-01 -5.000000000000000e-01 0.000000000000000e+00
					-2.919477881004139e-01 -6.073330762008279e-01 0.000000000000000e+00
					3.469446951953614e-17 -6.151455762008279e-01 0.000000000000000e+00
					-2.500000000000000e-01 -5.000000000000000e-01 0.000000000000000e+00
					2.775557561562891e-17 -5.000000000000000e-01 0.000000000000000e+00
					3.469446951953614e-17 -6.151455762008279e-01 0.000000000000000e+00
					2.919477881004139e-01 -6.073330762008279e-01 0.000000000000000e+00
					2.775557561562891e-17 -5.000000000000000e-01 0.000000000000000e+00
					2.500000000000000e-01 -5.000000000000000e-01 0.000000000000000e+00
					2.919477881004139e-01 -6.073330762008279e-01 0.000000000000000e+00
					5.838955762008279e-01 -5.838955762008279e-01 0.000000000000000e+00
					2.500000000000000e-01 -5.000000000000000e-01 0.000000000000000e+00
					5.000000000000000e-01 -5.000000000000000e-01 0.000000000000000e+00
				</DataArray>
			</Points>
			<Cells>
				<DataArray Name="connectivity" type="UInt32" format="ascii">
					0 1 3 2 4 5 7 6 8 9 11 10 12 13 15 14 16 17 19 18 20 21 23 22 24 25 27 26 28 29 31 30 32 33 35 34 36 37 39 38 40 41 43 42 44 45 47 46 48 49 51 50 52 53 55 54 56 57 59 58 60 61 63 62 
				</DataArray>
				<DataArray Name="offsets" type="UInt32" format="ascii">
					4 8 12 16 20 24 28 32 36 40 44 48 52 56 60 64 
				</DataArray>
				<DataArray Name="types" type="UInt8" format="ascii">
					9 9 9 9 9 9 9 9 9 9 9 9 9 9 9 9 
				</DataArray>
			</Cells>
			<PointData Vectors="solution ">
				<DataArray Name="solution" type="Float64" NumberOfComponents="1" format="ascii">
					0.000000000000000e+00 0.000000000000000e+00 1.605127715578048e-02 4.113406951348214e-02 0.000000000000000e+00 0.000000000000000e+00 4.113406951348214e-02 7.069934713413423e-02 0.000000000000000e+00 0.000000000000000e+00 7.069934713413423e-02 8.909793391893592e-02 0.000000000000000e+00 0.000000000000000e+00 8.909793391893592e-02 7.400911968912331e-02 1.605127715578048e-02 4.113406951348214e-02 1.914857643551258e-01 5.265957794716309e-01 4.113406951348214e-02 7.069934713413423e-02 5.265957794716309e-01 9.019527080385129e-01 7.069934713413423e-02 8.909793391893592e-02 9.019527080385129e-01 1.042816222715233e+00 8.909793391893592e-02 7.400911968912331e-02 1.042816222715233e+00 7.435702248049113e-01 1.914857643551258e-01 5.265957794716309e-01 7.351962580356119e-01 1.872419638106872e+00 5.265957794716309e-01 9.019527080385129e-01 1.872419638106872e+00 3.049542061896117e+00 9.019527080385129e-01 1.042816222715233e+00 3.049542061896117e+00 3.341450594444386e+00 1.042816222715233e+00 7.435702248049113e-01 3.341450594444386e+00 2.331085400541987e+00 7.351962580356119e-01 1.872419638106872e+00 1.638648834887128e+00 3.512769240241192e+00 1.872419638106872e+00 3.049542061896117e+00 3.512769240241192e+00 5.293651009609674e+00 3.049542061896117e+00 3.341450594444386e+00 5.293651009609674e+00 5.774899790036976e+00 3.341450594444386e+00 2.331085400541987e+00 5.774899790036976e+00 4.421135301469823e+00 
				</DataArray>
			</PointData>
			<CellData>
			</CellData>
		</Piece>
	</UnstructuredGrid>
</VTKFile>