<?xml version="1.0"?>
<VTKFile type="UnstructuredGrid" byte_order="LittleEndian">
	<UnstructuredGrid>
		<Piece NumberOfPoints="256" NumberOfCells="64">
			<Points>
				<DataArray type="Float64" NumberOfComponents="3" format="ascii">
					-1.000000000000000e+00 1.000000000000000e+00 0.000000000000000e+00
					-9.135224194504830e-01 9.135224194504830e-01 0.000000000000000e+00
					-7.500000000000000e-01 1.218750000000000e+00 0.000000000000000e+00
					-6.851418145878622e-01 1.081462827695690e+00 0.000000000000000e+00
					-9.135224194504830e-01 9.135224194504830e-01 0.000000000000000e+00
					-8.338955762008279e-01 8.338955762008279e-01 0.000000000000000e+00
					-6.851418145878622e-01 1.081462827695690e+00 0.000000000000000e+00
					-6.254216821506209e-01 9.577309189068970e-01 0.000000000000000e+00
					-8.338955762008279e-01 8.338955762008279e-01 0.000000000000000e+00
					-7.611194702510349e-01 7.611194702510349e-01 0.000000000000000e+00
					-6.254216821506209e-01 9.577309189068970e-01 0.000000000000000e+00
					-5.708396026882762e-01 8.475542736336212e-01 0.000000000000000e+00
					-7.611194702510349e-01 7.611194702510349e-01 0.000000000000000e+00
					-6.951941016011038e-01 6.951941016011038e-01 0.000000000000000e+00
					-5.708396026882762e-01 8.475542736336212e-01 0.000000000000000e+00
					-5.213955762008279e-01 7.509328918758624e-01 0.000000000000000e+00
					-6.951941016011038e-01 6.951941016011038e-01 0.000000000000000e+00
					-6.361194702510349e-01 6.361194702510349e-01 0.000000000000000e+00
					-5.213955762008279e-01 7.509328918758624e-01 0.000000000000000e+00
					-4.770896026882761e-01 6.678667736336210e-01 0.000000000000000e+00
					-6.361194702510349e-01 6.361194702510349e-01 0.000000000000000e+00
					-5.838955762008278e-01 5.838955762008278e-01 0.000000000000000e+00
					-4.770896026882761e-01 6.678667736336210e-01 0.000000000000000e+00
					-4.379216821506209e-01 5.983559189068968e-01 0.000000000000000e+00
					-5.838955762008278e-01 5.838955762008278e-01 0.000000000000000e+00
					-5.385224194504830e-01 5.385224194504830e-01 0.000000000000000e+00
					-4.379216821506209e-01 5.983559189068968e-01 0.000000000000000e+00
					-4.038918145878622e-01 5.424003276956898e-01 0.000000000000000e+00
					-5.385224194504830e-01 5.385224194504830e-01 0.000000000000000e+00
					-5.000000000000000e-01 5.000000000000000e-01 0.000000000000000e+00
					-4.038918145878622e-01 5.424003276956898e-01 0.000000000000000e+00
					-3.750000000000000e-01 5.000000000000000e-01 0.000000000000000e+00
					-7.500000000000000e-01 1.218750000000000e+00 0.000000000000000e+00
					-6.851418145878622e-01 1.081462827695690e+00 0.000000000000000e+00
					-5.000000000000000e-01 1.375000000000000e+00 0.000000000000000e+00
					-4.567612097252415e-01 1.201420262156552e+00 0.000000000000000e+00
					-6.851418145878622e-01 1.081462827695690e+00 0.000000000000000e+00
					-6.254216821506209e-01 9.577309189068970e-01 0.000000000000000e+00
					-4.567612097252415e-01 1.201420262156552e+00 0.000000000000000e+00
					-4.169477881004140e-01 1.046184735125518e+00 0.000000000000000e+00
					-6.254216821506209e-01 9.577309189068970e-01 0.000000000000000e+00
					-5.708396026882762e-01 8.475542736336212e-01 0.000000000000000e+00
					-4.169477881004140e-01 1.046184735125518e+00 0.000000000000000e+00
					-3.805597351255174e-01 9.092934189068971e-01 0.000000000000000e+00
					-5.708396026882762e-01 8.475542736336212e-01 0.000000000000000e+00
					-5.213955762008279e-01 7.509328918758624e-01 0.000000000000000e+00
					-3.805597351255174e-01 9.092934189068971e-01 0.000000000000000e+00
					-3.475970508005519e-01 7.907463135006900e-01 0.000000000000000e+00
					-5.213955762008279e-01 7.509328918758624e-01 0.000000000000000e+00
					-4.770896026882761e-01 6.678667736336210e-01 0.000000000000000e+00
					-3.475970508005519e-01 7.907463135006900e-01 0.000000000000000e+00
					-3.180597351255174e-01 6.905434189068969e-01 0.000000000000000e+00
					-4.770896026882761e-01 6.678667736336210e-01 0.000000000000000e+00
					-4.379216821506209e-01 5.983559189068968e-01 0.000000000000000e+00
					-3.180597351255174e-01 6.905434189068969e-01 0.000000000000000e+00
					-2.919477881004139e-01 6.086847351255175e-01 0.000000000000000e+00
					-4.379216821506209e-01 5.983559189068968e-01 0.000000000000000e+00
					-4.038918145878622e-01 5.424003276956898e-01 0.000000000000000e+00
					-2.919477881004139e-01 6.086847351255175e-01 0.000000000000000e+00
					-2.692612097252414e-01 5.451702621565520e-01 0.000000000000000e+00
					-4.038918145878622e-01 5.424003276956898e-01 0.000000000000000e+00
					-3.750000000000000e-01 5.000000000000000e-01 0.000000000000000e+00
					-2.692612097252414e-01 5.451702621565520e-01 0.000000000000000e+00
					-2.500000000000000e-01 5.000000000000000e-01 0.000000000000000e+00
					-5.000000000000000e-01 1.375000000000000e+00 0.000000000000000e+00
					-4.567612097252415e-01 1.201420262156552e+00 0.000000000000000e+00
					-2.500000000000000e-01 1.468750000000000e+00 0.000000000000000e+00
					-2.283806048626207e-01 1.273394722833069e+00 0.000000000000000e+00
					-4.567612097252415e-01 1.201420262156552e+00 0.000000000000000e+00
					-4.169477881004140e-01 1.046184735125518e+00 0.000000000000000e+00
					-2.283806048626207e-01 1.273394722833069e+00 0.000000000000000e+00
					-2.084738940502069e-01 1.099257024856690e+00 0.000000000000000e+00
					-4.169477881004140e-01 1.046184735125518e+00 0.000000000000000e+00
					-3.805597351255174e-01 9.092934189068971e-01 0.000000000000000e+00
					-2.084738940502069e-01 1.099257024856690e+00 0.000000000000000e+00
					-1.902798675627587e-01 9.463369060708626e-01 0.000000000000000e+00
					-3.805597351255174e-01 9.092934189068971e-01 0.000000000000000e+00
					-3.475970508005519e-01 7.907463135006900e-01 0.000000000000000e+00
					-1.902798675627587e-01 9.463369060708626e-01 0.000000000000000e+00
					-1.737985254002759e-01 8.146343664755866e-01 0.000000000000000e+00
					-3.475970508005519e-01 7.907463135006900e-01 0.000000000000000e+00
					-3.180597351255174e-01 6.905434189068969e-01 0.000000000000000e+00
					-1.737985254002759e-01 8.146343664755866e-01 0.000000000000000e+00
					-1.590298675627587e-01 7.041494060708624e-01 0.000000000000000e+00
					-3.180597351255174e-01 6.905434189068969e-01 0.000000000000000e+00
					-2.919477881004139e-01 6.086847351255175e-01 0.000000000000000e+00
					-1.590298675627587e-01 7.041494060708624e-01 0.000000000000000e+00
					-1.459738940502069e-01 6.148820248566900e-01 0.000000000000000e+00
					-2.919477881004139e-01 6.086847351255175e-01 0.000000000000000e+00
					-2.692612097252414e-01 5.451702621565520e-01 0.000000000000000e+00
					-1.459738940502069e-01 6.148820248566900e-01 0.000000000000000e+00
					-1.346306048626207e-01 5.468322228330691e-01 0.000000000000000e+00
					-2.692612097252414e-01 5.451702621565520e-01 0.000000000000000e+00
					-2.500000000000000e-01 5.000000000000000e-01 0.000000000000000e+00
					-1.346306048626207e-01 5.468322228330691e-01 0.000000000000000e+00
					-1.250000000000000e-01 5.000000000000000e-01 0.000000000000000e+00
					-2.500000000000000e-01 1.468750000000000e+00 0.000000000000000e+00
					-2.283806048626207e-01 1.273394722833069e+00 0.000000000000000e+00
					0.000000000000000e+00 1.500000000000000e+00 0.000000000000000e+00
					4.857225732735060e-17 1.297386209725242e+00 0.000000000000000e+00
					-2.283806048626207e-01 1.273394722833069e+00 0.000000000000000e+00
					-2.084738940502069e-01 1.099257024856690e+00 0.000000000000000e+00
					4.857225732735060e-17 1.297386209725242e+00 0.000000000000000e+00
					3.469446951953614e-17 1.116947788100414e+00 0.000000000000000e+00
					-2.084738940502069e-01 1.099257024856690e+00 0.000000000000000e+00
					-1.902798675627587e-01 9.463369060708626e-01 0.000000000000000e+00
					3.469446951953614e-17 1.116947788100414e+00 0.000000000000000e+00
					4.163336342344337e-17 9.586847351255177e-01 0.000000000000000e+00
					-1.902798675627587e-01 9.463369060708626e-01 0.000000000000000e+00
					-1.737985254002759e-01 8.146343664755866e-01 0.000000000000000e+00
					4.163336342344337e-17 9.586847351255177e-01 0.000000000000000e+00
					4.163336342344337e-17 8.225970508005520e-01 0.000000000000000e+00
					-1.737985254002759e-01 8.146343664755866e-01 0.000000000000000e+00
					-1.590298675627587e-01 7.041494060708624e-01 0.000000000000000e+00
					4.163336342344337e-17 8.225970508005520e-01 0.000000000000000e+00
					3.816391647148976e-17 7.086847351255174e-01 0.000000000000000e+00
					-1.590298675627587e-01 7.041494060708624e-01 0.000000000000000e+00
					-1.459738940502069e-01 6.148820248566900e-01 0.000000000000000e+00
					3.816391647148976e-17 7.086847351255174e-01 0.000000000000000e+00
					2.428612866367530e-17 6.169477881004140e-01 0.000000000000000e+00
					-1.459738940502069e-01 6.148820248566900e-01 0.000000000000000e+00
					-1.346306048626207e-01 5.468322228330691e-01 0.000000000000000e+00
					2.428612866367530e-17 6.169477881004140e-01 0.000000000000000e+00
					2.428612866367530e-17 5.473862097252415e-01 0.000000000000000e+00
					-1.346306048626207e-01 5.468322228330691e-01 0.000000000000000e+00
					-1.250000000000000e-01 5.000000000000000e-01 0.000000000000000e+00
					2.428612866367530e-17 5.473862097252415e-01 0.000000000000000e+00
					0.000000000000000e+00 5.000000000000000e-01 0.000000000000000e+00
					0.000000000000000e+00 1.500000000000000e+00 0.000000000000000e+00
					4.857225732735060e-17 1.297386209725242e+00 0.000000000000000e+00
					2.500000000000000e-01 1.468750000000000e+00 0.000000000000000e+00
					2.283806048626208e-01 1.273394722833069e+00 0.000000000000000e+00
					4.857225732735060e-17 1.297386209725242e+00 0.000000000000000e+00
					3.469446951953614e-17 1.116947788100414e+00 0.000000000000000e+00
					2.283806048626208e-01 1.273394722833069e+00 0.000000000000000e+00
					2.084738940502070e-01 1.099257024856690e+00 0.000000000000000e+00
					3.469446951953614e-17 1.116947788100414e+00 0.000000000000000e+00
					4.163336342344337e-17 9.586847351255177e-01 0.000000000000000e+00
					2.084738940502070e-01 1.099257024856690e+00 0.000000000000000e+00
					1.902798675627588e-01 9.463369060708624e-01 0.000000000000000e+00
					4.163336342344337e-17 9.586847351255177e-01 0.000000000000000e+00
					4.163336342344337e-17 8.225970508005520e-01 0.000000000000000e+00
					1.902798675627588e-01 9.463369060708624e-01 0.000000000000000e+00
					1.737985254002760e-01 8.146343664755865e-01 0.000000000000000e+00
					4.163336342344337e-17 8.225970508005520e-01 0.000000000000000e+00
					3.816391647148976e-17 7.086847351255174e-01 0.000000000000000e+00
					1.737985254002760e-01 8.146343664755865e-01 0.000000000000000e+00
					1.590298675627588e-01 7.041494060708623e-01 0.000000000000000e+00
					3.816391647148976e-17 7.086847351255174e-01 0.000000000000000e+00
					2.428612866367530e-17 6.169477881004140e-01 0.000000000000000e+00
					1.590298675627588e-01 7.041494060708623e-01 0.000000000000000e+00
					1.459738940502070e-01 6.148820248566897e-01 0.000000000000000e+00
					2.428612866367530e-17 6.169477881004140e-01 0.000000000000000e+00
					2.428612866367530e-17 5.473862097252415e-01 0.000000000000000e+00
					1.459738940502070e-01 6.148820248566897e-01 0.000000000000000e+00
					1.346306048626208e-01 5.468322228330691e-01 0.000000000000000e+00
					2.428612866367530e-17 5.473862097252415e-01 0.000000000000000e+00
					0.000000000000000e+00 5.000000000000000e-01 0.000000000000000e+00
					1.346306048626208e-01 5.468322228330691e-01 0.000000000000000e+00
					1.250000000000000e-01 5.000000000000000e-01 0.000000000000000e+00
					2.500000000000000e-01 1.468750000000000e+00 0.000000000000000e+00
					2.283806048626208e-01 1.273394722833069e+00 0.000000000000000e+00
					5.000000000000000e-01 1.375000000000000e+00 0.000000000000000e+00
					4.567612097252415e-01 1.201420262156552e+00 0.000000000000000e+00
					2.283806048626208e-01 1.273394722833069e+00 0.000000000000000e+00
					2.084738940502070e-01 1.099257024856690e+00 0.000000000000000e+00
					4.567612097252415e-01 1.201420262156552e+00 0.000000000000000e+00
					4.169477881004139e-01 1.046184735125518e+00 0.000000000000000e+00
					2.084738940502070e-01 1.099257024856690e+00 0.000000000000000e+00
					1.902798675627588e-01 9.463369060708624e-01 0.000000000000000e+00
					4.169477881004139e-01 1.046184735125518e+00 0.000000000000000e+00
					3.805597351255174e-01 9.092934189068970e-01 0.000000000000000e+00
					1.902798675627588e-01 9.463369060708624e-01 0.000000000000000e+00
					1.737985254002760e-01 8.146343664755865e-01 0.000000000000000e+00
					3.805597351255174e-01 9.092934189068970e-01 0.000000000000000e+00
					3.475970508005520e-01 7.907463135006900e-01 0.000000000000000e+00
					1.737985254002760e-01 8.146343664755865e-01 0.000000000000000e+00
					1.590298675627588e-01 7.041494060708623e-01 0.000000000000000e+00
					3.475970508005520e-01 7.907463135006900e-01 0.000000000000000e+00
					3.180597351255175e-01 6.905434189068969e-01 0.000000000000000e+00
					1.590298675627588e-01 7.041494060708623e-01 0.000000000000000e+00
					1.459738940502070e-01 6.148820248566897e-01 0.000000000000000e+00
					3.180597351255175e-01 6.905434189068969e-01 0.000000000000000e+00
					2.919477881004140e-01 6.086847351255174e-01 0.000000000000000e+00
					1.459738940502070e-01 6.148820248566897e-01 0.000000000000000e+00
					1.346306048626208e-01 5.468322228330691e-01 0.000000000000000e+00
					2.919477881004140e-01 6.086847351255174e-01 0.000000000000000e+00
					2.692612097252415e-01 5.451702621565518e-01 0.000000000000000e+00
					1.346306048626208e-01 5.468322228330691e-01 0.000000000000000e+00
					1.250000000000000e-01 5.000000000000000e-01 0.000000000000000e+00
					2.692612097252415e-01 5.451702621565518e-01 0.000000000000000e+00
					2.500000000000000e-01 5.000000000000000e-01 0.000000000000000e+00
					5.000000000000000e-01 1.375000000000000e+00 0.000000000000000e+00
					4.567612097252415e-01 1.201420262156552e+00 0.000000000000000e+00
					7.500000000000000e-01 1.218750000000000e+00 0.000000000000000e+00
					6.851418145878622e-01 1.081462827695690e+00 0.000000000000000e+00
					4.567612097252415e-01 1.201420262156552e+00 0.000000000000000e+00
					4.169477881004139e-01 1.046184735125518e+00 0.000000000000000e+00
					6.851418145878622e-01 1.081462827695690e+00 0.000000000000000e+00
					6.254216821506209e-01 9.577309189068968e-01 0.000000000000000e+00
					4.169477881004139e-01 1.046184735125518e+00 0.000000000000000e+00
					3.805597351255174e-01 9.092934189068970e-01 0.000000000000000e+00
					6.254216821506209e-01 9.577309189068968e-01 0.000000000000000e+00
					5.708396026882763e-01 8.475542736336211e-01 0.000000000000000e+00
					3.805597351255174e-01 9.092934189068970e-01 0.000000000000000e+00
					3.475970508005520e-01 7.907463135006900e-01 0.000000000000000e+00
					5.708396026882763e-01 8.475542736336211e-01 0.000000000000000e+00
					5.213955762008280e-01 7.509328918758624e-01 0.000000000000000e+00
					3.475970508005520e-01 7.907463135006900e-01 0.000000000000000e+00
					3.180597351255175e-01 6.905434189068969e-01 0.000000000000000e+00
					5.213955762008280e-01 7.509328918758624e-01 0.000000000000000e+00
					4.770896026882762e-01 6.678667736336210e-01 0.000000000000000e+00
					3.180597351255175e-01 6.905434189068969e-01 0.000000000000000e+00
					2.919477881004140e-01 6.086847351255174e-01 0.000000000000000e+00
					4.770896026882762e-01 6.678667736336210e-01 0.000000000000000e+00
					4.379216821506209e-01 5.983559189068968e-01 0.000000000000000e+00
					2.919477881004140e-01 6.086847351255174e-01 0.000000000000000e+00
					2.692612097252415e-01 5.451702621565518e-01 0.000000000000000e+00
					4.379216821506209e-01 5.983559189068968e-01 0.000000000000000e+00
					4.038918145878622e-01 5.424003276956898e-01 0.000000000000000e+00
					2.692612097252415e-01 5.451702621565518e-01 0.000000000000000e+00
					2.500000000000000e-01 5.000000000000000e-01 0.000000000000000e+00
					4.038918145878622e-01 5.424003276956898e-01 0.000000000000000e+00
					3.750000000000000e-01 5.000000000000000e-01 0.000000000000000e+00
					7.500000000000000e-01 1.218750000000000e+00 0.000000000000000e+00
					6.851418145878622e-01 1.081462827695690e+00 0.000000000000000e+00
					1.000000000000000e+00 1.000000000000000e+00 0.000000000000000e+00
					9.135224194504830e-01 9.135224194504830e-01 0.000000000000000e+00
					6.851418145878622e-01 1.081462827695690e+00 0.000000000000000e+00
					6.254216821506209e-01 9.577309189068968e-01 0.000000000000000e+00
					9.135224194504830e-01 9.135224194504830e-01 0.000000000000000e+00
					8.338955762008279e-01 8.338955762008279e-01 0.000000000000000e+00
					6.254216821506209e-01 9.577309189068968e-01 0.000000000000000e+00
					5.708396026882763e-01 8.475542736336211e-01 0.000000000000000e+00
					8.338955762008279e-01 8.338955762008279e-01 0.000000000000000e+00
					7.611194702510349e-01 7.611194702510349e-01 0.000000000000000e+00
					5.708396026882763e-01 8.475542736336211e-01 0.000000000000000e+00
					5.213955762008280e-01 7.509328918758624e-01 0.000000000000000e+00
					7.611194702510349e-01 7.611194702510349e-01 0.000000000000000e+00
					6.951941016011038e-01 6.951941016011038e-01 0.000000000000000e+00
					5.213955762008280e-01 7.509328918758624e-01 0.000000000000000e+00
					4.770896026882762e-01 6.678667736336210e-01 0.000000000000000e+00
					6.951941016011038e-01 6.951941016011038e-01 0.000000000000000e+00
					6.361194702510349e-01 6.361194702510349e-01 0.000000000000000e+00
					4.770896026882762e-01 6.678667736336210e-01 0.000000000000000e+00
					4.379216821506209e-01 5.983559189068968e-01 0.000000000000000e+00
					6.361194702510349e-01 6.361194702510349e-01 0.000000000000000e+00
					5.838955762008278e-01 5.838955762008278e-01 0.000000000000000e+00
					4.379216821506209e-01 5.983559189068968e-01 0.000000000000000e+00
					4.038918145878622e-01 5.424003276956898e-01 0.000000000000000e+00
					5.838955762008278e-01 5.838955762008278e-01 0.000000000000000e+00
					5.385224194504830e-01 5.385224194504830e-01 0.000000000000000e+00
					4.038918145878622e-01 5.424003276956898e-01 0.000000000000000e+00
					3.750000000000000e-01 5.000000000000000e-01 0.000000000000000e+00
					5.385224194504830e-01 5.385224194504830e-01 0.000000000000000e+00
					5.000000000000000e-01 5.000000000000000e-01 0.000000000000000e+00
				</DataArray>
			</Points>
			<Cells>
				<DataArray Name="connectivity" type="UInt32" format="ascii">
					0 1 3 2 4 5 7 6 8 9 11 10 12 13 15 14 16 17 19 18 20 21 23 22 24 25 27 26 28 29 31 30 32 33 35 34 36 37 39 38 40 41 43 42 44 45 47 46 48 49 51 50 52 53 55 54 56 57 59 58 60 61 63 62 64 65 67 66 68 69 71 70 72 73 75 74 76 77 79 78 80 81 83 82 84 85 87 86 88 89 91 90 92 93 95 94 96 97 99 98 100 101 103 102 104 105 107 106 108 109 111 110 112 113 115 114 116 117 119 118 120 121 123 122 124 125 127 126 128 129 131 130 132 133 135 134 136 137 139 138 140 141 143 142 144 145 147 146 148 149 151 150 152 153 155 154 156 157 159 158 160 161 163 162 164 165 167 166 168 169 171 170 172 173 175 174 176 177 179 178 180 181 183 182 184 185 187 186 188 189 191 190 192 193 195 194 196 197 199 198 200 201 203 202 204 205 207 206 208 209 211 210 212 213 215 214 216 217 219 218 220 221 223 222 224 225 227 226 228 229 231 230 232 233 235 234 236 237 239 238 240 241 243 242 244 245 247 246 248 249 251 250 252 253 255 254 
				</DataArray>
				<DataArray Name="offsets" type="UInt32" format="ascii">
					4 8 12 16 20 24 28 32 36 40 44 48 52 56 60 64 68 72 76 80 84 88 92 96 100 104 108 112 116 120 124 128 132 136 140 144 148 152 156 160 164 168 172 176 180 184 188 192 196 200 204 208 212 216 220 224 228 232 236 240 244 248 252 256 
				</DataArray>
				<DataArray Name="types" type="UInt8" format="ascii">
					9 9 9 9 9 9 9 9 9 9 9 9 9 9 9 9 9 9 9 9 9 9 9 9 9 9 9 9 9 9 9 9 9 9 9 9 9 9 9 9 9 9 9 9 9 9 9 9 9 9 9 9 9 9 9 9 9 9 9 9 9 9 9 9 
				</DataArray>
			</Cells>
			<PointData Vectors="solution ">
				<DataArray Name="solution" type="Float64" NumberOfComponents="1" format="ascii">
					0.000000000000000e+00 3.428925146801037e-01 0.000000000000000e+00 3.722285196025642e-01 3.428925146801037e-01 1.289679189196812e+00 3.722285196025643e-01 1.836240078059074e+00 1.289679189196812e+00 2.717495020048633e+00 1.836240078059075e+00 4.486671466339359e+00 2.717495020048633e+00 4.503437148321416e+00 4.486671466339359e+00 7.808308967715502e+00 4.503437148321416e+00 6.524566683158168e+00 7.808308967715504e+00 1.121366187047929e+01 6.524566683158169e+00 8.657908091478657e+00 1.121366187047929e+01 1.433578445604420e+01 8.657908091478658e+00 1.078044596317304e+01 1.433578445604420e+01 1.701653446825106e+01 1.078044596317304e+01 1.276912782134580e+01 1.701653446825106e+01 1.920314293070679e+01 0.000000000000000e+00 3.722285196025642e-01 0.000000000000000e+00 4.317597016353392e-01 3.722285196025643e-01 1.836240078059075e+00 4.317597016353392e-01 2.823484770135799e+00 1.836240078059075e+00 4.486671466339359e+00 2.823484770135800e+00 7.396215733410744e+00 4.486671466339359e+00 7.808308967715503e+00 7.396215733410745e+00 1.284584995929276e+01 7.808308967715504e+00 1.121366187047929e+01 1.284584995929276e+01 1.786834519630259e+01 1.121366187047929e+01 1.433578445604420e+01 1.786834519630260e+01 2.184537480827403e+01 1.433578445604420e+01 1.701653446825106e+01 2.184537480827403e+01 2.470802974144574e+01 1.701653446825106e+01 1.920314293070679e+01 2.470802974144574e+01 2.664386557356091e+01 0.000000000000000e+00 4.317597016353392e-01 0.000000000000000e+00 6.418695466971653e-01 4.317597016353392e-01 2.823484770135799e+00 6.418695466971653e-01 4.335083068749540e+00 2.823484770135800e+00 7.396215733410745e+00 4.335083068749540e+00 1.117483133580035e+01 7.396215733410745e+00 1.284584995929276e+01 1.117483133580035e+01 1.881598314182566e+01 1.284584995929276e+01 1.786834519630260e+01 1.881598314182566e+01 2.522047568348215e+01 1.786834519630260e+01 2.184537480827403e+01 2.522047568348215e+01 2.966769145933886e+01 2.184537480827403e+01 2.470802974144575e+01 2.966769145933886e+01 3.235659445782876e+01 2.470802974144575e+01 2.664386557356092e+01 3.235659445782876e+01 3.382379205981019e+01 0.000000000000000e+00 6.418695466971653e-01 0.000000000000000e+00 8.663836967055966e-01 6.418695466971654e-01 4.335083068749540e+00 8.663836967055967e-01 5.747244640118320e+00 4.335083068749541e+00 1.117483133580035e+01 5.747244640118321e+00 1.449127437935025e+01 1.117483133580035e+01 1.881598314182566e+01 1.449127437935025e+01 2.383291168722165e+01 1.881598314182567e+01 2.522047568348215e+01 2.383291168722165e+01 3.119745198564063e+01 2.522047568348215e+01 2.966769145933886e+01 3.119745198564064e+01 3.588817723632664e+01 2.966769145933886e+01 3.235659445782876e+01 3.588817723632665e+01 3.837998631318820e+01 3.235659445782876e+01 3.382379205981019e+01 3.837998631318821e+01 3.947626444819569e+01 0.000000000000000e+00 8.663836967055967e-01 0.000000000000000e+00 9.262080623726217e-01 8.663836967055967e-01 5.747244640118321e+00 9.262080623726218e-01 6.308836695943469e+00 5.747244640118321e+00 1.449127437935025e+01 6.308836695943470e+00 1.588394779762752e+01 1.449127437935025e+01 2.383291168722165e+01 1.588394779762752e+01 2.600877858690048e+01 2.383291168722165e+01 3.119745198564064e+01 2.600877858690048e+01 3.390941657723418e+01 3.119745198564064e+01 3.588817723632665e+01 3.390941657723418e+01 3.886409490992416e+01 3.588817723632665e+01 3.837998631318821e+01 3.886409490992416e+01 4.143484556601736e+01 3.837998631318821e+01 3.947626444819569e+01 4.143484556601737e+01 4.251645032455390e+01 0.000000000000000e+00 9.262080623726218e-01 0.000000000000000e+00 8.279839000174631e-01 9.262080623726218e-01 6.308836695943470e+00 8.279839000174631e-01 5.769296665368294e+00 6.308836695943470e+00 1.588394779762752e+01 5.769296665368294e+00 1.466652956893541e+01 1.588394779762752e+01 2.600877858690048e+01 1.466652956893541e+01 2.436235430509410e+01 2.600877858690048e+01 3.390941657723418e+01 2.436235430509410e+01 3.238507845272148e+01 3.390941657723418e+01 3.886409490992416e+01 3.238507845272149e+01 3.785831406793123e+01 3.886409490992417e+01 4.143484556601737e+01 3.785831406793124e+01 4.100855642043980e+01 4.143484556601737e+01 4.251645032455390e+01 4.100855642043980e+01 4.258810445174251e+01 0.000000000000000e+00 8.279839000174631e-01 0.000000000000000e+00 8.433177464451111e-01 8.279839000174632e-01 5.769296665368294e+00 8.433177464451114e-01 4.757776439406176e+00 5.769296665368295e+00 1.466652956893541e+01 4.757776439406176e+00 1.155577993371833e+01 1.466652956893541e+01 2.436235430509410e+01 1.155577993371833e+01 1.936441160470562e+01 2.436235430509411e+01 3.238507845272148e+01 1.936441160470562e+01 2.666976416010141e+01 3.238507845272149e+01 3.785831406793124e+01 2.666976416010142e+01 3.264863131532019e+01 3.785831406793124e+01 4.100855642043980e+01 3.264863131532019e+01 3.691209227588048e+01 4.100855642043980e+01 4.258810445174251e+01 3.691209227588049e+01 3.951826065422222e+01 0.000000000000000e+00 8.433177464451114e-01 0.000000000000000e+00 1.051219602803891e+00 8.433177464451114e-01 4.757776439406176e+00 1.051219602803891e+00 3.900188262567183e+00 4.757776439406176e+00 1.155577993371833e+01 3.900188262567184e+00 8.089772940257490e+00 1.155577993371833e+01 1.936441160470562e+01 8.089772940257491e+00 1.316268038878096e+01 1.936441160470562e+01 2.666976416010142e+01 1.316268038878096e+01 1.866141715487236e+01 2.666976416010142e+01 3.264863131532019e+01 1.866141715487236e+01 2.412823198515674e+01 3.264863131532019e+01 3.691209227588049e+01 2.412823198515674e+01 2.910504499532043e+01 3.691209227588050e+01 3.951826065422222e+01 2.910504499532044e+01 3.313343549252998e+01 
				</DataArray>
			</PointData>
			<CellData>
			</CellData>
		</Piece>
	</UnstructuredGrid>
</VTKFile>