<?xml version="1.0"?>
<VTKFile type="UnstructuredGrid" byte_order="LittleEndian">
	<UnstructuredGrid>
		<Piece NumberOfPoints="64" NumberOfCells="16">
			<Points>
				<DataArray type="Float64" NumberOfComponents="3" format="ascii">
					-1.000000000000000e+00 1.000000000000000e+00 0.000000000000000e+00
					-8.338955762008279e-01 8.338955762008279e-01 0.000000000000000e+00
					-5.000000000000000e-01 1.375000000000000e+00 0.000000000000000e+00
					-4.169477881004139e-01 1.046184735125518e+00 0.000000000000000e+00
					-8.338955762008279e-01 8.338955762008279e-01 0.000000000000000e+00
					-6.951941016011038e-01 6.951941016011038e-01 0.000000000000000e+00
					-4.169477881004139e-01 1.046184735125518e+00 0.000000000000000e+00
					-3.475970508005519e-01 7.907463135006899e-01 0.000000000000000e+00
					-6.951941016011038e-01 6.951941016011038e-01 0.000000000000000e+00
					-5.838955762008279e-01 5.838955762008279e-01 0.000000000000000e+00
					-3.475970508005519e-01 7.907463135006899e-01 0.000000000000000e+00
					-2.919477881004139e-01 6.086847351255174e-01 0.000000000000000e+00
					-5.838955762008279e-01 5.838955762008279e-01 0.000000000000000e+00
					-5.000000000000000e-01 5.000000000000000e-01 0.000000000000000e+00
					-2.919477881004139e-01 6.086847351255174e-01 0.000000000000000e+00
					-2.500000000000000e-01 5.000000000000000e-01 0.000000000000000e+00
					-5.000000000000000e-01 1.375000000000000e+00 0.000000000000000e+00
					-4.169477881004139e-01 1.046184735125518e+00 0.000000000000000e+00
					1.387778780781446e-17 1.500000000000000e+00 0.000000000000000e+00
					2.081668171172169e-17 1.116947788100414e+00 0.000000000000000e+00
					-4.169477881004139e-01 1.046184735125518e+00 0.000000000000000e+00
					-3.475970508005519e-01 7.907463135006899e-01 0.000000000000000e+00
					2.081668171172169e-17 1.116947788100414e+00 0.000000000000000e+00
					0.000000000000000e+00 8.225970508005519e-01 0.000000000000000e+00
					-3.475970508005519e-01 7.907463135006899e-01 0.000000000000000e+00
					-2.919477881004139e-01 6.086847351255174e-01 0.000000000000000e+00
					0.000000000000000e+00 8.225970508005519e-01 0.000000000000000e+00
					1.387778780781446e-17 6.169477881004140e-01 0.000000000000000e+00
					-2.919477881004139e-01 6.086847351255174e-01 0.000000000000000e+00
					-2.500000000000000e-01 5.000000000000000e-01 0.000000000000000e+00
					1.387778780781446e-17 6.169477881004140e-01 0.000000000000000e+00
					6.938893903907228e-18 5.000000000000000e-01 0.000000000000000e+00
					1.387778780781446e-17 1.500000000000000e+00 0.000000000000000e+00
					2.081668171172169e-17 1.116947788100414e+00 0.000000000000000e+00
					5.000000000000000e-01 1.375000000000000e+00 0.000000000000000e+00
					4.169477881004140e-01 1.046184735125518e+00 0.000000000000000e+00
					2.081668171172169e-17 1.116947788100414e+00 0.000000000000000e+00
					0.000000000000000e+00 8.225970508005519e-01 0.000000000000000e+00
					4.169477881004140e-01 1.046184735125518e+00 0.000000000000000e+00
					3.475970508005519e-01 7.907463135006899e-01 0.000000000000000e+00
					0.000000000000000e+00 8.225970508005519e-01 0.000000000000000e+00
					1.387778780781446e-17 6.169477881004140e-01 0.000000000000000e+00
					3.475970508005519e-01 7.907463135006899e-01 0.000000000000000e+00
					2.919477881004139e-01 6.086847351255174e-01 0.000000000000000e+00
					1.387778780781446e-17 6.169477881004140e-01 0.000000000000000e+00
					6.938893903907228e-18 5.000000000000000e-01 0.000000000000000e+00
					2.919477881004139e-01 6.086847351255174e-01 0.000000000000000e+00
					2.500000000000000e-01 5.000000000000000e-01 0.000000000000000e+00
					5.000000000000000e-01 1.375000000000000e+00 0.000000000000000e+00
					4.169477881004140e-01 1.046184735125518e+00 0.000000000000000e+00
					1.000000000000000e+00 1.000000000000000e+00 0.000000000000000e+00
					8.338955762008279e-01 8.338955762008279e-01 0.000000000000000e+00
					4.169477881004140e-01 1.046184735125518e+00 0.000000000000000e+00
					3.475970508005519e-01 7.907463135006899e-01 0.000000000000000e+00
					8.338955762008279e-01 8.338955762008279e-01 0.000000000000000e+00
					6.951941016011038e-01 6.951941016011038e-01 0.000000000000000e+00
					3.475970508005519e-01 7.907463135006899e-01 0.000000000000000e+00
					2.919477881004139e-01 6.086847351255174e-01 0.000000000000000e+00
					6.951941016011038e-01 6.951941016011038e-01 0.000000000000000e+00
					5.838955762008279e-01 5.838955762008279e-01 0.000000000000000e+00
					2.919477881004139e-01 6.086847351255174e-01 0.000000000000000e+00
					2.500000000000000e-01 5.000000000000000e-01 0.000000000000000e+00
					5.838955762008279e-01 5.838955762008279e-01 0.000000000000000e+00
					5.000000000000000e-01 5.000000000000000e-01 0.000000000000000e+00
				</DataArray>
			</Points>
			<Cells>
				<DataArray Name="connectivity" type="UInt32" format="ascii">
					0 1 3 2 4 5 7 6 8 9 11 10 12 13 15 14 16 17 19 18 20 21 23 22 24 25 27 26 28 29 31 30 32 33 35 34 36 37 39 38 40 41 43 42 44 45 47 46 48 49 51 50 52 53 55 54 56 57 59 58 60 61 63 62 
				</DataArray>
				<DataArray Name="offsets" type="UInt32" format="ascii">
					4 8 12 16 20 24 28 32 36 40 44 48 52 56 60 64 
				</DataArray>
				<DataArray Name="types" type="UInt8" format="ascii">
					9 9 9 9 9 9 9 9 9 9 9 9 9 9 9 9 
				</DataArray>
			</Cells>
			<PointData Vectors="solution ">
				<DataArray Name="solution" type="Float64" NumberOfComponents="1" format="ascii">
					0.000000000000000e+00 1.310210075440593e+00 0.000000000000000e+00 2.779696515780006e+00 1.310210075440594e+00 4.552100828186372e+00 2.779696515780007e+00 1.262190426495142e+01 4.552100828186372e+00 8.691453300633937e+00 1.262190426495143e+01 2.132835316697246e+01 8.691453300633937e+00 1.269244294244458e+01 2.132835316697247e+01 2.578487808319973e+01 0.000000000000000e+00 2.779696515780007e+00 0.000000000000000e+00 5.915206073706316e+00 2.779696515780007e+00 1.262190426495143e+01 5.915206073706317e+00 2.370087362215433e+01 1.262190426495143e+01 2.132835316697247e+01 2.370087362215433e+01 3.532992178121932e+01 2.132835316697247e+01 2.578487808319973e+01 3.532992178121932e+01 3.836795600159847e+01 0.000000000000000e+00 5.915206073706317e+00 0.000000000000000e+00 5.603045087867620e+00 5.915206073706317e+00 2.370087362215433e+01 5.603045087867621e+00 2.352672058461615e+01 2.370087362215433e+01 3.532992178121932e+01 2.352672058461615e+01 3.662700480881200e+01 3.532992178121932e+01 3.836795600159849e+01 3.662700480881200e+01 4.119277643554229e+01 0.000000000000000e+00 5.603045087867621e+00 0.000000000000000e+00 3.797974170285589e+00 5.603045087867621e+00 2.352672058461615e+01 3.797974170285590e+00 1.282205985686718e+01 2.352672058461616e+01 3.662700480881201e+01 1.282205985686718e+01 2.350989570825616e+01 3.662700480881202e+01 4.119277643554229e+01 2.350989570825616e+01 3.228808751541783e+01 
				</DataArray>
			</PointData>
			<CellData>
			</CellData>
		</Piece>
	</UnstructuredGrid>
</VTKFile>