<?xml version="1.0"?>
<VTKFile type="UnstructuredGrid" byte_order="LittleEndian">
	<UnstructuredGrid>
		<Piece NumberOfPoints="256" NumberOfCells="64">
			<Points>
				<DataArray type="Float64" NumberOfComponents="3" format="ascii">
					-1.000000000000000e+00 -1.000000000000000e+00 0.000000000000000e+00
					-7.500000000000000e-01 -1.218750000000000e+00 0.000000000000000e+00
					-9.135224194504830e-01 -9.135224194504830e-01 0.000000000000000e+00
					-6.851418145878622e-01 -1.081462827695690e+00 0.000000000000000e+00
					-7.500000000000000e-01 -1.218750000000000e+00 0.000000000000000e+00
					-5.000000000000000e-01 -1.375000000000000e+00 0.000000000000000e+00
					-6.851418145878622e-01 -1.081462827695690e+00 0.000000000000000e+00
					-4.567612097252415e-01 -1.201420262156552e+00 0.000000000000000e+00
					-5.000000000000000e-01 -1.375000000000000e+00 0.000000000000000e+00
					-2.500000000000000e-01 -1.468750000000000e+00 0.000000000000000e+00
					-4.567612097252415e-01 -1.201420262156552e+00 0.000000000000000e+00
					-2.283806048626207e-01 -1.273394722833069e+00 0.000000000000000e+00
					-2.500000000000000e-01 -1.468750000000000e+00 0.000000000000000e+00
					0.000000000000000e+00 -1.500000000000000e+00 0.000000000000000e+00
					-2.283806048626207e-01 -1.273394722833069e+00 0.000000000000000e+00
					1.040834085586084e-17 -1.297386209725242e+00 0.000000000000000e+00
					0.000000000000000e+00 -1.500000000000000e+00 0.000000000000000e+00
					2.500000000000000e-01 -1.468750000000000e+00 0.000000000000000e+00
					1.040834085586084e-17 -1.297386209725242e+00 0.000000000000000e+00
					2.283806048626208e-01 -1.273394722833069e+00 0.000000000000000e+00
					2.500000000000000e-01 -1.468750000000000e+00 0.000000000000000e+00
					5.000000000000000e-01 -1.375000000000000e+00 0.000000000000000e+00
					2.283806048626208e-01 -1.273394722833069e+00 0.000000000000000e+00
					4.567612097252415e-01 -1.201420262156552e+00 0.000000000000000e+00
					5.000000000000000e-01 -1.375000000000000e+00 0.000000000000000e+00
					7.500000000000000e-01 -1.218750000000000e+00 0.000000000000000e+00
					4.567612097252415e-01 -1.201420262156552e+00 0.000000000000000e+00
					6.851418145878623e-01 -1.081462827695690e+00 0.000000000000000e+00
					7.500000000000000e-01 -1.218750000000000e+00 0.000000000000000e+00
					1.000000000000000e+00 -1.000000000000000e+00 0.000000000000000e+00
					6.851418145878623e-01 -1.081462827695690e+00 0.000000000000000e+00
					9.135224194504830e-01 -9.135224194504830e-01 0.000000000000000e+00
					-9.135224194504830e-01 -9.135224194504830e-01 0.000000000000000e+00
					-6.851418145878622e-01 -1.081462827695690e+00 0.000000000000000e+00
					-8.338955762008279e-01 -8.338955762008279e-01 0.000000000000000e+00
					-6.254216821506209e-01 -9.577309189068969e-01 0.000000000000000e+00
					-6.851418145878622e-01 -1.081462827695690e+00 0.000000000000000e+00
					-4.567612097252415e-01 -1.201420262156552e+00 0.000000000000000e+00
					-6.254216821506209e-01 -9.577309189068969e-01 0.000000000000000e+00
					-4.169477881004140e-01 -1.046184735125518e+00 0.000000000000000e+00
					-4.567612097252415e-01 -1.201420262156552e+00 0.000000000000000e+00
					-2.283806048626207e-01 -1.273394722833069e+00 0.000000000000000e+00
					-4.169477881004140e-01 -1.046184735125518e+00 0.000000000000000e+00
					-2.084738940502070e-01 -1.099257024856690e+00 0.000000000000000e+00
					-2.283806048626207e-01 -1.273394722833069e+00 0.000000000000000e+00
					1.040834085586084e-17 -1.297386209725242e+00 0.000000000000000e+00
					-2.084738940502070e-01 -1.099257024856690e+00 0.000000000000000e+00
					1.734723475976807e-17 -1.116947788100414e+00 0.000000000000000e+00
					1.040834085586084e-17 -1.297386209725242e+00 0.000000000000000e+00
					2.283806048626208e-01 -1.273394722833069e+00 0.000000000000000e+00
					1.734723475976807e-17 -1.116947788100414e+00 0.000000000000000e+00
					2.084738940502070e-01 -1.099257024856690e+00 0.000000000000000e+00
					2.283806048626208e-01 -1.273394722833069e+00 0.000000000000000e+00
					4.567612097252415e-01 -1.201420262156552e+00 0.000000000000000e+00
					2.084738940502070e-01 -1.099257024856690e+00 0.000000000000000e+00
					4.169477881004140e-01 -1.046184735125518e+00 0.000000000000000e+00
					4.567612097252415e-01 -1.201420262156552e+00 0.000000000000000e+00
					6.851418145878623e-01 -1.081462827695690e+00 0.000000000000000e+00
					4.169477881004140e-01 -1.046184735125518e+00 0.000000000000000e+00
					6.254216821506209e-01 -9.577309189068968e-01 0.000000000000000e+00
					6.851418145878623e-01 -1.081462827695690e+00 0.000000000000000e+00
					9.135224194504830e-01 -9.135224194504830e-01 0.000000000000000e+00
					6.254216821506209e-01 -9.577309189068968e-01 0.000000000000000e+00
					8.338955762008279e-01 -8.338955762008279e-01 0.000000000000000e+00
					-8.338955762008279e-01 -8.338955762008279e-01 0.000000000000000e+00
					-6.254216821506209e-01 -9.577309189068969e-01 0.000000000000000e+00
					-7.611194702510349e-01 -7.611194702510349e-01 0.000000000000000e+00
					-5.708396026882762e-01 -8.475542736336210e-01 0.000000000000000e+00
					-6.254216821506209e-01 -9.577309189068969e-01 0.000000000000000e+00
					-4.169477881004140e-01 -1.046184735125518e+00 0.000000000000000e+00
					-5.708396026882762e-01 -8.475542736336210e-01 0.000000000000000e+00
					-3.805597351255174e-01 -9.092934189068969e-01 0.000000000000000e+00
					-4.169477881004140e-01 -1.046184735125518e+00 0.000000000000000e+00
					-2.084738940502070e-01 -1.099257024856690e+00 0.000000000000000e+00
					-3.805597351255174e-01 -9.092934189068969e-01 0.000000000000000e+00
					-1.902798675627587e-01 -9.463369060708624e-01 0.000000000000000e+00
					-2.084738940502070e-01 -1.099257024856690e+00 0.000000000000000e+00
					1.734723475976807e-17 -1.116947788100414e+00 0.000000000000000e+00
					-1.902798675627587e-01 -9.463369060708624e-01 0.000000000000000e+00
					2.428612866367530e-17 -9.586847351255177e-01 0.000000000000000e+00
					1.734723475976807e-17 -1.116947788100414e+00 0.000000000000000e+00
					2.084738940502070e-01 -1.099257024856690e+00 0.000000000000000e+00
					2.428612866367530e-17 -9.586847351255177e-01 0.000000000000000e+00
					1.902798675627587e-01 -9.463369060708624e-01 0.000000000000000e+00
					2.084738940502070e-01 -1.099257024856690e+00 0.000000000000000e+00
					4.169477881004140e-01 -1.046184735125518e+00 0.000000000000000e+00
					1.902798675627587e-01 -9.463369060708624e-01 0.000000000000000e+00
					3.805597351255174e-01 -9.092934189068969e-01 0.000000000000000e+00
					4.169477881004140e-01 -1.046184735125518e+00 0.000000000000000e+00
					6.254216821506209e-01 -9.577309189068968e-01 0.000000000000000e+00
					3.805597351255174e-01 -9.092934189068969e-01 0.000000000000000e+00
					5.708396026882762e-01 -8.475542736336210e-01 0.000000000000000e+00
					6.254216821506209e-01 -9.577309189068968e-01 0.000000000000000e+00
					8.338955762008279e-01 -8.338955762008279e-01 0.000000000000000e+00
					5.708396026882762e-01 -8.475542736336210e-01 0.000000000000000e+00
					7.611194702510349e-01 -7.611194702510349e-01 0.000000000000000e+00
					-7.611194702510349e-01 -7.611194702510349e-01 0.000000000000000e+00
					-5.708396026882762e-01 -8.475542736336210e-01 0.000000000000000e+00
					-6.951941016011038e-01 -6.951941016011038e-01 0.000000000000000e+00
					-5.213955762008279e-01 -7.509328918758624e-01 0.000000000000000e+00
					-5.708396026882762e-01 -8.475542736336210e-01 0.000000000000000e+00
					-3.805597351255174e-01 -9.092934189068969e-01 0.000000000000000e+00
					-5.213955762008279e-01 -7.509328918758624e-01 0.000000000000000e+00
					-3.475970508005519e-01 -7.907463135006900e-01 0.000000000000000e+00
					-3.805597351255174e-01 -9.092934189068969e-01 0.000000000000000e+00
					-1.902798675627587e-01 -9.463369060708624e-01 0.000000000000000e+00
					-3.475970508005519e-01 -7.907463135006900e-01 0.000000000000000e+00
					-1.737985254002760e-01 -8.146343664755866e-01 0.000000000000000e+00
					-1.902798675627587e-01 -9.463369060708624e-01 0.000000000000000e+00
					2.428612866367530e-17 -9.586847351255177e-01 0.000000000000000e+00
					-1.737985254002760e-01 -8.146343664755866e-01 0.000000000000000e+00
					2.428612866367530e-17 -8.225970508005520e-01 0.000000000000000e+00
					2.428612866367530e-17 -9.586847351255177e-01 0.000000000000000e+00
					1.902798675627587e-01 -9.463369060708624e-01 0.000000000000000e+00
					2.428612866367530e-17 -8.225970508005520e-01 0.000000000000000e+00
					1.737985254002760e-01 -8.146343664755865e-01 0.000000000000000e+00
					1.902798675627587e-01 -9.463369060708624e-01 0.000000000000000e+00
					3.805597351255174e-01 -9.092934189068969e-01 0.000000000000000e+00
					1.737985254002760e-01 -8.146343664755865e-01 0.000000000000000e+00
					3.475970508005519e-01 -7.907463135006900e-01 0.000000000000000e+00
					3.805597351255174e-01 -9.092934189068969e-01 0.000000000000000e+00
					5.708396026882762e-01 -8.475542736336210e-01 0.000000000000000e+00
					3.475970508005519e-01 -7.907463135006900e-01 0.000000000000000e+00
					5.213955762008279e-01 -7.509328918758624e-01 0.000000000000000e+00
					5.708396026882762e-01 -8.475542736336210e-01 0.000000000000000e+00
					7.611194702510349e-01 -7.611194702510349e-01 0.000000000000000e+00
					5.213955762008279e-01 -7.509328918758624e-01 0.000000000000000e+00
					6.951941016011038e-01 -6.951941016011038e-01 0.000000000000000e+00
					-6.951941016011038e-01 -6.951941016011038e-01 0.000000000000000e+00
					-5.213955762008279e-01 -7.509328918758624e-01 0.000000000000000e+00
					-6.361194702510349e-01 -6.361194702510349e-01 0.000000000000000e+00
					-4.770896026882762e-01 -6.678667736336210e-01 0.000000000000000e+00
					-5.213955762008279e-01 -7.509328918758624e-01 0.000000000000000e+00
					-3.475970508005519e-01 -7.907463135006900e-01 0.000000000000000e+00
					-4.770896026882762e-01 -6.678667736336210e-01 0.000000000000000e+00
					-3.180597351255174e-01 -6.905434189068969e-01 0.000000000000000e+00
					-3.475970508005519e-01 -7.907463135006900e-01 0.000000000000000e+00
					-1.737985254002760e-01 -8.146343664755866e-01 0.000000000000000e+00
					-3.180597351255174e-01 -6.905434189068969e-01 0.000000000000000e+00
					-1.590298675627587e-01 -7.041494060708624e-01 0.000000000000000e+00
					-1.737985254002760e-01 -8.146343664755866e-01 0.000000000000000e+00
					2.428612866367530e-17 -8.225970508005520e-01 0.000000000000000e+00
					-1.590298675627587e-01 -7.041494060708624e-01 0.000000000000000e+00
					1.734723475976807e-17 -7.086847351255174e-01 0.000000000000000e+00
					2.428612866367530e-17 -8.225970508005520e-01 0.000000000000000e+00
					1.737985254002760e-01 -8.146343664755865e-01 0.000000000000000e+00
					1.734723475976807e-17 -7.086847351255174e-01 0.000000000000000e+00
					1.590298675627587e-01 -7.041494060708622e-01 0.000000000000000e+00
					1.737985254002760e-01 -8.146343664755865e-01 0.000000000000000e+00
					3.475970508005519e-01 -7.907463135006900e-01 0.000000000000000e+00
					1.590298675627587e-01 -7.041494060708622e-01 0.000000000000000e+00
					3.180597351255174e-01 -6.905434189068967e-01 0.000000000000000e+00
					3.475970508005519e-01 -7.907463135006900e-01 0.000000000000000e+00
					5.213955762008279e-01 -7.509328918758624e-01 0.000000000000000e+00
					3.180597351255174e-01 -6.905434189068967e-01 0.000000000000000e+00
					4.770896026882762e-01 -6.678667736336210e-01 0.000000000000000e+00
					5.213955762008279e-01 -7.509328918758624e-01 0.000000000000000e+00
					6.951941016011038e-01 -6.951941016011038e-01 0.000000000000000e+00
					4.770896026882762e-01 -6.678667736336210e-01 0.000000000000000e+00
					6.361194702510349e-01 -6.361194702510349e-01 0.000000000000000e+00
					-6.361194702510349e-01 -6.361194702510349e-01 0.000000000000000e+00
					-4.770896026882762e-01 -6.678667736336210e-01 0.000000000000000e+00
					-5.838955762008278e-01 -5.838955762008278e-01 0.000000000000000e+00
					-4.379216821506209e-01 -5.983559189068968e-01 0.000000000000000e+00
					-4.770896026882762e-01 -6.678667736336210e-01 0.000000000000000e+00
					-3.180597351255174e-01 -6.905434189068969e-01 0.000000000000000e+00
					-4.379216821506209e-01 -5.983559189068968e-01 0.000000000000000e+00
					-2.919477881004139e-01 -6.086847351255174e-01 0.000000000000000e+00
					-3.180597351255174e-01 -6.905434189068969e-01 0.000000000000000e+00
					-1.590298675627587e-01 -7.041494060708624e-01 0.000000000000000e+00
					-2.919477881004139e-01 -6.086847351255174e-01 0.000000000000000e+00
					-1.459738940502069e-01 -6.148820248566897e-01 0.000000000000000e+00
					-1.590298675627587e-01 -7.041494060708624e-01 0.000000000000000e+00
					1.734723475976807e-17 -7.086847351255174e-01 0.000000000000000e+00
					-1.459738940502069e-01 -6.148820248566897e-01 0.000000000000000e+00
					1.040834085586084e-17 -6.169477881004138e-01 0.000000000000000e+00
					1.734723475976807e-17 -7.086847351255174e-01 0.000000000000000e+00
					1.590298675627587e-01 -7.041494060708622e-01 0.000000000000000e+00
					1.040834085586084e-17 -6.169477881004138e-01 0.000000000000000e+00
					1.459738940502070e-01 -6.148820248566897e-01 0.000000000000000e+00
					1.590298675627587e-01 -7.041494060708622e-01 0.000000000000000e+00
					3.180597351255174e-01 -6.905434189068967e-01 0.000000000000000e+00
					1.459738940502070e-01 -6.148820248566897e-01 0.000000000000000e+00
					2.919477881004139e-01 -6.086847351255174e-01 0.000000000000000e+00
					3.180597351255174e-01 -6.905434189068967e-01 0.000000000000000e+00
					4.770896026882762e-01 -6.678667736336210e-01 0.000000000000000e+00
					2.919477881004139e-01 -6.086847351255174e-01 0.000000000000000e+00
					4.379216821506209e-01 -5.983559189068968e-01 0.000000000000000e+00
					4.770896026882762e-01 -6.678667736336210e-01 0.000000000000000e+00
					6.361194702510349e-01 -6.361194702510349e-01 0.000000000000000e+00
					4.379216821506209e-01 -5.983559189068968e-01 0.000000000000000e+00
					5.838955762008278e-01 -5.838955762008278e-01 0.000000000000000e+00
					-5.838955762008278e-01 -5.838955762008278e-01 0.000000000000000e+00
					-4.379216821506209e-01 -5.983559189068968e-01 0.000000000000000e+00
					-5.385224194504830e-01 -5.385224194504830e-01 0.000000000000000e+00
					-4.038918145878622e-01 -5.424003276956898e-01 0.000000000000000e+00
					-4.379216821506209e-01 -5.983559189068968e-01 0.000000000000000e+00
					-2.919477881004139e-01 -6.086847351255174e-01 0.000000000000000e+00
					-4.038918145878622e-01 -5.424003276956898e-01 0.000000000000000e+00
					-2.692612097252414e-01 -5.451702621565517e-01 0.000000000000000e+00
					-2.919477881004139e-01 -6.086847351255174e-01 0.000000000000000e+00
					-1.459738940502069e-01 -6.148820248566897e-01 0.000000000000000e+00
					-2.692612097252414e-01 -5.451702621565517e-01 0.000000000000000e+00
					-1.346306048626207e-01 -5.468322228330691e-01 0.000000000000000e+00
					-1.459738940502069e-01 -6.148820248566897e-01 0.000000000000000e+00
					1.040834085586084e-17 -6.169477881004138e-01 0.000000000000000e+00
					-1.346306048626207e-01 -5.468322228330691e-01 0.000000000000000e+00
					3.469446951953614e-18 -5.473862097252414e-01 0.000000000000000e+00
					1.040834085586084e-17 -6.169477881004138e-01 0.000000000000000e+00
					1.459738940502070e-01 -6.148820248566897e-01 0.000000000000000e+00
					3.469446951953614e-18 -5.473862097252414e-01 0.000000000000000e+00
					1.346306048626207e-01 -5.468322228330691e-01 0.000000000000000e+00
					1.459738940502070e-01 -6.148820248566897e-01 0.000000000000000e+00
					2.919477881004139e-01 -6.086847351255174e-01 0.000000000000000e+00
					1.346306048626207e-01 -5.468322228330691e-01 0.000000000000000e+00
					2.692612097252414e-01 -5.451702621565518e-01 0.000000000000000e+00
					2.919477881004139e-01 -6.086847351255174e-01 0.000000000000000e+00
					4.379216821506209e-01 -5.983559189068968e-01 0.000000000000000e+00
					2.692612097252414e-01 -5.451702621565518e-01 0.000000000000000e+00
					4.038918145878622e-01 -5.424003276956898e-01 0.000000000000000e+00
					4.379216821506209e-01 -5.983559189068968e-01 0.000000000000000e+00
					5.838955762008278e-01 -5.838955762008278e-01 0.000000000000000e+00
					4.038918145878622e-01 -5.424003276956898e-01 0.000000000000000e+00
					5.385224194504830e-01 -5.385224194504830e-01 0.000000000000000e+00
					-5.385224194504830e-01 -5.385224194504830e-01 0.000000000000000e+00
					-4.038918145878622e-01 -5.424003276956898e-01 0.000000000000000e+00
					-5.000000000000000e-01 -5.000000000000000e-01 0.000000000000000e+00
					-3.750000000000000e-01 -5.000000000000000e-01 0.000000000000000e+00
					-4.038918145878622e-01 -5.424003276956898e-01 0.000000000000000e+00
					-2.692612097252414e-01 -5.451702621565517e-01 0.000000000000000e+00
					-3.750000000000000e-01 -5.000000000000000e-01 0.000000000000000e+00
					-2.500000000000000e-01 -5.000000000000000e-01 0.000000000000000e+00
					-2.692612097252414e-01 -5.451702621565517e-01 0.000000000000000e+00
					-1.346306048626207e-01 -5.468322228330691e-01 0.000000000000000e+00
					-2.500000000000000e-01 -5.000000000000000e-01 0.000000000000000e+00
					-1.250000000000000e-01 -5.000000000000000e-01 0.000000000000000e+00
					-1.346306048626207e-01 -5.468322228330691e-01 0.000000000000000e+00
					3.469446951953614e-18 -5.473862097252414e-01 0.000000000000000e+00
					-1.250000000000000e-01 -5.000000000000000e-01 0.000000000000000e+00
					0.000000000000000e+00 -5.000000000000000e-01 0.000000000000000e+00
					3.469446951953614e-18 -5.473862097252414e-01 0.000000000000000e+00
					1.346306048626207e-01 -5.468322228330691e-01 0.000000000000000e+00
					0.000000000000000e+00 -5.000000000000000e-01 0.000000000000000e+00
					1.250000000000000e-01 -5.000000000000000e-01 0.000000000000000e+00
					1.346306048626207e-01 -5.468322228330691e-01 0.000000000000000e+00
					2.692612097252414e-01 -5.451702621565518e-01 0.000000000000000e+00
					1.250000000000000e-01 -5.000000000000000e-01 0.000000000000000e+00
					2.500000000000000e-01 -5.000000000000000e-01 0.000000000000000e+00
					2.692612097252414e-01 -5.451702621565518e-01 0.000000000000000e+00
					4.038918145878622e-01 -5.424003276956898e-01 0.000000000000000e+00
					2.500000000000000e-01 -5.000000000000000e-01 0.000000000000000e+00
					3.750000000000000e-01 -5.000000000000000e-01 0.000000000000000e+00
					4.038918145878622e-01 -5.424003276956898e-01 0.000000000000000e+00
					5.385224194504830e-01 -5.385224194504830e-01 0.000000000000000e+00
					3.750000000000000e-01 -5.000000000000000e-01 0.000000000000000e+00
					5.000000000000000e-01 -5.000000000000000e-01 0.000000000000000e+00
				</DataArray>
			</Points>
			<Cells>
				<DataArray Name="connectivity" type="UInt32" format="ascii">
					0 1 3 2 4 5 7 6 8 9 11 10 12 13 15 14 16 17 19 18 20 21 23 22 24 25 27 26 28 29 31 30 32 33 35 34 36 37 39 38 40 41 43 42 44 45 47 46 48 49 51 50 52 53 55 54 56 57 59 58 60 61 63 62 64 65 67 66 68 69 71 70 72 73 75 74 76 77 79 78 80 81 83 82 84 85 87 86 88 89 91 90 92 93 95 94 96 97 99 98 100 101 103 102 104 105 107 106 108 109 111 110 112 113 115 114 116 117 119 118 120 121 123 122 124 125 127 126 128 129 131 130 132 133 135 134 136 137 139 138 140 141 143 142 144 145 147 146 148 149 151 150 152 153 155 154 156 157 159 158 160 161 163 162 164 165 167 166 168 169 171 170 172 173 175 174 176 177 179 178 180 181 183 182 184 185 187 186 188 189 191 190 192 193 195 194 196 197 199 198 200 201 203 202 204 205 207 206 208 209 211 210 212 213 215 214 216 217 219 218 220 221 223 222 224 225 227 226 228 229 231 230 232 233 235 234 236 237 239 238 240 241 243 242 244 245 247 246 248 249 251 250 252 253 255 254 
				</DataArray>
				<DataArray Name="offsets" type="UInt32" format="ascii">
					4 8 12 16 20 24 28 32 36 40 44 48 52 56 60 64 68 72 76 80 84 88 92 96 100 104 108 112 116 120 124 128 132 136 140 144 148 152 156 160 164 168 172 176 180 184 188 192 196 200 204 208 212 216 220 224 228 232 236 240 244 248 252 256 
				</DataArray>
				<DataArray Name="types" type="UInt8" format="ascii">
					9 9 9 9 9 9 9 9 9 9 9 9 9 9 9 9 9 9 9 9 9 9 9 9 9 9 9 9 9 9 9 9 9 9 9 9 9 9 9 9 9 9 9 9 9 9 9 9 9 9 9 9 9 9 9 9 9 9 9 9 9 9 9 9 
				</DataArray>
			</Cells>
			<PointData Vectors="solution ">
				<DataArray Name="solution" type="Float64" NumberOfComponents="1" format="ascii">
					0.000000000000000e+00 0.000000000000000e+00 2.756502303117762e-02 3.644496867847015e-02 0.000000000000000e+00 0.000000000000000e+00 3.644496867847015e-02 3.480610377137041e-02 0.000000000000000e+00 0.000000000000000e+00 3.480610377137041e-02 3.545871599967169e-02 0.000000000000000e+00 0.000000000000000e+00 3.545871599967170e-02 3.969421109362409e-02 0.000000000000000e+00 0.000000000000000e+00 3.969421109362409e-02 5.067167691382163e-02 0.000000000000000e+00 0.000000000000000e+00 5.067167691382164e-02 7.325070252383904e-02 0.000000000000000e+00 0.000000000000000e+00 7.325070252383906e-02 1.095126638697774e-01 0.000000000000000e+00 0.000000000000000e+00 1.095126638697774e-01 1.030080801392498e-01 2.756502303117763e-02 3.644496867847015e-02 1.113295964816711e-01 1.378861821648209e-01 3.644496867847016e-02 3.480610377137042e-02 1.378861821648209e-01 1.438295085747164e-01 3.480610377137042e-02 3.545871599967170e-02 1.438295085747164e-01 1.569403221698462e-01 3.545871599967171e-02 3.969421109362409e-02 1.569403221698463e-01 1.808572069665760e-01 3.969421109362410e-02 5.067167691382164e-02 1.808572069665760e-01 2.232473274559288e-01 5.067167691382165e-02 7.325070252383906e-02 2.232473274559288e-01 2.999177495329845e-01 7.325070252383906e-02 1.095126638697774e-01 2.999177495329846e-01 4.017310526732048e-01 1.095126638697774e-01 1.030080801392498e-01 4.017310526732048e-01 3.964468856722497e-01 1.113295964816711e-01 1.378861821648209e-01 2.529196041543117e-01 3.161604242507785e-01 1.378861821648209e-01 1.438295085747164e-01 3.161604242507786e-01 3.663709832340337e-01 1.438295085747164e-01 1.569403221698463e-01 3.663709832340337e-01 4.358582288044988e-01 1.569403221698463e-01 1.808572069665760e-01 4.358582288044988e-01 5.129168466673494e-01 1.808572069665760e-01 2.232473274559288e-01 5.129168466673495e-01 6.028288029756760e-01 2.232473274559288e-01 2.999177495329846e-01 6.028288029756760e-01 7.288658385669322e-01 2.999177495329846e-01 4.017310526732049e-01 7.288658385669324e-01 8.758689172658158e-01 4.017310526732049e-01 3.964468856722498e-01 8.758689172658158e-01 8.569401246612824e-01 2.529196041543118e-01 3.161604242507786e-01 4.539897224300226e-01 5.942755922284012e-01 3.161604242507786e-01 3.663709832340337e-01 5.942755922284012e-01 7.634087627207974e-01 3.663709832340337e-01 4.358582288044988e-01 7.634087627207974e-01 9.687425765898292e-01 4.358582288044989e-01 5.129168466673495e-01 9.687425765898294e-01 1.151692942912494e+00 5.129168466673495e-01 6.028288029756760e-01 1.151692942912494e+00 1.296157840369021e+00 6.028288029756761e-01 7.288658385669324e-01 1.296157840369021e+00 1.428898437192903e+00 7.288658385669325e-01 8.758689172658159e-01 1.428898437192903e+00 1.545829724049056e+00 8.758689172658161e-01 8.569401246612826e-01 1.545829724049056e+00 1.461117595491466e+00 4.539897224300227e-01 5.942755922284012e-01 7.162224814734038e-01 9.908863324916333e-01 5.942755922284012e-01 7.634087627207976e-01 9.908863324916334e-01 1.372318376362981e+00 7.634087627207976e-01 9.687425765898294e-01 1.372318376362981e+00 1.797077526869660e+00 9.687425765898297e-01 1.151692942912494e+00 1.797077526869661e+00 2.137716518716181e+00 1.151692942912494e+00 1.296157840369021e+00 2.137716518716181e+00 2.337718923363913e+00 1.296157840369021e+00 1.428898437192903e+00 2.337718923363914e+00 2.420938925123198e+00 1.428898437192904e+00 1.545829724049056e+00 2.420938925123198e+00 2.410410415344587e+00 1.545829724049056e+00 1.461117595491466e+00 2.410410415344587e+00 2.185620463531894e+00 7.162224814734039e-01 9.908863324916334e-01 1.041329303583205e+00 1.511372981270521e+00 9.908863324916334e-01 1.372318376362981e+00 1.511372981270521e+00 2.170000327115516e+00 1.372318376362981e+00 1.797077526869661e+00 2.170000327115516e+00 2.850893009238563e+00 1.797077526869661e+00 2.137716518716181e+00 2.850893009238564e+00 3.373893130368884e+00 2.137716518716181e+00 2.337718923363914e+00 3.373893130368885e+00 3.630511109534145e+00 2.337718923363914e+00 2.420938925123198e+00 3.630511109534145e+00 3.636275036485372e+00 2.420938925123199e+00 2.410410415344588e+00 3.636275036485372e+00 3.438094281379978e+00 2.410410415344588e+00 2.185620463531894e+00 3.438094281379978e+00 3.007107765618917e+00 1.041329303583205e+00 1.511372981270521e+00 1.431053551505076e+00 2.135804487363672e+00 1.511372981270521e+00 2.170000327115516e+00 2.135804487363672e+00 3.055702786900742e+00 2.170000327115516e+00 2.850893009238564e+00 3.055702786900743e+00 3.958228345213335e+00 2.850893009238564e+00 3.373893130368885e+00 3.958228345213335e+00 4.645863943411394e+00 3.373893130368885e+00 3.630511109534145e+00 4.645863943411395e+00 4.962617582701233e+00 3.630511109534145e+00 3.636275036485373e+00 4.962617582701233e+00 4.912390707894548e+00 3.636275036485373e+00 3.438094281379978e+00 4.912390707894549e+00 4.551002331839618e+00 3.438094281379979e+00 3.007107765618918e+00 4.551002331839618e+00 3.902263536318799e+00 1.431053551505076e+00 2.135804487363672e+00 1.887168393631246e+00 2.795933653788629e+00 2.135804487363673e+00 3.055702786900743e+00 2.795933653788629e+00 3.872488446781748e+00 3.055702786900743e+00 3.958228345213335e+00 3.872488446781749e+00 4.909536587249653e+00 3.958228345213336e+00 4.645863943411395e+00 4.909536587249654e+00 5.699197371320842e+00 4.645863943411395e+00 4.962617582701233e+00 5.699197371320842e+00 6.075872082547445e+00 4.962617582701233e+00 4.912390707894549e+00 6.075872082547447e+00 6.035748257291011e+00 4.912390707894549e+00 4.551002331839618e+00 6.035748257291011e+00 5.614150925343099e+00 4.551002331839618e+00 3.902263536318799e+00 5.614150925343100e+00 4.847798964104252e+00 
				</DataArray>
			</PointData>
			<CellData>
			</CellData>
		</Piece>
	</UnstructuredGrid>
</VTKFile>