<?xml version="1.0"?>
<VTKFile type="UnstructuredGrid" byte_order="LittleEndian">
	<UnstructuredGrid>
		<Piece NumberOfPoints="64" NumberOfCells="16">
			<Points>
				<DataArray type="Float64" NumberOfComponents="3" format="ascii">
					1.000000000000000e+00 -1.000000000000000e+00 0.000000000000000e+00
					1.375000000000000e+00 -5.000000000000000e-01 0.000000000000000e+00
					8.338955762008279e-01 -8.338955762008279e-01 0.000000000000000e+00
					1.044833076200828e+00 -4.169477881004139e-01 0.000000000000000e+00
					1.375000000000000e+00 -5.000000000000000e-01 0.000000000000000e+00
					1.500000000000000e+00 1.387778780781446e-17 0.000000000000000e+00
					1.044833076200828e+00 -4.169477881004139e-01 0.000000000000000e+00
					1.115145576200828e+00 6.938893903907228e-18 0.000000000000000e+00
					1.500000000000000e+00 1.387778780781446e-17 0.000000000000000e+00
					1.375000000000000e+00 5.000000000000000e-01 0.000000000000000e+00
					1.115145576200828e+00 6.938893903907228e-18 0.000000000000000e+00
					1.044833076200828e+00 4.169477881004139e-01 0.000000000000000e+00
					1.375000000000000e+00 5.000000000000000e-01 0.000000000000000e+00
					1.000000000000000e+00 1.000000000000000e+00 0.000000000000000e+00
					1.044833076200828e+00 4.169477881004139e-01 0.000000000000000e+00
					8.338955762008279e-01 8.338955762008279e-01 0.000000000000000e+00
					8.338955762008279e-01 -8.338955762008279e-01 0.000000000000000e+00
					1.044833076200828e+00 -4.169477881004139e-01 0.000000000000000e+00
					6.951941016011038e-01 -6.951941016011038e-01 0.000000000000000e+00
					7.889441016011038e-01 -3.475970508005519e-01 0.000000000000000e+00
					1.044833076200828e+00 -4.169477881004139e-01 0.000000000000000e+00
					1.115145576200828e+00 6.938893903907228e-18 0.000000000000000e+00
					7.889441016011038e-01 -3.475970508005519e-01 0.000000000000000e+00
					8.201941016011038e-01 0.000000000000000e+00 0.000000000000000e+00
					1.115145576200828e+00 6.938893903907228e-18 0.000000000000000e+00
					1.044833076200828e+00 4.169477881004139e-01 0.000000000000000e+00
					8.201941016011038e-01 0.000000000000000e+00 0.000000000000000e+00
					7.889441016011038e-01 3.475970508005519e-01 0.000000000000000e+00
					1.044833076200828e+00 4.169477881004139e-01 0.000000000000000e+00
					8.338955762008279e-01 8.338955762008279e-01 0.000000000000000e+00
					7.889441016011038e-01 3.475970508005519e-01 0.000000000000000e+00
					6.951941016011038e-01 6.951941016011038e-01 0.000000000000000e+00
					6.951941016011038e-01 -6.951941016011038e-01 0.000000000000000e+00
					7.889441016011038e-01 -3.475970508005519e-01 0.000000000000000e+00
					5.838955762008279e-01 -5.838955762008279e-01 0.000000000000000e+00
					6.073330762008279e-01 -2.919477881004139e-01 0.000000000000000e+00
					7.889441016011038e-01 -3.475970508005519e-01 0.000000000000000e+00
					8.201941016011038e-01 0.000000000000000e+00 0.000000000000000e+00
					6.073330762008279e-01 -2.919477881004139e-01 0.000000000000000e+00
					6.151455762008279e-01 6.938893903907228e-18 0.000000000000000e+00
					8.201941016011038e-01 0.000000000000000e+00 0.000000000000000e+00
					7.889441016011038e-01 3.475970508005519e-01 0.000000000000000e+00
					6.151455762008279e-01 6.938893903907228e-18 0.000000000000000e+00
					6.073330762008279e-01 2.919477881004139e-01 0.000000000000000e+00
					7.889441016011038e-01 3.475970508005519e-01 0.000000000000000e+00
					6.951941016011038e-01 6.951941016011038e-01 0.000000000000000e+00
					6.073330762008279e-01 2.919477881004139e-01 0.000000000000000e+00
					5.838955762008279e-01 5.838955762008279e-01 0.000000000000000e+00
					5.838955762008279e-01 -5.838955762008279e-01 0.000000000000000e+00
					6.073330762008279e-01 -2.919477881004139e-01 0.000000000000000e+00
					5.000000000000000e-01 -5.000000000000000e-01 0.000000000000000e+00
					5.000000000000000e-01 -2.500000000000000e-01 0.000000000000000e+00
					6.073330762008279e-01 -2.919477881004139e-01 0.000000000000000e+00
					6.151455762008279e-01 6.938893903907228e-18 0.000000000000000e+00
					5.000000000000000e-01 -2.500000000000000e-01 0.000000000000000e+00
					5.000000000000000e-01 6.938893903907228e-18 0.000000000000000e+00
					6.151455762008279e-01 6.938893903907228e-18 0.000000000000000e+00
					6.073330762008279e-01 2.919477881004139e-01 0.000000000000000e+00
					5.000000000000000e-01 6.938893903907228e-18 0.000000000000000e+00
					5.000000000000000e-01 2.500000000000000e-01 0.000000000000000e+00
					6.073330762008279e-01 2.919477881004139e-01 0.000000000000000e+00
					5.838955762008279e-01 5.838955762008279e-01 0.000000000000000e+00
					5.000000000000000e-01 2.500000000000000e-01 0.000000000000000e+00
					5.000000000000000e-01 5.000000000000000e-01 0.000000000000000e+00
				</DataArray>
			</Points>
			<Cells>
				<DataArray Name="connectivity" type="UInt32" format="ascii">
					0 1 3 2 4 5 7 6 8 9 11 10 12 13 15 14 16 17 19 18 20 21 23 22 24 25 27 26 28 29 31 30 32 33 35 34 36 37 39 38 40 41 43 42 44 45 47 46 48 49 51 50 52 53 55 54 56 57 59 58 60 61 63 62 
				</DataArray>
				<DataArray Name="offsets" type="UInt32" format="ascii">
					4 8 12 16 20 24 28 32 36 40 44 48 52 56 60 64 
				</DataArray>
				<DataArray Name="types" type="UInt8" format="ascii">
					9 9 9 9 9 9 9 9 9 9 9 9 9 9 9 9 
				</DataArray>
			</Cells>
			<PointData Vectors="solution ">
				<DataArray Name="solution" type="Float64" NumberOfComponents="1" format="ascii">
					0.000000000000000e+00 0.000000000000000e+00 7.132760784535708e-02 5.666856071583334e-01 0.000000000000000e+00 0.000000000000000e+00 5.666856071583335e-01 1.891377143339149e+00 0.000000000000000e+00 0.000000000000000e+00 1.891377143339149e+00 2.972766249721352e+00 0.000000000000000e+00 0.000000000000000e+00 2.972766249721352e+00 2.031837813149337e+00 7.132760784535708e-02 5.666856071583335e-01 7.323559316009699e-01 3.849553122036673e+00 5.666856071583335e-01 1.891377143339149e+00 3.849553122036673e+00 1.033450748788153e+01 1.891377143339150e+00 2.972766249721353e+00 1.033450748788153e+01 1.543864494309100e+01 2.972766249721353e+00 2.031837813149338e+00 1.543864494309100e+01 1.172648346246384e+01 7.323559316009700e-01 3.849553122036673e+00 2.309260452550662e+00 8.536693415405029e+00 3.849553122036674e+00 1.033450748788154e+01 8.536693415405029e+00 1.914863929843555e+01 1.033450748788154e+01 1.543864494309100e+01 1.914863929843555e+01 2.745542616266160e+01 1.543864494309100e+01 1.172648346246384e+01 2.745542616266160e+01 2.390670191908237e+01 2.309260452550663e+00 8.536693415405029e+00 4.396244459124763e+00 1.215772511543071e+01 8.536693415405031e+00 1.914863929843555e+01 1.215772511543072e+01 2.357387749239980e+01 1.914863929843555e+01 2.745542616266160e+01 2.357387749239980e+01 3.305467583732491e+01 2.745542616266161e+01 2.390670191908237e+01 3.305467583732491e+01 3.245884814638742e+01 
				</DataArray>
			</PointData>
			<CellData>
			</CellData>
		</Piece>
	</UnstructuredGrid>
</VTKFile>