<?xml version="1.0"?>
<VTKFile type="UnstructuredGrid" byte_order="LittleEndian">
	<UnstructuredGrid>
		<Piece NumberOfPoints="256" NumberOfCells="64">
			<Points>
				<DataArray type="Float64" NumberOfComponents="3" format="ascii">
					-1.000000000000000e+00 1.000000000000000e+00 0.000000000000000e+00
					-9.135224194504830e-01 9.135224194504830e-01 0.000000000000000e+00
					-7.500000000000000e-01 1.218750000000000e+00 0.000000000000000e+00
					-6.851418145878622e-01 1.081002888200483e+00 0.000000000000000e+00
					-9.135224194504830e-01 9.135224194504830e-01 0.000000000000000e+00
					-8.338955762008279e-01 8.338955762008279e-01 0.000000000000000e+00
					-6.851418145878622e-01 1.081002888200483e+00 0.000000000000000e+00
					-6.254216821506209e-01 9.569424512008280e-01 0.000000000000000e+00
					-8.338955762008279e-01 8.338955762008279e-01 0.000000000000000e+00
					-7.611194702510349e-01 7.611194702510349e-01 0.000000000000000e+00
					-6.254216821506209e-01 9.569424512008280e-01 0.000000000000000e+00
					-5.708396026882762e-01 8.465686890010349e-01 0.000000000000000e+00
					-7.611194702510349e-01 7.611194702510349e-01 0.000000000000000e+00
					-6.951941016011038e-01 6.951941016011038e-01 0.000000000000000e+00
					-5.708396026882762e-01 8.465686890010349e-01 0.000000000000000e+00
					-5.213955762008279e-01 7.498816016011038e-01 0.000000000000000e+00
					-6.951941016011038e-01 6.951941016011038e-01 0.000000000000000e+00
					-6.361194702510349e-01 6.361194702510349e-01 0.000000000000000e+00
					-5.213955762008279e-01 7.498816016011038e-01 0.000000000000000e+00
					-4.770896026882761e-01 6.668811890010349e-01 0.000000000000000e+00
					-6.361194702510349e-01 6.361194702510349e-01 0.000000000000000e+00
					-5.838955762008278e-01 5.838955762008278e-01 0.000000000000000e+00
					-4.770896026882761e-01 6.668811890010349e-01 0.000000000000000e+00
					-4.379216821506209e-01 5.975674512008279e-01 0.000000000000000e+00
					-5.838955762008278e-01 5.838955762008278e-01 0.000000000000000e+00
					-5.385224194504830e-01 5.385224194504830e-01 0.000000000000000e+00
					-4.379216821506209e-01 5.975674512008279e-01 0.000000000000000e+00
					-4.038918145878622e-01 5.419403882004830e-01 0.000000000000000e+00
					-5.385224194504830e-01 5.385224194504830e-01 0.000000000000000e+00
					-5.000000000000000e-01 5.000000000000000e-01 0.000000000000000e+00
					-4.038918145878622e-01 5.419403882004830e-01 0.000000000000000e+00
					-3.750000000000000e-01 5.000000000000000e-01 0.000000000000000e+00
					-7.500000000000000e-01 1.218750000000000e+00 0.000000000000000e+00
					-6.851418145878622e-01 1.081002888200483e+00 0.000000000000000e+00
					-5.000000000000000e-01 1.375000000000000e+00 0.000000000000000e+00
					-4.567612097252415e-01 1.200631794450483e+00 0.000000000000000e+00
					-6.851418145878622e-01 1.081002888200483e+00 0.000000000000000e+00
					-6.254216821506209e-01 9.569424512008280e-01 0.000000000000000e+00
					-4.567612097252415e-01 1.200631794450483e+00 0.000000000000000e+00
					-4.169477881004140e-01 1.044833076200828e+00 0.000000000000000e+00
					-6.254216821506209e-01 9.569424512008280e-01 0.000000000000000e+00
					-5.708396026882762e-01 8.465686890010349e-01 0.000000000000000e+00
					-4.169477881004140e-01 1.044833076200828e+00 0.000000000000000e+00
					-3.805597351255174e-01 9.076038452510349e-01 0.000000000000000e+00
					-5.708396026882762e-01 8.465686890010349e-01 0.000000000000000e+00
					-5.213955762008279e-01 7.498816016011038e-01 0.000000000000000e+00
					-3.805597351255174e-01 9.076038452510349e-01 0.000000000000000e+00
					-3.475970508005519e-01 7.889441016011038e-01 0.000000000000000e+00
					-5.213955762008279e-01 7.498816016011038e-01 0.000000000000000e+00
					-4.770896026882761e-01 6.668811890010349e-01 0.000000000000000e+00
					-3.475970508005519e-01 7.889441016011038e-01 0.000000000000000e+00
					-3.180597351255174e-01 6.888538452510349e-01 0.000000000000000e+00
					-4.770896026882761e-01 6.668811890010349e-01 0.000000000000000e+00
					-4.379216821506209e-01 5.975674512008279e-01 0.000000000000000e+00
					-3.180597351255174e-01 6.888538452510349e-01 0.000000000000000e+00
					-2.919477881004139e-01 6.073330762008279e-01 0.000000000000000e+00
					-4.379216821506209e-01 5.975674512008279e-01 0.000000000000000e+00
					-4.038918145878622e-01 5.419403882004830e-01 0.000000000000000e+00
					-2.919477881004139e-01 6.073330762008279e-01 0.000000000000000e+00
					-2.692612097252414e-01 5.443817944504830e-01 0.000000000000000e+00
					-4.038918145878622e-01 5.419403882004830e-01 0.000000000000000e+00
					-3.750000000000000e-01 5.000000000000000e-01 0.000000000000000e+00
					-2.692612097252414e-01 5.443817944504830e-01 0.000000000000000e+00
					-2.500000000000000e-01 5.000000000000000e-01 0.000000000000000e+00
					-5.000000000000000e-01 1.375000000000000e+00 0.000000000000000e+00
					-4.567612097252415e-01 1.200631794450483e+00 0.000000000000000e+00
					-2.500000000000000e-01 1.468750000000000e+00 0.000000000000000e+00
					-2.283806048626207e-01 1.272409138200483e+00 0.000000000000000e+00
					-4.567612097252415e-01 1.200631794450483e+00 0.000000000000000e+00
					-4.169477881004140e-01 1.044833076200828e+00 0.000000000000000e+00
					-2.283806048626207e-01 1.272409138200483e+00 0.000000000000000e+00
					-2.084738940502069e-01 1.097567451200828e+00 0.000000000000000e+00
					-4.169477881004140e-01 1.044833076200828e+00 0.000000000000000e+00
					-3.805597351255174e-01 9.076038452510349e-01 0.000000000000000e+00
					-2.084738940502069e-01 1.097567451200828e+00 0.000000000000000e+00
					-1.902798675627587e-01 9.442249390010349e-01 0.000000000000000e+00
					-3.805597351255174e-01 9.076038452510349e-01 0.000000000000000e+00
					-3.475970508005519e-01 7.889441016011038e-01 0.000000000000000e+00
					-1.902798675627587e-01 9.442249390010349e-01 0.000000000000000e+00
					-1.737985254002759e-01 8.123816016011038e-01 0.000000000000000e+00
					-3.475970508005519e-01 7.889441016011038e-01 0.000000000000000e+00
					-3.180597351255174e-01 6.888538452510349e-01 0.000000000000000e+00
					-1.737985254002759e-01 8.123816016011038e-01 0.000000000000000e+00
					-1.590298675627587e-01 7.020374390010349e-01 0.000000000000000e+00
					-3.180597351255174e-01 6.888538452510349e-01 0.000000000000000e+00
					-2.919477881004139e-01 6.073330762008279e-01 0.000000000000000e+00
					-1.590298675627587e-01 7.020374390010349e-01 0.000000000000000e+00
					-1.459738940502069e-01 6.131924512008279e-01 0.000000000000000e+00
					-2.919477881004139e-01 6.073330762008279e-01 0.000000000000000e+00
					-2.692612097252414e-01 5.443817944504830e-01 0.000000000000000e+00
					-1.459738940502069e-01 6.131924512008279e-01 0.000000000000000e+00
					-1.346306048626207e-01 5.458466382004830e-01 0.000000000000000e+00
					-2.692612097252414e-01 5.443817944504830e-01 0.000000000000000e+00
					-2.500000000000000e-01 5.000000000000000e-01 0.000000000000000e+00
					-1.346306048626207e-01 5.458466382004830e-01 0.000000000000000e+00
					-1.250000000000000e-01 5.000000000000000e-01 0.000000000000000e+00
					-2.500000000000000e-01 1.468750000000000e+00 0.000000000000000e+00
					-2.283806048626207e-01 1.272409138200483e+00 0.000000000000000e+00
					0.000000000000000e+00 1.500000000000000e+00 0.000000000000000e+00
					4.857225732735060e-17 1.296334919450483e+00 0.000000000000000e+00
					-2.283806048626207e-01 1.272409138200483e+00 0.000000000000000e+00
					-2.084738940502069e-01 1.097567451200828e+00 0.000000000000000e+00
					4.857225732735060e-17 1.296334919450483e+00 0.000000000000000e+00
					3.469446951953614e-17 1.115145576200828e+00 0.000000000000000e+00
					-2.084738940502069e-01 1.097567451200828e+00 0.000000000000000e+00
					-1.902798675627587e-01 9.442249390010349e-01 0.000000000000000e+00
					3.469446951953614e-17 1.115145576200828e+00 0.000000000000000e+00
					4.163336342344337e-17 9.564319702510349e-01 0.000000000000000e+00
					-1.902798675627587e-01 9.442249390010349e-01 0.000000000000000e+00
					-1.737985254002759e-01 8.123816016011038e-01 0.000000000000000e+00
					4.163336342344337e-17 9.564319702510349e-01 0.000000000000000e+00
					4.163336342344337e-17 8.201941016011038e-01 0.000000000000000e+00
					-1.737985254002759e-01 8.123816016011038e-01 0.000000000000000e+00
					-1.590298675627587e-01 7.020374390010349e-01 0.000000000000000e+00
					4.163336342344337e-17 8.201941016011038e-01 0.000000000000000e+00
					3.816391647148976e-17 7.064319702510349e-01 0.000000000000000e+00
					-1.590298675627587e-01 7.020374390010349e-01 0.000000000000000e+00
					-1.459738940502069e-01 6.131924512008279e-01 0.000000000000000e+00
					3.816391647148976e-17 7.064319702510349e-01 0.000000000000000e+00
					2.428612866367530e-17 6.151455762008279e-01 0.000000000000000e+00
					-1.459738940502069e-01 6.131924512008279e-01 0.000000000000000e+00
					-1.346306048626207e-01 5.458466382004830e-01 0.000000000000000e+00
					2.428612866367530e-17 6.151455762008279e-01 0.000000000000000e+00
					2.428612866367530e-17 5.463349194504830e-01 0.000000000000000e+00
					-1.346306048626207e-01 5.458466382004830e-01 0.000000000000000e+00
					-1.250000000000000e-01 5.000000000000000e-01 0.000000000000000e+00
					2.428612866367530e-17 5.463349194504830e-01 0.000000000000000e+00
					0.000000000000000e+00 5.000000000000000e-01 0.000000000000000e+00
					0.000000000000000e+00 1.500000000000000e+00 0.000000000000000e+00
					4.857225732735060e-17 1.296334919450483e+00 0.000000000000000e+00
					2.500000000000000e-01 1.468750000000000e+00 0.000000000000000e+00
					2.283806048626208e-01 1.272409138200483e+00 0.000000000000000e+00
					4.857225732735060e-17 1.296334919450483e+00 0.000000000000000e+00
					3.469446951953614e-17 1.115145576200828e+00 0.000000000000000e+00
					2.283806048626208e-01 1.272409138200483e+00 0.000000000000000e+00
					2.084738940502070e-01 1.097567451200828e+00 0.000000000000000e+00
					3.469446951953614e-17 1.115145576200828e+00 0.000000000000000e+00
					4.163336342344337e-17 9.564319702510349e-01 0.000000000000000e+00
					2.084738940502070e-01 1.097567451200828e+00 0.000000000000000e+00
					1.902798675627588e-01 9.442249390010349e-01 0.000000000000000e+00
					4.163336342344337e-17 9.564319702510349e-01 0.000000000000000e+00
					4.163336342344337e-17 8.201941016011038e-01 0.000000000000000e+00
					1.902798675627588e-01 9.442249390010349e-01 0.000000000000000e+00
					1.737985254002760e-01 8.123816016011038e-01 0.000000000000000e+00
					4.163336342344337e-17 8.201941016011038e-01 0.000000000000000e+00
					3.816391647148976e-17 7.064319702510349e-01 0.000000000000000e+00
					1.737985254002760e-01 8.123816016011038e-01 0.000000000000000e+00
					1.590298675627588e-01 7.020374390010349e-01 0.000000000000000e+00
					3.816391647148976e-17 7.064319702510349e-01 0.000000000000000e+00
					2.428612866367530e-17 6.151455762008279e-01 0.000000000000000e+00
					1.590298675627588e-01 7.020374390010349e-01 0.000000000000000e+00
					1.459738940502070e-01 6.131924512008278e-01 0.000000000000000e+00
					2.428612866367530e-17 6.151455762008279e-01 0.000000000000000e+00
					2.428612866367530e-17 5.463349194504830e-01 0.000000000000000e+00
					1.459738940502070e-01 6.131924512008278e-01 0.000000000000000e+00
					1.346306048626208e-01 5.458466382004830e-01 0.000000000000000e+00
					2.428612866367530e-17 5.463349194504830e-01 0.000000000000000e+00
					0.000000000000000e+00 5.000000000000000e-01 0.000000000000000e+00
					1.346306048626208e-01 5.458466382004830e-01 0.000000000000000e+00
					1.250000000000000e-01 5.000000000000000e-01 0.000000000000000e+00
					2.500000000000000e-01 1.468750000000000e+00 0.000000000000000e+00
					2.283806048626208e-01 1.272409138200483e+00 0.000000000000000e+00
					5.000000000000000e-01 1.375000000000000e+00 0.000000000000000e+00
					4.567612097252415e-01 1.200631794450483e+00 0.000000000000000e+00
					2.283806048626208e-01 1.272409138200483e+00 0.000000000000000e+00
					2.084738940502070e-01 1.097567451200828e+00 0.000000000000000e+00
					4.567612097252415e-01 1.200631794450483e+00 0.000000000000000e+00
					4.169477881004139e-01 1.044833076200828e+00 0.000000000000000e+00
					2.084738940502070e-01 1.097567451200828e+00 0.000000000000000e+00
					1.902798675627588e-01 9.442249390010349e-01 0.000000000000000e+00
					4.169477881004139e-01 1.044833076200828e+00 0.000000000000000e+00
					3.805597351255174e-01 9.076038452510349e-01 0.000000000000000e+00
					1.902798675627588e-01 9.442249390010349e-01 0.000000000000000e+00
					1.737985254002760e-01 8.123816016011038e-01 0.000000000000000e+00
					3.805597351255174e-01 9.076038452510349e-01 0.000000000000000e+00
					3.475970508005520e-01 7.889441016011038e-01 0.000000000000000e+00
					1.737985254002760e-01 8.123816016011038e-01 0.000000000000000e+00
					1.590298675627588e-01 7.020374390010349e-01 0.000000000000000e+00
					3.475970508005520e-01 7.889441016011038e-01 0.000000000000000e+00
					3.180597351255175e-01 6.888538452510349e-01 0.000000000000000e+00
					1.590298675627588e-01 7.020374390010349e-01 0.000000000000000e+00
					1.459738940502070e-01 6.131924512008278e-01 0.000000000000000e+00
					3.180597351255175e-01 6.888538452510349e-01 0.000000000000000e+00
					2.919477881004140e-01 6.073330762008278e-01 0.000000000000000e+00
					1.459738940502070e-01 6.131924512008278e-01 0.000000000000000e+00
					1.346306048626208e-01 5.458466382004830e-01 0.000000000000000e+00
					2.919477881004140e-01 6.073330762008278e-01 0.000000000000000e+00
					2.692612097252415e-01 5.443817944504830e-01 0.000000000000000e+00
					1.346306048626208e-01 5.458466382004830e-01 0.000000000000000e+00
					1.250000000000000e-01 5.000000000000000e-01 0.000000000000000e+00
					2.692612097252415e-01 5.443817944504830e-01 0.000000000000000e+00
					2.500000000000000e-01 5.000000000000000e-01 0.000000000000000e+00
					5.000000000000000e-01 1.375000000000000e+00 0.000000000000000e+00
					4.567612097252415e-01 1.200631794450483e+00 0.000000000000000e+00
					7.500000000000000e-01 1.218750000000000e+00 0.000000000000000e+00
					6.851418145878622e-01 1.081002888200483e+00 0.000000000000000e+00
					4.567612097252415e-01 1.200631794450483e+00 0.000000000000000e+00
					4.169477881004139e-01 1.044833076200828e+00 0.000000000000000e+00
					6.851418145878622e-01 1.081002888200483e+00 0.000000000000000e+00
					6.254216821506209e-01 9.569424512008279e-01 0.000000000000000e+00
					4.169477881004139e-01 1.044833076200828e+00 0.000000000000000e+00
					3.805597351255174e-01 9.076038452510349e-01 0.000000000000000e+00
					6.254216821506209e-01 9.569424512008279e-01 0.000000000000000e+00
					5.708396026882763e-01 8.465686890010349e-01 0.000000000000000e+00
					3.805597351255174e-01 9.076038452510349e-01 0.000000000000000e+00
					3.475970508005520e-01 7.889441016011038e-01 0.000000000000000e+00
					5.708396026882763e-01 8.465686890010349e-01 0.000000000000000e+00
					5.213955762008280e-01 7.498816016011038e-01 0.000000000000000e+00
					3.475970508005520e-01 7.889441016011038e-01 0.000000000000000e+00
					3.180597351255175e-01 6.888538452510349e-01 0.000000000000000e+00
					5.213955762008280e-01 7.498816016011038e-01 0.000000000000000e+00
					4.770896026882762e-01 6.668811890010349e-01 0.000000000000000e+00
					3.180597351255175e-01 6.888538452510349e-01 0.000000000000000e+00
					2.919477881004140e-01 6.073330762008278e-01 0.000000000000000e+00
					4.770896026882762e-01 6.668811890010349e-01 0.000000000000000e+00
					4.379216821506209e-01 5.975674512008278e-01 0.000000000000000e+00
					2.919477881004140e-01 6.073330762008278e-01 0.000000000000000e+00
					2.692612097252415e-01 5.443817944504830e-01 0.000000000000000e+00
					4.379216821506209e-01 5.975674512008278e-01 0.000000000000000e+00
					4.038918145878622e-01 5.419403882004830e-01 0.000000000000000e+00
					2.692612097252415e-01 5.443817944504830e-01 0.000000000000000e+00
					2.500000000000000e-01 5.000000000000000e-01 0.000000000000000e+00
					4.038918145878622e-01 5.419403882004830e-01 0.000000000000000e+00
					3.750000000000000e-01 5.000000000000000e-01 0.000000000000000e+00
					7.500000000000000e-01 1.218750000000000e+00 0.000000000000000e+00
					6.851418145878622e-01 1.081002888200483e+00 0.000000000000000e+00
					1.000000000000000e+00 1.000000000000000e+00 0.000000000000000e+00
					9.135224194504830e-01 9.135224194504830e-01 0.000000000000000e+00
					6.851418145878622e-01 1.081002888200483e+00 0.000000000000000e+00
					6.254216821506209e-01 9.569424512008279e-01 0.000000000000000e+00
					9.135224194504830e-01 9.135224194504830e-01 0.000000000000000e+00
					8.338955762008279e-01 8.338955762008279e-01 0.000000000000000e+00
					6.254216821506209e-01 9.569424512008279e-01 0.000000000000000e+00
					5.708396026882763e-01 8.465686890010349e-01 0.000000000000000e+00
					8.338955762008279e-01 8.338955762008279e-01 0.000000000000000e+00
					7.611194702510349e-01 7.611194702510349e-01 0.000000000000000e+00
					5.708396026882763e-01 8.465686890010349e-01 0.000000000000000e+00
					5.213955762008280e-01 7.498816016011038e-01 0.000000000000000e+00
					7.611194702510349e-01 7.611194702510349e-01 0.000000000000000e+00
					6.951941016011038e-01 6.951941016011038e-01 0.000000000000000e+00
					5.213955762008280e-01 7.498816016011038e-01 0.000000000000000e+00
					4.770896026882762e-01 6.668811890010349e-01 0.000000000000000e+00
					6.951941016011038e-01 6.951941016011038e-01 0.000000000000000e+00
					6.361194702510349e-01 6.361194702510349e-01 0.000000000000000e+00
					4.770896026882762e-01 6.668811890010349e-01 0.000000000000000e+00
					4.379216821506209e-01 5.975674512008278e-01 0.000000000000000e+00
					6.361194702510349e-01 6.361194702510349e-01 0.000000000000000e+00
					5.838955762008278e-01 5.838955762008278e-01 0.000000000000000e+00
					4.379216821506209e-01 5.975674512008278e-01 0.000000000000000e+00
					4.038918145878622e-01 5.419403882004830e-01 0.000000000000000e+00
					5.838955762008278e-01 5.838955762008278e-01 0.000000000000000e+00
					5.385224194504830e-01 5.385224194504830e-01 0.000000000000000e+00
					4.038918145878622e-01 5.419403882004830e-01 0.000000000000000e+00
					3.750000000000000e-01 5.000000000000000e-01 0.000000000000000e+00
					5.385224194504830e-01 5.385224194504830e-01 0.000000000000000e+00
					5.000000000000000e-01 5.000000000000000e-01 0.000000000000000e+00
				</DataArray>
			</Points>
			<Cells>
				<DataArray Name="connectivity" type="UInt32" format="ascii">
					0 1 3 2 4 5 7 6 8 9 11 10 12 13 15 14 16 17 19 18 20 21 23 22 24 25 27 26 28 29 31 30 32 33 35 34 36 37 39 38 40 41 43 42 44 45 47 46 48 49 51 50 52 53 55 54 56 57 59 58 60 61 63 62 64 65 67 66 68 69 71 70 72 73 75 74 76 77 79 78 80 81 83 82 84 85 87 86 88 89 91 90 92 93 95 94 96 97 99 98 100 101 103 102 104 105 107 106 108 109 111 110 112 113 115 114 116 117 119 118 120 121 123 122 124 125 127 126 128 129 131 130 132 133 135 134 136 137 139 138 140 141 143 142 144 145 147 146 148 149 151 150 152 153 155 154 156 157 159 158 160 161 163 162 164 165 167 166 168 169 171 170 172 173 175 174 176 177 179 178 180 181 183 182 184 185 187 186 188 189 191 190 192 193 195 194 196 197 199 198 200 201 203 202 204 205 207 206 208 209 211 210 212 213 215 214 216 217 219 218 220 221 223 222 224 225 227 226 228 229 231 230 232 233 235 234 236 237 239 238 240 241 243 242 244 245 247 246 248 249 251 250 252 253 255 254 
				</DataArray>
				<DataArray Name="offsets" type="UInt32" format="ascii">
					4 8 12 16 20 24 28 32 36 40 44 48 52 56 60 64 68 72 76 80 84 88 92 96 100 104 108 112 116 120 124 128 132 136 140 144 148 152 156 160 164 168 172 176 180 184 188 192 196 200 204 208 212 216 220 224 228 232 236 240 244 248 252 256 
				</DataArray>
				<DataArray Name="types" type="UInt8" format="ascii">
					9 9 9 9 9 9 9 9 9 9 9 9 9 9 9 9 9 9 9 9 9 9 9 9 9 9 9 9 9 9 9 9 9 9 9 9 9 9 9 9 9 9 9 9 9 9 9 9 9 9 9 9 9 9 9 9 9 9 9 9 9 9 9 9 
				</DataArray>
			</Cells>
			<PointData Vectors="solution ">
				<DataArray Name="solution" type="Float64" NumberOfComponents="1" format="ascii">
					0.000000000000000e+00 9.727570024321464e-02 0.000000000000000e+00 1.628376663620459e-01 9.727570024321466e-02 5.788429869666751e-01 1.628376663620459e-01 1.208111601788834e+00 5.788429869666752e-01 1.590776675872730e+00 1.208111601788834e+00 3.511598121004788e+00 1.590776675872730e+00 3.139883325738131e+00 3.511598121004788e+00 6.697515377881858e+00 3.139883325738132e+00 5.136069341496337e+00 6.697515377881859e+00 1.017884366568185e+01 5.136069341496339e+00 7.421637725874669e+00 1.017884366568185e+01 1.347935800532585e+01 7.421637725874671e+00 9.789614138803774e+00 1.347935800532586e+01 1.629479931631395e+01 9.789614138803776e+00 1.199402201481544e+01 1.629479931631395e+01 1.851402978334824e+01 0.000000000000000e+00 1.628376663620459e-01 0.000000000000000e+00 3.035722361382274e-01 1.628376663620459e-01 1.208111601788834e+00 3.035722361382274e-01 2.419418442857716e+00 1.208111601788834e+00 3.511598121004788e+00 2.419418442857716e+00 6.754202532599307e+00 3.511598121004789e+00 6.697515377881858e+00 6.754202532599309e+00 1.208571441713712e+01 6.697515377881859e+00 1.017884366568185e+01 1.208571441713713e+01 1.709083884821561e+01 1.017884366568185e+01 1.347935800532585e+01 1.709083884821562e+01 2.107261310709035e+01 1.347935800532586e+01 1.629479931631395e+01 2.107261310709036e+01 2.391811074689634e+01 1.629479931631395e+01 1.851402978334824e+01 2.391811074689634e+01 2.583208164729275e+01 0.000000000000000e+00 3.035722361382274e-01 0.000000000000000e+00 5.718612708511102e-01 3.035722361382274e-01 2.419418442857716e+00 5.718612708511102e-01 4.100714166772673e+00 2.419418442857716e+00 6.754202532599308e+00 4.100714166772674e+00 1.078923904721279e+01 6.754202532599309e+00 1.208571441713713e+01 1.078923904721279e+01 1.830452380885019e+01 1.208571441713713e+01 1.709083884821562e+01 1.830452380885020e+01 2.459748655374082e+01 1.709083884821562e+01 2.107261310709036e+01 2.459748655374083e+01 2.894350473825339e+01 2.107261310709036e+01 2.391811074689634e+01 2.894350473825340e+01 3.155909756996009e+01 2.391811074689634e+01 2.583208164729275e+01 3.155909756996011e+01 3.299268434579781e+01 0.000000000000000e+00 5.718612708511103e-01 0.000000000000000e+00 8.333037627890758e-01 5.718612708511103e-01 4.100714166772675e+00 8.333037627890758e-01 5.634179898025330e+00 4.100714166772676e+00 1.078923904721279e+01 5.634179898025332e+00 1.431351107947167e+01 1.078923904721279e+01 1.830452380885020e+01 1.431351107947168e+01 2.357817962242805e+01 1.830452380885020e+01 2.459748655374083e+01 2.357817962242806e+01 3.084753340861607e+01 2.459748655374083e+01 2.894350473825340e+01 3.084753340861608e+01 3.543894538560889e+01 2.894350473825340e+01 3.155909756996011e+01 3.543894538560890e+01 3.785225615687500e+01 3.155909756996011e+01 3.299268434579781e+01 3.785225615687500e+01 3.890924012845198e+01 0.000000000000000e+00 8.333037627890761e-01 0.000000000000000e+00 9.108100306597329e-01 8.333037627890761e-01 5.634179898025333e+00 9.108100306597330e-01 6.246017060264871e+00 5.634179898025334e+00 1.431351107947168e+01 6.246017060264873e+00 1.581726319235644e+01 1.431351107947168e+01 2.357817962242806e+01 1.581726319235644e+01 2.593791297018315e+01 2.357817962242806e+01 3.084753340861608e+01 2.593791297018316e+01 3.382887681144077e+01 3.084753340861609e+01 3.543894538560890e+01 3.382887681144079e+01 3.878189136171749e+01 3.543894538560890e+01 3.785225615687501e+01 3.878189136171750e+01 4.134554131284341e+01 3.785225615687501e+01 3.890924012845198e+01 4.134554131284342e+01 4.240235737714582e+01 0.000000000000000e+00 9.108100306597332e-01 0.000000000000000e+00 7.865979086298598e-01 9.108100306597332e-01 6.246017060264873e+00 7.865979086298599e-01 5.646436470171076e+00 6.246017060264874e+00 1.581726319235644e+01 5.646436470171077e+00 1.453716985866394e+01 1.581726319235645e+01 2.593791297018316e+01 1.453716985866395e+01 2.426161971401167e+01 2.593791297018317e+01 3.382887681144079e+01 2.426161971401168e+01 3.229903789127518e+01 3.382887681144079e+01 3.878189136171750e+01 3.229903789127519e+01 3.777812358092010e+01 3.878189136171751e+01 4.134554131284342e+01 3.777812358092012e+01 4.096646736346544e+01 4.134554131284343e+01 4.240235737714583e+01 4.096646736346544e+01 4.257540040898597e+01 0.000000000000000e+00 7.865979086298599e-01 0.000000000000000e+00 6.971330009829025e-01 7.865979086298601e-01 5.646436470171077e+00 6.971330009829025e-01 4.363850994801846e+00 5.646436470171078e+00 1.453716985866395e+01 4.363850994801846e+00 1.111510532584837e+01 1.453716985866395e+01 2.426161971401168e+01 1.111510532584837e+01 1.903004335228162e+01 2.426161971401169e+01 3.229903789127520e+01 1.903004335228162e+01 2.643144736536044e+01 3.229903789127520e+01 3.777812358092010e+01 2.643144736536044e+01 3.238446600762291e+01 3.777812358092012e+01 4.096646736346545e+01 3.238446600762292e+01 3.656680208951676e+01 4.096646736346545e+01 4.257540040898599e+01 3.656680208951677e+01 3.918648053490048e+01 0.000000000000000e+00 6.971330009829027e-01 0.000000000000000e+00 7.457470512683875e-01 6.971330009829027e-01 4.363850994801846e+00 7.457470512683875e-01 3.211314365291214e+00 4.363850994801846e+00 1.111510532584837e+01 3.211314365291215e+00 7.285495073117208e+00 1.111510532584837e+01 1.903004335228162e+01 7.285495073117209e+00 1.249522797018705e+01 1.903004335228162e+01 2.643144736536044e+01 1.249522797018706e+01 1.822171594122901e+01 2.643144736536044e+01 3.238446600762291e+01 1.822171594122901e+01 2.384043070930588e+01 3.238446600762293e+01 3.656680208951677e+01 2.384043070930588e+01 2.880290911325718e+01 3.656680208951678e+01 3.918648053490049e+01 2.880290911325718e+01 3.267960556128286e+01 
				</DataArray>
			</PointData>
			<CellData>
			</CellData>
		</Piece>
	</UnstructuredGrid>
</VTKFile>