<?xml version="1.0"?>
<VTKFile type="UnstructuredGrid" byte_order="LittleEndian">
	<UnstructuredGrid>
		<Piece NumberOfPoints="64" NumberOfCells="16">
			<Points>
				<DataArray type="Float64" NumberOfComponents="3" format="ascii">
					-1.000000000000000e+00 1.000000000000000e+00 0.000000000000000e+00
					-8.338955762008279e-01 8.338955762008279e-01 0.000000000000000e+00
					-5.000000000000000e-01 1.375000000000000e+00 0.000000000000000e+00
					-4.169477881004139e-01 1.044833076200828e+00 0.000000000000000e+00
					-8.338955762008279e-01 8.338955762008279e-01 0.000000000000000e+00
					-6.951941016011038e-01 6.951941016011038e-01 0.000000000000000e+00
					-4.169477881004139e-01 1.044833076200828e+00 0.000000000000000e+00
					-3.475970508005519e-01 7.889441016011038e-01 0.000000000000000e+00
					-6.951941016011038e-01 6.951941016011038e-01 0.000000000000000e+00
					-5.838955762008279e-01 5.838955762008279e-01 0.000000000000000e+00
					-3.475970508005519e-01 7.889441016011038e-01 0.000000000000000e+00
					-2.919477881004139e-01 6.073330762008279e-01 0.000000000000000e+00
					-5.838955762008279e-01 5.838955762008279e-01 0.000000000000000e+00
					-5.000000000000000e-01 5.000000000000000e-01 0.000000000000000e+00
					-2.919477881004139e-01 6.073330762008279e-01 0.000000000000000e+00
					-2.500000000000000e-01 5.000000000000000e-01 0.000000000000000e+00
					-5.000000000000000e-01 1.375000000000000e+00 0.000000000000000e+00
					-4.169477881004139e-01 1.044833076200828e+00 0.000000000000000e+00
					1.387778780781446e-17 1.500000000000000e+00 0.000000000000000e+00
					2.081668171172169e-17 1.115145576200828e+00 0.000000000000000e+00
					-4.169477881004139e-01 1.044833076200828e+00 0.000000000000000e+00
					-3.475970508005519e-01 7.889441016011038e-01 0.000000000000000e+00
					2.081668171172169e-17 1.115145576200828e+00 0.000000000000000e+00
					0.000000000000000e+00 8.201941016011038e-01 0.000000000000000e+00
					-3.475970508005519e-01 7.889441016011038e-01 0.000000000000000e+00
					-2.919477881004139e-01 6.073330762008279e-01 0.000000000000000e+00
					0.000000000000000e+00 8.201941016011038e-01 0.000000000000000e+00
					1.387778780781446e-17 6.151455762008279e-01 0.000000000000000e+00
					-2.919477881004139e-01 6.073330762008279e-01 0.000000000000000e+00
					-2.500000000000000e-01 5.000000000000000e-01 0.000000000000000e+00
					1.387778780781446e-17 6.151455762008279e-01 0.000000000000000e+00
					6.938893903907228e-18 5.000000000000000e-01 0.000000000000000e+00
					1.387778780781446e-17 1.500000000000000e+00 0.000000000000000e+00
					2.081668171172169e-17 1.115145576200828e+00 0.000000000000000e+00
					5.000000000000000e-01 1.375000000000000e+00 0.000000000000000e+00
					4.169477881004140e-01 1.044833076200828e+00 0.000000000000000e+00
					2.081668171172169e-17 1.115145576200828e+00 0.000000000000000e+00
					0.000000000000000e+00 8.201941016011038e-01 0.000000000000000e+00
					4.169477881004140e-01 1.044833076200828e+00 0.000000000000000e+00
					3.475970508005519e-01 7.889441016011038e-01 0.000000000000000e+00
					0.000000000000000e+00 8.201941016011038e-01 0.000000000000000e+00
					1.387778780781446e-17 6.151455762008279e-01 0.000000000000000e+00
					3.475970508005519e-01 7.889441016011038e-01 0.000000000000000e+00
					2.919477881004139e-01 6.073330762008279e-01 0.000000000000000e+00
					1.387778780781446e-17 6.151455762008279e-01 0.000000000000000e+00
					6.938893903907228e-18 5.000000000000000e-01 0.000000000000000e+00
					2.919477881004139e-01 6.073330762008279e-01 0.000000000000000e+00
					2.500000000000000e-01 5.000000000000000e-01 0.000000000000000e+00
					5.000000000000000e-01 1.375000000000000e+00 0.000000000000000e+00
					4.169477881004140e-01 1.044833076200828e+00 0.000000000000000e+00
					1.000000000000000e+00 1.000000000000000e+00 0.000000000000000e+00
					8.338955762008279e-01 8.338955762008279e-01 0.000000000000000e+00
					4.169477881004140e-01 1.044833076200828e+00 0.000000000000000e+00
					3.475970508005519e-01 7.889441016011038e-01 0.000000000000000e+00
					8.338955762008279e-01 8.338955762008279e-01 0.000000000000000e+00
					6.951941016011038e-01 6.951941016011038e-01 0.000000000000000e+00
					3.475970508005519e-01 7.889441016011038e-01 0.000000000000000e+00
					2.919477881004139e-01 6.073330762008279e-01 0.000000000000000e+00
					6.951941016011038e-01 6.951941016011038e-01 0.000000000000000e+00
					5.838955762008279e-01 5.838955762008279e-01 0.000000000000000e+00
					2.919477881004139e-01 6.073330762008279e-01 0.000000000000000e+00
					2.500000000000000e-01 5.000000000000000e-01 0.000000000000000e+00
					5.838955762008279e-01 5.838955762008279e-01 0.000000000000000e+00
					5.000000000000000e-01 5.000000000000000e-01 0.000000000000000e+00
				</DataArray>
			</Points>
			<Cells>
				<DataArray Name="connectivity" type="UInt32" format="ascii">
					0 1 3 2 4 5 7 6 8 9 11 10 12 13 15 14 16 17 19 18 20 21 23 22 24 25 27 26 28 29 31 30 32 33 35 34 36 37 39 38 40 41 43 42 44 45 47 46 48 49 51 50 52 53 55 54 56 57 59 58 60 61 63 62 
				</DataArray>
				<DataArray Name="offsets" type="UInt32" format="ascii">
					4 8 12 16 20 24 28 32 36 40 44 48 52 56 60 64 
				</DataArray>
				<DataArray Name="types" type="UInt8" format="ascii">
					9 9 9 9 9 9 9 9 9 9 9 9 9 9 9 9 
				</DataArray>
			</Cells>
			<PointData Vectors="solution ">
				<DataArray Name="solution" type="Float64" NumberOfComponents="1" format="ascii">
					0.000000000000000e+00 4.307642646342012e-01 0.000000000000000e+00 2.458225562816060e+00 4.307642646342013e-01 3.032491390153949e+00 2.458225562816061e+00 1.201032359306814e+01 3.032491390153950e+00 7.421717784476565e+00 1.201032359306814e+01 2.103927872066251e+01 7.421717784476566e+00 1.195171929883749e+01 2.103927872066251e+01 2.578188606319268e+01 0.000000000000000e+00 2.458225562816061e+00 0.000000000000000e+00 5.712942434252879e+00 2.458225562816061e+00 1.201032359306814e+01 5.712942434252879e+00 2.345183718063907e+01 1.201032359306814e+01 2.103927872066251e+01 2.345183718063907e+01 3.541023533657971e+01 2.103927872066251e+01 2.578188606319269e+01 3.541023533657972e+01 3.886002581020966e+01 0.000000000000000e+00 5.712942434252879e+00 0.000000000000000e+00 5.578419448427800e+00 5.712942434252881e+00 2.345183718063907e+01 5.578419448427800e+00 2.404914386007154e+01 2.345183718063908e+01 3.541023533657972e+01 2.404914386007155e+01 3.770715098037608e+01 3.541023533657973e+01 3.886002581020967e+01 3.770715098037608e+01 4.248609345254184e+01 0.000000000000000e+00 5.578419448427800e+00 0.000000000000000e+00 2.510428090401472e+00 5.578419448427800e+00 2.404914386007155e+01 2.510428090401473e+00 1.199513217914782e+01 2.404914386007155e+01 3.770715098037608e+01 1.199513217914782e+01 2.385724910911450e+01 3.770715098037608e+01 4.248609345254185e+01 2.385724910911450e+01 3.256573295362087e+01 
				</DataArray>
			</PointData>
			<CellData>
			</CellData>
		</Piece>
	</UnstructuredGrid>
</VTKFile>