<?xml version="1.0"?>
<VTKFile type="UnstructuredGrid" byte_order="LittleEndian">
	<UnstructuredGrid>
		<Piece NumberOfPoints="256" NumberOfCells="64">
			<Points>
				<DataArray type="Float64" NumberOfComponents="3" format="ascii">
					-1.000000000000000e+00 1.000000000000000e+00 0.000000000000000e+00
					-9.135224194504830e-01 9.135224194504830e-01 0.000000000000000e+00
					-7.500000000000000e-01 1.218750000000000e+00 0.000000000000000e+00
					-6.851418145878622e-01 1.081002888200483e+00 0.000000000000000e+00
					-9.135224194504830e-01 9.135224194504830e-01 0.000000000000000e+00
					-8.338955762008279e-01 8.338955762008279e-01 0.000000000000000e+00
					-6.851418145878622e-01 1.081002888200483e+00 0.000000000000000e+00
					-6.254216821506209e-01 9.569424512008280e-01 0.000000000000000e+00
					-8.338955762008279e-01 8.338955762008279e-01 0.000000000000000e+00
					-7.611194702510349e-01 7.611194702510349e-01 0.000000000000000e+00
					-6.254216821506209e-01 9.569424512008280e-01 0.000000000000000e+00
					-5.708396026882762e-01 8.465686890010349e-01 0.000000000000000e+00
					-7.611194702510349e-01 7.611194702510349e-01 0.000000000000000e+00
					-6.951941016011038e-01 6.951941016011038e-01 0.000000000000000e+00
					-5.708396026882762e-01 8.465686890010349e-01 0.000000000000000e+00
					-5.213955762008279e-01 7.498816016011038e-01 0.000000000000000e+00
					-6.951941016011038e-01 6.951941016011038e-01 0.000000000000000e+00
					-6.361194702510349e-01 6.361194702510349e-01 0.000000000000000e+00
					-5.213955762008279e-01 7.498816016011038e-01 0.000000000000000e+00
					-4.770896026882761e-01 6.668811890010349e-01 0.000000000000000e+00
					-6.361194702510349e-01 6.361194702510349e-01 0.000000000000000e+00
					-5.838955762008278e-01 5.838955762008278e-01 0.000000000000000e+00
					-4.770896026882761e-01 6.668811890010349e-01 0.000000000000000e+00
					-4.379216821506209e-01 5.975674512008279e-01 0.000000000000000e+00
					-5.838955762008278e-01 5.838955762008278e-01 0.000000000000000e+00
					-5.385224194504830e-01 5.385224194504830e-01 0.000000000000000e+00
					-4.379216821506209e-01 5.975674512008279e-01 0.000000000000000e+00
					-4.038918145878622e-01 5.419403882004830e-01 0.000000000000000e+00
					-5.385224194504830e-01 5.385224194504830e-01 0.000000000000000e+00
					-5.000000000000000e-01 5.000000000000000e-01 0.000000000000000e+00
					-4.038918145878622e-01 5.419403882004830e-01 0.000000000000000e+00
					-3.750000000000000e-01 5.000000000000000e-01 0.000000000000000e+00
					-7.500000000000000e-01 1.218750000000000e+00 0.000000000000000e+00
					-6.851418145878622e-01 1.081002888200483e+00 0.000000000000000e+00
					-5.000000000000000e-01 1.375000000000000e+00 0.000000000000000e+00
					-4.567612097252415e-01 1.200631794450483e+00 0.000000000000000e+00
					-6.851418145878622e-01 1.081002888200483e+00 0.000000000000000e+00
					-6.254216821506209e-01 9.569424512008280e-01 0.000000000000000e+00
					-4.567612097252415e-01 1.200631794450483e+00 0.000000000000000e+00
					-4.169477881004140e-01 1.044833076200828e+00 0.000000000000000e+00
					-6.254216821506209e-01 9.569424512008280e-01 0.000000000000000e+00
					-5.708396026882762e-01 8.465686890010349e-01 0.000000000000000e+00
					-4.169477881004140e-01 1.044833076200828e+00 0.000000000000000e+00
					-3.805597351255174e-01 9.076038452510349e-01 0.000000000000000e+00
					-5.708396026882762e-01 8.465686890010349e-01 0.000000000000000e+00
					-5.213955762008279e-01 7.498816016011038e-01 0.000000000000000e+00
					-3.805597351255174e-01 9.076038452510349e-01 0.000000000000000e+00
					-3.475970508005519e-01 7.889441016011038e-01 0.000000000000000e+00
					-5.213955762008279e-01 7.498816016011038e-01 0.000000000000000e+00
					-4.770896026882761e-01 6.668811890010349e-01 0.000000000000000e+00
					-3.475970508005519e-01 7.889441016011038e-01 0.000000000000000e+00
					-3.180597351255174e-01 6.888538452510349e-01 0.000000000000000e+00
					-4.770896026882761e-01 6.668811890010349e-01 0.000000000000000e+00
					-4.379216821506209e-01 5.975674512008279e-01 0.000000000000000e+00
					-3.180597351255174e-01 6.888538452510349e-01 0.000000000000000e+00
					-2.919477881004139e-01 6.073330762008279e-01 0.000000000000000e+00
					-4.379216821506209e-01 5.975674512008279e-01 0.000000000000000e+00
					-4.038918145878622e-01 5.419403882004830e-01 0.000000000000000e+00
					-2.919477881004139e-01 6.073330762008279e-01 0.000000000000000e+00
					-2.692612097252414e-01 5.443817944504830e-01 0.000000000000000e+00
					-4.038918145878622e-01 5.419403882004830e-01 0.000000000000000e+00
					-3.750000000000000e-01 5.000000000000000e-01 0.000000000000000e+00
					-2.692612097252414e-01 5.443817944504830e-01 0.000000000000000e+00
					-2.500000000000000e-01 5.000000000000000e-01 0.000000000000000e+00
					-5.000000000000000e-01 1.375000000000000e+00 0.000000000000000e+00
					-4.567612097252415e-01 1.200631794450483e+00 0.000000000000000e+00
					-2.500000000000000e-01 1.468750000000000e+00 0.000000000000000e+00
					-2.283806048626207e-01 1.272409138200483e+00 0.000000000000000e+00
					-4.567612097252415e-01 1.200631794450483e+00 0.000000000000000e+00
					-4.169477881004140e-01 1.044833076200828e+00 0.000000000000000e+00
					-2.283806048626207e-01 1.272409138200483e+00 0.000000000000000e+00
					-2.084738940502069e-01 1.097567451200828e+00 0.000000000000000e+00
					-4.169477881004140e-01 1.044833076200828e+00 0.000000000000000e+00
					-3.805597351255174e-01 9.076038452510349e-01 0.000000000000000e+00
					-2.084738940502069e-01 1.097567451200828e+00 0.000000000000000e+00
					-1.902798675627587e-01 9.442249390010349e-01 0.000000000000000e+00
					-3.805597351255174e-01 9.076038452510349e-01 0.000000000000000e+00
					-3.475970508005519e-01 7.889441016011038e-01 0.000000000000000e+00
					-1.902798675627587e-01 9.442249390010349e-01 0.000000000000000e+00
					-1.737985254002759e-01 8.123816016011038e-01 0.000000000000000e+00
					-3.475970508005519e-01 7.889441016011038e-01 0.000000000000000e+00
					-3.180597351255174e-01 6.888538452510349e-01 0.000000000000000e+00
					-1.737985254002759e-01 8.123816016011038e-01 0.000000000000000e+00
					-1.590298675627587e-01 7.020374390010349e-01 0.000000000000000e+00
					-3.180597351255174e-01 6.888538452510349e-01 0.000000000000000e+00
					-2.919477881004139e-01 6.073330762008279e-01 0.000000000000000e+00
					-1.590298675627587e-01 7.020374390010349e-01 0.000000000000000e+00
					-1.459738940502069e-01 6.131924512008279e-01 0.000000000000000e+00
					-2.919477881004139e-01 6.073330762008279e-01 0.000000000000000e+00
					-2.692612097252414e-01 5.443817944504830e-01 0.000000000000000e+00
					-1.459738940502069e-01 6.131924512008279e-01 0.000000000000000e+00
					-1.346306048626207e-01 5.458466382004830e-01 0.000000000000000e+00
					-2.692612097252414e-01 5.443817944504830e-01 0.000000000000000e+00
					-2.500000000000000e-01 5.000000000000000e-01 0.000000000000000e+00
					-1.346306048626207e-01 5.458466382004830e-01 0.000000000000000e+00
					-1.250000000000000e-01 5.000000000000000e-01 0.000000000000000e+00
					-2.500000000000000e-01 1.468750000000000e+00 0.000000000000000e+00
					-2.283806048626207e-01 1.272409138200483e+00 0.000000000000000e+00
					0.000000000000000e+00 1.500000000000000e+00 0.000000000000000e+00
					4.857225732735060e-17 1.296334919450483e+00 0.000000000000000e+00
					-2.283806048626207e-01 1.272409138200483e+00 0.000000000000000e+00
					-2.084738940502069e-01 1.097567451200828e+00 0.000000000000000e+00
					4.857225732735060e-17 1.296334919450483e+00 0.000000000000000e+00
					3.469446951953614e-17 1.115145576200828e+00 0.000000000000000e+00
					-2.084738940502069e-01 1.097567451200828e+00 0.000000000000000e+00
					-1.902798675627587e-01 9.442249390010349e-01 0.000000000000000e+00
					3.469446951953614e-17 1.115145576200828e+00 0.000000000000000e+00
					4.163336342344337e-17 9.564319702510349e-01 0.000000000000000e+00
					-1.902798675627587e-01 9.442249390010349e-01 0.000000000000000e+00
					-1.737985254002759e-01 8.123816016011038e-01 0.000000000000000e+00
					4.163336342344337e-17 9.564319702510349e-01 0.000000000000000e+00
					4.163336342344337e-17 8.201941016011038e-01 0.000000000000000e+00
					-1.737985254002759e-01 8.123816016011038e-01 0.000000000000000e+00
					-1.590298675627587e-01 7.020374390010349e-01 0.000000000000000e+00
					4.163336342344337e-17 8.201941016011038e-01 0.000000000000000e+00
					3.816391647148976e-17 7.064319702510349e-01 0.000000000000000e+00
					-1.590298675627587e-01 7.020374390010349e-01 0.000000000000000e+00
					-1.459738940502069e-01 6.131924512008279e-01 0.000000000000000e+00
					3.816391647148976e-17 7.064319702510349e-01 0.000000000000000e+00
					2.428612866367530e-17 6.151455762008279e-01 0.000000000000000e+00
					-1.459738940502069e-01 6.131924512008279e-01 0.000000000000000e+00
					-1.346306048626207e-01 5.458466382004830e-01 0.000000000000000e+00
					2.428612866367530e-17 6.151455762008279e-01 0.000000000000000e+00
					2.428612866367530e-17 5.463349194504830e-01 0.000000000000000e+00
					-1.346306048626207e-01 5.458466382004830e-01 0.000000000000000e+00
					-1.250000000000000e-01 5.000000000000000e-01 0.000000000000000e+00
					2.428612866367530e-17 5.463349194504830e-01 0.000000000000000e+00
					0.000000000000000e+00 5.000000000000000e-01 0.000000000000000e+00
					0.000000000000000e+00 1.500000000000000e+00 0.000000000000000e+00
					4.857225732735060e-17 1.296334919450483e+00 0.000000000000000e+00
					2.500000000000000e-01 1.468750000000000e+00 0.000000000000000e+00
					2.283806048626208e-01 1.272409138200483e+00 0.000000000000000e+00
					4.857225732735060e-17 1.296334919450483e+00 0.000000000000000e+00
					3.469446951953614e-17 1.115145576200828e+00 0.000000000000000e+00
					2.283806048626208e-01 1.272409138200483e+00 0.000000000000000e+00
					2.084738940502070e-01 1.097567451200828e+00 0.000000000000000e+00
					3.469446951953614e-17 1.115145576200828e+00 0.000000000000000e+00
					4.163336342344337e-17 9.564319702510349e-01 0.000000000000000e+00
					2.084738940502070e-01 1.097567451200828e+00 0.000000000000000e+00
					1.902798675627588e-01 9.442249390010349e-01 0.000000000000000e+00
					4.163336342344337e-17 9.564319702510349e-01 0.000000000000000e+00
					4.163336342344337e-17 8.201941016011038e-01 0.000000000000000e+00
					1.902798675627588e-01 9.442249390010349e-01 0.000000000000000e+00
					1.737985254002760e-01 8.123816016011038e-01 0.000000000000000e+00
					4.163336342344337e-17 8.201941016011038e-01 0.000000000000000e+00
					3.816391647148976e-17 7.064319702510349e-01 0.000000000000000e+00
					1.737985254002760e-01 8.123816016011038e-01 0.000000000000000e+00
					1.590298675627588e-01 7.020374390010349e-01 0.000000000000000e+00
					3.816391647148976e-17 7.064319702510349e-01 0.000000000000000e+00
					2.428612866367530e-17 6.151455762008279e-01 0.000000000000000e+00
					1.590298675627588e-01 7.020374390010349e-01 0.000000000000000e+00
					1.459738940502070e-01 6.131924512008278e-01 0.000000000000000e+00
					2.428612866367530e-17 6.151455762008279e-01 0.000000000000000e+00
					2.428612866367530e-17 5.463349194504830e-01 0.000000000000000e+00
					1.459738940502070e-01 6.131924512008278e-01 0.000000000000000e+00
					1.346306048626208e-01 5.458466382004830e-01 0.000000000000000e+00
					2.428612866367530e-17 5.463349194504830e-01 0.000000000000000e+00
					0.000000000000000e+00 5.000000000000000e-01 0.000000000000000e+00
					1.346306048626208e-01 5.458466382004830e-01 0.000000000000000e+00
					1.250000000000000e-01 5.000000000000000e-01 0.000000000000000e+00
					2.500000000000000e-01 1.468750000000000e+00 0.000000000000000e+00
					2.283806048626208e-01 1.272409138200483e+00 0.000000000000000e+00
					5.000000000000000e-01 1.375000000000000e+00 0.000000000000000e+00
					4.567612097252415e-01 1.200631794450483e+00 0.000000000000000e+00
					2.283806048626208e-01 1.272409138200483e+00 0.000000000000000e+00
					2.084738940502070e-01 1.097567451200828e+00 0.000000000000000e+00
					4.567612097252415e-01 1.200631794450483e+00 0.000000000000000e+00
					4.169477881004139e-01 1.044833076200828e+00 0.000000000000000e+00
					2.084738940502070e-01 1.097567451200828e+00 0.000000000000000e+00
					1.902798675627588e-01 9.442249390010349e-01 0.000000000000000e+00
					4.169477881004139e-01 1.044833076200828e+00 0.000000000000000e+00
					3.805597351255174e-01 9.076038452510349e-01 0.000000000000000e+00
					1.902798675627588e-01 9.442249390010349e-01 0.000000000000000e+00
					1.737985254002760e-01 8.123816016011038e-01 0.000000000000000e+00
					3.805597351255174e-01 9.076038452510349e-01 0.000000000000000e+00
					3.475970508005520e-01 7.889441016011038e-01 0.000000000000000e+00
					1.737985254002760e-01 8.123816016011038e-01 0.000000000000000e+00
					1.590298675627588e-01 7.020374390010349e-01 0.000000000000000e+00
					3.475970508005520e-01 7.889441016011038e-01 0.000000000000000e+00
					3.180597351255175e-01 6.888538452510349e-01 0.000000000000000e+00
					1.590298675627588e-01 7.020374390010349e-01 0.000000000000000e+00
					1.459738940502070e-01 6.131924512008278e-01 0.000000000000000e+00
					3.180597351255175e-01 6.888538452510349e-01 0.000000000000000e+00
					2.919477881004140e-01 6.073330762008278e-01 0.000000000000000e+00
					1.459738940502070e-01 6.131924512008278e-01 0.000000000000000e+00
					1.346306048626208e-01 5.458466382004830e-01 0.000000000000000e+00
					2.919477881004140e-01 6.073330762008278e-01 0.000000000000000e+00
					2.692612097252415e-01 5.443817944504830e-01 0.000000000000000e+00
					1.346306048626208e-01 5.458466382004830e-01 0.000000000000000e+00
					1.250000000000000e-01 5.000000000000000e-01 0.000000000000000e+00
					2.692612097252415e-01 5.443817944504830e-01 0.000000000000000e+00
					2.500000000000000e-01 5.000000000000000e-01 0.000000000000000e+00
					5.000000000000000e-01 1.375000000000000e+00 0.000000000000000e+00
					4.567612097252415e-01 1.200631794450483e+00 0.000000000000000e+00
					7.500000000000000e-01 1.218750000000000e+00 0.000000000000000e+00
					6.851418145878622e-01 1.081002888200483e+00 0.000000000000000e+00
					4.567612097252415e-01 1.200631794450483e+00 0.000000000000000e+00
					4.169477881004139e-01 1.044833076200828e+00 0.000000000000000e+00
					6.851418145878622e-01 1.081002888200483e+00 0.000000000000000e+00
					6.254216821506209e-01 9.569424512008279e-01 0.000000000000000e+00
					4.169477881004139e-01 1.044833076200828e+00 0.000000000000000e+00
					3.805597351255174e-01 9.076038452510349e-01 0.000000000000000e+00
					6.254216821506209e-01 9.569424512008279e-01 0.000000000000000e+00
					5.708396026882763e-01 8.465686890010349e-01 0.000000000000000e+00
					3.805597351255174e-01 9.076038452510349e-01 0.000000000000000e+00
					3.475970508005520e-01 7.889441016011038e-01 0.000000000000000e+00
					5.708396026882763e-01 8.465686890010349e-01 0.000000000000000e+00
					5.213955762008280e-01 7.498816016011038e-01 0.000000000000000e+00
					3.475970508005520e-01 7.889441016011038e-01 0.000000000000000e+00
					3.180597351255175e-01 6.888538452510349e-01 0.000000000000000e+00
					5.213955762008280e-01 7.498816016011038e-01 0.000000000000000e+00
					4.770896026882762e-01 6.668811890010349e-01 0.000000000000000e+00
					3.180597351255175e-01 6.888538452510349e-01 0.000000000000000e+00
					2.919477881004140e-01 6.073330762008278e-01 0.000000000000000e+00
					4.770896026882762e-01 6.668811890010349e-01 0.000000000000000e+00
					4.379216821506209e-01 5.975674512008278e-01 0.000000000000000e+00
					2.919477881004140e-01 6.073330762008278e-01 0.000000000000000e+00
					2.692612097252415e-01 5.443817944504830e-01 0.000000000000000e+00
					4.379216821506209e-01 5.975674512008278e-01 0.000000000000000e+00
					4.038918145878622e-01 5.419403882004830e-01 0.000000000000000e+00
					2.692612097252415e-01 5.443817944504830e-01 0.000000000000000e+00
					2.500000000000000e-01 5.000000000000000e-01 0.000000000000000e+00
					4.038918145878622e-01 5.419403882004830e-01 0.000000000000000e+00
					3.750000000000000e-01 5.000000000000000e-01 0.000000000000000e+00
					7.500000000000000e-01 1.218750000000000e+00 0.000000000000000e+00
					6.851418145878622e-01 1.081002888200483e+00 0.000000000000000e+00
					1.000000000000000e+00 1.000000000000000e+00 0.000000000000000e+00
					9.135224194504830e-01 9.135224194504830e-01 0.000000000000000e+00
					6.851418145878622e-01 1.081002888200483e+00 0.000000000000000e+00
					6.254216821506209e-01 9.569424512008279e-01 0.000000000000000e+00
					9.135224194504830e-01 9.135224194504830e-01 0.000000000000000e+00
					8.338955762008279e-01 8.338955762008279e-01 0.000000000000000e+00
					6.254216821506209e-01 9.569424512008279e-01 0.000000000000000e+00
					5.708396026882763e-01 8.465686890010349e-01 0.000000000000000e+00
					8.338955762008279e-01 8.338955762008279e-01 0.000000000000000e+00
					7.611194702510349e-01 7.611194702510349e-01 0.000000000000000e+00
					5.708396026882763e-01 8.465686890010349e-01 0.000000000000000e+00
					5.213955762008280e-01 7.498816016011038e-01 0.000000000000000e+00
					7.611194702510349e-01 7.611194702510349e-01 0.000000000000000e+00
					6.951941016011038e-01 6.951941016011038e-01 0.000000000000000e+00
					5.213955762008280e-01 7.498816016011038e-01 0.000000000000000e+00
					4.770896026882762e-01 6.668811890010349e-01 0.000000000000000e+00
					6.951941016011038e-01 6.951941016011038e-01 0.000000000000000e+00
					6.361194702510349e-01 6.361194702510349e-01 0.000000000000000e+00
					4.770896026882762e-01 6.668811890010349e-01 0.000000000000000e+00
					4.379216821506209e-01 5.975674512008278e-01 0.000000000000000e+00
					6.361194702510349e-01 6.361194702510349e-01 0.000000000000000e+00
					5.838955762008278e-01 5.838955762008278e-01 0.000000000000000e+00
					4.379216821506209e-01 5.975674512008278e-01 0.000000000000000e+00
					4.038918145878622e-01 5.419403882004830e-01 0.000000000000000e+00
					5.838955762008278e-01 5.838955762008278e-01 0.000000000000000e+00
					5.385224194504830e-01 5.385224194504830e-01 0.000000000000000e+00
					4.038918145878622e-01 5.419403882004830e-01 0.000000000000000e+00
					3.750000000000000e-01 5.000000000000000e-01 0.000000000000000e+00
					5.385224194504830e-01 5.385224194504830e-01 0.000000000000000e+00
					5.000000000000000e-01 5.000000000000000e-01 0.000000000000000e+00
				</DataArray>
			</Points>
			<Cells>
				<DataArray Name="connectivity" type="UInt32" format="ascii">
					0 1 3 2 4 5 7 6 8 9 11 10 12 13 15 14 16 17 19 18 20 21 23 22 24 25 27 26 28 29 31 30 32 33 35 34 36 37 39 38 40 41 43 42 44 45 47 46 48 49 51 50 52 53 55 54 56 57 59 58 60 61 63 62 64 65 67 66 68 69 71 70 72 73 75 74 76 77 79 78 80 81 83 82 84 85 87 86 88 89 91 90 92 93 95 94 96 97 99 98 100 101 103 102 104 105 107 106 108 109 111 110 112 113 115 114 116 117 119 118 120 121 123 122 124 125 127 126 128 129 131 130 132 133 135 134 136 137 139 138 140 141 143 142 144 145 147 146 148 149 151 150 152 153 155 154 156 157 159 158 160 161 163 162 164 165 167 166 168 169 171 170 172 173 175 174 176 177 179 178 180 181 183 182 184 185 187 186 188 189 191 190 192 193 195 194 196 197 199 198 200 201 203 202 204 205 207 206 208 209 211 210 212 213 215 214 216 217 219 218 220 221 223 222 224 225 227 226 228 229 231 230 232 233 235 234 236 237 239 238 240 241 243 242 244 245 247 246 248 249 251 250 252 253 255 254 
				</DataArray>
				<DataArray Name="offsets" type="UInt32" format="ascii">
					4 8 12 16 20 24 28 32 36 40 44 48 52 56 60 64 68 72 76 80 84 88 92 96 100 104 108 112 116 120 124 128 132 136 140 144 148 152 156 160 164 168 172 176 180 184 188 192 196 200 204 208 212 216 220 224 228 232 236 240 244 248 252 256 
				</DataArray>
				<DataArray Name="types" type="UInt8" format="ascii">
					9 9 9 9 9 9 9 9 9 9 9 9 9 9 9 9 9 9 9 9 9 9 9 9 9 9 9 9 9 9 9 9 9 9 9 9 9 9 9 9 9 9 9 9 9 9 9 9 9 9 9 9 9 9 9 9 9 9 9 9 9 9 9 9 
				</DataArray>
			</Cells>
			<PointData Vectors="solution ">
				<DataArray Name="solution" type="Float64" NumberOfComponents="1" format="ascii">
					0.000000000000000e+00 2.816189978339036e-02 0.000000000000000e+00 1.133726415045321e-01 2.816189978339036e-02 3.688348655723590e-01 1.133726415045321e-01 1.082321344258484e+00 3.688348655723590e-01 1.320725132380517e+00 1.082321344258484e+00 3.368611656515963e+00 1.320725132380517e+00 2.937454976061754e+00 3.368611656515963e+00 6.605883471635797e+00 2.937454976061755e+00 5.058989234797663e+00 6.605883471635799e+00 1.013614581533614e+01 5.058989234797663e+00 7.427827297362994e+00 1.013614581533615e+01 1.343020888858320e+01 7.427827297362995e+00 9.788961777430261e+00 1.343020888858321e+01 1.621262367671704e+01 9.788961777430261e+00 1.194518529128975e+01 1.621262367671704e+01 1.841597556961415e+01 0.000000000000000e+00 1.133726415045321e-01 0.000000000000000e+00 2.871347328333081e-01 1.133726415045321e-01 1.082321344258484e+00 2.871347328333081e-01 2.367978741255746e+00 1.082321344258484e+00 3.368611656515963e+00 2.367978741255746e+00 6.685035325484014e+00 3.368611656515964e+00 6.605883471635799e+00 6.685035325484016e+00 1.201797201150125e+01 6.605883471635799e+00 1.013614581533615e+01 1.201797201150125e+01 1.701921178134275e+01 1.013614581533615e+01 1.343020888858320e+01 1.701921178134276e+01 2.098736132741225e+01 1.343020888858321e+01 1.621262367671704e+01 2.098736132741226e+01 2.382385995760118e+01 1.621262367671704e+01 1.841597556961415e+01 2.382385995760119e+01 2.573688614444826e+01 0.000000000000000e+00 2.871347328333081e-01 0.000000000000000e+00 5.640294242170484e-01 2.871347328333081e-01 2.367978741255746e+00 5.640294242170484e-01 4.074800536195499e+00 2.367978741255746e+00 6.685035325484016e+00 4.074800536195500e+00 1.074712347687564e+01 6.685035325484018e+00 1.201797201150125e+01 1.074712347687564e+01 1.825419108313451e+01 1.201797201150125e+01 1.701921178134275e+01 1.825419108313451e+01 2.454435429685185e+01 1.701921178134276e+01 2.098736132741226e+01 2.454435429685185e+01 2.889098767993074e+01 2.098736132741226e+01 2.382385995760119e+01 2.889098767993075e+01 3.150944785850331e+01 2.382385995760119e+01 2.573688614444826e+01 3.150944785850331e+01 3.294750343748670e+01 0.000000000000000e+00 5.640294242170485e-01 0.000000000000000e+00 8.253588899341134e-01 5.640294242170486e-01 4.074800536195501e+00 8.253588899341135e-01 5.605296740136957e+00 4.074800536195502e+00 1.074712347687564e+01 5.605296740136957e+00 1.426650076058528e+01 1.074712347687564e+01 1.825419108313451e+01 1.426650076058528e+01 2.352331291782545e+01 1.825419108313452e+01 2.454435429685185e+01 2.352331291782545e+01 3.079262020419346e+01 2.454435429685186e+01 2.889098767993075e+01 3.079262020419347e+01 3.538936333534517e+01 2.889098767993075e+01 3.150944785850331e+01 3.538936333534517e+01 3.780927461411297e+01 3.150944785850332e+01 3.294750343748670e+01 3.780927461411297e+01 3.886568671581959e+01 0.000000000000000e+00 8.253588899341137e-01 0.000000000000000e+00 8.910914038193217e-01 8.253588899341138e-01 5.605296740136958e+00 8.910914038193218e-01 6.180923102659603e+00 5.605296740136959e+00 1.426650076058528e+01 6.180923102659603e+00 1.572344681161893e+01 1.426650076058528e+01 2.352331291782545e+01 1.572344681161894e+01 2.584137220933820e+01 2.352331291782546e+01 3.079262020419347e+01 2.584137220933820e+01 3.373576337170122e+01 3.079262020419348e+01 3.538936333534517e+01 3.373576337170122e+01 3.868793228951719e+01 3.538936333534519e+01 3.780927461411297e+01 3.868793228951721e+01 4.124941801839407e+01 3.780927461411297e+01 3.886568671581960e+01 4.124941801839407e+01 4.231026939387427e+01 0.000000000000000e+00 8.910914038193219e-01 0.000000000000000e+00 7.163564063410767e-01 8.910914038193222e-01 6.180923102659603e+00 7.163564063410767e-01 5.450342814530346e+00 6.180923102659605e+00 1.572344681161894e+01 5.450342814530347e+00 1.430926688427743e+01 1.572344681161894e+01 2.584137220933820e+01 1.430926688427743e+01 2.408284760958400e+01 2.584137220933821e+01 3.373576337170122e+01 2.408284760958400e+01 3.214942901671463e+01 3.373576337170123e+01 3.868793228951721e+01 3.214942901671464e+01 3.762787991773931e+01 3.868793228951721e+01 4.124941801839407e+01 3.762787991773932e+01 4.081815998081378e+01 4.124941801839408e+01 4.231026939387428e+01 4.081815998081379e+01 4.242933700892921e+01 0.000000000000000e+00 7.163564063410768e-01 0.000000000000000e+00 4.521779296113192e-01 7.163564063410770e-01 5.450342814530348e+00 4.521779296113192e-01 3.781377619803322e+00 5.450342814530349e+00 1.430926688427743e+01 3.781377619803322e+00 1.054829116622233e+01 1.430926688427744e+01 2.408284760958400e+01 1.054829116622233e+01 1.873661719797963e+01 2.408284760958401e+01 3.214942901671464e+01 1.873661719797963e+01 2.631860683020625e+01 3.214942901671465e+01 3.762787991773932e+01 2.631860683020625e+01 3.224568274857805e+01 3.762787991773932e+01 4.081815998081380e+01 3.224568274857806e+01 3.636264000064090e+01 4.081815998081380e+01 4.242933700892922e+01 3.636264000064091e+01 3.898407137829335e+01 0.000000000000000e+00 4.521779296113193e-01 0.000000000000000e+00 1.826962992631014e-01 4.521779296113193e-01 3.781377619803323e+00 1.826962992631014e-01 1.977313138620802e+00 3.781377619803323e+00 1.054829116622233e+01 1.977313138620803e+00 6.052156400885191e+00 1.054829116622233e+01 1.873661719797963e+01 6.052156400885193e+00 1.178070347512086e+01 1.873661719797963e+01 2.631860683020625e+01 1.178070347512086e+01 1.804417187075136e+01 2.631860683020626e+01 3.224568274857806e+01 1.804417187075136e+01 2.388310525849998e+01 3.224568274857806e+01 3.636264000064091e+01 2.388310525849999e+01 2.874698925670344e+01 3.636264000064092e+01 3.898407137829336e+01 2.874698925670345e+01 3.247258573428161e+01 
				</DataArray>
			</PointData>
			<CellData>
			</CellData>
		</Piece>
	</UnstructuredGrid>
</VTKFile>