<?xml version="1.0"?>
<VTKFile type="UnstructuredGrid" byte_order="LittleEndian">
	<UnstructuredGrid>
		<Piece NumberOfPoints="256" NumberOfCells="64">
			<Points>
				<DataArray type="Float64" NumberOfComponents="3" format="ascii">
					-1.000000000000000e+00 -1.000000000000000e+00 0.000000000000000e+00
					-7.500000000000000e-01 -1.218750000000000e+00 0.000000000000000e+00
					-9.135224194504830e-01 -9.135224194504830e-01 0.000000000000000e+00
					-6.851418145878622e-01 -1.081002888200483e+00 0.000000000000000e+00
					-7.500000000000000e-01 -1.218750000000000e+00 0.000000000000000e+00
					-5.000000000000000e-01 -1.375000000000000e+00 0.000000000000000e+00
					-6.851418145878622e-01 -1.081002888200483e+00 0.000000000000000e+00
					-4.567612097252415e-01 -1.200631794450483e+00 0.000000000000000e+00
					-5.000000000000000e-01 -1.375000000000000e+00 0.000000000000000e+00
					-2.500000000000000e-01 -1.468750000000000e+00 0.000000000000000e+00
					-4.567612097252415e-01 -1.200631794450483e+00 0.000000000000000e+00
					-2.283806048626207e-01 -1.272409138200483e+00 0.000000000000000e+00
					-2.500000000000000e-01 -1.468750000000000e+00 0.000000000000000e+00
					0.000000000000000e+00 -1.500000000000000e+00 0.000000000000000e+00
					-2.283806048626207e-01 -1.272409138200483e+00 0.000000000000000e+00
					1.040834085586084e-17 -1.296334919450483e+00 0.000000000000000e+00
					0.000000000000000e+00 -1.500000000000000e+00 0.000000000000000e+00
					2.500000000000000e-01 -1.468750000000000e+00 0.000000000000000e+00
					1.040834085586084e-17 -1.296334919450483e+00 0.000000000000000e+00
					2.283806048626208e-01 -1.272409138200483e+00 0.000000000000000e+00
					2.500000000000000e-01 -1.468750000000000e+00 0.000000000000000e+00
					5.000000000000000e-01 -1.375000000000000e+00 0.000000000000000e+00
					2.283806048626208e-01 -1.272409138200483e+00 0.000000000000000e+00
					4.567612097252415e-01 -1.200631794450483e+00 0.000000000000000e+00
					5.000000000000000e-01 -1.375000000000000e+00 0.000000000000000e+00
					7.500000000000000e-01 -1.218750000000000e+00 0.000000000000000e+00
					4.567612097252415e-01 -1.200631794450483e+00 0.000000000000000e+00
					6.851418145878623e-01 -1.081002888200483e+00 0.000000000000000e+00
					7.500000000000000e-01 -1.218750000000000e+00 0.000000000000000e+00
					1.000000000000000e+00 -1.000000000000000e+00 0.000000000000000e+00
					6.851418145878623e-01 -1.081002888200483e+00 0.000000000000000e+00
					9.135224194504830e-01 -9.135224194504830e-01 0.000000000000000e+00
					-9.135224194504830e-01 -9.135224194504830e-01 0.000000000000000e+00
					-6.851418145878622e-01 -1.081002888200483e+00 0.000000000000000e+00
					-8.338955762008279e-01 -8.338955762008279e-01 0.000000000000000e+00
					-6.254216821506209e-01 -9.569424512008280e-01 0.000000000000000e+00
					-6.851418145878622e-01 -1.081002888200483e+00 0.000000000000000e+00
					-4.567612097252415e-01 -1.200631794450483e+00 0.000000000000000e+00
					-6.254216821506209e-01 -9.569424512008280e-01 0.000000000000000e+00
					-4.169477881004140e-01 -1.044833076200828e+00 0.000000000000000e+00
					-4.567612097252415e-01 -1.200631794450483e+00 0.000000000000000e+00
					-2.283806048626207e-01 -1.272409138200483e+00 0.000000000000000e+00
					-4.169477881004140e-01 -1.044833076200828e+00 0.000000000000000e+00
					-2.084738940502070e-01 -1.097567451200828e+00 0.000000000000000e+00
					-2.283806048626207e-01 -1.272409138200483e+00 0.000000000000000e+00
					1.040834085586084e-17 -1.296334919450483e+00 0.000000000000000e+00
					-2.084738940502070e-01 -1.097567451200828e+00 0.000000000000000e+00
					1.734723475976807e-17 -1.115145576200828e+00 0.000000000000000e+00
					1.040834085586084e-17 -1.296334919450483e+00 0.000000000000000e+00
					2.283806048626208e-01 -1.272409138200483e+00 0.000000000000000e+00
					1.734723475976807e-17 -1.115145576200828e+00 0.000000000000000e+00
					2.084738940502070e-01 -1.097567451200828e+00 0.000000000000000e+00
					2.283806048626208e-01 -1.272409138200483e+00 0.000000000000000e+00
					4.567612097252415e-01 -1.200631794450483e+00 0.000000000000000e+00
					2.084738940502070e-01 -1.097567451200828e+00 0.000000000000000e+00
					4.169477881004140e-01 -1.044833076200828e+00 0.000000000000000e+00
					4.567612097252415e-01 -1.200631794450483e+00 0.000000000000000e+00
					6.851418145878623e-01 -1.081002888200483e+00 0.000000000000000e+00
					4.169477881004140e-01 -1.044833076200828e+00 0.000000000000000e+00
					6.254216821506209e-01 -9.569424512008280e-01 0.000000000000000e+00
					6.851418145878623e-01 -1.081002888200483e+00 0.000000000000000e+00
					9.135224194504830e-01 -9.135224194504830e-01 0.000000000000000e+00
					6.254216821506209e-01 -9.569424512008280e-01 0.000000000000000e+00
					8.338955762008279e-01 -8.338955762008279e-01 0.000000000000000e+00
					-8.338955762008279e-01 -8.338955762008279e-01 0.000000000000000e+00
					-6.254216821506209e-01 -9.569424512008280e-01 0.000000000000000e+00
					-7.611194702510349e-01 -7.611194702510349e-01 0.000000000000000e+00
					-5.708396026882762e-01 -8.465686890010349e-01 0.000000000000000e+00
					-6.254216821506209e-01 -9.569424512008280e-01 0.000000000000000e+00
					-4.169477881004140e-01 -1.044833076200828e+00 0.000000000000000e+00
					-5.708396026882762e-01 -8.465686890010349e-01 0.000000000000000e+00
					-3.805597351255174e-01 -9.076038452510349e-01 0.000000000000000e+00
					-4.169477881004140e-01 -1.044833076200828e+00 0.000000000000000e+00
					-2.084738940502070e-01 -1.097567451200828e+00 0.000000000000000e+00
					-3.805597351255174e-01 -9.076038452510349e-01 0.000000000000000e+00
					-1.902798675627587e-01 -9.442249390010350e-01 0.000000000000000e+00
					-2.084738940502070e-01 -1.097567451200828e+00 0.000000000000000e+00
					1.734723475976807e-17 -1.115145576200828e+00 0.000000000000000e+00
					-1.902798675627587e-01 -9.442249390010350e-01 0.000000000000000e+00
					2.428612866367530e-17 -9.564319702510349e-01 0.000000000000000e+00
					1.734723475976807e-17 -1.115145576200828e+00 0.000000000000000e+00
					2.084738940502070e-01 -1.097567451200828e+00 0.000000000000000e+00
					2.428612866367530e-17 -9.564319702510349e-01 0.000000000000000e+00
					1.902798675627587e-01 -9.442249390010349e-01 0.000000000000000e+00
					2.084738940502070e-01 -1.097567451200828e+00 0.000000000000000e+00
					4.169477881004140e-01 -1.044833076200828e+00 0.000000000000000e+00
					1.902798675627587e-01 -9.442249390010349e-01 0.000000000000000e+00
					3.805597351255174e-01 -9.076038452510349e-01 0.000000000000000e+00
					4.169477881004140e-01 -1.044833076200828e+00 0.000000000000000e+00
					6.254216821506209e-01 -9.569424512008280e-01 0.000000000000000e+00
					3.805597351255174e-01 -9.076038452510349e-01 0.000000000000000e+00
					5.708396026882762e-01 -8.465686890010349e-01 0.000000000000000e+00
					6.254216821506209e-01 -9.569424512008280e-01 0.000000000000000e+00
					8.338955762008279e-01 -8.338955762008279e-01 0.000000000000000e+00
					5.708396026882762e-01 -8.465686890010349e-01 0.000000000000000e+00
					7.611194702510349e-01 -7.611194702510349e-01 0.000000000000000e+00
					-7.611194702510349e-01 -7.611194702510349e-01 0.000000000000000e+00
					-5.708396026882762e-01 -8.465686890010349e-01 0.000000000000000e+00
					-6.951941016011038e-01 -6.951941016011038e-01 0.000000000000000e+00
					-5.213955762008279e-01 -7.498816016011038e-01 0.000000000000000e+00
					-5.708396026882762e-01 -8.465686890010349e-01 0.000000000000000e+00
					-3.805597351255174e-01 -9.076038452510349e-01 0.000000000000000e+00
					-5.213955762008279e-01 -7.498816016011038e-01 0.000000000000000e+00
					-3.475970508005519e-01 -7.889441016011040e-01 0.000000000000000e+00
					-3.805597351255174e-01 -9.076038452510349e-01 0.000000000000000e+00
					-1.902798675627587e-01 -9.442249390010350e-01 0.000000000000000e+00
					-3.475970508005519e-01 -7.889441016011040e-01 0.000000000000000e+00
					-1.737985254002760e-01 -8.123816016011040e-01 0.000000000000000e+00
					-1.902798675627587e-01 -9.442249390010350e-01 0.000000000000000e+00
					2.428612866367530e-17 -9.564319702510349e-01 0.000000000000000e+00
					-1.737985254002760e-01 -8.123816016011040e-01 0.000000000000000e+00
					2.428612866367530e-17 -8.201941016011038e-01 0.000000000000000e+00
					2.428612866367530e-17 -9.564319702510349e-01 0.000000000000000e+00
					1.902798675627587e-01 -9.442249390010349e-01 0.000000000000000e+00
					2.428612866367530e-17 -8.201941016011038e-01 0.000000000000000e+00
					1.737985254002760e-01 -8.123816016011038e-01 0.000000000000000e+00
					1.902798675627587e-01 -9.442249390010349e-01 0.000000000000000e+00
					3.805597351255174e-01 -9.076038452510349e-01 0.000000000000000e+00
					1.737985254002760e-01 -8.123816016011038e-01 0.000000000000000e+00
					3.475970508005519e-01 -7.889441016011038e-01 0.000000000000000e+00
					3.805597351255174e-01 -9.076038452510349e-01 0.000000000000000e+00
					5.708396026882762e-01 -8.465686890010349e-01 0.000000000000000e+00
					3.475970508005519e-01 -7.889441016011038e-01 0.000000000000000e+00
					5.213955762008279e-01 -7.498816016011038e-01 0.000000000000000e+00
					5.708396026882762e-01 -8.465686890010349e-01 0.000000000000000e+00
					7.611194702510349e-01 -7.611194702510349e-01 0.000000000000000e+00
					5.213955762008279e-01 -7.498816016011038e-01 0.000000000000000e+00
					6.951941016011038e-01 -6.951941016011038e-01 0.000000000000000e+00
					-6.951941016011038e-01 -6.951941016011038e-01 0.000000000000000e+00
					-5.213955762008279e-01 -7.498816016011038e-01 0.000000000000000e+00
					-6.361194702510349e-01 -6.361194702510349e-01 0.000000000000000e+00
					-4.770896026882762e-01 -6.668811890010349e-01 0.000000000000000e+00
					-5.213955762008279e-01 -7.498816016011038e-01 0.000000000000000e+00
					-3.475970508005519e-01 -7.889441016011040e-01 0.000000000000000e+00
					-4.770896026882762e-01 -6.668811890010349e-01 0.000000000000000e+00
					-3.180597351255174e-01 -6.888538452510349e-01 0.000000000000000e+00
					-3.475970508005519e-01 -7.889441016011040e-01 0.000000000000000e+00
					-1.737985254002760e-01 -8.123816016011040e-01 0.000000000000000e+00
					-3.180597351255174e-01 -6.888538452510349e-01 0.000000000000000e+00
					-1.590298675627587e-01 -7.020374390010350e-01 0.000000000000000e+00
					-1.737985254002760e-01 -8.123816016011040e-01 0.000000000000000e+00
					2.428612866367530e-17 -8.201941016011038e-01 0.000000000000000e+00
					-1.590298675627587e-01 -7.020374390010350e-01 0.000000000000000e+00
					1.734723475976807e-17 -7.064319702510349e-01 0.000000000000000e+00
					2.428612866367530e-17 -8.201941016011038e-01 0.000000000000000e+00
					1.737985254002760e-01 -8.123816016011038e-01 0.000000000000000e+00
					1.734723475976807e-17 -7.064319702510349e-01 0.000000000000000e+00
					1.590298675627587e-01 -7.020374390010349e-01 0.000000000000000e+00
					1.737985254002760e-01 -8.123816016011038e-01 0.000000000000000e+00
					3.475970508005519e-01 -7.889441016011038e-01 0.000000000000000e+00
					1.590298675627587e-01 -7.020374390010349e-01 0.000000000000000e+00
					3.180597351255174e-01 -6.888538452510349e-01 0.000000000000000e+00
					3.475970508005519e-01 -7.889441016011038e-01 0.000000000000000e+00
					5.213955762008279e-01 -7.498816016011038e-01 0.000000000000000e+00
					3.180597351255174e-01 -6.888538452510349e-01 0.000000000000000e+00
					4.770896026882762e-01 -6.668811890010349e-01 0.000000000000000e+00
					5.213955762008279e-01 -7.498816016011038e-01 0.000000000000000e+00
					6.951941016011038e-01 -6.951941016011038e-01 0.000000000000000e+00
					4.770896026882762e-01 -6.668811890010349e-01 0.000000000000000e+00
					6.361194702510349e-01 -6.361194702510349e-01 0.000000000000000e+00
					-6.361194702510349e-01 -6.361194702510349e-01 0.000000000000000e+00
					-4.770896026882762e-01 -6.668811890010349e-01 0.000000000000000e+00
					-5.838955762008278e-01 -5.838955762008278e-01 0.000000000000000e+00
					-4.379216821506209e-01 -5.975674512008280e-01 0.000000000000000e+00
					-4.770896026882762e-01 -6.668811890010349e-01 0.000000000000000e+00
					-3.180597351255174e-01 -6.888538452510349e-01 0.000000000000000e+00
					-4.379216821506209e-01 -5.975674512008280e-01 0.000000000000000e+00
					-2.919477881004139e-01 -6.073330762008280e-01 0.000000000000000e+00
					-3.180597351255174e-01 -6.888538452510349e-01 0.000000000000000e+00
					-1.590298675627587e-01 -7.020374390010350e-01 0.000000000000000e+00
					-2.919477881004139e-01 -6.073330762008280e-01 0.000000000000000e+00
					-1.459738940502069e-01 -6.131924512008280e-01 0.000000000000000e+00
					-1.590298675627587e-01 -7.020374390010350e-01 0.000000000000000e+00
					1.734723475976807e-17 -7.064319702510349e-01 0.000000000000000e+00
					-1.459738940502069e-01 -6.131924512008280e-01 0.000000000000000e+00
					1.040834085586084e-17 -6.151455762008280e-01 0.000000000000000e+00
					1.734723475976807e-17 -7.064319702510349e-01 0.000000000000000e+00
					1.590298675627587e-01 -7.020374390010349e-01 0.000000000000000e+00
					1.040834085586084e-17 -6.151455762008280e-01 0.000000000000000e+00
					1.459738940502070e-01 -6.131924512008278e-01 0.000000000000000e+00
					1.590298675627587e-01 -7.020374390010349e-01 0.000000000000000e+00
					3.180597351255174e-01 -6.888538452510349e-01 0.000000000000000e+00
					1.459738940502070e-01 -6.131924512008278e-01 0.000000000000000e+00
					2.919477881004139e-01 -6.073330762008278e-01 0.000000000000000e+00
					3.180597351255174e-01 -6.888538452510349e-01 0.000000000000000e+00
					4.770896026882762e-01 -6.668811890010349e-01 0.000000000000000e+00
					2.919477881004139e-01 -6.073330762008278e-01 0.000000000000000e+00
					4.379216821506209e-01 -5.975674512008278e-01 0.000000000000000e+00
					4.770896026882762e-01 -6.668811890010349e-01 0.000000000000000e+00
					6.361194702510349e-01 -6.361194702510349e-01 0.000000000000000e+00
					4.379216821506209e-01 -5.975674512008278e-01 0.000000000000000e+00
					5.838955762008278e-01 -5.838955762008278e-01 0.000000000000000e+00
					-5.838955762008278e-01 -5.838955762008278e-01 0.000000000000000e+00
					-4.379216821506209e-01 -5.975674512008280e-01 0.000000000000000e+00
					-5.385224194504830e-01 -5.385224194504830e-01 0.000000000000000e+00
					-4.038918145878622e-01 -5.419403882004830e-01 0.000000000000000e+00
					-4.379216821506209e-01 -5.975674512008280e-01 0.000000000000000e+00
					-2.919477881004139e-01 -6.073330762008280e-01 0.000000000000000e+00
					-4.038918145878622e-01 -5.419403882004830e-01 0.000000000000000e+00
					-2.692612097252414e-01 -5.443817944504830e-01 0.000000000000000e+00
					-2.919477881004139e-01 -6.073330762008280e-01 0.000000000000000e+00
					-1.459738940502069e-01 -6.131924512008280e-01 0.000000000000000e+00
					-2.692612097252414e-01 -5.443817944504830e-01 0.000000000000000e+00
					-1.346306048626207e-01 -5.458466382004830e-01 0.000000000000000e+00
					-1.459738940502069e-01 -6.131924512008280e-01 0.000000000000000e+00
					1.040834085586084e-17 -6.151455762008280e-01 0.000000000000000e+00
					-1.346306048626207e-01 -5.458466382004830e-01 0.000000000000000e+00
					3.469446951953614e-18 -5.463349194504828e-01 0.000000000000000e+00
					1.040834085586084e-17 -6.151455762008280e-01 0.000000000000000e+00
					1.459738940502070e-01 -6.131924512008278e-01 0.000000000000000e+00
					3.469446951953614e-18 -5.463349194504828e-01 0.000000000000000e+00
					1.346306048626207e-01 -5.458466382004828e-01 0.000000000000000e+00
					1.459738940502070e-01 -6.131924512008278e-01 0.000000000000000e+00
					2.919477881004139e-01 -6.073330762008278e-01 0.000000000000000e+00
					1.346306048626207e-01 -5.458466382004828e-01 0.000000000000000e+00
					2.692612097252414e-01 -5.443817944504828e-01 0.000000000000000e+00
					2.919477881004139e-01 -6.073330762008278e-01 0.000000000000000e+00
					4.379216821506209e-01 -5.975674512008278e-01 0.000000000000000e+00
					2.692612097252414e-01 -5.443817944504828e-01 0.000000000000000e+00
					4.038918145878622e-01 -5.419403882004828e-01 0.000000000000000e+00
					4.379216821506209e-01 -5.975674512008278e-01 0.000000000000000e+00
					5.838955762008278e-01 -5.838955762008278e-01 0.000000000000000e+00
					4.038918145878622e-01 -5.419403882004828e-01 0.000000000000000e+00
					5.385224194504830e-01 -5.385224194504830e-01 0.000000000000000e+00
					-5.385224194504830e-01 -5.385224194504830e-01 0.000000000000000e+00
					-4.038918145878622e-01 -5.419403882004830e-01 0.000000000000000e+00
					-5.000000000000000e-01 -5.000000000000000e-01 0.000000000000000e+00
					-3.750000000000000e-01 -5.000000000000000e-01 0.000000000000000e+00
					-4.038918145878622e-01 -5.419403882004830e-01 0.000000000000000e+00
					-2.692612097252414e-01 -5.443817944504830e-01 0.000000000000000e+00
					-3.750000000000000e-01 -5.000000000000000e-01 0.000000000000000e+00
					-2.500000000000000e-01 -5.000000000000000e-01 0.000000000000000e+00
					-2.692612097252414e-01 -5.443817944504830e-01 0.000000000000000e+00
					-1.346306048626207e-01 -5.458466382004830e-01 0.000000000000000e+00
					-2.500000000000000e-01 -5.000000000000000e-01 0.000000000000000e+00
					-1.250000000000000e-01 -5.000000000000000e-01 0.000000000000000e+00
					-1.346306048626207e-01 -5.458466382004830e-01 0.000000000000000e+00
					3.469446951953614e-18 -5.463349194504828e-01 0.000000000000000e+00
					-1.250000000000000e-01 -5.000000000000000e-01 0.000000000000000e+00
					0.000000000000000e+00 -5.000000000000000e-01 0.000000000000000e+00
					3.469446951953614e-18 -5.463349194504828e-01 0.000000000000000e+00
					1.346306048626207e-01 -5.458466382004828e-01 0.000000000000000e+00
					0.000000000000000e+00 -5.000000000000000e-01 0.000000000000000e+00
					1.250000000000000e-01 -5.000000000000000e-01 0.000000000000000e+00
					1.346306048626207e-01 -5.458466382004828e-01 0.000000000000000e+00
					2.692612097252414e-01 -5.443817944504828e-01 0.000000000000000e+00
					1.250000000000000e-01 -5.000000000000000e-01 0.000000000000000e+00
					2.500000000000000e-01 -5.000000000000000e-01 0.000000000000000e+00
					2.692612097252414e-01 -5.443817944504828e-01 0.000000000000000e+00
					4.038918145878622e-01 -5.419403882004828e-01 0.000000000000000e+00
					2.500000000000000e-01 -5.000000000000000e-01 0.000000000000000e+00
					3.750000000000000e-01 -5.000000000000000e-01 0.000000000000000e+00
					4.038918145878622e-01 -5.419403882004828e-01 0.000000000000000e+00
					5.385224194504830e-01 -5.385224194504830e-01 0.000000000000000e+00
					3.750000000000000e-01 -5.000000000000000e-01 0.000000000000000e+00
					5.000000000000000e-01 -5.000000000000000e-01 0.000000000000000e+00
				</DataArray>
			</Points>
			<Cells>
				<DataArray Name="connectivity" type="UInt32" format="ascii">
					0 1 3 2 4 5 7 6 8 9 11 10 12 13 15 14 16 17 19 18 20 21 23 22 24 25 27 26 28 29 31 30 32 33 35 34 36 37 39 38 40 41 43 42 44 45 47 46 48 49 51 50 52 53 55 54 56 57 59 58 60 61 63 62 64 65 67 66 68 69 71 70 72 73 75 74 76 77 79 78 80 81 83 82 84 85 87 86 88 89 91 90 92 93 95 94 96 97 99 98 100 101 103 102 104 105 107 106 108 109 111 110 112 113 115 114 116 117 119 118 120 121 123 122 124 125 127 126 128 129 131 130 132 133 135 134 136 137 139 138 140 141 143 142 144 145 147 146 148 149 151 150 152 153 155 154 156 157 159 158 160 161 163 162 164 165 167 166 168 169 171 170 172 173 175 174 176 177 179 178 180 181 183 182 184 185 187 186 188 189 191 190 192 193 195 194 196 197 199 198 200 201 203 202 204 205 207 206 208 209 211 210 212 213 215 214 216 217 219 218 220 221 223 222 224 225 227 226 228 229 231 230 232 233 235 234 236 237 239 238 240 241 243 242 244 245 247 246 248 249 251 250 252 253 255 254 
				</DataArray>
				<DataArray Name="offsets" type="UInt32" format="ascii">
					4 8 12 16 20 24 28 32 36 40 44 48 52 56 60 64 68 72 76 80 84 88 92 96 100 104 108 112 116 120 124 128 132 136 140 144 148 152 156 160 164 168 172 176 180 184 188 192 196 200 204 208 212 216 220 224 228 232 236 240 244 248 252 256 
				</DataArray>
				<DataArray Name="types" type="UInt8" format="ascii">
					9 9 9 9 9 9 9 9 9 9 9 9 9 9 9 9 9 9 9 9 9 9 9 9 9 9 9 9 9 9 9 9 9 9 9 9 9 9 9 9 9 9 9 9 9 9 9 9 9 9 9 9 9 9 9 9 9 9 9 9 9 9 9 9 
				</DataArray>
			</Cells>
			<PointData Vectors="solution ">
				<DataArray Name="solution" type="Float64" NumberOfComponents="1" format="ascii">
					0.000000000000000e+00 0.000000000000000e+00 7.947544551425012e-04 1.428128418807897e-03 0.000000000000000e+00 0.000000000000000e+00 1.428128418807897e-03 2.285496650454051e-03 0.000000000000000e+00 0.000000000000000e+00 2.285496650454052e-03 3.393088832614102e-03 0.000000000000000e+00 0.000000000000000e+00 3.393088832614103e-03 4.536550725945813e-03 0.000000000000000e+00 0.000000000000000e+00 4.536550725945815e-03 5.376403568349812e-03 0.000000000000000e+00 0.000000000000000e+00 5.376403568349813e-03 5.752756875115555e-03 0.000000000000000e+00 0.000000000000000e+00 5.752756875115557e-03 5.748233239590882e-03 0.000000000000000e+00 0.000000000000000e+00 5.748233239590882e-03 5.152558277862883e-03 7.947544551425012e-04 1.428128418807897e-03 1.296200425935380e-02 2.338555850563912e-02 1.428128418807897e-03 2.285496650454051e-03 2.338555850563912e-02 3.611193318370424e-02 2.285496650454052e-03 3.393088832614102e-03 3.611193318370425e-02 5.039519067253243e-02 3.393088832614103e-03 4.536550725945814e-03 5.039519067253245e-02 6.466015276347982e-02 4.536550725945815e-03 5.376403568349812e-03 6.466015276347985e-02 7.655198534899693e-02 5.376403568349813e-03 5.752756875115555e-03 7.655198534899696e-02 8.335430970320984e-02 5.752756875115557e-03 5.748233239590882e-03 8.335430970320987e-02 8.209303056992630e-02 5.748233239590882e-03 5.152558277862883e-03 8.209303056992630e-02 6.930452499049852e-02 1.296200425935380e-02 2.338555850563913e-02 6.242753682478664e-02 1.136563267707366e-01 2.338555850563913e-02 3.611193318370425e-02 1.136563267707366e-01 1.769349901353942e-01 3.611193318370425e-02 5.039519067253244e-02 1.769349901353942e-01 2.458553153272433e-01 5.039519067253245e-02 6.466015276347985e-02 2.458553153272434e-01 3.109177127430668e-01 6.466015276347985e-02 7.655198534899696e-02 3.109177127430669e-01 3.598599486267252e-01 7.655198534899697e-02 8.335430970320987e-02 3.598599486267253e-01 3.791246097426508e-01 8.335430970320989e-02 8.209303056992630e-02 3.791246097426510e-01 3.566460670871254e-01 8.209303056992631e-02 6.930452499049855e-02 3.566460670871254e-01 2.870772417985890e-01 6.242753682478665e-02 1.136563267707366e-01 1.815418040074083e-01 3.286162645063650e-01 1.136563267707366e-01 1.769349901353942e-01 3.286162645063651e-01 5.116389570136375e-01 1.769349901353942e-01 2.458553153272434e-01 5.116389570136376e-01 7.078339350145770e-01 2.458553153272434e-01 3.109177127430668e-01 7.078339350145771e-01 8.842260567516642e-01 3.109177127430670e-01 3.598599486267253e-01 8.842260567516644e-01 1.002271889166818e+00 3.598599486267254e-01 3.791246097426509e-01 1.002271889166818e+00 1.025899926973794e+00 3.791246097426511e-01 3.566460670871254e-01 1.025899926973795e+00 9.332611503403672e-01 3.566460670871254e-01 2.870772417985890e-01 9.332611503403672e-01 7.305339166777259e-01 1.815418040074084e-01 3.286162645063651e-01 3.967066208876909e-01 7.031234319856401e-01 3.286162645063651e-01 5.116389570136376e-01 7.031234319856401e-01 1.081582857856914e+00 5.116389570136377e-01 7.078339350145771e-01 1.081582857856914e+00 1.480043104809581e+00 7.078339350145774e-01 8.842260567516644e-01 1.480043104809582e+00 1.824639805295732e+00 8.842260567516647e-01 1.002271889166818e+00 1.824639805295732e+00 2.034549383696550e+00 1.002271889166819e+00 1.025899926973795e+00 2.034549383696551e+00 2.043931998612941e+00 1.025899926973795e+00 9.332611503403674e-01 2.043931998612942e+00 1.826859206729060e+00 9.332611503403674e-01 7.305339166777260e-01 1.826859206729060e+00 1.417457908096668e+00 3.967066208876910e-01 7.031234319856402e-01 7.180691340671005e-01 1.229517592562286e+00 7.031234319856403e-01 1.081582857856915e+00 1.229517592562286e+00 1.848212534294013e+00 1.081582857856915e+00 1.480043104809582e+00 1.848212534294013e+00 2.485820084359820e+00 1.480043104809582e+00 1.824639805295732e+00 2.485820084359821e+00 3.021395754508899e+00 1.824639805295733e+00 2.034549383696551e+00 3.021395754508900e+00 3.328954676849803e+00 2.034549383696552e+00 2.043931998612942e+00 3.328954676849804e+00 3.314654414250114e+00 2.043931998612943e+00 1.826859206729060e+00 3.314654414250114e+00 2.953319418638952e+00 1.826859206729061e+00 1.417457908096668e+00 2.953319418638952e+00 2.310413642624870e+00 7.180691340671007e-01 1.229517592562286e+00 1.134704092957366e+00 1.854345907905816e+00 1.229517592562286e+00 1.848212534294013e+00 1.854345907905816e+00 2.698922460498756e+00 1.848212534294014e+00 2.485820084359820e+00 2.698922460498756e+00 3.549541381426498e+00 2.485820084359821e+00 3.021395754508900e+00 3.549541381426498e+00 4.250867782453660e+00 3.021395754508901e+00 3.328954676849804e+00 4.250867782453661e+00 4.646759297349722e+00 3.328954676849806e+00 3.314654414250114e+00 4.646759297349723e+00 4.625411178551097e+00 3.314654414250116e+00 2.953319418638953e+00 4.625411178551098e+00 4.160686028656936e+00 2.953319418638953e+00 2.310413642624871e+00 4.160686028656937e+00 3.333597608586665e+00 1.134704092957366e+00 1.854345907905816e+00 1.615596985644784e+00 2.491257794096840e+00 1.854345907905816e+00 2.698922460498756e+00 2.491257794096840e+00 3.482258529969670e+00 2.698922460498756e+00 3.549541381426498e+00 3.482258529969670e+00 4.458784552343971e+00 3.549541381426498e+00 4.250867782453660e+00 4.458784552343971e+00 5.259520239046987e+00 4.250867782453661e+00 4.646759297349722e+00 5.259520239046987e+00 5.725646558798379e+00 4.646759297349723e+00 4.625411178551097e+00 5.725646558798380e+00 5.742206184179398e+00 4.625411178551099e+00 4.160686028656937e+00 5.742206184179400e+00 5.275571752398773e+00 4.160686028656938e+00 3.333597608586665e+00 5.275571752398774e+00 4.393921691966710e+00 
				</DataArray>
			</PointData>
			<CellData>
			</CellData>
		</Piece>
	</UnstructuredGrid>
</VTKFile>