<?xml version="1.0"?>
<VTKFile type="UnstructuredGrid" byte_order="LittleEndian">
	<UnstructuredGrid>
		<Piece NumberOfPoints="256" NumberOfCells="64">
			<Points>
				<DataArray type="Float64" NumberOfComponents="3" format="ascii">
					-5.000000000000000e-01 -5.000000000000000e-01 0.000000000000000e+00
					-3.750000000000000e-01 -5.000000000000000e-01 0.000000000000000e+00
					-5.000000000000000e-01 -3.750000000000000e-01 0.000000000000000e+00
					-3.750000000000000e-01 -3.750000000000000e-01 0.000000000000000e+00
					-3.750000000000000e-01 -5.000000000000000e-01 0.000000000000000e+00
					-2.500000000000000e-01 -5.000000000000000e-01 0.000000000000000e+00
					-3.750000000000000e-01 -3.750000000000000e-01 0.000000000000000e+00
					-2.500000000000000e-01 -3.750000000000000e-01 0.000000000000000e+00
					-2.500000000000000e-01 -5.000000000000000e-01 0.000000000000000e+00
					-1.250000000000000e-01 -5.000000000000000e-01 0.000000000000000e+00
					-2.500000000000000e-01 -3.750000000000000e-01 0.000000000000000e+00
					-1.250000000000000e-01 -3.750000000000000e-01 0.000000000000000e+00
					-1.250000000000000e-01 -5.000000000000000e-01 0.000000000000000e+00
					0.000000000000000e+00 -5.000000000000000e-01 0.000000000000000e+00
					-1.250000000000000e-01 -3.750000000000000e-01 0.000000000000000e+00
					0.000000000000000e+00 -3.750000000000000e-01 0.000000000000000e+00
					0.000000000000000e+00 -5.000000000000000e-01 0.000000000000000e+00
					1.250000000000000e-01 -5.000000000000000e-01 0.000000000000000e+00
					0.000000000000000e+00 -3.750000000000000e-01 0.000000000000000e+00
					1.250000000000000e-01 -3.750000000000000e-01 0.000000000000000e+00
					1.250000000000000e-01 -5.000000000000000e-01 0.000000000000000e+00
					2.500000000000000e-01 -5.000000000000000e-01 0.000000000000000e+00
					1.250000000000000e-01 -3.750000000000000e-01 0.000000000000000e+00
					2.500000000000000e-01 -3.750000000000000e-01 0.000000000000000e+00
					2.500000000000000e-01 -5.000000000000000e-01 0.000000000000000e+00
					3.750000000000000e-01 -5.000000000000000e-01 0.000000000000000e+00
					2.500000000000000e-01 -3.750000000000000e-01 0.000000000000000e+00
					3.750000000000000e-01 -3.750000000000000e-01 0.000000000000000e+00
					3.750000000000000e-01 -5.000000000000000e-01 0.000000000000000e+00
					5.000000000000000e-01 -5.000000000000000e-01 0.000000000000000e+00
					3.750000000000000e-01 -3.750000000000000e-01 0.000000000000000e+00
					5.000000000000000e-01 -3.750000000000000e-01 0.000000000000000e+00
					-5.000000000000000e-01 -3.750000000000000e-01 0.000000000000000e+00
					-3.750000000000000e-01 -3.750000000000000e-01 0.000000000000000e+00
					-5.000000000000000e-01 -2.500000000000000e-01 0.000000000000000e+00
					-3.750000000000001e-01 -2.500000000000000e-01 0.000000000000000e+00
					-3.750000000000000e-01 -3.750000000000000e-01 0.000000000000000e+00
					-2.500000000000000e-01 -3.750000000000000e-01 0.000000000000000e+00
					-3.750000000000001e-01 -2.500000000000000e-01 0.000000000000000e+00
					-2.500000000000000e-01 -2.500000000000000e-01 0.000000000000000e+00
					-2.500000000000000e-01 -3.750000000000000e-01 0.000000000000000e+00
					-1.250000000000000e-01 -3.750000000000000e-01 0.000000000000000e+00
					-2.500000000000000e-01 -2.500000000000000e-01 0.000000000000000e+00
					-1.250000000000000e-01 -2.500000000000000e-01 0.000000000000000e+00
					-1.250000000000000e-01 -3.750000000000000e-01 0.000000000000000e+00
					0.000000000000000e+00 -3.750000000000000e-01 0.000000000000000e+00
					-1.250000000000000e-01 -2.500000000000000e-01 0.000000000000000e+00
					0.000000000000000e+00 -2.500000000000000e-01 0.000000000000000e+00
					0.000000000000000e+00 -3.750000000000000e-01 0.000000000000000e+00
					1.250000000000000e-01 -3.750000000000000e-01 0.000000000000000e+00
					0.000000000000000e+00 -2.500000000000000e-01 0.000000000000000e+00
					1.250000000000000e-01 -2.500000000000000e-01 0.000000000000000e+00
					1.250000000000000e-01 -3.750000000000000e-01 0.000000000000000e+00
					2.500000000000000e-01 -3.750000000000000e-01 0.000000000000000e+00
					1.250000000000000e-01 -2.500000000000000e-01 0.000000000000000e+00
					2.500000000000000e-01 -2.500000000000000e-01 0.000000000000000e+00
					2.500000000000000e-01 -3.750000000000000e-01 0.000000000000000e+00
					3.750000000000000e-01 -3.750000000000000e-01 0.000000000000000e+00
					2.500000000000000e-01 -2.500000000000000e-01 0.000000000000000e+00
					3.750000000000001e-01 -2.500000000000000e-01 0.000000000000000e+00
					3.750000000000000e-01 -3.750000000000000e-01 0.000000000000000e+00
					5.000000000000000e-01 -3.750000000000000e-01 0.000000000000000e+00
					3.750000000000001e-01 -2.500000000000000e-01 0.000000000000000e+00
					5.000000000000000e-01 -2.500000000000000e-01 0.000000000000000e+00
					-5.000000000000000e-01 -2.500000000000000e-01 0.000000000000000e+00
					-3.750000000000001e-01 -2.500000000000000e-01 0.000000000000000e+00
					-5.000000000000000e-01 -1.250000000000000e-01 0.000000000000000e+00
					-3.750000000000001e-01 -1.250000000000000e-01 0.000000000000000e+00
					-3.750000000000001e-01 -2.500000000000000e-01 0.000000000000000e+00
					-2.500000000000000e-01 -2.500000000000000e-01 0.000000000000000e+00
					-3.750000000000001e-01 -1.250000000000000e-01 0.000000000000000e+00
					-2.500000000000000e-01 -1.250000000000000e-01 0.000000000000000e+00
					-2.500000000000000e-01 -2.500000000000000e-01 0.000000000000000e+00
					-1.250000000000000e-01 -2.500000000000000e-01 0.000000000000000e+00
					-2.500000000000000e-01 -1.250000000000000e-01 0.000000000000000e+00
					-1.250000000000000e-01 -1.250000000000000e-01 0.000000000000000e+00
					-1.250000000000000e-01 -2.500000000000000e-01 0.000000000000000e+00
					0.000000000000000e+00 -2.500000000000000e-01 0.000000000000000e+00
					-1.250000000000000e-01 -1.250000000000000e-01 0.000000000000000e+00
					0.000000000000000e+00 -1.250000000000000e-01 0.000000000000000e+00
					0.000000000000000e+00 -2.500000000000000e-01 0.000000000000000e+00
					1.250000000000000e-01 -2.500000000000000e-01 0.000000000000000e+00
					0.000000000000000e+00 -1.250000000000000e-01 0.000000000000000e+00
					1.250000000000000e-01 -1.250000000000000e-01 0.000000000000000e+00
					1.250000000000000e-01 -2.500000000000000e-01 0.000000000000000e+00
					2.500000000000000e-01 -2.500000000000000e-01 0.000000000000000e+00
					1.250000000000000e-01 -1.250000000000000e-01 0.000000000000000e+00
					2.500000000000000e-01 -1.250000000000000e-01 0.000000000000000e+00
					2.500000000000000e-01 -2.500000000000000e-01 0.000000000000000e+00
					3.750000000000001e-01 -2.500000000000000e-01 0.000000000000000e+00
					2.500000000000000e-01 -1.250000000000000e-01 0.000000000000000e+00
					3.750000000000001e-01 -1.250000000000000e-01 0.000000000000000e+00
					3.750000000000001e-01 -2.500000000000000e-01 0.000000000000000e+00
					5.000000000000000e-01 -2.500000000000000e-01 0.000000000000000e+00
					3.750000000000001e-01 -1.250000000000000e-01 0.000000000000000e+00
					5.000000000000000e-01 -1.250000000000000e-01 0.000000000000000e+00
					-5.000000000000000e-01 -1.250000000000000e-01 0.000000000000000e+00
					-3.750000000000001e-01 -1.250000000000000e-01 0.000000000000000e+00
					-5.000000000000000e-01 0.000000000000000e+00 0.000000000000000e+00
					-3.750000000000000e-01 0.000000000000000e+00 0.000000000000000e+00
					-3.750000000000001e-01 -1.250000000000000e-01 0.000000000000000e+00
					-2.500000000000000e-01 -1.250000000000000e-01 0.000000000000000e+00
					-3.750000000000000e-01 0.000000000000000e+00 0.000000000000000e+00
					-2.500000000000000e-01 0.000000000000000e+00 0.000000000000000e+00
					-2.500000000000000e-01 -1.250000000000000e-01 0.000000000000000e+00
					-1.250000000000000e-01 -1.250000000000000e-01 0.000000000000000e+00
					-2.500000000000000e-01 0.000000000000000e+00 0.000000000000000e+00
					-1.250000000000000e-01 0.000000000000000e+00 0.000000000000000e+00
					-1.250000000000000e-01 -1.250000000000000e-01 0.000000000000000e+00
					0.000000000000000e+00 -1.250000000000000e-01 0.000000000000000e+00
					-1.250000000000000e-01 0.000000000000000e+00 0.000000000000000e+00
					0.000000000000000e+00 0.000000000000000e+00 0.000000000000000e+00
					0.000000000000000e+00 -1.250000000000000e-01 0.000000000000000e+00
					1.250000000000000e-01 -1.250000000000000e-01 0.000000000000000e+00
					0.000000000000000e+00 0.000000000000000e+00 0.000000000000000e+00
					1.250000000000000e-01 0.000000000000000e+00 0.000000000000000e+00
					1.250000000000000e-01 -1.250000000000000e-01 0.000000000000000e+00
					2.500000000000000e-01 -1.250000000000000e-01 0.000000000000000e+00
					1.250000000000000e-01 0.000000000000000e+00 0.000000000000000e+00
					2.500000000000000e-01 0.000000000000000e+00 0.000000000000000e+00
					2.500000000000000e-01 -1.250000000000000e-01 0.000000000000000e+00
					3.750000000000001e-01 -1.250000000000000e-01 0.000000000000000e+00
					2.500000000000000e-01 0.000000000000000e+00 0.000000000000000e+00
					3.750000000000001e-01 0.000000000000000e+00 0.000000000000000e+00
					3.750000000000001e-01 -1.250000000000000e-01 0.000000000000000e+00
					5.000000000000000e-01 -1.250000000000000e-01 0.000000000000000e+00
					3.750000000000001e-01 0.000000000000000e+00 0.000000000000000e+00
					5.000000000000000e-01 0.000000000000000e+00 0.000000000000000e+00
					-5.000000000000000e-01 0.000000000000000e+00 0.000000000000000e+00
					-3.750000000000000e-01 0.000000000000000e+00 0.000000000000000e+00
					-5.000000000000000e-01 1.250000000000000e-01 0.000000000000000e+00
					-3.750000000000000e-01 1.250000000000000e-01 0.000000000000000e+00
					-3.750000000000000e-01 0.000000000000000e+00 0.000000000000000e+00
					-2.500000000000000e-01 0.000000000000000e+00 0.000000000000000e+00
					-3.750000000000000e-01 1.250000000000000e-01 0.000000000000000e+00
					-2.500000000000000e-01 1.250000000000000e-01 0.000000000000000e+00
					-2.500000000000000e-01 0.000000000000000e+00 0.000000000000000e+00
					-1.250000000000000e-01 0.000000000000000e+00 0.000000000000000e+00
					-2.500000000000000e-01 1.250000000000000e-01 0.000000000000000e+00
					-1.250000000000000e-01 1.250000000000000e-01 0.000000000000000e+00
					-1.250000000000000e-01 0.000000000000000e+00 0.000000000000000e+00
					0.000000000000000e+00 0.000000000000000e+00 0.000000000000000e+00
					-1.250000000000000e-01 1.250000000000000e-01 0.000000000000000e+00
					0.000000000000000e+00 1.250000000000000e-01 0.000000000000000e+00
					0.000000000000000e+00 0.000000000000000e+00 0.000000000000000e+00
					1.250000000000000e-01 0.000000000000000e+00 0.000000000000000e+00
					0.000000000000000e+00 1.250000000000000e-01 0.000000000000000e+00
					1.250000000000000e-01 1.250000000000000e-01 0.000000000000000e+00
					1.250000000000000e-01 0.000000000000000e+00 0.000000000000000e+00
					2.500000000000000e-01 0.000000000000000e+00 0.000000000000000e+00
					1.250000000000000e-01 1.250000000000000e-01 0.000000000000000e+00
					2.500000000000000e-01 1.250000000000000e-01 0.000000000000000e+00
					2.500000000000000e-01 0.000000000000000e+00 0.000000000000000e+00
					3.750000000000001e-01 0.000000000000000e+00 0.000000000000000e+00
					2.500000000000000e-01 1.250000000000000e-01 0.000000000000000e+00
					3.750000000000000e-01 1.250000000000000e-01 0.000000000000000e+00
					3.750000000000001e-01 0.000000000000000e+00 0.000000000000000e+00
					5.000000000000000e-01 0.000000000000000e+00 0.000000000000000e+00
					3.750000000000000e-01 1.250000000000000e-01 0.000000000000000e+00
					5.000000000000000e-01 1.250000000000000e-01 0.000000000000000e+00
					-5.000000000000000e-01 1.250000000000000e-01 0.000000000000000e+00
					-3.750000000000000e-01 1.250000000000000e-01 0.000000000000000e+00
					-5.000000000000000e-01 2.500000000000000e-01 0.000000000000000e+00
					-3.750000000000000e-01 2.500000000000000e-01 0.000000000000000e+00
					-3.750000000000000e-01 1.250000000000000e-01 0.000000000000000e+00
					-2.500000000000000e-01 1.250000000000000e-01 0.000000000000000e+00
					-3.750000000000000e-01 2.500000000000000e-01 0.000000000000000e+00
					-2.500000000000000e-01 2.500000000000000e-01 0.000000000000000e+00
					-2.500000000000000e-01 1.250000000000000e-01 0.000000000000000e+00
					-1.250000000000000e-01 1.250000000000000e-01 0.000000000000000e+00
					-2.500000000000000e-01 2.500000000000000e-01 0.000000000000000e+00
					-1.250000000000000e-01 2.500000000000000e-01 0.000000000000000e+00
					-1.250000000000000e-01 1.250000000000000e-01 0.000000000000000e+00
					0.000000000000000e+00 1.250000000000000e-01 0.000000000000000e+00
					-1.250000000000000e-01 2.500000000000000e-01 0.000000000000000e+00
					0.000000000000000e+00 2.500000000000000e-01 0.000000000000000e+00
					0.000000000000000e+00 1.250000000000000e-01 0.000000000000000e+00
					1.250000000000000e-01 1.250000000000000e-01 0.000000000000000e+00
					0.000000000000000e+00 2.500000000000000e-01 0.000000000000000e+00
					1.250000000000000e-01 2.500000000000000e-01 0.000000000000000e+00
					1.250000000000000e-01 1.250000000000000e-01 0.000000000000000e+00
					2.500000000000000e-01 1.250000000000000e-01 0.000000000000000e+00
					1.250000000000000e-01 2.500000000000000e-01 0.000000000000000e+00
					2.500000000000000e-01 2.500000000000000e-01 0.000000000000000e+00
					2.500000000000000e-01 1.250000000000000e-01 0.000000000000000e+00
					3.750000000000000e-01 1.250000000000000e-01 0.000000000000000e+00
					2.500000000000000e-01 2.500000000000000e-01 0.000000000000000e+00
					3.750000000000000e-01 2.500000000000000e-01 0.000000000000000e+00
					3.750000000000000e-01 1.250000000000000e-01 0.000000000000000e+00
					5.000000000000000e-01 1.250000000000000e-01 0.000000000000000e+00
					3.750000000000000e-01 2.500000000000000e-01 0.000000000000000e+00
					5.000000000000000e-01 2.500000000000000e-01 0.000000000000000e+00
					-5.000000000000000e-01 2.500000000000000e-01 0.000000000000000e+00
					-3.750000000000000e-01 2.500000000000000e-01 0.000000000000000e+00
					-5.000000000000000e-01 3.750000000000000e-01 0.000000000000000e+00
					-3.750000000000000e-01 3.750000000000000e-01 0.000000000000000e+00
					-3.750000000000000e-01 2.500000000000000e-01 0.000000000000000e+00
					-2.500000000000000e-01 2.500000000000000e-01 0.000000000000000e+00
					-3.750000000000000e-01 3.750000000000000e-01 0.000000000000000e+00
					-2.500000000000000e-01 3.750000000000000e-01 0.000000000000000e+00
					-2.500000000000000e-01 2.500000000000000e-01 0.000000000000000e+00
					-1.250000000000000e-01 2.500000000000000e-01 0.000000000000000e+00
					-2.500000000000000e-01 3.750000000000000e-01 0.000000000000000e+00
					-1.250000000000000e-01 3.750000000000000e-01 0.000000000000000e+00
					-1.250000000000000e-01 2.500000000000000e-01 0.000000000000000e+00
					0.000000000000000e+00 2.500000000000000e-01 0.000000000000000e+00
					-1.250000000000000e-01 3.750000000000000e-01 0.000000000000000e+00
					0.000000000000000e+00 3.750000000000000e-01 0.000000000000000e+00
					0.000000000000000e+00 2.500000000000000e-01 0.000000000000000e+00
					1.250000000000000e-01 2.500000000000000e-01 0.000000000000000e+00
					0.000000000000000e+00 3.750000000000000e-01 0.000000000000000e+00
					1.250000000000000e-01 3.750000000000000e-01 0.000000000000000e+00
					1.250000000000000e-01 2.500000000000000e-01 0.000000000000000e+00
					2.500000000000000e-01 2.500000000000000e-01 0.000000000000000e+00
					1.250000000000000e-01 3.750000000000000e-01 0.000000000000000e+00
					2.500000000000000e-01 3.750000000000000e-01 0.000000000000000e+00
					2.500000000000000e-01 2.500000000000000e-01 0.000000000000000e+00
					3.750000000000000e-01 2.500000000000000e-01 0.000000000000000e+00
					2.500000000000000e-01 3.750000000000000e-01 0.000000000000000e+00
					3.750000000000000e-01 3.750000000000000e-01 0.000000000000000e+00
					3.750000000000000e-01 2.500000000000000e-01 0.000000000000000e+00
					5.000000000000000e-01 2.500000000000000e-01 0.000000000000000e+00
					3.750000000000000e-01 3.750000000000000e-01 0.000000000000000e+00
					5.000000000000000e-01 3.750000000000000e-01 0.000000000000000e+00
					-5.000000000000000e-01 3.750000000000000e-01 0.000000000000000e+00
					-3.750000000000000e-01 3.750000000000000e-01 0.000000000000000e+00
					-5.000000000000000e-01 5.000000000000000e-01 0.000000000000000e+00
					-3.750000000000000e-01 5.000000000000000e-01 0.000000000000000e+00
					-3.750000000000000e-01 3.750000000000000e-01 0.000000000000000e+00
					-2.500000000000000e-01 3.750000000000000e-01 0.000000000000000e+00
					-3.750000000000000e-01 5.000000000000000e-01 0.000000000000000e+00
					-2.500000000000000e-01 5.000000000000000e-01 0.000000000000000e+00
					-2.500000000000000e-01 3.750000000000000e-01 0.000000000000000e+00
					-1.250000000000000e-01 3.750000000000000e-01 0.000000000000000e+00
					-2.500000000000000e-01 5.000000000000000e-01 0.000000000000000e+00
					-1.250000000000000e-01 5.000000000000000e-01 0.000000000000000e+00
					-1.250000000000000e-01 3.750000000000000e-01 0.000000000000000e+00
					0.000000000000000e+00 3.750000000000000e-01 0.000000000000000e+00
					-1.250000000000000e-01 5.000000000000000e-01 0.000000000000000e+00
					0.000000000000000e+00 5.000000000000000e-01 0.000000000000000e+00
					0.000000000000000e+00 3.750000000000000e-01 0.000000000000000e+00
					1.250000000000000e-01 3.750000000000000e-01 0.000000000000000e+00
					0.000000000000000e+00 5.000000000000000e-01 0.000000000000000e+00
					1.250000000000000e-01 5.000000000000000e-01 0.000000000000000e+00
					1.250000000000000e-01 3.750000000000000e-01 0.000000000000000e+00
					2.500000000000000e-01 3.750000000000000e-01 0.000000000000000e+00
					1.250000000000000e-01 5.000000000000000e-01 0.000000000000000e+00
					2.500000000000000e-01 5.000000000000000e-01 0.000000000000000e+00
					2.500000000000000e-01 3.750000000000000e-01 0.000000000000000e+00
					3.750000000000000e-01 3.750000000000000e-01 0.000000000000000e+00
					2.500000000000000e-01 5.000000000000000e-01 0.000000000000000e+00
					3.750000000000000e-01 5.000000000000000e-01 0.000000000000000e+00
					3.750000000000000e-01 3.750000000000000e-01 0.000000000000000e+00
					5.000000000000000e-01 3.750000000000000e-01 0.000000000000000e+00
					3.750000000000000e-01 5.000000000000000e-01 0.000000000000000e+00
					5.000000000000000e-01 5.000000000000000e-01 0.000000000000000e+00
				</DataArray>
			</Points>
			<Cells>
				<DataArray Name="connectivity" type="UInt32" format="ascii">
					0 1 3 2 4 5 7 6 8 9 11 10 12 13 15 14 16 17 19 18 20 21 23 22 24 25 27 26 28 29 31 30 32 33 35 34 36 37 39 38 40 41 43 42 44 45 47 46 48 49 51 50 52 53 55 54 56 57 59 58 60 61 63 62 64 65 67 66 68 69 71 70 72 73 75 74 76 77 79 78 80 81 83 82 84 85 87 86 88 89 91 90 92 93 95 94 96 97 99 98 100 101 103 102 104 105 107 106 108 109 111 110 112 113 115 114 116 117 119 118 120 121 123 122 124 125 127 126 128 129 131 130 132 133 135 134 136 137 139 138 140 141 143 142 144 145 147 146 148 149 151 150 152 153 155 154 156 157 159 158 160 161 163 162 164 165 167 166 168 169 171 170 172 173 175 174 176 177 179 178 180 181 183 182 184 185 187 186 188 189 191 190 192 193 195 194 196 197 199 198 200 201 203 202 204 205 207 206 208 209 211 210 212 213 215 214 216 217 219 218 220 221 223 222 224 225 227 226 228 229 231 230 232 233 235 234 236 237 239 238 240 241 243 242 244 245 247 246 248 249 251 250 252 253 255 254 
				</DataArray>
				<DataArray Name="offsets" type="UInt32" format="ascii">
					4 8 12 16 20 24 28 32 36 40 44 48 52 56 60 64 68 72 76 80 84 88 92 96 100 104 108 112 116 120 124 128 132 136 140 144 148 152 156 160 164 168 172 176 180 184 188 192 196 200 204 208 212 216 220 224 228 232 236 240 244 248 252 256 
				</DataArray>
				<DataArray Name="types" type="UInt8" format="ascii">
					9 9 9 9 9 9 9 9 9 9 9 9 9 9 9 9 9 9 9 9 9 9 9 9 9 9 9 9 9 9 9 9 9 9 9 9 9 9 9 9 9 9 9 9 9 9 9 9 9 9 9 9 9 9 9 9 9 9 9 9 9 9 9 9 
				</DataArray>
			</Cells>
			<PointData Vectors="solution ">
				<DataArray Name="solution" type="Float64" NumberOfComponents="1" format="ascii">
					1.615596985644784e+00 2.491257794096840e+00 2.823140142419195e+00 4.260695276193124e+00 2.491257794096840e+00 3.482258529969670e+00 4.260695276193124e+00 5.873959391794464e+00 3.482258529969670e+00 4.458784552343971e+00 5.873959391794465e+00 7.463324279334531e+00 4.458784552343971e+00 5.259520239046987e+00 7.463324279334532e+00 8.781631595181569e+00 5.259520239046987e+00 5.725646558798379e+00 8.781631595181572e+00 9.583504415921933e+00 5.725646558798380e+00 5.742206184179398e+00 9.583504415921936e+00 9.685433271385335e+00 5.742206184179400e+00 5.275571752398773e+00 9.685433271385337e+00 9.021513265100102e+00 5.275571752398774e+00 4.393921691966710e+00 9.021513265100104e+00 7.676776048131490e+00 2.823140142419195e+00 4.260695276193124e+00 4.471786180824251e+00 6.656298724571132e+00 4.260695276193124e+00 5.873959391794465e+00 6.656298724571133e+00 9.095335113906744e+00 5.873959391794465e+00 7.463324279334532e+00 9.095335113906744e+00 1.149868592105847e+01 7.463324279334534e+00 8.781631595181571e+00 1.149868592105848e+01 1.350789946202280e+01 8.781631595181572e+00 9.583504415921936e+00 1.350789946202280e+01 1.476501649487898e+01 9.583504415921936e+00 9.685433271385337e+00 1.476501649487898e+01 1.499664942637572e+01 9.685433271385341e+00 9.021513265100104e+00 1.499664942637573e+01 1.409320547694389e+01 9.021513265100106e+00 7.676776048131492e+00 1.409320547694389e+01 1.215872952002105e+01 4.471786180824251e+00 6.656298724571133e+00 6.488323377900950e+00 9.583564608539961e+00 6.656298724571134e+00 9.095335113906744e+00 9.583564608539961e+00 1.302988995975056e+01 9.095335113906744e+00 1.149868592105848e+01 1.302988995975056e+01 1.642655318574575e+01 1.149868592105848e+01 1.350789946202280e+01 1.642655318574575e+01 1.927922782949311e+01 1.350789946202280e+01 1.476501649487898e+01 1.927922782949312e+01 2.109256073782244e+01 1.476501649487899e+01 1.499664942637572e+01 2.109256073782244e+01 2.148375537802313e+01 1.499664942637573e+01 1.409320547694389e+01 2.148375537802313e+01 2.029050584315253e+01 1.409320547694389e+01 1.215872952002105e+01 2.029050584315253e+01 1.764082843848314e+01 6.488323377900952e+00 9.583564608539962e+00 8.672634239652531e+00 1.277792315058056e+01 9.583564608539962e+00 1.302988995975056e+01 1.277792315058056e+01 1.734485591990079e+01 1.302988995975056e+01 1.642655318574575e+01 1.734485591990079e+01 2.184639571346207e+01 1.642655318574576e+01 1.927922782949312e+01 2.184639571346208e+01 2.563269788227776e+01 1.927922782949313e+01 2.109256073782244e+01 2.563269788227777e+01 2.805183463298867e+01 2.109256073782245e+01 2.148375537802313e+01 2.805183463298868e+01 2.859808289095884e+01 2.148375537802313e+01 2.029050584315253e+01 2.859808289095884e+01 2.705328302916643e+01 2.029050584315254e+01 1.764082843848315e+01 2.705328302916643e+01 2.357900553913451e+01 8.672634239652533e+00 1.277792315058056e+01 1.069860700276397e+01 1.580159716634788e+01 1.277792315058057e+01 1.734485591990079e+01 1.580159716634788e+01 2.148355793768647e+01 1.734485591990079e+01 2.184639571346208e+01 2.148355793768647e+01 2.708371657085666e+01 2.184639571346208e+01 2.563269788227777e+01 2.708371657085667e+01 3.178702380858752e+01 2.563269788227777e+01 2.805183463298868e+01 3.178702380858753e+01 3.477675938879074e+01 2.805183463298868e+01 2.859808289095884e+01 3.477675938879075e+01 3.542183371782868e+01 2.859808289095885e+01 2.705328302916644e+01 3.542183371782869e+01 3.345476761773466e+01 2.705328302916644e+01 2.357900553913451e+01 3.345476761773466e+01 2.908681868614875e+01 1.069860700276397e+01 1.580159716634788e+01 1.215850453833891e+01 1.809625749374193e+01 1.580159716634788e+01 2.148355793768647e+01 1.809625749374194e+01 2.472619512726526e+01 2.148355793768648e+01 2.708371657085667e+01 2.472619512726526e+01 3.125928020881962e+01 2.708371657085667e+01 3.178702380858753e+01 3.125928020881962e+01 3.672104669520069e+01 3.178702380858753e+01 3.477675938879075e+01 3.672104669520070e+01 4.013839979112918e+01 3.477675938879076e+01 3.542183371782869e+01 4.013839979112919e+01 4.076823310138963e+01 3.542183371782870e+01 3.345476761773466e+01 4.076823310138965e+01 3.831291301308886e+01 3.345476761773467e+01 2.908681868614875e+01 3.831291301308887e+01 3.305578675502718e+01 1.215850453833892e+01 1.809625749374194e+01 1.265804156804726e+01 1.910046555349583e+01 1.809625749374194e+01 2.472619512726527e+01 1.910046555349583e+01 2.633082552433022e+01 2.472619512726527e+01 3.125928020881962e+01 2.633082552433022e+01 3.345426432530150e+01 3.125928020881963e+01 3.672104669520070e+01 3.345426432530150e+01 3.936295254834742e+01 3.672104669520071e+01 4.013839979112919e+01 3.936295254834743e+01 4.295705934538923e+01 4.013839979112919e+01 4.076823310138965e+01 4.295705934538925e+01 4.341415371732831e+01 4.076823310138965e+01 3.831291301308887e+01 4.341415371732831e+01 4.043927723083925e+01 3.831291301308887e+01 3.305578675502719e+01 4.043927723083925e+01 3.441429779935844e+01 1.265804156804727e+01 1.910046555349583e+01 1.194702900886054e+01 1.841848509941928e+01 1.910046555349583e+01 2.633082552433022e+01 1.841848509941928e+01 2.574214197833173e+01 2.633082552433022e+01 3.345426432530150e+01 2.574214197833174e+01 3.295895071614768e+01 3.345426432530151e+01 3.936295254834742e+01 3.295895071614768e+01 3.887660790841636e+01 3.936295254834744e+01 4.295705934538923e+01 3.887660790841637e+01 4.232164180080906e+01 4.295705934538925e+01 4.341415371732831e+01 4.232164180080908e+01 4.244435503802735e+01 4.341415371732833e+01 4.043927723083925e+01 4.244435503802736e+01 3.899666655563693e+01 4.043927723083925e+01 3.441429779935844e+01 3.899666655563693e+01 3.248207403714360e+01 
				</DataArray>
			</PointData>
			<CellData>
			</CellData>
		</Piece>
	</UnstructuredGrid>
</VTKFile>