<?xml version="1.0"?>
<VTKFile type="UnstructuredGrid" byte_order="LittleEndian">
	<UnstructuredGrid>
		<Piece NumberOfPoints="256" NumberOfCells="64">
			<Points>
				<DataArray type="Float64" NumberOfComponents="3" format="ascii">
					1.000000000000000e+00 -1.000000000000000e+00 0.000000000000000e+00
					1.218750000000000e+00 -7.500000000000000e-01 0.000000000000000e+00
					9.135224194504830e-01 -9.135224194504830e-01 0.000000000000000e+00
					1.081002888200483e+00 -6.851418145878622e-01 0.000000000000000e+00
					1.218750000000000e+00 -7.500000000000000e-01 0.000000000000000e+00
					1.375000000000000e+00 -5.000000000000000e-01 0.000000000000000e+00
					1.081002888200483e+00 -6.851418145878622e-01 0.000000000000000e+00
					1.200631794450483e+00 -4.567612097252415e-01 0.000000000000000e+00
					1.375000000000000e+00 -5.000000000000000e-01 0.000000000000000e+00
					1.468750000000000e+00 -2.500000000000000e-01 0.000000000000000e+00
					1.200631794450483e+00 -4.567612097252415e-01 0.000000000000000e+00
					1.272409138200483e+00 -2.283806048626207e-01 0.000000000000000e+00
					1.468750000000000e+00 -2.500000000000000e-01 0.000000000000000e+00
					1.500000000000000e+00 0.000000000000000e+00 0.000000000000000e+00
					1.272409138200483e+00 -2.283806048626207e-01 0.000000000000000e+00
					1.296334919450483e+00 1.040834085586084e-17 0.000000000000000e+00
					1.500000000000000e+00 0.000000000000000e+00 0.000000000000000e+00
					1.468750000000000e+00 2.500000000000000e-01 0.000000000000000e+00
					1.296334919450483e+00 1.040834085586084e-17 0.000000000000000e+00
					1.272409138200483e+00 2.283806048626208e-01 0.000000000000000e+00
					1.468750000000000e+00 2.500000000000000e-01 0.000000000000000e+00
					1.375000000000000e+00 5.000000000000000e-01 0.000000000000000e+00
					1.272409138200483e+00 2.283806048626208e-01 0.000000000000000e+00
					1.200631794450483e+00 4.567612097252415e-01 0.000000000000000e+00
					1.375000000000000e+00 5.000000000000000e-01 0.000000000000000e+00
					1.218750000000000e+00 7.500000000000000e-01 0.000000000000000e+00
					1.200631794450483e+00 4.567612097252415e-01 0.000000000000000e+00
					1.081002888200483e+00 6.851418145878623e-01 0.000000000000000e+00
					1.218750000000000e+00 7.500000000000000e-01 0.000000000000000e+00
					1.000000000000000e+00 1.000000000000000e+00 0.000000000000000e+00
					1.081002888200483e+00 6.851418145878623e-01 0.000000000000000e+00
					9.135224194504830e-01 9.135224194504830e-01 0.000000000000000e+00
					9.135224194504830e-01 -9.135224194504830e-01 0.000000000000000e+00
					1.081002888200483e+00 -6.851418145878622e-01 0.000000000000000e+00
					8.338955762008279e-01 -8.338955762008279e-01 0.000000000000000e+00
					9.569424512008280e-01 -6.254216821506209e-01 0.000000000000000e+00
					1.081002888200483e+00 -6.851418145878622e-01 0.000000000000000e+00
					1.200631794450483e+00 -4.567612097252415e-01 0.000000000000000e+00
					9.569424512008280e-01 -6.254216821506209e-01 0.000000000000000e+00
					1.044833076200828e+00 -4.169477881004140e-01 0.000000000000000e+00
					1.200631794450483e+00 -4.567612097252415e-01 0.000000000000000e+00
					1.272409138200483e+00 -2.283806048626207e-01 0.000000000000000e+00
					1.044833076200828e+00 -4.169477881004140e-01 0.000000000000000e+00
					1.097567451200828e+00 -2.084738940502070e-01 0.000000000000000e+00
					1.272409138200483e+00 -2.283806048626207e-01 0.000000000000000e+00
					1.296334919450483e+00 1.040834085586084e-17 0.000000000000000e+00
					1.097567451200828e+00 -2.084738940502070e-01 0.000000000000000e+00
					1.115145576200828e+00 1.734723475976807e-17 0.000000000000000e+00
					1.296334919450483e+00 1.040834085586084e-17 0.000000000000000e+00
					1.272409138200483e+00 2.283806048626208e-01 0.000000000000000e+00
					1.115145576200828e+00 1.734723475976807e-17 0.000000000000000e+00
					1.097567451200828e+00 2.084738940502070e-01 0.000000000000000e+00
					1.272409138200483e+00 2.283806048626208e-01 0.000000000000000e+00
					1.200631794450483e+00 4.567612097252415e-01 0.000000000000000e+00
					1.097567451200828e+00 2.084738940502070e-01 0.000000000000000e+00
					1.044833076200828e+00 4.169477881004140e-01 0.000000000000000e+00
					1.200631794450483e+00 4.567612097252415e-01 0.000000000000000e+00
					1.081002888200483e+00 6.851418145878623e-01 0.000000000000000e+00
					1.044833076200828e+00 4.169477881004140e-01 0.000000000000000e+00
					9.569424512008280e-01 6.254216821506209e-01 0.000000000000000e+00
					1.081002888200483e+00 6.851418145878623e-01 0.000000000000000e+00
					9.135224194504830e-01 9.135224194504830e-01 0.000000000000000e+00
					9.569424512008280e-01 6.254216821506209e-01 0.000000000000000e+00
					8.338955762008279e-01 8.338955762008279e-01 0.000000000000000e+00
					8.338955762008279e-01 -8.338955762008279e-01 0.000000000000000e+00
					9.569424512008280e-01 -6.254216821506209e-01 0.000000000000000e+00
					7.611194702510349e-01 -7.611194702510349e-01 0.000000000000000e+00
					8.465686890010349e-01 -5.708396026882762e-01 0.000000000000000e+00
					9.569424512008280e-01 -6.254216821506209e-01 0.000000000000000e+00
					1.044833076200828e+00 -4.169477881004140e-01 0.000000000000000e+00
					8.465686890010349e-01 -5.708396026882762e-01 0.000000000000000e+00
					9.076038452510349e-01 -3.805597351255174e-01 0.000000000000000e+00
					1.044833076200828e+00 -4.169477881004140e-01 0.000000000000000e+00
					1.097567451200828e+00 -2.084738940502070e-01 0.000000000000000e+00
					9.076038452510349e-01 -3.805597351255174e-01 0.000000000000000e+00
					9.442249390010350e-01 -1.902798675627587e-01 0.000000000000000e+00
					1.097567451200828e+00 -2.084738940502070e-01 0.000000000000000e+00
					1.115145576200828e+00 1.734723475976807e-17 0.000000000000000e+00
					9.442249390010350e-01 -1.902798675627587e-01 0.000000000000000e+00
					9.564319702510349e-01 2.428612866367530e-17 0.000000000000000e+00
					1.115145576200828e+00 1.734723475976807e-17 0.000000000000000e+00
					1.097567451200828e+00 2.084738940502070e-01 0.000000000000000e+00
					9.564319702510349e-01 2.428612866367530e-17 0.000000000000000e+00
					9.442249390010349e-01 1.902798675627587e-01 0.000000000000000e+00
					1.097567451200828e+00 2.084738940502070e-01 0.000000000000000e+00
					1.044833076200828e+00 4.169477881004140e-01 0.000000000000000e+00
					9.442249390010349e-01 1.902798675627587e-01 0.000000000000000e+00
					9.076038452510349e-01 3.805597351255174e-01 0.000000000000000e+00
					1.044833076200828e+00 4.169477881004140e-01 0.000000000000000e+00
					9.569424512008280e-01 6.254216821506209e-01 0.000000000000000e+00
					9.076038452510349e-01 3.805597351255174e-01 0.000000000000000e+00
					8.465686890010349e-01 5.708396026882762e-01 0.000000000000000e+00
					9.569424512008280e-01 6.254216821506209e-01 0.000000000000000e+00
					8.338955762008279e-01 8.338955762008279e-01 0.000000000000000e+00
					8.465686890010349e-01 5.708396026882762e-01 0.000000000000000e+00
					7.611194702510349e-01 7.611194702510349e-01 0.000000000000000e+00
					7.611194702510349e-01 -7.611194702510349e-01 0.000000000000000e+00
					8.465686890010349e-01 -5.708396026882762e-01 0.000000000000000e+00
					6.951941016011038e-01 -6.951941016011038e-01 0.000000000000000e+00
					7.498816016011038e-01 -5.213955762008279e-01 0.000000000000000e+00
					8.465686890010349e-01 -5.708396026882762e-01 0.000000000000000e+00
					9.076038452510349e-01 -3.805597351255174e-01 0.000000000000000e+00
					7.498816016011038e-01 -5.213955762008279e-01 0.000000000000000e+00
					7.889441016011040e-01 -3.475970508005519e-01 0.000000000000000e+00
					9.076038452510349e-01 -3.805597351255174e-01 0.000000000000000e+00
					9.442249390010350e-01 -1.902798675627587e-01 0.000000000000000e+00
					7.889441016011040e-01 -3.475970508005519e-01 0.000000000000000e+00
					8.123816016011040e-01 -1.737985254002760e-01 0.000000000000000e+00
					9.442249390010350e-01 -1.902798675627587e-01 0.000000000000000e+00
					9.564319702510349e-01 2.428612866367530e-17 0.000000000000000e+00
					8.123816016011040e-01 -1.737985254002760e-01 0.000000000000000e+00
					8.201941016011038e-01 2.428612866367530e-17 0.000000000000000e+00
					9.564319702510349e-01 2.428612866367530e-17 0.000000000000000e+00
					9.442249390010349e-01 1.902798675627587e-01 0.000000000000000e+00
					8.201941016011038e-01 2.428612866367530e-17 0.000000000000000e+00
					8.123816016011038e-01 1.737985254002760e-01 0.000000000000000e+00
					9.442249390010349e-01 1.902798675627587e-01 0.000000000000000e+00
					9.076038452510349e-01 3.805597351255174e-01 0.000000000000000e+00
					8.123816016011038e-01 1.737985254002760e-01 0.000000000000000e+00
					7.889441016011038e-01 3.475970508005519e-01 0.000000000000000e+00
					9.076038452510349e-01 3.805597351255174e-01 0.000000000000000e+00
					8.465686890010349e-01 5.708396026882762e-01 0.000000000000000e+00
					7.889441016011038e-01 3.475970508005519e-01 0.000000000000000e+00
					7.498816016011038e-01 5.213955762008279e-01 0.000000000000000e+00
					8.465686890010349e-01 5.708396026882762e-01 0.000000000000000e+00
					7.611194702510349e-01 7.611194702510349e-01 0.000000000000000e+00
					7.498816016011038e-01 5.213955762008279e-01 0.000000000000000e+00
					6.951941016011038e-01 6.951941016011038e-01 0.000000000000000e+00
					6.951941016011038e-01 -6.951941016011038e-01 0.000000000000000e+00
					7.498816016011038e-01 -5.213955762008279e-01 0.000000000000000e+00
					6.361194702510349e-01 -6.361194702510349e-01 0.000000000000000e+00
					6.668811890010349e-01 -4.770896026882762e-01 0.000000000000000e+00
					7.498816016011038e-01 -5.213955762008279e-01 0.000000000000000e+00
					7.889441016011040e-01 -3.475970508005519e-01 0.000000000000000e+00
					6.668811890010349e-01 -4.770896026882762e-01 0.000000000000000e+00
					6.888538452510349e-01 -3.180597351255174e-01 0.000000000000000e+00
					7.889441016011040e-01 -3.475970508005519e-01 0.000000000000000e+00
					8.123816016011040e-01 -1.737985254002760e-01 0.000000000000000e+00
					6.888538452510349e-01 -3.180597351255174e-01 0.000000000000000e+00
					7.020374390010350e-01 -1.590298675627587e-01 0.000000000000000e+00
					8.123816016011040e-01 -1.737985254002760e-01 0.000000000000000e+00
					8.201941016011038e-01 2.428612866367530e-17 0.000000000000000e+00
					7.020374390010350e-01 -1.590298675627587e-01 0.000000000000000e+00
					7.064319702510349e-01 1.734723475976807e-17 0.000000000000000e+00
					8.201941016011038e-01 2.428612866367530e-17 0.000000000000000e+00
					8.123816016011038e-01 1.737985254002760e-01 0.000000000000000e+00
					7.064319702510349e-01 1.734723475976807e-17 0.000000000000000e+00
					7.020374390010349e-01 1.590298675627587e-01 0.000000000000000e+00
					8.123816016011038e-01 1.737985254002760e-01 0.000000000000000e+00
					7.889441016011038e-01 3.475970508005519e-01 0.000000000000000e+00
					7.020374390010349e-01 1.590298675627587e-01 0.000000000000000e+00
					6.888538452510349e-01 3.180597351255174e-01 0.000000000000000e+00
					7.889441016011038e-01 3.475970508005519e-01 0.000000000000000e+00
					7.498816016011038e-01 5.213955762008279e-01 0.000000000000000e+00
					6.888538452510349e-01 3.180597351255174e-01 0.000000000000000e+00
					6.668811890010349e-01 4.770896026882762e-01 0.000000000000000e+00
					7.498816016011038e-01 5.213955762008279e-01 0.000000000000000e+00
					6.951941016011038e-01 6.951941016011038e-01 0.000000000000000e+00
					6.668811890010349e-01 4.770896026882762e-01 0.000000000000000e+00
					6.361194702510349e-01 6.361194702510349e-01 0.000000000000000e+00
					6.361194702510349e-01 -6.361194702510349e-01 0.000000000000000e+00
					6.668811890010349e-01 -4.770896026882762e-01 0.000000000000000e+00
					5.838955762008278e-01 -5.838955762008278e-01 0.000000000000000e+00
					5.975674512008280e-01 -4.379216821506209e-01 0.000000000000000e+00
					6.668811890010349e-01 -4.770896026882762e-01 0.000000000000000e+00
					6.888538452510349e-01 -3.180597351255174e-01 0.000000000000000e+00
					5.975674512008280e-01 -4.379216821506209e-01 0.000000000000000e+00
					6.073330762008280e-01 -2.919477881004139e-01 0.000000000000000e+00
					6.888538452510349e-01 -3.180597351255174e-01 0.000000000000000e+00
					7.020374390010350e-01 -1.590298675627587e-01 0.000000000000000e+00
					6.073330762008280e-01 -2.919477881004139e-01 0.000000000000000e+00
					6.131924512008280e-01 -1.459738940502069e-01 0.000000000000000e+00
					7.020374390010350e-01 -1.590298675627587e-01 0.000000000000000e+00
					7.064319702510349e-01 1.734723475976807e-17 0.000000000000000e+00
					6.131924512008280e-01 -1.459738940502069e-01 0.000000000000000e+00
					6.151455762008280e-01 1.040834085586084e-17 0.000000000000000e+00
					7.064319702510349e-01 1.734723475976807e-17 0.000000000000000e+00
					7.020374390010349e-01 1.590298675627587e-01 0.000000000000000e+00
					6.151455762008280e-01 1.040834085586084e-17 0.000000000000000e+00
					6.131924512008278e-01 1.459738940502070e-01 0.000000000000000e+00
					7.020374390010349e-01 1.590298675627587e-01 0.000000000000000e+00
					6.888538452510349e-01 3.180597351255174e-01 0.000000000000000e+00
					6.131924512008278e-01 1.459738940502070e-01 0.000000000000000e+00
					6.073330762008278e-01 2.919477881004139e-01 0.000000000000000e+00
					6.888538452510349e-01 3.180597351255174e-01 0.000000000000000e+00
					6.668811890010349e-01 4.770896026882762e-01 0.000000000000000e+00
					6.073330762008278e-01 2.919477881004139e-01 0.000000000000000e+00
					5.975674512008278e-01 4.379216821506209e-01 0.000000000000000e+00
					6.668811890010349e-01 4.770896026882762e-01 0.000000000000000e+00
					6.361194702510349e-01 6.361194702510349e-01 0.000000000000000e+00
					5.975674512008278e-01 4.379216821506209e-01 0.000000000000000e+00
					5.838955762008278e-01 5.838955762008278e-01 0.000000000000000e+00
					5.838955762008278e-01 -5.838955762008278e-01 0.000000000000000e+00
					5.975674512008280e-01 -4.379216821506209e-01 0.000000000000000e+00
					5.385224194504830e-01 -5.385224194504830e-01 0.000000000000000e+00
					5.419403882004830e-01 -4.038918145878622e-01 0.000000000000000e+00
					5.975674512008280e-01 -4.379216821506209e-01 0.000000000000000e+00
					6.073330762008280e-01 -2.919477881004139e-01 0.000000000000000e+00
					5.419403882004830e-01 -4.038918145878622e-01 0.000000000000000e+00
					5.443817944504830e-01 -2.692612097252414e-01 0.000000000000000e+00
					6.073330762008280e-01 -2.919477881004139e-01 0.000000000000000e+00
					6.131924512008280e-01 -1.459738940502069e-01 0.000000000000000e+00
					5.443817944504830e-01 -2.692612097252414e-01 0.000000000000000e+00
					5.458466382004830e-01 -1.346306048626207e-01 0.000000000000000e+00
					6.131924512008280e-01 -1.459738940502069e-01 0.000000000000000e+00
					6.151455762008280e-01 1.040834085586084e-17 0.000000000000000e+00
					5.458466382004830e-01 -1.346306048626207e-01 0.000000000000000e+00
					5.463349194504828e-01 3.469446951953614e-18 0.000000000000000e+00
					6.151455762008280e-01 1.040834085586084e-17 0.000000000000000e+00
					6.131924512008278e-01 1.459738940502070e-01 0.000000000000000e+00
					5.463349194504828e-01 3.469446951953614e-18 0.000000000000000e+00
					5.458466382004828e-01 1.346306048626207e-01 0.000000000000000e+00
					6.131924512008278e-01 1.459738940502070e-01 0.000000000000000e+00
					6.073330762008278e-01 2.919477881004139e-01 0.000000000000000e+00
					5.458466382004828e-01 1.346306048626207e-01 0.000000000000000e+00
					5.443817944504828e-01 2.692612097252414e-01 0.000000000000000e+00
					6.073330762008278e-01 2.919477881004139e-01 0.000000000000000e+00
					5.975674512008278e-01 4.379216821506209e-01 0.000000000000000e+00
					5.443817944504828e-01 2.692612097252414e-01 0.000000000000000e+00
					5.419403882004828e-01 4.038918145878622e-01 0.000000000000000e+00
					5.975674512008278e-01 4.379216821506209e-01 0.000000000000000e+00
					5.838955762008278e-01 5.838955762008278e-01 0.000000000000000e+00
					5.419403882004828e-01 4.038918145878622e-01 0.000000000000000e+00
					5.385224194504830e-01 5.385224194504830e-01 0.000000000000000e+00
					5.385224194504830e-01 -5.385224194504830e-01 0.000000000000000e+00
					5.419403882004830e-01 -4.038918145878622e-01 0.000000000000000e+00
					5.000000000000000e-01 -5.000000000000000e-01 0.000000000000000e+00
					5.000000000000000e-01 -3.750000000000000e-01 0.000000000000000e+00
					5.419403882004830e-01 -4.038918145878622e-01 0.000000000000000e+00
					5.443817944504830e-01 -2.692612097252414e-01 0.000000000000000e+00
					5.000000000000000e-01 -3.750000000000000e-01 0.000000000000000e+00
					5.000000000000000e-01 -2.500000000000000e-01 0.000000000000000e+00
					5.443817944504830e-01 -2.692612097252414e-01 0.000000000000000e+00
					5.458466382004830e-01 -1.346306048626207e-01 0.000000000000000e+00
					5.000000000000000e-01 -2.500000000000000e-01 0.000000000000000e+00
					5.000000000000000e-01 -1.250000000000000e-01 0.000000000000000e+00
					5.458466382004830e-01 -1.346306048626207e-01 0.000000000000000e+00
					5.463349194504828e-01 3.469446951953614e-18 0.000000000000000e+00
					5.000000000000000e-01 -1.250000000000000e-01 0.000000000000000e+00
					5.000000000000000e-01 0.000000000000000e+00 0.000000000000000e+00
					5.463349194504828e-01 3.469446951953614e-18 0.000000000000000e+00
					5.458466382004828e-01 1.346306048626207e-01 0.000000000000000e+00
					5.000000000000000e-01 0.000000000000000e+00 0.000000000000000e+00
					5.000000000000000e-01 1.250000000000000e-01 0.000000000000000e+00
					5.458466382004828e-01 1.346306048626207e-01 0.000000000000000e+00
					5.443817944504828e-01 2.692612097252414e-01 0.000000000000000e+00
					5.000000000000000e-01 1.250000000000000e-01 0.000000000000000e+00
					5.000000000000000e-01 2.500000000000000e-01 0.000000000000000e+00
					5.443817944504828e-01 2.692612097252414e-01 0.000000000000000e+00
					5.419403882004828e-01 4.038918145878622e-01 0.000000000000000e+00
					5.000000000000000e-01 2.500000000000000e-01 0.000000000000000e+00
					5.000000000000000e-01 3.750000000000000e-01 0.000000000000000e+00
					5.419403882004828e-01 4.038918145878622e-01 0.000000000000000e+00
					5.385224194504830e-01 5.385224194504830e-01 0.000000000000000e+00
					5.000000000000000e-01 3.750000000000000e-01 0.000000000000000e+00
					5.000000000000000e-01 5.000000000000000e-01 0.000000000000000e+00
				</DataArray>
			</Points>
			<Cells>
				<DataArray Name="connectivity" type="UInt32" format="ascii">
					0 1 3 2 4 5 7 6 8 9 11 10 12 13 15 14 16 17 19 18 20 21 23 22 24 25 27 26 28 29 31 30 32 33 35 34 36 37 39 38 40 41 43 42 44 45 47 46 48 49 51 50 52 53 55 54 56 57 59 58 60 61 63 62 64 65 67 66 68 69 71 70 72 73 75 74 76 77 79 78 80 81 83 82 84 85 87 86 88 89 91 90 92 93 95 94 96 97 99 98 100 101 103 102 104 105 107 106 108 109 111 110 112 113 115 114 116 117 119 118 120 121 123 122 124 125 127 126 128 129 131 130 132 133 135 134 136 137 139 138 140 141 143 142 144 145 147 146 148 149 151 150 152 153 155 154 156 157 159 158 160 161 163 162 164 165 167 166 168 169 171 170 172 173 175 174 176 177 179 178 180 181 183 182 184 185 187 186 188 189 191 190 192 193 195 194 196 197 199 198 200 201 203 202 204 205 207 206 208 209 211 210 212 213 215 214 216 217 219 218 220 221 223 222 224 225 227 226 228 229 231 230 232 233 235 234 236 237 239 238 240 241 243 242 244 245 247 246 248 249 251 250 252 253 255 254 
				</DataArray>
				<DataArray Name="offsets" type="UInt32" format="ascii">
					4 8 12 16 20 24 28 32 36 40 44 48 52 56 60 64 68 72 76 80 84 88 92 96 100 104 108 112 116 120 124 128 132 136 140 144 148 152 156 160 164 168 172 176 180 184 188 192 196 200 204 208 212 216 220 224 228 232 236 240 244 248 252 256 
				</DataArray>
				<DataArray Name="types" type="UInt8" format="ascii">
					9 9 9 9 9 9 9 9 9 9 9 9 9 9 9 9 9 9 9 9 9 9 9 9 9 9 9 9 9 9 9 9 9 9 9 9 9 9 9 9 9 9 9 9 9 9 9 9 9 9 9 9 9 9 9 9 9 9 9 9 9 9 9 9 
				</DataArray>
			</Cells>
			<PointData Vectors="solution ">
				<DataArray Name="solution" type="Float64" NumberOfComponents="1" format="ascii">
					0.000000000000000e+00 0.000000000000000e+00 -3.182756090668003e-04 2.275883363829645e-02 0.000000000000000e+00 0.000000000000000e+00 2.275883363829645e-02 5.680110825326748e-02 0.000000000000000e+00 0.000000000000000e+00 5.680110825326749e-02 1.289009916069797e-01 0.000000000000000e+00 0.000000000000000e+00 1.289009916069797e-01 2.342621297192977e-01 0.000000000000000e+00 0.000000000000000e+00 2.342621297192977e-01 3.392711298500801e-01 0.000000000000000e+00 0.000000000000000e+00 3.392711298500802e-01 4.353084852092693e-01 0.000000000000000e+00 0.000000000000000e+00 4.353084852092694e-01 6.412594264952813e-01 0.000000000000000e+00 0.000000000000000e+00 6.412594264952813e-01 9.628600835593415e-01 -3.182756090668011e-04 2.275883363829645e-02 7.532937675144577e-02 2.347293687345896e-01 2.275883363829645e-02 5.680110825326749e-02 2.347293687345896e-01 5.594496189507259e-01 5.680110825326749e-02 1.289009916069797e-01 5.594496189507261e-01 1.119647769832727e+00 1.289009916069798e-01 2.342621297192977e-01 1.119647769832728e+00 1.873870519782130e+00 2.342621297192978e-01 3.392711298500801e-01 1.873870519782130e+00 2.629347904964408e+00 3.392711298500802e-01 4.353084852092693e-01 2.629347904964408e+00 3.178946620351208e+00 4.353084852092695e-01 6.412594264952813e-01 3.178946620351210e+00 3.519825666719341e+00 6.412594264952814e-01 9.628600835593417e-01 3.519825666719342e+00 3.666111688106506e+00 7.532937675144577e-02 2.347293687345897e-01 3.139897001009465e-01 8.378847034466410e-01 2.347293687345897e-01 5.594496189507261e-01 8.378847034466411e-01 1.862162316323328e+00 5.594496189507261e-01 1.119647769832728e+00 1.862162316323329e+00 3.486037902442749e+00 1.119647769832728e+00 1.873870519782130e+00 3.486037902442750e+00 5.541594908036044e+00 1.873870519782131e+00 2.629347904964408e+00 5.541594908036045e+00 7.521734806163565e+00 2.629347904964409e+00 3.178946620351209e+00 7.521734806163566e+00 8.753524135807831e+00 3.178946620351210e+00 3.519825666719342e+00 8.753524135807833e+00 8.792720003476534e+00 3.519825666719343e+00 3.666111688106507e+00 8.792720003476536e+00 7.752105954743476e+00 3.139897001009465e-01 8.378847034466412e-01 7.657817967762387e-01 1.876235729853584e+00 8.378847034466413e-01 1.862162316323329e+00 1.876235729853584e+00 3.881498339227291e+00 1.862162316323329e+00 3.486037902442750e+00 3.881498339227292e+00 6.852072705876072e+00 3.486037902442751e+00 5.541594908036045e+00 6.852072705876073e+00 1.043649552080087e+01 5.541594908036047e+00 7.521734806163566e+00 1.043649552080087e+01 1.376904998203204e+01 7.521734806163568e+00 8.753524135807833e+00 1.376904998203204e+01 1.571533843647412e+01 8.753524135807835e+00 8.792720003476536e+00 1.571533843647412e+01 1.531493715545859e+01 8.792720003476537e+00 7.752105954743478e+00 1.531493715545859e+01 1.279067389009449e+01 7.657817967762389e-01 1.876235729853584e+00 1.444146294595823e+00 3.250189362962645e+00 1.876235729853585e+00 3.881498339227292e+00 3.250189362962646e+00 6.246449113395674e+00 3.881498339227293e+00 6.852072705876072e+00 6.246449113395676e+00 1.042938394451597e+01 6.852072705876075e+00 1.043649552080087e+01 1.042938394451597e+01 1.528925157309189e+01 1.043649552080088e+01 1.376904998203204e+01 1.528925157309190e+01 1.971739186535407e+01 1.376904998203205e+01 1.571533843647412e+01 1.971739186535408e+01 2.235547060900807e+01 1.571533843647413e+01 1.531493715545859e+01 2.235547060900808e+01 2.190830302287363e+01 1.531493715545859e+01 1.279067389009450e+01 2.190830302287364e+01 1.830909443884023e+01 1.444146294595824e+00 3.250189362962646e+00 2.326061486696673e+00 4.793155706345835e+00 3.250189362962647e+00 6.246449113395676e+00 4.793155706345836e+00 8.569403842249136e+00 6.246449113395678e+00 1.042938394451597e+01 8.569403842249139e+00 1.358681868159379e+01 1.042938394451597e+01 1.528925157309190e+01 1.358681868159379e+01 1.924404523172361e+01 1.528925157309190e+01 1.971739186535408e+01 1.924404523172361e+01 2.436920052947922e+01 1.971739186535408e+01 2.235547060900808e+01 2.436920052947923e+01 2.759530960407513e+01 2.235547060900808e+01 2.190830302287364e+01 2.759530960407513e+01 2.764724957896888e+01 2.190830302287364e+01 1.830909443884023e+01 2.764724957896888e+01 2.381155966934679e+01 2.326061486696674e+00 4.793155706345836e+00 3.352205626732591e+00 6.326835958456638e+00 4.793155706345837e+00 8.569403842249139e+00 6.326835958456638e+00 1.059028025039141e+01 8.569403842249139e+00 1.358681868159379e+01 1.059028025039141e+01 1.603044291413377e+01 1.358681868159379e+01 1.924404523172361e+01 1.603044291413378e+01 2.201930392506365e+01 1.924404523172362e+01 2.436920052947923e+01 2.201930392506366e+01 2.747689873110646e+01 2.436920052947923e+01 2.759530960407513e+01 2.747689873110646e+01 3.112891187434370e+01 2.759530960407514e+01 2.764724957896888e+01 3.112891187434370e+01 3.191104491519646e+01 2.764724957896889e+01 2.381155966934680e+01 3.191104491519646e+01 2.879060569924492e+01 3.352205626732591e+00 6.326835958456638e+00 4.427062406453893e+00 7.706327058629948e+00 6.326835958456638e+00 1.059028025039141e+01 7.706327058629950e+00 1.219305505304829e+01 1.059028025039141e+01 1.603044291413378e+01 1.219305505304829e+01 1.771618387520452e+01 1.603044291413378e+01 2.201930392506366e+01 1.771618387520452e+01 2.370624035425244e+01 2.201930392506366e+01 2.747689873110646e+01 2.370624035425244e+01 2.921757947281222e+01 2.747689873110647e+01 3.112891187434370e+01 2.921757947281223e+01 3.317485437831957e+01 3.112891187434371e+01 3.191104491519646e+01 3.317485437831957e+01 3.461966035309690e+01 3.191104491519646e+01 2.879060569924492e+01 3.461966035309690e+01 3.273314552323157e+01 
				</DataArray>
			</PointData>
			<CellData>
			</CellData>
		</Piece>
	</UnstructuredGrid>
</VTKFile>