<?xml version="1.0"?>
<VTKFile type="UnstructuredGrid" byte_order="LittleEndian">
	<UnstructuredGrid>
		<Piece NumberOfPoints="64" NumberOfCells="16">
			<Points>
				<DataArray type="Float64" NumberOfComponents="3" format="ascii">
					-1.000000000000000e+00 -1.000000000000000e+00 0.000000000000000e+00
					-8.338955762008279e-01 -8.338955762008279e-01 0.000000000000000e+00
					-1.375000000000000e+00 -5.000000000000000e-01 0.000000000000000e+00
					-1.044833076200828e+00 -4.169477881004139e-01 0.000000000000000e+00
					-8.338955762008279e-01 -8.338955762008279e-01 0.000000000000000e+00
					-6.951941016011038e-01 -6.951941016011038e-01 0.000000000000000e+00
					-1.044833076200828e+00 -4.169477881004139e-01 0.000000000000000e+00
					-7.889441016011038e-01 -3.475970508005519e-01 0.000000000000000e+00
					-6.951941016011038e-01 -6.951941016011038e-01 0.000000000000000e+00
					-5.838955762008279e-01 -5.838955762008279e-01 0.000000000000000e+00
					-7.889441016011038e-01 -3.475970508005519e-01 0.000000000000000e+00
					-6.073330762008279e-01 -2.919477881004139e-01 0.000000000000000e+00
					-5.838955762008279e-01 -5.838955762008279e-01 0.000000000000000e+00
					-5.000000000000000e-01 -5.000000000000000e-01 0.000000000000000e+00
					-6.073330762008279e-01 -2.919477881004139e-01 0.000000000000000e+00
					-5.000000000000000e-01 -2.500000000000000e-01 0.000000000000000e+00
					-1.375000000000000e+00 -5.000000000000000e-01 0.000000000000000e+00
					-1.044833076200828e+00 -4.169477881004139e-01 0.000000000000000e+00
					-1.500000000000000e+00 1.387778780781446e-17 0.000000000000000e+00
					-1.115145576200828e+00 2.081668171172169e-17 0.000000000000000e+00
					-1.044833076200828e+00 -4.169477881004139e-01 0.000000000000000e+00
					-7.889441016011038e-01 -3.475970508005519e-01 0.000000000000000e+00
					-1.115145576200828e+00 2.081668171172169e-17 0.000000000000000e+00
					-8.201941016011038e-01 0.000000000000000e+00 0.000000000000000e+00
					-7.889441016011038e-01 -3.475970508005519e-01 0.000000000000000e+00
					-6.073330762008279e-01 -2.919477881004139e-01 0.000000000000000e+00
					-8.201941016011038e-01 0.000000000000000e+00 0.000000000000000e+00
					-6.151455762008279e-01 1.387778780781446e-17 0.000000000000000e+00
					-6.073330762008279e-01 -2.919477881004139e-01 0.000000000000000e+00
					-5.000000000000000e-01 -2.500000000000000e-01 0.000000000000000e+00
					-6.151455762008279e-01 1.387778780781446e-17 0.000000000000000e+00
					-5.000000000000000e-01 6.938893903907228e-18 0.000000000000000e+00
					-1.500000000000000e+00 1.387778780781446e-17 0.000000000000000e+00
					-1.115145576200828e+00 2.081668171172169e-17 0.000000000000000e+00
					-1.375000000000000e+00 5.000000000000000e-01 0.000000000000000e+00
					-1.044833076200828e+00 4.169477881004140e-01 0.000000000000000e+00
					-1.115145576200828e+00 2.081668171172169e-17 0.000000000000000e+00
					-8.201941016011038e-01 0.000000000000000e+00 0.000000000000000e+00
					-1.044833076200828e+00 4.169477881004140e-01 0.000000000000000e+00
					-7.889441016011038e-01 3.475970508005519e-01 0.000000000000000e+00
					-8.201941016011038e-01 0.000000000000000e+00 0.000000000000000e+00
					-6.151455762008279e-01 1.387778780781446e-17 0.000000000000000e+00
					-7.889441016011038e-01 3.475970508005519e-01 0.000000000000000e+00
					-6.073330762008279e-01 2.919477881004139e-01 0.000000000000000e+00
					-6.151455762008279e-01 1.387778780781446e-17 0.000000000000000e+00
					-5.000000000000000e-01 6.938893903907228e-18 0.000000000000000e+00
					-6.073330762008279e-01 2.919477881004139e-01 0.000000000000000e+00
					-5.000000000000000e-01 2.500000000000000e-01 0.000000000000000e+00
					-1.375000000000000e+00 5.000000000000000e-01 0.000000000000000e+00
					-1.044833076200828e+00 4.169477881004140e-01 0.000000000000000e+00
					-1.000000000000000e+00 1.000000000000000e+00 0.000000000000000e+00
					-8.338955762008279e-01 8.338955762008279e-01 0.000000000000000e+00
					-1.044833076200828e+00 4.169477881004140e-01 0.000000000000000e+00
					-7.889441016011038e-01 3.475970508005519e-01 0.000000000000000e+00
					-8.338955762008279e-01 8.338955762008279e-01 0.000000000000000e+00
					-6.951941016011038e-01 6.951941016011038e-01 0.000000000000000e+00
					-7.889441016011038e-01 3.475970508005519e-01 0.000000000000000e+00
					-6.073330762008279e-01 2.919477881004139e-01 0.000000000000000e+00
					-6.951941016011038e-01 6.951941016011038e-01 0.000000000000000e+00
					-5.838955762008279e-01 5.838955762008279e-01 0.000000000000000e+00
					-6.073330762008279e-01 2.919477881004139e-01 0.000000000000000e+00
					-5.000000000000000e-01 2.500000000000000e-01 0.000000000000000e+00
					-5.838955762008279e-01 5.838955762008279e-01 0.000000000000000e+00
					-5.000000000000000e-01 5.000000000000000e-01 0.000000000000000e+00
				</DataArray>
			</Points>
			<Cells>
				<DataArray Name="connectivity" type="UInt32" format="ascii">
					0 1 3 2 4 5 7 6 8 9 11 10 12 13 15 14 16 17 19 18 20 21 23 22 24 25 27 26 28 29 31 30 32 33 35 34 36 37 39 38 40 41 43 42 44 45 47 46 48 49 51 50 52 53 55 54 56 57 59 58 60 61 63 62 
				</DataArray>
				<DataArray Name="offsets" type="UInt32" format="ascii">
					4 8 12 16 20 24 28 32 36 40 44 48 52 56 60 64 
				</DataArray>
				<DataArray Name="types" type="UInt8" format="ascii">
					9 9 9 9 9 9 9 9 9 9 9 9 9 9 9 9 
				</DataArray>
			</Cells>
			<PointData Vectors="solution ">
				<DataArray Name="solution" type="Float64" NumberOfComponents="1" format="ascii">
					0.000000000000000e+00 1.281557996547547e-02 0.000000000000000e+00 6.690330578659710e-02 1.281557996547547e-02 1.822318737597346e-01 6.690330578659710e-02 7.977140326980892e-01 1.822318737597347e-01 7.195617363736216e-01 7.977140326980893e-01 2.533709791908766e+00 7.195617363736218e-01 1.616991684536769e+00 2.533709791908766e+00 4.471817364173109e+00 0.000000000000000e+00 6.690330578659710e-02 0.000000000000000e+00 1.969753573003004e-01 6.690330578659712e-02 7.977140326980892e-01 1.969753573003004e-01 2.012773443160567e+00 7.977140326980894e-01 2.533709791908766e+00 2.012773443160567e+00 5.590272314385451e+00 2.533709791908766e+00 4.471817364173110e+00 5.590272314385452e+00 8.674342390186752e+00 0.000000000000000e+00 1.969753573003004e-01 0.000000000000000e+00 3.638547567334526e-01 1.969753573003005e-01 2.012773443160567e+00 3.638547567334527e-01 3.196875582055687e+00 2.012773443160568e+00 5.590272314385452e+00 3.196875582055688e+00 8.144073640487953e+00 5.590272314385453e+00 8.674342390186753e+00 8.144073640487955e+00 1.215476421813973e+01 0.000000000000000e+00 3.638547567334527e-01 0.000000000000000e+00 3.843929274716699e-01 3.638547567334527e-01 3.196875582055688e+00 3.843929274716700e-01 2.937564093416479e+00 3.196875582055688e+00 8.144073640487955e+00 2.937564093416480e+00 7.421810480388112e+00 8.144073640487955e+00 1.215476421813973e+01 7.421810480388112e+00 1.194185091526064e+01 
				</DataArray>
			</PointData>
			<CellData>
			</CellData>
		</Piece>
	</UnstructuredGrid>
</VTKFile>