<?xml version="1.0"?>
<VTKFile type="UnstructuredGrid" byte_order="LittleEndian">
	<UnstructuredGrid>
		<Piece NumberOfPoints="256" NumberOfCells="64">
			<Points>
				<DataArray type="Float64" NumberOfComponents="3" format="ascii">
					1.000000000000000e+00 -1.000000000000000e+00 0.000000000000000e+00
					1.218750000000000e+00 -7.500000000000000e-01 0.000000000000000e+00
					9.135224194504830e-01 -9.135224194504830e-01 0.000000000000000e+00
					1.081002888200483e+00 -6.851418145878622e-01 0.000000000000000e+00
					1.218750000000000e+00 -7.500000000000000e-01 0.000000000000000e+00
					1.375000000000000e+00 -5.000000000000000e-01 0.000000000000000e+00
					1.081002888200483e+00 -6.851418145878622e-01 0.000000000000000e+00
					1.200631794450483e+00 -4.567612097252415e-01 0.000000000000000e+00
					1.375000000000000e+00 -5.000000000000000e-01 0.000000000000000e+00
					1.468750000000000e+00 -2.500000000000000e-01 0.000000000000000e+00
					1.200631794450483e+00 -4.567612097252415e-01 0.000000000000000e+00
					1.272409138200483e+00 -2.283806048626207e-01 0.000000000000000e+00
					1.468750000000000e+00 -2.500000000000000e-01 0.000000000000000e+00
					1.500000000000000e+00 0.000000000000000e+00 0.000000000000000e+00
					1.272409138200483e+00 -2.283806048626207e-01 0.000000000000000e+00
					1.296334919450483e+00 1.040834085586084e-17 0.000000000000000e+00
					1.500000000000000e+00 0.000000000000000e+00 0.000000000000000e+00
					1.468750000000000e+00 2.500000000000000e-01 0.000000000000000e+00
					1.296334919450483e+00 1.040834085586084e-17 0.000000000000000e+00
					1.272409138200483e+00 2.283806048626208e-01 0.000000000000000e+00
					1.468750000000000e+00 2.500000000000000e-01 0.000000000000000e+00
					1.375000000000000e+00 5.000000000000000e-01 0.000000000000000e+00
					1.272409138200483e+00 2.283806048626208e-01 0.000000000000000e+00
					1.200631794450483e+00 4.567612097252415e-01 0.000000000000000e+00
					1.375000000000000e+00 5.000000000000000e-01 0.000000000000000e+00
					1.218750000000000e+00 7.500000000000000e-01 0.000000000000000e+00
					1.200631794450483e+00 4.567612097252415e-01 0.000000000000000e+00
					1.081002888200483e+00 6.851418145878623e-01 0.000000000000000e+00
					1.218750000000000e+00 7.500000000000000e-01 0.000000000000000e+00
					1.000000000000000e+00 1.000000000000000e+00 0.000000000000000e+00
					1.081002888200483e+00 6.851418145878623e-01 0.000000000000000e+00
					9.135224194504830e-01 9.135224194504830e-01 0.000000000000000e+00
					9.135224194504830e-01 -9.135224194504830e-01 0.000000000000000e+00
					1.081002888200483e+00 -6.851418145878622e-01 0.000000000000000e+00
					8.338955762008279e-01 -8.338955762008279e-01 0.000000000000000e+00
					9.569424512008280e-01 -6.254216821506209e-01 0.000000000000000e+00
					1.081002888200483e+00 -6.851418145878622e-01 0.000000000000000e+00
					1.200631794450483e+00 -4.567612097252415e-01 0.000000000000000e+00
					9.569424512008280e-01 -6.254216821506209e-01 0.000000000000000e+00
					1.044833076200828e+00 -4.169477881004140e-01 0.000000000000000e+00
					1.200631794450483e+00 -4.567612097252415e-01 0.000000000000000e+00
					1.272409138200483e+00 -2.283806048626207e-01 0.000000000000000e+00
					1.044833076200828e+00 -4.169477881004140e-01 0.000000000000000e+00
					1.097567451200828e+00 -2.084738940502070e-01 0.000000000000000e+00
					1.272409138200483e+00 -2.283806048626207e-01 0.000000000000000e+00
					1.296334919450483e+00 1.040834085586084e-17 0.000000000000000e+00
					1.097567451200828e+00 -2.084738940502070e-01 0.000000000000000e+00
					1.115145576200828e+00 1.734723475976807e-17 0.000000000000000e+00
					1.296334919450483e+00 1.040834085586084e-17 0.000000000000000e+00
					1.272409138200483e+00 2.283806048626208e-01 0.000000000000000e+00
					1.115145576200828e+00 1.734723475976807e-17 0.000000000000000e+00
					1.097567451200828e+00 2.084738940502070e-01 0.000000000000000e+00
					1.272409138200483e+00 2.283806048626208e-01 0.000000000000000e+00
					1.200631794450483e+00 4.567612097252415e-01 0.000000000000000e+00
					1.097567451200828e+00 2.084738940502070e-01 0.000000000000000e+00
					1.044833076200828e+00 4.169477881004140e-01 0.000000000000000e+00
					1.200631794450483e+00 4.567612097252415e-01 0.000000000000000e+00
					1.081002888200483e+00 6.851418145878623e-01 0.000000000000000e+00
					1.044833076200828e+00 4.169477881004140e-01 0.000000000000000e+00
					9.569424512008280e-01 6.254216821506209e-01 0.000000000000000e+00
					1.081002888200483e+00 6.851418145878623e-01 0.000000000000000e+00
					9.135224194504830e-01 9.135224194504830e-01 0.000000000000000e+00
					9.569424512008280e-01 6.254216821506209e-01 0.000000000000000e+00
					8.338955762008279e-01 8.338955762008279e-01 0.000000000000000e+00
					8.338955762008279e-01 -8.338955762008279e-01 0.000000000000000e+00
					9.569424512008280e-01 -6.254216821506209e-01 0.000000000000000e+00
					7.611194702510349e-01 -7.611194702510349e-01 0.000000000000000e+00
					8.465686890010349e-01 -5.708396026882762e-01 0.000000000000000e+00
					9.569424512008280e-01 -6.254216821506209e-01 0.000000000000000e+00
					1.044833076200828e+00 -4.169477881004140e-01 0.000000000000000e+00
					8.465686890010349e-01 -5.708396026882762e-01 0.000000000000000e+00
					9.076038452510349e-01 -3.805597351255174e-01 0.000000000000000e+00
					1.044833076200828e+00 -4.169477881004140e-01 0.000000000000000e+00
					1.097567451200828e+00 -2.084738940502070e-01 0.000000000000000e+00
					9.076038452510349e-01 -3.805597351255174e-01 0.000000000000000e+00
					9.442249390010350e-01 -1.902798675627587e-01 0.000000000000000e+00
					1.097567451200828e+00 -2.084738940502070e-01 0.000000000000000e+00
					1.115145576200828e+00 1.734723475976807e-17 0.000000000000000e+00
					9.442249390010350e-01 -1.902798675627587e-01 0.000000000000000e+00
					9.564319702510349e-01 2.428612866367530e-17 0.000000000000000e+00
					1.115145576200828e+00 1.734723475976807e-17 0.000000000000000e+00
					1.097567451200828e+00 2.084738940502070e-01 0.000000000000000e+00
					9.564319702510349e-01 2.428612866367530e-17 0.000000000000000e+00
					9.442249390010349e-01 1.902798675627587e-01 0.000000000000000e+00
					1.097567451200828e+00 2.084738940502070e-01 0.000000000000000e+00
					1.044833076200828e+00 4.169477881004140e-01 0.000000000000000e+00
					9.442249390010349e-01 1.902798675627587e-01 0.000000000000000e+00
					9.076038452510349e-01 3.805597351255174e-01 0.000000000000000e+00
					1.044833076200828e+00 4.169477881004140e-01 0.000000000000000e+00
					9.569424512008280e-01 6.254216821506209e-01 0.000000000000000e+00
					9.076038452510349e-01 3.805597351255174e-01 0.000000000000000e+00
					8.465686890010349e-01 5.708396026882762e-01 0.000000000000000e+00
					9.569424512008280e-01 6.254216821506209e-01 0.000000000000000e+00
					8.338955762008279e-01 8.338955762008279e-01 0.000000000000000e+00
					8.465686890010349e-01 5.708396026882762e-01 0.000000000000000e+00
					7.611194702510349e-01 7.611194702510349e-01 0.000000000000000e+00
					7.611194702510349e-01 -7.611194702510349e-01 0.000000000000000e+00
					8.465686890010349e-01 -5.708396026882762e-01 0.000000000000000e+00
					6.951941016011038e-01 -6.951941016011038e-01 0.000000000000000e+00
					7.498816016011038e-01 -5.213955762008279e-01 0.000000000000000e+00
					8.465686890010349e-01 -5.708396026882762e-01 0.000000000000000e+00
					9.076038452510349e-01 -3.805597351255174e-01 0.000000000000000e+00
					7.498816016011038e-01 -5.213955762008279e-01 0.000000000000000e+00
					7.889441016011040e-01 -3.475970508005519e-01 0.000000000000000e+00
					9.076038452510349e-01 -3.805597351255174e-01 0.000000000000000e+00
					9.442249390010350e-01 -1.902798675627587e-01 0.000000000000000e+00
					7.889441016011040e-01 -3.475970508005519e-01 0.000000000000000e+00
					8.123816016011040e-01 -1.737985254002760e-01 0.000000000000000e+00
					9.442249390010350e-01 -1.902798675627587e-01 0.000000000000000e+00
					9.564319702510349e-01 2.428612866367530e-17 0.000000000000000e+00
					8.123816016011040e-01 -1.737985254002760e-01 0.000000000000000e+00
					8.201941016011038e-01 2.428612866367530e-17 0.000000000000000e+00
					9.564319702510349e-01 2.428612866367530e-17 0.000000000000000e+00
					9.442249390010349e-01 1.902798675627587e-01 0.000000000000000e+00
					8.201941016011038e-01 2.428612866367530e-17 0.000000000000000e+00
					8.123816016011038e-01 1.737985254002760e-01 0.000000000000000e+00
					9.442249390010349e-01 1.902798675627587e-01 0.000000000000000e+00
					9.076038452510349e-01 3.805597351255174e-01 0.000000000000000e+00
					8.123816016011038e-01 1.737985254002760e-01 0.000000000000000e+00
					7.889441016011038e-01 3.475970508005519e-01 0.000000000000000e+00
					9.076038452510349e-01 3.805597351255174e-01 0.000000000000000e+00
					8.465686890010349e-01 5.708396026882762e-01 0.000000000000000e+00
					7.889441016011038e-01 3.475970508005519e-01 0.000000000000000e+00
					7.498816016011038e-01 5.213955762008279e-01 0.000000000000000e+00
					8.465686890010349e-01 5.708396026882762e-01 0.000000000000000e+00
					7.611194702510349e-01 7.611194702510349e-01 0.000000000000000e+00
					7.498816016011038e-01 5.213955762008279e-01 0.000000000000000e+00
					6.951941016011038e-01 6.951941016011038e-01 0.000000000000000e+00
					6.951941016011038e-01 -6.951941016011038e-01 0.000000000000000e+00
					7.498816016011038e-01 -5.213955762008279e-01 0.000000000000000e+00
					6.361194702510349e-01 -6.361194702510349e-01 0.000000000000000e+00
					6.668811890010349e-01 -4.770896026882762e-01 0.000000000000000e+00
					7.498816016011038e-01 -5.213955762008279e-01 0.000000000000000e+00
					7.889441016011040e-01 -3.475970508005519e-01 0.000000000000000e+00
					6.668811890010349e-01 -4.770896026882762e-01 0.000000000000000e+00
					6.888538452510349e-01 -3.180597351255174e-01 0.000000000000000e+00
					7.889441016011040e-01 -3.475970508005519e-01 0.000000000000000e+00
					8.123816016011040e-01 -1.737985254002760e-01 0.000000000000000e+00
					6.888538452510349e-01 -3.180597351255174e-01 0.000000000000000e+00
					7.020374390010350e-01 -1.590298675627587e-01 0.000000000000000e+00
					8.123816016011040e-01 -1.737985254002760e-01 0.000000000000000e+00
					8.201941016011038e-01 2.428612866367530e-17 0.000000000000000e+00
					7.020374390010350e-01 -1.590298675627587e-01 0.000000000000000e+00
					7.064319702510349e-01 1.734723475976807e-17 0.000000000000000e+00
					8.201941016011038e-01 2.428612866367530e-17 0.000000000000000e+00
					8.123816016011038e-01 1.737985254002760e-01 0.000000000000000e+00
					7.064319702510349e-01 1.734723475976807e-17 0.000000000000000e+00
					7.020374390010349e-01 1.590298675627587e-01 0.000000000000000e+00
					8.123816016011038e-01 1.737985254002760e-01 0.000000000000000e+00
					7.889441016011038e-01 3.475970508005519e-01 0.000000000000000e+00
					7.020374390010349e-01 1.590298675627587e-01 0.000000000000000e+00
					6.888538452510349e-01 3.180597351255174e-01 0.000000000000000e+00
					7.889441016011038e-01 3.475970508005519e-01 0.000000000000000e+00
					7.498816016011038e-01 5.213955762008279e-01 0.000000000000000e+00
					6.888538452510349e-01 3.180597351255174e-01 0.000000000000000e+00
					6.668811890010349e-01 4.770896026882762e-01 0.000000000000000e+00
					7.498816016011038e-01 5.213955762008279e-01 0.000000000000000e+00
					6.951941016011038e-01 6.951941016011038e-01 0.000000000000000e+00
					6.668811890010349e-01 4.770896026882762e-01 0.000000000000000e+00
					6.361194702510349e-01 6.361194702510349e-01 0.000000000000000e+00
					6.361194702510349e-01 -6.361194702510349e-01 0.000000000000000e+00
					6.668811890010349e-01 -4.770896026882762e-01 0.000000000000000e+00
					5.838955762008278e-01 -5.838955762008278e-01 0.000000000000000e+00
					5.975674512008280e-01 -4.379216821506209e-01 0.000000000000000e+00
					6.668811890010349e-01 -4.770896026882762e-01 0.000000000000000e+00
					6.888538452510349e-01 -3.180597351255174e-01 0.000000000000000e+00
					5.975674512008280e-01 -4.379216821506209e-01 0.000000000000000e+00
					6.073330762008280e-01 -2.919477881004139e-01 0.000000000000000e+00
					6.888538452510349e-01 -3.180597351255174e-01 0.000000000000000e+00
					7.020374390010350e-01 -1.590298675627587e-01 0.000000000000000e+00
					6.073330762008280e-01 -2.919477881004139e-01 0.000000000000000e+00
					6.131924512008280e-01 -1.459738940502069e-01 0.000000000000000e+00
					7.020374390010350e-01 -1.590298675627587e-01 0.000000000000000e+00
					7.064319702510349e-01 1.734723475976807e-17 0.000000000000000e+00
					6.131924512008280e-01 -1.459738940502069e-01 0.000000000000000e+00
					6.151455762008280e-01 1.040834085586084e-17 0.000000000000000e+00
					7.064319702510349e-01 1.734723475976807e-17 0.000000000000000e+00
					7.020374390010349e-01 1.590298675627587e-01 0.000000000000000e+00
					6.151455762008280e-01 1.040834085586084e-17 0.000000000000000e+00
					6.131924512008278e-01 1.459738940502070e-01 0.000000000000000e+00
					7.020374390010349e-01 1.590298675627587e-01 0.000000000000000e+00
					6.888538452510349e-01 3.180597351255174e-01 0.000000000000000e+00
					6.131924512008278e-01 1.459738940502070e-01 0.000000000000000e+00
					6.073330762008278e-01 2.919477881004139e-01 0.000000000000000e+00
					6.888538452510349e-01 3.180597351255174e-01 0.000000000000000e+00
					6.668811890010349e-01 4.770896026882762e-01 0.000000000000000e+00
					6.073330762008278e-01 2.919477881004139e-01 0.000000000000000e+00
					5.975674512008278e-01 4.379216821506209e-01 0.000000000000000e+00
					6.668811890010349e-01 4.770896026882762e-01 0.000000000000000e+00
					6.361194702510349e-01 6.361194702510349e-01 0.000000000000000e+00
					5.975674512008278e-01 4.379216821506209e-01 0.000000000000000e+00
					5.838955762008278e-01 5.838955762008278e-01 0.000000000000000e+00
					5.838955762008278e-01 -5.838955762008278e-01 0.000000000000000e+00
					5.975674512008280e-01 -4.379216821506209e-01 0.000000000000000e+00
					5.385224194504830e-01 -5.385224194504830e-01 0.000000000000000e+00
					5.419403882004830e-01 -4.038918145878622e-01 0.000000000000000e+00
					5.975674512008280e-01 -4.379216821506209e-01 0.000000000000000e+00
					6.073330762008280e-01 -2.919477881004139e-01 0.000000000000000e+00
					5.419403882004830e-01 -4.038918145878622e-01 0.000000000000000e+00
					5.443817944504830e-01 -2.692612097252414e-01 0.000000000000000e+00
					6.073330762008280e-01 -2.919477881004139e-01 0.000000000000000e+00
					6.131924512008280e-01 -1.459738940502069e-01 0.000000000000000e+00
					5.443817944504830e-01 -2.692612097252414e-01 0.000000000000000e+00
					5.458466382004830e-01 -1.346306048626207e-01 0.000000000000000e+00
					6.131924512008280e-01 -1.459738940502069e-01 0.000000000000000e+00
					6.151455762008280e-01 1.040834085586084e-17 0.000000000000000e+00
					5.458466382004830e-01 -1.346306048626207e-01 0.000000000000000e+00
					5.463349194504828e-01 3.469446951953614e-18 0.000000000000000e+00
					6.151455762008280e-01 1.040834085586084e-17 0.000000000000000e+00
					6.131924512008278e-01 1.459738940502070e-01 0.000000000000000e+00
					5.463349194504828e-01 3.469446951953614e-18 0.000000000000000e+00
					5.458466382004828e-01 1.346306048626207e-01 0.000000000000000e+00
					6.131924512008278e-01 1.459738940502070e-01 0.000000000000000e+00
					6.073330762008278e-01 2.919477881004139e-01 0.000000000000000e+00
					5.458466382004828e-01 1.346306048626207e-01 0.000000000000000e+00
					5.443817944504828e-01 2.692612097252414e-01 0.000000000000000e+00
					6.073330762008278e-01 2.919477881004139e-01 0.000000000000000e+00
					5.975674512008278e-01 4.379216821506209e-01 0.000000000000000e+00
					5.443817944504828e-01 2.692612097252414e-01 0.000000000000000e+00
					5.419403882004828e-01 4.038918145878622e-01 0.000000000000000e+00
					5.975674512008278e-01 4.379216821506209e-01 0.000000000000000e+00
					5.838955762008278e-01 5.838955762008278e-01 0.000000000000000e+00
					5.419403882004828e-01 4.038918145878622e-01 0.000000000000000e+00
					5.385224194504830e-01 5.385224194504830e-01 0.000000000000000e+00
					5.385224194504830e-01 -5.385224194504830e-01 0.000000000000000e+00
					5.419403882004830e-01 -4.038918145878622e-01 0.000000000000000e+00
					5.000000000000000e-01 -5.000000000000000e-01 0.000000000000000e+00
					5.000000000000000e-01 -3.750000000000000e-01 0.000000000000000e+00
					5.419403882004830e-01 -4.038918145878622e-01 0.000000000000000e+00
					5.443817944504830e-01 -2.692612097252414e-01 0.000000000000000e+00
					5.000000000000000e-01 -3.750000000000000e-01 0.000000000000000e+00
					5.000000000000000e-01 -2.500000000000000e-01 0.000000000000000e+00
					5.443817944504830e-01 -2.692612097252414e-01 0.000000000000000e+00
					5.458466382004830e-01 -1.346306048626207e-01 0.000000000000000e+00
					5.000000000000000e-01 -2.500000000000000e-01 0.000000000000000e+00
					5.000000000000000e-01 -1.250000000000000e-01 0.000000000000000e+00
					5.458466382004830e-01 -1.346306048626207e-01 0.000000000000000e+00
					5.463349194504828e-01 3.469446951953614e-18 0.000000000000000e+00
					5.000000000000000e-01 -1.250000000000000e-01 0.000000000000000e+00
					5.000000000000000e-01 0.000000000000000e+00 0.000000000000000e+00
					5.463349194504828e-01 3.469446951953614e-18 0.000000000000000e+00
					5.458466382004828e-01 1.346306048626207e-01 0.000000000000000e+00
					5.000000000000000e-01 0.000000000000000e+00 0.000000000000000e+00
					5.000000000000000e-01 1.250000000000000e-01 0.000000000000000e+00
					5.458466382004828e-01 1.346306048626207e-01 0.000000000000000e+00
					5.443817944504828e-01 2.692612097252414e-01 0.000000000000000e+00
					5.000000000000000e-01 1.250000000000000e-01 0.000000000000000e+00
					5.000000000000000e-01 2.500000000000000e-01 0.000000000000000e+00
					5.443817944504828e-01 2.692612097252414e-01 0.000000000000000e+00
					5.419403882004828e-01 4.038918145878622e-01 0.000000000000000e+00
					5.000000000000000e-01 2.500000000000000e-01 0.000000000000000e+00
					5.000000000000000e-01 3.750000000000000e-01 0.000000000000000e+00
					5.419403882004828e-01 4.038918145878622e-01 0.000000000000000e+00
					5.385224194504830e-01 5.385224194504830e-01 0.000000000000000e+00
					5.000000000000000e-01 3.750000000000000e-01 0.000000000000000e+00
					5.000000000000000e-01 5.000000000000000e-01 0.000000000000000e+00
				</DataArray>
			</Points>
			<Cells>
				<DataArray Name="connectivity" type="UInt32" format="ascii">
					0 1 3 2 4 5 7 6 8 9 11 10 12 13 15 14 16 17 19 18 20 21 23 22 24 25 27 26 28 29 31 30 32 33 35 34 36 37 39 38 40 41 43 42 44 45 47 46 48 49 51 50 52 53 55 54 56 57 59 58 60 61 63 62 64 65 67 66 68 69 71 70 72 73 75 74 76 77 79 78 80 81 83 82 84 85 87 86 88 89 91 90 92 93 95 94 96 97 99 98 100 101 103 102 104 105 107 106 108 109 111 110 112 113 115 114 116 117 119 118 120 121 123 122 124 125 127 126 128 129 131 130 132 133 135 134 136 137 139 138 140 141 143 142 144 145 147 146 148 149 151 150 152 153 155 154 156 157 159 158 160 161 163 162 164 165 167 166 168 169 171 170 172 173 175 174 176 177 179 178 180 181 183 182 184 185 187 186 188 189 191 190 192 193 195 194 196 197 199 198 200 201 203 202 204 205 207 206 208 209 211 210 212 213 215 214 216 217 219 218 220 221 223 222 224 225 227 226 228 229 231 230 232 233 235 234 236 237 239 238 240 241 243 242 244 245 247 246 248 249 251 250 252 253 255 254 
				</DataArray>
				<DataArray Name="offsets" type="UInt32" format="ascii">
					4 8 12 16 20 24 28 32 36 40 44 48 52 56 60 64 68 72 76 80 84 88 92 96 100 104 108 112 116 120 124 128 132 136 140 144 148 152 156 160 164 168 172 176 180 184 188 192 196 200 204 208 212 216 220 224 228 232 236 240 244 248 252 256 
				</DataArray>
				<DataArray Name="types" type="UInt8" format="ascii">
					9 9 9 9 9 9 9 9 9 9 9 9 9 9 9 9 9 9 9 9 9 9 9 9 9 9 9 9 9 9 9 9 9 9 9 9 9 9 9 9 9 9 9 9 9 9 9 9 9 9 9 9 9 9 9 9 9 9 9 9 9 9 9 9 
				</DataArray>
			</Cells>
			<PointData Vectors="solution ">
				<DataArray Name="solution" type="Float64" NumberOfComponents="1" format="ascii">
					0.000000000000000e+00 0.000000000000000e+00 5.152558277862883e-03 1.912808106306365e-02 0.000000000000000e+00 0.000000000000000e+00 1.912808106306365e-02 5.444017059875002e-02 0.000000000000000e+00 0.000000000000000e+00 5.444017059875003e-02 1.250669951555786e-01 0.000000000000000e+00 0.000000000000000e+00 1.250669951555786e-01 2.250821654031614e-01 0.000000000000000e+00 0.000000000000000e+00 2.250821654031615e-01 3.122563768039169e-01 0.000000000000000e+00 0.000000000000000e+00 3.122563768039169e-01 3.398739000241631e-01 0.000000000000000e+00 0.000000000000000e+00 3.398739000241631e-01 2.993950999698946e-01 0.000000000000000e+00 0.000000000000000e+00 2.993950999698946e-01 2.036230924139828e-01 5.152558277862883e-03 1.912808106306365e-02 6.930452499049852e-02 2.223359661050107e-01 1.912808106306365e-02 5.444017059875003e-02 2.223359661050108e-01 5.494262908891555e-01 5.444017059875003e-02 1.250669951555786e-01 5.494262908891556e-01 1.105069471133710e+00 1.250669951555786e-01 2.250821654031614e-01 1.105069471133710e+00 1.839723092269872e+00 2.250821654031615e-01 3.122563768039169e-01 1.839723092269872e+00 2.543355739275477e+00 3.122563768039169e-01 3.398739000241631e-01 2.543355739275477e+00 2.910729377062591e+00 3.398739000241632e-01 2.993950999698947e-01 2.910729377062592e+00 2.712308085464767e+00 2.993950999698947e-01 2.036230924139829e-01 2.712308085464767e+00 1.952193381366448e+00 6.930452499049855e-02 2.223359661050107e-01 2.870772417985890e-01 8.161467840090699e-01 2.223359661050108e-01 5.494262908891556e-01 8.161467840090700e-01 1.843988397995019e+00 5.494262908891556e-01 1.105069471133711e+00 1.843988397995019e+00 3.457264948073343e+00 1.105069471133711e+00 1.839723092269872e+00 3.457264948073344e+00 5.483945119035233e+00 1.839723092269873e+00 2.543355739275477e+00 5.483945119035234e+00 7.400491431533506e+00 2.543355739275478e+00 2.910729377062592e+00 7.400491431533507e+00 8.449699735690082e+00 2.910729377062592e+00 2.712308085464767e+00 8.449699735690084e+00 8.008061485034764e+00 2.712308085464768e+00 1.952193381366448e+00 8.008061485034764e+00 6.035083922927532e+00 2.870772417985890e-01 8.161467840090700e-01 7.305339166777259e-01 1.852872129593723e+00 8.161467840090701e-01 1.843988397995019e+00 1.852872129593723e+00 3.857621456151550e+00 1.843988397995019e+00 3.457264948073345e+00 3.857621456151550e+00 6.810601745148865e+00 3.457264948073345e+00 5.483945119035234e+00 6.810601745148868e+00 1.036127914953855e+01 5.483945119035236e+00 7.400491431533507e+00 1.036127914953855e+01 1.364922500698429e+01 7.400491431533509e+00 8.449699735690084e+00 1.364922500698430e+01 1.549449948540232e+01 8.449699735690086e+00 8.008061485034766e+00 1.549449948540233e+01 1.491750631982907e+01 8.008061485034768e+00 6.035083922927533e+00 1.491750631982907e+01 1.179498450236012e+01 7.305339166777260e-01 1.852872129593723e+00 1.417457908096668e+00 3.229098643062328e+00 1.852872129593724e+00 3.857621456151551e+00 3.229098643062329e+00 6.218812841485580e+00 3.857621456151551e+00 6.810601745148869e+00 6.218812841485581e+00 1.037768763179808e+01 6.810601745148871e+00 1.036127914953855e+01 1.037768763179808e+01 1.519703619665682e+01 1.036127914953856e+01 1.364922500698430e+01 1.519703619665682e+01 1.960549745851672e+01 1.364922500698430e+01 1.549449948540232e+01 1.960549745851673e+01 2.219586644864225e+01 1.549449948540233e+01 1.491750631982907e+01 2.219586644864225e+01 2.177603358142478e+01 1.491750631982907e+01 1.179498450236012e+01 2.177603358142478e+01 1.806456896289699e+01 1.417457908096668e+00 3.229098643062329e+00 2.310413642624870e+00 4.768493789634432e+00 3.229098643062330e+00 6.218812841485581e+00 4.768493789634433e+00 8.540037541276263e+00 6.218812841485583e+00 1.037768763179808e+01 8.540037541276263e+00 1.352606996274166e+01 1.037768763179809e+01 1.519703619665682e+01 1.352606996274166e+01 1.913499422896326e+01 1.519703619665682e+01 1.960549745851673e+01 1.913499422896327e+01 2.425358618106791e+01 1.960549745851673e+01 2.219586644864225e+01 2.425358618106791e+01 2.745841362677109e+01 2.219586644864225e+01 2.177603358142478e+01 2.745841362677110e+01 2.749422498324650e+01 2.177603358142479e+01 1.806456896289700e+01 2.749422498324650e+01 2.389198402012745e+01 2.310413642624871e+00 4.768493789634434e+00 3.333597608586665e+00 6.296256264195270e+00 4.768493789634435e+00 8.540037541276265e+00 6.296256264195272e+00 1.056083061247390e+01 8.540037541276265e+00 1.352606996274166e+01 1.056083061247390e+01 1.596018044080033e+01 1.352606996274166e+01 1.913499422896327e+01 1.596018044080033e+01 2.189951195607891e+01 1.913499422896327e+01 2.425358618106791e+01 2.189951195607892e+01 2.734903481209119e+01 2.425358618106792e+01 2.745841362677110e+01 2.734903481209119e+01 3.101075674832056e+01 2.745841362677111e+01 2.749422498324650e+01 3.101075674832057e+01 3.168335845319214e+01 2.749422498324651e+01 2.389198402012746e+01 3.168335845319215e+01 2.875019745266190e+01 3.333597608586665e+00 6.296256264195271e+00 4.393921691966710e+00 7.676776048131490e+00 6.296256264195272e+00 1.056083061247390e+01 7.676776048131492e+00 1.215872952002105e+01 1.056083061247390e+01 1.596018044080033e+01 1.215872952002105e+01 1.764082843848314e+01 1.596018044080034e+01 2.189951195607892e+01 1.764082843848315e+01 2.357900553913451e+01 2.189951195607892e+01 2.734903481209119e+01 2.357900553913451e+01 2.908681868614875e+01 2.734903481209120e+01 3.101075674832056e+01 2.908681868614875e+01 3.305578675502718e+01 3.101075674832057e+01 3.168335845319214e+01 3.305578675502719e+01 3.441429779935844e+01 3.168335845319215e+01 2.875019745266190e+01 3.441429779935844e+01 3.248207403714360e+01 
				</DataArray>
			</PointData>
			<CellData>
			</CellData>
		</Piece>
	</UnstructuredGrid>
</VTKFile>