<?xml version="1.0"?>
<VTKFile type="UnstructuredGrid" byte_order="LittleEndian">
	<UnstructuredGrid>
		<Piece NumberOfPoints="64" NumberOfCells="16">
			<Points>
				<DataArray type="Float64" NumberOfComponents="3" format="ascii">
					-5.000000000000000e-01 -5.000000000000000e-01 0.000000000000000e+00
					-2.500000000000000e-01 -5.000000000000000e-01 0.000000000000000e+00
					-5.000000000000000e-01 -2.500000000000000e-01 0.000000000000000e+00
					-2.500000000000000e-01 -2.500000000000000e-01 0.000000000000000e+00
					-2.500000000000000e-01 -5.000000000000000e-01 0.000000000000000e+00
					6.938893903907228e-18 -5.000000000000000e-01 0.000000000000000e+00
					-2.500000000000000e-01 -2.500000000000000e-01 0.000000000000000e+00
					1.040834085586084e-17 -2.500000000000000e-01 0.000000000000000e+00
					6.938893903907228e-18 -5.000000000000000e-01 0.000000000000000e+00
					2.500000000000000e-01 -5.000000000000000e-01 0.000000000000000e+00
					1.040834085586084e-17 -2.500000000000000e-01 0.000000000000000e+00
					2.500000000000000e-01 -2.500000000000000e-01 0.000000000000000e+00
					2.500000000000000e-01 -5.000000000000000e-01 0.000000000000000e+00
					5.000000000000000e-01 -5.000000000000000e-01 0.000000000000000e+00
					2.500000000000000e-01 -2.500000000000000e-01 0.000000000000000e+00
					5.000000000000000e-01 -2.500000000000000e-01 0.000000000000000e+00
					-5.000000000000000e-01 -2.500000000000000e-01 0.000000000000000e+00
					-2.500000000000000e-01 -2.500000000000000e-01 0.000000000000000e+00
					-5.000000000000000e-01 6.938893903907228e-18 0.000000000000000e+00
					-2.500000000000000e-01 6.938893903907228e-18 0.000000000000000e+00
					-2.500000000000000e-01 -2.500000000000000e-01 0.000000000000000e+00
					1.040834085586084e-17 -2.500000000000000e-01 0.000000000000000e+00
					-2.500000000000000e-01 6.938893903907228e-18 0.000000000000000e+00
					1.040834085586084e-17 6.938893903907228e-18 0.000000000000000e+00
					1.040834085586084e-17 -2.500000000000000e-01 0.000000000000000e+00
					2.500000000000000e-01 -2.500000000000000e-01 0.000000000000000e+00
					1.040834085586084e-17 6.938893903907228e-18 0.000000000000000e+00
					2.500000000000000e-01 6.938893903907228e-18 0.000000000000000e+00
					2.500000000000000e-01 -2.500000000000000e-01 0.000000000000000e+00
					5.000000000000000e-01 -2.500000000000000e-01 0.000000000000000e+00
					2.500000000000000e-01 6.938893903907228e-18 0.000000000000000e+00
					5.000000000000000e-01 6.938893903907228e-18 0.000000000000000e+00
					-5.000000000000000e-01 6.938893903907228e-18 0.000000000000000e+00
					-2.500000000000000e-01 6.938893903907228e-18 0.000000000000000e+00
					-5.000000000000000e-01 2.500000000000000e-01 0.000000000000000e+00
					-2.500000000000000e-01 2.500000000000000e-01 0.000000000000000e+00
					-2.500000000000000e-01 6.938893903907228e-18 0.000000000000000e+00
					1.040834085586084e-17 6.938893903907228e-18 0.000000000000000e+00
					-2.500000000000000e-01 2.500000000000000e-01 0.000000000000000e+00
					6.938893903907228e-18 2.500000000000000e-01 0.000000000000000e+00
					1.040834085586084e-17 6.938893903907228e-18 0.000000000000000e+00
					2.500000000000000e-01 6.938893903907228e-18 0.000000000000000e+00
					6.938893903907228e-18 2.500000000000000e-01 0.000000000000000e+00
					2.500000000000000e-01 2.500000000000000e-01 0.000000000000000e+00
					2.500000000000000e-01 6.938893903907228e-18 0.000000000000000e+00
					5.000000000000000e-01 6.938893903907228e-18 0.000000000000000e+00
					2.500000000000000e-01 2.500000000000000e-01 0.000000000000000e+00
					5.000000000000000e-01 2.500000000000000e-01 0.000000000000000e+00
					-5.000000000000000e-01 2.500000000000000e-01 0.000000000000000e+00
					-2.500000000000000e-01 2.500000000000000e-01 0.000000000000000e+00
					-5.000000000000000e-01 5.000000000000000e-01 0.000000000000000e+00
					-2.500000000000000e-01 5.000000000000000e-01 0.000000000000000e+00
					-2.500000000000000e-01 2.500000000000000e-01 0.000000000000000e+00
					6.938893903907228e-18 2.500000000000000e-01 0.000000000000000e+00
					-2.500000000000000e-01 5.000000000000000e-01 0.000000000000000e+00
					6.938893903907228e-18 5.000000000000000e-01 0.000000000000000e+00
					6.938893903907228e-18 2.500000000000000e-01 0.000000000000000e+00
					2.500000000000000e-01 2.500000000000000e-01 0.000000000000000e+00
					6.938893903907228e-18 5.000000000000000e-01 0.000000000000000e+00
					2.500000000000000e-01 5.000000000000000e-01 0.000000000000000e+00
					2.500000000000000e-01 2.500000000000000e-01 0.000000000000000e+00
					5.000000000000000e-01 2.500000000000000e-01 0.000000000000000e+00
					2.500000000000000e-01 5.000000000000000e-01 0.000000000000000e+00
					5.000000000000000e-01 5.000000000000000e-01 0.000000000000000e+00
				</DataArray>
			</Points>
			<Cells>
				<DataArray Name="connectivity" type="UInt32" format="ascii">
					0 1 3 2 4 5 7 6 8 9 11 10 12 13 15 14 16 17 19 18 20 21 23 22 24 25 27 26 28 29 31 30 32 33 35 34 36 37 39 38 40 41 43 42 44 45 47 46 48 49 51 50 52 53 55 54 56 57 59 58 60 61 63 62 
				</DataArray>
				<DataArray Name="offsets" type="UInt32" format="ascii">
					4 8 12 16 20 24 28 32 36 40 44 48 52 56 60 64 
				</DataArray>
				<DataArray Name="types" type="UInt8" format="ascii">
					9 9 9 9 9 9 9 9 9 9 9 9 9 9 9 9 
				</DataArray>
			</Cells>
			<PointData Vectors="solution ">
				<DataArray Name="solution" type="Float64" NumberOfComponents="1" format="ascii">
					1.616991684536769e+00 3.483608517259220e+00 4.471817364173109e+00 9.095383951751414e+00 3.483608517259220e+00 5.259889422346888e+00 9.095383951751414e+00 1.350631576381736e+01 5.259889422346889e+00 5.741688053638731e+00 1.350631576381736e+01 1.499335093660289e+01 5.741688053638731e+00 4.394211436996476e+00 1.499335093660289e+01 1.215504117225574e+01 4.471817364173110e+00 9.095383951751414e+00 8.674342390186752e+00 1.734686786766047e+01 9.095383951751417e+00 1.350631576381736e+01 1.734686786766048e+01 2.563306057040219e+01 1.350631576381736e+01 1.499335093660290e+01 2.563306057040219e+01 2.859647973152085e+01 1.499335093660290e+01 1.215504117225575e+01 2.859647973152086e+01 2.358066697542025e+01 8.674342390186753e+00 1.734686786766047e+01 1.215476421813973e+01 2.472318343685921e+01 1.734686786766048e+01 2.563306057040219e+01 2.472318343685921e+01 3.671316448054906e+01 2.563306057040219e+01 2.859647973152086e+01 3.671316448054907e+01 4.075508441236974e+01 2.859647973152086e+01 2.358066697542026e+01 4.075508441236975e+01 3.304099200764067e+01 1.215476421813973e+01 2.472318343685921e+01 1.194185091526064e+01 2.574081816639859e+01 2.472318343685921e+01 3.671316448054907e+01 2.574081816639859e+01 3.886681689748622e+01 3.671316448054907e+01 4.075508441236975e+01 3.886681689748623e+01 4.242654425069473e+01 4.075508441236975e+01 3.304099200764068e+01 4.242654425069473e+01 3.247616704123191e+01 
				</DataArray>
			</PointData>
			<CellData>
			</CellData>
		</Piece>
	</UnstructuredGrid>
</VTKFile>