<?xml version="1.0"?>
<VTKFile type="UnstructuredGrid" byte_order="LittleEndian">
	<UnstructuredGrid>
		<Piece NumberOfPoints="256" NumberOfCells="64">
			<Points>
				<DataArray type="Float64" NumberOfComponents="3" format="ascii">
					-1.000000000000000e+00 -1.000000000000000e+00 0.000000000000000e+00
					-9.135224194504830e-01 -9.135224194504830e-01 0.000000000000000e+00
					-1.218750000000000e+00 -7.500000000000000e-01 0.000000000000000e+00
					-1.081002888200483e+00 -6.851418145878622e-01 0.000000000000000e+00
					-9.135224194504830e-01 -9.135224194504830e-01 0.000000000000000e+00
					-8.338955762008279e-01 -8.338955762008279e-01 0.000000000000000e+00
					-1.081002888200483e+00 -6.851418145878622e-01 0.000000000000000e+00
					-9.569424512008280e-01 -6.254216821506209e-01 0.000000000000000e+00
					-8.338955762008279e-01 -8.338955762008279e-01 0.000000000000000e+00
					-7.611194702510349e-01 -7.611194702510349e-01 0.000000000000000e+00
					-9.569424512008280e-01 -6.254216821506209e-01 0.000000000000000e+00
					-8.465686890010349e-01 -5.708396026882762e-01 0.000000000000000e+00
					-7.611194702510349e-01 -7.611194702510349e-01 0.000000000000000e+00
					-6.951941016011038e-01 -6.951941016011038e-01 0.000000000000000e+00
					-8.465686890010349e-01 -5.708396026882762e-01 0.000000000000000e+00
					-7.498816016011038e-01 -5.213955762008279e-01 0.000000000000000e+00
					-6.951941016011038e-01 -6.951941016011038e-01 0.000000000000000e+00
					-6.361194702510349e-01 -6.361194702510349e-01 0.000000000000000e+00
					-7.498816016011038e-01 -5.213955762008279e-01 0.000000000000000e+00
					-6.668811890010349e-01 -4.770896026882761e-01 0.000000000000000e+00
					-6.361194702510349e-01 -6.361194702510349e-01 0.000000000000000e+00
					-5.838955762008278e-01 -5.838955762008278e-01 0.000000000000000e+00
					-6.668811890010349e-01 -4.770896026882761e-01 0.000000000000000e+00
					-5.975674512008279e-01 -4.379216821506209e-01 0.000000000000000e+00
					-5.838955762008278e-01 -5.838955762008278e-01 0.000000000000000e+00
					-5.385224194504830e-01 -5.385224194504830e-01 0.000000000000000e+00
					-5.975674512008279e-01 -4.379216821506209e-01 0.000000000000000e+00
					-5.419403882004830e-01 -4.038918145878622e-01 0.000000000000000e+00
					-5.385224194504830e-01 -5.385224194504830e-01 0.000000000000000e+00
					-5.000000000000000e-01 -5.000000000000000e-01 0.000000000000000e+00
					-5.419403882004830e-01 -4.038918145878622e-01 0.000000000000000e+00
					-5.000000000000000e-01 -3.750000000000000e-01 0.000000000000000e+00
					-1.218750000000000e+00 -7.500000000000000e-01 0.000000000000000e+00
					-1.081002888200483e+00 -6.851418145878622e-01 0.000000000000000e+00
					-1.375000000000000e+00 -5.000000000000000e-01 0.000000000000000e+00
					-1.200631794450483e+00 -4.567612097252415e-01 0.000000000000000e+00
					-1.081002888200483e+00 -6.851418145878622e-01 0.000000000000000e+00
					-9.569424512008280e-01 -6.254216821506209e-01 0.000000000000000e+00
					-1.200631794450483e+00 -4.567612097252415e-01 0.000000000000000e+00
					-1.044833076200828e+00 -4.169477881004140e-01 0.000000000000000e+00
					-9.569424512008280e-01 -6.254216821506209e-01 0.000000000000000e+00
					-8.465686890010349e-01 -5.708396026882762e-01 0.000000000000000e+00
					-1.044833076200828e+00 -4.169477881004140e-01 0.000000000000000e+00
					-9.076038452510349e-01 -3.805597351255174e-01 0.000000000000000e+00
					-8.465686890010349e-01 -5.708396026882762e-01 0.000000000000000e+00
					-7.498816016011038e-01 -5.213955762008279e-01 0.000000000000000e+00
					-9.076038452510349e-01 -3.805597351255174e-01 0.000000000000000e+00
					-7.889441016011038e-01 -3.475970508005519e-01 0.000000000000000e+00
					-7.498816016011038e-01 -5.213955762008279e-01 0.000000000000000e+00
					-6.668811890010349e-01 -4.770896026882761e-01 0.000000000000000e+00
					-7.889441016011038e-01 -3.475970508005519e-01 0.000000000000000e+00
					-6.888538452510349e-01 -3.180597351255174e-01 0.000000000000000e+00
					-6.668811890010349e-01 -4.770896026882761e-01 0.000000000000000e+00
					-5.975674512008279e-01 -4.379216821506209e-01 0.000000000000000e+00
					-6.888538452510349e-01 -3.180597351255174e-01 0.000000000000000e+00
					-6.073330762008279e-01 -2.919477881004139e-01 0.000000000000000e+00
					-5.975674512008279e-01 -4.379216821506209e-01 0.000000000000000e+00
					-5.419403882004830e-01 -4.038918145878622e-01 0.000000000000000e+00
					-6.073330762008279e-01 -2.919477881004139e-01 0.000000000000000e+00
					-5.443817944504830e-01 -2.692612097252414e-01 0.000000000000000e+00
					-5.419403882004830e-01 -4.038918145878622e-01 0.000000000000000e+00
					-5.000000000000000e-01 -3.750000000000000e-01 0.000000000000000e+00
					-5.443817944504830e-01 -2.692612097252414e-01 0.000000000000000e+00
					-5.000000000000000e-01 -2.500000000000000e-01 0.000000000000000e+00
					-1.375000000000000e+00 -5.000000000000000e-01 0.000000000000000e+00
					-1.200631794450483e+00 -4.567612097252415e-01 0.000000000000000e+00
					-1.468750000000000e+00 -2.500000000000000e-01 0.000000000000000e+00
					-1.272409138200483e+00 -2.283806048626207e-01 0.000000000000000e+00
					-1.200631794450483e+00 -4.567612097252415e-01 0.000000000000000e+00
					-1.044833076200828e+00 -4.169477881004140e-01 0.000000000000000e+00
					-1.272409138200483e+00 -2.283806048626207e-01 0.000000000000000e+00
					-1.097567451200828e+00 -2.084738940502069e-01 0.000000000000000e+00
					-1.044833076200828e+00 -4.169477881004140e-01 0.000000000000000e+00
					-9.076038452510349e-01 -3.805597351255174e-01 0.000000000000000e+00
					-1.097567451200828e+00 -2.084738940502069e-01 0.000000000000000e+00
					-9.442249390010349e-01 -1.902798675627587e-01 0.000000000000000e+00
					-9.076038452510349e-01 -3.805597351255174e-01 0.000000000000000e+00
					-7.889441016011038e-01 -3.475970508005519e-01 0.000000000000000e+00
					-9.442249390010349e-01 -1.902798675627587e-01 0.000000000000000e+00
					-8.123816016011038e-01 -1.737985254002759e-01 0.000000000000000e+00
					-7.889441016011038e-01 -3.475970508005519e-01 0.000000000000000e+00
					-6.888538452510349e-01 -3.180597351255174e-01 0.000000000000000e+00
					-8.123816016011038e-01 -1.737985254002759e-01 0.000000000000000e+00
					-7.020374390010349e-01 -1.590298675627587e-01 0.000000000000000e+00
					-6.888538452510349e-01 -3.180597351255174e-01 0.000000000000000e+00
					-6.073330762008279e-01 -2.919477881004139e-01 0.000000000000000e+00
					-7.020374390010349e-01 -1.590298675627587e-01 0.000000000000000e+00
					-6.131924512008279e-01 -1.459738940502069e-01 0.000000000000000e+00
					-6.073330762008279e-01 -2.919477881004139e-01 0.000000000000000e+00
					-5.443817944504830e-01 -2.692612097252414e-01 0.000000000000000e+00
					-6.131924512008279e-01 -1.459738940502069e-01 0.000000000000000e+00
					-5.458466382004830e-01 -1.346306048626207e-01 0.000000000000000e+00
					-5.443817944504830e-01 -2.692612097252414e-01 0.000000000000000e+00
					-5.000000000000000e-01 -2.500000000000000e-01 0.000000000000000e+00
					-5.458466382004830e-01 -1.346306048626207e-01 0.000000000000000e+00
					-5.000000000000000e-01 -1.250000000000000e-01 0.000000000000000e+00
					-1.468750000000000e+00 -2.500000000000000e-01 0.000000000000000e+00
					-1.272409138200483e+00 -2.283806048626207e-01 0.000000000000000e+00
					-1.500000000000000e+00 0.000000000000000e+00 0.000000000000000e+00
					-1.296334919450483e+00 4.857225732735060e-17 0.000000000000000e+00
					-1.272409138200483e+00 -2.283806048626207e-01 0.000000000000000e+00
					-1.097567451200828e+00 -2.084738940502069e-01 0.000000000000000e+00
					-1.296334919450483e+00 4.857225732735060e-17 0.000000000000000e+00
					-1.115145576200828e+00 3.469446951953614e-17 0.000000000000000e+00
					-1.097567451200828e+00 -2.084738940502069e-01 0.000000000000000e+00
					-9.442249390010349e-01 -1.902798675627587e-01 0.000000000000000e+00
					-1.115145576200828e+00 3.469446951953614e-17 0.000000000000000e+00
					-9.564319702510349e-01 4.163336342344337e-17 0.000000000000000e+00
					-9.442249390010349e-01 -1.902798675627587e-01 0.000000000000000e+00
					-8.123816016011038e-01 -1.737985254002759e-01 0.000000000000000e+00
					-9.564319702510349e-01 4.163336342344337e-17 0.000000000000000e+00
					-8.201941016011038e-01 4.163336342344337e-17 0.000000000000000e+00
					-8.123816016011038e-01 -1.737985254002759e-01 0.000000000000000e+00
					-7.020374390010349e-01 -1.590298675627587e-01 0.000000000000000e+00
					-8.201941016011038e-01 4.163336342344337e-17 0.000000000000000e+00
					-7.064319702510349e-01 3.816391647148976e-17 0.000000000000000e+00
					-7.020374390010349e-01 -1.590298675627587e-01 0.000000000000000e+00
					-6.131924512008279e-01 -1.459738940502069e-01 0.000000000000000e+00
					-7.064319702510349e-01 3.816391647148976e-17 0.000000000000000e+00
					-6.151455762008279e-01 2.428612866367530e-17 0.000000000000000e+00
					-6.131924512008279e-01 -1.459738940502069e-01 0.000000000000000e+00
					-5.458466382004830e-01 -1.346306048626207e-01 0.000000000000000e+00
					-6.151455762008279e-01 2.428612866367530e-17 0.000000000000000e+00
					-5.463349194504830e-01 2.428612866367530e-17 0.000000000000000e+00
					-5.458466382004830e-01 -1.346306048626207e-01 0.000000000000000e+00
					-5.000000000000000e-01 -1.250000000000000e-01 0.000000000000000e+00
					-5.463349194504830e-01 2.428612866367530e-17 0.000000000000000e+00
					-5.000000000000000e-01 0.000000000000000e+00 0.000000000000000e+00
					-1.500000000000000e+00 0.000000000000000e+00 0.000000000000000e+00
					-1.296334919450483e+00 4.857225732735060e-17 0.000000000000000e+00
					-1.468750000000000e+00 2.500000000000000e-01 0.000000000000000e+00
					-1.272409138200483e+00 2.283806048626208e-01 0.000000000000000e+00
					-1.296334919450483e+00 4.857225732735060e-17 0.000000000000000e+00
					-1.115145576200828e+00 3.469446951953614e-17 0.000000000000000e+00
					-1.272409138200483e+00 2.283806048626208e-01 0.000000000000000e+00
					-1.097567451200828e+00 2.084738940502070e-01 0.000000000000000e+00
					-1.115145576200828e+00 3.469446951953614e-17 0.000000000000000e+00
					-9.564319702510349e-01 4.163336342344337e-17 0.000000000000000e+00
					-1.097567451200828e+00 2.084738940502070e-01 0.000000000000000e+00
					-9.442249390010349e-01 1.902798675627588e-01 0.000000000000000e+00
					-9.564319702510349e-01 4.163336342344337e-17 0.000000000000000e+00
					-8.201941016011038e-01 4.163336342344337e-17 0.000000000000000e+00
					-9.442249390010349e-01 1.902798675627588e-01 0.000000000000000e+00
					-8.123816016011038e-01 1.737985254002760e-01 0.000000000000000e+00
					-8.201941016011038e-01 4.163336342344337e-17 0.000000000000000e+00
					-7.064319702510349e-01 3.816391647148976e-17 0.000000000000000e+00
					-8.123816016011038e-01 1.737985254002760e-01 0.000000000000000e+00
					-7.020374390010349e-01 1.590298675627588e-01 0.000000000000000e+00
					-7.064319702510349e-01 3.816391647148976e-17 0.000000000000000e+00
					-6.151455762008279e-01 2.428612866367530e-17 0.000000000000000e+00
					-7.020374390010349e-01 1.590298675627588e-01 0.000000000000000e+00
					-6.131924512008278e-01 1.459738940502070e-01 0.000000000000000e+00
					-6.151455762008279e-01 2.428612866367530e-17 0.000000000000000e+00
					-5.463349194504830e-01 2.428612866367530e-17 0.000000000000000e+00
					-6.131924512008278e-01 1.459738940502070e-01 0.000000000000000e+00
					-5.458466382004830e-01 1.346306048626208e-01 0.000000000000000e+00
					-5.463349194504830e-01 2.428612866367530e-17 0.000000000000000e+00
					-5.000000000000000e-01 0.000000000000000e+00 0.000000000000000e+00
					-5.458466382004830e-01 1.346306048626208e-01 0.000000000000000e+00
					-5.000000000000000e-01 1.250000000000000e-01 0.000000000000000e+00
					-1.468750000000000e+00 2.500000000000000e-01 0.000000000000000e+00
					-1.272409138200483e+00 2.283806048626208e-01 0.000000000000000e+00
					-1.375000000000000e+00 5.000000000000000e-01 0.000000000000000e+00
					-1.200631794450483e+00 4.567612097252415e-01 0.000000000000000e+00
					-1.272409138200483e+00 2.283806048626208e-01 0.000000000000000e+00
					-1.097567451200828e+00 2.084738940502070e-01 0.000000000000000e+00
					-1.200631794450483e+00 4.567612097252415e-01 0.000000000000000e+00
					-1.044833076200828e+00 4.169477881004139e-01 0.000000000000000e+00
					-1.097567451200828e+00 2.084738940502070e-01 0.000000000000000e+00
					-9.442249390010349e-01 1.902798675627588e-01 0.000000000000000e+00
					-1.044833076200828e+00 4.169477881004139e-01 0.000000000000000e+00
					-9.076038452510349e-01 3.805597351255174e-01 0.000000000000000e+00
					-9.442249390010349e-01 1.902798675627588e-01 0.000000000000000e+00
					-8.123816016011038e-01 1.737985254002760e-01 0.000000000000000e+00
					-9.076038452510349e-01 3.805597351255174e-01 0.000000000000000e+00
					-7.889441016011038e-01 3.475970508005520e-01 0.000000000000000e+00
					-8.123816016011038e-01 1.737985254002760e-01 0.000000000000000e+00
					-7.020374390010349e-01 1.590298675627588e-01 0.000000000000000e+00
					-7.889441016011038e-01 3.475970508005520e-01 0.000000000000000e+00
					-6.888538452510349e-01 3.180597351255175e-01 0.000000000000000e+00
					-7.020374390010349e-01 1.590298675627588e-01 0.000000000000000e+00
					-6.131924512008278e-01 1.459738940502070e-01 0.000000000000000e+00
					-6.888538452510349e-01 3.180597351255175e-01 0.000000000000000e+00
					-6.073330762008278e-01 2.919477881004140e-01 0.000000000000000e+00
					-6.131924512008278e-01 1.459738940502070e-01 0.000000000000000e+00
					-5.458466382004830e-01 1.346306048626208e-01 0.000000000000000e+00
					-6.073330762008278e-01 2.919477881004140e-01 0.000000000000000e+00
					-5.443817944504830e-01 2.692612097252415e-01 0.000000000000000e+00
					-5.458466382004830e-01 1.346306048626208e-01 0.000000000000000e+00
					-5.000000000000000e-01 1.250000000000000e-01 0.000000000000000e+00
					-5.443817944504830e-01 2.692612097252415e-01 0.000000000000000e+00
					-5.000000000000000e-01 2.500000000000000e-01 0.000000000000000e+00
					-1.375000000000000e+00 5.000000000000000e-01 0.000000000000000e+00
					-1.200631794450483e+00 4.567612097252415e-01 0.000000000000000e+00
					-1.218750000000000e+00 7.500000000000000e-01 0.000000000000000e+00
					-1.081002888200483e+00 6.851418145878622e-01 0.000000000000000e+00
					-1.200631794450483e+00 4.567612097252415e-01 0.000000000000000e+00
					-1.044833076200828e+00 4.169477881004139e-01 0.000000000000000e+00
					-1.081002888200483e+00 6.851418145878622e-01 0.000000000000000e+00
					-9.569424512008279e-01 6.254216821506209e-01 0.000000000000000e+00
					-1.044833076200828e+00 4.169477881004139e-01 0.000000000000000e+00
					-9.076038452510349e-01 3.805597351255174e-01 0.000000000000000e+00
					-9.569424512008279e-01 6.254216821506209e-01 0.000000000000000e+00
					-8.465686890010349e-01 5.708396026882763e-01 0.000000000000000e+00
					-9.076038452510349e-01 3.805597351255174e-01 0.000000000000000e+00
					-7.889441016011038e-01 3.475970508005520e-01 0.000000000000000e+00
					-8.465686890010349e-01 5.708396026882763e-01 0.000000000000000e+00
					-7.498816016011038e-01 5.213955762008280e-01 0.000000000000000e+00
					-7.889441016011038e-01 3.475970508005520e-01 0.000000000000000e+00
					-6.888538452510349e-01 3.180597351255175e-01 0.000000000000000e+00
					-7.498816016011038e-01 5.213955762008280e-01 0.000000000000000e+00
					-6.668811890010349e-01 4.770896026882762e-01 0.000000000000000e+00
					-6.888538452510349e-01 3.180597351255175e-01 0.000000000000000e+00
					-6.073330762008278e-01 2.919477881004140e-01 0.000000000000000e+00
					-6.668811890010349e-01 4.770896026882762e-01 0.000000000000000e+00
					-5.975674512008278e-01 4.379216821506209e-01 0.000000000000000e+00
					-6.073330762008278e-01 2.919477881004140e-01 0.000000000000000e+00
					-5.443817944504830e-01 2.692612097252415e-01 0.000000000000000e+00
					-5.975674512008278e-01 4.379216821506209e-01 0.000000000000000e+00
					-5.419403882004830e-01 4.038918145878622e-01 0.000000000000000e+00
					-5.443817944504830e-01 2.692612097252415e-01 0.000000000000000e+00
					-5.000000000000000e-01 2.500000000000000e-01 0.000000000000000e+00
					-5.419403882004830e-01 4.038918145878622e-01 0.000000000000000e+00
					-5.000000000000000e-01 3.750000000000000e-01 0.000000000000000e+00
					-1.218750000000000e+00 7.500000000000000e-01 0.000000000000000e+00
					-1.081002888200483e+00 6.851418145878622e-01 0.000000000000000e+00
					-1.000000000000000e+00 1.000000000000000e+00 0.000000000000000e+00
					-9.135224194504830e-01 9.135224194504830e-01 0.000000000000000e+00
					-1.081002888200483e+00 6.851418145878622e-01 0.000000000000000e+00
					-9.569424512008279e-01 6.254216821506209e-01 0.000000000000000e+00
					-9.135224194504830e-01 9.135224194504830e-01 0.000000000000000e+00
					-8.338955762008279e-01 8.338955762008279e-01 0.000000000000000e+00
					-9.569424512008279e-01 6.254216821506209e-01 0.000000000000000e+00
					-8.465686890010349e-01 5.708396026882763e-01 0.000000000000000e+00
					-8.338955762008279e-01 8.338955762008279e-01 0.000000000000000e+00
					-7.611194702510349e-01 7.611194702510349e-01 0.000000000000000e+00
					-8.465686890010349e-01 5.708396026882763e-01 0.000000000000000e+00
					-7.498816016011038e-01 5.213955762008280e-01 0.000000000000000e+00
					-7.611194702510349e-01 7.611194702510349e-01 0.000000000000000e+00
					-6.951941016011038e-01 6.951941016011038e-01 0.000000000000000e+00
					-7.498816016011038e-01 5.213955762008280e-01 0.000000000000000e+00
					-6.668811890010349e-01 4.770896026882762e-01 0.000000000000000e+00
					-6.951941016011038e-01 6.951941016011038e-01 0.000000000000000e+00
					-6.361194702510349e-01 6.361194702510349e-01 0.000000000000000e+00
					-6.668811890010349e-01 4.770896026882762e-01 0.000000000000000e+00
					-5.975674512008278e-01 4.379216821506209e-01 0.000000000000000e+00
					-6.361194702510349e-01 6.361194702510349e-01 0.000000000000000e+00
					-5.838955762008278e-01 5.838955762008278e-01 0.000000000000000e+00
					-5.975674512008278e-01 4.379216821506209e-01 0.000000000000000e+00
					-5.419403882004830e-01 4.038918145878622e-01 0.000000000000000e+00
					-5.838955762008278e-01 5.838955762008278e-01 0.000000000000000e+00
					-5.385224194504830e-01 5.385224194504830e-01 0.000000000000000e+00
					-5.419403882004830e-01 4.038918145878622e-01 0.000000000000000e+00
					-5.000000000000000e-01 3.750000000000000e-01 0.000000000000000e+00
					-5.385224194504830e-01 5.385224194504830e-01 0.000000000000000e+00
					-5.000000000000000e-01 5.000000000000000e-01 0.000000000000000e+00
				</DataArray>
			</Points>
			<Cells>
				<DataArray Name="connectivity" type="UInt32" format="ascii">
					0 1 3 2 4 5 7 6 8 9 11 10 12 13 15 14 16 17 19 18 20 21 23 22 24 25 27 26 28 29 31 30 32 33 35 34 36 37 39 38 40 41 43 42 44 45 47 46 48 49 51 50 52 53 55 54 56 57 59 58 60 61 63 62 64 65 67 66 68 69 71 70 72 73 75 74 76 77 79 78 80 81 83 82 84 85 87 86 88 89 91 90 92 93 95 94 96 97 99 98 100 101 103 102 104 105 107 106 108 109 111 110 112 113 115 114 116 117 119 118 120 121 123 122 124 125 127 126 128 129 131 130 132 133 135 134 136 137 139 138 140 141 143 142 144 145 147 146 148 149 151 150 152 153 155 154 156 157 159 158 160 161 163 162 164 165 167 166 168 169 171 170 172 173 175 174 176 177 179 178 180 181 183 182 184 185 187 186 188 189 191 190 192 193 195 194 196 197 199 198 200 201 203 202 204 205 207 206 208 209 211 210 212 213 215 214 216 217 219 218 220 221 223 222 224 225 227 226 228 229 231 230 232 233 235 234 236 237 239 238 240 241 243 242 244 245 247 246 248 249 251 250 252 253 255 254 
				</DataArray>
				<DataArray Name="offsets" type="UInt32" format="ascii">
					4 8 12 16 20 24 28 32 36 40 44 48 52 56 60 64 68 72 76 80 84 88 92 96 100 104 108 112 116 120 124 128 132 136 140 144 148 152 156 160 164 168 172 176 180 184 188 192 196 200 204 208 212 216 220 224 228 232 236 240 244 248 252 256 
				</DataArray>
				<DataArray Name="types" type="UInt8" format="ascii">
					9 9 9 9 9 9 9 9 9 9 9 9 9 9 9 9 9 9 9 9 9 9 9 9 9 9 9 9 9 9 9 9 9 9 9 9 9 9 9 9 9 9 9 9 9 9 9 9 9 9 9 9 9 9 9 9 9 9 9 9 9 9 9 9 
				</DataArray>
			</Cells>
			<PointData Vectors="solution ">
				<DataArray Name="solution" type="Float64" NumberOfComponents="1" format="ascii">
					0.000000000000000e+00 7.838622351423857e-04 0.000000000000000e+00 1.964624464987219e-03 7.838622351423857e-04 1.204358483352092e-02 1.964624464987219e-03 3.238821358421413e-02 1.204358483352093e-02 6.160430684129010e-02 3.238821358421414e-02 1.500153621240269e-01 6.160430684129012e-02 1.821708861386285e-01 1.500153621240270e-01 4.139115227690184e-01 1.821708861386285e-01 3.984673892139706e-01 4.139115227690185e-01 8.511619241637458e-01 3.984673892139706e-01 7.195998246743311e-01 8.511619241637463e-01 1.443302561182735e+00 7.195998246743313e-01 1.135689062009452e+00 1.443302561182736e+00 2.129787748254322e+00 1.135689062009452e+00 1.617118211117474e+00 2.129787748254323e+00 2.823473430145330e+00 0.000000000000000e+00 1.964624464987220e-03 0.000000000000000e+00 4.839997450308824e-03 1.964624464987220e-03 3.238821358421413e-02 4.839997450308824e-03 6.791426290457550e-02 3.238821358421414e-02 1.500153621240269e-01 6.791426290457553e-02 3.001440225152031e-01 1.500153621240270e-01 4.139115227690185e-01 3.001440225152031e-01 7.959665298523776e-01 4.139115227690186e-01 8.511619241637460e-01 7.959665298523779e-01 1.567260112575595e+00 8.511619241637463e-01 1.443302561182735e+00 1.567260112575595e+00 2.533096790089640e+00 1.443302561182736e+00 2.129787748254323e+00 2.533096790089641e+00 3.552647453290688e+00 2.129787748254323e+00 2.823473430145331e+00 3.552647453290689e+00 4.470289386076480e+00 0.000000000000000e+00 4.839997450308824e-03 0.000000000000000e+00 9.929390437250512e-03 4.839997450308824e-03 6.791426290457553e-02 9.929390437250513e-03 1.233140095441009e-01 6.791426290457553e-02 3.001440225152031e-01 1.233140095441009e-01 5.236468525090923e-01 3.001440225152032e-01 7.959665298523777e-01 5.236468525090924e-01 1.341876874669704e+00 7.959665298523779e-01 1.567260112575595e+00 1.341876874669704e+00 2.548815410577130e+00 1.567260112575595e+00 2.533096790089641e+00 2.548815410577131e+00 3.967441508696536e+00 2.533096790089641e+00 3.552647453290689e+00 3.967441508696537e+00 5.356150879584280e+00 3.552647453290689e+00 4.470289386076480e+00 5.356150879584280e+00 6.488789562586304e+00 0.000000000000000e+00 9.929390437250515e-03 0.000000000000000e+00 1.672750539266725e-02 9.929390437250515e-03 1.233140095441009e-01 1.672750539266725e-02 1.985354346742466e-01 1.233140095441010e-01 5.236468525090924e-01 1.985354346742467e-01 8.111797396728687e-01 5.236468525090925e-01 1.341876874669704e+00 8.111797396728689e-01 2.011136071903460e+00 1.341876874669704e+00 2.548815410577131e+00 2.011136071903460e+00 3.702778383936491e+00 2.548815410577132e+00 3.967441508696537e+00 3.702778383936492e+00 5.595917139252037e+00 3.967441508696537e+00 5.356150879584282e+00 5.595917139252037e+00 7.348820476071642e+00 5.356150879584282e+00 6.488789562586305e+00 7.348820476071642e+00 8.680011924009849e+00 0.000000000000000e+00 1.672750539266725e-02 0.000000000000000e+00 2.516571371904262e-02 1.672750539266725e-02 1.985354346742466e-01 2.516571371904262e-02 2.844372940027176e-01 1.985354346742467e-01 8.111797396728689e-01 2.844372940027177e-01 1.121255279120477e+00 8.111797396728692e-01 2.011136071903460e+00 1.121255279120477e+00 2.689434355938392e+00 2.011136071903461e+00 3.702778383936492e+00 2.689434355938392e+00 4.816097401635636e+00 3.702778383936493e+00 5.595917139252037e+00 4.816097401635638e+00 7.117143753264597e+00 5.595917139252039e+00 7.348820476071644e+00 7.117143753264600e+00 9.183920936122735e+00 7.348820476071644e+00 8.680011924009849e+00 9.183920936122737e+00 1.070564110817158e+01 0.000000000000000e+00 2.516571371904263e-02 0.000000000000000e+00 3.050458807094333e-02 2.516571371904263e-02 2.844372940027177e-01 3.050458807094333e-02 3.626278462813016e-01 2.844372940027178e-01 1.121255279120477e+00 3.626278462813016e-01 1.378234842575187e+00 1.121255279120477e+00 2.689434355938392e+00 1.378234842575187e+00 3.198401747243695e+00 2.689434355938393e+00 4.816097401635638e+00 3.198401747243695e+00 5.593794347831566e+00 4.816097401635639e+00 7.117143753264600e+00 5.593794347831567e+00 8.143848753320786e+00 7.117143753264601e+00 9.183920936122741e+00 8.143848753320787e+00 1.043152681151329e+01 9.183920936122741e+00 1.070564110817158e+01 1.043152681151330e+01 1.215383656125071e+01 0.000000000000000e+00 3.050458807094334e-02 0.000000000000000e+00 3.638745400933652e-02 3.050458807094334e-02 3.626278462813017e-01 3.638745400933653e-02 4.056190342685100e-01 3.626278462813018e-01 1.378234842575187e+00 4.056190342685101e-01 1.480600825798944e+00 1.378234842575188e+00 3.198401747243695e+00 1.480600825798945e+00 3.331999982775454e+00 3.198401747243695e+00 5.593794347831567e+00 3.331999982775455e+00 5.734596999615805e+00 5.593794347831569e+00 8.143848753320787e+00 5.734596999615806e+00 8.316941979436256e+00 8.143848753320789e+00 1.043152681151330e+01 8.316941979436256e+00 1.071135660052371e+01 1.043152681151330e+01 1.215383656125072e+01 1.071135660052371e+01 1.265076555102159e+01 0.000000000000000e+00 3.638745400933653e-02 0.000000000000000e+00 1.512203483416360e-02 3.638745400933653e-02 4.056190342685101e-01 1.512203483416360e-02 3.667427437561106e-01 4.056190342685101e-01 1.480600825798945e+00 3.667427437561107e-01 1.334867104539806e+00 1.480600825798945e+00 3.331999982775454e+00 1.334867104539806e+00 2.951232733414292e+00 3.331999982775455e+00 5.734596999615805e+00 2.951232733414293e+00 5.062149655011636e+00 5.734596999615807e+00 8.316941979436256e+00 5.062149655011638e+00 7.423993687713939e+00 8.316941979436258e+00 1.071135660052371e+01 7.423993687713940e+00 9.786177181683167e+00 1.071135660052371e+01 1.265076555102159e+01 9.786177181683167e+00 1.194552322690051e+01 
				</DataArray>
			</PointData>
			<CellData>
			</CellData>
		</Piece>
	</UnstructuredGrid>
</VTKFile>