<?xml version="1.0"?>
<VTKFile type="UnstructuredGrid" byte_order="LittleEndian">
	<UnstructuredGrid>
		<Piece NumberOfPoints="256" NumberOfCells="64">
			<Points>
				<DataArray type="Float64" NumberOfComponents="3" format="ascii">
					1.000000000000000e+00 -1.000000000000000e+00 0.000000000000000e+00
					1.218750000000000e+00 -7.500000000000000e-01 0.000000000000000e+00
					9.135224194504830e-01 -9.135224194504830e-01 0.000000000000000e+00
					1.081002888200483e+00 -6.851418145878622e-01 0.000000000000000e+00
					1.218750000000000e+00 -7.500000000000000e-01 0.000000000000000e+00
					1.375000000000000e+00 -5.000000000000000e-01 0.000000000000000e+00
					1.081002888200483e+00 -6.851418145878622e-01 0.000000000000000e+00
					1.200631794450483e+00 -4.567612097252415e-01 0.000000000000000e+00
					1.375000000000000e+00 -5.000000000000000e-01 0.000000000000000e+00
					1.468750000000000e+00 -2.500000000000000e-01 0.000000000000000e+00
					1.200631794450483e+00 -4.567612097252415e-01 0.000000000000000e+00
					1.272409138200483e+00 -2.283806048626207e-01 0.000000000000000e+00
					1.468750000000000e+00 -2.500000000000000e-01 0.000000000000000e+00
					1.500000000000000e+00 0.000000000000000e+00 0.000000000000000e+00
					1.272409138200483e+00 -2.283806048626207e-01 0.000000000000000e+00
					1.296334919450483e+00 1.040834085586084e-17 0.000000000000000e+00
					1.500000000000000e+00 0.000000000000000e+00 0.000000000000000e+00
					1.468750000000000e+00 2.500000000000000e-01 0.000000000000000e+00
					1.296334919450483e+00 1.040834085586084e-17 0.000000000000000e+00
					1.272409138200483e+00 2.283806048626208e-01 0.000000000000000e+00
					1.468750000000000e+00 2.500000000000000e-01 0.000000000000000e+00
					1.375000000000000e+00 5.000000000000000e-01 0.000000000000000e+00
					1.272409138200483e+00 2.283806048626208e-01 0.000000000000000e+00
					1.200631794450483e+00 4.567612097252415e-01 0.000000000000000e+00
					1.375000000000000e+00 5.000000000000000e-01 0.000000000000000e+00
					1.218750000000000e+00 7.500000000000000e-01 0.000000000000000e+00
					1.200631794450483e+00 4.567612097252415e-01 0.000000000000000e+00
					1.081002888200483e+00 6.851418145878623e-01 0.000000000000000e+00
					1.218750000000000e+00 7.500000000000000e-01 0.000000000000000e+00
					1.000000000000000e+00 1.000000000000000e+00 0.000000000000000e+00
					1.081002888200483e+00 6.851418145878623e-01 0.000000000000000e+00
					9.135224194504830e-01 9.135224194504830e-01 0.000000000000000e+00
					9.135224194504830e-01 -9.135224194504830e-01 0.000000000000000e+00
					1.081002888200483e+00 -6.851418145878622e-01 0.000000000000000e+00
					8.338955762008279e-01 -8.338955762008279e-01 0.000000000000000e+00
					9.569424512008280e-01 -6.254216821506209e-01 0.000000000000000e+00
					1.081002888200483e+00 -6.851418145878622e-01 0.000000000000000e+00
					1.200631794450483e+00 -4.567612097252415e-01 0.000000000000000e+00
					9.569424512008280e-01 -6.254216821506209e-01 0.000000000000000e+00
					1.044833076200828e+00 -4.169477881004140e-01 0.000000000000000e+00
					1.200631794450483e+00 -4.567612097252415e-01 0.000000000000000e+00
					1.272409138200483e+00 -2.283806048626207e-01 0.000000000000000e+00
					1.044833076200828e+00 -4.169477881004140e-01 0.000000000000000e+00
					1.097567451200828e+00 -2.084738940502070e-01 0.000000000000000e+00
					1.272409138200483e+00 -2.283806048626207e-01 0.000000000000000e+00
					1.296334919450483e+00 1.040834085586084e-17 0.000000000000000e+00
					1.097567451200828e+00 -2.084738940502070e-01 0.000000000000000e+00
					1.115145576200828e+00 1.734723475976807e-17 0.000000000000000e+00
					1.296334919450483e+00 1.040834085586084e-17 0.000000000000000e+00
					1.272409138200483e+00 2.283806048626208e-01 0.000000000000000e+00
					1.115145576200828e+00 1.734723475976807e-17 0.000000000000000e+00
					1.097567451200828e+00 2.084738940502070e-01 0.000000000000000e+00
					1.272409138200483e+00 2.283806048626208e-01 0.000000000000000e+00
					1.200631794450483e+00 4.567612097252415e-01 0.000000000000000e+00
					1.097567451200828e+00 2.084738940502070e-01 0.000000000000000e+00
					1.044833076200828e+00 4.169477881004140e-01 0.000000000000000e+00
					1.200631794450483e+00 4.567612097252415e-01 0.000000000000000e+00
					1.081002888200483e+00 6.851418145878623e-01 0.000000000000000e+00
					1.044833076200828e+00 4.169477881004140e-01 0.000000000000000e+00
					9.569424512008280e-01 6.254216821506209e-01 0.000000000000000e+00
					1.081002888200483e+00 6.851418145878623e-01 0.000000000000000e+00
					9.135224194504830e-01 9.135224194504830e-01 0.000000000000000e+00
					9.569424512008280e-01 6.254216821506209e-01 0.000000000000000e+00
					8.338955762008279e-01 8.338955762008279e-01 0.000000000000000e+00
					8.338955762008279e-01 -8.338955762008279e-01 0.000000000000000e+00
					9.569424512008280e-01 -6.254216821506209e-01 0.000000000000000e+00
					7.611194702510349e-01 -7.611194702510349e-01 0.000000000000000e+00
					8.465686890010349e-01 -5.708396026882762e-01 0.000000000000000e+00
					9.569424512008280e-01 -6.254216821506209e-01 0.000000000000000e+00
					1.044833076200828e+00 -4.169477881004140e-01 0.000000000000000e+00
					8.465686890010349e-01 -5.708396026882762e-01 0.000000000000000e+00
					9.076038452510349e-01 -3.805597351255174e-01 0.000000000000000e+00
					1.044833076200828e+00 -4.169477881004140e-01 0.000000000000000e+00
					1.097567451200828e+00 -2.084738940502070e-01 0.000000000000000e+00
					9.076038452510349e-01 -3.805597351255174e-01 0.000000000000000e+00
					9.442249390010350e-01 -1.902798675627587e-01 0.000000000000000e+00
					1.097567451200828e+00 -2.084738940502070e-01 0.000000000000000e+00
					1.115145576200828e+00 1.734723475976807e-17 0.000000000000000e+00
					9.442249390010350e-01 -1.902798675627587e-01 0.000000000000000e+00
					9.564319702510349e-01 2.428612866367530e-17 0.000000000000000e+00
					1.115145576200828e+00 1.734723475976807e-17 0.000000000000000e+00
					1.097567451200828e+00 2.084738940502070e-01 0.000000000000000e+00
					9.564319702510349e-01 2.428612866367530e-17 0.000000000000000e+00
					9.442249390010349e-01 1.902798675627587e-01 0.000000000000000e+00
					1.097567451200828e+00 2.084738940502070e-01 0.000000000000000e+00
					1.044833076200828e+00 4.169477881004140e-01 0.000000000000000e+00
					9.442249390010349e-01 1.902798675627587e-01 0.000000000000000e+00
					9.076038452510349e-01 3.805597351255174e-01 0.000000000000000e+00
					1.044833076200828e+00 4.169477881004140e-01 0.000000000000000e+00
					9.569424512008280e-01 6.254216821506209e-01 0.000000000000000e+00
					9.076038452510349e-01 3.805597351255174e-01 0.000000000000000e+00
					8.465686890010349e-01 5.708396026882762e-01 0.000000000000000e+00
					9.569424512008280e-01 6.254216821506209e-01 0.000000000000000e+00
					8.338955762008279e-01 8.338955762008279e-01 0.000000000000000e+00
					8.465686890010349e-01 5.708396026882762e-01 0.000000000000000e+00
					7.611194702510349e-01 7.611194702510349e-01 0.000000000000000e+00
					7.611194702510349e-01 -7.611194702510349e-01 0.000000000000000e+00
					8.465686890010349e-01 -5.708396026882762e-01 0.000000000000000e+00
					6.951941016011038e-01 -6.951941016011038e-01 0.000000000000000e+00
					7.498816016011038e-01 -5.213955762008279e-01 0.000000000000000e+00
					8.465686890010349e-01 -5.708396026882762e-01 0.000000000000000e+00
					9.076038452510349e-01 -3.805597351255174e-01 0.000000000000000e+00
					7.498816016011038e-01 -5.213955762008279e-01 0.000000000000000e+00
					7.889441016011040e-01 -3.475970508005519e-01 0.000000000000000e+00
					9.076038452510349e-01 -3.805597351255174e-01 0.000000000000000e+00
					9.442249390010350e-01 -1.902798675627587e-01 0.000000000000000e+00
					7.889441016011040e-01 -3.475970508005519e-01 0.000000000000000e+00
					8.123816016011040e-01 -1.737985254002760e-01 0.000000000000000e+00
					9.442249390010350e-01 -1.902798675627587e-01 0.000000000000000e+00
					9.564319702510349e-01 2.428612866367530e-17 0.000000000000000e+00
					8.123816016011040e-01 -1.737985254002760e-01 0.000000000000000e+00
					8.201941016011038e-01 2.428612866367530e-17 0.000000000000000e+00
					9.564319702510349e-01 2.428612866367530e-17 0.000000000000000e+00
					9.442249390010349e-01 1.902798675627587e-01 0.000000000000000e+00
					8.201941016011038e-01 2.428612866367530e-17 0.000000000000000e+00
					8.123816016011038e-01 1.737985254002760e-01 0.000000000000000e+00
					9.442249390010349e-01 1.902798675627587e-01 0.000000000000000e+00
					9.076038452510349e-01 3.805597351255174e-01 0.000000000000000e+00
					8.123816016011038e-01 1.737985254002760e-01 0.000000000000000e+00
					7.889441016011038e-01 3.475970508005519e-01 0.000000000000000e+00
					9.076038452510349e-01 3.805597351255174e-01 0.000000000000000e+00
					8.465686890010349e-01 5.708396026882762e-01 0.000000000000000e+00
					7.889441016011038e-01 3.475970508005519e-01 0.000000000000000e+00
					7.498816016011038e-01 5.213955762008279e-01 0.000000000000000e+00
					8.465686890010349e-01 5.708396026882762e-01 0.000000000000000e+00
					7.611194702510349e-01 7.611194702510349e-01 0.000000000000000e+00
					7.498816016011038e-01 5.213955762008279e-01 0.000000000000000e+00
					6.951941016011038e-01 6.951941016011038e-01 0.000000000000000e+00
					6.951941016011038e-01 -6.951941016011038e-01 0.000000000000000e+00
					7.498816016011038e-01 -5.213955762008279e-01 0.000000000000000e+00
					6.361194702510349e-01 -6.361194702510349e-01 0.000000000000000e+00
					6.668811890010349e-01 -4.770896026882762e-01 0.000000000000000e+00
					7.498816016011038e-01 -5.213955762008279e-01 0.000000000000000e+00
					7.889441016011040e-01 -3.475970508005519e-01 0.000000000000000e+00
					6.668811890010349e-01 -4.770896026882762e-01 0.000000000000000e+00
					6.888538452510349e-01 -3.180597351255174e-01 0.000000000000000e+00
					7.889441016011040e-01 -3.475970508005519e-01 0.000000000000000e+00
					8.123816016011040e-01 -1.737985254002760e-01 0.000000000000000e+00
					6.888538452510349e-01 -3.180597351255174e-01 0.000000000000000e+00
					7.020374390010350e-01 -1.590298675627587e-01 0.000000000000000e+00
					8.123816016011040e-01 -1.737985254002760e-01 0.000000000000000e+00
					8.201941016011038e-01 2.428612866367530e-17 0.000000000000000e+00
					7.020374390010350e-01 -1.590298675627587e-01 0.000000000000000e+00
					7.064319702510349e-01 1.734723475976807e-17 0.000000000000000e+00
					8.201941016011038e-01 2.428612866367530e-17 0.000000000000000e+00
					8.123816016011038e-01 1.737985254002760e-01 0.000000000000000e+00
					7.064319702510349e-01 1.734723475976807e-17 0.000000000000000e+00
					7.020374390010349e-01 1.590298675627587e-01 0.000000000000000e+00
					8.123816016011038e-01 1.737985254002760e-01 0.000000000000000e+00
					7.889441016011038e-01 3.475970508005519e-01 0.000000000000000e+00
					7.020374390010349e-01 1.590298675627587e-01 0.000000000000000e+00
					6.888538452510349e-01 3.180597351255174e-01 0.000000000000000e+00
					7.889441016011038e-01 3.475970508005519e-01 0.000000000000000e+00
					7.498816016011038e-01 5.213955762008279e-01 0.000000000000000e+00
					6.888538452510349e-01 3.180597351255174e-01 0.000000000000000e+00
					6.668811890010349e-01 4.770896026882762e-01 0.000000000000000e+00
					7.498816016011038e-01 5.213955762008279e-01 0.000000000000000e+00
					6.951941016011038e-01 6.951941016011038e-01 0.000000000000000e+00
					6.668811890010349e-01 4.770896026882762e-01 0.000000000000000e+00
					6.361194702510349e-01 6.361194702510349e-01 0.000000000000000e+00
					6.361194702510349e-01 -6.361194702510349e-01 0.000000000000000e+00
					6.668811890010349e-01 -4.770896026882762e-01 0.000000000000000e+00
					5.838955762008278e-01 -5.838955762008278e-01 0.000000000000000e+00
					5.975674512008280e-01 -4.379216821506209e-01 0.000000000000000e+00
					6.668811890010349e-01 -4.770896026882762e-01 0.000000000000000e+00
					6.888538452510349e-01 -3.180597351255174e-01 0.000000000000000e+00
					5.975674512008280e-01 -4.379216821506209e-01 0.000000000000000e+00
					6.073330762008280e-01 -2.919477881004139e-01 0.000000000000000e+00
					6.888538452510349e-01 -3.180597351255174e-01 0.000000000000000e+00
					7.020374390010350e-01 -1.590298675627587e-01 0.000000000000000e+00
					6.073330762008280e-01 -2.919477881004139e-01 0.000000000000000e+00
					6.131924512008280e-01 -1.459738940502069e-01 0.000000000000000e+00
					7.020374390010350e-01 -1.590298675627587e-01 0.000000000000000e+00
					7.064319702510349e-01 1.734723475976807e-17 0.000000000000000e+00
					6.131924512008280e-01 -1.459738940502069e-01 0.000000000000000e+00
					6.151455762008280e-01 1.040834085586084e-17 0.000000000000000e+00
					7.064319702510349e-01 1.734723475976807e-17 0.000000000000000e+00
					7.020374390010349e-01 1.590298675627587e-01 0.000000000000000e+00
					6.151455762008280e-01 1.040834085586084e-17 0.000000000000000e+00
					6.131924512008278e-01 1.459738940502070e-01 0.000000000000000e+00
					7.020374390010349e-01 1.590298675627587e-01 0.000000000000000e+00
					6.888538452510349e-01 3.180597351255174e-01 0.000000000000000e+00
					6.131924512008278e-01 1.459738940502070e-01 0.000000000000000e+00
					6.073330762008278e-01 2.919477881004139e-01 0.000000000000000e+00
					6.888538452510349e-01 3.180597351255174e-01 0.000000000000000e+00
					6.668811890010349e-01 4.770896026882762e-01 0.000000000000000e+00
					6.073330762008278e-01 2.919477881004139e-01 0.000000000000000e+00
					5.975674512008278e-01 4.379216821506209e-01 0.000000000000000e+00
					6.668811890010349e-01 4.770896026882762e-01 0.000000000000000e+00
					6.361194702510349e-01 6.361194702510349e-01 0.000000000000000e+00
					5.975674512008278e-01 4.379216821506209e-01 0.000000000000000e+00
					5.838955762008278e-01 5.838955762008278e-01 0.000000000000000e+00
					5.838955762008278e-01 -5.838955762008278e-01 0.000000000000000e+00
					5.975674512008280e-01 -4.379216821506209e-01 0.000000000000000e+00
					5.385224194504830e-01 -5.385224194504830e-01 0.000000000000000e+00
					5.419403882004830e-01 -4.038918145878622e-01 0.000000000000000e+00
					5.975674512008280e-01 -4.379216821506209e-01 0.000000000000000e+00
					6.073330762008280e-01 -2.919477881004139e-01 0.000000000000000e+00
					5.419403882004830e-01 -4.038918145878622e-01 0.000000000000000e+00
					5.443817944504830e-01 -2.692612097252414e-01 0.000000000000000e+00
					6.073330762008280e-01 -2.919477881004139e-01 0.000000000000000e+00
					6.131924512008280e-01 -1.459738940502069e-01 0.000000000000000e+00
					5.443817944504830e-01 -2.692612097252414e-01 0.000000000000000e+00
					5.458466382004830e-01 -1.346306048626207e-01 0.000000000000000e+00
					6.131924512008280e-01 -1.459738940502069e-01 0.000000000000000e+00
					6.151455762008280e-01 1.040834085586084e-17 0.000000000000000e+00
					5.458466382004830e-01 -1.346306048626207e-01 0.000000000000000e+00
					5.463349194504828e-01 3.469446951953614e-18 0.000000000000000e+00
					6.151455762008280e-01 1.040834085586084e-17 0.000000000000000e+00
					6.131924512008278e-01 1.459738940502070e-01 0.000000000000000e+00
					5.463349194504828e-01 3.469446951953614e-18 0.000000000000000e+00
					5.458466382004828e-01 1.346306048626207e-01 0.000000000000000e+00
					6.131924512008278e-01 1.459738940502070e-01 0.000000000000000e+00
					6.073330762008278e-01 2.919477881004139e-01 0.000000000000000e+00
					5.458466382004828e-01 1.346306048626207e-01 0.000000000000000e+00
					5.443817944504828e-01 2.692612097252414e-01 0.000000000000000e+00
					6.073330762008278e-01 2.919477881004139e-01 0.000000000000000e+00
					5.975674512008278e-01 4.379216821506209e-01 0.000000000000000e+00
					5.443817944504828e-01 2.692612097252414e-01 0.000000000000000e+00
					5.419403882004828e-01 4.038918145878622e-01 0.000000000000000e+00
					5.975674512008278e-01 4.379216821506209e-01 0.000000000000000e+00
					5.838955762008278e-01 5.838955762008278e-01 0.000000000000000e+00
					5.419403882004828e-01 4.038918145878622e-01 0.000000000000000e+00
					5.385224194504830e-01 5.385224194504830e-01 0.000000000000000e+00
					5.385224194504830e-01 -5.385224194504830e-01 0.000000000000000e+00
					5.419403882004830e-01 -4.038918145878622e-01 0.000000000000000e+00
					5.000000000000000e-01 -5.000000000000000e-01 0.000000000000000e+00
					5.000000000000000e-01 -3.750000000000000e-01 0.000000000000000e+00
					5.419403882004830e-01 -4.038918145878622e-01 0.000000000000000e+00
					5.443817944504830e-01 -2.692612097252414e-01 0.000000000000000e+00
					5.000000000000000e-01 -3.750000000000000e-01 0.000000000000000e+00
					5.000000000000000e-01 -2.500000000000000e-01 0.000000000000000e+00
					5.443817944504830e-01 -2.692612097252414e-01 0.000000000000000e+00
					5.458466382004830e-01 -1.346306048626207e-01 0.000000000000000e+00
					5.000000000000000e-01 -2.500000000000000e-01 0.000000000000000e+00
					5.000000000000000e-01 -1.250000000000000e-01 0.000000000000000e+00
					5.458466382004830e-01 -1.346306048626207e-01 0.000000000000000e+00
					5.463349194504828e-01 3.469446951953614e-18 0.000000000000000e+00
					5.000000000000000e-01 -1.250000000000000e-01 0.000000000000000e+00
					5.000000000000000e-01 0.000000000000000e+00 0.000000000000000e+00
					5.463349194504828e-01 3.469446951953614e-18 0.000000000000000e+00
					5.458466382004828e-01 1.346306048626207e-01 0.000000000000000e+00
					5.000000000000000e-01 0.000000000000000e+00 0.000000000000000e+00
					5.000000000000000e-01 1.250000000000000e-01 0.000000000000000e+00
					5.458466382004828e-01 1.346306048626207e-01 0.000000000000000e+00
					5.443817944504828e-01 2.692612097252414e-01 0.000000000000000e+00
					5.000000000000000e-01 1.250000000000000e-01 0.000000000000000e+00
					5.000000000000000e-01 2.500000000000000e-01 0.000000000000000e+00
					5.443817944504828e-01 2.692612097252414e-01 0.000000000000000e+00
					5.419403882004828e-01 4.038918145878622e-01 0.000000000000000e+00
					5.000000000000000e-01 2.500000000000000e-01 0.000000000000000e+00
					5.000000000000000e-01 3.750000000000000e-01 0.000000000000000e+00
					5.419403882004828e-01 4.038918145878622e-01 0.000000000000000e+00
					5.385224194504830e-01 5.385224194504830e-01 0.000000000000000e+00
					5.000000000000000e-01 3.750000000000000e-01 0.000000000000000e+00
					5.000000000000000e-01 5.000000000000000e-01 0.000000000000000e+00
				</DataArray>
			</Points>
			<Cells>
				<DataArray Name="connectivity" type="UInt32" format="ascii">
					0 1 3 2 4 5 7 6 8 9 11 10 12 13 15 14 16 17 19 18 20 21 23 22 24 25 27 26 28 29 31 30 32 33 35 34 36 37 39 38 40 41 43 42 44 45 47 46 48 49 51 50 52 53 55 54 56 57 59 58 60 61 63 62 64 65 67 66 68 69 71 70 72 73 75 74 76 77 79 78 80 81 83 82 84 85 87 86 88 89 91 90 92 93 95 94 96 97 99 98 100 101 103 102 104 105 107 106 108 109 111 110 112 113 115 114 116 117 119 118 120 121 123 122 124 125 127 126 128 129 131 130 132 133 135 134 136 137 139 138 140 141 143 142 144 145 147 146 148 149 151 150 152 153 155 154 156 157 159 158 160 161 163 162 164 165 167 166 168 169 171 170 172 173 175 174 176 177 179 178 180 181 183 182 184 185 187 186 188 189 191 190 192 193 195 194 196 197 199 198 200 201 203 202 204 205 207 206 208 209 211 210 212 213 215 214 216 217 219 218 220 221 223 222 224 225 227 226 228 229 231 230 232 233 235 234 236 237 239 238 240 241 243 242 244 245 247 246 248 249 251 250 252 253 255 254 
				</DataArray>
				<DataArray Name="offsets" type="UInt32" format="ascii">
					4 8 12 16 20 24 28 32 36 40 44 48 52 56 60 64 68 72 76 80 84 88 92 96 100 104 108 112 116 120 124 128 132 136 140 144 148 152 156 160 164 168 172 176 180 184 188 192 196 200 204 208 212 216 220 224 228 232 236 240 244 248 252 256 
				</DataArray>
				<DataArray Name="types" type="UInt8" format="ascii">
					9 9 9 9 9 9 9 9 9 9 9 9 9 9 9 9 9 9 9 9 9 9 9 9 9 9 9 9 9 9 9 9 9 9 9 9 9 9 9 9 9 9 9 9 9 9 9 9 9 9 9 9 9 9 9 9 9 9 9 9 9 9 9 9 
				</DataArray>
			</Cells>
			<PointData Vectors="solution ">
				<DataArray Name="solution" type="Float64" NumberOfComponents="1" format="ascii">
					0.000000000000000e+00 0.000000000000000e+00 5.219134976407453e-03 1.911568816150112e-02 0.000000000000000e+00 0.000000000000000e+00 1.911568816150112e-02 5.435804003100758e-02 0.000000000000000e+00 0.000000000000000e+00 5.435804003100760e-02 1.249177215040314e-01 0.000000000000000e+00 0.000000000000000e+00 1.249177215040314e-01 2.248682057623552e-01 0.000000000000000e+00 0.000000000000000e+00 2.248682057623552e-01 3.119715971766474e-01 0.000000000000000e+00 0.000000000000000e+00 3.119715971766475e-01 3.395293001298020e-01 0.000000000000000e+00 0.000000000000000e+00 3.395293001298022e-01 2.990671501793425e-01 0.000000000000000e+00 0.000000000000000e+00 2.990671501793425e-01 2.041529456638241e-01 5.219134976407453e-03 1.911568816150112e-02 6.950417745310142e-02 2.223023574480088e-01 1.911568816150113e-02 5.435804003100758e-02 2.223023574480088e-01 5.491425285786089e-01 5.435804003100760e-02 1.249177215040314e-01 5.491425285786090e-01 1.104525024579123e+00 1.249177215040314e-01 2.248682057623552e-01 1.104525024579123e+00 1.838908709369210e+00 2.248682057623552e-01 3.119715971766474e-01 1.838908709369210e+00 2.542276369687936e+00 3.119715971766475e-01 3.395293001298020e-01 2.542276369687936e+00 2.909440563560832e+00 3.395293001298022e-01 2.990671501793425e-01 2.909440563560833e+00 2.711125417609035e+00 2.990671501793426e-01 2.041529456638241e-01 2.711125417609036e+00 1.952669749026718e+00 6.950417745310143e-02 2.223023574480088e-01 2.874162666009010e-01 8.160788733966775e-01 2.223023574480089e-01 5.491425285786090e-01 8.160788733966776e-01 1.843435099149831e+00 5.491425285786090e-01 1.104525024579123e+00 1.843435099149831e+00 3.456161319998910e+00 1.104525024579123e+00 1.838908709369210e+00 3.456161319998911e+00 5.482254910855692e+00 1.838908709369210e+00 2.542276369687936e+00 5.482254910855694e+00 7.398227306288294e+00 2.542276369687936e+00 2.909440563560833e+00 7.398227306288295e+00 8.447009235726922e+00 2.909440563560833e+00 2.711125417609036e+00 8.447009235726924e+00 8.005452977608499e+00 2.711125417609036e+00 1.952669749026719e+00 8.005452977608499e+00 6.034245095977401e+00 2.874162666009011e-01 8.160788733966777e-01 7.309752556929497e-01 1.852745564875213e+00 8.160788733966780e-01 1.843435099149831e+00 1.852745564875213e+00 3.856765367498483e+00 1.843435099149831e+00 3.456161319998911e+00 3.856765367498484e+00 6.808863168363724e+00 3.456161319998912e+00 5.482254910855695e+00 6.808863168363725e+00 1.035856227833620e+01 5.482254910855696e+00 7.398227306288295e+00 1.035856227833620e+01 1.364555179529444e+01 7.398227306288296e+00 8.447009235726924e+00 1.364555179529444e+01 1.549007723336212e+01 8.447009235726924e+00 8.005452977608503e+00 1.549007723336212e+01 1.491299491180269e+01 8.005452977608503e+00 6.034245095977402e+00 1.491299491180269e+01 1.179191895276805e+01 7.309752556929499e-01 1.852745564875213e+00 1.417935370980207e+00 3.228893489207896e+00 1.852745564875214e+00 3.856765367498484e+00 3.228893489207897e+00 6.217648403998851e+00 3.856765367498485e+00 6.808863168363725e+00 6.217648403998853e+00 1.037531405283899e+01 6.808863168363726e+00 1.035856227833620e+01 1.037531405283900e+01 1.519328343731862e+01 1.035856227833620e+01 1.364555179529444e+01 1.519328343731862e+01 1.960035840224186e+01 1.364555179529444e+01 1.549007723336212e+01 1.960035840224186e+01 2.218961044957017e+01 1.549007723336213e+01 1.491299491180269e+01 2.218961044957018e+01 2.176934678079351e+01 1.491299491180270e+01 1.179191895276806e+01 2.176934678079351e+01 1.805900732244495e+01 1.417935370980208e+00 3.228893489207897e+00 2.310894394355348e+00 4.768185674926211e+00 3.228893489207897e+00 6.217648403998853e+00 4.768185674926212e+00 8.538581610541653e+00 6.217648403998853e+00 1.037531405283900e+01 8.538581610541655e+00 1.352312500118335e+01 1.037531405283900e+01 1.519328343731862e+01 1.352312500118336e+01 1.913030907601894e+01 1.519328343731863e+01 1.960035840224186e+01 1.913030907601895e+01 2.424711575501055e+01 1.960035840224186e+01 2.218961044957018e+01 2.424711575501056e+01 2.745044360959528e+01 2.218961044957018e+01 2.176934678079351e+01 2.745044360959529e+01 2.748544923655508e+01 2.176934678079352e+01 1.805900732244496e+01 2.748544923655508e+01 2.388387740992316e+01 2.310894394355349e+00 4.768185674926212e+00 3.334037902867683e+00 6.295832776312701e+00 4.768185674926213e+00 8.538581610541655e+00 6.295832776312702e+00 1.055910948386405e+01 8.538581610541655e+00 1.352312500118336e+01 1.055910948386406e+01 1.595676384749521e+01 1.352312500118336e+01 1.913030907601895e+01 1.595676384749521e+01 2.189409021193027e+01 1.913030907601895e+01 2.424711575501056e+01 2.189409021193028e+01 2.734150105096235e+01 2.424711575501057e+01 2.745044360959529e+01 2.734150105096236e+01 3.100141589654009e+01 2.745044360959529e+01 2.748544923655508e+01 3.100141589654010e+01 3.167279944436091e+01 2.748544923655508e+01 2.388387740992317e+01 3.167279944436091e+01 2.873985936672518e+01 3.334037902867683e+00 6.295832776312702e+00 4.394311782631894e+00 7.676218161004786e+00 6.295832776312703e+00 1.055910948386406e+01 7.676218161004789e+00 1.215677404580188e+01 1.055910948386406e+01 1.595676384749521e+01 1.215677404580188e+01 1.763705135597047e+01 1.595676384749521e+01 2.189409021193027e+01 1.763705135597048e+01 2.357308491084737e+01 2.189409021193028e+01 2.734150105096235e+01 2.357308491084737e+01 2.907858098754206e+01 2.734150105096236e+01 3.100141589654010e+01 2.907858098754206e+01 3.304551491347510e+01 3.100141589654011e+01 3.167279944436091e+01 3.304551491347510e+01 3.440245731372028e+01 3.167279944436092e+01 2.873985936672519e+01 3.440245731372028e+01 3.246983178939653e+01 
				</DataArray>
			</PointData>
			<CellData>
			</CellData>
		</Piece>
	</UnstructuredGrid>
</VTKFile>