<?xml version="1.0"?>
<VTKFile type="UnstructuredGrid" byte_order="LittleEndian">
	<UnstructuredGrid>
		<Piece NumberOfPoints="64" NumberOfCells="16">
			<Points>
				<DataArray type="Float64" NumberOfComponents="3" format="ascii">
					-1.000000000000000e+00 -1.000000000000000e+00 0.000000000000000e+00
					-5.000000000000000e-01 -1.375000000000000e+00 0.000000000000000e+00
					-8.338955762008279e-01 -8.338955762008279e-01 0.000000000000000e+00
					-4.169477881004139e-01 -1.044833076200828e+00 0.000000000000000e+00
					-5.000000000000000e-01 -1.375000000000000e+00 0.000000000000000e+00
					1.387778780781446e-17 -1.500000000000000e+00 0.000000000000000e+00
					-4.169477881004139e-01 -1.044833076200828e+00 0.000000000000000e+00
					6.938893903907228e-18 -1.115145576200828e+00 0.000000000000000e+00
					1.387778780781446e-17 -1.500000000000000e+00 0.000000000000000e+00
					5.000000000000000e-01 -1.375000000000000e+00 0.000000000000000e+00
					6.938893903907228e-18 -1.115145576200828e+00 0.000000000000000e+00
					4.169477881004139e-01 -1.044833076200828e+00 0.000000000000000e+00
					5.000000000000000e-01 -1.375000000000000e+00 0.000000000000000e+00
					1.000000000000000e+00 -1.000000000000000e+00 0.000000000000000e+00
					4.169477881004139e-01 -1.044833076200828e+00 0.000000000000000e+00
					8.338955762008279e-01 -8.338955762008279e-01 0.000000000000000e+00
					-8.338955762008279e-01 -8.338955762008279e-01 0.000000000000000e+00
					-4.169477881004139e-01 -1.044833076200828e+00 0.000000000000000e+00
					-6.951941016011038e-01 -6.951941016011038e-01 0.000000000000000e+00
					-3.475970508005519e-01 -7.889441016011038e-01 0.000000000000000e+00
					-4.169477881004139e-01 -1.044833076200828e+00 0.000000000000000e+00
					6.938893903907228e-18 -1.115145576200828e+00 0.000000000000000e+00
					-3.475970508005519e-01 -7.889441016011038e-01 0.000000000000000e+00
					0.000000000000000e+00 -8.201941016011038e-01 0.000000000000000e+00
					6.938893903907228e-18 -1.115145576200828e+00 0.000000000000000e+00
					4.169477881004139e-01 -1.044833076200828e+00 0.000000000000000e+00
					0.000000000000000e+00 -8.201941016011038e-01 0.000000000000000e+00
					3.475970508005519e-01 -7.889441016011038e-01 0.000000000000000e+00
					4.169477881004139e-01 -1.044833076200828e+00 0.000000000000000e+00
					8.338955762008279e-01 -8.338955762008279e-01 0.000000000000000e+00
					3.475970508005519e-01 -7.889441016011038e-01 0.000000000000000e+00
					6.951941016011038e-01 -6.951941016011038e-01 0.000000000000000e+00
					-6.951941016011038e-01 -6.951941016011038e-01 0.000000000000000e+00
					-3.475970508005519e-01 -7.889441016011038e-01 0.000000000000000e+00
					-5.838955762008279e-01 -5.838955762008279e-01 0.000000000000000e+00
					-2.919477881004139e-01 -6.073330762008279e-01 0.000000000000000e+00
					-3.475970508005519e-01 -7.889441016011038e-01 0.000000000000000e+00
					0.000000000000000e+00 -8.201941016011038e-01 0.000000000000000e+00
					-2.919477881004139e-01 -6.073330762008279e-01 0.000000000000000e+00
					6.938893903907228e-18 -6.151455762008279e-01 0.000000000000000e+00
					0.000000000000000e+00 -8.201941016011038e-01 0.000000000000000e+00
					3.475970508005519e-01 -7.889441016011038e-01 0.000000000000000e+00
					6.938893903907228e-18 -6.151455762008279e-01 0.000000000000000e+00
					2.919477881004139e-01 -6.073330762008279e-01 0.000000000000000e+00
					3.475970508005519e-01 -7.889441016011038e-01 0.000000000000000e+00
					6.951941016011038e-01 -6.951941016011038e-01 0.000000000000000e+00
					2.919477881004139e-01 -6.073330762008279e-01 0.000000000000000e+00
					5.838955762008279e-01 -5.838955762008279e-01 0.000000000000000e+00
					-5.838955762008279e-01 -5.838955762008279e-01 0.000000000000000e+00
					-2.919477881004139e-01 -6.073330762008279e-01 0.000000000000000e+00
					-5.000000000000000e-01 -5.000000000000000e-01 0.000000000000000e+00
					-2.500000000000000e-01 -5.000000000000000e-01 0.000000000000000e+00
					-2.919477881004139e-01 -6.073330762008279e-01 0.000000000000000e+00
					6.938893903907228e-18 -6.151455762008279e-01 0.000000000000000e+00
					-2.500000000000000e-01 -5.000000000000000e-01 0.000000000000000e+00
					6.938893903907228e-18 -5.000000000000000e-01 0.000000000000000e+00
					6.938893903907228e-18 -6.151455762008279e-01 0.000000000000000e+00
					2.919477881004139e-01 -6.073330762008279e-01 0.000000000000000e+00
					6.938893903907228e-18 -5.000000000000000e-01 0.000000000000000e+00
					2.500000000000000e-01 -5.000000000000000e-01 0.000000000000000e+00
					2.919477881004139e-01 -6.073330762008279e-01 0.000000000000000e+00
					5.838955762008279e-01 -5.838955762008279e-01 0.000000000000000e+00
					2.500000000000000e-01 -5.000000000000000e-01 0.000000000000000e+00
					5.000000000000000e-01 -5.000000000000000e-01 0.000000000000000e+00
				</DataArray>
			</Points>
			<Cells>
				<DataArray Name="connectivity" type="UInt32" format="ascii">
					0 1 3 2 4 5 7 6 8 9 11 10 12 13 15 14 16 17 19 18 20 21 23 22 24 25 27 26 28 29 31 30 32 33 35 34 36 37 39 38 40 41 43 42 44 45 47 46 48 49 51 50 52 53 55 54 56 57 59 58 60 61 63 62 
				</DataArray>
				<DataArray Name="offsets" type="UInt32" format="ascii">
					4 8 12 16 20 24 28 32 36 40 44 48 52 56 60 64 
				</DataArray>
				<DataArray Name="types" type="UInt8" format="ascii">
					9 9 9 9 9 9 9 9 9 9 9 9 9 9 9 9 
				</DataArray>
			</Cells>
			<PointData Vectors="solution ">
				<DataArray Name="solution" type="Float64" NumberOfComponents="1" format="ascii">
					0.000000000000000e+00 0.000000000000000e+00 -1.016523497555767e-02 3.798206588109609e-02 0.000000000000000e+00 0.000000000000000e+00 3.798206588109610e-02 6.742940289102554e-02 0.000000000000000e+00 0.000000000000000e+00 6.742940289102554e-02 9.813179955042103e-02 0.000000000000000e+00 0.000000000000000e+00 9.813179955042105e-02 9.357325743974915e-02 -1.016523497555767e-02 3.798206588109610e-02 1.791088309411721e-01 5.272909399699531e-01 3.798206588109611e-02 6.742940289102556e-02 5.272909399699532e-01 9.092419805305894e-01 6.742940289102556e-02 9.813179955042105e-02 9.092419805305896e-01 1.055267060516162e+00 9.813179955042106e-02 9.357325743974916e-02 1.055267060516162e+00 8.003701977364091e-01 1.791088309411722e-01 5.272909399699532e-01 7.422280576966317e-01 1.878597687326971e+00 5.272909399699534e-01 9.092419805305896e-01 1.878597687326971e+00 3.052067789300129e+00 9.092419805305899e-01 1.055267060516162e+00 3.052067789300129e+00 3.355882123573342e+00 1.055267060516162e+00 8.003701977364093e-01 3.355882123573342e+00 2.349701730490749e+00 7.422280576966318e-01 1.878597687326971e+00 1.641693074282570e+00 3.524406029104020e+00 1.878597687326971e+00 3.052067789300129e+00 3.524406029104022e+00 5.297955173693210e+00 3.052067789300129e+00 3.355882123573342e+00 5.297955173693211e+00 5.793675809877498e+00 3.355882123573342e+00 2.349701730490749e+00 5.793675809877499e+00 4.435705852723128e+00 
				</DataArray>
			</PointData>
			<CellData>
			</CellData>
		</Piece>
	</UnstructuredGrid>
</VTKFile>