<?xml version="1.0"?>
<VTKFile type="UnstructuredGrid" byte_order="LittleEndian">
	<UnstructuredGrid>
		<Piece NumberOfPoints="256" NumberOfCells="64">
			<Points>
				<DataArray type="Float64" NumberOfComponents="3" format="ascii">
					-1.000000000000000e+00 -1.000000000000000e+00 0.000000000000000e+00
					-9.135224194504830e-01 -9.135224194504830e-01 0.000000000000000e+00
					-1.218750000000000e+00 -7.500000000000000e-01 0.000000000000000e+00
					-1.081002888200483e+00 -6.851418145878622e-01 0.000000000000000e+00
					-9.135224194504830e-01 -9.135224194504830e-01 0.000000000000000e+00
					-8.338955762008279e-01 -8.338955762008279e-01 0.000000000000000e+00
					-1.081002888200483e+00 -6.851418145878622e-01 0.000000000000000e+00
					-9.569424512008280e-01 -6.254216821506209e-01 0.000000000000000e+00
					-8.338955762008279e-01 -8.338955762008279e-01 0.000000000000000e+00
					-7.611194702510349e-01 -7.611194702510349e-01 0.000000000000000e+00
					-9.569424512008280e-01 -6.254216821506209e-01 0.000000000000000e+00
					-8.465686890010349e-01 -5.708396026882762e-01 0.000000000000000e+00
					-7.611194702510349e-01 -7.611194702510349e-01 0.000000000000000e+00
					-6.951941016011038e-01 -6.951941016011038e-01 0.000000000000000e+00
					-8.465686890010349e-01 -5.708396026882762e-01 0.000000000000000e+00
					-7.498816016011038e-01 -5.213955762008279e-01 0.000000000000000e+00
					-6.951941016011038e-01 -6.951941016011038e-01 0.000000000000000e+00
					-6.361194702510349e-01 -6.361194702510349e-01 0.000000000000000e+00
					-7.498816016011038e-01 -5.213955762008279e-01 0.000000000000000e+00
					-6.668811890010349e-01 -4.770896026882761e-01 0.000000000000000e+00
					-6.361194702510349e-01 -6.361194702510349e-01 0.000000000000000e+00
					-5.838955762008278e-01 -5.838955762008278e-01 0.000000000000000e+00
					-6.668811890010349e-01 -4.770896026882761e-01 0.000000000000000e+00
					-5.975674512008279e-01 -4.379216821506209e-01 0.000000000000000e+00
					-5.838955762008278e-01 -5.838955762008278e-01 0.000000000000000e+00
					-5.385224194504830e-01 -5.385224194504830e-01 0.000000000000000e+00
					-5.975674512008279e-01 -4.379216821506209e-01 0.000000000000000e+00
					-5.419403882004830e-01 -4.038918145878622e-01 0.000000000000000e+00
					-5.385224194504830e-01 -5.385224194504830e-01 0.000000000000000e+00
					-5.000000000000000e-01 -5.000000000000000e-01 0.000000000000000e+00
					-5.419403882004830e-01 -4.038918145878622e-01 0.000000000000000e+00
					-5.000000000000000e-01 -3.750000000000000e-01 0.000000000000000e+00
					-1.218750000000000e+00 -7.500000000000000e-01 0.000000000000000e+00
					-1.081002888200483e+00 -6.851418145878622e-01 0.000000000000000e+00
					-1.375000000000000e+00 -5.000000000000000e-01 0.000000000000000e+00
					-1.200631794450483e+00 -4.567612097252415e-01 0.000000000000000e+00
					-1.081002888200483e+00 -6.851418145878622e-01 0.000000000000000e+00
					-9.569424512008280e-01 -6.254216821506209e-01 0.000000000000000e+00
					-1.200631794450483e+00 -4.567612097252415e-01 0.000000000000000e+00
					-1.044833076200828e+00 -4.169477881004140e-01 0.000000000000000e+00
					-9.569424512008280e-01 -6.254216821506209e-01 0.000000000000000e+00
					-8.465686890010349e-01 -5.708396026882762e-01 0.000000000000000e+00
					-1.044833076200828e+00 -4.169477881004140e-01 0.000000000000000e+00
					-9.076038452510349e-01 -3.805597351255174e-01 0.000000000000000e+00
					-8.465686890010349e-01 -5.708396026882762e-01 0.000000000000000e+00
					-7.498816016011038e-01 -5.213955762008279e-01 0.000000000000000e+00
					-9.076038452510349e-01 -3.805597351255174e-01 0.000000000000000e+00
					-7.889441016011038e-01 -3.475970508005519e-01 0.000000000000000e+00
					-7.498816016011038e-01 -5.213955762008279e-01 0.000000000000000e+00
					-6.668811890010349e-01 -4.770896026882761e-01 0.000000000000000e+00
					-7.889441016011038e-01 -3.475970508005519e-01 0.000000000000000e+00
					-6.888538452510349e-01 -3.180597351255174e-01 0.000000000000000e+00
					-6.668811890010349e-01 -4.770896026882761e-01 0.000000000000000e+00
					-5.975674512008279e-01 -4.379216821506209e-01 0.000000000000000e+00
					-6.888538452510349e-01 -3.180597351255174e-01 0.000000000000000e+00
					-6.073330762008279e-01 -2.919477881004139e-01 0.000000000000000e+00
					-5.975674512008279e-01 -4.379216821506209e-01 0.000000000000000e+00
					-5.419403882004830e-01 -4.038918145878622e-01 0.000000000000000e+00
					-6.073330762008279e-01 -2.919477881004139e-01 0.000000000000000e+00
					-5.443817944504830e-01 -2.692612097252414e-01 0.000000000000000e+00
					-5.419403882004830e-01 -4.038918145878622e-01 0.000000000000000e+00
					-5.000000000000000e-01 -3.750000000000000e-01 0.000000000000000e+00
					-5.443817944504830e-01 -2.692612097252414e-01 0.000000000000000e+00
					-5.000000000000000e-01 -2.500000000000000e-01 0.000000000000000e+00
					-1.375000000000000e+00 -5.000000000000000e-01 0.000000000000000e+00
					-1.200631794450483e+00 -4.567612097252415e-01 0.000000000000000e+00
					-1.468750000000000e+00 -2.500000000000000e-01 0.000000000000000e+00
					-1.272409138200483e+00 -2.283806048626207e-01 0.000000000000000e+00
					-1.200631794450483e+00 -4.567612097252415e-01 0.000000000000000e+00
					-1.044833076200828e+00 -4.169477881004140e-01 0.000000000000000e+00
					-1.272409138200483e+00 -2.283806048626207e-01 0.000000000000000e+00
					-1.097567451200828e+00 -2.084738940502069e-01 0.000000000000000e+00
					-1.044833076200828e+00 -4.169477881004140e-01 0.000000000000000e+00
					-9.076038452510349e-01 -3.805597351255174e-01 0.000000000000000e+00
					-1.097567451200828e+00 -2.084738940502069e-01 0.000000000000000e+00
					-9.442249390010349e-01 -1.902798675627587e-01 0.000000000000000e+00
					-9.076038452510349e-01 -3.805597351255174e-01 0.000000000000000e+00
					-7.889441016011038e-01 -3.475970508005519e-01 0.000000000000000e+00
					-9.442249390010349e-01 -1.902798675627587e-01 0.000000000000000e+00
					-8.123816016011038e-01 -1.737985254002759e-01 0.000000000000000e+00
					-7.889441016011038e-01 -3.475970508005519e-01 0.000000000000000e+00
					-6.888538452510349e-01 -3.180597351255174e-01 0.000000000000000e+00
					-8.123816016011038e-01 -1.737985254002759e-01 0.000000000000000e+00
					-7.020374390010349e-01 -1.590298675627587e-01 0.000000000000000e+00
					-6.888538452510349e-01 -3.180597351255174e-01 0.000000000000000e+00
					-6.073330762008279e-01 -2.919477881004139e-01 0.000000000000000e+00
					-7.020374390010349e-01 -1.590298675627587e-01 0.000000000000000e+00
					-6.131924512008279e-01 -1.459738940502069e-01 0.000000000000000e+00
					-6.073330762008279e-01 -2.919477881004139e-01 0.000000000000000e+00
					-5.443817944504830e-01 -2.692612097252414e-01 0.000000000000000e+00
					-6.131924512008279e-01 -1.459738940502069e-01 0.000000000000000e+00
					-5.458466382004830e-01 -1.346306048626207e-01 0.000000000000000e+00
					-5.443817944504830e-01 -2.692612097252414e-01 0.000000000000000e+00
					-5.000000000000000e-01 -2.500000000000000e-01 0.000000000000000e+00
					-5.458466382004830e-01 -1.346306048626207e-01 0.000000000000000e+00
					-5.000000000000000e-01 -1.250000000000000e-01 0.000000000000000e+00
					-1.468750000000000e+00 -2.500000000000000e-01 0.000000000000000e+00
					-1.272409138200483e+00 -2.283806048626207e-01 0.000000000000000e+00
					-1.500000000000000e+00 0.000000000000000e+00 0.000000000000000e+00
					-1.296334919450483e+00 4.857225732735060e-17 0.000000000000000e+00
					-1.272409138200483e+00 -2.283806048626207e-01 0.000000000000000e+00
					-1.097567451200828e+00 -2.084738940502069e-01 0.000000000000000e+00
					-1.296334919450483e+00 4.857225732735060e-17 0.000000000000000e+00
					-1.115145576200828e+00 3.469446951953614e-17 0.000000000000000e+00
					-1.097567451200828e+00 -2.084738940502069e-01 0.000000000000000e+00
					-9.442249390010349e-01 -1.902798675627587e-01 0.000000000000000e+00
					-1.115145576200828e+00 3.469446951953614e-17 0.000000000000000e+00
					-9.564319702510349e-01 4.163336342344337e-17 0.000000000000000e+00
					-9.442249390010349e-01 -1.902798675627587e-01 0.000000000000000e+00
					-8.123816016011038e-01 -1.737985254002759e-01 0.000000000000000e+00
					-9.564319702510349e-01 4.163336342344337e-17 0.000000000000000e+00
					-8.201941016011038e-01 4.163336342344337e-17 0.000000000000000e+00
					-8.123816016011038e-01 -1.737985254002759e-01 0.000000000000000e+00
					-7.020374390010349e-01 -1.590298675627587e-01 0.000000000000000e+00
					-8.201941016011038e-01 4.163336342344337e-17 0.000000000000000e+00
					-7.064319702510349e-01 3.816391647148976e-17 0.000000000000000e+00
					-7.020374390010349e-01 -1.590298675627587e-01 0.000000000000000e+00
					-6.131924512008279e-01 -1.459738940502069e-01 0.000000000000000e+00
					-7.064319702510349e-01 3.816391647148976e-17 0.000000000000000e+00
					-6.151455762008279e-01 2.428612866367530e-17 0.000000000000000e+00
					-6.131924512008279e-01 -1.459738940502069e-01 0.000000000000000e+00
					-5.458466382004830e-01 -1.346306048626207e-01 0.000000000000000e+00
					-6.151455762008279e-01 2.428612866367530e-17 0.000000000000000e+00
					-5.463349194504830e-01 2.428612866367530e-17 0.000000000000000e+00
					-5.458466382004830e-01 -1.346306048626207e-01 0.000000000000000e+00
					-5.000000000000000e-01 -1.250000000000000e-01 0.000000000000000e+00
					-5.463349194504830e-01 2.428612866367530e-17 0.000000000000000e+00
					-5.000000000000000e-01 0.000000000000000e+00 0.000000000000000e+00
					-1.500000000000000e+00 0.000000000000000e+00 0.000000000000000e+00
					-1.296334919450483e+00 4.857225732735060e-17 0.000000000000000e+00
					-1.468750000000000e+00 2.500000000000000e-01 0.000000000000000e+00
					-1.272409138200483e+00 2.283806048626208e-01 0.000000000000000e+00
					-1.296334919450483e+00 4.857225732735060e-17 0.000000000000000e+00
					-1.115145576200828e+00 3.469446951953614e-17 0.000000000000000e+00
					-1.272409138200483e+00 2.283806048626208e-01 0.000000000000000e+00
					-1.097567451200828e+00 2.084738940502070e-01 0.000000000000000e+00
					-1.115145576200828e+00 3.469446951953614e-17 0.000000000000000e+00
					-9.564319702510349e-01 4.163336342344337e-17 0.000000000000000e+00
					-1.097567451200828e+00 2.084738940502070e-01 0.000000000000000e+00
					-9.442249390010349e-01 1.902798675627588e-01 0.000000000000000e+00
					-9.564319702510349e-01 4.163336342344337e-17 0.000000000000000e+00
					-8.201941016011038e-01 4.163336342344337e-17 0.000000000000000e+00
					-9.442249390010349e-01 1.902798675627588e-01 0.000000000000000e+00
					-8.123816016011038e-01 1.737985254002760e-01 0.000000000000000e+00
					-8.201941016011038e-01 4.163336342344337e-17 0.000000000000000e+00
					-7.064319702510349e-01 3.816391647148976e-17 0.000000000000000e+00
					-8.123816016011038e-01 1.737985254002760e-01 0.000000000000000e+00
					-7.020374390010349e-01 1.590298675627588e-01 0.000000000000000e+00
					-7.064319702510349e-01 3.816391647148976e-17 0.000000000000000e+00
					-6.151455762008279e-01 2.428612866367530e-17 0.000000000000000e+00
					-7.020374390010349e-01 1.590298675627588e-01 0.000000000000000e+00
					-6.131924512008278e-01 1.459738940502070e-01 0.000000000000000e+00
					-6.151455762008279e-01 2.428612866367530e-17 0.000000000000000e+00
					-5.463349194504830e-01 2.428612866367530e-17 0.000000000000000e+00
					-6.131924512008278e-01 1.459738940502070e-01 0.000000000000000e+00
					-5.458466382004830e-01 1.346306048626208e-01 0.000000000000000e+00
					-5.463349194504830e-01 2.428612866367530e-17 0.000000000000000e+00
					-5.000000000000000e-01 0.000000000000000e+00 0.000000000000000e+00
					-5.458466382004830e-01 1.346306048626208e-01 0.000000000000000e+00
					-5.000000000000000e-01 1.250000000000000e-01 0.000000000000000e+00
					-1.468750000000000e+00 2.500000000000000e-01 0.000000000000000e+00
					-1.272409138200483e+00 2.283806048626208e-01 0.000000000000000e+00
					-1.375000000000000e+00 5.000000000000000e-01 0.000000000000000e+00
					-1.200631794450483e+00 4.567612097252415e-01 0.000000000000000e+00
					-1.272409138200483e+00 2.283806048626208e-01 0.000000000000000e+00
					-1.097567451200828e+00 2.084738940502070e-01 0.000000000000000e+00
					-1.200631794450483e+00 4.567612097252415e-01 0.000000000000000e+00
					-1.044833076200828e+00 4.169477881004139e-01 0.000000000000000e+00
					-1.097567451200828e+00 2.084738940502070e-01 0.000000000000000e+00
					-9.442249390010349e-01 1.902798675627588e-01 0.000000000000000e+00
					-1.044833076200828e+00 4.169477881004139e-01 0.000000000000000e+00
					-9.076038452510349e-01 3.805597351255174e-01 0.000000000000000e+00
					-9.442249390010349e-01 1.902798675627588e-01 0.000000000000000e+00
					-8.123816016011038e-01 1.737985254002760e-01 0.000000000000000e+00
					-9.076038452510349e-01 3.805597351255174e-01 0.000000000000000e+00
					-7.889441016011038e-01 3.475970508005520e-01 0.000000000000000e+00
					-8.123816016011038e-01 1.737985254002760e-01 0.000000000000000e+00
					-7.020374390010349e-01 1.590298675627588e-01 0.000000000000000e+00
					-7.889441016011038e-01 3.475970508005520e-01 0.000000000000000e+00
					-6.888538452510349e-01 3.180597351255175e-01 0.000000000000000e+00
					-7.020374390010349e-01 1.590298675627588e-01 0.000000000000000e+00
					-6.131924512008278e-01 1.459738940502070e-01 0.000000000000000e+00
					-6.888538452510349e-01 3.180597351255175e-01 0.000000000000000e+00
					-6.073330762008278e-01 2.919477881004140e-01 0.000000000000000e+00
					-6.131924512008278e-01 1.459738940502070e-01 0.000000000000000e+00
					-5.458466382004830e-01 1.346306048626208e-01 0.000000000000000e+00
					-6.073330762008278e-01 2.919477881004140e-01 0.000000000000000e+00
					-5.443817944504830e-01 2.692612097252415e-01 0.000000000000000e+00
					-5.458466382004830e-01 1.346306048626208e-01 0.000000000000000e+00
					-5.000000000000000e-01 1.250000000000000e-01 0.000000000000000e+00
					-5.443817944504830e-01 2.692612097252415e-01 0.000000000000000e+00
					-5.000000000000000e-01 2.500000000000000e-01 0.000000000000000e+00
					-1.375000000000000e+00 5.000000000000000e-01 0.000000000000000e+00
					-1.200631794450483e+00 4.567612097252415e-01 0.000000000000000e+00
					-1.218750000000000e+00 7.500000000000000e-01 0.000000000000000e+00
					-1.081002888200483e+00 6.851418145878622e-01 0.000000000000000e+00
					-1.200631794450483e+00 4.567612097252415e-01 0.000000000000000e+00
					-1.044833076200828e+00 4.169477881004139e-01 0.000000000000000e+00
					-1.081002888200483e+00 6.851418145878622e-01 0.000000000000000e+00
					-9.569424512008279e-01 6.254216821506209e-01 0.000000000000000e+00
					-1.044833076200828e+00 4.169477881004139e-01 0.000000000000000e+00
					-9.076038452510349e-01 3.805597351255174e-01 0.000000000000000e+00
					-9.569424512008279e-01 6.254216821506209e-01 0.000000000000000e+00
					-8.465686890010349e-01 5.708396026882763e-01 0.000000000000000e+00
					-9.076038452510349e-01 3.805597351255174e-01 0.000000000000000e+00
					-7.889441016011038e-01 3.475970508005520e-01 0.000000000000000e+00
					-8.465686890010349e-01 5.708396026882763e-01 0.000000000000000e+00
					-7.498816016011038e-01 5.213955762008280e-01 0.000000000000000e+00
					-7.889441016011038e-01 3.475970508005520e-01 0.000000000000000e+00
					-6.888538452510349e-01 3.180597351255175e-01 0.000000000000000e+00
					-7.498816016011038e-01 5.213955762008280e-01 0.000000000000000e+00
					-6.668811890010349e-01 4.770896026882762e-01 0.000000000000000e+00
					-6.888538452510349e-01 3.180597351255175e-01 0.000000000000000e+00
					-6.073330762008278e-01 2.919477881004140e-01 0.000000000000000e+00
					-6.668811890010349e-01 4.770896026882762e-01 0.000000000000000e+00
					-5.975674512008278e-01 4.379216821506209e-01 0.000000000000000e+00
					-6.073330762008278e-01 2.919477881004140e-01 0.000000000000000e+00
					-5.443817944504830e-01 2.692612097252415e-01 0.000000000000000e+00
					-5.975674512008278e-01 4.379216821506209e-01 0.000000000000000e+00
					-5.419403882004830e-01 4.038918145878622e-01 0.000000000000000e+00
					-5.443817944504830e-01 2.692612097252415e-01 0.000000000000000e+00
					-5.000000000000000e-01 2.500000000000000e-01 0.000000000000000e+00
					-5.419403882004830e-01 4.038918145878622e-01 0.000000000000000e+00
					-5.000000000000000e-01 3.750000000000000e-01 0.000000000000000e+00
					-1.218750000000000e+00 7.500000000000000e-01 0.000000000000000e+00
					-1.081002888200483e+00 6.851418145878622e-01 0.000000000000000e+00
					-1.000000000000000e+00 1.000000000000000e+00 0.000000000000000e+00
					-9.135224194504830e-01 9.135224194504830e-01 0.000000000000000e+00
					-1.081002888200483e+00 6.851418145878622e-01 0.000000000000000e+00
					-9.569424512008279e-01 6.254216821506209e-01 0.000000000000000e+00
					-9.135224194504830e-01 9.135224194504830e-01 0.000000000000000e+00
					-8.338955762008279e-01 8.338955762008279e-01 0.000000000000000e+00
					-9.569424512008279e-01 6.254216821506209e-01 0.000000000000000e+00
					-8.465686890010349e-01 5.708396026882763e-01 0.000000000000000e+00
					-8.338955762008279e-01 8.338955762008279e-01 0.000000000000000e+00
					-7.611194702510349e-01 7.611194702510349e-01 0.000000000000000e+00
					-8.465686890010349e-01 5.708396026882763e-01 0.000000000000000e+00
					-7.498816016011038e-01 5.213955762008280e-01 0.000000000000000e+00
					-7.611194702510349e-01 7.611194702510349e-01 0.000000000000000e+00
					-6.951941016011038e-01 6.951941016011038e-01 0.000000000000000e+00
					-7.498816016011038e-01 5.213955762008280e-01 0.000000000000000e+00
					-6.668811890010349e-01 4.770896026882762e-01 0.000000000000000e+00
					-6.951941016011038e-01 6.951941016011038e-01 0.000000000000000e+00
					-6.361194702510349e-01 6.361194702510349e-01 0.000000000000000e+00
					-6.668811890010349e-01 4.770896026882762e-01 0.000000000000000e+00
					-5.975674512008278e-01 4.379216821506209e-01 0.000000000000000e+00
					-6.361194702510349e-01 6.361194702510349e-01 0.000000000000000e+00
					-5.838955762008278e-01 5.838955762008278e-01 0.000000000000000e+00
					-5.975674512008278e-01 4.379216821506209e-01 0.000000000000000e+00
					-5.419403882004830e-01 4.038918145878622e-01 0.000000000000000e+00
					-5.838955762008278e-01 5.838955762008278e-01 0.000000000000000e+00
					-5.385224194504830e-01 5.385224194504830e-01 0.000000000000000e+00
					-5.419403882004830e-01 4.038918145878622e-01 0.000000000000000e+00
					-5.000000000000000e-01 3.750000000000000e-01 0.000000000000000e+00
					-5.385224194504830e-01 5.385224194504830e-01 0.000000000000000e+00
					-5.000000000000000e-01 5.000000000000000e-01 0.000000000000000e+00
				</DataArray>
			</Points>
			<Cells>
				<DataArray Name="connectivity" type="UInt32" format="ascii">
					0 1 3 2 4 5 7 6 8 9 11 10 12 13 15 14 16 17 19 18 20 21 23 22 24 25 27 26 28 29 31 30 32 33 35 34 36 37 39 38 40 41 43 42 44 45 47 46 48 49 51 50 52 53 55 54 56 57 59 58 60 61 63 62 64 65 67 66 68 69 71 70 72 73 75 74 76 77 79 78 80 81 83 82 84 85 87 86 88 89 91 90 92 93 95 94 96 97 99 98 100 101 103 102 104 105 107 106 108 109 111 110 112 113 115 114 116 117 119 118 120 121 123 122 124 125 127 126 128 129 131 130 132 133 135 134 136 137 139 138 140 141 143 142 144 145 147 146 148 149 151 150 152 153 155 154 156 157 159 158 160 161 163 162 164 165 167 166 168 169 171 170 172 173 175 174 176 177 179 178 180 181 183 182 184 185 187 186 188 189 191 190 192 193 195 194 196 197 199 198 200 201 203 202 204 205 207 206 208 209 211 210 212 213 215 214 216 217 219 218 220 221 223 222 224 225 227 226 228 229 231 230 232 233 235 234 236 237 239 238 240 241 243 242 244 245 247 246 248 249 251 250 252 253 255 254 
				</DataArray>
				<DataArray Name="offsets" type="UInt32" format="ascii">
					4 8 12 16 20 24 28 32 36 40 44 48 52 56 60 64 68 72 76 80 84 88 92 96 100 104 108 112 116 120 124 128 132 136 140 144 148 152 156 160 164 168 172 176 180 184 188 192 196 200 204 208 212 216 220 224 228 232 236 240 244 248 252 256 
				</DataArray>
				<DataArray Name="types" type="UInt8" format="ascii">
					9 9 9 9 9 9 9 9 9 9 9 9 9 9 9 9 9 9 9 9 9 9 9 9 9 9 9 9 9 9 9 9 9 9 9 9 9 9 9 9 9 9 9 9 9 9 9 9 9 9 9 9 9 9 9 9 9 9 9 9 9 9 9 9 
				</DataArray>
			</Cells>
			<PointData Vectors="solution ">
				<DataArray Name="solution" type="Float64" NumberOfComponents="1" format="ascii">
					0.000000000000000e+00 8.378720886295052e-04 0.000000000000000e+00 2.181271693235370e-03 8.378720886295052e-04 1.310944710327750e-02 2.181271693235370e-03 3.278293036409591e-02 1.310944710327750e-02 6.271864791353027e-02 3.278293036409591e-02 1.501149101817436e-01 6.271864791353027e-02 1.819930881059730e-01 1.501149101817436e-01 4.135137263745856e-01 1.819930881059731e-01 3.973093890716964e-01 4.135137263745857e-01 8.507752204624403e-01 3.973093890716966e-01 7.188235390554619e-01 8.507752204624406e-01 1.443165311906787e+00 7.188235390554620e-01 1.135584566013467e+00 1.443165311906788e+00 2.129760091562191e+00 1.135584566013467e+00 1.616582025914755e+00 2.129760091562191e+00 2.823926844252698e+00 0.000000000000000e+00 2.181271693235370e-03 0.000000000000000e+00 4.876181716030387e-03 2.181271693235370e-03 3.278293036409591e-02 4.876181716030387e-03 6.792286509310377e-02 3.278293036409592e-02 1.501149101817436e-01 6.792286509310379e-02 3.001389634025956e-01 1.501149101817436e-01 4.135137263745856e-01 3.001389634025957e-01 7.960916587005830e-01 4.135137263745857e-01 8.507752204624405e-01 7.960916587005831e-01 1.567822886545547e+00 8.507752204624406e-01 1.443165311906788e+00 1.567822886545548e+00 2.534335237659149e+00 1.443165311906788e+00 2.129760091562191e+00 2.534335237659149e+00 3.554535535216456e+00 2.129760091562191e+00 2.823926844252699e+00 3.554535535216456e+00 4.472230096311260e+00 0.000000000000000e+00 4.876181716030388e-03 0.000000000000000e+00 9.710972591237984e-03 4.876181716030388e-03 6.792286509310379e-02 9.710972591237984e-03 1.229436016327718e-01 6.792286509310380e-02 3.001389634025957e-01 1.229436016327718e-01 5.229941810892662e-01 3.001389634025957e-01 7.960916587005831e-01 5.229941810892663e-01 1.341088253436480e+00 7.960916587005833e-01 1.567822886545548e+00 1.341088253436481e+00 2.548123101506219e+00 1.567822886545548e+00 2.534335237659149e+00 2.548123101506220e+00 3.967024149726254e+00 2.534335237659150e+00 3.554535535216456e+00 3.967024149726254e+00 5.355843282992944e+00 3.554535535216456e+00 4.472230096311261e+00 5.355843282992944e+00 6.488313811484453e+00 0.000000000000000e+00 9.710972591237987e-03 0.000000000000000e+00 1.666800568945705e-02 9.710972591237987e-03 1.229436016327718e-01 1.666800568945705e-02 1.976438046610579e-01 1.229436016327718e-01 5.229941810892663e-01 1.976438046610579e-01 8.096079205904347e-01 5.229941810892664e-01 1.341088253436481e+00 8.096079205904348e-01 2.008605279354404e+00 1.341088253436481e+00 2.548123101506220e+00 2.008605279354404e+00 3.698732240031096e+00 2.548123101506221e+00 3.967024149726254e+00 3.698732240031097e+00 5.590004599396745e+00 3.967024149726255e+00 5.355843282992944e+00 5.590004599396748e+00 7.341504428055160e+00 5.355843282992945e+00 6.488313811484454e+00 7.341504428055161e+00 8.672053510557895e+00 0.000000000000000e+00 1.666800568945705e-02 0.000000000000000e+00 2.424545576590023e-02 1.666800568945705e-02 1.976438046610580e-01 2.424545576590024e-02 2.831023883216970e-01 1.976438046610580e-01 8.096079205904348e-01 2.831023883216970e-01 1.119536251365057e+00 8.096079205904351e-01 2.008605279354404e+00 1.119536251365057e+00 2.687647404716781e+00 2.008605279354405e+00 3.698732240031097e+00 2.687647404716782e+00 4.813732406289229e+00 3.698732240031098e+00 5.590004599396748e+00 4.813732406289230e+00 7.112901378620125e+00 5.590004599396748e+00 7.341504428055161e+00 7.112901378620125e+00 9.177095665429599e+00 7.341504428055163e+00 8.672053510557896e+00 9.177095665429601e+00 1.069741602489161e+01 0.000000000000000e+00 2.424545576590025e-02 0.000000000000000e+00 3.040977472906507e-02 2.424545576590025e-02 2.831023883216970e-01 3.040977472906508e-02 3.601346709062601e-01 2.831023883216971e-01 1.119536251365057e+00 3.601346709062601e-01 1.375338309854938e+00 1.119536251365058e+00 2.687647404716782e+00 1.375338309854939e+00 3.197383797340712e+00 2.687647404716783e+00 4.813732406289230e+00 3.197383797340712e+00 5.595248837014329e+00 4.813732406289231e+00 7.112901378620125e+00 5.595248837014331e+00 8.147527140860479e+00 7.112901378620127e+00 9.177095665429603e+00 8.147527140860481e+00 1.043604507152140e+01 9.177095665429603e+00 1.069741602489161e+01 1.043604507152140e+01 1.215675252465908e+01 0.000000000000000e+00 3.040977472906508e-02 0.000000000000000e+00 3.403831535066880e-02 3.040977472906508e-02 3.601346709062602e-01 3.403831535066880e-02 4.001692568982820e-01 3.601346709062602e-01 1.375338309854939e+00 4.001692568982820e-01 1.472556731196395e+00 1.375338309854939e+00 3.197383797340712e+00 1.472556731196396e+00 3.328421738863094e+00 3.197383797340713e+00 5.595248837014331e+00 3.328421738863095e+00 5.735862852884261e+00 5.595248837014331e+00 8.147527140860481e+00 5.735862852884262e+00 8.318817881719852e+00 8.147527140860483e+00 1.043604507152140e+01 8.318817881719852e+00 1.071425775672747e+01 1.043604507152140e+01 1.215675252465908e+01 1.071425775672747e+01 1.265593738765564e+01 0.000000000000000e+00 3.403831535066880e-02 0.000000000000000e+00 3.260045815065720e-02 3.403831535066880e-02 4.001692568982820e-01 3.260045815065720e-02 3.684436545314856e-01 4.001692568982821e-01 1.472556731196396e+00 3.684436545314856e-01 1.317017131335423e+00 1.472556731196396e+00 3.328421738863094e+00 1.317017131335423e+00 2.935901391653987e+00 3.328421738863095e+00 5.735862852884261e+00 2.935901391653988e+00 5.060270583163835e+00 5.735862852884262e+00 8.318817881719852e+00 5.060270583163835e+00 7.429148197506309e+00 8.318817881719854e+00 1.071425775672747e+01 7.429148197506311e+00 9.788711252305848e+00 1.071425775672747e+01 1.265593738765565e+01 9.788711252305850e+00 1.194495671878337e+01 
				</DataArray>
			</PointData>
			<CellData>
			</CellData>
		</Piece>
	</UnstructuredGrid>
</VTKFile>