<?xml version="1.0"?>
<VTKFile type="UnstructuredGrid" byte_order="LittleEndian">
	<UnstructuredGrid>
		<Piece NumberOfPoints="256" NumberOfCells="64">
			<Points>
				<DataArray type="Float64" NumberOfComponents="3" format="ascii">
					-1.000000000000000e+00 0.000000000000000e+00 0.000000000000000e+00
					-8.749999999794923e-01 0.000000000000000e+00 0.000000000000000e+00
					-1.000000000000000e+00 1.249999999876953e-01 0.000000000000000e+00
					-8.746549224648681e-01 1.249999999876954e-01 0.000000000000000e+00
					-8.749999999794923e-01 0.000000000000000e+00 0.000000000000000e+00
					-7.499999999671876e-01 0.000000000000000e+00 0.000000000000000e+00
					-8.746549224648681e-01 1.249999999876954e-01 0.000000000000000e+00
					-7.477008056314425e-01 1.249999999876954e-01 0.000000000000000e+00
					-7.499999999671876e-01 0.000000000000000e+00 0.000000000000000e+00
					-6.249999999619140e-01 0.000000000000000e+00 0.000000000000000e+00
					-7.477008056314425e-01 1.249999999876954e-01 0.000000000000000e+00
					-6.177593230826802e-01 1.249999999876954e-01 0.000000000000000e+00
					-6.249999999619140e-01 0.000000000000000e+00 0.000000000000000e+00
					-4.999999999624999e-01 0.000000000000000e+00 0.000000000000000e+00
					-6.177593230826802e-01 1.249999999876954e-01 0.000000000000000e+00
					-4.834521484015381e-01 1.249999999876954e-01 0.000000000000000e+00
					-4.999999999624999e-01 0.000000000000000e+00 0.000000000000000e+00
					-3.749999999677734e-01 0.000000000000000e+00 0.000000000000000e+00
					-4.834521484015381e-01 1.249999999876954e-01 0.000000000000000e+00
					-3.434009551709728e-01 1.249999999876954e-01 0.000000000000000e+00
					-3.749999999677734e-01 0.000000000000000e+00 0.000000000000000e+00
					-2.499999999765625e-01 0.000000000000000e+00 0.000000000000000e+00
					-3.434009551709728e-01 1.249999999876954e-01 0.000000000000000e+00
					-1.962274169739411e-01 1.249999999876953e-01 0.000000000000000e+00
					-2.499999999765625e-01 0.000000000000000e+00 0.000000000000000e+00
					-1.249999999876953e-01 0.000000000000000e+00 0.000000000000000e+00
					-1.962274169739411e-01 1.249999999876953e-01 0.000000000000000e+00
					-4.055320739339940e-02 1.249999999876953e-01 0.000000000000000e+00
					-1.249999999876953e-01 0.000000000000000e+00 0.000000000000000e+00
					0.000000000000000e+00 0.000000000000000e+00 0.000000000000000e+00
					-4.055320739339940e-02 1.249999999876953e-01 0.000000000000000e+00
					1.249999999876953e-01 1.249999999876953e-01 0.000000000000000e+00
					-1.000000000000000e+00 1.249999999876953e-01 0.000000000000000e+00
					-8.746549224648681e-01 1.249999999876954e-01 0.000000000000000e+00
					-1.000000000000000e+00 2.499999999765626e-01 0.000000000000000e+00
					-8.743963622842259e-01 2.499999999765626e-01 0.000000000000000e+00
					-8.746549224648681e-01 1.249999999876954e-01 0.000000000000000e+00
					-7.477008056314425e-01 1.249999999876954e-01 0.000000000000000e+00
					-8.743963622842259e-01 2.499999999765626e-01 0.000000000000000e+00
					-7.456982421550539e-01 2.499999999765626e-01 0.000000000000000e+00
					-7.477008056314425e-01 1.249999999876954e-01 0.000000000000000e+00
					-6.177593230826802e-01 1.249999999876954e-01 0.000000000000000e+00
					-7.456982421550539e-01 2.499999999765626e-01 0.000000000000000e+00
					-6.110748290647126e-01 2.499999999765626e-01 0.000000000000000e+00
					-6.177593230826802e-01 1.249999999876954e-01 0.000000000000000e+00
					-4.834521484015381e-01 1.249999999876954e-01 0.000000000000000e+00
					-6.110748290647126e-01 2.499999999765626e-01 0.000000000000000e+00
					-4.676953124654298e-01 2.499999999765626e-01 0.000000000000000e+00
					-4.834521484015381e-01 1.249999999876954e-01 0.000000000000000e+00
					-3.434009551709728e-01 1.249999999876954e-01 0.000000000000000e+00
					-4.676953124654298e-01 2.499999999765626e-01 0.000000000000000e+00
					-3.127288818094330e-01 2.499999999765626e-01 0.000000000000000e+00
					-3.434009551709728e-01 1.249999999876954e-01 0.000000000000000e+00
					-1.962274169739411e-01 1.249999999876953e-01 0.000000000000000e+00
					-3.127288818094330e-01 2.499999999765626e-01 0.000000000000000e+00
					-1.433447265489502e-01 2.499999999765625e-01 0.000000000000000e+00
					-1.962274169739411e-01 1.249999999876953e-01 0.000000000000000e+00
					-4.055320739339940e-02 1.249999999876953e-01 0.000000000000000e+00
					-1.433447265489502e-01 2.499999999765625e-01 0.000000000000000e+00
					4.328796386379095e-02 2.499999999765625e-01 0.000000000000000e+00
					-4.055320739339940e-02 1.249999999876953e-01 0.000000000000000e+00
					1.249999999876953e-01 1.249999999876953e-01 0.000000000000000e+00
					4.328796386379095e-02 2.499999999765625e-01 0.000000000000000e+00
					2.499999999765626e-01 2.499999999765626e-01 0.000000000000000e+00
					-1.000000000000000e+00 2.499999999765626e-01 0.000000000000000e+00
					-8.743963622842259e-01 2.499999999765626e-01 0.000000000000000e+00
					-1.000000000000000e+00 3.749999999677735e-01 0.000000000000000e+00
					-8.741954803262352e-01 3.749999999677737e-01 0.000000000000000e+00
					-8.743963622842259e-01 2.499999999765626e-01 0.000000000000000e+00
					-7.456982421550539e-01 2.499999999765626e-01 0.000000000000000e+00
					-8.741954803262352e-01 3.749999999677737e-01 0.000000000000000e+00
					-7.438934325848786e-01 3.749999999677737e-01 0.000000000000000e+00
					-7.456982421550539e-01 2.499999999765626e-01 0.000000000000000e+00
					-6.110748290647126e-01 2.499999999765626e-01 0.000000000000000e+00
					-7.438934325848786e-01 3.749999999677737e-01 0.000000000000000e+00
					-6.047611236208402e-01 3.749999999677737e-01 0.000000000000000e+00
					-6.110748290647126e-01 2.499999999765626e-01 0.000000000000000e+00
					-4.676953124654298e-01 2.499999999765626e-01 0.000000000000000e+00
					-6.047611236208402e-01 3.749999999677737e-01 0.000000000000000e+00
					-4.524658202790284e-01 3.749999999677737e-01 0.000000000000000e+00
					-4.676953124654298e-01 2.499999999765626e-01 0.000000000000000e+00
					-3.127288818094330e-01 2.499999999765626e-01 0.000000000000000e+00
					-4.524658202790284e-01 3.749999999677737e-01 0.000000000000000e+00
					-2.826747894043522e-01 3.749999999677737e-01 0.000000000000000e+00
					-3.127288818094330e-01 2.499999999765626e-01 0.000000000000000e+00
					-1.433447265489502e-01 2.499999999765625e-01 0.000000000000000e+00
					-2.826747894043522e-01 3.749999999677737e-01 0.000000000000000e+00
					-9.105529784172059e-02 3.749999999677735e-01 0.000000000000000e+00
					-1.433447265489502e-01 2.499999999765625e-01 0.000000000000000e+00
					4.328796386379095e-02 2.499999999765625e-01 0.000000000000000e+00
					-9.105529784172059e-02 3.749999999677735e-01 0.000000000000000e+00
					1.267253875639577e-01 3.749999999677735e-01 0.000000000000000e+00
					4.328796386379095e-02 2.499999999765625e-01 0.000000000000000e+00
					2.499999999765626e-01 2.499999999765626e-01 0.000000000000000e+00
					1.267253875639577e-01 3.749999999677735e-01 0.000000000000000e+00
					3.749999999677735e-01 3.749999999677735e-01 0.000000000000000e+00
					-1.000000000000000e+00 3.749999999677735e-01 0.000000000000000e+00
					-8.741954803262352e-01 3.749999999677737e-01 0.000000000000000e+00
					-1.000000000000000e+00 4.999999999625001e-01 0.000000000000000e+00
					-8.740234374795657e-01 4.999999999625002e-01 0.000000000000000e+00
					-8.741954803262352e-01 3.749999999677737e-01 0.000000000000000e+00
					-7.438934325848786e-01 3.749999999677737e-01 0.000000000000000e+00
					-8.740234374795657e-01 4.999999999625002e-01 0.000000000000000e+00
					-7.421874999677736e-01 4.999999999625003e-01 0.000000000000000e+00
					-7.438934325848786e-01 3.749999999677737e-01 0.000000000000000e+00
					-6.047611236208402e-01 3.749999999677737e-01 0.000000000000000e+00
					-7.421874999677736e-01 4.999999999625003e-01 0.000000000000000e+00
					-5.986328124638917e-01 4.999999999625002e-01 0.000000000000000e+00
					-6.047611236208402e-01 3.749999999677737e-01 0.000000000000000e+00
					-4.524658202790284e-01 3.749999999677737e-01 0.000000000000000e+00
					-5.986328124638917e-01 4.999999999625002e-01 0.000000000000000e+00
					-4.374999999671876e-01 4.999999999625002e-01 0.000000000000000e+00
					-4.524658202790284e-01 3.749999999677737e-01 0.000000000000000e+00
					-2.826747894043522e-01 3.749999999677737e-01 0.000000000000000e+00
					-4.374999999671876e-01 4.999999999625002e-01 0.000000000000000e+00
					-2.529296874769287e-01 4.999999999625002e-01 0.000000000000000e+00
					-2.826747894043522e-01 3.749999999677737e-01 0.000000000000000e+00
					-9.105529784172059e-02 3.749999999677735e-01 0.000000000000000e+00
					-2.529296874769287e-01 4.999999999625002e-01 0.000000000000000e+00
					-3.906249999238282e-02 4.999999999625001e-01 0.000000000000000e+00
					-9.105529784172059e-02 3.749999999677735e-01 0.000000000000000e+00
					1.267253875639577e-01 3.749999999677735e-01 0.000000000000000e+00
					-3.906249999238282e-02 4.999999999625001e-01 0.000000000000000e+00
					2.099609374871827e-01 4.999999999625001e-01 0.000000000000000e+00
					1.267253875639577e-01 3.749999999677735e-01 0.000000000000000e+00
					3.749999999677735e-01 3.749999999677735e-01 0.000000000000000e+00
					2.099609374871827e-01 4.999999999625001e-01 0.000000000000000e+00
					4.999999999625001e-01 4.999999999625001e-01 0.000000000000000e+00
					-1.000000000000000e+00 4.999999999625001e-01 0.000000000000000e+00
					-8.740234374795657e-01 4.999999999625002e-01 0.000000000000000e+00
					-1.000000000000000e+00 6.249999999619140e-01 0.000000000000000e+00
					-8.738513946328870e-01 6.249999999619144e-01 0.000000000000000e+00
					-8.740234374795657e-01 4.999999999625002e-01 0.000000000000000e+00
					-7.421874999677736e-01 4.999999999625003e-01 0.000000000000000e+00
					-8.738513946328870e-01 6.249999999619144e-01 0.000000000000000e+00
					-7.404815673505951e-01 6.249999999619145e-01 0.000000000000000e+00
					-7.421874999677736e-01 4.999999999625003e-01 0.000000000000000e+00
					-5.986328124638917e-01 4.999999999625002e-01 0.000000000000000e+00
					-7.404815673505951e-01 6.249999999619145e-01 0.000000000000000e+00
					-5.925045013066960e-01 6.249999999619145e-01 0.000000000000000e+00
					-5.986328124638917e-01 4.999999999625002e-01 0.000000000000000e+00
					-4.374999999671876e-01 4.999999999625002e-01 0.000000000000000e+00
					-5.925045013066960e-01 6.249999999619145e-01 0.000000000000000e+00
					-4.225341796547608e-01 6.249999999619142e-01 0.000000000000000e+00
					-4.374999999671876e-01 4.999999999625002e-01 0.000000000000000e+00
					-2.529296874769287e-01 4.999999999625002e-01 0.000000000000000e+00
					-4.225341796547608e-01 6.249999999619142e-01 0.000000000000000e+00
					-2.231845855483608e-01 6.249999999619141e-01 0.000000000000000e+00
					-2.529296874769287e-01 4.999999999625002e-01 0.000000000000000e+00
					-3.906249999238282e-02 4.999999999625001e-01 0.000000000000000e+00
					-2.231845855483608e-01 6.249999999619141e-01 0.000000000000000e+00
					1.293029785893249e-02 6.249999999619140e-01 0.000000000000000e+00
					-3.906249999238282e-02 4.999999999625001e-01 0.000000000000000e+00
					2.099609374871827e-01 4.999999999625001e-01 0.000000000000000e+00
					1.293029785893249e-02 6.249999999619140e-01 0.000000000000000e+00
					2.931964874135479e-01 6.249999999619140e-01 0.000000000000000e+00
					2.099609374871827e-01 4.999999999625001e-01 0.000000000000000e+00
					4.999999999625001e-01 4.999999999625001e-01 0.000000000000000e+00
					2.931964874135479e-01 6.249999999619140e-01 0.000000000000000e+00
					6.249999999619140e-01 6.249999999619140e-01 0.000000000000000e+00
					-1.000000000000000e+00 6.249999999619140e-01 0.000000000000000e+00
					-8.738513946328870e-01 6.249999999619144e-01 0.000000000000000e+00
					-1.000000000000000e+00 7.499999999671875e-01 0.000000000000000e+00
					-8.736505126748688e-01 7.499999999671876e-01 0.000000000000000e+00
					-8.738513946328870e-01 6.249999999619144e-01 0.000000000000000e+00
					-7.404815673505951e-01 6.249999999619145e-01 0.000000000000000e+00
					-8.736505126748688e-01 7.499999999671876e-01 0.000000000000000e+00
					-7.386767577802003e-01 7.499999999671877e-01 0.000000000000000e+00
					-7.404815673505951e-01 6.249999999619145e-01 0.000000000000000e+00
					-5.925045013066960e-01 6.249999999619145e-01 0.000000000000000e+00
					-7.386767577802003e-01 7.499999999671877e-01 0.000000000000000e+00
					-5.861907958620819e-01 7.499999999671877e-01 0.000000000000000e+00
					-5.925045013066960e-01 6.249999999619145e-01 0.000000000000000e+00
					-4.225341796547608e-01 6.249999999619142e-01 0.000000000000000e+00
					-5.861907958620819e-01 7.499999999671877e-01 0.000000000000000e+00
					-4.073046874666015e-01 7.499999999671876e-01 0.000000000000000e+00
					-4.225341796547608e-01 6.249999999619142e-01 0.000000000000000e+00
					-2.231845855483608e-01 6.249999999619141e-01 0.000000000000000e+00
					-4.073046874666015e-01 7.499999999671876e-01 0.000000000000000e+00
					-1.931304931398468e-01 7.499999999671876e-01 0.000000000000000e+00
					-2.231845855483608e-01 6.249999999619141e-01 0.000000000000000e+00
					1.293029785893249e-02 6.249999999619140e-01 0.000000000000000e+00
					-1.931304931398468e-01 7.499999999671876e-01 0.000000000000000e+00
					6.521972657209472e-02 7.499999999671874e-01 0.000000000000000e+00
					1.293029785893249e-02 6.249999999619140e-01 0.000000000000000e+00
					2.931964874135479e-01 6.249999999619140e-01 0.000000000000000e+00
					6.521972657209472e-02 7.499999999671874e-01 0.000000000000000e+00
					3.766339111231354e-01 7.499999999671874e-01 0.000000000000000e+00
					2.931964874135479e-01 6.249999999619140e-01 0.000000000000000e+00
					6.249999999619140e-01 6.249999999619140e-01 0.000000000000000e+00
					3.766339111231354e-01 7.499999999671874e-01 0.000000000000000e+00
					7.499999999671875e-01 7.499999999671875e-01 0.000000000000000e+00
					-1.000000000000000e+00 7.499999999671875e-01 0.000000000000000e+00
					-8.736505126748688e-01 7.499999999671876e-01 0.000000000000000e+00
					-1.000000000000000e+00 8.749999999794922e-01 0.000000000000000e+00
					-8.733919524941807e-01 8.749999999794923e-01 0.000000000000000e+00
					-8.736505126748688e-01 7.499999999671876e-01 0.000000000000000e+00
					-7.386767577802003e-01 7.499999999671877e-01 0.000000000000000e+00
					-8.733919524941807e-01 8.749999999794923e-01 0.000000000000000e+00
					-7.366741943034455e-01 8.749999999794923e-01 0.000000000000000e+00
					-7.386767577802003e-01 7.499999999671877e-01 0.000000000000000e+00
					-5.861907958620819e-01 7.499999999671877e-01 0.000000000000000e+00
					-7.366741943034455e-01 8.749999999794923e-01 0.000000000000000e+00
					-5.795063018428783e-01 8.749999999794923e-01 0.000000000000000e+00
					-5.861907958620819e-01 7.499999999671877e-01 0.000000000000000e+00
					-4.073046874666015e-01 7.499999999671876e-01 0.000000000000000e+00
					-5.795063018428783e-01 8.749999999794923e-01 0.000000000000000e+00
					-3.915478515275634e-01 8.749999999794922e-01 0.000000000000000e+00
					-4.073046874666015e-01 7.499999999671876e-01 0.000000000000000e+00
					-1.931304931398468e-01 7.499999999671876e-01 0.000000000000000e+00
					-3.915478515275634e-01 8.749999999794922e-01 0.000000000000000e+00
					-1.624584197725849e-01 8.749999999794922e-01 0.000000000000000e+00
					-1.931304931398468e-01 7.499999999671876e-01 0.000000000000000e+00
					6.521972657209472e-02 7.499999999671874e-01 0.000000000000000e+00
					-1.624584197725849e-01 8.749999999794922e-01 0.000000000000000e+00
					1.181024170069733e-01 8.749999999794922e-01 0.000000000000000e+00
					6.521972657209472e-02 7.499999999671874e-01 0.000000000000000e+00
					3.766339111231354e-01 7.499999999671874e-01 0.000000000000000e+00
					1.181024170069733e-01 8.749999999794922e-01 0.000000000000000e+00
					4.604750823960270e-01 8.749999999794922e-01 0.000000000000000e+00
					3.766339111231354e-01 7.499999999671874e-01 0.000000000000000e+00
					7.499999999671875e-01 7.499999999671875e-01 0.000000000000000e+00
					4.604750823960270e-01 8.749999999794922e-01 0.000000000000000e+00
					8.749999999794922e-01 8.749999999794922e-01 0.000000000000000e+00
					-1.000000000000000e+00 8.749999999794922e-01 0.000000000000000e+00
					-8.733919524941807e-01 8.749999999794923e-01 0.000000000000000e+00
					-1.000000000000000e+00 1.000000000000000e+00 0.000000000000000e+00
					-8.730468749794923e-01 1.000000000000000e+00 0.000000000000000e+00
					-8.733919524941807e-01 8.749999999794923e-01 0.000000000000000e+00
					-7.366741943034455e-01 8.749999999794923e-01 0.000000000000000e+00
					-8.730468749794923e-01 1.000000000000000e+00 0.000000000000000e+00
					-7.343749999671876e-01 1.000000000000000e+00 0.000000000000000e+00
					-7.366741943034455e-01 8.749999999794923e-01 0.000000000000000e+00
					-5.795063018428783e-01 8.749999999794923e-01 0.000000000000000e+00
					-7.343749999671876e-01 1.000000000000000e+00 0.000000000000000e+00
					-5.722656249619140e-01 1.000000000000000e+00 0.000000000000000e+00
					-5.795063018428783e-01 8.749999999794923e-01 0.000000000000000e+00
					-3.915478515275634e-01 8.749999999794922e-01 0.000000000000000e+00
					-5.722656249619140e-01 1.000000000000000e+00 0.000000000000000e+00
					-3.749999999625000e-01 1.000000000000000e+00 0.000000000000000e+00
					-3.915478515275634e-01 8.749999999794922e-01 0.000000000000000e+00
					-1.624584197725849e-01 8.749999999794922e-01 0.000000000000000e+00
					-3.749999999625000e-01 1.000000000000000e+00 0.000000000000000e+00
					-1.308593749677734e-01 1.000000000000000e+00 0.000000000000000e+00
					-1.624584197725849e-01 8.749999999794922e-01 0.000000000000000e+00
					1.181024170069733e-01 8.749999999794922e-01 0.000000000000000e+00
					-1.308593749677734e-01 1.000000000000000e+00 0.000000000000000e+00
					1.718750000234375e-01 1.000000000000000e+00 0.000000000000000e+00
					1.181024170069733e-01 8.749999999794922e-01 0.000000000000000e+00
					4.604750823960270e-01 8.749999999794922e-01 0.000000000000000e+00
					1.718750000234375e-01 1.000000000000000e+00 0.000000000000000e+00
					5.449218750123046e-01 1.000000000000000e+00 0.000000000000000e+00
					4.604750823960270e-01 8.749999999794922e-01 0.000000000000000e+00
					8.749999999794922e-01 8.749999999794922e-01 0.000000000000000e+00
					5.449218750123046e-01 1.000000000000000e+00 0.000000000000000e+00
					1.000000000000000e+00 1.000000000000000e+00 0.000000000000000e+00
				</DataArray>
			</Points>
			<Cells>
				<DataArray Name="connectivity" type="UInt32" format="ascii">
					0 1 3 2 4 5 7 6 8 9 11 10 12 13 15 14 16 17 19 18 20 21 23 22 24 25 27 26 28 29 31 30 32 33 35 34 36 37 39 38 40 41 43 42 44 45 47 46 48 49 51 50 52 53 55 54 56 57 59 58 60 61 63 62 64 65 67 66 68 69 71 70 72 73 75 74 76 77 79 78 80 81 83 82 84 85 87 86 88 89 91 90 92 93 95 94 96 97 99 98 100 101 103 102 104 105 107 106 108 109 111 110 112 113 115 114 116 117 119 118 120 121 123 122 124 125 127 126 128 129 131 130 132 133 135 134 136 137 139 138 140 141 143 142 144 145 147 146 148 149 151 150 152 153 155 154 156 157 159 158 160 161 163 162 164 165 167 166 168 169 171 170 172 173 175 174 176 177 179 178 180 181 183 182 184 185 187 186 188 189 191 190 192 193 195 194 196 197 199 198 200 201 203 202 204 205 207 206 208 209 211 210 212 213 215 214 216 217 219 218 220 221 223 222 224 225 227 226 228 229 231 230 232 233 235 234 236 237 239 238 240 241 243 242 244 245 247 246 248 249 251 250 252 253 255 254 
				</DataArray>
				<DataArray Name="offsets" type="UInt32" format="ascii">
					4 8 12 16 20 24 28 32 36 40 44 48 52 56 60 64 68 72 76 80 84 88 92 96 100 104 108 112 116 120 124 128 132 136 140 144 148 152 156 160 164 168 172 176 180 184 188 192 196 200 204 208 212 216 220 224 228 232 236 240 244 248 252 256 
				</DataArray>
				<DataArray Name="types" type="UInt8" format="ascii">
					9 9 9 9 9 9 9 9 9 9 9 9 9 9 9 9 9 9 9 9 9 9 9 9 9 9 9 9 9 9 9 9 9 9 9 9 9 9 9 9 9 9 9 9 9 9 9 9 9 9 9 9 9 9 9 9 9 9 9 9 9 9 9 9 
				</DataArray>
			</Cells>
			<PointData Vectors="solution ">
				<DataArray Name="solution" type="Float64" NumberOfComponents="1" format="ascii">
					0.000000000000000e+00 0.000000000000000e+00 0.000000000000000e+00 6.395585428534810e-03 0.000000000000000e+00 0.000000000000000e+00 6.395585428534810e-03 1.645754339883963e-02 0.000000000000000e+00 0.000000000000000e+00 1.645754339883963e-02 2.209433275624292e-02 0.000000000000000e+00 0.000000000000000e+00 2.209433275624292e-02 2.077842850339233e-02 0.000000000000000e+00 0.000000000000000e+00 2.077842850339233e-02 1.389132433967139e-02 0.000000000000000e+00 0.000000000000000e+00 1.389132433967139e-02 5.389144565964129e-03 0.000000000000000e+00 0.000000000000000e+00 5.389144565964129e-03 2.528651526594100e-04 0.000000000000000e+00 0.000000000000000e+00 2.528651526594100e-04 2.277153472792007e-03 0.000000000000000e+00 6.395585428534810e-03 0.000000000000000e+00 2.327924633755175e-02 6.395585428534810e-03 1.645754339883963e-02 2.327924633755175e-02 6.019857116354514e-02 1.645754339883963e-02 2.209433275624292e-02 6.019857116354514e-02 8.053297087553372e-02 2.209433275624292e-02 2.077842850339233e-02 8.053297087553372e-02 7.333927054282230e-02 2.077842850339233e-02 1.389132433967139e-02 7.333927054282230e-02 4.372711703324354e-02 1.389132433967139e-02 5.389144565964129e-03 4.372711703324354e-02 1.082715222996471e-02 5.389144565964129e-03 2.528651526594100e-04 1.082715222996471e-02 1.020192173973358e-03 2.528651526594100e-04 2.277153472792007e-03 1.020192173973358e-03 3.017636926299853e-02 0.000000000000000e+00 2.327924633755175e-02 0.000000000000000e+00 4.412306364037660e-02 2.327924633755175e-02 6.019857116354514e-02 4.412306364037660e-02 1.146382826934336e-01 6.019857116354514e-02 8.053297087553372e-02 1.146382826934336e-01 1.528039925117188e-01 8.053297087553372e-02 7.333927054282230e-02 1.528039925117188e-01 1.344715986919665e-01 7.333927054282230e-02 4.372711703324354e-02 1.344715986919665e-01 7.025117355657384e-02 4.372711703324354e-02 1.082715222996471e-02 7.025117355657384e-02 8.464293847523896e-03 1.082715222996471e-02 1.020192173973358e-03 8.464293847523896e-03 1.612020397698134e-02 1.020192173973358e-03 3.017636926299853e-02 1.612020397698134e-02 1.078689850990724e-01 0.000000000000000e+00 4.412306364037660e-02 0.000000000000000e+00 5.987328949284881e-02 4.412306364037660e-02 1.146382826934336e-01 5.987328949284881e-02 1.562735211522770e-01 1.146382826934336e-01 1.528039925117188e-01 1.562735211522770e-01 2.074742859238994e-01 1.528039925117188e-01 1.344715986919665e-01 2.074742859238994e-01 1.759862611831881e-01 1.344715986919665e-01 7.025117355657384e-02 1.759862611831881e-01 7.881766939730958e-02 7.025117355657384e-02 8.464293847523896e-03 7.881766939730958e-02 2.123956456073626e-03 8.464293847523896e-03 1.612020397698134e-02 2.123956456073626e-03 5.655584186154894e-02 1.612020397698134e-02 1.078689850990724e-01 5.655584186154894e-02 1.974053662276029e-01 0.000000000000000e+00 5.987328949284881e-02 0.000000000000000e+00 6.189154211813382e-02 5.987328949284881e-02 1.562735211522770e-01 6.189154211813382e-02 1.622669049521851e-01 1.562735211522770e-01 2.074742859238994e-01 1.622669049521851e-01 2.144470674014743e-01 2.074742859238994e-01 1.759862611831881e-01 2.144470674014743e-01 1.747568002421367e-01 1.759862611831881e-01 7.881766939730958e-02 1.747568002421367e-01 6.523023234433657e-02 7.881766939730958e-02 2.123956456073626e-03 6.523023234433657e-02 2.066206586677942e-04 2.123956456073626e-03 5.655584186154894e-02 2.066206586677942e-04 1.039881873004760e-01 5.655584186154894e-02 1.974053662276029e-01 1.039881873004760e-01 2.098378856641149e-01 0.000000000000000e+00 6.189154211813382e-02 0.000000000000000e+00 4.605396968767180e-02 6.189154211813382e-02 1.622669049521851e-01 4.605396968767180e-02 1.212766149758068e-01 1.622669049521851e-01 2.144470674014743e-01 1.212766149758068e-01 1.593930780291544e-01 2.144470674014743e-01 1.747568002421367e-01 1.593930780291544e-01 1.242695183860115e-01 1.747568002421367e-01 6.523023234433657e-02 1.242695183860115e-01 3.721326933644595e-02 6.523023234433657e-02 2.066206586677942e-04 3.721326933644595e-02 4.504043415868728e-03 2.066206586677942e-04 1.039881873004760e-01 4.504043415868728e-03 1.123426363239996e-01 1.039881873004760e-01 2.098378856641149e-01 1.123426363239996e-01 1.148728360799869e-01 0.000000000000000e+00 4.605396968767180e-02 0.000000000000000e+00 1.804785893552535e-02 4.605396968767180e-02 1.212766149758068e-01 1.804785893552535e-02 4.773185919861352e-02 1.212766149758068e-01 1.593930780291544e-01 4.773185919861352e-02 6.230478517844195e-02 1.593930780291544e-01 1.242695183860115e-01 6.230478517844195e-02 4.622502895896681e-02 1.242695183860115e-01 3.721326933644595e-02 4.622502895896681e-02 1.052149099946337e-02 3.721326933644595e-02 4.504043415868728e-03 1.052149099946337e-02 5.727869932674459e-03 4.504043415868728e-03 1.123426363239996e-01 5.727869932674459e-03 5.562010695817183e-02 1.123426363239996e-01 1.148728360799869e-01 5.562010695817183e-02 1.945520286008783e-02 0.000000000000000e+00 1.804785893552535e-02 0.000000000000000e+00 0.000000000000000e+00 1.804785893552535e-02 4.773185919861352e-02 0.000000000000000e+00 0.000000000000000e+00 4.773185919861352e-02 6.230478517844195e-02 0.000000000000000e+00 0.000000000000000e+00 6.230478517844195e-02 4.622502895896681e-02 0.000000000000000e+00 0.000000000000000e+00 4.622502895896681e-02 1.052149099946337e-02 0.000000000000000e+00 0.000000000000000e+00 1.052149099946337e-02 5.727869932674459e-03 0.000000000000000e+00 0.000000000000000e+00 5.727869932674459e-03 5.562010695817183e-02 0.000000000000000e+00 0.000000000000000e+00 5.562010695817183e-02 1.945520286008783e-02 0.000000000000000e+00 0.000000000000000e+00 
				</DataArray>
			</PointData>
			<CellData>
			</CellData>
		</Piece>
	</UnstructuredGrid>
</VTKFile>