<?xml version="1.0"?>
<VTKFile type="UnstructuredGrid" byte_order="LittleEndian">
	<UnstructuredGrid>
		<Piece NumberOfPoints="16" NumberOfCells="4">
			<Points>
				<DataArray type="Float64" NumberOfComponents="3" format="ascii">
					-1.000000000000000e+00 0.000000000000000e+00 0.000000000000000e+00
					-4.999999999625000e-01 0.000000000000000e+00 0.000000000000000e+00
					-1.000000000000000e+00 4.999999999625000e-01 0.000000000000000e+00
					-4.374999999671875e-01 4.999999999625000e-01 0.000000000000000e+00
					-4.999999999625000e-01 0.000000000000000e+00 0.000000000000000e+00
					0.000000000000000e+00 0.000000000000000e+00 0.000000000000000e+00
					-4.374999999671875e-01 4.999999999625000e-01 0.000000000000000e+00
					4.999999999625000e-01 4.999999999625000e-01 0.000000000000000e+00
					-1.000000000000000e+00 4.999999999625000e-01 0.000000000000000e+00
					-4.374999999671875e-01 4.999999999625000e-01 0.000000000000000e+00
					-1.000000000000000e+00 1.000000000000000e+00 0.000000000000000e+00
					-3.749999999625000e-01 1.000000000000000e+00 0.000000000000000e+00
					-4.374999999671875e-01 4.999999999625000e-01 0.000000000000000e+00
					4.999999999625000e-01 4.999999999625000e-01 0.000000000000000e+00
					-3.749999999625000e-01 1.000000000000000e+00 0.000000000000000e+00
					1.000000000000000e+00 1.000000000000000e+00 0.000000000000000e+00
				</DataArray>
			</Points>
			<Cells>
				<DataArray Name="connectivity" type="UInt32" format="ascii">
					0 1 3 2 4 5 7 6 8 9 11 10 12 13 15 14 
				</DataArray>
				<DataArray Name="offsets" type="UInt32" format="ascii">
					4 8 12 16 
				</DataArray>
				<DataArray Name="types" type="UInt8" format="ascii">
					9 9 9 9 
				</DataArray>
			</Cells>
			<PointData Vectors="solution ">
				<DataArray Name="solution" type="Float64" NumberOfComponents="1" format="ascii">
					0.000000000000000e+00 0.000000000000000e+00 0.000000000000000e+00 1.761798213226517e-01 0.000000000000000e+00 0.000000000000000e+00 1.761798213226517e-01 5.074797119597170e-06 0.000000000000000e+00 1.761798213226517e-01 0.000000000000000e+00 0.000000000000000e+00 1.761798213226517e-01 5.074797119597170e-06 0.000000000000000e+00 0.000000000000000e+00 
				</DataArray>
			</PointData>
			<CellData>
			</CellData>
		</Piece>
	</UnstructuredGrid>
</VTKFile>