<?xml version="1.0"?>
<VTKFile type="UnstructuredGrid" byte_order="LittleEndian">
	<UnstructuredGrid>
		<Piece NumberOfPoints="256" NumberOfCells="64">
			<Points>
				<DataArray type="Float64" NumberOfComponents="3" format="ascii">
					-1.000000000000000e+00 0.000000000000000e+00 0.000000000000000e+00
					-8.749999999794923e-01 0.000000000000000e+00 0.000000000000000e+00
					-1.000000000000000e+00 1.249999999876953e-01 0.000000000000000e+00
					-8.746549224648681e-01 1.249999999876954e-01 0.000000000000000e+00
					-8.749999999794923e-01 0.000000000000000e+00 0.000000000000000e+00
					-7.499999999671876e-01 0.000000000000000e+00 0.000000000000000e+00
					-8.746549224648681e-01 1.249999999876954e-01 0.000000000000000e+00
					-7.477008056314425e-01 1.249999999876954e-01 0.000000000000000e+00
					-7.499999999671876e-01 0.000000000000000e+00 0.000000000000000e+00
					-6.249999999619140e-01 0.000000000000000e+00 0.000000000000000e+00
					-7.477008056314425e-01 1.249999999876954e-01 0.000000000000000e+00
					-6.177593230826802e-01 1.249999999876954e-01 0.000000000000000e+00
					-6.249999999619140e-01 0.000000000000000e+00 0.000000000000000e+00
					-4.999999999624999e-01 0.000000000000000e+00 0.000000000000000e+00
					-6.177593230826802e-01 1.249999999876954e-01 0.000000000000000e+00
					-4.834521484015381e-01 1.249999999876954e-01 0.000000000000000e+00
					-4.999999999624999e-01 0.000000000000000e+00 0.000000000000000e+00
					-3.749999999677734e-01 0.000000000000000e+00 0.000000000000000e+00
					-4.834521484015381e-01 1.249999999876954e-01 0.000000000000000e+00
					-3.434009551709728e-01 1.249999999876954e-01 0.000000000000000e+00
					-3.749999999677734e-01 0.000000000000000e+00 0.000000000000000e+00
					-2.499999999765625e-01 0.000000000000000e+00 0.000000000000000e+00
					-3.434009551709728e-01 1.249999999876954e-01 0.000000000000000e+00
					-1.962274169739411e-01 1.249999999876953e-01 0.000000000000000e+00
					-2.499999999765625e-01 0.000000000000000e+00 0.000000000000000e+00
					-1.249999999876953e-01 0.000000000000000e+00 0.000000000000000e+00
					-1.962274169739411e-01 1.249999999876953e-01 0.000000000000000e+00
					-4.055320739339940e-02 1.249999999876953e-01 0.000000000000000e+00
					-1.249999999876953e-01 0.000000000000000e+00 0.000000000000000e+00
					0.000000000000000e+00 0.000000000000000e+00 0.000000000000000e+00
					-4.055320739339940e-02 1.249999999876953e-01 0.000000000000000e+00
					1.249999999876953e-01 1.249999999876953e-01 0.000000000000000e+00
					-1.000000000000000e+00 1.249999999876953e-01 0.000000000000000e+00
					-8.746549224648681e-01 1.249999999876954e-01 0.000000000000000e+00
					-1.000000000000000e+00 2.499999999765626e-01 0.000000000000000e+00
					-8.743963622842259e-01 2.499999999765626e-01 0.000000000000000e+00
					-8.746549224648681e-01 1.249999999876954e-01 0.000000000000000e+00
					-7.477008056314425e-01 1.249999999876954e-01 0.000000000000000e+00
					-8.743963622842259e-01 2.499999999765626e-01 0.000000000000000e+00
					-7.456982421550539e-01 2.499999999765626e-01 0.000000000000000e+00
					-7.477008056314425e-01 1.249999999876954e-01 0.000000000000000e+00
					-6.177593230826802e-01 1.249999999876954e-01 0.000000000000000e+00
					-7.456982421550539e-01 2.499999999765626e-01 0.000000000000000e+00
					-6.110748290647126e-01 2.499999999765626e-01 0.000000000000000e+00
					-6.177593230826802e-01 1.249999999876954e-01 0.000000000000000e+00
					-4.834521484015381e-01 1.249999999876954e-01 0.000000000000000e+00
					-6.110748290647126e-01 2.499999999765626e-01 0.000000000000000e+00
					-4.676953124654298e-01 2.499999999765626e-01 0.000000000000000e+00
					-4.834521484015381e-01 1.249999999876954e-01 0.000000000000000e+00
					-3.434009551709728e-01 1.249999999876954e-01 0.000000000000000e+00
					-4.676953124654298e-01 2.499999999765626e-01 0.000000000000000e+00
					-3.127288818094330e-01 2.499999999765626e-01 0.000000000000000e+00
					-3.434009551709728e-01 1.249999999876954e-01 0.000000000000000e+00
					-1.962274169739411e-01 1.249999999876953e-01 0.000000000000000e+00
					-3.127288818094330e-01 2.499999999765626e-01 0.000000000000000e+00
					-1.433447265489502e-01 2.499999999765625e-01 0.000000000000000e+00
					-1.962274169739411e-01 1.249999999876953e-01 0.000000000000000e+00
					-4.055320739339940e-02 1.249999999876953e-01 0.000000000000000e+00
					-1.433447265489502e-01 2.499999999765625e-01 0.000000000000000e+00
					4.328796386379095e-02 2.499999999765625e-01 0.000000000000000e+00
					-4.055320739339940e-02 1.249999999876953e-01 0.000000000000000e+00
					1.249999999876953e-01 1.249999999876953e-01 0.000000000000000e+00
					4.328796386379095e-02 2.499999999765625e-01 0.000000000000000e+00
					2.499999999765626e-01 2.499999999765626e-01 0.000000000000000e+00
					-1.000000000000000e+00 2.499999999765626e-01 0.000000000000000e+00
					-8.743963622842259e-01 2.499999999765626e-01 0.000000000000000e+00
					-1.000000000000000e+00 3.749999999677735e-01 0.000000000000000e+00
					-8.741954803262352e-01 3.749999999677737e-01 0.000000000000000e+00
					-8.743963622842259e-01 2.499999999765626e-01 0.000000000000000e+00
					-7.456982421550539e-01 2.499999999765626e-01 0.000000000000000e+00
					-8.741954803262352e-01 3.749999999677737e-01 0.000000000000000e+00
					-7.438934325848786e-01 3.749999999677737e-01 0.000000000000000e+00
					-7.456982421550539e-01 2.499999999765626e-01 0.000000000000000e+00
					-6.110748290647126e-01 2.499999999765626e-01 0.000000000000000e+00
					-7.438934325848786e-01 3.749999999677737e-01 0.000000000000000e+00
					-6.047611236208402e-01 3.749999999677737e-01 0.000000000000000e+00
					-6.110748290647126e-01 2.499999999765626e-01 0.000000000000000e+00
					-4.676953124654298e-01 2.499999999765626e-01 0.000000000000000e+00
					-6.047611236208402e-01 3.749999999677737e-01 0.000000000000000e+00
					-4.524658202790284e-01 3.749999999677737e-01 0.000000000000000e+00
					-4.676953124654298e-01 2.499999999765626e-01 0.000000000000000e+00
					-3.127288818094330e-01 2.499999999765626e-01 0.000000000000000e+00
					-4.524658202790284e-01 3.749999999677737e-01 0.000000000000000e+00
					-2.826747894043522e-01 3.749999999677737e-01 0.000000000000000e+00
					-3.127288818094330e-01 2.499999999765626e-01 0.000000000000000e+00
					-1.433447265489502e-01 2.499999999765625e-01 0.000000000000000e+00
					-2.826747894043522e-01 3.749999999677737e-01 0.000000000000000e+00
					-9.105529784172059e-02 3.749999999677735e-01 0.000000000000000e+00
					-1.433447265489502e-01 2.499999999765625e-01 0.000000000000000e+00
					4.328796386379095e-02 2.499999999765625e-01 0.000000000000000e+00
					-9.105529784172059e-02 3.749999999677735e-01 0.000000000000000e+00
					1.267253875639577e-01 3.749999999677735e-01 0.000000000000000e+00
					4.328796386379095e-02 2.499999999765625e-01 0.000000000000000e+00
					2.499999999765626e-01 2.499999999765626e-01 0.000000000000000e+00
					1.267253875639577e-01 3.749999999677735e-01 0.000000000000000e+00
					3.749999999677735e-01 3.749999999677735e-01 0.000000000000000e+00
					-1.000000000000000e+00 3.749999999677735e-01 0.000000000000000e+00
					-8.741954803262352e-01 3.749999999677737e-01 0.000000000000000e+00
					-1.000000000000000e+00 4.999999999625001e-01 0.000000000000000e+00
					-8.740234374795657e-01 4.999999999625002e-01 0.000000000000000e+00
					-8.741954803262352e-01 3.749999999677737e-01 0.000000000000000e+00
					-7.438934325848786e-01 3.749999999677737e-01 0.000000000000000e+00
					-8.740234374795657e-01 4.999999999625002e-01 0.000000000000000e+00
					-7.421874999677736e-01 4.999999999625003e-01 0.000000000000000e+00
					-7.438934325848786e-01 3.749999999677737e-01 0.000000000000000e+00
					-6.047611236208402e-01 3.749999999677737e-01 0.000000000000000e+00
					-7.421874999677736e-01 4.999999999625003e-01 0.000000000000000e+00
					-5.986328124638917e-01 4.999999999625002e-01 0.000000000000000e+00
					-6.047611236208402e-01 3.749999999677737e-01 0.000000000000000e+00
					-4.524658202790284e-01 3.749999999677737e-01 0.000000000000000e+00
					-5.986328124638917e-01 4.999999999625002e-01 0.000000000000000e+00
					-4.374999999671876e-01 4.999999999625002e-01 0.000000000000000e+00
					-4.524658202790284e-01 3.749999999677737e-01 0.000000000000000e+00
					-2.826747894043522e-01 3.749999999677737e-01 0.000000000000000e+00
					-4.374999999671876e-01 4.999999999625002e-01 0.000000000000000e+00
					-2.529296874769287e-01 4.999999999625002e-01 0.000000000000000e+00
					-2.826747894043522e-01 3.749999999677737e-01 0.000000000000000e+00
					-9.105529784172059e-02 3.749999999677735e-01 0.000000000000000e+00
					-2.529296874769287e-01 4.999999999625002e-01 0.000000000000000e+00
					-3.906249999238282e-02 4.999999999625001e-01 0.000000000000000e+00
					-9.105529784172059e-02 3.749999999677735e-01 0.000000000000000e+00
					1.267253875639577e-01 3.749999999677735e-01 0.000000000000000e+00
					-3.906249999238282e-02 4.999999999625001e-01 0.000000000000000e+00
					2.099609374871827e-01 4.999999999625001e-01 0.000000000000000e+00
					1.267253875639577e-01 3.749999999677735e-01 0.000000000000000e+00
					3.749999999677735e-01 3.749999999677735e-01 0.000000000000000e+00
					2.099609374871827e-01 4.999999999625001e-01 0.000000000000000e+00
					4.999999999625001e-01 4.999999999625001e-01 0.000000000000000e+00
					-1.000000000000000e+00 4.999999999625001e-01 0.000000000000000e+00
					-8.740234374795657e-01 4.999999999625002e-01 0.000000000000000e+00
					-1.000000000000000e+00 6.249999999619140e-01 0.000000000000000e+00
					-8.738513946328870e-01 6.249999999619144e-01 0.000000000000000e+00
					-8.740234374795657e-01 4.999999999625002e-01 0.000000000000000e+00
					-7.421874999677736e-01 4.999999999625003e-01 0.000000000000000e+00
					-8.738513946328870e-01 6.249999999619144e-01 0.000000000000000e+00
					-7.404815673505951e-01 6.249999999619145e-01 0.000000000000000e+00
					-7.421874999677736e-01 4.999999999625003e-01 0.000000000000000e+00
					-5.986328124638917e-01 4.999999999625002e-01 0.000000000000000e+00
					-7.404815673505951e-01 6.249999999619145e-01 0.000000000000000e+00
					-5.925045013066960e-01 6.249999999619145e-01 0.000000000000000e+00
					-5.986328124638917e-01 4.999999999625002e-01 0.000000000000000e+00
					-4.374999999671876e-01 4.999999999625002e-01 0.000000000000000e+00
					-5.925045013066960e-01 6.249999999619145e-01 0.000000000000000e+00
					-4.225341796547608e-01 6.249999999619142e-01 0.000000000000000e+00
					-4.374999999671876e-01 4.999999999625002e-01 0.000000000000000e+00
					-2.529296874769287e-01 4.999999999625002e-01 0.000000000000000e+00
					-4.225341796547608e-01 6.249999999619142e-01 0.000000000000000e+00
					-2.231845855483608e-01 6.249999999619141e-01 0.000000000000000e+00
					-2.529296874769287e-01 4.999999999625002e-01 0.000000000000000e+00
					-3.906249999238282e-02 4.999999999625001e-01 0.000000000000000e+00
					-2.231845855483608e-01 6.249999999619141e-01 0.000000000000000e+00
					1.293029785893249e-02 6.249999999619140e-01 0.000000000000000e+00
					-3.906249999238282e-02 4.999999999625001e-01 0.000000000000000e+00
					2.099609374871827e-01 4.999999999625001e-01 0.000000000000000e+00
					1.293029785893249e-02 6.249999999619140e-01 0.000000000000000e+00
					2.931964874135479e-01 6.249999999619140e-01 0.000000000000000e+00
					2.099609374871827e-01 4.999999999625001e-01 0.000000000000000e+00
					4.999999999625001e-01 4.999999999625001e-01 0.000000000000000e+00
					2.931964874135479e-01 6.249999999619140e-01 0.000000000000000e+00
					6.249999999619140e-01 6.249999999619140e-01 0.000000000000000e+00
					-1.000000000000000e+00 6.249999999619140e-01 0.000000000000000e+00
					-8.738513946328870e-01 6.249999999619144e-01 0.000000000000000e+00
					-1.000000000000000e+00 7.499999999671875e-01 0.000000000000000e+00
					-8.736505126748688e-01 7.499999999671876e-01 0.000000000000000e+00
					-8.738513946328870e-01 6.249999999619144e-01 0.000000000000000e+00
					-7.404815673505951e-01 6.249999999619145e-01 0.000000000000000e+00
					-8.736505126748688e-01 7.499999999671876e-01 0.000000000000000e+00
					-7.386767577802003e-01 7.499999999671877e-01 0.000000000000000e+00
					-7.404815673505951e-01 6.249999999619145e-01 0.000000000000000e+00
					-5.925045013066960e-01 6.249999999619145e-01 0.000000000000000e+00
					-7.386767577802003e-01 7.499999999671877e-01 0.000000000000000e+00
					-5.861907958620819e-01 7.499999999671877e-01 0.000000000000000e+00
					-5.925045013066960e-01 6.249999999619145e-01 0.000000000000000e+00
					-4.225341796547608e-01 6.249999999619142e-01 0.000000000000000e+00
					-5.861907958620819e-01 7.499999999671877e-01 0.000000000000000e+00
					-4.073046874666015e-01 7.499999999671876e-01 0.000000000000000e+00
					-4.225341796547608e-01 6.249999999619142e-01 0.000000000000000e+00
					-2.231845855483608e-01 6.249999999619141e-01 0.000000000000000e+00
					-4.073046874666015e-01 7.499999999671876e-01 0.000000000000000e+00
					-1.931304931398468e-01 7.499999999671876e-01 0.000000000000000e+00
					-2.231845855483608e-01 6.249999999619141e-01 0.000000000000000e+00
					1.293029785893249e-02 6.249999999619140e-01 0.000000000000000e+00
					-1.931304931398468e-01 7.499999999671876e-01 0.000000000000000e+00
					6.521972657209472e-02 7.499999999671874e-01 0.000000000000000e+00
					1.293029785893249e-02 6.249999999619140e-01 0.000000000000000e+00
					2.931964874135479e-01 6.249999999619140e-01 0.000000000000000e+00
					6.521972657209472e-02 7.499999999671874e-01 0.000000000000000e+00
					3.766339111231354e-01 7.499999999671874e-01 0.000000000000000e+00
					2.931964874135479e-01 6.249999999619140e-01 0.000000000000000e+00
					6.249999999619140e-01 6.249999999619140e-01 0.000000000000000e+00
					3.766339111231354e-01 7.499999999671874e-01 0.000000000000000e+00
					7.499999999671875e-01 7.499999999671875e-01 0.000000000000000e+00
					-1.000000000000000e+00 7.499999999671875e-01 0.000000000000000e+00
					-8.736505126748688e-01 7.499999999671876e-01 0.000000000000000e+00
					-1.000000000000000e+00 8.749999999794922e-01 0.000000000000000e+00
					-8.733919524941807e-01 8.749999999794923e-01 0.000000000000000e+00
					-8.736505126748688e-01 7.499999999671876e-01 0.000000000000000e+00
					-7.386767577802003e-01 7.499999999671877e-01 0.000000000000000e+00
					-8.733919524941807e-01 8.749999999794923e-01 0.000000000000000e+00
					-7.366741943034455e-01 8.749999999794923e-01 0.000000000000000e+00
					-7.386767577802003e-01 7.499999999671877e-01 0.000000000000000e+00
					-5.861907958620819e-01 7.499999999671877e-01 0.000000000000000e+00
					-7.366741943034455e-01 8.749999999794923e-01 0.000000000000000e+00
					-5.795063018428783e-01 8.749999999794923e-01 0.000000000000000e+00
					-5.861907958620819e-01 7.499999999671877e-01 0.000000000000000e+00
					-4.073046874666015e-01 7.499999999671876e-01 0.000000000000000e+00
					-5.795063018428783e-01 8.749999999794923e-01 0.000000000000000e+00
					-3.915478515275634e-01 8.749999999794922e-01 0.000000000000000e+00
					-4.073046874666015e-01 7.499999999671876e-01 0.000000000000000e+00
					-1.931304931398468e-01 7.499999999671876e-01 0.000000000000000e+00
					-3.915478515275634e-01 8.749999999794922e-01 0.000000000000000e+00
					-1.624584197725849e-01 8.749999999794922e-01 0.000000000000000e+00
					-1.931304931398468e-01 7.499999999671876e-01 0.000000000000000e+00
					6.521972657209472e-02 7.499999999671874e-01 0.000000000000000e+00
					-1.624584197725849e-01 8.749999999794922e-01 0.000000000000000e+00
					1.181024170069733e-01 8.749999999794922e-01 0.000000000000000e+00
					6.521972657209472e-02 7.499999999671874e-01 0.000000000000000e+00
					3.766339111231354e-01 7.499999999671874e-01 0.000000000000000e+00
					1.181024170069733e-01 8.749999999794922e-01 0.000000000000000e+00
					4.604750823960270e-01 8.749999999794922e-01 0.000000000000000e+00
					3.766339111231354e-01 7.499999999671874e-01 0.000000000000000e+00
					7.499999999671875e-01 7.499999999671875e-01 0.000000000000000e+00
					4.604750823960270e-01 8.749999999794922e-01 0.000000000000000e+00
					8.749999999794922e-01 8.749999999794922e-01 0.000000000000000e+00
					-1.000000000000000e+00 8.749999999794922e-01 0.000000000000000e+00
					-8.733919524941807e-01 8.749999999794923e-01 0.000000000000000e+00
					-1.000000000000000e+00 1.000000000000000e+00 0.000000000000000e+00
					-8.730468749794923e-01 1.000000000000000e+00 0.000000000000000e+00
					-8.733919524941807e-01 8.749999999794923e-01 0.000000000000000e+00
					-7.366741943034455e-01 8.749999999794923e-01 0.000000000000000e+00
					-8.730468749794923e-01 1.000000000000000e+00 0.000000000000000e+00
					-7.343749999671876e-01 1.000000000000000e+00 0.000000000000000e+00
					-7.366741943034455e-01 8.749999999794923e-01 0.000000000000000e+00
					-5.795063018428783e-01 8.749999999794923e-01 0.000000000000000e+00
					-7.343749999671876e-01 1.000000000000000e+00 0.000000000000000e+00
					-5.722656249619140e-01 1.000000000000000e+00 0.000000000000000e+00
					-5.795063018428783e-01 8.749999999794923e-01 0.000000000000000e+00
					-3.915478515275634e-01 8.749999999794922e-01 0.000000000000000e+00
					-5.722656249619140e-01 1.000000000000000e+00 0.000000000000000e+00
					-3.749999999625000e-01 1.000000000000000e+00 0.000000000000000e+00
					-3.915478515275634e-01 8.749999999794922e-01 0.000000000000000e+00
					-1.624584197725849e-01 8.749999999794922e-01 0.000000000000000e+00
					-3.749999999625000e-01 1.000000000000000e+00 0.000000000000000e+00
					-1.308593749677734e-01 1.000000000000000e+00 0.000000000000000e+00
					-1.624584197725849e-01 8.749999999794922e-01 0.000000000000000e+00
					1.181024170069733e-01 8.749999999794922e-01 0.000000000000000e+00
					-1.308593749677734e-01 1.000000000000000e+00 0.000000000000000e+00
					1.718750000234375e-01 1.000000000000000e+00 0.000000000000000e+00
					1.181024170069733e-01 8.749999999794922e-01 0.000000000000000e+00
					4.604750823960270e-01 8.749999999794922e-01 0.000000000000000e+00
					1.718750000234375e-01 1.000000000000000e+00 0.000000000000000e+00
					5.449218750123046e-01 1.000000000000000e+00 0.000000000000000e+00
					4.604750823960270e-01 8.749999999794922e-01 0.000000000000000e+00
					8.749999999794922e-01 8.749999999794922e-01 0.000000000000000e+00
					5.449218750123046e-01 1.000000000000000e+00 0.000000000000000e+00
					1.000000000000000e+00 1.000000000000000e+00 0.000000000000000e+00
				</DataArray>
			</Points>
			<Cells>
				<DataArray Name="connectivity" type="UInt32" format="ascii">
					0 1 3 2 4 5 7 6 8 9 11 10 12 13 15 14 16 17 19 18 20 21 23 22 24 25 27 26 28 29 31 30 32 33 35 34 36 37 39 38 40 41 43 42 44 45 47 46 48 49 51 50 52 53 55 54 56 57 59 58 60 61 63 62 64 65 67 66 68 69 71 70 72 73 75 74 76 77 79 78 80 81 83 82 84 85 87 86 88 89 91 90 92 93 95 94 96 97 99 98 100 101 103 102 104 105 107 106 108 109 111 110 112 113 115 114 116 117 119 118 120 121 123 122 124 125 127 126 128 129 131 130 132 133 135 134 136 137 139 138 140 141 143 142 144 145 147 146 148 149 151 150 152 153 155 154 156 157 159 158 160 161 163 162 164 165 167 166 168 169 171 170 172 173 175 174 176 177 179 178 180 181 183 182 184 185 187 186 188 189 191 190 192 193 195 194 196 197 199 198 200 201 203 202 204 205 207 206 208 209 211 210 212 213 215 214 216 217 219 218 220 221 223 222 224 225 227 226 228 229 231 230 232 233 235 234 236 237 239 238 240 241 243 242 244 245 247 246 248 249 251 250 252 253 255 254 
				</DataArray>
				<DataArray Name="offsets" type="UInt32" format="ascii">
					4 8 12 16 20 24 28 32 36 40 44 48 52 56 60 64 68 72 76 80 84 88 92 96 100 104 108 112 116 120 124 128 132 136 140 144 148 152 156 160 164 168 172 176 180 184 188 192 196 200 204 208 212 216 220 224 228 232 236 240 244 248 252 256 
				</DataArray>
				<DataArray Name="types" type="UInt8" format="ascii">
					9 9 9 9 9 9 9 9 9 9 9 9 9 9 9 9 9 9 9 9 9 9 9 9 9 9 9 9 9 9 9 9 9 9 9 9 9 9 9 9 9 9 9 9 9 9 9 9 9 9 9 9 9 9 9 9 9 9 9 9 9 9 9 9 
				</DataArray>
			</Cells>
			<PointData Vectors="solution ">
				<DataArray Name="solution" type="Float64" NumberOfComponents="1" format="ascii">
					0.000000000000000e+00 0.000000000000000e+00 0.000000000000000e+00 6.394888715673320e-03 0.000000000000000e+00 0.000000000000000e+00 6.394888715673320e-03 1.645464508603839e-02 0.000000000000000e+00 0.000000000000000e+00 1.645464508603839e-02 2.208807933631828e-02 0.000000000000000e+00 0.000000000000000e+00 2.208807933631828e-02 2.076829406825313e-02 0.000000000000000e+00 0.000000000000000e+00 2.076829406825313e-02 1.387868109272247e-02 0.000000000000000e+00 0.000000000000000e+00 1.387868109272247e-02 5.380054660328164e-03 0.000000000000000e+00 0.000000000000000e+00 5.380054660328164e-03 2.458341772339067e-04 0.000000000000000e+00 0.000000000000000e+00 2.458341772339067e-04 2.091843990231400e-03 0.000000000000000e+00 6.394888715673320e-03 0.000000000000000e+00 2.327666854185525e-02 6.394888715673320e-03 1.645464508603839e-02 2.327666854185525e-02 6.018903583875360e-02 1.645464508603839e-02 2.208807933631828e-02 6.018903583875360e-02 8.051304841421789e-02 2.208807933631828e-02 2.076829406825313e-02 8.051304841421789e-02 7.330752326231599e-02 2.076829406825313e-02 1.387868109272247e-02 7.330752326231599e-02 4.368991006573087e-02 1.387868109272247e-02 5.380054660328164e-03 4.368991006573087e-02 1.081451493835032e-02 5.380054660328164e-03 2.458341772339067e-04 1.081451493835032e-02 1.104963099878875e-03 2.458341772339067e-04 2.091843990231400e-03 1.104963099878875e-03 3.060729521482677e-02 0.000000000000000e+00 2.327666854185525e-02 0.000000000000000e+00 4.411861399190879e-02 2.327666854185525e-02 6.018903583875360e-02 4.411861399190879e-02 1.146222984785655e-01 6.018903583875360e-02 8.051304841421789e-02 1.146222984785655e-01 1.527707203115539e-01 8.051304841421789e-02 7.330752326231599e-02 1.527707203115539e-01 1.344184689649950e-01 7.330752326231599e-02 4.368991006573087e-02 1.344184689649950e-01 7.019270724887094e-02 4.368991006573087e-02 1.081451493835032e-02 7.019270724887094e-02 8.489227096774344e-03 1.081451493835032e-02 1.104963099878875e-03 8.489227096774344e-03 1.665231933233917e-02 1.104963099878875e-03 3.060729521482677e-02 1.665231933233917e-02 1.112190469014280e-01 0.000000000000000e+00 4.411861399190879e-02 0.000000000000000e+00 5.986802557727561e-02 4.411861399190879e-02 1.146222984785655e-01 5.986802557727561e-02 1.562545678842890e-01 1.146222984785655e-01 1.527707203115539e-01 1.562545678842890e-01 2.074342261661586e-01 1.527707203115539e-01 1.344184689649950e-01 2.074342261661586e-01 1.759209490825726e-01 1.344184689649950e-01 7.019270724887094e-02 1.759209490825726e-01 7.874892753532754e-02 7.019270724887094e-02 8.489227096774344e-03 7.874892753532754e-02 2.221249569194803e-03 8.489227096774344e-03 1.665231933233917e-02 2.221249569194803e-03 5.779343334912602e-02 1.665231933233917e-02 1.112190469014280e-01 5.779343334912602e-02 2.050132190940452e-01 0.000000000000000e+00 5.986802557727561e-02 0.000000000000000e+00 6.188696247860082e-02 5.986802557727561e-02 1.562545678842890e-01 6.188696247860082e-02 1.622500186962613e-01 1.562545678842890e-01 2.074342261661586e-01 1.622500186962613e-01 2.144102456829235e-01 2.074342261661586e-01 1.759209490825726e-01 2.144102456829235e-01 1.746943809663351e-01 1.759209490825726e-01 7.874892753532754e-02 1.746943809663351e-01 6.516455375081223e-02 7.874892753532754e-02 2.221249569194803e-03 6.516455375081223e-02 3.539713804452229e-04 2.221249569194803e-03 5.779343334912602e-02 3.539713804452229e-04 1.056981700448695e-01 5.779343334912602e-02 2.050132190940452e-01 1.056981700448695e-01 2.184881126978584e-01 0.000000000000000e+00 6.188696247860082e-02 0.000000000000000e+00 4.605126259321483e-02 6.188696247860082e-02 1.622500186962613e-01 4.605126259321483e-02 1.212660540816808e-01 1.622500186962613e-01 2.144102456829235e-01 1.212660540816808e-01 1.593689133661564e-01 2.144102456829235e-01 1.746943809663351e-01 1.593689133661564e-01 1.242261262685605e-01 1.746943809663351e-01 6.516455375081223e-02 1.242261262685605e-01 3.716386523618427e-02 6.516455375081223e-02 3.539713804452229e-04 3.716386523618427e-02 4.622072299381309e-03 3.539713804452229e-04 1.056981700448695e-01 4.622072299381309e-03 1.137796451212130e-01 1.056981700448695e-01 2.184881126978584e-01 1.137796451212130e-01 1.201745050566139e-01 0.000000000000000e+00 4.605126259321483e-02 0.000000000000000e+00 1.804711033871052e-02 4.605126259321483e-02 1.212660540816808e-01 1.804711033871052e-02 4.772847585385361e-02 1.212660540816808e-01 1.593689133661564e-01 4.772847585385361e-02 6.229640108006891e-02 1.593689133661564e-01 1.242261262685605e-01 6.229640108006891e-02 4.620858223892662e-02 1.242261262685605e-01 3.716386523618427e-02 4.620858223892662e-02 1.049709807499774e-02 3.716386523618427e-02 4.622072299381309e-03 1.049709807499774e-02 5.734046161807533e-03 4.622072299381309e-03 1.137796451212130e-01 5.734046161807533e-03 5.599825005641502e-02 1.137796451212130e-01 1.201745050566139e-01 5.599825005641502e-02 1.828013382519394e-02 0.000000000000000e+00 1.804711033871052e-02 0.000000000000000e+00 0.000000000000000e+00 1.804711033871052e-02 4.772847585385361e-02 0.000000000000000e+00 0.000000000000000e+00 4.772847585385361e-02 6.229640108006891e-02 0.000000000000000e+00 0.000000000000000e+00 6.229640108006891e-02 4.620858223892662e-02 0.000000000000000e+00 0.000000000000000e+00 4.620858223892662e-02 1.049709807499774e-02 0.000000000000000e+00 0.000000000000000e+00 1.049709807499774e-02 5.734046161807533e-03 0.000000000000000e+00 0.000000000000000e+00 5.734046161807533e-03 5.599825005641502e-02 0.000000000000000e+00 0.000000000000000e+00 5.599825005641502e-02 1.828013382519394e-02 0.000000000000000e+00 0.000000000000000e+00 
				</DataArray>
			</PointData>
			<CellData>
			</CellData>
		</Piece>
	</UnstructuredGrid>
</VTKFile>