<?xml version="1.0"?>
<VTKFile type="UnstructuredGrid" byte_order="LittleEndian">
	<UnstructuredGrid>
		<Piece NumberOfPoints="16" NumberOfCells="4">
			<Points>
				<DataArray type="Float64" NumberOfComponents="3" format="ascii">
					-1.000000000000000e+00 1.000000000000000e+00 0.000000000000000e+00
					-6.951941016011038e-01 6.951941016011038e-01 0.000000000000000e+00
					0.000000000000000e+00 1.500000000000000e+00 0.000000000000000e+00
					0.000000000000000e+00 8.225970508005519e-01 0.000000000000000e+00
					-6.951941016011038e-01 6.951941016011038e-01 0.000000000000000e+00
					-5.000000000000000e-01 5.000000000000000e-01 0.000000000000000e+00
					0.000000000000000e+00 8.225970508005519e-01 0.000000000000000e+00
					0.000000000000000e+00 5.000000000000000e-01 0.000000000000000e+00
					0.000000000000000e+00 1.500000000000000e+00 0.000000000000000e+00
					0.000000000000000e+00 8.225970508005519e-01 0.000000000000000e+00
					1.000000000000000e+00 1.000000000000000e+00 0.000000000000000e+00
					6.951941016011038e-01 6.951941016011038e-01 0.000000000000000e+00
					0.000000000000000e+00 8.225970508005519e-01 0.000000000000000e+00
					0.000000000000000e+00 5.000000000000000e-01 0.000000000000000e+00
					6.951941016011038e-01 6.951941016011038e-01 0.000000000000000e+00
					5.000000000000000e-01 5.000000000000000e-01 0.000000000000000e+00
				</DataArray>
			</Points>
			<Cells>
				<DataArray Name="connectivity" type="UInt32" format="ascii">
					0 1 3 2 4 5 7 6 8 9 11 10 12 13 15 14 
				</DataArray>
				<DataArray Name="offsets" type="UInt32" format="ascii">
					4 8 12 16 
				</DataArray>
				<DataArray Name="types" type="UInt8" format="ascii">
					9 9 9 9 
				</DataArray>
			</Cells>
			<PointData Vectors="solution ">
				<DataArray Name="solution" type="Float64" NumberOfComponents="1" format="ascii">
					0.000000000000000e+00 2.965484409246498e+00 0.000000000000000e+00 2.336181580574232e+01 2.965484409246498e+00 1.193860291737921e+01 2.336181580574232e+01 3.886734355597122e+01 0.000000000000000e+00 2.336181580574232e+01 0.000000000000000e+00 1.172327976474599e+01 2.336181580574232e+01 3.886734355597122e+01 1.172327976474599e+01 3.248419276823975e+01 
				</DataArray>
			</PointData>
			<CellData>
			</CellData>
		</Piece>
	</UnstructuredGrid>
</VTKFile>