<?xml version="1.0"?>
<VTKFile type="UnstructuredGrid" byte_order="LittleEndian">
	<UnstructuredGrid>
		<Piece NumberOfPoints="256" NumberOfCells="64">
			<Points>
				<DataArray type="Float64" NumberOfComponents="3" format="ascii">
					-1.000000000000000e+00 0.000000000000000e+00 0.000000000000000e+00
					-8.749999999794923e-01 0.000000000000000e+00 0.000000000000000e+00
					-1.000000000000000e+00 1.249999999876953e-01 0.000000000000000e+00
					-8.747548499856200e-01 1.249999999876954e-01 0.000000000000000e+00
					-8.749999999794923e-01 0.000000000000000e+00 0.000000000000000e+00
					-7.499999999671876e-01 0.000000000000000e+00 0.000000000000000e+00
					-8.747548499856200e-01 1.249999999876954e-01 0.000000000000000e+00
					-7.480434142740207e-01 1.249999999876954e-01 0.000000000000000e+00
					-7.499999999671876e-01 0.000000000000000e+00 0.000000000000000e+00
					-6.249999999619140e-01 0.000000000000000e+00 0.000000000000000e+00
					-7.480434142740207e-01 1.249999999876954e-01 0.000000000000000e+00
					-6.184017142875142e-01 1.249999999876954e-01 0.000000000000000e+00
					-6.249999999619140e-01 0.000000000000000e+00 0.000000000000000e+00
					-4.999999999624999e-01 0.000000000000000e+00 0.000000000000000e+00
					-6.184017142875142e-01 1.249999999876954e-01 0.000000000000000e+00
					-4.843657714484131e-01 1.249999999876954e-01 0.000000000000000e+00
					-4.999999999624999e-01 0.000000000000000e+00 0.000000000000000e+00
					-3.749999999677734e-01 0.000000000000000e+00 0.000000000000000e+00
					-4.843657714484131e-01 1.249999999876954e-01 0.000000000000000e+00
					-3.444716071790295e-01 1.249999999876954e-01 0.000000000000000e+00
					-3.749999999677734e-01 0.000000000000000e+00 0.000000000000000e+00
					-2.499999999765625e-01 0.000000000000000e+00 0.000000000000000e+00
					-3.444716071790295e-01 1.249999999876954e-01 0.000000000000000e+00
					-1.972552429016754e-01 1.249999999876953e-01 0.000000000000000e+00
					-2.499999999765625e-01 0.000000000000000e+00 0.000000000000000e+00
					-1.249999999876953e-01 0.000000000000000e+00 0.000000000000000e+00
					-1.972552429016754e-01 1.249999999876953e-01 0.000000000000000e+00
					-4.125270003866308e-02 1.249999999876953e-01 0.000000000000000e+00
					-1.249999999876953e-01 0.000000000000000e+00 0.000000000000000e+00
					0.000000000000000e+00 0.000000000000000e+00 0.000000000000000e+00
					-4.125270003866308e-02 1.249999999876953e-01 0.000000000000000e+00
					1.249999999876953e-01 1.249999999876953e-01 0.000000000000000e+00
					-1.000000000000000e+00 1.249999999876953e-01 0.000000000000000e+00
					-8.747548499856200e-01 1.249999999876954e-01 0.000000000000000e+00
					-1.000000000000000e+00 2.499999999765626e-01 0.000000000000000e+00
					-8.745105651650852e-01 2.499999999765626e-01 0.000000000000000e+00
					-8.747548499856200e-01 1.249999999876954e-01 0.000000000000000e+00
					-7.480434142740207e-01 1.249999999876954e-01 0.000000000000000e+00
					-8.745105651650852e-01 2.499999999765626e-01 0.000000000000000e+00
					-7.460897948894291e-01 2.499999999765626e-01 0.000000000000000e+00
					-7.480434142740207e-01 1.249999999876954e-01 0.000000000000000e+00
					-6.184017142875142e-01 1.249999999876954e-01 0.000000000000000e+00
					-7.460897948894291e-01 2.499999999765626e-01 0.000000000000000e+00
					-6.118089904416658e-01 2.499999999765626e-01 0.000000000000000e+00
					-6.184017142875142e-01 1.249999999876954e-01 0.000000000000000e+00
					-4.843657714484131e-01 1.249999999876954e-01 0.000000000000000e+00
					-6.118089904416658e-01 2.499999999765626e-01 0.000000000000000e+00
					-4.687394530904298e-01 2.499999999765626e-01 0.000000000000000e+00
					-4.843657714484131e-01 1.249999999876954e-01 0.000000000000000e+00
					-3.444716071790295e-01 1.249999999876954e-01 0.000000000000000e+00
					-4.687394530904298e-01 2.499999999765626e-01 0.000000000000000e+00
					-3.139524841043549e-01 2.499999999765626e-01 0.000000000000000e+00
					-3.444716071790295e-01 1.249999999876954e-01 0.000000000000000e+00
					-1.972552429016754e-01 1.249999999876953e-01 0.000000000000000e+00
					-3.139524841043549e-01 2.499999999765626e-01 0.000000000000000e+00
					-1.445193847520752e-01 2.499999999765625e-01 0.000000000000000e+00
					-1.972552429016754e-01 1.249999999876953e-01 0.000000000000000e+00
					-4.125270003866308e-02 1.249999999876953e-01 0.000000000000000e+00
					-1.445193847520752e-01 2.499999999765625e-01 0.000000000000000e+00
					4.248854369777530e-02 2.499999999765625e-01 0.000000000000000e+00
					-4.125270003866308e-02 1.249999999876953e-01 0.000000000000000e+00
					1.249999999876953e-01 1.249999999876953e-01 0.000000000000000e+00
					4.248854369777530e-02 2.499999999765625e-01 0.000000000000000e+00
					2.499999999765626e-01 2.499999999765626e-01 0.000000000000000e+00
					-1.000000000000000e+00 2.499999999765626e-01 0.000000000000000e+00
					-8.745105651650852e-01 2.499999999765626e-01 0.000000000000000e+00
					-1.000000000000000e+00 3.749999999677735e-01 0.000000000000000e+00
					-8.742668571267722e-01 3.749999999677737e-01 0.000000000000000e+00
					-8.745105651650852e-01 2.499999999765626e-01 0.000000000000000e+00
					-7.460897948894291e-01 2.499999999765626e-01 0.000000000000000e+00
					-8.742668571267722e-01 3.749999999677737e-01 0.000000000000000e+00
					-7.441381530438631e-01 3.749999999677737e-01 0.000000000000000e+00
					-7.460897948894291e-01 2.499999999765626e-01 0.000000000000000e+00
					-6.118089904416658e-01 2.499999999765626e-01 0.000000000000000e+00
					-7.441381530438631e-01 3.749999999677737e-01 0.000000000000000e+00
					-6.052199744814359e-01 3.749999999677737e-01 0.000000000000000e+00
					-6.118089904416658e-01 2.499999999765626e-01 0.000000000000000e+00
					-4.687394530904298e-01 2.499999999765626e-01 0.000000000000000e+00
					-6.052199744814359e-01 3.749999999677737e-01 0.000000000000000e+00
					-4.531184081696534e-01 3.749999999677737e-01 0.000000000000000e+00
					-4.687394530904298e-01 2.499999999765626e-01 0.000000000000000e+00
					-3.139524841043549e-01 2.499999999765626e-01 0.000000000000000e+00
					-4.531184081696534e-01 3.749999999677737e-01 0.000000000000000e+00
					-2.834395408386784e-01 3.749999999677737e-01 0.000000000000000e+00
					-3.139524841043549e-01 2.499999999765626e-01 0.000000000000000e+00
					-1.445193847520752e-01 2.499999999765625e-01 0.000000000000000e+00
					-2.834395408386784e-01 3.749999999677737e-01 0.000000000000000e+00
					-9.178945921867371e-02 3.749999999677735e-01 0.000000000000000e+00
					-1.445193847520752e-01 2.499999999765625e-01 0.000000000000000e+00
					4.248854369777530e-02 2.499999999765625e-01 0.000000000000000e+00
					-9.178945921867371e-02 3.749999999677735e-01 0.000000000000000e+00
					1.262257499601979e-01 3.749999999677735e-01 0.000000000000000e+00
					4.248854369777530e-02 2.499999999765625e-01 0.000000000000000e+00
					2.499999999765626e-01 2.499999999765626e-01 0.000000000000000e+00
					1.262257499601979e-01 3.749999999677735e-01 0.000000000000000e+00
					3.749999999677735e-01 3.749999999677735e-01 0.000000000000000e+00
					-1.000000000000000e+00 3.749999999677735e-01 0.000000000000000e+00
					-8.742668571267722e-01 3.749999999677737e-01 0.000000000000000e+00
					-1.000000000000000e+00 4.999999999625001e-01 0.000000000000000e+00
					-8.740234374795658e-01 4.999999999625002e-01 0.000000000000000e+00
					-8.742668571267722e-01 3.749999999677737e-01 0.000000000000000e+00
					-7.441381530438631e-01 3.749999999677737e-01 0.000000000000000e+00
					-8.740234374795658e-01 4.999999999625002e-01 0.000000000000000e+00
					-7.421874999677738e-01 4.999999999625003e-01 0.000000000000000e+00
					-7.441381530438631e-01 3.749999999677737e-01 0.000000000000000e+00
					-6.052199744814359e-01 3.749999999677737e-01 0.000000000000000e+00
					-7.421874999677738e-01 4.999999999625003e-01 0.000000000000000e+00
					-5.986328124638918e-01 4.999999999625002e-01 0.000000000000000e+00
					-6.052199744814359e-01 3.749999999677737e-01 0.000000000000000e+00
					-4.531184081696534e-01 3.749999999677737e-01 0.000000000000000e+00
					-5.986328124638918e-01 4.999999999625002e-01 0.000000000000000e+00
					-4.374999999671877e-01 4.999999999625002e-01 0.000000000000000e+00
					-4.531184081696534e-01 3.749999999677737e-01 0.000000000000000e+00
					-2.834395408386784e-01 3.749999999677737e-01 0.000000000000000e+00
					-4.374999999671877e-01 4.999999999625002e-01 0.000000000000000e+00
					-2.529296874769288e-01 4.999999999625002e-01 0.000000000000000e+00
					-2.834395408386784e-01 3.749999999677737e-01 0.000000000000000e+00
					-9.178945921867371e-02 3.749999999677735e-01 0.000000000000000e+00
					-2.529296874769288e-01 4.999999999625002e-01 0.000000000000000e+00
					-3.906249999238282e-02 4.999999999625001e-01 0.000000000000000e+00
					-9.178945921867371e-02 3.749999999677735e-01 0.000000000000000e+00
					1.262257499601979e-01 3.749999999677735e-01 0.000000000000000e+00
					-3.906249999238282e-02 4.999999999625001e-01 0.000000000000000e+00
					2.099609374871826e-01 4.999999999625001e-01 0.000000000000000e+00
					1.262257499601979e-01 3.749999999677735e-01 0.000000000000000e+00
					3.749999999677735e-01 3.749999999677735e-01 0.000000000000000e+00
					2.099609374871826e-01 4.999999999625001e-01 0.000000000000000e+00
					4.999999999625001e-01 4.999999999625001e-01 0.000000000000000e+00
					-1.000000000000000e+00 4.999999999625001e-01 0.000000000000000e+00
					-8.740234374795658e-01 4.999999999625002e-01 0.000000000000000e+00
					-1.000000000000000e+00 6.249999999619140e-01 0.000000000000000e+00
					-8.737800178323499e-01 6.249999999619144e-01 0.000000000000000e+00
					-8.740234374795658e-01 4.999999999625002e-01 0.000000000000000e+00
					-7.421874999677738e-01 4.999999999625003e-01 0.000000000000000e+00
					-8.737800178323499e-01 6.249999999619144e-01 0.000000000000000e+00
					-7.402368468916110e-01 6.249999999619145e-01 0.000000000000000e+00
					-7.421874999677738e-01 4.999999999625003e-01 0.000000000000000e+00
					-5.986328124638918e-01 4.999999999625002e-01 0.000000000000000e+00
					-7.402368468916110e-01 6.249999999619145e-01 0.000000000000000e+00
					-5.920456504461004e-01 6.249999999619145e-01 0.000000000000000e+00
					-5.986328124638918e-01 4.999999999625002e-01 0.000000000000000e+00
					-4.374999999671877e-01 4.999999999625002e-01 0.000000000000000e+00
					-5.920456504461004e-01 6.249999999619145e-01 0.000000000000000e+00
					-4.218815917641359e-01 6.249999999619142e-01 0.000000000000000e+00
					-4.374999999671877e-01 4.999999999625002e-01 0.000000000000000e+00
					-2.529296874769288e-01 4.999999999625002e-01 0.000000000000000e+00
					-4.218815917641359e-01 6.249999999619142e-01 0.000000000000000e+00
					-2.224198341140347e-01 6.249999999619141e-01 0.000000000000000e+00
					-2.529296874769288e-01 4.999999999625002e-01 0.000000000000000e+00
					-3.906249999238282e-02 4.999999999625001e-01 0.000000000000000e+00
					-2.224198341140347e-01 6.249999999619141e-01 0.000000000000000e+00
					1.366445923588561e-02 6.249999999619140e-01 0.000000000000000e+00
					-3.906249999238282e-02 4.999999999625001e-01 0.000000000000000e+00
					2.099609374871826e-01 4.999999999625001e-01 0.000000000000000e+00
					1.366445923588561e-02 6.249999999619140e-01 0.000000000000000e+00
					2.936961250173077e-01 6.249999999619140e-01 0.000000000000000e+00
					2.099609374871826e-01 4.999999999625001e-01 0.000000000000000e+00
					4.999999999625001e-01 4.999999999625001e-01 0.000000000000000e+00
					2.936961250173077e-01 6.249999999619140e-01 0.000000000000000e+00
					6.249999999619140e-01 6.249999999619140e-01 0.000000000000000e+00
					-1.000000000000000e+00 6.249999999619140e-01 0.000000000000000e+00
					-8.737800178323499e-01 6.249999999619144e-01 0.000000000000000e+00
					-1.000000000000000e+00 7.499999999671875e-01 0.000000000000000e+00
					-8.735363097940095e-01 7.499999999671876e-01 0.000000000000000e+00
					-8.737800178323499e-01 6.249999999619144e-01 0.000000000000000e+00
					-7.402368468916110e-01 6.249999999619145e-01 0.000000000000000e+00
					-8.735363097940095e-01 7.499999999671876e-01 0.000000000000000e+00
					-7.382852050458255e-01 7.499999999671877e-01 0.000000000000000e+00
					-7.402368468916110e-01 6.249999999619145e-01 0.000000000000000e+00
					-5.920456504461004e-01 6.249999999619145e-01 0.000000000000000e+00
					-7.382852050458255e-01 7.499999999671877e-01 0.000000000000000e+00
					-5.854566344851289e-01 7.499999999671877e-01 0.000000000000000e+00
					-5.920456504461004e-01 6.249999999619145e-01 0.000000000000000e+00
					-4.218815917641359e-01 6.249999999619142e-01 0.000000000000000e+00
					-5.854566344851289e-01 7.499999999671877e-01 0.000000000000000e+00
					-4.062605468416017e-01 7.499999999671876e-01 0.000000000000000e+00
					-4.218815917641359e-01 6.249999999619142e-01 0.000000000000000e+00
					-2.224198341140347e-01 6.249999999619141e-01 0.000000000000000e+00
					-4.062605468416017e-01 7.499999999671876e-01 0.000000000000000e+00
					-1.919068908449249e-01 7.499999999671876e-01 0.000000000000000e+00
					-2.224198341140347e-01 6.249999999619141e-01 0.000000000000000e+00
					1.366445923588561e-02 6.249999999619140e-01 0.000000000000000e+00
					-1.919068908449249e-01 7.499999999671876e-01 0.000000000000000e+00
					6.639438477521972e-02 7.499999999671874e-01 0.000000000000000e+00
					1.366445923588561e-02 6.249999999619140e-01 0.000000000000000e+00
					2.936961250173077e-01 6.249999999619140e-01 0.000000000000000e+00
					6.639438477521972e-02 7.499999999671874e-01 0.000000000000000e+00
					3.774333312891510e-01 7.499999999671874e-01 0.000000000000000e+00
					2.936961250173077e-01 6.249999999619140e-01 0.000000000000000e+00
					6.249999999619140e-01 6.249999999619140e-01 0.000000000000000e+00
					3.774333312891510e-01 7.499999999671874e-01 0.000000000000000e+00
					7.499999999671875e-01 7.499999999671875e-01 0.000000000000000e+00
					-1.000000000000000e+00 7.499999999671875e-01 0.000000000000000e+00
					-8.735363097940095e-01 7.499999999671876e-01 0.000000000000000e+00
					-1.000000000000000e+00 8.749999999794922e-01 0.000000000000000e+00
					-8.732920249734288e-01 8.749999999794923e-01 0.000000000000000e+00
					-8.735363097940095e-01 7.499999999671876e-01 0.000000000000000e+00
					-7.382852050458255e-01 7.499999999671877e-01 0.000000000000000e+00
					-8.732920249734288e-01 8.749999999794923e-01 0.000000000000000e+00
					-7.363315856608674e-01 8.749999999794923e-01 0.000000000000000e+00
					-7.382852050458255e-01 7.499999999671877e-01 0.000000000000000e+00
					-5.854566344851289e-01 7.499999999671877e-01 0.000000000000000e+00
					-7.363315856608674e-01 8.749999999794923e-01 0.000000000000000e+00
					-5.788639106380444e-01 8.749999999794923e-01 0.000000000000000e+00
					-5.854566344851289e-01 7.499999999671877e-01 0.000000000000000e+00
					-4.062605468416017e-01 7.499999999671876e-01 0.000000000000000e+00
					-5.788639106380444e-01 8.749999999794923e-01 0.000000000000000e+00
					-3.906342284806885e-01 8.749999999794922e-01 0.000000000000000e+00
					-4.062605468416017e-01 7.499999999671876e-01 0.000000000000000e+00
					-1.919068908449249e-01 7.499999999671876e-01 0.000000000000000e+00
					-3.906342284806885e-01 8.749999999794922e-01 0.000000000000000e+00
					-1.613877677645283e-01 8.749999999794922e-01 0.000000000000000e+00
					-1.919068908449249e-01 7.499999999671876e-01 0.000000000000000e+00
					6.639438477521972e-02 7.499999999671874e-01 0.000000000000000e+00
					-1.613877677645283e-01 8.749999999794922e-01 0.000000000000000e+00
					1.191302429347076e-01 8.749999999794922e-01 0.000000000000000e+00
					6.639438477521972e-02 7.499999999671874e-01 0.000000000000000e+00
					3.774333312891510e-01 7.499999999671874e-01 0.000000000000000e+00
					1.191302429347076e-01 8.749999999794922e-01 0.000000000000000e+00
					4.611745750412907e-01 8.749999999794922e-01 0.000000000000000e+00
					3.774333312891510e-01 7.499999999671874e-01 0.000000000000000e+00
					7.499999999671875e-01 7.499999999671875e-01 0.000000000000000e+00
					4.611745750412907e-01 8.749999999794922e-01 0.000000000000000e+00
					8.749999999794922e-01 8.749999999794922e-01 0.000000000000000e+00
					-1.000000000000000e+00 8.749999999794922e-01 0.000000000000000e+00
					-8.732920249734288e-01 8.749999999794923e-01 0.000000000000000e+00
					-1.000000000000000e+00 1.000000000000000e+00 0.000000000000000e+00
					-8.730468749794923e-01 1.000000000000000e+00 0.000000000000000e+00
					-8.732920249734288e-01 8.749999999794923e-01 0.000000000000000e+00
					-7.363315856608674e-01 8.749999999794923e-01 0.000000000000000e+00
					-8.730468749794923e-01 1.000000000000000e+00 0.000000000000000e+00
					-7.343749999671876e-01 1.000000000000000e+00 0.000000000000000e+00
					-7.363315856608674e-01 8.749999999794923e-01 0.000000000000000e+00
					-5.788639106380444e-01 8.749999999794923e-01 0.000000000000000e+00
					-7.343749999671876e-01 1.000000000000000e+00 0.000000000000000e+00
					-5.722656249619140e-01 1.000000000000000e+00 0.000000000000000e+00
					-5.788639106380444e-01 8.749999999794923e-01 0.000000000000000e+00
					-3.906342284806885e-01 8.749999999794922e-01 0.000000000000000e+00
					-5.722656249619140e-01 1.000000000000000e+00 0.000000000000000e+00
					-3.749999999625000e-01 1.000000000000000e+00 0.000000000000000e+00
					-3.906342284806885e-01 8.749999999794922e-01 0.000000000000000e+00
					-1.613877677645283e-01 8.749999999794922e-01 0.000000000000000e+00
					-3.749999999625000e-01 1.000000000000000e+00 0.000000000000000e+00
					-1.308593749677734e-01 1.000000000000000e+00 0.000000000000000e+00
					-1.613877677645283e-01 8.749999999794922e-01 0.000000000000000e+00
					1.191302429347076e-01 8.749999999794922e-01 0.000000000000000e+00
					-1.308593749677734e-01 1.000000000000000e+00 0.000000000000000e+00
					1.718750000234375e-01 1.000000000000000e+00 0.000000000000000e+00
					1.191302429347076e-01 8.749999999794922e-01 0.000000000000000e+00
					4.611745750412907e-01 8.749999999794922e-01 0.000000000000000e+00
					1.718750000234375e-01 1.000000000000000e+00 0.000000000000000e+00
					5.449218750123046e-01 1.000000000000000e+00 0.000000000000000e+00
					4.611745750412907e-01 8.749999999794922e-01 0.000000000000000e+00
					8.749999999794922e-01 8.749999999794922e-01 0.000000000000000e+00
					5.449218750123046e-01 1.000000000000000e+00 0.000000000000000e+00
					1.000000000000000e+00 1.000000000000000e+00 0.000000000000000e+00
				</DataArray>
			</Points>
			<Cells>
				<DataArray Name="connectivity" type="UInt32" format="ascii">
					0 1 3 2 4 5 7 6 8 9 11 10 12 13 15 14 16 17 19 18 20 21 23 22 24 25 27 26 28 29 31 30 32 33 35 34 36 37 39 38 40 41 43 42 44 45 47 46 48 49 51 50 52 53 55 54 56 57 59 58 60 61 63 62 64 65 67 66 68 69 71 70 72 73 75 74 76 77 79 78 80 81 83 82 84 85 87 86 88 89 91 90 92 93 95 94 96 97 99 98 100 101 103 102 104 105 107 106 108 109 111 110 112 113 115 114 116 117 119 118 120 121 123 122 124 125 127 126 128 129 131 130 132 133 135 134 136 137 139 138 140 141 143 142 144 145 147 146 148 149 151 150 152 153 155 154 156 157 159 158 160 161 163 162 164 165 167 166 168 169 171 170 172 173 175 174 176 177 179 178 180 181 183 182 184 185 187 186 188 189 191 190 192 193 195 194 196 197 199 198 200 201 203 202 204 205 207 206 208 209 211 210 212 213 215 214 216 217 219 218 220 221 223 222 224 225 227 226 228 229 231 230 232 233 235 234 236 237 239 238 240 241 243 242 244 245 247 246 248 249 251 250 252 253 255 254 
				</DataArray>
				<DataArray Name="offsets" type="UInt32" format="ascii">
					4 8 12 16 20 24 28 32 36 40 44 48 52 56 60 64 68 72 76 80 84 88 92 96 100 104 108 112 116 120 124 128 132 136 140 144 148 152 156 160 164 168 172 176 180 184 188 192 196 200 204 208 212 216 220 224 228 232 236 240 244 248 252 256 
				</DataArray>
				<DataArray Name="types" type="UInt8" format="ascii">
					9 9 9 9 9 9 9 9 9 9 9 9 9 9 9 9 9 9 9 9 9 9 9 9 9 9 9 9 9 9 9 9 9 9 9 9 9 9 9 9 9 9 9 9 9 9 9 9 9 9 9 9 9 9 9 9 9 9 9 9 9 9 9 9 
				</DataArray>
			</Cells>
			<PointData Vectors="solution ">
				<DataArray Name="solution" type="Float64" NumberOfComponents="1" format="ascii">
					0.000000000000000e+00 0.000000000000000e+00 0.000000000000000e+00 6.387532133287766e-03 0.000000000000000e+00 0.000000000000000e+00 6.387532133287766e-03 1.643436759914711e-02 0.000000000000000e+00 0.000000000000000e+00 1.643436759914711e-02 2.208349828988757e-02 0.000000000000000e+00 0.000000000000000e+00 2.208349828988757e-02 2.080897802761289e-02 0.000000000000000e+00 0.000000000000000e+00 2.080897802761289e-02 1.395489175636231e-02 0.000000000000000e+00 0.000000000000000e+00 1.395489175636231e-02 5.441595125694264e-03 0.000000000000000e+00 0.000000000000000e+00 5.441595125694264e-03 2.625479634797807e-04 0.000000000000000e+00 0.000000000000000e+00 2.625479634797807e-04 2.276336385482853e-03 0.000000000000000e+00 6.387532133287766e-03 0.000000000000000e+00 2.324582589398078e-02 6.387532133287766e-03 1.643436759914711e-02 2.324582589398078e-02 6.010333665477645e-02 1.643436759914711e-02 2.208349828988757e-02 6.010333665477645e-02 8.049548886429486e-02 2.208349828988757e-02 2.080897802761289e-02 8.049548886429486e-02 7.348300023360657e-02 2.080897802761289e-02 1.395489175636231e-02 7.348300023360657e-02 4.399551814249979e-02 1.395489175636231e-02 5.441595125694264e-03 4.399551814249979e-02 1.099857663865896e-02 5.441595125694264e-03 2.625479634797807e-04 1.099857663865896e-02 9.831514383465303e-04 2.625479634797807e-04 2.276336385482853e-03 9.831514383465303e-04 3.017524088060846e-02 0.000000000000000e+00 2.324582589398078e-02 0.000000000000000e+00 4.408355274194259e-02 2.324582589398078e-02 6.010333665477645e-02 4.408355274194259e-02 1.145267496239795e-01 6.010333665477645e-02 8.049548886429486e-02 1.145267496239795e-01 1.527682513363166e-01 8.049548886429486e-02 7.348300023360657e-02 1.527682513363166e-01 1.346596923215559e-01 7.348300023360657e-02 4.399551814249979e-02 1.346596923215559e-01 7.056593412835813e-02 4.399551814249979e-02 1.099857663865896e-02 7.056593412835813e-02 8.599706876796480e-03 1.099857663865896e-02 9.831514383465303e-04 8.599706876796480e-03 1.599705477847592e-02 9.831514383465303e-04 3.017524088060846e-02 1.599705477847592e-02 1.078682276612743e-01 0.000000000000000e+00 4.408355274194259e-02 0.000000000000000e+00 5.987330100643848e-02 4.408355274194259e-02 1.145267496239795e-01 5.987330100643848e-02 1.562735680816310e-01 1.145267496239795e-01 1.527682513363166e-01 1.562735680816310e-01 2.074744084450860e-01 1.527682513363166e-01 1.346596923215559e-01 2.074744084450860e-01 1.759865433387087e-01 1.346596923215559e-01 7.056593412835813e-02 1.759865433387087e-01 7.881817491340809e-02 7.056593412835813e-02 8.599706876796480e-03 7.881817491340809e-02 2.124250443041392e-03 8.599706876796480e-03 1.599705477847592e-02 2.124250443041392e-03 5.655580409756139e-02 1.599705477847592e-02 1.078682276612743e-01 5.655580409756139e-02 1.974064807548043e-01 0.000000000000000e+00 5.987330100643848e-02 0.000000000000000e+00 6.194680643944551e-02 5.987330100643848e-02 1.562735680816310e-01 6.194680643944551e-02 1.624200481055664e-01 1.562735680816310e-01 2.074744084450860e-01 1.624200481055664e-01 2.144740103636645e-01 2.074744084450860e-01 1.759865433387087e-01 2.144740103636645e-01 1.744514232350415e-01 1.759865433387087e-01 7.881817491340809e-02 1.744514232350415e-01 6.483066252645184e-02 7.881817491340809e-02 2.124250443041392e-03 6.483066252645184e-02 2.349956400654464e-04 2.124250443041392e-03 5.655580409756139e-02 2.349956400654464e-04 1.042770880054276e-01 5.655580409756139e-02 1.974064807548043e-01 1.042770880054276e-01 2.098402752666665e-01 0.000000000000000e+00 6.194680643944551e-02 0.000000000000000e+00 4.611963041317278e-02 6.194680643944551e-02 1.624200481055664e-01 4.611963041317278e-02 1.214567819480950e-01 1.624200481055664e-01 2.144740103636645e-01 1.214567819480950e-01 1.594111839816455e-01 2.144740103636645e-01 1.744514232350415e-01 1.594111839816455e-01 1.238852086208529e-01 1.744514232350415e-01 6.483066252645184e-02 1.238852086208529e-01 3.677908526170989e-02 6.483066252645184e-02 2.349956400654464e-04 3.677908526170989e-02 4.667510422229495e-03 2.349956400654464e-04 1.042770880054276e-01 4.667510422229495e-03 1.126622150335417e-01 1.042770880054276e-01 2.098402752666665e-01 1.126622150335417e-01 1.148735949570655e-01 0.000000000000000e+00 4.611963041317278e-02 0.000000000000000e+00 1.807031500476432e-02 4.611963041317278e-02 1.214567819480950e-01 1.807031500476432e-02 4.779284923711864e-02 1.214567819480950e-01 1.594111839816455e-01 4.779284923711864e-02 6.230616564964517e-02 1.594111839816455e-01 1.238852086208529e-01 6.230616564964517e-02 4.608727991131815e-02 1.238852086208529e-01 3.677908526170989e-02 4.608727991131815e-02 1.039079049515171e-02 3.677908526170989e-02 4.667510422229495e-03 1.039079049515171e-02 5.824752529364272e-03 4.667510422229495e-03 1.126622150335417e-01 5.824752529364272e-03 5.569601632352077e-02 1.126622150335417e-01 1.148735949570655e-01 5.569601632352077e-02 1.945128166811330e-02 0.000000000000000e+00 1.807031500476432e-02 0.000000000000000e+00 0.000000000000000e+00 1.807031500476432e-02 4.779284923711864e-02 0.000000000000000e+00 0.000000000000000e+00 4.779284923711864e-02 6.230616564964517e-02 0.000000000000000e+00 0.000000000000000e+00 6.230616564964517e-02 4.608727991131815e-02 0.000000000000000e+00 0.000000000000000e+00 4.608727991131815e-02 1.039079049515171e-02 0.000000000000000e+00 0.000000000000000e+00 1.039079049515171e-02 5.824752529364272e-03 0.000000000000000e+00 0.000000000000000e+00 5.824752529364272e-03 5.569601632352077e-02 0.000000000000000e+00 0.000000000000000e+00 5.569601632352077e-02 1.945128166811330e-02 0.000000000000000e+00 0.000000000000000e+00 
				</DataArray>
			</PointData>
			<CellData>
			</CellData>
		</Piece>
	</UnstructuredGrid>
</VTKFile>