<?xml version="1.0"?>
<VTKFile type="UnstructuredGrid" byte_order="LittleEndian">
	<UnstructuredGrid>
		<Piece NumberOfPoints="256" NumberOfCells="64">
			<Points>
				<DataArray type="Float64" NumberOfComponents="3" format="ascii">
					0.000000000000000e+00 0.000000000000000e+00 0.000000000000000e+00
					0.000000000000000e+00 -1.249999999876953e-01 0.000000000000000e+00
					1.249999999876953e-01 1.249999999876953e-01 0.000000000000000e+00
					1.249999999876954e-01 -4.125976562093850e-02 0.000000000000000e+00
					0.000000000000000e+00 -1.249999999876953e-01 0.000000000000000e+00
					0.000000000000000e+00 -2.499999999765626e-01 0.000000000000000e+00
					1.249999999876954e-01 -4.125976562093850e-02 0.000000000000000e+00
					1.249999999876954e-01 -1.972656249817536e-01 0.000000000000000e+00
					0.000000000000000e+00 -2.499999999765626e-01 0.000000000000000e+00
					0.000000000000000e+00 -3.749999999677735e-01 0.000000000000000e+00
					1.249999999876954e-01 -1.972656249817536e-01 0.000000000000000e+00
					1.249999999876954e-01 -3.444824218457776e-01 0.000000000000000e+00
					0.000000000000000e+00 -3.749999999677735e-01 0.000000000000000e+00
					0.000000000000000e+00 -4.999999999625001e-01 0.000000000000000e+00
					1.249999999876954e-01 -3.444824218457776e-01 0.000000000000000e+00
					1.249999999876954e-01 -4.843749999640383e-01 0.000000000000000e+00
					0.000000000000000e+00 -4.999999999625001e-01 0.000000000000000e+00
					0.000000000000000e+00 -6.249999999619140e-01 0.000000000000000e+00
					1.249999999876954e-01 -4.843749999640383e-01 0.000000000000000e+00
					1.249999999876954e-01 -6.184082030875631e-01 0.000000000000000e+00
					0.000000000000000e+00 -6.249999999619140e-01 0.000000000000000e+00
					0.000000000000000e+00 -7.499999999671875e-01 0.000000000000000e+00
					1.249999999876954e-01 -6.184082030875631e-01 0.000000000000000e+00
					1.249999999876953e-01 -7.480468749673799e-01 0.000000000000000e+00
					0.000000000000000e+00 -7.499999999671875e-01 0.000000000000000e+00
					0.000000000000000e+00 -8.749999999794922e-01 0.000000000000000e+00
					1.249999999876953e-01 -7.480468749673799e-01 0.000000000000000e+00
					1.249999999876953e-01 -8.747558593545164e-01 0.000000000000000e+00
					0.000000000000000e+00 -8.749999999794922e-01 0.000000000000000e+00
					0.000000000000000e+00 -1.000000000000000e+00 0.000000000000000e+00
					1.249999999876953e-01 -8.747558593545164e-01 0.000000000000000e+00
					1.249999999876953e-01 -1.000000000000000e+00 0.000000000000000e+00
					1.249999999876953e-01 1.249999999876953e-01 0.000000000000000e+00
					1.249999999876954e-01 -4.125976562093850e-02 0.000000000000000e+00
					2.499999999765626e-01 2.499999999765626e-01 0.000000000000000e+00
					2.499999999765626e-01 4.248046874660341e-02 0.000000000000000e+00
					1.249999999876954e-01 -4.125976562093850e-02 0.000000000000000e+00
					1.249999999876954e-01 -1.972656249817536e-01 0.000000000000000e+00
					2.499999999765626e-01 4.248046874660341e-02 0.000000000000000e+00
					2.499999999765626e-01 -1.445312499864503e-01 0.000000000000000e+00
					1.249999999876954e-01 -1.972656249817536e-01 0.000000000000000e+00
					1.249999999876954e-01 -3.444824218457776e-01 0.000000000000000e+00
					2.499999999765626e-01 -1.445312499864503e-01 0.000000000000000e+00
					2.499999999765626e-01 -3.139648437234955e-01 0.000000000000000e+00
					1.249999999876954e-01 -3.444824218457776e-01 0.000000000000000e+00
					1.249999999876954e-01 -4.843749999640383e-01 0.000000000000000e+00
					2.499999999765626e-01 -3.139648437234955e-01 0.000000000000000e+00
					2.499999999765626e-01 -4.687499999654299e-01 0.000000000000000e+00
					1.249999999876954e-01 -4.843749999640383e-01 0.000000000000000e+00
					1.249999999876954e-01 -6.184082030875631e-01 0.000000000000000e+00
					2.499999999765626e-01 -4.687499999654299e-01 0.000000000000000e+00
					2.499999999765626e-01 -6.118164062131501e-01 0.000000000000000e+00
					1.249999999876954e-01 -6.184082030875631e-01 0.000000000000000e+00
					1.249999999876953e-01 -7.480468749673799e-01 0.000000000000000e+00
					2.499999999765626e-01 -6.118164062131501e-01 0.000000000000000e+00
					2.499999999765625e-01 -7.460937499675538e-01 0.000000000000000e+00
					1.249999999876953e-01 -7.480468749673799e-01 0.000000000000000e+00
					1.249999999876953e-01 -8.747558593545164e-01 0.000000000000000e+00
					2.499999999765625e-01 -7.460937499675538e-01 0.000000000000000e+00
					2.499999999765625e-01 -8.745117187295381e-01 0.000000000000000e+00
					1.249999999876953e-01 -8.747558593545164e-01 0.000000000000000e+00
					1.249999999876953e-01 -1.000000000000000e+00 0.000000000000000e+00
					2.499999999765625e-01 -8.745117187295381e-01 0.000000000000000e+00
					2.499999999765626e-01 -1.000000000000000e+00 0.000000000000000e+00
					2.499999999765626e-01 2.499999999765626e-01 0.000000000000000e+00
					2.499999999765626e-01 4.248046874660341e-02 0.000000000000000e+00
					3.749999999677735e-01 3.749999999677735e-01 0.000000000000000e+00
					3.749999999677737e-01 1.262207031157154e-01 0.000000000000000e+00
					2.499999999765626e-01 4.248046874660341e-02 0.000000000000000e+00
					2.499999999765626e-01 -1.445312499864503e-01 0.000000000000000e+00
					3.749999999677737e-01 1.262207031157154e-01 0.000000000000000e+00
					3.749999999677737e-01 -9.179687499015814e-02 0.000000000000000e+00
					2.499999999765626e-01 -1.445312499864503e-01 0.000000000000000e+00
					2.499999999765626e-01 -3.139648437234955e-01 0.000000000000000e+00
					3.749999999677737e-01 -9.179687499015814e-02 0.000000000000000e+00
					3.749999999677737e-01 -2.834472656006414e-01 0.000000000000000e+00
					2.499999999765626e-01 -3.139648437234955e-01 0.000000000000000e+00
					2.499999999765626e-01 -4.687499999654299e-01 0.000000000000000e+00
					3.749999999677737e-01 -2.834472656006414e-01 0.000000000000000e+00
					3.749999999677737e-01 -4.531249999665285e-01 0.000000000000000e+00
					2.499999999765626e-01 -4.687499999654299e-01 0.000000000000000e+00
					2.499999999765626e-01 -6.118164062131501e-01 0.000000000000000e+00
					3.749999999677737e-01 -4.531249999665285e-01 0.000000000000000e+00
					3.749999999677737e-01 -6.052246093386137e-01 0.000000000000000e+00
					2.499999999765626e-01 -6.118164062131501e-01 0.000000000000000e+00
					2.499999999765625e-01 -7.460937499675538e-01 0.000000000000000e+00
					3.749999999677737e-01 -6.052246093386137e-01 0.000000000000000e+00
					3.749999999677735e-01 -7.441406249676912e-01 0.000000000000000e+00
					2.499999999765625e-01 -7.460937499675538e-01 0.000000000000000e+00
					2.499999999765625e-01 -8.745117187295381e-01 0.000000000000000e+00
					3.749999999677735e-01 -7.441406249676912e-01 0.000000000000000e+00
					3.749999999677735e-01 -8.742675781045552e-01 0.000000000000000e+00
					2.499999999765625e-01 -8.745117187295381e-01 0.000000000000000e+00
					2.499999999765626e-01 -1.000000000000000e+00 0.000000000000000e+00
					3.749999999677735e-01 -8.742675781045552e-01 0.000000000000000e+00
					3.749999999677735e-01 -1.000000000000000e+00 0.000000000000000e+00
					3.749999999677735e-01 3.749999999677735e-01 0.000000000000000e+00
					3.749999999677737e-01 1.262207031157154e-01 0.000000000000000e+00
					4.999999999625001e-01 4.999999999625001e-01 0.000000000000000e+00
					4.999999999625002e-01 2.099609374871827e-01 0.000000000000000e+00
					3.749999999677737e-01 1.262207031157154e-01 0.000000000000000e+00
					3.749999999677737e-01 -9.179687499015814e-02 0.000000000000000e+00
					4.999999999625002e-01 2.099609374871827e-01 0.000000000000000e+00
					4.999999999625003e-01 -3.906249999238286e-02 0.000000000000000e+00
					3.749999999677737e-01 -9.179687499015814e-02 0.000000000000000e+00
					3.749999999677737e-01 -2.834472656006414e-01 0.000000000000000e+00
					4.999999999625003e-01 -3.906249999238286e-02 0.000000000000000e+00
					4.999999999625002e-01 -2.529296874769288e-01 0.000000000000000e+00
					3.749999999677737e-01 -2.834472656006414e-01 0.000000000000000e+00
					3.749999999677737e-01 -4.531249999665285e-01 0.000000000000000e+00
					4.999999999625002e-01 -2.529296874769288e-01 0.000000000000000e+00
					4.999999999625002e-01 -4.374999999671877e-01 0.000000000000000e+00
					3.749999999677737e-01 -4.531249999665285e-01 0.000000000000000e+00
					3.749999999677737e-01 -6.052246093386137e-01 0.000000000000000e+00
					4.999999999625002e-01 -4.374999999671877e-01 0.000000000000000e+00
					4.999999999625002e-01 -5.986328124638918e-01 0.000000000000000e+00
					3.749999999677737e-01 -6.052246093386137e-01 0.000000000000000e+00
					3.749999999677735e-01 -7.441406249676912e-01 0.000000000000000e+00
					4.999999999625002e-01 -5.986328124638918e-01 0.000000000000000e+00
					4.999999999625001e-01 -7.421874999677736e-01 0.000000000000000e+00
					3.749999999677735e-01 -7.441406249676912e-01 0.000000000000000e+00
					3.749999999677735e-01 -8.742675781045552e-01 0.000000000000000e+00
					4.999999999625001e-01 -7.421874999677736e-01 0.000000000000000e+00
					4.999999999625001e-01 -8.740234374795656e-01 0.000000000000000e+00
					3.749999999677735e-01 -8.742675781045552e-01 0.000000000000000e+00
					3.749999999677735e-01 -1.000000000000000e+00 0.000000000000000e+00
					4.999999999625001e-01 -8.740234374795656e-01 0.000000000000000e+00
					4.999999999625001e-01 -1.000000000000000e+00 0.000000000000000e+00
					4.999999999625001e-01 4.999999999625001e-01 0.000000000000000e+00
					4.999999999625002e-01 2.099609374871827e-01 0.000000000000000e+00
					6.249999999619140e-01 6.249999999619140e-01 0.000000000000000e+00
					6.249999999619144e-01 2.937011718617901e-01 0.000000000000000e+00
					4.999999999625002e-01 2.099609374871827e-01 0.000000000000000e+00
					4.999999999625003e-01 -3.906249999238286e-02 0.000000000000000e+00
					6.249999999619144e-01 2.937011718617901e-01 0.000000000000000e+00
					6.249999999619145e-01 1.367187500736998e-02 0.000000000000000e+00
					4.999999999625003e-01 -3.906249999238286e-02 0.000000000000000e+00
					4.999999999625002e-01 -2.529296874769288e-01 0.000000000000000e+00
					6.249999999619145e-01 1.367187500736998e-02 0.000000000000000e+00
					6.249999999619145e-01 -2.224121093520718e-01 0.000000000000000e+00
					4.999999999625002e-01 -2.529296874769288e-01 0.000000000000000e+00
					4.999999999625002e-01 -4.374999999671877e-01 0.000000000000000e+00
					6.249999999619145e-01 -2.224121093520718e-01 0.000000000000000e+00
					6.249999999619142e-01 -4.218749999672609e-01 0.000000000000000e+00
					4.999999999625002e-01 -4.374999999671877e-01 0.000000000000000e+00
					4.999999999625002e-01 -5.986328124638918e-01 0.000000000000000e+00
					6.249999999619142e-01 -4.218749999672609e-01 0.000000000000000e+00
					6.249999999619141e-01 -5.920410155889226e-01 0.000000000000000e+00
					4.999999999625002e-01 -5.986328124638918e-01 0.000000000000000e+00
					4.999999999625001e-01 -7.421874999677736e-01 0.000000000000000e+00
					6.249999999619141e-01 -5.920410155889226e-01 0.000000000000000e+00
					6.249999999619140e-01 -7.402343749677827e-01 0.000000000000000e+00
					4.999999999625001e-01 -7.421874999677736e-01 0.000000000000000e+00
					4.999999999625001e-01 -8.740234374795656e-01 0.000000000000000e+00
					6.249999999619140e-01 -7.402343749677827e-01 0.000000000000000e+00
					6.249999999619140e-01 -8.737792968545667e-01 0.000000000000000e+00
					4.999999999625001e-01 -8.740234374795656e-01 0.000000000000000e+00
					4.999999999625001e-01 -1.000000000000000e+00 0.000000000000000e+00
					6.249999999619140e-01 -8.737792968545667e-01 0.000000000000000e+00
					6.249999999619140e-01 -1.000000000000000e+00 0.000000000000000e+00
					6.249999999619140e-01 6.249999999619140e-01 0.000000000000000e+00
					6.249999999619144e-01 2.937011718617901e-01 0.000000000000000e+00
					7.499999999671875e-01 7.499999999671875e-01 0.000000000000000e+00
					7.499999999671876e-01 3.774414062403229e-01 0.000000000000000e+00
					6.249999999619144e-01 2.937011718617901e-01 0.000000000000000e+00
					6.249999999619145e-01 1.367187500736998e-02 0.000000000000000e+00
					7.499999999671876e-01 3.774414062403229e-01 0.000000000000000e+00
					7.499999999671877e-01 6.640625000959471e-02 0.000000000000000e+00
					6.249999999619145e-01 1.367187500736998e-02 0.000000000000000e+00
					6.249999999619145e-01 -2.224121093520718e-01 0.000000000000000e+00
					7.499999999671877e-01 6.640625000959471e-02 0.000000000000000e+00
					7.499999999671877e-01 -1.918945312257843e-01 0.000000000000000e+00
					6.249999999619145e-01 -2.224121093520718e-01 0.000000000000000e+00
					6.249999999619142e-01 -4.218749999672609e-01 0.000000000000000e+00
					7.499999999671877e-01 -1.918945312257843e-01 0.000000000000000e+00
					7.499999999671876e-01 -4.062499999666017e-01 0.000000000000000e+00
					6.249999999619142e-01 -4.218749999672609e-01 0.000000000000000e+00
					6.249999999619141e-01 -5.920410155889226e-01 0.000000000000000e+00
					7.499999999671876e-01 -4.062499999666017e-01 0.000000000000000e+00
					7.499999999671876e-01 -5.854492187136444e-01 0.000000000000000e+00
					6.249999999619141e-01 -5.920410155889226e-01 0.000000000000000e+00
					6.249999999619140e-01 -7.402343749677827e-01 0.000000000000000e+00
					7.499999999671876e-01 -5.854492187136444e-01 0.000000000000000e+00
					7.499999999671874e-01 -7.382812499677004e-01 0.000000000000000e+00
					6.249999999619140e-01 -7.402343749677827e-01 0.000000000000000e+00
					6.249999999619140e-01 -8.737792968545667e-01 0.000000000000000e+00
					7.499999999671874e-01 -7.382812499677004e-01 0.000000000000000e+00
					7.499999999671874e-01 -8.735351562295564e-01 0.000000000000000e+00
					6.249999999619140e-01 -8.737792968545667e-01 0.000000000000000e+00
					6.249999999619140e-01 -1.000000000000000e+00 0.000000000000000e+00
					7.499999999671874e-01 -8.735351562295564e-01 0.000000000000000e+00
					7.499999999671875e-01 -1.000000000000000e+00 0.000000000000000e+00
					7.499999999671875e-01 7.499999999671875e-01 0.000000000000000e+00
					7.499999999671876e-01 3.774414062403229e-01 0.000000000000000e+00
					8.749999999794922e-01 8.749999999794922e-01 0.000000000000000e+00
					8.749999999794923e-01 4.611816406235660e-01 0.000000000000000e+00
					7.499999999671876e-01 3.774414062403229e-01 0.000000000000000e+00
					7.499999999671877e-01 6.640625000959471e-02 0.000000000000000e+00
					8.749999999794923e-01 4.611816406235660e-01 0.000000000000000e+00
					8.749999999794923e-01 1.191406250147858e-01 0.000000000000000e+00
					7.499999999671877e-01 6.640625000959471e-02 0.000000000000000e+00
					7.499999999671877e-01 -1.918945312257843e-01 0.000000000000000e+00
					8.749999999794923e-01 1.191406250147858e-01 0.000000000000000e+00
					8.749999999794923e-01 -1.613769530977802e-01 0.000000000000000e+00
					7.499999999671877e-01 -1.918945312257843e-01 0.000000000000000e+00
					7.499999999671876e-01 -4.062499999666017e-01 0.000000000000000e+00
					8.749999999794923e-01 -1.613769530977802e-01 0.000000000000000e+00
					8.749999999794922e-01 -3.906249999650635e-01 0.000000000000000e+00
					7.499999999671876e-01 -4.062499999666017e-01 0.000000000000000e+00
					7.499999999671876e-01 -5.854492187136444e-01 0.000000000000000e+00
					8.749999999794922e-01 -3.906249999650635e-01 0.000000000000000e+00
					8.749999999794922e-01 -5.788574218379956e-01 0.000000000000000e+00
					7.499999999671876e-01 -5.854492187136444e-01 0.000000000000000e+00
					7.499999999671874e-01 -7.382812499677004e-01 0.000000000000000e+00
					8.749999999794922e-01 -5.788574218379956e-01 0.000000000000000e+00
					8.749999999794922e-01 -7.363281249675080e-01 0.000000000000000e+00
					7.499999999671874e-01 -7.382812499677004e-01 0.000000000000000e+00
					7.499999999671874e-01 -8.735351562295564e-01 0.000000000000000e+00
					8.749999999794922e-01 -7.363281249675080e-01 0.000000000000000e+00
					8.749999999794922e-01 -8.732910156045322e-01 0.000000000000000e+00
					7.499999999671874e-01 -8.735351562295564e-01 0.000000000000000e+00
					7.499999999671875e-01 -1.000000000000000e+00 0.000000000000000e+00
					8.749999999794922e-01 -8.732910156045322e-01 0.000000000000000e+00
					8.749999999794922e-01 -1.000000000000000e+00 0.000000000000000e+00
					8.749999999794922e-01 8.749999999794922e-01 0.000000000000000e+00
					8.749999999794923e-01 4.611816406235660e-01 0.000000000000000e+00
					1.000000000000000e+00 1.000000000000000e+00 0.000000000000000e+00
					1.000000000000000e+00 5.449218750123047e-01 0.000000000000000e+00
					8.749999999794923e-01 4.611816406235660e-01 0.000000000000000e+00
					8.749999999794923e-01 1.191406250147858e-01 0.000000000000000e+00
					1.000000000000000e+00 5.449218750123047e-01 0.000000000000000e+00
					1.000000000000000e+00 1.718750000234375e-01 0.000000000000000e+00
					8.749999999794923e-01 1.191406250147858e-01 0.000000000000000e+00
					8.749999999794923e-01 -1.613769530977802e-01 0.000000000000000e+00
					1.000000000000000e+00 1.718750000234375e-01 0.000000000000000e+00
					1.000000000000000e+00 -1.308593749677734e-01 0.000000000000000e+00
					8.749999999794923e-01 -1.613769530977802e-01 0.000000000000000e+00
					8.749999999794922e-01 -3.906249999650635e-01 0.000000000000000e+00
					1.000000000000000e+00 -1.308593749677734e-01 0.000000000000000e+00
					1.000000000000000e+00 -3.749999999625000e-01 0.000000000000000e+00
					8.749999999794922e-01 -3.906249999650635e-01 0.000000000000000e+00
					8.749999999794922e-01 -5.788574218379956e-01 0.000000000000000e+00
					1.000000000000000e+00 -3.749999999625000e-01 0.000000000000000e+00
					1.000000000000000e+00 -5.722656249619140e-01 0.000000000000000e+00
					8.749999999794922e-01 -5.788574218379956e-01 0.000000000000000e+00
					8.749999999794922e-01 -7.363281249675080e-01 0.000000000000000e+00
					1.000000000000000e+00 -5.722656249619140e-01 0.000000000000000e+00
					1.000000000000000e+00 -7.343749999671875e-01 0.000000000000000e+00
					8.749999999794922e-01 -7.363281249675080e-01 0.000000000000000e+00
					8.749999999794922e-01 -8.732910156045322e-01 0.000000000000000e+00
					1.000000000000000e+00 -7.343749999671875e-01 0.000000000000000e+00
					1.000000000000000e+00 -8.730468749794922e-01 0.000000000000000e+00
					8.749999999794922e-01 -8.732910156045322e-01 0.000000000000000e+00
					8.749999999794922e-01 -1.000000000000000e+00 0.000000000000000e+00
					1.000000000000000e+00 -8.730468749794922e-01 0.000000000000000e+00
					1.000000000000000e+00 -1.000000000000000e+00 0.000000000000000e+00
				</DataArray>
			</Points>
			<Cells>
				<DataArray Name="connectivity" type="UInt32" format="ascii">
					0 1 3 2 4 5 7 6 8 9 11 10 12 13 15 14 16 17 19 18 20 21 23 22 24 25 27 26 28 29 31 30 32 33 35 34 36 37 39 38 40 41 43 42 44 45 47 46 48 49 51 50 52 53 55 54 56 57 59 58 60 61 63 62 64 65 67 66 68 69 71 70 72 73 75 74 76 77 79 78 80 81 83 82 84 85 87 86 88 89 91 90 92 93 95 94 96 97 99 98 100 101 103 102 104 105 107 106 108 109 111 110 112 113 115 114 116 117 119 118 120 121 123 122 124 125 127 126 128 129 131 130 132 133 135 134 136 137 139 138 140 141 143 142 144 145 147 146 148 149 151 150 152 153 155 154 156 157 159 158 160 161 163 162 164 165 167 166 168 169 171 170 172 173 175 174 176 177 179 178 180 181 183 182 184 185 187 186 188 189 191 190 192 193 195 194 196 197 199 198 200 201 203 202 204 205 207 206 208 209 211 210 212 213 215 214 216 217 219 218 220 221 223 222 224 225 227 226 228 229 231 230 232 233 235 234 236 237 239 238 240 241 243 242 244 245 247 246 248 249 251 250 252 253 255 254 
				</DataArray>
				<DataArray Name="offsets" type="UInt32" format="ascii">
					4 8 12 16 20 24 28 32 36 40 44 48 52 56 60 64 68 72 76 80 84 88 92 96 100 104 108 112 116 120 124 128 132 136 140 144 148 152 156 160 164 168 172 176 180 184 188 192 196 200 204 208 212 216 220 224 228 232 236 240 244 248 252 256 
				</DataArray>
				<DataArray Name="types" type="UInt8" format="ascii">
					9 9 9 9 9 9 9 9 9 9 9 9 9 9 9 9 9 9 9 9 9 9 9 9 9 9 9 9 9 9 9 9 9 9 9 9 9 9 9 9 9 9 9 9 9 9 9 9 9 9 9 9 9 9 9 9 9 9 9 9 9 9 9 9 
				</DataArray>
			</Cells>
			<PointData Vectors="solution ">
				<DataArray Name="solution" type="Float64" NumberOfComponents="1" format="ascii">
					0.000000000000000e+00 0.000000000000000e+00 2.279573020245432e-03 2.641607267615518e-04 0.000000000000000e+00 0.000000000000000e+00 2.641607267615518e-04 5.442290696319938e-03 0.000000000000000e+00 0.000000000000000e+00 5.442290696319938e-03 1.395538752984268e-02 0.000000000000000e+00 0.000000000000000e+00 1.395538752984268e-02 2.080911260426212e-02 0.000000000000000e+00 0.000000000000000e+00 2.080911260426212e-02 2.208326615263864e-02 0.000000000000000e+00 0.000000000000000e+00 2.208326615263864e-02 1.643407197764180e-02 0.000000000000000e+00 0.000000000000000e+00 1.643407197764180e-02 6.387434783603570e-03 0.000000000000000e+00 0.000000000000000e+00 6.387434783603570e-03 0.000000000000000e+00 2.279573020245432e-03 2.641607267615518e-04 3.020370779590234e-02 9.886597328691330e-04 2.641607267615518e-04 5.442290696319938e-03 9.886597328691330e-04 1.100163428494698e-02 5.442290696319938e-03 1.395538752984268e-02 1.100163428494698e-02 4.399799839862036e-02 1.395538752984268e-02 2.080911260426212e-02 4.399799839862036e-02 7.348397092892957e-02 2.080911260426212e-02 2.208326615263864e-02 7.348397092892957e-02 8.049474450844911e-02 2.208326615263864e-02 1.643407197764180e-02 8.049474450844911e-02 6.010218376307427e-02 1.643407197764180e-02 6.387434783603570e-03 6.010218376307427e-02 2.324543361769241e-02 6.387434783603570e-03 0.000000000000000e+00 2.324543361769241e-02 0.000000000000000e+00 3.020370779590234e-02 9.886597328691330e-04 1.078946480640437e-01 1.601454663647225e-02 9.886597328691330e-04 1.100163428494698e-02 1.601454663647225e-02 8.604626726828886e-03 1.100163428494698e-02 4.399799839862036e-02 8.604626726828886e-03 7.056902091176029e-02 4.399799839862036e-02 7.348397092892957e-02 7.056902091176029e-02 1.346608671298763e-01 7.348397092892957e-02 8.049474450844911e-02 1.346608671298763e-01 1.527673116178871e-01 8.049474450844911e-02 6.010218376307427e-02 1.527673116178871e-01 1.145253158303956e-01 6.010218376307427e-02 2.324543361769241e-02 1.145253158303956e-01 4.408306318650206e-02 2.324543361769241e-02 0.000000000000000e+00 4.408306318650206e-02 0.000000000000000e+00 1.078946480640437e-01 1.601454663647225e-02 1.976263595082469e-01 5.658198944771340e-02 1.601454663647225e-02 8.604626726828886e-03 5.658198944771340e-02 2.129442271927536e-03 8.604626726828886e-03 7.056902091176029e-02 2.129442271927536e-03 7.881811957276916e-02 7.056902091176029e-02 1.346608671298763e-01 7.881811957276916e-02 1.759856798603359e-01 1.346608671298763e-01 1.527673116178871e-01 1.759856798603359e-01 2.074737311348334e-01 1.527673116178871e-01 1.145253158303956e-01 2.074737311348334e-01 1.562732122481279e-01 1.145253158303956e-01 4.408306318650206e-02 1.562732122481279e-01 5.987319646744483e-02 4.408306318650206e-02 0.000000000000000e+00 5.987319646744483e-02 0.000000000000000e+00 1.976263595082469e-01 5.658198944771340e-02 2.098513497421201e-01 1.043172698033533e-01 5.658198944771340e-02 2.129442271927536e-03 1.043172698033533e-01 2.402292530418989e-04 2.129442271927536e-03 7.881811957276916e-02 2.402292530418989e-04 6.482659140859498e-02 7.881811957276916e-02 1.759856798603359e-01 6.482659140859498e-02 1.744474883537988e-01 1.759856798603359e-01 2.074737311348334e-01 1.744474883537988e-01 2.144736446845148e-01 2.074737311348334e-01 1.562732122481279e-01 2.144736446845148e-01 1.624212740800165e-01 1.562732122481279e-01 5.987319646744483e-02 1.624212740800165e-01 6.194727312772721e-02 5.987319646744483e-02 0.000000000000000e+00 6.194727312772721e-02 0.000000000000000e+00 2.098513497421201e-01 1.043172698033533e-01 1.155552518857607e-01 1.126843592171559e-01 1.043172698033533e-01 2.402292530418989e-04 1.126843592171559e-01 4.668397815909628e-03 2.402292530418989e-04 6.482659140859498e-02 4.668397815909628e-03 3.677382120770520e-02 6.482659140859498e-02 1.744474883537988e-01 3.677382120770520e-02 1.238806378528712e-01 1.744474883537988e-01 2.144736446845148e-01 1.238806378528712e-01 1.594109469509471e-01 2.144736446845148e-01 1.624212740800165e-01 1.594109469509471e-01 1.214584042488151e-01 1.624212740800165e-01 6.194727312772721e-02 1.214584042488151e-01 4.612024104746796e-02 6.194727312772721e-02 0.000000000000000e+00 4.612024104746796e-02 0.000000000000000e+00 1.155552518857607e-01 1.126843592171559e-01 1.876138701548753e-02 5.560458213097677e-02 1.126843592171559e-01 4.668397815909628e-03 5.560458213097677e-02 5.814328278347766e-03 4.668397815909628e-03 3.677382120770520e-02 5.814328278347766e-03 1.038977370834450e-02 3.677382120770520e-02 1.238806378528712e-01 1.038977370834450e-02 4.608590589332524e-02 1.238806378528712e-01 1.594109469509471e-01 4.608590589332524e-02 6.230606060256283e-02 1.594109469509471e-01 1.214584042488151e-01 6.230606060256283e-02 4.779340083396718e-02 1.214584042488151e-01 4.612024104746796e-02 4.779340083396718e-02 1.807052637046188e-02 4.612024104746796e-02 0.000000000000000e+00 1.807052637046188e-02 0.000000000000000e+00 1.876138701548753e-02 5.560458213097677e-02 0.000000000000000e+00 0.000000000000000e+00 5.560458213097677e-02 5.814328278347766e-03 0.000000000000000e+00 0.000000000000000e+00 5.814328278347766e-03 1.038977370834450e-02 0.000000000000000e+00 0.000000000000000e+00 1.038977370834450e-02 4.608590589332524e-02 0.000000000000000e+00 0.000000000000000e+00 4.608590589332524e-02 6.230606060256283e-02 0.000000000000000e+00 0.000000000000000e+00 6.230606060256283e-02 4.779340083396718e-02 0.000000000000000e+00 0.000000000000000e+00 4.779340083396718e-02 1.807052637046188e-02 0.000000000000000e+00 0.000000000000000e+00 1.807052637046188e-02 0.000000000000000e+00 0.000000000000000e+00 0.000000000000000e+00 
				</DataArray>
			</PointData>
			<CellData>
			</CellData>
		</Piece>
	</UnstructuredGrid>
</VTKFile>