<?xml version="1.0"?>
<VTKFile type="UnstructuredGrid" byte_order="LittleEndian">
	<UnstructuredGrid>
		<Piece NumberOfPoints="64" NumberOfCells="16">
			<Points>
				<DataArray type="Float64" NumberOfComponents="3" format="ascii">
					-1.000000000000000e+00 0.000000000000000e+00 0.000000000000000e+00
					-7.499999999671876e-01 0.000000000000000e+00 0.000000000000000e+00
					-1.000000000000000e+00 2.499999999765626e-01 0.000000000000000e+00
					-7.460897948894287e-01 2.499999999765626e-01 0.000000000000000e+00
					-7.499999999671876e-01 0.000000000000000e+00 0.000000000000000e+00
					-4.999999999625000e-01 0.000000000000000e+00 0.000000000000000e+00
					-7.460897948894287e-01 2.499999999765626e-01 0.000000000000000e+00
					-4.687394530904298e-01 2.499999999765626e-01 0.000000000000000e+00
					-4.999999999625000e-01 0.000000000000000e+00 0.000000000000000e+00
					-2.499999999765625e-01 0.000000000000000e+00 0.000000000000000e+00
					-4.687394530904298e-01 2.499999999765626e-01 0.000000000000000e+00
					-1.445193847520752e-01 2.499999999765626e-01 0.000000000000000e+00
					-2.499999999765625e-01 0.000000000000000e+00 0.000000000000000e+00
					0.000000000000000e+00 0.000000000000000e+00 0.000000000000000e+00
					-1.445193847520752e-01 2.499999999765626e-01 0.000000000000000e+00
					2.499999999765626e-01 2.499999999765626e-01 0.000000000000000e+00
					-1.000000000000000e+00 2.499999999765626e-01 0.000000000000000e+00
					-7.460897948894287e-01 2.499999999765626e-01 0.000000000000000e+00
					-1.000000000000000e+00 4.999999999625001e-01 0.000000000000000e+00
					-7.421874999677737e-01 4.999999999625001e-01 0.000000000000000e+00
					-7.460897948894287e-01 2.499999999765626e-01 0.000000000000000e+00
					-4.687394530904298e-01 2.499999999765626e-01 0.000000000000000e+00
					-7.421874999677737e-01 4.999999999625001e-01 0.000000000000000e+00
					-4.374999999671876e-01 4.999999999625001e-01 0.000000000000000e+00
					-4.687394530904298e-01 2.499999999765626e-01 0.000000000000000e+00
					-1.445193847520752e-01 2.499999999765626e-01 0.000000000000000e+00
					-4.374999999671876e-01 4.999999999625001e-01 0.000000000000000e+00
					-3.906249999238279e-02 4.999999999625001e-01 0.000000000000000e+00
					-1.445193847520752e-01 2.499999999765626e-01 0.000000000000000e+00
					2.499999999765626e-01 2.499999999765626e-01 0.000000000000000e+00
					-3.906249999238279e-02 4.999999999625001e-01 0.000000000000000e+00
					4.999999999625001e-01 4.999999999625001e-01 0.000000000000000e+00
					-1.000000000000000e+00 4.999999999625001e-01 0.000000000000000e+00
					-7.421874999677737e-01 4.999999999625001e-01 0.000000000000000e+00
					-1.000000000000000e+00 7.499999999671876e-01 0.000000000000000e+00
					-7.382852050458251e-01 7.499999999671876e-01 0.000000000000000e+00
					-7.421874999677737e-01 4.999999999625001e-01 0.000000000000000e+00
					-4.374999999671876e-01 4.999999999625001e-01 0.000000000000000e+00
					-7.382852050458251e-01 7.499999999671876e-01 0.000000000000000e+00
					-4.062605468416016e-01 7.499999999671876e-01 0.000000000000000e+00
					-4.374999999671876e-01 4.999999999625001e-01 0.000000000000000e+00
					-3.906249999238279e-02 4.999999999625001e-01 0.000000000000000e+00
					-4.062605468416016e-01 7.499999999671876e-01 0.000000000000000e+00
					6.639438477521974e-02 7.499999999671876e-01 0.000000000000000e+00
					-3.906249999238279e-02 4.999999999625001e-01 0.000000000000000e+00
					4.999999999625001e-01 4.999999999625001e-01 0.000000000000000e+00
					6.639438477521974e-02 7.499999999671876e-01 0.000000000000000e+00
					7.499999999671876e-01 7.499999999671876e-01 0.000000000000000e+00
					-1.000000000000000e+00 7.499999999671876e-01 0.000000000000000e+00
					-7.382852050458251e-01 7.499999999671876e-01 0.000000000000000e+00
					-1.000000000000000e+00 1.000000000000000e+00 0.000000000000000e+00
					-7.343749999671876e-01 1.000000000000000e+00 0.000000000000000e+00
					-7.382852050458251e-01 7.499999999671876e-01 0.000000000000000e+00
					-4.062605468416016e-01 7.499999999671876e-01 0.000000000000000e+00
					-7.343749999671876e-01 1.000000000000000e+00 0.000000000000000e+00
					-3.749999999625000e-01 1.000000000000000e+00 0.000000000000000e+00
					-4.062605468416016e-01 7.499999999671876e-01 0.000000000000000e+00
					6.639438477521974e-02 7.499999999671876e-01 0.000000000000000e+00
					-3.749999999625000e-01 1.000000000000000e+00 0.000000000000000e+00
					1.718750000234375e-01 1.000000000000000e+00 0.000000000000000e+00
					6.639438477521974e-02 7.499999999671876e-01 0.000000000000000e+00
					7.499999999671876e-01 7.499999999671876e-01 0.000000000000000e+00
					1.718750000234375e-01 1.000000000000000e+00 0.000000000000000e+00
					1.000000000000000e+00 1.000000000000000e+00 0.000000000000000e+00
				</DataArray>
			</Points>
			<Cells>
				<DataArray Name="connectivity" type="UInt32" format="ascii">
					0 1 3 2 4 5 7 6 8 9 11 10 12 13 15 14 16 17 19 18 20 21 23 22 24 25 27 26 28 29 31 30 32 33 35 34 36 37 39 38 40 41 43 42 44 45 47 46 48 49 51 50 52 53 55 54 56 57 59 58 60 61 63 62 
				</DataArray>
				<DataArray Name="offsets" type="UInt32" format="ascii">
					4 8 12 16 20 24 28 32 36 40 44 48 52 56 60 64 
				</DataArray>
				<DataArray Name="types" type="UInt8" format="ascii">
					9 9 9 9 9 9 9 9 9 9 9 9 9 9 9 9 
				</DataArray>
			</Cells>
			<PointData Vectors="solution ">
				<DataArray Name="solution" type="Float64" NumberOfComponents="1" format="ascii">
					0.000000000000000e+00 0.000000000000000e+00 0.000000000000000e+00 6.010486543792301e-02 0.000000000000000e+00 0.000000000000000e+00 6.010486543792301e-02 7.357078381290846e-02 0.000000000000000e+00 0.000000000000000e+00 7.357078381290846e-02 1.181394478992377e-02 0.000000000000000e+00 0.000000000000000e+00 1.181394478992377e-02 3.521353415490056e-02 0.000000000000000e+00 6.010486543792301e-02 0.000000000000000e+00 1.562585111052832e-01 6.010486543792301e-02 7.357078381290846e-02 1.562585111052832e-01 1.762509056469589e-01 7.357078381290846e-02 1.181394478992377e-02 1.762509056469589e-01 3.356528447277908e-03 1.181394478992377e-02 3.521353415490056e-02 3.356528447277908e-03 1.941991427770617e-01 0.000000000000000e+00 1.562585111052832e-01 0.000000000000000e+00 1.214094466446812e-01 1.562585111052832e-01 1.762509056469589e-01 1.214094466446812e-01 1.240069095918675e-01 1.762509056469589e-01 3.356528447277908e-03 1.240069095918675e-01 3.822436954385371e-03 3.356528447277908e-03 1.941991427770617e-01 3.822436954385371e-03 1.180712526617021e-01 0.000000000000000e+00 1.214094466446812e-01 0.000000000000000e+00 0.000000000000000e+00 1.214094466446812e-01 1.240069095918675e-01 0.000000000000000e+00 0.000000000000000e+00 1.240069095918675e-01 3.822436954385371e-03 0.000000000000000e+00 0.000000000000000e+00 3.822436954385371e-03 1.180712526617021e-01 0.000000000000000e+00 0.000000000000000e+00 
				</DataArray>
			</PointData>
			<CellData>
			</CellData>
		</Piece>
	</UnstructuredGrid>
</VTKFile>