<?xml version="1.0"?>
<VTKFile type="UnstructuredGrid" byte_order="LittleEndian">
	<UnstructuredGrid>
		<Piece NumberOfPoints="64" NumberOfCells="16">
			<Points>
				<DataArray type="Float64" NumberOfComponents="3" format="ascii">
					-1.000000000000000e+00 1.000000000000000e+00 0.000000000000000e+00
					-8.338955762008279e-01 8.338955762008279e-01 0.000000000000000e+00
					-5.000000000000000e-01 1.375000000000000e+00 0.000000000000000e+00
					-4.169477881004139e-01 1.044833076200828e+00 0.000000000000000e+00
					-8.338955762008279e-01 8.338955762008279e-01 0.000000000000000e+00
					-6.951941016011038e-01 6.951941016011038e-01 0.000000000000000e+00
					-4.169477881004139e-01 1.044833076200828e+00 0.000000000000000e+00
					-3.475970508005519e-01 7.889441016011038e-01 0.000000000000000e+00
					-6.951941016011038e-01 6.951941016011038e-01 0.000000000000000e+00
					-5.838955762008279e-01 5.838955762008279e-01 0.000000000000000e+00
					-3.475970508005519e-01 7.889441016011038e-01 0.000000000000000e+00
					-2.919477881004139e-01 6.073330762008279e-01 0.000000000000000e+00
					-5.838955762008279e-01 5.838955762008279e-01 0.000000000000000e+00
					-5.000000000000000e-01 5.000000000000000e-01 0.000000000000000e+00
					-2.919477881004139e-01 6.073330762008279e-01 0.000000000000000e+00
					-2.500000000000000e-01 5.000000000000000e-01 0.000000000000000e+00
					-5.000000000000000e-01 1.375000000000000e+00 0.000000000000000e+00
					-4.169477881004139e-01 1.044833076200828e+00 0.000000000000000e+00
					1.387778780781446e-17 1.500000000000000e+00 0.000000000000000e+00
					2.081668171172169e-17 1.115145576200828e+00 0.000000000000000e+00
					-4.169477881004139e-01 1.044833076200828e+00 0.000000000000000e+00
					-3.475970508005519e-01 7.889441016011038e-01 0.000000000000000e+00
					2.081668171172169e-17 1.115145576200828e+00 0.000000000000000e+00
					0.000000000000000e+00 8.201941016011038e-01 0.000000000000000e+00
					-3.475970508005519e-01 7.889441016011038e-01 0.000000000000000e+00
					-2.919477881004139e-01 6.073330762008279e-01 0.000000000000000e+00
					0.000000000000000e+00 8.201941016011038e-01 0.000000000000000e+00
					1.387778780781446e-17 6.151455762008279e-01 0.000000000000000e+00
					-2.919477881004139e-01 6.073330762008279e-01 0.000000000000000e+00
					-2.500000000000000e-01 5.000000000000000e-01 0.000000000000000e+00
					1.387778780781446e-17 6.151455762008279e-01 0.000000000000000e+00
					6.938893903907228e-18 5.000000000000000e-01 0.000000000000000e+00
					1.387778780781446e-17 1.500000000000000e+00 0.000000000000000e+00
					2.081668171172169e-17 1.115145576200828e+00 0.000000000000000e+00
					5.000000000000000e-01 1.375000000000000e+00 0.000000000000000e+00
					4.169477881004140e-01 1.044833076200828e+00 0.000000000000000e+00
					2.081668171172169e-17 1.115145576200828e+00 0.000000000000000e+00
					0.000000000000000e+00 8.201941016011038e-01 0.000000000000000e+00
					4.169477881004140e-01 1.044833076200828e+00 0.000000000000000e+00
					3.475970508005519e-01 7.889441016011038e-01 0.000000000000000e+00
					0.000000000000000e+00 8.201941016011038e-01 0.000000000000000e+00
					1.387778780781446e-17 6.151455762008279e-01 0.000000000000000e+00
					3.475970508005519e-01 7.889441016011038e-01 0.000000000000000e+00
					2.919477881004139e-01 6.073330762008279e-01 0.000000000000000e+00
					1.387778780781446e-17 6.151455762008279e-01 0.000000000000000e+00
					6.938893903907228e-18 5.000000000000000e-01 0.000000000000000e+00
					2.919477881004139e-01 6.073330762008279e-01 0.000000000000000e+00
					2.500000000000000e-01 5.000000000000000e-01 0.000000000000000e+00
					5.000000000000000e-01 1.375000000000000e+00 0.000000000000000e+00
					4.169477881004140e-01 1.044833076200828e+00 0.000000000000000e+00
					1.000000000000000e+00 1.000000000000000e+00 0.000000000000000e+00
					8.338955762008279e-01 8.338955762008279e-01 0.000000000000000e+00
					4.169477881004140e-01 1.044833076200828e+00 0.000000000000000e+00
					3.475970508005519e-01 7.889441016011038e-01 0.000000000000000e+00
					8.338955762008279e-01 8.338955762008279e-01 0.000000000000000e+00
					6.951941016011038e-01 6.951941016011038e-01 0.000000000000000e+00
					3.475970508005519e-01 7.889441016011038e-01 0.000000000000000e+00
					2.919477881004139e-01 6.073330762008279e-01 0.000000000000000e+00
					6.951941016011038e-01 6.951941016011038e-01 0.000000000000000e+00
					5.838955762008279e-01 5.838955762008279e-01 0.000000000000000e+00
					2.919477881004139e-01 6.073330762008279e-01 0.000000000000000e+00
					2.500000000000000e-01 5.000000000000000e-01 0.000000000000000e+00
					5.838955762008279e-01 5.838955762008279e-01 0.000000000000000e+00
					5.000000000000000e-01 5.000000000000000e-01 0.000000000000000e+00
				</DataArray>
			</Points>
			<Cells>
				<DataArray Name="connectivity" type="UInt32" format="ascii">
					0 1 3 2 4 5 7 6 8 9 11 10 12 13 15 14 16 17 19 18 20 21 23 22 24 25 27 26 28 29 31 30 32 33 35 34 36 37 39 38 40 41 43 42 44 45 47 46 48 49 51 50 52 53 55 54 56 57 59 58 60 61 63 62 
				</DataArray>
				<DataArray Name="offsets" type="UInt32" format="ascii">
					4 8 12 16 20 24 28 32 36 40 44 48 52 56 60 64 
				</DataArray>
				<DataArray Name="types" type="UInt8" format="ascii">
					9 9 9 9 9 9 9 9 9 9 9 9 9 9 9 9 
				</DataArray>
			</Cells>
			<PointData Vectors="solution ">
				<DataArray Name="solution" type="Float64" NumberOfComponents="1" format="ascii">
					0.000000000000000e+00 3.600188401480943e-01 0.000000000000000e+00 2.390670858491656e+00 3.600188401480943e-01 2.940323305207960e+00 2.390670858491657e+00 1.200331395091689e+01 2.940323305207961e+00 7.423265128095350e+00 1.200331395091689e+01 2.098362562670395e+01 7.423265128095350e+00 1.194689825526548e+01 2.098362562670396e+01 2.574205590860397e+01 0.000000000000000e+00 2.390670858491657e+00 0.000000000000000e+00 5.660701232870265e+00 2.390670858491657e+00 1.200331395091689e+01 5.660701232870265e+00 2.350081119056769e+01 1.200331395091690e+01 2.098362562670396e+01 2.350081119056770e+01 3.539710068619849e+01 2.098362562670397e+01 2.574205590860397e+01 3.539710068619849e+01 3.886740309367219e+01 0.000000000000000e+00 5.660701232870265e+00 0.000000000000000e+00 5.511906966115874e+00 5.660701232870267e+00 2.350081119056770e+01 5.511906966115875e+00 2.406593620191832e+01 2.350081119056770e+01 3.539710068619850e+01 2.406593620191832e+01 3.763937531985925e+01 3.539710068619851e+01 3.886740309367219e+01 3.763937531985926e+01 4.244217789249443e+01 0.000000000000000e+00 5.511906966115875e+00 0.000000000000000e+00 2.347122230605145e+00 5.511906966115876e+00 2.406593620191832e+01 2.347122230605146e+00 1.167996758920778e+01 2.406593620191832e+01 3.763937531985925e+01 1.167996758920778e+01 2.385782639632029e+01 3.763937531985926e+01 4.244217789249443e+01 2.385782639632030e+01 3.252494596749326e+01 
				</DataArray>
			</PointData>
			<CellData>
			</CellData>
		</Piece>
	</UnstructuredGrid>
</VTKFile>