Eigenvalues_0=
[ 0 0 0 0 0 0 0 0 0 0 0 0 0.245549289792937 0.269145824437830 0.269145824437830 0.271454626837832 0.298613945888733 0.343291880622128 0.343291880622128 0.419448132882246 0.632948228583506 0.639804952053019 0.646334328884921 0.646334328884921 0.719546383387140 0.725318102764299 0.725318102764300 0.732608200838981 ]
;
Eigenvalues_1=
[ 0 0 0 0 0 0 0 0 0 0 0 0 0 0 0 0 0 0 0 0 0 0 0 0 0 0 0 0 0 0 0 0 0 0 0 0 0 0 0 0 0 0 0 0 0 0 0 0 0 0 0 0 0 0 0 0 0 0 0 0 0.00555270250023500 0.00555917751161700 0.00555917751161800 0.00556469711141700 0.186889921769605 0.186914802531185 0.186914802531186 0.186931345676167 0.237797883915620 0.253229765688526 0.253229765688526 0.271000979325616 0.297626541711728 0.300913371278366 0.300913371278366 0.302473851921665 0.331143027525473 0.337840466402888 0.337840466402889 0.347592949314885 0.361191929648089 0.361272548532481 0.361272548532481 0.363164652276938 0.382898595260692 0.399219537679602 0.399219537679603 0.409958628704657 0.432892773024926 0.433930933032389 0.433930933032389 0.436560384881236 0.443847274593426 0.447662208656516 0.447662208656517 0.449831324026956 ]
;
Eigenvalues_2=
[ -1.00000000000000e-15 0 0 0 0 0 0 0 0 0 0 0 0 0 0 0 0 0 0 0 0 0 0 0 0 0 0 0 0 0 0 0 0 0 0 0 0 0 0 0 0 0 0 0 0 0 0 0 0 0 0 0 0 0 0 0 0 0 0 0 0 0 0 0 0 0 0 0 0 0 0 0 0 0 0 0 0 0 0 0 0 0 0 0 0 0 0 0 0 0 0 0 0 0 0 0 0 0 0 0 0 0 0 0 0 0 0 0 0 0 0 0 0 0 0 0 0 0 0 0 0 0 0 0 0 0 0 0 0 0 0 0 0 0 0 0 0 0 0 0 0 0 0 0 0 0 0 0 0 0 0 0 0 0 0 0 0 0 0 0 0 0 0 0 0 0 0 0 0 0 0 0 0 0 0 0 0 0 0 0 0 0 0 0 0 0 0 0 0 0 0 0 0 0 0 0 0 0 0 0 0 0 0 0 0 0 0 0 0 0 0 0 0 0 0 0 0 0 0 0 0 0 0 0 0 0 0 0 0 0 1.00000000000000e-15 1.00000000000000e-15 0.00189880435729500 0.00190024878670800 0.00190024878671500 0.00190165052673300 0.00269918953173300 0.00275385304098400 0.00275385304098400 0.00282940175633500 0.00322312579947200 0.00332480460977000 0.00332480460977200 0.00340587084498300 0.00778973582314500 0.00779215987205200 0.00779215987205300 0.00779452324008300 0.0217162183762040 0.0217175403252480 0.0217175403252490 0.0217188684698130 0.125923950545285 0.125924222324102 0.125924222324104 0.125924497507107 0.163473049934672 0.164111230498669 0.164111230498669 0.166104688667812 0.167309588504879 0.168810097273065 0.168810097273065 0.168876284919931 0.170226489792023 0.173206360163704 0.173206360163704 0.176839988867599 0.184411902074720 0.184417632755467 0.184417632755468 0.184478387287869 0.197887703716616 0.202517954275275 0.202517954275275 0.205836860523806 0.205837059580873 0.205846283081055 0.205846283081055 0.210276307458732 0.210413999396040 0.215064462582780 0.215064521947178 0.215064521947178 0.215066606212308 0.216781625056983 0.216781625056983 0.219609848564103 0.227294909939873 0.227298142497951 0.227298142497952 0.227309446785436 0.228437129356513 0.229184661369555 0.229184661369556 0.229361424210231 0.229428484992806 0.229504832546121 0.229504832546121 0.229897608808337 0.232647946867258 0.232886388619128 0.232886388619129 0.233207892185476 0.237597301117921 0.237974772680427 0.237974772680427 0.238359883029602 0.239658778765999 0.239834834243174 0.239834834243174 0.239963483413452 0.244416983176490 0.244417773913575 0.244417773913576 0.244418561930810 ]
;
Eigenvalues_3=
[ -2.00000000000000e-15 -1.00000000000000e-15 -1.00000000000000e-15 0 0 0 0 0 0 0 0 0 0 0 0 0 0 0 0 0 0 0 0 0 0 0 0 0 0 0 0 0 0 0 0 0 0 0 0 0 0 0 0 0 0 0 0 0 0 0 0 0 0 0 0 0 0 0 0 0 0 0 0 0 0 0 0 0 0 0 0 0 0 0 0 0 0 0 0 0 0 0 0 0 0 0 0 0 0 0 0 0 0 0 0 0 0 0 0 0 0 0 0 0 0 0 0 0 0 0 0 0 0 0 0 0 0 0 0 0 0 0 0 0 0 0 0 0 0 0 0 0 0 0 0 0 0 0 0 0 0 0 0 0 0 0 0 0 0 0 0 0 0 0 0 0 0 0 0 0 0 0 0 0 0 0 0 0 0 0 0 0 0 0 0 0 0 0 0 0 0 0 0 0 0 0 0 0 0 0 0 0 0 0 0 0 0 0 0 0 0 0 0 0 0 0 0 0 0 0 0 0 0 0 0 0 0 0 0 0 0 0 0 0 0 0 0 0 0 0 0 0 0 0 0 0 0 0 0 0 0 0 0 0 0 0 0 0 0 0 0 0 0 0 0 0 0 0 0 0 0 0 0 0 0 0 0 0 0 0 0 0 0 0 0 0 0 0 0 0 0 0 0 0 0 0 0 0 0 0 0 0 0 0 0 0 0 0 0 0 0 0 0 0 0 0 0 0 0 0 0 0 0 0 0 0 0 0 0 0 0 0 0 0 0 0 0 0 0 0 0 0 0 0 0 0 0 0 0 0 0 0 0 0 0 0 0 0 0 0 0 0 0 0 0 0 0 0 0 0 0 0 0 0 0 0 0 0 0 0 0 0 0 0 0 0 0 0 0 0 0 0 0 0 0 0 0 0 0 0 0 0 0 0 0 0 0 0 0 0 0 0 0 0 0 0 0 0 0 0 0 0 0 0 0 0 0 0 0 0 0 0 0 0 0 0 0 0 0 0 0 0 0 0 0 0 0 0 0 0 0 0 0 0 0 0 0 0 0 0 0 0 0 0 0 0 0 0 0 0 0 0 0 0 0 0 0 0 0 0 0 0 0 0 0 0 0 0 0 0 0 0 0 0 0 0 0 0 0 0 0 0 0 0 0 0 0 0 0 0 0 0 0 0 0 0 0 0 0 0 0 0 0 0 0 0 0 0 0 0 0 0 0 0 0 0 0 0 0 0 0 0 0 0 0 0 0 0 0 0 0 0 0 0 0 0 0 0 0 0 0 0 0 0 0 0 0 0 0 0 0 0 0 0 0 0 0 0 0 0 0 0 0 0 0 0 0 0 0 0 0 0 0 2.00000000000000e-15 0.000431679483354000 0.000431679508728000 0.000431679508729000 0.000431679534152000 0.000719301660722000 0.000721652530783000 0.000721652530783000 0.000724153424829000 0.000813602926912000 0.000816641955838000 0.000816641955838000 0.000819531311902000 0.00211112655754400 0.00211115263482400 0.00211115263482500 0.00211117872315200 0.00312233772750800 0.00313890469663500 0.00313890469663600 0.00315957111547800 0.00332631755412400 0.00335185919179800 0.00335185919179900 0.00337332182482400 0.00505009589719900 0.00505118460178900 0.00505118460178900 0.00505226074777300 0.00782959489671400 0.00783356231545500 0.00783356231545500 0.00783750993062500 0.0114035726379060 0.0114783270094680 0.0114783270094680 0.0116227196393630 0.0117262865753980 0.0118776426743530 0.0118776426743540 0.0119595840713690 0.0132307636526760 0.0132361917442390 0.0132361917442410 0.0132414079134700 0.0230796709692920 0.0230797008291940 0.0230797008292070 0.0230797306671710 0.0403069708156830 0.0403069737818280 0.0403069737818280 0.0403069767479410 0.0657802631410260 0.0657802631441010 0.0657802631441020 0.0657802631471770 0.0863132157809490 0.0863132157946130 0.0863132157946140 0.0863132158083080 0.0871070017875910 0.0871175125152530 0.0871175125152540 0.0871280861316900 0.0974122311093010 0.0974391465663540 0.0974391465663540 0.0974620355891590 0.0980820273962620 0.0981436085070970 0.0981436085070970 0.0982098993609630 0.0984492251819440 0.0984528535738000 0.0984528535738000 0.0984588897210180 0.106379888153450 0.106901546030786 0.106901546030786 0.107007414681877 0.107007414698936 0.107007416020758 0.107007416020758 0.108165948960525 0.108258651114899 0.109872642616730 0.109872642616730 0.111420976546606 0.111509413901910 0.111509423194452 0.111509423194453 0.111509423321873 0.111773463955330 0.113210002133375 0.113210002133375 0.113331652334636 0.113331653095081 0.113331653095081 0.113331653561251 0.114479359963356 0.114781821654589 0.115394991070298 0.115394991070298 0.115395077723243 0.115395306125136 0.115794960386407 0.115794960386407 0.116158626895395 0.116160891019405 0.116161591947949 0.116161591947949 0.116393697867726 0.117607994005200 0.117941894536930 0.117941894536930 0.117949831401076 0.117950169381632 0.117955881749561 0.117955881749561 0.118207977968894 0.119101501267402 0.119101728291174 0.119101728291175 0.119102161556276 0.119553923578401 0.119656594368987 0.119656594368987 0.119742524195490 0.119959019987881 0.119959051113616 0.119959051113617 0.119959100616858 0.120477113544616 0.120515690729280 0.120515690729280 0.120584836488407 0.120771631824400 0.120850650031461 0.120850650031461 0.120876923652381 0.120908561894671 0.120927162602193 0.120927162602193 0.120969567359016 0.121276676511519 0.121276752315165 0.121276752315165 0.121276852531205 0.121957674443602 0.121997702555561 0.121997702555561 0.122064778173383 0.122103586579366 0.122138343174326 0.122138343174327 0.122138440884898 0.122138649017574 0.122158276679307 0.122158276679307 0.122184581058202 0.122976604394584 0.122977635465200 0.122977635465200 0.122978662284883 0.123321447363350 0.123321768305296 0.123321768305296 0.123322088444886 0.123574469660086 0.123574553295814 0.123574553295814 0.123574636856411 0.123739316132927 0.123739338900661 0.123739338900662 0.123739361659935 0.123831397536271 0.123831402310874 0.123831402310874 0.123831407084291 ]
;
Eigenvalues_4=
[ -3.00000000000000e-15 -3.00000000000000e-15 -2.00000000000000e-15 -2.00000000000000e-15 -1.00000000000000e-15 -1.00000000000000e-15 -1.00000000000000e-15 -1.00000000000000e-15 -1.00000000000000e-15 -1.00000000000000e-15 -1.00000000000000e-15 -1.00000000000000e-15 0 0 0 0 0 0 0 0 0 0 0 0 0 0 0 0 0 0 0 0 0 0 0 0 0 0 0 0 0 0 0 0 0 0 0 0 0 0 0 0 0 0 0 0 0 0 0 0 0 0 0 0 0 0 0 0 0 0 0 0 0 0 0 0 0 0 0 0 0 0 0 0 0 0 0 0 0 0 0 0 0 0 0 0 0 0 0 0 0 0 0 0 0 0 0 0 0 0 0 0 0 0 0 0 0 0 0 0 0 0 0 0 0 0 0 0 0 0 0 0 0 0 0 0 0 0 0 0 0 0 0 0 0 0 0 0 0 0 0 0 0 0 0 0 0 0 0 0 0 0 0 0 0 0 0 0 0 0 0 0 0 0 0 0 0 0 0 0 0 0 0 0 0 0 0 0 0 0 0 0 0 0 0 0 0 0 0 0 0 0 0 0 0 0 0 0 0 0 0 0 0 0 0 0 0 0 0 0 0 0 0 0 0 0 0 0 0 0 0 0 0 0 0 0 0 0 0 0 0 0 0 0 0 0 0 0 0 0 0 0 0 0 0 0 0 0 0 0 0 0 0 0 0 0 0 0 0 0 0 0 0 0 0 0 0 0 0 0 0 0 0 0 0 0 0 0 0 0 0 0 0 0 0 0 0 0 0 0 0 0 0 0 0 0 0 0 0 0 0 0 0 0 0 0 0 0 0 0 0 0 0 0 0 0 0 0 0 0 0 0 0 0 0 0 0 0 0 0 0 0 0 0 0 0 0 0 0 0 0 0 0 0 0 0 0 0 0 0 0 0 0 0 0 0 0 0 0 0 0 0 0 0 0 0 0 0 0 0 0 0 0 0 0 0 0 0 0 0 0 0 0 0 0 0 0 0 0 0 0 0 0 0 0 0 0 0 0 0 0 0 0 0 0 0 0 0 0 0 0 0 0 0 0 0 0 0 0 0 0 0 0 0 0 0 0 0 0 0 0 0 0 0 0 0 0 0 0 0 0 0 0 0 0 0 0 0 0 0 0 0 0 0 0 0 0 0 0 0 0 0 0 0 0 0 0 0 0 0 0 0 0 0 0 0 0 0 0 0 0 0 0 0 0 0 0 0 0 0 0 0 0 0 0 0 0 0 0 0 0 0 0 0 0 0 0 0 0 0 0 0 0 0 0 0 0 0 0 0 0 0 0 0 0 0 0 0 0 0 0 0 0 0 0 0 0 0 0 0 0 0 0 0 0 0 0 0 0 0 0 0 0 0 0 0 0 0 0 0 0 0 0 0 0 0 0 0 0 0 0 0 0 0 0 0 0 0 0 0 0 0 0 0 0 0 0 0 0 0 0 0 0 0 0 0 0 0 0 0 0 0 0 0 0 0 0 0 0 0 0 0 0 0 0 0 0 0 0 0 0 0 0 0 0 0 0 0 0 0 0 0 0 0 0 0 0 0 0 0 0 0 0 0 0 0 0 0 0 0 0 0 0 0 0 0 0 0 0 0 0 0 0 0 0 0 0 0 0 0 0 0 0 0 0 0 0 0 0 0 0 0 0 0 0 0 0 0 0 0 0 0 0 0 0 0 0 0 0 0 0 0 0 0 0 0 0 0 0 0 0 0 0 0 0 0 0 0 0 0 0 0 0 0 0 0 0 0 0 0 0 0 0 0 0 0 0 0 0 0 0 0 0 0 0 0 0 0 0 0 0 0 0 0 0 0 0 0 0 0 0 0 0 0 0 0 0 0 0 0 0 0 0 0 0 0 0 0 0 0 0 0 0 0 0 0 0 0 0 0 0 0 0 0 0 0 0 0 0 0 0 0 0 0 0 0 0 0 0 0 0 0 0 0 0 0 0 0 0 0 0 0 0 0 0 0 0 0 0 0 0 0 0 0 0 0 0 0 0 0 0 0 0 0 0 0 0 0 0 0 0 0 0 0 0 0 0 0 0 0 0 0 0 0 0 0 0 0 0 0 0 0 0 0 0 0 0 0 0 0 0 0 0 0 0 0 0 0 0 0 0 0 0 0 0 0 0 0 0 0 0 0 0 0 0 0 0 0 0 0 0 0 0 0 0 0 0 0 0 0 0 0 0 0 0 0 0 0 0 0 0 0 0 0 0 0 0 0 0 0 0 0 0 0 0 0 0 0 0 0 0 0 0 0 0 0 0 0 0 0 0 0 0 0 0 0 0 0 0 0 0 0 0 0 0 0 0 0 0 0 0 0 0 0 0 0 0 0 0 0 0 0 0 0 0 0 0 0 0 0 0 0 0 0 0 0 0 0 0 0 0 0 0 0 0 0 0 0 0 0 0 0 0 0 0 0 0 0 0 0 0 0 0 0 0 0 0 0 0 0 0 0 0 0 0 0 0 0 0 0 0 0 0 0 0 0 0 0 0 0 0 0 0 0 0 0 0 0 0 0 0 0 0 0 0 0 0 0 0 0 0 0 0 0 0 0 0 0 0 0 0 0 0 0 0 0 0 0 0 0 0 0 0 0 0 0 0 0 0 0 0 0 0 0 0 0 0 0 0 0 0 0 0 0 0 0 0 0 0 0 0 0 0 0 0 0 0 0 0 0 0 0 0 0 0 0 0 0 0 0 0 0 0 0 0 0 0 0 0 0 0 0 0 0 0 0 0 0 0 0 0 0 0 0 0 0 0 0 0 0 0 0 0 0 0 0 0 0 0 0 0 0 0 0 0 0 0 0 0 0 0 0 0 0 0 0 0 0 0 0 0 0 0 0 0 0 0 0 0 0 0 0 0 0 0 0 0 0 0 0 0 0 0 0 0 0 0 0 0 0 0 0 0 0 0 0 0 0 0 0 0 0 0 0 0 0 0 0 0 0 0 0 0 0 0 0 0 0 0 0 1.00000000000000e-15 1.00000000000000e-15 1.00000000000000e-15 2.00000000000000e-15 2.00000000000000e-15 3.00000000000000e-15 4.00000000000000e-15 4.00000000000000e-15 9.64132406590000e-05 9.64132406610000e-05 9.64132406620000e-05 9.64132406630000e-05 0.000185860061357000 0.000185868855721000 0.000185868855722000 0.000185877658347000 0.000211746080017000 0.000211758871736000 0.000211758871737000 0.000211771655465000 0.000443647563619000 0.000443647563619000 0.000443647563620000 0.000443647563622000 0.000751990632769000 0.000752623242107000 0.000752623242109000 0.000753278803881000 0.000793330292045000 0.000794091582305000 0.000794091582306000 0.000794830008707000 0.00108371420448200 0.00108371420450100 0.00108371420453300 0.00108371420461600 0.00165509791781600 0.00165989231757800 0.00165989231758000 0.00166636988971900 0.00169242007512500 0.00169898729550600 0.00169898729550700 0.00170387139623100 0.00207179913340800 0.00207179915251300 0.00207179915251400 0.00207179917169700 0.00310800701644300 0.00310957491933700 0.00310957491933700 0.00311126723784400 0.00314120476976700 0.00314252395443400 0.00314252395443400 0.00314371865137900 0.00342679995148500 0.00342680278127200 0.00342680278127300 0.00342680560685200 0.00510203419465800 0.00510210312277500 0.00510210312277600 0.00510217166809400 0.00561094934092000 0.00561930889099500 0.00561930889099600 0.00562909489698300 0.00573416710528200 0.00574479453099600 0.00574479453099600 0.00575399999198200 0.00656805413396700 0.00656884027815700 0.00656884027815900 0.00656962225071300 0.00754342722518800 0.00754360650544500 0.00754360650544500 0.00754378577870400 0.00980505585602700 0.00980600721760700 0.00980600721760700 0.00980696821335200 0.0100769545088190 0.0100797284604450 0.0100797284604450 0.0100826299738980 0.0101489543480970 0.0101508702346290 0.0101508702346290 0.0101526489304560 0.0129130318178410 0.0129130373873960 0.0129130373873970 0.0129130429567020 0.0162258113521250 0.0162260154536750 0.0162260154536750 0.0162262200906880 0.0163847509699710 0.0163849715259940 0.0163849715259940 0.0163851915727660 0.0165984319303200 0.0165984590096960 0.0165984590096960 0.0165984860627530 0.0208875293929780 0.0208875294121680 0.0208875294121820 0.0208875294313790 0.0259445319714390 0.0259445319722120 0.0259445319722140 0.0259445319729870 0.0316299129341780 0.0316299129341870 0.0316299129341870 0.0316299129341950 0.0372480193845210 0.0372480193845210 0.0372480193845220 0.0372480193845220 0.0377852212157150 0.0377852212157160 0.0377852212157170 0.0377852212157170 0.0440593294782570 0.0440593294782570 0.0440593294782570 0.0440593294782580 0.0448523096800870 0.0448523101545590 0.0448523101545590 0.0448523106290300 0.0485402667342360 0.0485402667342360 0.0485402667342360 0.0485402667342370 0.0515440306990540 0.0515440306990540 0.0515440306990540 0.0515440306990540 0.0526767339297970 0.0526767482823860 0.0526767482823860 0.0526767626346840 0.0536563929001560 0.0536563929004580 0.0536563929004580 0.0536563929007600 0.0539673151308570 0.0539674526573390 0.0539674526573400 0.0539675902530930 0.0553309093598700 0.0553309093599220 0.0553309093599220 0.0553309093599740 0.0563802281562650 0.0564067088266480 0.0564067088266490 0.0564413149469000 0.0567596507564860 0.0567596511208850 0.0567596511208850 0.0567596511303740 0.0567645792513580 0.0568600846353570 0.0568600846353570 0.0570005436073120 0.0572079738443140 0.0573992551729790 0.0573992551729800 0.0576583478402090 0.0577252345551400 0.0579264059705410 0.0579264059705410 0.0579264059852140 0.0579264060022380 0.0579991904375280 0.0579991904375280 0.0582303056762590 0.0582303056813840 0.0582303056815420 0.0582303056815420 0.0582675683826010 0.0583482635240500 0.0586080722023350 0.0586080722023350 0.0588558004145540 0.0589208249486900 0.0589208256364350 0.0589208256364350 0.0589208256410390 0.0589335619033140 0.0591649608391240 0.0591649608391250 0.0591733386393460 0.0591733386532370 0.0591733387810950 0.0591733387810960 0.0594042073893660 0.0594202182723550 0.0596387291592340 0.0596387291592340 0.0596389649322140 0.0596389660435920 0.0596392867664000 0.0596392867664000 0.0597349024184280 0.0597349061120930 0.0597349070429780 0.0597349070429780 0.0598129463410890 0.0598862366136420 0.0600346862119590 0.0600346862119590 0.0600762287292710 0.0600762398508780 0.0600762478147920 0.0600762478147920 0.0601433748686020 0.0602106291056090 0.0602106759046270 0.0602106759046270 0.0602110405980140 0.0602940036817220 0.0603761342633370 0.0603761342633380 0.0604058903102900 0.0604066499373210 0.0604070930780830 0.0604070930780830 0.0604421520009560 0.0604643843731180 0.0604645465991000 0.0604645465991000 0.0604657686847960 0.0606300188852050 0.0606752429104590 0.0606752429104590 0.0607141779491690 0.0607248217640160 0.0607248454805120 0.0607248454805120 0.0607250460886400 0.0608325363590160 0.0608325971485140 0.0608325971485150 0.0608327366133730 0.0609020830737750 0.0609275475301290 0.0609275475301290 0.0609506275174580 0.0609987236983510 0.0609987292371190 0.0609987292371190 0.0609987405890650 0.0611195834519020 0.0611331434346270 0.0611331434346270 0.0611455042690750 0.0611909113177770 0.0611909935668570 0.0611909935668570 0.0611911196692710 0.0612399538800590 0.0612399922791830 0.0612399922791830 0.0612400443670850 0.0612914491291720 0.0612938660012700 0.0612938660012710 0.0612958084518440 0.0613679476870570 0.0613771705744280 0.0613771705744280 0.0613905056225490 0.0614145986774230 0.0614145991509710 0.0614145991509710 0.0614146020822000 0.0614246738781340 0.0614386460606170 0.0614386460606170 0.0614489671366910 0.0614966315412380 0.0614967164100820 0.0614967164100830 0.0614968509728670 0.0615216814071490 0.0615251829935270 0.0615251829935270 0.0615282332108540 0.0615764089628030 0.0615764102397630 0.0615764102397640 0.0615764115933680 0.0616419003896520 0.0616419036379380 0.0616419036379380 0.0616419069527550 0.0617087090703230 0.0617087091109110 0.0617087091109110 0.0617087091535520 0.0617294147847390 0.0617300237557220 0.0617300237557220 0.0617306434669420 0.0617671678895820 0.0617675984529620 0.0617675984529620 0.0617680168443670 0.0618118134266440 0.0618118134292850 0.0618118134292850 0.0618118134319470 0.0618930167229630 0.0618930167234900 0.0618930167234900 0.0618930167240200 0.0619310884788100 0.0619312015177280 0.0619312015177290 0.0619313151715310 0.0619524645237060 0.0619524645379020 0.0619524645379020 0.0619524645524670 0.0619689468570160 0.0619691000226920 0.0619691000226920 0.0619692529633780 0.0620110832751070 0.0620111928359860 0.0620111928359860 0.0620113021617040 0.0620503484536260 0.0620504158362020 0.0620504158362030 0.0620504831096490 0.0620848951014310 0.0620849354497180 0.0620849354497180 0.0620849757543260 0.0621144712017460 0.0621144957862790 0.0621144957862790 0.0621145203532920 0.0621393480302100 0.0621393634741290 0.0621393634741290 0.0621393789105550 0.0621599449492110 0.0621599548807900 0.0621599548807900 0.0621599648088380 0.0621766835899210 0.0621766899700390 0.0621766899700390 0.0621766963483130 0.0621899291782130 0.0621899331092090 0.0621899331092090 0.0621899370391780 0.0621999670111720 0.0621999691912710 0.0621999691912710 0.0621999713708150 0.0622070140850810 0.0622070150531880 0.0622070150531880 0.0622070160210480 0.0622111699426920 0.0622111701864790 0.0622111701864790 0.0622111704302020 ]
;
