Eigenvalues_0=
[ 0 0 0 0 0 0 0 0 0 0 0 0 0 0 0 0 0 0 0 0 0 0 0 0 0 0 0 0 0 0 0 0 0 0 0 0 0 0 0 0 0 0 0 0 0 0 0 0 0 0 0 0 0 0 0 0 0 0 0 0 0 0 0 0 0.0424314130997510 0.0472000803682320 0.0472000803682330 0.0495380490414470 0.0611176037289330 0.0695338900699040 0.0695338900699040 0.0854588132004270 0.272933933938258 0.280807753769520 0.280807753769520 0.282615655348400 0.311596742796239 0.365049661189579 0.365049661189579 0.434413210411505 0.478448056455666 0.485538702530801 0.485538702530801 0.487010236729467 0.618618497672148 0.635379134428099 0.635379134428100 0.643551441184617 0.758707399769147 0.762489083117967 0.762489083117968 0.765166902582891 0.795133493464934 0.802855623233627 0.802855623233627 0.811215817943246 ]
;
Eigenvalues_1=
[ -1.00000000000000e-15 -1.00000000000000e-15 0 0 0 0 0 0 0 0 0 0 0 0 0 0 0 0 0 0 0 0 0 0 0 0 0 0 0 0 0 0 0 0 0 0 0 0 0 0 0 0 0 0 0 0 0 0 0 0 0 0 0 0 0 0 0 0 0 0 0 0 0 0 0 0 0 0 0 0 0 0 0 0 0 0 0 0 0 0 0 0 0 0 0 0 0 0 0 0 0 0 0 0 0 0 0 0 0 0 0 0 0 0 0 0 0 0 0 0 0 0 0 0 0 0 0 0 0 0 0 0 0 0 0 0 0 0 0 0 0 0 0 0 0 0 0 0 0 0 0 0 0 0 0 0 0 0 0 0 1.00000000000000e-15 1.00000000000000e-15 0.000319384528152000 0.000320179820653000 0.000320179820654000 0.000320902346874000 0.0373717353520500 0.0374740660486610 0.0374740660486630 0.0375579861547430 0.0879056691595910 0.0961532931231020 0.0961532931231020 0.105700415115317 0.190946058683835 0.191089855048347 0.191089855048348 0.191168413038386 0.256469939039085 0.272147441141815 0.272147441141815 0.287421130108382 0.312482491351123 0.313383459429965 0.313383459429966 0.313873247881561 0.345936475090618 0.350966407926834 0.350966407926835 0.359303350955806 0.366035524043773 0.366035524043774 0.366053987767048 0.367590655301073 0.390572495223015 0.407610672131084 0.407610672131086 0.421168883133735 0.430395772639847 0.430413908415934 0.430413908415934 0.430431881973858 0.445452827628086 0.449778441465551 0.449778441465551 0.451944473393666 0.458639283073403 0.459918431676202 0.459918431676203 0.461879647996219 0.469564748286786 0.470668312381618 0.470668312381618 0.471448424572788 ]
;
Eigenvalues_2=
[ -2.00000000000000e-15 -2.00000000000000e-15 -1.00000000000000e-15 -1.00000000000000e-15 0 0 0 0 0 0 0 0 0 0 0 0 0 0 0 0 0 0 0 0 0 0 0 0 0 0 0 0 0 0 0 0 0 0 0 0 0 0 0 0 0 0 0 0 0 0 0 0 0 0 0 0 0 0 0 0 0 0 0 0 0 0 0 0 0 0 0 0 0 0 0 0 0 0 0 0 0 0 0 0 0 0 0 0 0 0 0 0 0 0 0 0 0 0 0 0 0 0 0 0 0 0 0 0 0 0 0 0 0 0 0 0 0 0 0 0 0 0 0 0 0 0 0 0 0 0 0 0 0 0 0 0 0 0 0 0 0 0 0 0 0 0 0 0 0 0 0 0 0 0 0 0 0 0 0 0 0 0 0 0 0 0 0 0 0 0 0 0 0 0 0 0 0 0 0 0 0 0 0 0 0 0 0 0 0 0 0 0 0 0 0 0 0 0 0 0 0 0 0 0 0 0 0 0 0 0 0 0 0 0 0 0 0 0 0 0 0 0 0 0 0 0 0 0 0 0 0 0 0 0 0 0 0 0 0 0 0 0 0 0 0 0 0 0 0 0 0 0 0 0 0 0 0 0 0 0 0 0 0 0 0 0 0 0 0 0 0 0 0 0 0 0 0 0 0 0 0 0 0 0 0 0 0 0 0 0 0 0 0 0 0 0 0 0 0 0 0 0 0 0 0 0 0 0 0 0 0 0 0 0 0 0 0 0 0 0 0 0 0 0 0 0 0 0 0 0 0 0 0 0 0 0 0 0 0 0 0 0 0 0 0 0 0 0 0 0 0 0 0 0 0 0 0 0 0 0 0 0 0 0 0 0 0 0 0 0 0 0 0 0 0 0 0 0 0 0 0 0 0 0 0 0 0 0 0 0 0 0 0 0 0 0 0 0 0 0 0 0 0 0 0 0 0 0 0 0 0 0 0 0 0 0 0 0 0 0 0 0 0 0 0 0 0 0 0 0 0 0 0 0 0 0 0 0 0 1.00000000000000e-15 7.15260562100000e-05 7.15299460300000e-05 7.15299460320000e-05 7.15335838850000e-05 0.000139307084996000 0.000143001086000000 0.000143001086002000 0.000147371286137000 0.000210844760260000 0.000218056678290000 0.000218056678293000 0.000224647850807000 0.000488652682159000 0.000488712433647000 0.000488712433647000 0.000488769018068000 0.00241053681659700 0.00241068872870500 0.00241068872870700 0.00241083734705500 0.0476279162619560 0.0476302013802330 0.0476302013802350 0.0476323999232600 0.0951004599655330 0.0951260926586440 0.0951260926586440 0.0951466669565890 0.112064143999150 0.115468211246329 0.115468211246330 0.120013924204484 0.140435361483936 0.145283958790312 0.145283958790314 0.148896975502452 0.156909478093496 0.156914708856554 0.156914708856554 0.156917977631803 0.177007932613730 0.179536773906024 0.179536773906024 0.183002373259940 0.183237745352970 0.183285159010872 0.183285159010872 0.186077131294588 0.190247098990444 0.199445639396496 0.199445639396496 0.202600820552465 0.202624694728893 0.202633631238675 0.202633631238675 0.207937950421535 0.212969660394675 0.219262038454664 0.219262038454665 0.220601575402434 0.220601743129894 0.220602198786688 0.220602198786688 0.223490122158797 0.229382480052399 0.231149920167269 0.231149920167270 0.231174505989666 0.231187827741546 0.231523215085001 0.231523215085001 0.232882397777382 0.237555066928168 0.237564010207314 0.237564010207315 0.237578695380227 0.238845193962989 0.238920891513023 0.238920891513023 0.239281605030243 0.239364599358809 0.239911512850052 0.239911512850052 0.239921975945099 0.239943305787978 0.240276557466415 0.240276557466415 0.240906759499933 0.242341693335522 0.242663353202583 0.242663353202583 0.242886526524247 0.245084162241418 0.245115122294384 0.245115122294384 0.245144277077292 0.246378402901152 0.246381415742861 0.246381415742861 0.246384379659275 ]
;
Eigenvalues_3=
[ -9.00000000000000e-15 -4.00000000000000e-15 -3.00000000000000e-15 -3.00000000000000e-15 -2.00000000000000e-15 -2.00000000000000e-15 -1.00000000000000e-15 -1.00000000000000e-15 -1.00000000000000e-15 -1.00000000000000e-15 -1.00000000000000e-15 -1.00000000000000e-15 -1.00000000000000e-15 -1.00000000000000e-15 0 0 0 0 0 0 0 0 0 0 0 0 0 0 0 0 0 0 0 0 0 0 0 0 0 0 0 0 0 0 0 0 0 0 0 0 0 0 0 0 0 0 0 0 0 0 0 0 0 0 0 0 0 0 0 0 0 0 0 0 0 0 0 0 0 0 0 0 0 0 0 0 0 0 0 0 0 0 0 0 0 0 0 0 0 0 0 0 0 0 0 0 0 0 0 0 0 0 0 0 0 0 0 0 0 0 0 0 0 0 0 0 0 0 0 0 0 0 0 0 0 0 0 0 0 0 0 0 0 0 0 0 0 0 0 0 0 0 0 0 0 0 0 0 0 0 0 0 0 0 0 0 0 0 0 0 0 0 0 0 0 0 0 0 0 0 0 0 0 0 0 0 0 0 0 0 0 0 0 0 0 0 0 0 0 0 0 0 0 0 0 0 0 0 0 0 0 0 0 0 0 0 0 0 0 0 0 0 0 0 0 0 0 0 0 0 0 0 0 0 0 0 0 0 0 0 0 0 0 0 0 0 0 0 0 0 0 0 0 0 0 0 0 0 0 0 0 0 0 0 0 0 0 0 0 0 0 0 0 0 0 0 0 0 0 0 0 0 0 0 0 0 0 0 0 0 0 0 0 0 0 0 0 0 0 0 0 0 0 0 0 0 0 0 0 0 0 0 0 0 0 0 0 0 0 0 0 0 0 0 0 0 0 0 0 0 0 0 0 0 0 0 0 0 0 0 0 0 0 0 0 0 0 0 0 0 0 0 0 0 0 0 0 0 0 0 0 0 0 0 0 0 0 0 0 0 0 0 0 0 0 0 0 0 0 0 0 0 0 0 0 0 0 0 0 0 0 0 0 0 0 0 0 0 0 0 0 0 0 0 0 0 0 0 0 0 0 0 0 0 0 0 0 0 0 0 0 0 0 0 0 0 0 0 0 0 0 0 0 0 0 0 0 0 0 0 0 0 0 0 0 0 0 0 0 0 0 0 0 0 0 0 0 0 0 0 0 0 0 0 0 0 0 0 0 0 0 0 0 0 0 0 0 0 0 0 0 0 0 0 0 0 0 0 0 0 0 0 0 0 0 0 0 0 0 0 0 0 0 0 0 0 0 0 0 0 0 0 0 0 0 0 0 0 0 0 0 0 0 0 0 0 0 0 0 0 0 0 0 0 0 0 0 0 0 0 0 0 0 0 0 0 0 0 0 0 0 0 0 0 0 0 0 0 0 0 0 0 0 0 0 0 0 0 0 0 0 0 0 0 0 0 0 0 0 0 0 0 0 0 0 0 0 0 0 0 0 0 0 0 0 0 0 0 0 0 0 0 0 0 0 0 0 0 0 0 0 0 0 0 0 0 0 0 0 0 0 0 0 0 0 0 0 0 0 0 0 0 0 0 0 0 0 0 0 0 0 0 0 0 0 0 0 0 0 0 0 0 0 0 0 0 0 0 0 0 0 0 0 0 0 0 0 0 0 0 0 0 0 0 0 0 0 0 0 0 0 0 0 0 0 0 0 0 0 0 0 0 0 0 0 0 0 0 0 0 0 0 0 0 0 0 0 0 0 0 0 0 0 0 0 0 0 0 0 0 0 0 0 0 0 0 0 0 0 0 0 0 0 0 0 0 0 0 0 0 0 0 0 0 0 0 0 0 0 0 0 0 0 0 0 0 0 0 0 0 0 0 0 0 0 0 0 0 0 0 0 0 0 0 0 0 0 0 0 0 0 0 0 0 0 0 0 0 0 0 0 0 0 0 0 0 0 0 0 0 0 0 0 0 0 0 0 0 0 0 0 0 0 0 0 0 0 0 0 0 0 0 0 0 0 0 0 0 0 0 0 0 0 0 0 0 0 0 0 0 0 0 0 0 0 0 0 0 0 0 0 0 0 0 0 0 0 0 0 0 0 0 0 0 0 0 0 0 0 0 0 0 0 0 0 0 0 0 0 0 0 0 0 0 0 0 0 0 0 0 0 0 0 0 0 0 0 0 0 0 0 0 0 0 0 0 0 0 0 0 0 0 0 0 0 0 0 0 0 0 0 0 0 0 0 0 0 0 0 0 0 0 0 0 0 0 0 0 0 0 0 0 0 0 0 0 0 0 0 0 0 0 0 0 0 0 0 0 0 0 0 0 0 0 0 0 0 0 0 0 0 0 0 0 0 0 0 0 0 0 0 0 0 0 0 0 0 0 0 0 0 0 0 0 0 0 0 0 0 0 0 0 0 0 0 0 0 0 0 0 0 0 0 0 0 0 0 0 0 0 0 0 0 0 0 0 0 0 0 0 0 0 0 0 0 0 0 0 0 1.00000000000000e-15 1.00000000000000e-15 1.00000000000000e-15 1.00000000000000e-15 1.00000000000000e-15 2.00000000000000e-15 2.00000000000000e-15 2.00000000000000e-15 5.00000000000000e-15 1.34536934630000e-05 1.34537063940000e-05 1.34537064010000e-05 1.34537193520000e-05 1.95572702820000e-05 1.95958462760000e-05 1.95958462760000e-05 1.96359190800000e-05 2.23257300360000e-05 2.23795295230000e-05 2.23795295280000e-05 2.24318328160000e-05 5.73203014200000e-05 5.73213409950000e-05 5.73213409950000e-05 5.73223812950000e-05 0.000169192346039000 0.000170598475303000 0.000170598475303000 0.000172971331558000 0.000174326331721000 0.000175856571043000 0.000175856571045000 0.000176467506497000 0.000207933202639000 0.000209402161127000 0.000209402161128000 0.000210827986542000 0.000492731051043000 0.000492793866008000 0.000492793866010000 0.000492855506188000 0.000973262204638000 0.000988762179170000 0.000988762179173000 0.00100861403634000 0.00112115601941000 0.00114213177871900 0.00114213177872200 0.00115876005001500 0.00134379495874900 0.00134387208267100 0.00134387208267100 0.00134394282257600 0.00331268857139000 0.00331269276080600 0.00331269276080700 0.00331269693709900 0.00957704583515300 0.00957706094410500 0.00957706094410900 0.00957707603449900 0.0326696858387580 0.0326696862366220 0.0326696862366290 0.0326696866338810 0.0624266350977780 0.0624266765576110 0.0624266765576180 0.0624267175996020 0.0748029379665210 0.0748095635339110 0.0748095635339120 0.0748149909701120 0.0766947173917680 0.0770686125414190 0.0770686125414190 0.0777044570542000 0.0783668126203500 0.0789240498570660 0.0789240498570680 0.0792207035805950 0.0877865494389650 0.0877866476579350 0.0877866476579360 0.0877867600885940 0.0942469648967920 0.0949720804883150 0.0949720804883150 0.0960385200585180 0.0973375838358900 0.0973381245474510 0.0973382754498310 0.0973382754498310 0.0997993341502790 0.101618069308547 0.101618069308548 0.102617565644749 0.102618908160498 0.102619160953487 0.102619160953487 0.104517130130295 0.104858402539473 0.107729369008798 0.107729369008798 0.109047542753989 0.109047961410212 0.109048131834959 0.109048131834960 0.109971248009477 0.111169709364681 0.113022651375164 0.113022651375164 0.113435339133509 0.113435731846695 0.113436120253069 0.113436120253069 0.114900407386185 0.115049033235333 0.115750987695700 0.115750987695701 0.115751077378637 0.115751579287680 0.116557967814239 0.116557967814239 0.117510710058096 0.118305040501959 0.118478156167072 0.118478156167073 0.118478298287082 0.118479553336599 0.118919765653158 0.118919765653158 0.119306314641331 0.119965477950157 0.119965616859077 0.119965616859077 0.119965950084921 0.120735054518694 0.120911586502573 0.120911586502573 0.121057140474055 0.121129255255496 0.121131855801638 0.121131855801638 0.121144739518292 0.121616762410815 0.121618082075284 0.121618082075284 0.121620529476943 0.121999224589911 0.122041704626757 0.122041704626758 0.122065330479459 0.122246759368825 0.122299525128581 0.122299525128581 0.122330644830941 0.122357817270766 0.122374864619026 0.122374864619026 0.122454593979682 0.122681996376154 0.122763768847959 0.122763768847959 0.122765063298129 0.122766344703775 0.122798474089412 0.122798474089412 0.122893194543845 0.123090434206054 0.123138961261569 0.123138961261569 0.123155582754667 0.123155621720248 0.123155643621147 0.123155643621147 0.123171976829267 0.123666959849622 0.123666959849699 0.123666959849699 0.123666959849797 0.123721387938558 0.123727962638137 0.123727962638137 0.123734693484702 0.123856335779158 0.123859940251801 0.123859940251801 0.123863268996805 0.124121381143887 0.124121583924196 0.124121583924196 0.124121785779032 0.124352381859947 0.124352392270934 0.124352392270934 0.124352402678995 0.124492041998698 0.124492042919708 0.124492042919708 0.124492043840688 0.124563295112471 0.124563295208763 0.124563295208763 0.124563295305054 ]
;
Eigenvalues_4=
[ -1.40000000000000e-14 -6.00000000000000e-15 -4.00000000000000e-15 -4.00000000000000e-15 -3.00000000000000e-15 -3.00000000000000e-15 -2.00000000000000e-15 -2.00000000000000e-15 -2.00000000000000e-15 -1.00000000000000e-15 -1.00000000000000e-15 -1.00000000000000e-15 -1.00000000000000e-15 -1.00000000000000e-15 -1.00000000000000e-15 -1.00000000000000e-15 -1.00000000000000e-15 -1.00000000000000e-15 -1.00000000000000e-15 -1.00000000000000e-15 -1.00000000000000e-15 -1.00000000000000e-15 -1.00000000000000e-15 -1.00000000000000e-15 -1.00000000000000e-15 0 0 0 0 0 0 0 0 0 0 0 0 0 0 0 0 0 0 0 0 0 0 0 0 0 0 0 0 0 0 0 0 0 0 0 0 0 0 0 0 0 0 0 0 0 0 0 0 0 0 0 0 0 0 0 0 0 0 0 0 0 0 0 0 0 0 0 0 0 0 0 0 0 0 0 0 0 0 0 0 0 0 0 0 0 0 0 0 0 0 0 0 0 0 0 0 0 0 0 0 0 0 0 0 0 0 0 0 0 0 0 0 0 0 0 0 0 0 0 0 0 0 0 0 0 0 0 0 0 0 0 0 0 0 0 0 0 0 0 0 0 0 0 0 0 0 0 0 0 0 0 0 0 0 0 0 0 0 0 0 0 0 0 0 0 0 0 0 0 0 0 0 0 0 0 0 0 0 0 0 0 0 0 0 0 0 0 0 0 0 0 0 0 0 0 0 0 0 0 0 0 0 0 0 0 0 0 0 0 0 0 0 0 0 0 0 0 0 0 0 0 0 0 0 0 0 0 0 0 0 0 0 0 0 0 0 0 0 0 0 0 0 0 0 0 0 0 0 0 0 0 0 0 0 0 0 0 0 0 0 0 0 0 0 0 0 0 0 0 0 0 0 0 0 0 0 0 0 0 0 0 0 0 0 0 0 0 0 0 0 0 0 0 0 0 0 0 0 0 0 0 0 0 0 0 0 0 0 0 0 0 0 0 0 0 0 0 0 0 0 0 0 0 0 0 0 0 0 0 0 0 0 0 0 0 0 0 0 0 0 0 0 0 0 0 0 0 0 0 0 0 0 0 0 0 0 0 0 0 0 0 0 0 0 0 0 0 0 0 0 0 0 0 0 0 0 0 0 0 0 0 0 0 0 0 0 0 0 0 0 0 0 0 0 0 0 0 0 0 0 0 0 0 0 0 0 0 0 0 0 0 0 0 0 0 0 0 0 0 0 0 0 0 0 0 0 0 0 0 0 0 0 0 0 0 0 0 0 0 0 0 0 0 0 0 0 0 0 0 0 0 0 0 0 0 0 0 0 0 0 0 0 0 0 0 0 0 0 0 0 0 0 0 0 0 0 0 0 0 0 0 0 0 0 0 0 0 0 0 0 0 0 0 0 0 0 0 0 0 0 0 0 0 0 0 0 0 0 0 0 0 0 0 0 0 0 0 0 0 0 0 0 0 0 0 0 0 0 0 0 0 0 0 0 0 0 0 0 0 0 0 0 0 0 0 0 0 0 0 0 0 0 0 0 0 0 0 0 0 0 0 0 0 0 0 0 0 0 0 0 0 0 0 0 0 0 0 0 0 0 0 0 0 0 0 0 0 0 0 0 0 0 0 0 0 0 0 0 0 0 0 0 0 0 0 0 0 0 0 0 0 0 0 0 0 0 0 0 0 0 0 0 0 0 0 0 0 0 0 0 0 0 0 0 0 0 0 0 0 0 0 0 0 0 0 0 0 0 0 0 0 0 0 0 0 0 0 0 0 0 0 0 0 0 0 0 0 0 0 0 0 0 0 0 0 0 0 0 0 0 0 0 0 0 0 0 0 0 0 0 0 0 0 0 0 0 0 0 0 0 0 0 0 0 0 0 0 0 0 0 0 0 0 0 0 0 0 0 0 0 0 0 0 0 0 0 0 0 0 0 0 0 0 0 0 0 0 0 0 0 0 0 0 0 0 0 0 0 0 0 0 0 0 0 0 0 0 0 0 0 0 0 0 0 0 0 0 0 0 0 0 0 0 0 0 0 0 0 0 0 0 0 0 0 0 0 0 0 0 0 0 0 0 0 0 0 0 0 0 0 0 0 0 0 0 0 0 0 0 0 0 0 0 0 0 0 0 0 0 0 0 0 0 0 0 0 0 0 0 0 0 0 0 0 0 0 0 0 0 0 0 0 0 0 0 0 0 0 0 0 0 0 0 0 0 0 0 0 0 0 0 0 0 0 0 0 0 0 0 0 0 0 0 0 0 0 0 0 0 0 0 0 0 0 0 0 0 0 0 0 0 0 0 0 0 0 0 0 0 0 0 0 0 0 0 0 0 0 0 0 0 0 0 0 0 0 0 0 0 0 0 0 0 0 0 0 0 0 0 0 0 0 0 0 0 0 0 0 0 0 0 0 0 0 0 0 0 0 0 0 0 0 0 0 0 0 0 0 0 0 0 0 0 0 0 0 0 0 0 0 0 0 0 0 0 0 0 0 0 0 0 0 0 0 0 0 0 0 0 0 0 0 0 0 0 0 0 0 0 0 0 0 0 0 0 0 0 0 0 0 0 0 0 0 0 0 0 0 0 0 0 0 0 0 0 0 0 0 0 0 0 0 0 0 0 0 0 0 0 0 0 0 0 0 0 0 0 0 0 0 0 0 0 0 0 0 0 0 0 0 0 0 0 0 0 0 0 0 0 0 0 0 0 0 0 0 0 0 0 0 0 0 0 0 0 0 0 0 0 0 0 0 0 0 0 0 0 0 0 0 0 0 0 0 0 0 0 0 0 0 0 0 0 0 0 0 0 0 0 0 0 0 0 0 0 0 0 0 0 0 0 0 0 0 0 0 0 0 0 0 0 0 0 0 0 0 0 0 0 0 0 0 0 0 0 0 0 0 0 0 0 0 0 0 0 0 0 0 0 0 0 0 0 0 0 0 0 0 0 0 0 0 0 0 0 0 0 0 0 0 0 0 0 0 0 0 0 0 0 0 0 0 0 0 0 0 0 0 0 0 0 0 0 0 0 0 0 0 0 0 0 0 0 0 0 0 0 0 0 0 0 0 0 0 0 0 0 0 0 0 0 0 0 0 0 0 0 0 0 0 0 0 0 0 0 0 0 0 0 0 0 0 0 0 0 0 0 0 0 0 0 0 0 0 0 0 0 0 0 0 0 0 0 0 0 0 0 0 0 0 0 0 0 0 0 0 0 0 0 0 0 0 0 0 0 0 0 0 0 0 0 0 0 0 0 0 0 0 0 0 0 0 0 0 0 0 0 0 0 0 0 0 0 0 0 0 0 0 0 0 0 0 0 0 0 0 0 0 0 0 0 0 0 0 0 0 0 0 0 0 0 0 0 0 0 0 0 0 0 0 0 0 0 0 0 0 0 0 0 0 0 0 0 0 0 0 0 0 0 0 0 0 0 0 0 0 0 0 0 0 0 0 0 0 0 0 0 0 0 0 0 0 0 0 0 0 0 0 0 0 0 0 0 0 0 0 0 0 0 0 0 0 0 0 0 0 0 0 0 0 0 0 0 0 0 0 0 0 0 0 0 0 0 0 0 0 0 0 0 0 0 0 0 0 0 0 0 0 0 0 0 0 0 0 0 0 0 0 0 0 0 0 0 0 0 0 0 0 0 0 0 0 0 0 0 0 0 0 0 0 0 0 0 0 0 0 0 0 0 0 0 0 0 0 0 0 0 0 0 0 0 0 0 0 0 0 0 0 0 0 0 0 0 0 0 0 0 0 0 0 0 0 0 0 0 0 0 0 0 0 0 0 0 0 0 0 0 0 0 0 0 0 0 0 0 0 0 0 0 0 0 0 0 0 0 0 0 0 0 0 0 0 0 0 0 0 0 0 0 0 0 0 0 0 0 0 0 0 0 0 0 0 0 0 0 0 0 0 0 0 0 0 0 0 0 0 0 0 0 0 0 0 0 0 0 0 0 0 0 0 0 0 0 0 0 0 0 0 0 0 0 0 0 0 0 0 0 0 0 0 0 0 0 0 0 0 0 0 0 0 0 0 0 0 0 0 0 0 0 0 0 0 0 0 0 0 0 0 0 0 0 0 0 0 0 0 0 0 0 0 0 0 0 0 0 0 0 0 0 0 0 0 0 0 0 0 0 0 0 0 0 0 0 0 0 0 0 0 0 0 0 0 0 0 0 0 0 0 0 0 0 0 0 0 0 0 0 0 0 0 0 0 0 0 0 0 0 0 0 0 0 0 0 0 0 0 0 0 0 0 0 0 0 0 0 0 0 0 0 0 0 0 0 0 0 0 0 0 0 0 0 0 0 0 0 0 0 0 0 0 0 0 0 0 0 0 0 0 0 0 0 0 0 0 0 0 0 0 0 0 0 0 0 0 0 0 0 0 0 0 0 0 0 0 0 0 0 0 0 0 0 0 0 0 0 0 0 0 0 0 0 0 0 0 0 0 0 0 0 0 0 0 0 0 0 0 0 0 0 0 0 0 0 0 0 0 0 0 0 0 0 0 0 0 0 0 0 0 0 0 0 0 0 0 0 0 0 0 0 0 0 0 0 0 0 0 0 0 0 0 0 0 0 0 0 0 0 0 0 0 0 0 0 0 0 0 0 0 0 0 0 0 0 0 0 0 0 0 0 0 0 0 0 0 0 0 0 0 0 0 0 0 0 0 0 0 0 0 0 0 0 0 0 0 0 0 0 0 0 0 0 0 0 0 0 0 0 0 0 0 0 0 0 0 0 0 0 0 0 0 0 0 0 0 0 0 0 0 0 0 0 0 0 0 0 0 0 0 0 0 0 0 0 0 0 0 0 0 0 0 0 0 0 0 0 0 0 0 0 0 0 0 0 0 0 0 0 0 0 0 0 0 0 0 0 0 0 0 0 0 0 0 0 0 0 0 0 0 0 0 0 0 0 0 0 0 0 0 0 0 0 0 0 0 0 0 0 0 0 0 0 0 0 0 0 0 0 0 0 0 0 0 0 0 0 0 0 0 0 0 0 0 0 0 0 0 0 0 0 0 0 0 0 0 0 0 0 0 0 0 0 0 0 0 0 0 0 0 0 0 0 0 0 0 0 0 0 0 0 0 0 0 0 0 0 0 0 0 0 0 0 0 0 0 0 0 0 0 0 0 0 0 0 0 0 0 0 0 0 0 0 0 0 0 0 0 0 0 0 0 0 0 0 0 0 0 0 0 0 0 0 0 0 0 0 0 0 0 0 0 0 0 0 0 0 0 0 0 0 0 0 0 0 0 0 0 0 0 0 0 0 0 0 0 1.00000000000000e-15 1.00000000000000e-15 1.00000000000000e-15 1.00000000000000e-15 1.00000000000000e-15 1.00000000000000e-15 1.00000000000000e-15 1.00000000000000e-15 1.00000000000000e-15 1.00000000000000e-15 1.00000000000000e-15 1.00000000000000e-15 1.00000000000000e-15 1.00000000000000e-15 1.00000000000000e-15 1.00000000000000e-15 1.00000000000000e-15 1.00000000000000e-15 2.00000000000000e-15 3.00000000000000e-15 6.00000000000000e-15 8.00000000000000e-15 9.00000000000000e-15 1.00000000000000e-14 1.10000000000000e-14 2.81967096500000e-06 2.81967096700000e-06 2.81967096700000e-06 2.81967096800000e-06 4.06601317200000e-06 4.06677764100000e-06 4.06677764500000e-06 4.06754652500000e-06 4.41903443300000e-06 4.42008413300000e-06 4.42008413400000e-06 4.42112948100000e-06 1.06924955590000e-05 1.06924955620000e-05 1.06924955650000e-05 1.06924955730000e-05 1.72468377380000e-05 1.72711277970000e-05 1.72711277970000e-05 1.72961349400000e-05 1.93254765620000e-05 1.93571698720000e-05 1.93571698730000e-05 1.93881553940000e-05 2.76204841720000e-05 2.76204876140000e-05 2.76204876150000e-05 2.76204910670000e-05 5.39304643820000e-05 5.40479208960000e-05 5.40479208970000e-05 5.41697172790000e-05 5.77562100620000e-05 5.77603546980000e-05 5.77603547000000e-05 5.77651746470000e-05 6.07207003470000e-05 6.08585046370000e-05 6.08585046370000e-05 6.09913001780000e-05 0.000104207465719000 0.000104209282369000 0.000104209282372000 0.000104211104323000 0.000162467665150000 0.000162513265086000 0.000162513265086000 0.000162560607546000 0.000173772042861000 0.000174298930906000 0.000174298930908000 0.000174973463457000 0.000177750448730000 0.000178325145005000 0.000178325145008000 0.000178750461886000 0.000292817313081000 0.000292837622693000 0.000292837622696000 0.000292857871817000 0.000429787950633000 0.000431715123305000 0.000431715123307000 0.000434129183483000 0.000450860035072000 0.000453582248436000 0.000453582248436000 0.000455824489532000 0.000497356621522000 0.000497497249683000 0.000497497249685000 0.000497631330555000 0.000839809262905000 0.000839829166946000 0.000839829166947000 0.000839848938612000 0.00110520118032400 0.00111079434973000 0.00111079434973200 0.00112082427109500 0.00113036994967100 0.00114036745204400 0.00114036745204700 0.00114592809265700 0.00139765698331500 0.00139766578109500 0.00139766578109600 0.00139767452863000 0.00227420286367300 0.00227420328998100 0.00227420328998400 0.00227420371582300 0.00328234687814200 0.00328769988736400 0.00328769988736700 0.00329529082811500 0.00331807358473700 0.00332554541240700 0.00332554541241200 0.00333077926584700 0.00367198131872000 0.00367198151620400 0.00367198151620600 0.00367198171311300 0.00604580376143400 0.00604580380350800 0.00604580380351100 0.00604580384559000 0.0102403531548900 0.0102403531732620 0.0102403531732620 0.0102403531916360 0.0177227620923650 0.0177227621042610 0.0177227621042630 0.0177227621161590 0.0219924929656120 0.0219924929656130 0.0219924929656130 0.0219924929656130 0.0330124562102790 0.0330124562102790 0.0330124562102790 0.0330124562102790 0.0404657035185210 0.0404657035207070 0.0404657035207070 0.0404657035228930 0.0431537235720850 0.0431541598928550 0.0431541598928550 0.0431545966707070 0.0450789772023210 0.0450804782152820 0.0450804782152820 0.0450819797362570 0.0457228297562710 0.0457228417136970 0.0457228417136980 0.0457228537351750 0.0480987411239160 0.0480988065669460 0.0480988065669460 0.0480988722669360 0.0497529820142740 0.0497529969932840 0.0497529969932840 0.0497530121777200 0.0510702253853800 0.0510909060138780 0.0510909060138780 0.0511123420265990 0.0523031086700580 0.0523032313974890 0.0523032313974900 0.0523033374506790 0.0533023980125900 0.0534258217346370 0.0534258217346380 0.0535947447934890 0.0537995612944550 0.0538058451568170 0.0538058451568170 0.0538074802182830 0.0544095646869230 0.0546937010328240 0.0546937010328240 0.0549549363453170 0.0549591718468790 0.0549596981410290 0.0549596981410300 0.0550491774914240 0.0556434261233670 0.0560427488160930 0.0560427488160930 0.0563196550476770 0.0563210562692150 0.0563213820739210 0.0563213820739220 0.0565733142980090 0.0567050289778730 0.0572210945808010 0.0572210945808010 0.0574815040862350 0.0574822096868070 0.0574823729314930 0.0574823729314930 0.0577019446374770 0.0578306060004280 0.0582641241454870 0.0582641241454870 0.0584232216020160 0.0584235363920740 0.0584236802565990 0.0584236802566000 0.0586569429271220 0.0587724361045740 0.0591186336212350 0.0591186336212350 0.0591582760216960 0.0591584487079190 0.0591588796361620 0.0591588796361630 0.0594639815131190 0.0594835682404120 0.0595642360128970 0.0595642360128970 0.0595642457170450 0.0595644399230940 0.0597886141987440 0.0597886141987450 0.0599498545011080 0.0599501758385040 0.0599502218643980 0.0599502218643980 0.0600623497728820 0.0600691684807910 0.0603063650378340 0.0603063650378340 0.0604585227843360 0.0604601472457810 0.0604601979897830 0.0604601979897840 0.0604777929977410 0.0605696399130620 0.0606950431694130 0.0606950431694130 0.0606954205913990 0.0606954973932490 0.0607041593557490 0.0607041593557490 0.0607964855430040 0.0609784336135860 0.0609940751768130 0.0609940751768130 0.0609941020548090 0.0609943039985260 0.0610407293922110 0.0610407293922110 0.0610911350603970 0.0611396047390990 0.0611396270128600 0.0611396270128600 0.0611397013731520 0.0612933877683890 0.0613255355351510 0.0613255355351510 0.0613506978628330 0.0613518876209200 0.0613519849970380 0.0613519849970390 0.0613562115728100 0.0614468808652820 0.0614469935232000 0.0614469935232000 0.0614472229938960 0.0615258716207160 0.0615420874559770 0.0615420874559780 0.0615426042698910 0.0615429169321490 0.0615474268881420 0.0615474268881420 0.0615666264736920 0.0616599953791600 0.0616601358993890 0.0616601358993900 0.0616604370304860 0.0616931353206930 0.0617037325946260 0.0617037325946260 0.0617099155161450 0.0617226104370460 0.0617260285444050 0.0617260285444060 0.0617324035671920 0.0617865232378130 0.0617882288464630 0.0617882288464630 0.0617906425827790 0.0618043698280870 0.0618065018821700 0.0618065018821710 0.0618151887857120 0.0618263010399720 0.0618501482919780 0.0618501482919780 0.0618714601808860 0.0618827539538180 0.0618828113052390 0.0618828113052390 0.0618832415375670 0.0619098906543120 0.0619288891469460 0.0619288891469460 0.0619454787963820 0.0619568455591280 0.0619568649320470 0.0619568649320470 0.0619569674792720 0.0619828098516840 0.0619954217177650 0.0619954217177650 0.0620009413799540 0.0620010186689840 0.0620010589734080 0.0620010589734090 0.0620076183041310 0.0620250425783020 0.0620316356317250 0.0620316356317250 0.0620356237514960 0.0620518099503890 0.0620518100806170 0.0620518100806170 0.0620518102434770 0.0621103246845160 0.0621103246846370 0.0621103246846370 0.0621103246847620 0.0621646905752510 0.0621646905753710 0.0621646905753710 0.0621646905755170 0.0621711477844630 0.0621721513310990 0.0621721513310990 0.0621732887987480 0.0621881220129410 0.0621894726305430 0.0621894726305430 0.0621907109687550 0.0622143301025160 0.0622143301029480 0.0622143301029480 0.0622143301037480 0.0622155828109580 0.0622160723875800 0.0622160723875800 0.0622165398365090 0.0622493334579020 0.0622494361093970 0.0622494361093970 0.0622495378001410 0.0622601773613940 0.0622601773614030 0.0622601773614030 0.0622601773614120 0.0622814296145610 0.0622814521294130 0.0622814521294130 0.0622814745985590 0.0623087485120250 0.0623087543910060 0.0623087543910060 0.0623087602667680 0.0623310423796420 0.0623310441929660 0.0623310441929660 0.0623310460059640 0.0623488854513860 0.0623488860960470 0.0623488860960470 0.0623488867406630 0.0623629789625980 0.0623629792212740 0.0623629792212740 0.0623629794799420 0.0623739509385780 0.0623739510538240 0.0623739510538240 0.0623739511690690 0.0623823098935460 0.0623823099494060 0.0623823099494060 0.0623823100052660 0.0623884453346040 0.0623884453625700 0.0623884453625700 0.0623884453905350 0.0623926403454760 0.0623926403579830 0.0623926403579830 0.0623926403704890 0.0623950848702720 0.0623950848735660 0.0623950848735670 0.0623950848768610 ]
;
