<?xml version="1.0"?>
<VTKFile type="UnstructuredGrid" byte_order="LittleEndian">
	<UnstructuredGrid>
		<Piece NumberOfPoints="64" NumberOfCells="16">
			<Points>
				<DataArray type="Float64" NumberOfComponents="3" format="ascii">
					-1.000000000000000e+00 1.000000000000000e+00 0.000000000000000e+00
					-8.338955762008279e-01 8.338955762008279e-01 0.000000000000000e+00
					-5.000000000000000e-01 1.375000000000000e+00 0.000000000000000e+00
					-4.169477881004139e-01 1.044834482450828e+00 0.000000000000000e+00
					-8.338955762008279e-01 8.338955762008279e-01 0.000000000000000e+00
					-6.951941016011038e-01 6.951941016011038e-01 0.000000000000000e+00
					-4.169477881004139e-01 1.044834482450828e+00 0.000000000000000e+00
					-3.475970508005519e-01 7.889459766011040e-01 0.000000000000000e+00
					-6.951941016011038e-01 6.951941016011038e-01 0.000000000000000e+00
					-5.838955762008279e-01 5.838955762008279e-01 0.000000000000000e+00
					-3.475970508005519e-01 7.889459766011040e-01 0.000000000000000e+00
					-2.919477881004139e-01 6.073344824508279e-01 0.000000000000000e+00
					-5.838955762008279e-01 5.838955762008279e-01 0.000000000000000e+00
					-5.000000000000000e-01 5.000000000000000e-01 0.000000000000000e+00
					-2.919477881004139e-01 6.073344824508279e-01 0.000000000000000e+00
					-2.500000000000000e-01 5.000000000000000e-01 0.000000000000000e+00
					-5.000000000000000e-01 1.375000000000000e+00 0.000000000000000e+00
					-4.169477881004139e-01 1.044834482450828e+00 0.000000000000000e+00
					5.551115123125783e-17 1.500000000000000e+00 0.000000000000000e+00
					5.551115123125783e-17 1.115147451200828e+00 0.000000000000000e+00
					-4.169477881004139e-01 1.044834482450828e+00 0.000000000000000e+00
					-3.475970508005519e-01 7.889459766011040e-01 0.000000000000000e+00
					5.551115123125783e-17 1.115147451200828e+00 0.000000000000000e+00
					4.163336342344337e-17 8.201966016011041e-01 0.000000000000000e+00
					-3.475970508005519e-01 7.889459766011040e-01 0.000000000000000e+00
					-2.919477881004139e-01 6.073344824508279e-01 0.000000000000000e+00
					4.163336342344337e-17 8.201966016011041e-01 0.000000000000000e+00
					4.163336342344337e-17 6.151474512008279e-01 0.000000000000000e+00
					-2.919477881004139e-01 6.073344824508279e-01 0.000000000000000e+00
					-2.500000000000000e-01 5.000000000000000e-01 0.000000000000000e+00
					4.163336342344337e-17 6.151474512008279e-01 0.000000000000000e+00
					2.775557561562891e-17 5.000000000000000e-01 0.000000000000000e+00
					5.551115123125783e-17 1.500000000000000e+00 0.000000000000000e+00
					5.551115123125783e-17 1.115147451200828e+00 0.000000000000000e+00
					5.000000000000000e-01 1.375000000000000e+00 0.000000000000000e+00
					4.169477881004139e-01 1.044834482450828e+00 0.000000000000000e+00
					5.551115123125783e-17 1.115147451200828e+00 0.000000000000000e+00
					4.163336342344337e-17 8.201966016011041e-01 0.000000000000000e+00
					4.169477881004139e-01 1.044834482450828e+00 0.000000000000000e+00
					3.475970508005519e-01 7.889459766011040e-01 0.000000000000000e+00
					4.163336342344337e-17 8.201966016011041e-01 0.000000000000000e+00
					4.163336342344337e-17 6.151474512008279e-01 0.000000000000000e+00
					3.475970508005519e-01 7.889459766011040e-01 0.000000000000000e+00
					2.919477881004139e-01 6.073344824508279e-01 0.000000000000000e+00
					4.163336342344337e-17 6.151474512008279e-01 0.000000000000000e+00
					2.775557561562891e-17 5.000000000000000e-01 0.000000000000000e+00
					2.919477881004139e-01 6.073344824508279e-01 0.000000000000000e+00
					2.500000000000000e-01 5.000000000000000e-01 0.000000000000000e+00
					5.000000000000000e-01 1.375000000000000e+00 0.000000000000000e+00
					4.169477881004139e-01 1.044834482450828e+00 0.000000000000000e+00
					1.000000000000000e+00 1.000000000000000e+00 0.000000000000000e+00
					8.338955762008279e-01 8.338955762008279e-01 0.000000000000000e+00
					4.169477881004139e-01 1.044834482450828e+00 0.000000000000000e+00
					3.475970508005519e-01 7.889459766011040e-01 0.000000000000000e+00
					8.338955762008279e-01 8.338955762008279e-01 0.000000000000000e+00
					6.951941016011038e-01 6.951941016011038e-01 0.000000000000000e+00
					3.475970508005519e-01 7.889459766011040e-01 0.000000000000000e+00
					2.919477881004139e-01 6.073344824508279e-01 0.000000000000000e+00
					6.951941016011038e-01 6.951941016011038e-01 0.000000000000000e+00
					5.838955762008279e-01 5.838955762008279e-01 0.000000000000000e+00
					2.919477881004139e-01 6.073344824508279e-01 0.000000000000000e+00
					2.500000000000000e-01 5.000000000000000e-01 0.000000000000000e+00
					5.838955762008279e-01 5.838955762008279e-01 0.000000000000000e+00
					5.000000000000000e-01 5.000000000000000e-01 0.000000000000000e+00
				</DataArray>
			</Points>
			<Cells>
				<DataArray Name="connectivity" type="UInt32" format="ascii">
					0 1 3 2 4 5 7 6 8 9 11 10 12 13 15 14 16 17 19 18 20 21 23 22 24 25 27 26 28 29 31 30 32 33 35 34 36 37 39 38 40 41 43 42 44 45 47 46 48 49 51 50 52 53 55 54 56 57 59 58 60 61 63 62 
				</DataArray>
				<DataArray Name="offsets" type="UInt32" format="ascii">
					4 8 12 16 20 24 28 32 36 40 44 48 52 56 60 64 
				</DataArray>
				<DataArray Name="types" type="UInt8" format="ascii">
					9 9 9 9 9 9 9 9 9 9 9 9 9 9 9 9 
				</DataArray>
			</Cells>
			<PointData Vectors="solution ">
				<DataArray Name="solution" type="Float64" NumberOfComponents="1" format="ascii">
					0.000000000000000e+00 3.584857921754075e-01 0.000000000000000e+00 2.390947007700181e+00 3.584857921754075e-01 2.931384754108025e+00 2.390947007700181e+00 1.203603373479124e+01 2.931384754108025e+00 7.425397603493664e+00 1.203603373479124e+01 2.097568290138925e+01 7.425397603493664e+00 1.193217619375943e+01 2.097568290138925e+01 2.572329713986927e+01 0.000000000000000e+00 2.390947007700181e+00 0.000000000000000e+00 5.712254318968216e+00 2.390947007700181e+00 1.203603373479124e+01 5.712254318968216e+00 2.359078908693679e+01 1.203603373479124e+01 2.097568290138925e+01 2.359078908693679e+01 3.538574574286613e+01 2.097568290138925e+01 2.572329713986927e+01 3.538574574286613e+01 3.886666326751767e+01 0.000000000000000e+00 5.712254318968216e+00 0.000000000000000e+00 5.528322074397040e+00 5.712254318968216e+00 2.359078908693679e+01 5.528322074397040e+00 2.414706891729921e+01 2.359078908693679e+01 3.538574574286613e+01 2.414706891729921e+01 3.762401177098282e+01 3.538574574286613e+01 3.886666326751767e+01 3.762401177098282e+01 4.242890509071717e+01 0.000000000000000e+00 5.528322074397040e+00 0.000000000000000e+00 1.965340560417340e+00 5.528322074397040e+00 2.414706891729921e+01 1.965340560417340e+00 1.184815589091514e+01 2.414706891729921e+01 3.762401177098282e+01 1.184815589091514e+01 2.389783822611933e+01 3.762401177098282e+01 4.242890509071717e+01 2.389783822611933e+01 3.243991578077316e+01 
				</DataArray>
			</PointData>
			<CellData>
			</CellData>
		</Piece>
	</UnstructuredGrid>
</VTKFile>